{
    "_links": {
        "comments": {
            "href": "https://api.github.com/repos/PrismarineJS/prismarine-proxy/issues/16/comments"
        },
        "commits": {
            "href": "https://api.github.com/repos/PrismarineJS/prismarine-proxy/pulls/16/commits"
        },
        "html": {
            "href": "https://github.com/PrismarineJS/prismarine-proxy/pull/16"
        },
        "issue": {
            "href": "https://api.github.com/repos/PrismarineJS/prismarine-proxy/issues/16"
        },
        "review_comment": {
            "href": "https://api.github.com/repos/PrismarineJS/prismarine-proxy/pulls/comments{/number}"
        },
        "review_comments": {
            "href": "https://api.github.com/repos/PrismarineJS/prismarine-proxy/pulls/16/comments"
        },
        "self": {
            "href": "https://api.github.com/repos/PrismarineJS/prismarine-proxy/pulls/16"
        },
        "statuses": {
            "href": "https://api.github.com/repos/PrismarineJS/prismarine-proxy/statuses/b1fbf3334e57fc29148cab3e47724707bd926ae5"
        }
    },
    "active_lock_reason": null,
    "additions": 3,
    "assignee": null,
    "assignees": [],
    "author_association": "MEMBER",
    "auto_merge": null,
    "base": {
        "label": "PrismarineJS:master",
        "ref": "master",
        "repo": {
            "allow_forking": true,
            "archive_url": "https://api.github.com/repos/PrismarineJS/prismarine-proxy/{archive_format}{/ref}",
            "archived": false,
            "assignees_url": "https://api.github.com/repos/PrismarineJS/prismarine-proxy/assignees{/user}",
            "blobs_url": "https://api.github.com/repos/PrismarineJS/prismarine-proxy/git/blobs{/sha}",
            "branches_url": "https://api.github.com/repos/PrismarineJS/prismarine-proxy/branches{/branch}",
            "clone_url": "https://github.com/PrismarineJS/prismarine-proxy.git",
            "collaborators_url": "https://api.github.com/repos/PrismarineJS/prismarine-proxy/collaborators{/collaborator}",
            "comments_url": "https://api.github.com/repos/PrismarineJS/prismarine-proxy/comments{/number}",
            "commits_url": "https://api.github.com/repos/PrismarineJS/prismarine-proxy/commits{/sha}",
            "compare_url": "https://api.github.com/repos/PrismarineJS/prismarine-proxy/compare/{base}...{head}",
            "contents_url": "https://api.github.com/repos/PrismarineJS/prismarine-proxy/contents/{+path}",
            "contributors_url": "https://api.github.com/repos/PrismarineJS/prismarine-proxy/contributors",
            "created_at": "2020-07-05T23:16:26Z",
            "default_branch": "master",
            "deployments_url": "https://api.github.com/repos/PrismarineJS/prismarine-proxy/deployments",
            "description": "Provide features to build proxies using Prismarine modules",
            "disabled": false,
            "downloads_url": "https://api.github.com/repos/PrismarineJS/prismarine-proxy/downloads",
            "events_url": "https://api.github.com/repos/PrismarineJS/prismarine-proxy/events",
            "fork": false,
            "forks": 9,
            "forks_count": 9,
            "forks_url": "https://api.github.com/repos/PrismarineJS/prismarine-proxy/forks",
            "full_name": "PrismarineJS/prismarine-proxy",
            "git_commits_url": "https://api.github.com/repos/PrismarineJS/prismarine-proxy/git/commits{/sha}",
            "git_refs_url": "https://api.github.com/repos/PrismarineJS/prismarine-proxy/git/refs{/sha}",
            "git_tags_url": "https://api.github.com/repos/PrismarineJS/prismarine-proxy/git/tags{/sha}",
            "git_url": "git://github.com/PrismarineJS/prismarine-proxy.git",
            "has_discussions": false,
            "has_downloads": true,
            "has_issues": true,
            "has_pages": false,
            "has_projects": true,
            "has_wiki": true,
            "homepage": null,
            "hooks_url": "https://api.github.com/repos/PrismarineJS/prismarine-proxy/hooks",
            "html_url": "https://github.com/PrismarineJS/prismarine-proxy",
            "id": 277399027,
            "is_template": false,
            "issue_comment_url": "https://api.github.com/repos/PrismarineJS/prismarine-proxy/issues/comments{/number}",
            "issue_events_url": "https://api.github.com/repos/PrismarineJS/prismarine-proxy/issues/events{/number}",
            "issues_url": "https://api.github.com/repos/PrismarineJS/prismarine-proxy/issues{/number}",
            "keys_url": "https://api.github.com/repos/PrismarineJS/prismarine-proxy/keys{/key_id}",
            "labels_url": "https://api.github.com/repos/PrismarineJS/prismarine-proxy/labels{/name}",
            "language": "JavaScript",
            "languages_url": "https://api.github.com/repos/PrismarineJS/prismarine-proxy/languages",
            "license": {
                "key": "mit",
                "name": "MIT License",
                "node_id": "MDc6TGljZW5zZTEz",
                "spdx_id": "MIT",
                "url": "https://api.github.com/licenses/mit"
            },
            "merges_url": "https://api.github.com/repos/PrismarineJS/prismarine-proxy/merges",
            "milestones_url": "https://api.github.com/repos/PrismarineJS/prismarine-proxy/milestones{/number}",
            "mirror_url": null,
            "name": "prismarine-proxy",
            "node_id": "MDEwOlJlcG9zaXRvcnkyNzczOTkwMjc=",
            "notifications_url": "https://api.github.com/repos/PrismarineJS/prismarine-proxy/notifications{?since,all,participating}",
            "open_issues": 9,
            "open_issues_count": 9,
            "owner": {
                "avatar_url": "https://avatars.githubusercontent.com/u/11053411?v=4",
                "events_url": "https://api.github.com/users/PrismarineJS/events{/privacy}",
                "followers_url": "https://api.github.com/users/PrismarineJS/followers",
                "following_url": "https://api.github.com/users/PrismarineJS/following{/other_user}",
                "gists_url": "https://api.github.com/users/PrismarineJS/gists{/gist_id}",
                "gravatar_id": "",
                "html_url": "https://github.com/PrismarineJS",
                "id": 11053411,
                "login": "PrismarineJS",
                "node_id": "MDEyOk9yZ2FuaXphdGlvbjExMDUzNDEx",
                "organizations_url": "https://api.github.com/users/PrismarineJS/orgs",
                "received_events_url": "https://api.github.com/users/PrismarineJS/received_events",
                "repos_url": "https://api.github.com/users/PrismarineJS/repos",
                "site_admin": false,
                "starred_url": "https://api.github.com/users/PrismarineJS/starred{/owner}{/repo}",
                "subscriptions_url": "https://api.github.com/users/PrismarineJS/subscriptions",
                "type": "Organization",
                "url": "https://api.github.com/users/PrismarineJS"
            },
            "private": false,
            "pulls_url": "https://api.github.com/repos/PrismarineJS/prismarine-proxy/pulls{/number}",
            "pushed_at": "2023-03-04T18:11:42Z",
            "releases_url": "https://api.github.com/repos/PrismarineJS/prismarine-proxy/releases{/id}",
            "size": 40,
            "ssh_url": "git@github.com:PrismarineJS/prismarine-proxy.git",
            "stargazers_count": 24,
            "stargazers_url": "https://api.github.com/repos/PrismarineJS/prismarine-proxy/stargazers",
            "statuses_url": "https://api.github.com/repos/PrismarineJS/prismarine-proxy/statuses/{sha}",
            "subscribers_url": "https://api.github.com/repos/PrismarineJS/prismarine-proxy/subscribers",
            "subscription_url": "https://api.github.com/repos/PrismarineJS/prismarine-proxy/subscription",
            "svn_url": "https://github.com/PrismarineJS/prismarine-proxy",
            "tags_url": "https://api.github.com/repos/PrismarineJS/prismarine-proxy/tags",
            "teams_url": "https://api.github.com/repos/PrismarineJS/prismarine-proxy/teams",
            "topics": [],
            "trees_url": "https://api.github.com/repos/PrismarineJS/prismarine-proxy/git/trees{/sha}",
            "updated_at": "2023-04-04T14:44:37Z",
            "url": "https://api.github.com/repos/PrismarineJS/prismarine-proxy",
            "visibility": "public",
            "watchers": 24,
            "watchers_count": 24,
            "web_commit_signoff_required": false
        },
        "sha": "732b97c9eb7848549989c0eb2d41a8c6113e279f",
        "user": {
            "avatar_url": "https://avatars.githubusercontent.com/u/11053411?v=4",
            "events_url": "https://api.github.com/users/PrismarineJS/events{/privacy}",
            "followers_url": "https://api.github.com/users/PrismarineJS/followers",
            "following_url": "https://api.github.com/users/PrismarineJS/following{/other_user}",
            "gists_url": "https://api.github.com/users/PrismarineJS/gists{/gist_id}",
            "gravatar_id": "",
            "html_url": "https://github.com/PrismarineJS",
            "id": 11053411,
            "login": "PrismarineJS",
            "node_id": "MDEyOk9yZ2FuaXphdGlvbjExMDUzNDEx",
            "organizations_url": "https://api.github.com/users/PrismarineJS/orgs",
            "received_events_url": "https://api.github.com/users/PrismarineJS/received_events",
            "repos_url": "https://api.github.com/users/PrismarineJS/repos",
            "site_admin": false,
            "starred_url": "https://api.github.com/users/PrismarineJS/starred{/owner}{/repo}",
            "subscriptions_url": "https://api.github.com/users/PrismarineJS/subscriptions",
            "type": "Organization",
            "url": "https://api.github.com/users/PrismarineJS"
        }
    },
    "body": null,
    "changed_files": 1,
    "closed_at": "2021-09-27T14:02:20Z",
    "comment_data": [],
    "comment_regular_data": [],
    "comments": 0,
    "comments_url": "https://api.github.com/repos/PrismarineJS/prismarine-proxy/issues/16/comments",
    "commit_data": [
        {
            "author": {
                "avatar_url": "https://avatars.githubusercontent.com/u/43508353?v=4",
                "events_url": "https://api.github.com/users/u9g/events{/privacy}",
                "followers_url": "https://api.github.com/users/u9g/followers",
                "following_url": "https://api.github.com/users/u9g/following{/other_user}",
                "gists_url": "https://api.github.com/users/u9g/gists{/gist_id}",
                "gravatar_id": "",
                "html_url": "https://github.com/u9g",
                "id": 43508353,
                "login": "u9g",
                "node_id": "MDQ6VXNlcjQzNTA4MzUz",
                "organizations_url": "https://api.github.com/users/u9g/orgs",
                "received_events_url": "https://api.github.com/users/u9g/received_events",
                "repos_url": "https://api.github.com/users/u9g/repos",
                "site_admin": false,
                "starred_url": "https://api.github.com/users/u9g/starred{/owner}{/repo}",
                "subscriptions_url": "https://api.github.com/users/u9g/subscriptions",
                "type": "User",
                "url": "https://api.github.com/users/u9g"
            },
            "comments_url": "https://api.github.com/repos/PrismarineJS/prismarine-proxy/commits/b1fbf3334e57fc29148cab3e47724707bd926ae5/comments",
            "commit": {
                "author": {
                    "date": "2021-09-27T13:54:12Z",
                    "email": "43508353+u9g@users.noreply.github.com",
                    "name": "u9g"
                },
                "comment_count": 0,
                "committer": {
                    "date": "2021-09-27T13:54:12Z",
                    "email": "noreply@github.com",
                    "name": "GitHub"
                },
                "message": "Release 1.0.0",
                "tree": {
                    "sha": "fac2879dde920102029f6a5161230150378a5fc8",
                    "url": "https://api.github.com/repos/PrismarineJS/prismarine-proxy/git/trees/fac2879dde920102029f6a5161230150378a5fc8"
                },
                "url": "https://api.github.com/repos/PrismarineJS/prismarine-proxy/git/commits/b1fbf3334e57fc29148cab3e47724707bd926ae5",
                "verification": {
                    "payload": "tree fac2879dde920102029f6a5161230150378a5fc8\nparent 732b97c9eb7848549989c0eb2d41a8c6113e279f\nauthor u9g <43508353+u9g@users.noreply.github.com> 1632750852 -0400\ncommitter GitHub <noreply@github.com> 1632750852 -0400\n\nRelease 1.0.0",
                    "reason": "valid",
                    "signature": "-----BEGIN PGP SIGNATURE-----\n\nwsBcBAABCAAQBQJhUc0ECRBK7hj4Ov3rIwAAMJ8IAJtjnqaNofLVV1HVFRxiL5JZ\npXZLFLcp7g+vw7QuzUAfPtNnvd5vZ5NHVyJhT+96rP794c1fmgQkD10EiQQ3iWmM\nRwqqWvKsmteqto3ETcdwd0YSRrAg+qOpixRPfQxrIuQ+XJbtqDETItz1IZ9FZ3t4\nIKZL28BUDYEl3qg4I2EVK0TxMwQbbAGy/oK5SMJpDC5csA9rodRrhhD46USqTCoB\nmiRNQaw754cbZD5uUyAPL+mqdL53llRp6jOlCkwWsEUt/QUNTxLJEVBVDXsRoslK\nLBUxzEzlsnHK6R36eEUMcJ4ZgUt2ViPUfd//wD/M5NxvDD56Oz48qc/YYUctl6Y=\n=qRfv\n-----END PGP SIGNATURE-----\n",
                    "verified": true
                }
            },
            "committer": {
                "avatar_url": "https://avatars.githubusercontent.com/u/19864447?v=4",
                "events_url": "https://api.github.com/users/web-flow/events{/privacy}",
                "followers_url": "https://api.github.com/users/web-flow/followers",
                "following_url": "https://api.github.com/users/web-flow/following{/other_user}",
                "gists_url": "https://api.github.com/users/web-flow/gists{/gist_id}",
                "gravatar_id": "",
                "html_url": "https://github.com/web-flow",
                "id": 19864447,
                "login": "web-flow",
                "node_id": "MDQ6VXNlcjE5ODY0NDQ3",
                "organizations_url": "https://api.github.com/users/web-flow/orgs",
                "received_events_url": "https://api.github.com/users/web-flow/received_events",
                "repos_url": "https://api.github.com/users/web-flow/repos",
                "site_admin": false,
                "starred_url": "https://api.github.com/users/web-flow/starred{/owner}{/repo}",
                "subscriptions_url": "https://api.github.com/users/web-flow/subscriptions",
                "type": "User",
                "url": "https://api.github.com/users/web-flow"
            },
            "html_url": "https://github.com/PrismarineJS/prismarine-proxy/commit/b1fbf3334e57fc29148cab3e47724707bd926ae5",
            "node_id": "C_kwDOFncGYNoAKGIxZmJmMzMzNGU1N2ZjMjkxNDhjYWIzZTQ3NzI0NzA3YmQ5MjZhZTU",
            "parents": [
                {
                    "html_url": "https://github.com/PrismarineJS/prismarine-proxy/commit/732b97c9eb7848549989c0eb2d41a8c6113e279f",
                    "sha": "732b97c9eb7848549989c0eb2d41a8c6113e279f",
                    "url": "https://api.github.com/repos/PrismarineJS/prismarine-proxy/commits/732b97c9eb7848549989c0eb2d41a8c6113e279f"
                }
            ],
            "sha": "b1fbf3334e57fc29148cab3e47724707bd926ae5",
            "url": "https://api.github.com/repos/PrismarineJS/prismarine-proxy/commits/b1fbf3334e57fc29148cab3e47724707bd926ae5"
        }
    ],
    "commits": 1,
    "commits_url": "https://api.github.com/repos/PrismarineJS/prismarine-proxy/pulls/16/commits",
    "created_at": "2021-09-27T13:54:17Z",
    "deletions": 0,
    "diff_url": "https://github.com/PrismarineJS/prismarine-proxy/pull/16.diff",
    "draft": false,
    "head": {
        "label": "u9g:patch-2",
        "ref": "patch-2",
        "repo": {
            "allow_forking": true,
            "archive_url": "https://api.github.com/repos/u9g/prismarine-proxy/{archive_format}{/ref}",
            "archived": false,
            "assignees_url": "https://api.github.com/repos/u9g/prismarine-proxy/assignees{/user}",
            "blobs_url": "https://api.github.com/repos/u9g/prismarine-proxy/git/blobs{/sha}",
            "branches_url": "https://api.github.com/repos/u9g/prismarine-proxy/branches{/branch}",
            "clone_url": "https://github.com/u9g/prismarine-proxy.git",
            "collaborators_url": "https://api.github.com/repos/u9g/prismarine-proxy/collaborators{/collaborator}",
            "comments_url": "https://api.github.com/repos/u9g/prismarine-proxy/comments{/number}",
            "commits_url": "https://api.github.com/repos/u9g/prismarine-proxy/commits{/sha}",
            "compare_url": "https://api.github.com/repos/u9g/prismarine-proxy/compare/{base}...{head}",
            "contents_url": "https://api.github.com/repos/u9g/prismarine-proxy/contents/{+path}",
            "contributors_url": "https://api.github.com/repos/u9g/prismarine-proxy/contributors",
            "created_at": "2021-06-14T17:07:25Z",
            "default_branch": "master",
            "deployments_url": "https://api.github.com/repos/u9g/prismarine-proxy/deployments",
            "description": "Provide features to build proxies using Prismarine modules",
            "disabled": false,
            "downloads_url": "https://api.github.com/repos/u9g/prismarine-proxy/downloads",
            "events_url": "https://api.github.com/repos/u9g/prismarine-proxy/events",
            "fork": true,
            "forks": 0,
            "forks_count": 0,
            "forks_url": "https://api.github.com/repos/u9g/prismarine-proxy/forks",
            "full_name": "u9g/prismarine-proxy",
            "git_commits_url": "https://api.github.com/repos/u9g/prismarine-proxy/git/commits{/sha}",
            "git_refs_url": "https://api.github.com/repos/u9g/prismarine-proxy/git/refs{/sha}",
            "git_tags_url": "https://api.github.com/repos/u9g/prismarine-proxy/git/tags{/sha}",
            "git_url": "git://github.com/u9g/prismarine-proxy.git",
            "has_discussions": false,
            "has_downloads": true,
            "has_issues": false,
            "has_pages": false,
            "has_projects": true,
            "has_wiki": true,
            "homepage": null,
            "hooks_url": "https://api.github.com/repos/u9g/prismarine-proxy/hooks",
            "html_url": "https://github.com/u9g/prismarine-proxy",
            "id": 376899168,
            "is_template": false,
            "issue_comment_url": "https://api.github.com/repos/u9g/prismarine-proxy/issues/comments{/number}",
            "issue_events_url": "https://api.github.com/repos/u9g/prismarine-proxy/issues/events{/number}",
            "issues_url": "https://api.github.com/repos/u9g/prismarine-proxy/issues{/number}",
            "keys_url": "https://api.github.com/repos/u9g/prismarine-proxy/keys{/key_id}",
            "labels_url": "https://api.github.com/repos/u9g/prismarine-proxy/labels{/name}",
            "language": "JavaScript",
            "languages_url": "https://api.github.com/repos/u9g/prismarine-proxy/languages",
            "license": {
                "key": "mit",
                "name": "MIT License",
                "node_id": "MDc6TGljZW5zZTEz",
                "spdx_id": "MIT",
                "url": "https://api.github.com/licenses/mit"
            },
            "merges_url": "https://api.github.com/repos/u9g/prismarine-proxy/merges",
            "milestones_url": "https://api.github.com/repos/u9g/prismarine-proxy/milestones{/number}",
            "mirror_url": null,
            "name": "prismarine-proxy",
            "node_id": "MDEwOlJlcG9zaXRvcnkzNzY4OTkxNjg=",
            "notifications_url": "https://api.github.com/repos/u9g/prismarine-proxy/notifications{?since,all,participating}",
            "open_issues": 0,
            "open_issues_count": 0,
            "owner": {
                "avatar_url": "https://avatars.githubusercontent.com/u/43508353?v=4",
                "events_url": "https://api.github.com/users/u9g/events{/privacy}",
                "followers_url": "https://api.github.com/users/u9g/followers",
                "following_url": "https://api.github.com/users/u9g/following{/other_user}",
                "gists_url": "https://api.github.com/users/u9g/gists{/gist_id}",
                "gravatar_id": "",
                "html_url": "https://github.com/u9g",
                "id": 43508353,
                "login": "u9g",
                "node_id": "MDQ6VXNlcjQzNTA4MzUz",
                "organizations_url": "https://api.github.com/users/u9g/orgs",
                "received_events_url": "https://api.github.com/users/u9g/received_events",
                "repos_url": "https://api.github.com/users/u9g/repos",
                "site_admin": false,
                "starred_url": "https://api.github.com/users/u9g/starred{/owner}{/repo}",
                "subscriptions_url": "https://api.github.com/users/u9g/subscriptions",
                "type": "User",
                "url": "https://api.github.com/users/u9g"
            },
            "private": false,
            "pulls_url": "https://api.github.com/repos/u9g/prismarine-proxy/pulls{/number}",
            "pushed_at": "2022-06-10T05:26:10Z",
            "releases_url": "https://api.github.com/repos/u9g/prismarine-proxy/releases{/id}",
            "size": 42,
            "ssh_url": "git@github.com:u9g/prismarine-proxy.git",
            "stargazers_count": 0,
            "stargazers_url": "https://api.github.com/repos/u9g/prismarine-proxy/stargazers",
            "statuses_url": "https://api.github.com/repos/u9g/prismarine-proxy/statuses/{sha}",
            "subscribers_url": "https://api.github.com/repos/u9g/prismarine-proxy/subscribers",
            "subscription_url": "https://api.github.com/repos/u9g/prismarine-proxy/subscription",
            "svn_url": "https://github.com/u9g/prismarine-proxy",
            "tags_url": "https://api.github.com/repos/u9g/prismarine-proxy/tags",
            "teams_url": "https://api.github.com/repos/u9g/prismarine-proxy/teams",
            "topics": [],
            "trees_url": "https://api.github.com/repos/u9g/prismarine-proxy/git/trees{/sha}",
            "updated_at": "2022-03-24T11:56:26Z",
            "url": "https://api.github.com/repos/u9g/prismarine-proxy",
            "visibility": "public",
            "watchers": 0,
            "watchers_count": 0,
            "web_commit_signoff_required": false
        },
        "sha": "b1fbf3334e57fc29148cab3e47724707bd926ae5",
        "user": {
            "avatar_url": "https://avatars.githubusercontent.com/u/43508353?v=4",
            "events_url": "https://api.github.com/users/u9g/events{/privacy}",
            "followers_url": "https://api.github.com/users/u9g/followers",
            "following_url": "https://api.github.com/users/u9g/following{/other_user}",
            "gists_url": "https://api.github.com/users/u9g/gists{/gist_id}",
            "gravatar_id": "",
            "html_url": "https://github.com/u9g",
            "id": 43508353,
            "login": "u9g",
            "node_id": "MDQ6VXNlcjQzNTA4MzUz",
            "organizations_url": "https://api.github.com/users/u9g/orgs",
            "received_events_url": "https://api.github.com/users/u9g/received_events",
            "repos_url": "https://api.github.com/users/u9g/repos",
            "site_admin": false,
            "starred_url": "https://api.github.com/users/u9g/starred{/owner}{/repo}",
            "subscriptions_url": "https://api.github.com/users/u9g/subscriptions",
            "type": "User",
            "url": "https://api.github.com/users/u9g"
        }
    },
    "html_url": "https://github.com/PrismarineJS/prismarine-proxy/pull/16",
    "id": 743488575,
    "issue_url": "https://api.github.com/repos/PrismarineJS/prismarine-proxy/issues/16",
    "labels": [],
    "locked": false,
    "maintainer_can_modify": false,
    "merge_commit_sha": "dd4666a70550dd5e35cd5d603729c08e07d77a74",
    "mergeable": null,
    "mergeable_state": "unknown",
    "merged": true,
    "merged_at": "2021-09-27T14:02:20Z",
    "merged_by": {
        "avatar_url": "https://avatars.githubusercontent.com/u/2346494?v=4",
        "events_url": "https://api.github.com/users/rom1504/events{/privacy}",
        "followers_url": "https://api.github.com/users/rom1504/followers",
        "following_url": "https://api.github.com/users/rom1504/following{/other_user}",
        "gists_url": "https://api.github.com/users/rom1504/gists{/gist_id}",
        "gravatar_id": "",
        "html_url": "https://github.com/rom1504",
        "id": 2346494,
        "login": "rom1504",
        "node_id": "MDQ6VXNlcjIzNDY0OTQ=",
        "organizations_url": "https://api.github.com/users/rom1504/orgs",
        "received_events_url": "https://api.github.com/users/rom1504/received_events",
        "repos_url": "https://api.github.com/users/rom1504/repos",
        "site_admin": false,
        "starred_url": "https://api.github.com/users/rom1504/starred{/owner}{/repo}",
        "subscriptions_url": "https://api.github.com/users/rom1504/subscriptions",
        "type": "User",
        "url": "https://api.github.com/users/rom1504"
    },
    "milestone": null,
    "node_id": "PR_kwDOEIjF884sULw_",
    "number": 16,
    "patch_url": "https://github.com/PrismarineJS/prismarine-proxy/pull/16.patch",
    "rebaseable": null,
    "requested_reviewers": [],
    "requested_teams": [],
    "review_comment_url": "https://api.github.com/repos/PrismarineJS/prismarine-proxy/pulls/comments{/number}",
    "review_comments": 0,
    "review_comments_url": "https://api.github.com/repos/PrismarineJS/prismarine-proxy/pulls/16/comments",
    "state": "closed",
    "statuses_url": "https://api.github.com/repos/PrismarineJS/prismarine-proxy/statuses/b1fbf3334e57fc29148cab3e47724707bd926ae5",
    "title": "Release 1.0.0",
    "updated_at": "2021-09-27T14:02:20Z",
    "url": "https://api.github.com/repos/PrismarineJS/prismarine-proxy/pulls/16",
    "user": {
        "avatar_url": "https://avatars.githubusercontent.com/u/43508353?v=4",
        "events_url": "https://api.github.com/users/u9g/events{/privacy}",
        "followers_url": "https://api.github.com/users/u9g/followers",
        "following_url": "https://api.github.com/users/u9g/following{/other_user}",
        "gists_url": "https://api.github.com/users/u9g/gists{/gist_id}",
        "gravatar_id": "",
        "html_url": "https://github.com/u9g",
        "id": 43508353,
        "login": "u9g",
        "node_id": "MDQ6VXNlcjQzNTA4MzUz",
        "organizations_url": "https://api.github.com/users/u9g/orgs",
        "received_events_url": "https://api.github.com/users/u9g/received_events",
        "repos_url": "https://api.github.com/users/u9g/repos",
        "site_admin": false,
        "starred_url": "https://api.github.com/users/u9g/starred{/owner}{/repo}",
        "subscriptions_url": "https://api.github.com/users/u9g/subscriptions",
        "type": "User",
        "url": "https://api.github.com/users/u9g"
    }
}