{
    "_links": {
        "comments": {
            "href": "https://api.github.com/repos/PrismarineJS/node-minecraft-wrap/issues/75/comments"
        },
        "commits": {
            "href": "https://api.github.com/repos/PrismarineJS/node-minecraft-wrap/pulls/75/commits"
        },
        "html": {
            "href": "https://github.com/PrismarineJS/node-minecraft-wrap/pull/75"
        },
        "issue": {
            "href": "https://api.github.com/repos/PrismarineJS/node-minecraft-wrap/issues/75"
        },
        "review_comment": {
            "href": "https://api.github.com/repos/PrismarineJS/node-minecraft-wrap/pulls/comments{/number}"
        },
        "review_comments": {
            "href": "https://api.github.com/repos/PrismarineJS/node-minecraft-wrap/pulls/75/comments"
        },
        "self": {
            "href": "https://api.github.com/repos/PrismarineJS/node-minecraft-wrap/pulls/75"
        },
        "statuses": {
            "href": "https://api.github.com/repos/PrismarineJS/node-minecraft-wrap/statuses/747b468165beb864f34a20c3d5d34d89e80f4b91"
        }
    },
    "active_lock_reason": null,
    "additions": 1,
    "assignee": null,
    "assignees": [],
    "author_association": "CONTRIBUTOR",
    "auto_merge": null,
    "base": {
        "label": "PrismarineJS:master",
        "ref": "master",
        "repo": {
            "allow_forking": true,
            "archive_url": "https://api.github.com/repos/PrismarineJS/node-minecraft-wrap/{archive_format}{/ref}",
            "archived": false,
            "assignees_url": "https://api.github.com/repos/PrismarineJS/node-minecraft-wrap/assignees{/user}",
            "blobs_url": "https://api.github.com/repos/PrismarineJS/node-minecraft-wrap/git/blobs{/sha}",
            "branches_url": "https://api.github.com/repos/PrismarineJS/node-minecraft-wrap/branches{/branch}",
            "clone_url": "https://github.com/PrismarineJS/node-minecraft-wrap.git",
            "collaborators_url": "https://api.github.com/repos/PrismarineJS/node-minecraft-wrap/collaborators{/collaborator}",
            "comments_url": "https://api.github.com/repos/PrismarineJS/node-minecraft-wrap/comments{/number}",
            "commits_url": "https://api.github.com/repos/PrismarineJS/node-minecraft-wrap/commits{/sha}",
            "compare_url": "https://api.github.com/repos/PrismarineJS/node-minecraft-wrap/compare/{base}...{head}",
            "contents_url": "https://api.github.com/repos/PrismarineJS/node-minecraft-wrap/contents/{+path}",
            "contributors_url": "https://api.github.com/repos/PrismarineJS/node-minecraft-wrap/contributors",
            "created_at": "2015-09-14T16:00:05Z",
            "default_branch": "master",
            "deployments_url": "https://api.github.com/repos/PrismarineJS/node-minecraft-wrap/deployments",
            "description": "Download and wrap the vanilla minecraft server and client in node.js",
            "disabled": false,
            "downloads_url": "https://api.github.com/repos/PrismarineJS/node-minecraft-wrap/downloads",
            "events_url": "https://api.github.com/repos/PrismarineJS/node-minecraft-wrap/events",
            "fork": false,
            "forks": 6,
            "forks_count": 6,
            "forks_url": "https://api.github.com/repos/PrismarineJS/node-minecraft-wrap/forks",
            "full_name": "PrismarineJS/node-minecraft-wrap",
            "git_commits_url": "https://api.github.com/repos/PrismarineJS/node-minecraft-wrap/git/commits{/sha}",
            "git_refs_url": "https://api.github.com/repos/PrismarineJS/node-minecraft-wrap/git/refs{/sha}",
            "git_tags_url": "https://api.github.com/repos/PrismarineJS/node-minecraft-wrap/git/tags{/sha}",
            "git_url": "git://github.com/PrismarineJS/node-minecraft-wrap.git",
            "has_discussions": false,
            "has_downloads": true,
            "has_issues": true,
            "has_pages": false,
            "has_projects": true,
            "has_wiki": true,
            "homepage": "",
            "hooks_url": "https://api.github.com/repos/PrismarineJS/node-minecraft-wrap/hooks",
            "html_url": "https://github.com/PrismarineJS/node-minecraft-wrap",
            "id": 42459684,
            "is_template": false,
            "issue_comment_url": "https://api.github.com/repos/PrismarineJS/node-minecraft-wrap/issues/comments{/number}",
            "issue_events_url": "https://api.github.com/repos/PrismarineJS/node-minecraft-wrap/issues/events{/number}",
            "issues_url": "https://api.github.com/repos/PrismarineJS/node-minecraft-wrap/issues{/number}",
            "keys_url": "https://api.github.com/repos/PrismarineJS/node-minecraft-wrap/keys{/key_id}",
            "labels_url": "https://api.github.com/repos/PrismarineJS/node-minecraft-wrap/labels{/name}",
            "language": "JavaScript",
            "languages_url": "https://api.github.com/repos/PrismarineJS/node-minecraft-wrap/languages",
            "license": null,
            "merges_url": "https://api.github.com/repos/PrismarineJS/node-minecraft-wrap/merges",
            "milestones_url": "https://api.github.com/repos/PrismarineJS/node-minecraft-wrap/milestones{/number}",
            "mirror_url": null,
            "name": "node-minecraft-wrap",
            "node_id": "MDEwOlJlcG9zaXRvcnk0MjQ1OTY4NA==",
            "notifications_url": "https://api.github.com/repos/PrismarineJS/node-minecraft-wrap/notifications{?since,all,participating}",
            "open_issues": 11,
            "open_issues_count": 11,
            "owner": {
                "avatar_url": "https://avatars.githubusercontent.com/u/11053411?v=4",
                "events_url": "https://api.github.com/users/PrismarineJS/events{/privacy}",
                "followers_url": "https://api.github.com/users/PrismarineJS/followers",
                "following_url": "https://api.github.com/users/PrismarineJS/following{/other_user}",
                "gists_url": "https://api.github.com/users/PrismarineJS/gists{/gist_id}",
                "gravatar_id": "",
                "html_url": "https://github.com/PrismarineJS",
                "id": 11053411,
                "login": "PrismarineJS",
                "node_id": "MDEyOk9yZ2FuaXphdGlvbjExMDUzNDEx",
                "organizations_url": "https://api.github.com/users/PrismarineJS/orgs",
                "received_events_url": "https://api.github.com/users/PrismarineJS/received_events",
                "repos_url": "https://api.github.com/users/PrismarineJS/repos",
                "site_admin": false,
                "starred_url": "https://api.github.com/users/PrismarineJS/starred{/owner}{/repo}",
                "subscriptions_url": "https://api.github.com/users/PrismarineJS/subscriptions",
                "type": "Organization",
                "url": "https://api.github.com/users/PrismarineJS"
            },
            "private": false,
            "pulls_url": "https://api.github.com/repos/PrismarineJS/node-minecraft-wrap/pulls{/number}",
            "pushed_at": "2023-04-25T03:58:18Z",
            "releases_url": "https://api.github.com/repos/PrismarineJS/node-minecraft-wrap/releases{/id}",
            "size": 124,
            "ssh_url": "git@github.com:PrismarineJS/node-minecraft-wrap.git",
            "stargazers_count": 24,
            "stargazers_url": "https://api.github.com/repos/PrismarineJS/node-minecraft-wrap/stargazers",
            "statuses_url": "https://api.github.com/repos/PrismarineJS/node-minecraft-wrap/statuses/{sha}",
            "subscribers_url": "https://api.github.com/repos/PrismarineJS/node-minecraft-wrap/subscribers",
            "subscription_url": "https://api.github.com/repos/PrismarineJS/node-minecraft-wrap/subscription",
            "svn_url": "https://github.com/PrismarineJS/node-minecraft-wrap",
            "tags_url": "https://api.github.com/repos/PrismarineJS/node-minecraft-wrap/tags",
            "teams_url": "https://api.github.com/repos/PrismarineJS/node-minecraft-wrap/teams",
            "topics": [],
            "trees_url": "https://api.github.com/repos/PrismarineJS/node-minecraft-wrap/git/trees{/sha}",
            "updated_at": "2022-06-15T21:26:47Z",
            "url": "https://api.github.com/repos/PrismarineJS/node-minecraft-wrap",
            "visibility": "public",
            "watchers": 24,
            "watchers_count": 24,
            "web_commit_signoff_required": false
        },
        "sha": "d928a3527c303c95dc477dd1a4ca5944d0d44a2f",
        "user": {
            "avatar_url": "https://avatars.githubusercontent.com/u/11053411?v=4",
            "events_url": "https://api.github.com/users/PrismarineJS/events{/privacy}",
            "followers_url": "https://api.github.com/users/PrismarineJS/followers",
            "following_url": "https://api.github.com/users/PrismarineJS/following{/other_user}",
            "gists_url": "https://api.github.com/users/PrismarineJS/gists{/gist_id}",
            "gravatar_id": "",
            "html_url": "https://github.com/PrismarineJS",
            "id": 11053411,
            "login": "PrismarineJS",
            "node_id": "MDEyOk9yZ2FuaXphdGlvbjExMDUzNDEx",
            "organizations_url": "https://api.github.com/users/PrismarineJS/orgs",
            "received_events_url": "https://api.github.com/users/PrismarineJS/received_events",
            "repos_url": "https://api.github.com/users/PrismarineJS/repos",
            "site_admin": false,
            "starred_url": "https://api.github.com/users/PrismarineJS/starred{/owner}{/repo}",
            "subscriptions_url": "https://api.github.com/users/PrismarineJS/subscriptions",
            "type": "Organization",
            "url": "https://api.github.com/users/PrismarineJS"
        }
    },
    "body": "Bumps [mkdirp](https://github.com/isaacs/node-mkdirp) from 0.5.6 to 2.1.1.\n<details>\n<summary>Changelog</summary>\n<p><em>Sourced from <a href=\"https://github.com/isaacs/node-mkdirp/blob/main/CHANGELOG.md\">mkdirp's changelog</a>.</em></p>\n<blockquote>\n<h1>Changers Lorgs!</h1>\n<h2>2.1</h2>\n<p>Export CommonJS module without a <code>.default</code> dangly wart.  (A\nsynthetic <code>.default</code> has been added just in case anyone is already\nrelying on that from v2.0.)</p>\n<h2>2.0</h2>\n<p>Export hybrid module with TypeScript types.</p>\n<h2>1.0</h2>\n<p>Full rewrite. Essentially a brand new module.</p>\n<ul>\n<li>Return a promise instead of taking a callback.</li>\n<li>Use native <code>fs.mkdir(path, { recursive: true })</code> when available.</li>\n<li>Drop support for outdated Node.js versions. (Technically still works on\nNode.js v8, but only 10 and above are officially supported.)</li>\n</ul>\n<h2>0.x</h2>\n<p>Original and most widely used recursive directory creation implementation\nin JavaScript, dating back to 2010.</p>\n</blockquote>\n</details>\n<details>\n<summary>Commits</summary>\n<ul>\n<li><a href=\"https://github.com/isaacs/node-mkdirp/commit/bb88e784b4689becab74c7bf76ffe014628a3d74\"><code>bb88e78</code></a> 2.1.1</li>\n<li><a href=\"https://github.com/isaacs/node-mkdirp/commit/3a097bd245618f36fe943394dd40cca7fcfa37a8\"><code>3a097bd</code></a> Remove syntax that is not supported on Node v10</li>\n<li><a href=\"https://github.com/isaacs/node-mkdirp/commit/b2008f3607d3ffac1fabf982961d2bf4099b7c70\"><code>b2008f3</code></a> 2.1.0</li>\n<li><a href=\"https://github.com/isaacs/node-mkdirp/commit/c48dbc4e11c4534a5d626684142d596f16bc792e\"><code>c48dbc4</code></a> 2.1 changelog</li>\n<li><a href=\"https://github.com/isaacs/node-mkdirp/commit/f4ad8c1f032daa54ca27b83361c2c10985004709\"><code>f4ad8c1</code></a> remove unused bin, format with prettier</li>\n<li><a href=\"https://github.com/isaacs/node-mkdirp/commit/cb063facc439959e895f668911c53fd5559bf62e\"><code>cb063fa</code></a> only export bin as a cjs</li>\n<li><a href=\"https://github.com/isaacs/node-mkdirp/commit/a3cb91bc83bd4dce7ab1cfb0bbaec8a5a18b1782\"><code>a3cb91b</code></a> properly export package.json for use in bin</li>\n<li><a href=\"https://github.com/isaacs/node-mkdirp/commit/203a7c9817ef5f21b4afe05d17e2ecc0f1e0d2c2\"><code>203a7c9</code></a> fix backward compability for cjs exports</li>\n<li><a href=\"https://github.com/isaacs/node-mkdirp/commit/2d17c9c0162b7e4758c0c2de89c3d59bdfe2d15f\"><code>2d17c9c</code></a> add missing fixup.sh and tsconfigs</li>\n<li><a href=\"https://github.com/isaacs/node-mkdirp/commit/f0959e2037ec9348d1b168d502474b3345696312\"><code>f0959e2</code></a> chore: add copyright year to license</li>\n<li>Additional commits viewable in <a href=\"https://github.com/isaacs/node-mkdirp/compare/v0.5.6...v2.1.1\">compare view</a></li>\n</ul>\n</details>\n<br />\n\n\n[![Dependabot compatibility score](https://dependabot-badges.githubapp.com/badges/compatibility_score?dependency-name=mkdirp&package-manager=npm_and_yarn&previous-version=0.5.6&new-version=2.1.1)](https://docs.github.com/en/github/managing-security-vulnerabilities/about-dependabot-security-updates#about-compatibility-scores)\n\nDependabot will resolve any conflicts with this PR as long as you don't alter it yourself. You can also trigger a rebase manually by commenting `@dependabot rebase`.\n\n[//]: # (dependabot-automerge-start)\n[//]: # (dependabot-automerge-end)\n\n---\n\n<details>\n<summary>Dependabot commands and options</summary>\n<br />\n\nYou can trigger Dependabot actions by commenting on this PR:\n- `@dependabot rebase` will rebase this PR\n- `@dependabot recreate` will recreate this PR, overwriting any edits that have been made to it\n- `@dependabot merge` will merge this PR after your CI passes on it\n- `@dependabot squash and merge` will squash and merge this PR after your CI passes on it\n- `@dependabot cancel merge` will cancel a previously requested merge and block automerging\n- `@dependabot reopen` will reopen this PR if it is closed\n- `@dependabot close` will close this PR and stop Dependabot recreating it. You can achieve the same result by closing it manually\n- `@dependabot ignore this major version` will close this PR and stop Dependabot creating any more for this major version (unless you reopen the PR or upgrade to it yourself)\n- `@dependabot ignore this minor version` will close this PR and stop Dependabot creating any more for this minor version (unless you reopen the PR or upgrade to it yourself)\n- `@dependabot ignore this dependency` will close this PR and stop Dependabot creating any more for this dependency (unless you reopen the PR or upgrade to it yourself)\n\n\n</details>",
    "changed_files": 1,
    "closed_at": "2023-01-18T03:02:38Z",
    "comment_data": [],
    "comment_regular_data": [
        {
            "author_association": "CONTRIBUTOR",
            "body": "Superseded by #77.",
            "created_at": "2023-01-18T03:02:37Z",
            "html_url": "https://github.com/PrismarineJS/node-minecraft-wrap/pull/75#issuecomment-1386408958",
            "id": 1386408958,
            "issue_url": "https://api.github.com/repos/PrismarineJS/node-minecraft-wrap/issues/75",
            "node_id": "IC_kwDOAofiJM5Souv-",
            "performed_via_github_app": null,
            "reactions": {
                "+1": 0,
                "-1": 0,
                "confused": 0,
                "eyes": 0,
                "heart": 0,
                "hooray": 0,
                "laugh": 0,
                "rocket": 0,
                "total_count": 0,
                "url": "https://api.github.com/repos/PrismarineJS/node-minecraft-wrap/issues/comments/1386408958/reactions"
            },
            "updated_at": "2023-01-18T03:02:37Z",
            "url": "https://api.github.com/repos/PrismarineJS/node-minecraft-wrap/issues/comments/1386408958",
            "user": {
                "avatar_url": "https://avatars.githubusercontent.com/in/29110?v=4",
                "events_url": "https://api.github.com/users/dependabot%5Bbot%5D/events{/privacy}",
                "followers_url": "https://api.github.com/users/dependabot%5Bbot%5D/followers",
                "following_url": "https://api.github.com/users/dependabot%5Bbot%5D/following{/other_user}",
                "gists_url": "https://api.github.com/users/dependabot%5Bbot%5D/gists{/gist_id}",
                "gravatar_id": "",
                "html_url": "https://github.com/apps/dependabot",
                "id": 49699333,
                "login": "dependabot[bot]",
                "node_id": "MDM6Qm90NDk2OTkzMzM=",
                "organizations_url": "https://api.github.com/users/dependabot%5Bbot%5D/orgs",
                "received_events_url": "https://api.github.com/users/dependabot%5Bbot%5D/received_events",
                "repos_url": "https://api.github.com/users/dependabot%5Bbot%5D/repos",
                "site_admin": false,
                "starred_url": "https://api.github.com/users/dependabot%5Bbot%5D/starred{/owner}{/repo}",
                "subscriptions_url": "https://api.github.com/users/dependabot%5Bbot%5D/subscriptions",
                "type": "Bot",
                "url": "https://api.github.com/users/dependabot%5Bbot%5D"
            }
        }
    ],
    "comments": 1,
    "comments_url": "https://api.github.com/repos/PrismarineJS/node-minecraft-wrap/issues/75/comments",
    "commit_data": [
        {
            "author": {
                "avatar_url": "https://avatars.githubusercontent.com/in/29110?v=4",
                "events_url": "https://api.github.com/users/dependabot%5Bbot%5D/events{/privacy}",
                "followers_url": "https://api.github.com/users/dependabot%5Bbot%5D/followers",
                "following_url": "https://api.github.com/users/dependabot%5Bbot%5D/following{/other_user}",
                "gists_url": "https://api.github.com/users/dependabot%5Bbot%5D/gists{/gist_id}",
                "gravatar_id": "",
                "html_url": "https://github.com/apps/dependabot",
                "id": 49699333,
                "login": "dependabot[bot]",
                "node_id": "MDM6Qm90NDk2OTkzMzM=",
                "organizations_url": "https://api.github.com/users/dependabot%5Bbot%5D/orgs",
                "received_events_url": "https://api.github.com/users/dependabot%5Bbot%5D/received_events",
                "repos_url": "https://api.github.com/users/dependabot%5Bbot%5D/repos",
                "site_admin": false,
                "starred_url": "https://api.github.com/users/dependabot%5Bbot%5D/starred{/owner}{/repo}",
                "subscriptions_url": "https://api.github.com/users/dependabot%5Bbot%5D/subscriptions",
                "type": "Bot",
                "url": "https://api.github.com/users/dependabot%5Bbot%5D"
            },
            "comments_url": "https://api.github.com/repos/PrismarineJS/node-minecraft-wrap/commits/747b468165beb864f34a20c3d5d34d89e80f4b91/comments",
            "commit": {
                "author": {
                    "date": "2023-01-17T03:05:01Z",
                    "email": "49699333+dependabot[bot]@users.noreply.github.com",
                    "name": "dependabot[bot]"
                },
                "comment_count": 0,
                "committer": {
                    "date": "2023-01-17T03:05:01Z",
                    "email": "noreply@github.com",
                    "name": "GitHub"
                },
                "message": "Bump mkdirp from 0.5.6 to 2.1.1\n\nBumps [mkdirp](https://github.com/isaacs/node-mkdirp) from 0.5.6 to 2.1.1.\n- [Release notes](https://github.com/isaacs/node-mkdirp/releases)\n- [Changelog](https://github.com/isaacs/node-mkdirp/blob/main/CHANGELOG.md)\n- [Commits](https://github.com/isaacs/node-mkdirp/compare/v0.5.6...v2.1.1)\n\n---\nupdated-dependencies:\n- dependency-name: mkdirp\n  dependency-type: direct:production\n  update-type: version-update:semver-major\n...\n\nSigned-off-by: dependabot[bot] <support@github.com>",
                "tree": {
                    "sha": "7dd17fd80423e8c812895cbfee5c2dbbd7801029",
                    "url": "https://api.github.com/repos/PrismarineJS/node-minecraft-wrap/git/trees/7dd17fd80423e8c812895cbfee5c2dbbd7801029"
                },
                "url": "https://api.github.com/repos/PrismarineJS/node-minecraft-wrap/git/commits/747b468165beb864f34a20c3d5d34d89e80f4b91",
                "verification": {
                    "payload": "tree 7dd17fd80423e8c812895cbfee5c2dbbd7801029\nparent d928a3527c303c95dc477dd1a4ca5944d0d44a2f\nauthor dependabot[bot] <49699333+dependabot[bot]@users.noreply.github.com> 1673924701 +0000\ncommitter GitHub <noreply@github.com> 1673924701 +0000\n\nBump mkdirp from 0.5.6 to 2.1.1\n\nBumps [mkdirp](https://github.com/isaacs/node-mkdirp) from 0.5.6 to 2.1.1.\n- [Release notes](https://github.com/isaacs/node-mkdirp/releases)\n- [Changelog](https://github.com/isaacs/node-mkdirp/blob/main/CHANGELOG.md)\n- [Commits](https://github.com/isaacs/node-mkdirp/compare/v0.5.6...v2.1.1)\n\n---\nupdated-dependencies:\n- dependency-name: mkdirp\n  dependency-type: direct:production\n  update-type: version-update:semver-major\n...\n\nSigned-off-by: dependabot[bot] <support@github.com>",
                    "reason": "valid",
                    "signature": "-----BEGIN PGP SIGNATURE-----\n\nwsBcBAABCAAQBQJjxhBdCRBK7hj4Ov3rIwAAmbgIADrcPbKeCOXA6IBuNANSKyYm\njfks+d2wT4/zXoFa8UPicOc2KD4PwvspWoIO4QTrraSCkuw+fsBQcGOMf1ZuseHI\n70hZ2K+cO0K8URdnl4x/VDexJJwGobjb5ugmpqhFPXUxY2VcdcNR9G3Eup2DdtBJ\nG7lrIxv1YfYzWwxw34oe34zREuOH5gsvJmsHg8ulxon0bw/Rs5g09I96bMKtEfsA\nhBxvV4fT1ANTIIBEOmyMkSSAeRkqtGB/qbod77YR5bb5ZbgwuiyI/bXjpaLkck0/\npm4r1F/6VYShkZ+MEYufpvG2IOscU5dFiIk86p8CpuxAzh+r++61sNSL6I8o8vs=\n=96n5\n-----END PGP SIGNATURE-----\n",
                    "verified": true
                }
            },
            "committer": {
                "avatar_url": "https://avatars.githubusercontent.com/u/19864447?v=4",
                "events_url": "https://api.github.com/users/web-flow/events{/privacy}",
                "followers_url": "https://api.github.com/users/web-flow/followers",
                "following_url": "https://api.github.com/users/web-flow/following{/other_user}",
                "gists_url": "https://api.github.com/users/web-flow/gists{/gist_id}",
                "gravatar_id": "",
                "html_url": "https://github.com/web-flow",
                "id": 19864447,
                "login": "web-flow",
                "node_id": "MDQ6VXNlcjE5ODY0NDQ3",
                "organizations_url": "https://api.github.com/users/web-flow/orgs",
                "received_events_url": "https://api.github.com/users/web-flow/received_events",
                "repos_url": "https://api.github.com/users/web-flow/repos",
                "site_admin": false,
                "starred_url": "https://api.github.com/users/web-flow/starred{/owner}{/repo}",
                "subscriptions_url": "https://api.github.com/users/web-flow/subscriptions",
                "type": "User",
                "url": "https://api.github.com/users/web-flow"
            },
            "html_url": "https://github.com/PrismarineJS/node-minecraft-wrap/commit/747b468165beb864f34a20c3d5d34d89e80f4b91",
            "node_id": "C_kwDOAofiJNoAKDc0N2I0NjgxNjViZWI4NjRmMzRhMjBjM2Q1ZDM0ZDg5ZTgwZjRiOTE",
            "parents": [
                {
                    "html_url": "https://github.com/PrismarineJS/node-minecraft-wrap/commit/d928a3527c303c95dc477dd1a4ca5944d0d44a2f",
                    "sha": "d928a3527c303c95dc477dd1a4ca5944d0d44a2f",
                    "url": "https://api.github.com/repos/PrismarineJS/node-minecraft-wrap/commits/d928a3527c303c95dc477dd1a4ca5944d0d44a2f"
                }
            ],
            "sha": "747b468165beb864f34a20c3d5d34d89e80f4b91",
            "url": "https://api.github.com/repos/PrismarineJS/node-minecraft-wrap/commits/747b468165beb864f34a20c3d5d34d89e80f4b91"
        }
    ],
    "commits": 1,
    "commits_url": "https://api.github.com/repos/PrismarineJS/node-minecraft-wrap/pulls/75/commits",
    "created_at": "2023-01-17T03:05:02Z",
    "deletions": 1,
    "diff_url": "https://github.com/PrismarineJS/node-minecraft-wrap/pull/75.diff",
    "draft": false,
    "head": {
        "label": "PrismarineJS:dependabot/npm_and_yarn/mkdirp-2.1.1",
        "ref": "dependabot/npm_and_yarn/mkdirp-2.1.1",
        "repo": {
            "allow_forking": true,
            "archive_url": "https://api.github.com/repos/PrismarineJS/node-minecraft-wrap/{archive_format}{/ref}",
            "archived": false,
            "assignees_url": "https://api.github.com/repos/PrismarineJS/node-minecraft-wrap/assignees{/user}",
            "blobs_url": "https://api.github.com/repos/PrismarineJS/node-minecraft-wrap/git/blobs{/sha}",
            "branches_url": "https://api.github.com/repos/PrismarineJS/node-minecraft-wrap/branches{/branch}",
            "clone_url": "https://github.com/PrismarineJS/node-minecraft-wrap.git",
            "collaborators_url": "https://api.github.com/repos/PrismarineJS/node-minecraft-wrap/collaborators{/collaborator}",
            "comments_url": "https://api.github.com/repos/PrismarineJS/node-minecraft-wrap/comments{/number}",
            "commits_url": "https://api.github.com/repos/PrismarineJS/node-minecraft-wrap/commits{/sha}",
            "compare_url": "https://api.github.com/repos/PrismarineJS/node-minecraft-wrap/compare/{base}...{head}",
            "contents_url": "https://api.github.com/repos/PrismarineJS/node-minecraft-wrap/contents/{+path}",
            "contributors_url": "https://api.github.com/repos/PrismarineJS/node-minecraft-wrap/contributors",
            "created_at": "2015-09-14T16:00:05Z",
            "default_branch": "master",
            "deployments_url": "https://api.github.com/repos/PrismarineJS/node-minecraft-wrap/deployments",
            "description": "Download and wrap the vanilla minecraft server and client in node.js",
            "disabled": false,
            "downloads_url": "https://api.github.com/repos/PrismarineJS/node-minecraft-wrap/downloads",
            "events_url": "https://api.github.com/repos/PrismarineJS/node-minecraft-wrap/events",
            "fork": false,
            "forks": 6,
            "forks_count": 6,
            "forks_url": "https://api.github.com/repos/PrismarineJS/node-minecraft-wrap/forks",
            "full_name": "PrismarineJS/node-minecraft-wrap",
            "git_commits_url": "https://api.github.com/repos/PrismarineJS/node-minecraft-wrap/git/commits{/sha}",
            "git_refs_url": "https://api.github.com/repos/PrismarineJS/node-minecraft-wrap/git/refs{/sha}",
            "git_tags_url": "https://api.github.com/repos/PrismarineJS/node-minecraft-wrap/git/tags{/sha}",
            "git_url": "git://github.com/PrismarineJS/node-minecraft-wrap.git",
            "has_discussions": false,
            "has_downloads": true,
            "has_issues": true,
            "has_pages": false,
            "has_projects": true,
            "has_wiki": true,
            "homepage": "",
            "hooks_url": "https://api.github.com/repos/PrismarineJS/node-minecraft-wrap/hooks",
            "html_url": "https://github.com/PrismarineJS/node-minecraft-wrap",
            "id": 42459684,
            "is_template": false,
            "issue_comment_url": "https://api.github.com/repos/PrismarineJS/node-minecraft-wrap/issues/comments{/number}",
            "issue_events_url": "https://api.github.com/repos/PrismarineJS/node-minecraft-wrap/issues/events{/number}",
            "issues_url": "https://api.github.com/repos/PrismarineJS/node-minecraft-wrap/issues{/number}",
            "keys_url": "https://api.github.com/repos/PrismarineJS/node-minecraft-wrap/keys{/key_id}",
            "labels_url": "https://api.github.com/repos/PrismarineJS/node-minecraft-wrap/labels{/name}",
            "language": "JavaScript",
            "languages_url": "https://api.github.com/repos/PrismarineJS/node-minecraft-wrap/languages",
            "license": null,
            "merges_url": "https://api.github.com/repos/PrismarineJS/node-minecraft-wrap/merges",
            "milestones_url": "https://api.github.com/repos/PrismarineJS/node-minecraft-wrap/milestones{/number}",
            "mirror_url": null,
            "name": "node-minecraft-wrap",
            "node_id": "MDEwOlJlcG9zaXRvcnk0MjQ1OTY4NA==",
            "notifications_url": "https://api.github.com/repos/PrismarineJS/node-minecraft-wrap/notifications{?since,all,participating}",
            "open_issues": 11,
            "open_issues_count": 11,
            "owner": {
                "avatar_url": "https://avatars.githubusercontent.com/u/11053411?v=4",
                "events_url": "https://api.github.com/users/PrismarineJS/events{/privacy}",
                "followers_url": "https://api.github.com/users/PrismarineJS/followers",
                "following_url": "https://api.github.com/users/PrismarineJS/following{/other_user}",
                "gists_url": "https://api.github.com/users/PrismarineJS/gists{/gist_id}",
                "gravatar_id": "",
                "html_url": "https://github.com/PrismarineJS",
                "id": 11053411,
                "login": "PrismarineJS",
                "node_id": "MDEyOk9yZ2FuaXphdGlvbjExMDUzNDEx",
                "organizations_url": "https://api.github.com/users/PrismarineJS/orgs",
                "received_events_url": "https://api.github.com/users/PrismarineJS/received_events",
                "repos_url": "https://api.github.com/users/PrismarineJS/repos",
                "site_admin": false,
                "starred_url": "https://api.github.com/users/PrismarineJS/starred{/owner}{/repo}",
                "subscriptions_url": "https://api.github.com/users/PrismarineJS/subscriptions",
                "type": "Organization",
                "url": "https://api.github.com/users/PrismarineJS"
            },
            "private": false,
            "pulls_url": "https://api.github.com/repos/PrismarineJS/node-minecraft-wrap/pulls{/number}",
            "pushed_at": "2023-04-25T03:58:18Z",
            "releases_url": "https://api.github.com/repos/PrismarineJS/node-minecraft-wrap/releases{/id}",
            "size": 124,
            "ssh_url": "git@github.com:PrismarineJS/node-minecraft-wrap.git",
            "stargazers_count": 24,
            "stargazers_url": "https://api.github.com/repos/PrismarineJS/node-minecraft-wrap/stargazers",
            "statuses_url": "https://api.github.com/repos/PrismarineJS/node-minecraft-wrap/statuses/{sha}",
            "subscribers_url": "https://api.github.com/repos/PrismarineJS/node-minecraft-wrap/subscribers",
            "subscription_url": "https://api.github.com/repos/PrismarineJS/node-minecraft-wrap/subscription",
            "svn_url": "https://github.com/PrismarineJS/node-minecraft-wrap",
            "tags_url": "https://api.github.com/repos/PrismarineJS/node-minecraft-wrap/tags",
            "teams_url": "https://api.github.com/repos/PrismarineJS/node-minecraft-wrap/teams",
            "topics": [],
            "trees_url": "https://api.github.com/repos/PrismarineJS/node-minecraft-wrap/git/trees{/sha}",
            "updated_at": "2022-06-15T21:26:47Z",
            "url": "https://api.github.com/repos/PrismarineJS/node-minecraft-wrap",
            "visibility": "public",
            "watchers": 24,
            "watchers_count": 24,
            "web_commit_signoff_required": false
        },
        "sha": "747b468165beb864f34a20c3d5d34d89e80f4b91",
        "user": {
            "avatar_url": "https://avatars.githubusercontent.com/u/11053411?v=4",
            "events_url": "https://api.github.com/users/PrismarineJS/events{/privacy}",
            "followers_url": "https://api.github.com/users/PrismarineJS/followers",
            "following_url": "https://api.github.com/users/PrismarineJS/following{/other_user}",
            "gists_url": "https://api.github.com/users/PrismarineJS/gists{/gist_id}",
            "gravatar_id": "",
            "html_url": "https://github.com/PrismarineJS",
            "id": 11053411,
            "login": "PrismarineJS",
            "node_id": "MDEyOk9yZ2FuaXphdGlvbjExMDUzNDEx",
            "organizations_url": "https://api.github.com/users/PrismarineJS/orgs",
            "received_events_url": "https://api.github.com/users/PrismarineJS/received_events",
            "repos_url": "https://api.github.com/users/PrismarineJS/repos",
            "site_admin": false,
            "starred_url": "https://api.github.com/users/PrismarineJS/starred{/owner}{/repo}",
            "subscriptions_url": "https://api.github.com/users/PrismarineJS/subscriptions",
            "type": "Organization",
            "url": "https://api.github.com/users/PrismarineJS"
        }
    },
    "html_url": "https://github.com/PrismarineJS/node-minecraft-wrap/pull/75",
    "id": 1199691345,
    "issue_url": "https://api.github.com/repos/PrismarineJS/node-minecraft-wrap/issues/75",
    "labels": [
        {
            "color": "0366d6",
            "default": false,
            "description": "Pull requests that update a dependency file",
            "id": 2067070758,
            "name": "dependencies",
            "node_id": "MDU6TGFiZWwyMDY3MDcwNzU4",
            "url": "https://api.github.com/repos/PrismarineJS/node-minecraft-wrap/labels/dependencies"
        }
    ],
    "locked": false,
    "maintainer_can_modify": false,
    "merge_commit_sha": "3c9ea33e72ad6ef4157e91fe016f6eb18b4e059d",
    "mergeable": null,
    "mergeable_state": "unknown",
    "merged": false,
    "merged_at": null,
    "merged_by": null,
    "milestone": null,
    "node_id": "PR_kwDOAofiJM5HgdZR",
    "number": 75,
    "patch_url": "https://github.com/PrismarineJS/node-minecraft-wrap/pull/75.patch",
    "rebaseable": null,
    "requested_reviewers": [],
    "requested_teams": [],
    "review_comment_url": "https://api.github.com/repos/PrismarineJS/node-minecraft-wrap/pulls/comments{/number}",
    "review_comments": 0,
    "review_comments_url": "https://api.github.com/repos/PrismarineJS/node-minecraft-wrap/pulls/75/comments",
    "state": "closed",
    "statuses_url": "https://api.github.com/repos/PrismarineJS/node-minecraft-wrap/statuses/747b468165beb864f34a20c3d5d34d89e80f4b91",
    "title": "Bump mkdirp from 0.5.6 to 2.1.1",
    "updated_at": "2023-01-18T03:02:40Z",
    "url": "https://api.github.com/repos/PrismarineJS/node-minecraft-wrap/pulls/75",
    "user": {
        "avatar_url": "https://avatars.githubusercontent.com/in/29110?v=4",
        "events_url": "https://api.github.com/users/dependabot%5Bbot%5D/events{/privacy}",
        "followers_url": "https://api.github.com/users/dependabot%5Bbot%5D/followers",
        "following_url": "https://api.github.com/users/dependabot%5Bbot%5D/following{/other_user}",
        "gists_url": "https://api.github.com/users/dependabot%5Bbot%5D/gists{/gist_id}",
        "gravatar_id": "",
        "html_url": "https://github.com/apps/dependabot",
        "id": 49699333,
        "login": "dependabot[bot]",
        "node_id": "MDM6Qm90NDk2OTkzMzM=",
        "organizations_url": "https://api.github.com/users/dependabot%5Bbot%5D/orgs",
        "received_events_url": "https://api.github.com/users/dependabot%5Bbot%5D/received_events",
        "repos_url": "https://api.github.com/users/dependabot%5Bbot%5D/repos",
        "site_admin": false,
        "starred_url": "https://api.github.com/users/dependabot%5Bbot%5D/starred{/owner}{/repo}",
        "subscriptions_url": "https://api.github.com/users/dependabot%5Bbot%5D/subscriptions",
        "type": "Bot",
        "url": "https://api.github.com/users/dependabot%5Bbot%5D"
    }
}