{
    "assets": [],
    "assets_url": "https://api.github.com/repos/PrismarineJS/bedrock-protocol/releases/47146205/assets",
    "author": {
        "avatar_url": "https://avatars.githubusercontent.com/in/15368?v=4",
        "events_url": "https://api.github.com/users/github-actions%5Bbot%5D/events{/privacy}",
        "followers_url": "https://api.github.com/users/github-actions%5Bbot%5D/followers",
        "following_url": "https://api.github.com/users/github-actions%5Bbot%5D/following{/other_user}",
        "gists_url": "https://api.github.com/users/github-actions%5Bbot%5D/gists{/gist_id}",
        "gravatar_id": "",
        "html_url": "https://github.com/apps/github-actions",
        "id": 41898282,
        "login": "github-actions[bot]",
        "node_id": "MDM6Qm90NDE4OTgyODI=",
        "organizations_url": "https://api.github.com/users/github-actions%5Bbot%5D/orgs",
        "received_events_url": "https://api.github.com/users/github-actions%5Bbot%5D/received_events",
        "repos_url": "https://api.github.com/users/github-actions%5Bbot%5D/repos",
        "site_admin": false,
        "starred_url": "https://api.github.com/users/github-actions%5Bbot%5D/starred{/owner}{/repo}",
        "subscriptions_url": "https://api.github.com/users/github-actions%5Bbot%5D/subscriptions",
        "type": "Bot",
        "url": "https://api.github.com/users/github-actions%5Bbot%5D",
        "user_view_type": "public"
    },
    "body": "3.5.1",
    "created_at": "2021-08-02T09:32:43Z",
    "draft": false,
    "html_url": "https://github.com/PrismarineJS/bedrock-protocol/releases/tag/3.5.1",
    "id": 47146205,
    "name": "Release 3.5.1",
    "node_id": "MDc6UmVsZWFzZTQ3MTQ2MjA1",
    "prerelease": false,
    "published_at": "2021-08-02T09:33:52Z",
    "tag_name": "3.5.1",
    "tarball_url": "https://api.github.com/repos/PrismarineJS/bedrock-protocol/tarball/3.5.1",
    "target_commitish": "a1fe4802e691b36d23ea94c41ef813a71d536447",
    "upload_url": "https://uploads.github.com/repos/PrismarineJS/bedrock-protocol/releases/47146205/assets{?name,label}",
    "url": "https://api.github.com/repos/PrismarineJS/bedrock-protocol/releases/47146205",
    "zipball_url": "https://api.github.com/repos/PrismarineJS/bedrock-protocol/zipball/3.5.1"
}