{
    "assets": [],
    "assets_url": "https://api.github.com/repos/PrismarineJS/mineflayer/releases/140689344/assets",
    "author": {
        "avatar_url": "https://avatars.githubusercontent.com/in/15368?v=4",
        "events_url": "https://api.github.com/users/github-actions%5Bbot%5D/events{/privacy}",
        "followers_url": "https://api.github.com/users/github-actions%5Bbot%5D/followers",
        "following_url": "https://api.github.com/users/github-actions%5Bbot%5D/following{/other_user}",
        "gists_url": "https://api.github.com/users/github-actions%5Bbot%5D/gists{/gist_id}",
        "gravatar_id": "",
        "html_url": "https://github.com/apps/github-actions",
        "id": 41898282,
        "login": "github-actions[bot]",
        "node_id": "MDM6Qm90NDE4OTgyODI=",
        "organizations_url": "https://api.github.com/users/github-actions%5Bbot%5D/orgs",
        "received_events_url": "https://api.github.com/users/github-actions%5Bbot%5D/received_events",
        "repos_url": "https://api.github.com/users/github-actions%5Bbot%5D/repos",
        "site_admin": false,
        "starred_url": "https://api.github.com/users/github-actions%5Bbot%5D/starred{/owner}{/repo}",
        "subscriptions_url": "https://api.github.com/users/github-actions%5Bbot%5D/subscriptions",
        "type": "Bot",
        "url": "https://api.github.com/users/github-actions%5Bbot%5D",
        "user_view_type": "public"
    },
    "body": "4.19.0",
    "created_at": "2024-02-08T20:09:03Z",
    "draft": false,
    "html_url": "https://github.com/PrismarineJS/mineflayer/releases/tag/4.19.0",
    "id": 140689344,
    "name": "Release 4.19.0",
    "node_id": "RE_kwDOABOYWc4IYr_A",
    "prerelease": false,
    "published_at": "2024-02-08T20:10:28Z",
    "reactions": {
        "+1": 6,
        "-1": 0,
        "confused": 0,
        "eyes": 0,
        "heart": 0,
        "hooray": 0,
        "laugh": 0,
        "rocket": 0,
        "total_count": 6,
        "url": "https://api.github.com/repos/PrismarineJS/mineflayer/releases/140689344/reactions"
    },
    "tag_name": "4.19.0",
    "tarball_url": "https://api.github.com/repos/PrismarineJS/mineflayer/tarball/4.19.0",
    "target_commitish": "b9491ae508dc52e4538dd66eb6f47a639facde20",
    "upload_url": "https://uploads.github.com/repos/PrismarineJS/mineflayer/releases/140689344/assets{?name,label}",
    "url": "https://api.github.com/repos/PrismarineJS/mineflayer/releases/140689344",
    "zipball_url": "https://api.github.com/repos/PrismarineJS/mineflayer/zipball/4.19.0"
}