{
    "active_lock_reason": null,
    "assignee": null,
    "assignees": [],
    "author_association": "NONE",
    "body": "Bot has been running for ~24 hours on a Heroku Dyno on MC server `play.oc.tc` and it appears that there are \"ghost\" entities visible in the viewer. Possible bug? https://mineflayer-occ-bot.herokuapp.com/\r\n\r\n![Image 2021-03-26 at 12 06 12 PM](https://user-images.githubusercontent.com/6914518/112681670-46a73300-8e2c-11eb-8f09-4216a9995aa1.jpg)\r\n\r\nFyi: The server frequently rotates between maps and it confuses the viewer (renders nothing). Is there a way to do something like a \"hard reload\" through the API?\r\n\r\nHere's the source code for the bot: https://github.com/drmzio/mineflayer-occ-bot",
    "closed_at": null,
    "comment_data": [
        {
            "author_association": "NONE",
            "body": "So far, I've tried destroying the viewer and re-creating it at every spawn using the code below.\r\n```js\r\nconst createViewer = () => {\r\n  // Destroy the current viewer if exists.\r\n  if (bot.viewer) {\r\n    bot.viewer.close();\r\n    bot.viewer = undefined;\r\n  }\r\n\r\n  mineflayerViewer(bot, { port: process.env.PORT || 3000 });\r\n};\r\n```\r\n\r\n```js\r\nbot.on('spawn', () => {\r\n  createViewer();\r\n});\r\n```\r\n\r\nBut the issue still persists with the \"ghost\" entities.",
            "created_at": "2021-03-29T18:33:55Z",
            "html_url": "https://github.com/PrismarineJS/prismarine-viewer/issues/174#issuecomment-809614868",
            "id": 809614868,
            "issue_url": "https://api.github.com/repos/PrismarineJS/prismarine-viewer/issues/174",
            "node_id": "MDEyOklzc3VlQ29tbWVudDgwOTYxNDg2OA==",
            "performed_via_github_app": null,
            "reactions": {
                "+1": 0,
                "-1": 0,
                "confused": 0,
                "eyes": 0,
                "heart": 0,
                "hooray": 0,
                "laugh": 0,
                "rocket": 0,
                "total_count": 0,
                "url": "https://api.github.com/repos/PrismarineJS/prismarine-viewer/issues/comments/809614868/reactions"
            },
            "updated_at": "2021-03-29T18:33:55Z",
            "url": "https://api.github.com/repos/PrismarineJS/prismarine-viewer/issues/comments/809614868",
            "user": {
                "avatar_url": "https://avatars.githubusercontent.com/u/6914518?v=4",
                "events_url": "https://api.github.com/users/drmzio/events{/privacy}",
                "followers_url": "https://api.github.com/users/drmzio/followers",
                "following_url": "https://api.github.com/users/drmzio/following{/other_user}",
                "gists_url": "https://api.github.com/users/drmzio/gists{/gist_id}",
                "gravatar_id": "",
                "html_url": "https://github.com/drmzio",
                "id": 6914518,
                "login": "drmzio",
                "node_id": "MDQ6VXNlcjY5MTQ1MTg=",
                "organizations_url": "https://api.github.com/users/drmzio/orgs",
                "received_events_url": "https://api.github.com/users/drmzio/received_events",
                "repos_url": "https://api.github.com/users/drmzio/repos",
                "site_admin": false,
                "starred_url": "https://api.github.com/users/drmzio/starred{/owner}{/repo}",
                "subscriptions_url": "https://api.github.com/users/drmzio/subscriptions",
                "type": "User",
                "url": "https://api.github.com/users/drmzio"
            }
        }
    ],
    "comments": 1,
    "comments_url": "https://api.github.com/repos/PrismarineJS/prismarine-viewer/issues/174/comments",
    "created_at": "2021-03-26T19:15:49Z",
    "event_data": [
        {
            "actor": {
                "avatar_url": "https://avatars.githubusercontent.com/u/1977472?v=4",
                "events_url": "https://api.github.com/users/Karang/events{/privacy}",
                "followers_url": "https://api.github.com/users/Karang/followers",
                "following_url": "https://api.github.com/users/Karang/following{/other_user}",
                "gists_url": "https://api.github.com/users/Karang/gists{/gist_id}",
                "gravatar_id": "",
                "html_url": "https://github.com/Karang",
                "id": 1977472,
                "login": "Karang",
                "node_id": "MDQ6VXNlcjE5Nzc0NzI=",
                "organizations_url": "https://api.github.com/users/Karang/orgs",
                "received_events_url": "https://api.github.com/users/Karang/received_events",
                "repos_url": "https://api.github.com/users/Karang/repos",
                "site_admin": false,
                "starred_url": "https://api.github.com/users/Karang/starred{/owner}{/repo}",
                "subscriptions_url": "https://api.github.com/users/Karang/subscriptions",
                "type": "User",
                "url": "https://api.github.com/users/Karang"
            },
            "commit_id": null,
            "commit_url": null,
            "created_at": "2021-03-26T19:20:47Z",
            "event": "labeled",
            "id": 4515657537,
            "label": {
                "color": "d73a4a",
                "name": "bug"
            },
            "node_id": "MDEyOkxhYmVsZWRFdmVudDQ1MTU2NTc1Mzc=",
            "performed_via_github_app": null,
            "url": "https://api.github.com/repos/PrismarineJS/prismarine-viewer/issues/events/4515657537"
        }
    ],
    "events_url": "https://api.github.com/repos/PrismarineJS/prismarine-viewer/issues/174/events",
    "html_url": "https://github.com/PrismarineJS/prismarine-viewer/issues/174",
    "id": 842235119,
    "labels": [
        {
            "color": "d73a4a",
            "default": true,
            "description": "Something isn't working",
            "id": 2128707506,
            "name": "bug",
            "node_id": "MDU6TGFiZWwyMTI4NzA3NTA2",
            "url": "https://api.github.com/repos/PrismarineJS/prismarine-viewer/labels/bug"
        }
    ],
    "labels_url": "https://api.github.com/repos/PrismarineJS/prismarine-viewer/issues/174/labels{/name}",
    "locked": false,
    "milestone": null,
    "node_id": "MDU6SXNzdWU4NDIyMzUxMTk=",
    "number": 174,
    "performed_via_github_app": null,
    "reactions": {
        "+1": 0,
        "-1": 0,
        "confused": 0,
        "eyes": 0,
        "heart": 0,
        "hooray": 0,
        "laugh": 0,
        "rocket": 0,
        "total_count": 0,
        "url": "https://api.github.com/repos/PrismarineJS/prismarine-viewer/issues/174/reactions"
    },
    "repository_url": "https://api.github.com/repos/PrismarineJS/prismarine-viewer",
    "state": "open",
    "state_reason": null,
    "timeline_url": "https://api.github.com/repos/PrismarineJS/prismarine-viewer/issues/174/timeline",
    "title": "Ghost entities from logged out players",
    "updated_at": "2021-03-29T18:33:55Z",
    "url": "https://api.github.com/repos/PrismarineJS/prismarine-viewer/issues/174",
    "user": {
        "avatar_url": "https://avatars.githubusercontent.com/u/6914518?v=4",
        "events_url": "https://api.github.com/users/drmzio/events{/privacy}",
        "followers_url": "https://api.github.com/users/drmzio/followers",
        "following_url": "https://api.github.com/users/drmzio/following{/other_user}",
        "gists_url": "https://api.github.com/users/drmzio/gists{/gist_id}",
        "gravatar_id": "",
        "html_url": "https://github.com/drmzio",
        "id": 6914518,
        "login": "drmzio",
        "node_id": "MDQ6VXNlcjY5MTQ1MTg=",
        "organizations_url": "https://api.github.com/users/drmzio/orgs",
        "received_events_url": "https://api.github.com/users/drmzio/received_events",
        "repos_url": "https://api.github.com/users/drmzio/repos",
        "site_admin": false,
        "starred_url": "https://api.github.com/users/drmzio/starred{/owner}{/repo}",
        "subscriptions_url": "https://api.github.com/users/drmzio/subscriptions",
        "type": "User",
        "url": "https://api.github.com/users/drmzio"
    }
}