{
    "active_lock_reason": null,
    "assignee": null,
    "assignees": [],
    "author_association": "NONE",
    "body": "![image](https://user-images.githubusercontent.com/81854722/161702883-470e0a71-f518-4b34-9153-5912b778c07b.png)\r\nExample that I run - https://github.com/PrismarineJS/prismarine-viewer/blob/83c54d23f2f933028b33ff28d6f267d0dfa62706/examples/clickmove.js\r\n\r\nBot moves correctly, however there is no path lines on web map (it seems that they are supposed to be drawn at line 23). Am I not understanding how it works?",
    "closed_at": null,
    "comment_data": [],
    "comments": 0,
    "comments_url": "https://api.github.com/repos/PrismarineJS/prismarine-viewer/issues/252/comments",
    "created_at": "2022-04-05T07:42:46Z",
    "event_data": [
        {
            "actor": {
                "avatar_url": "https://avatars.githubusercontent.com/u/2346494?v=4",
                "events_url": "https://api.github.com/users/rom1504/events{/privacy}",
                "followers_url": "https://api.github.com/users/rom1504/followers",
                "following_url": "https://api.github.com/users/rom1504/following{/other_user}",
                "gists_url": "https://api.github.com/users/rom1504/gists{/gist_id}",
                "gravatar_id": "",
                "html_url": "https://github.com/rom1504",
                "id": 2346494,
                "login": "rom1504",
                "node_id": "MDQ6VXNlcjIzNDY0OTQ=",
                "organizations_url": "https://api.github.com/users/rom1504/orgs",
                "received_events_url": "https://api.github.com/users/rom1504/received_events",
                "repos_url": "https://api.github.com/users/rom1504/repos",
                "site_admin": false,
                "starred_url": "https://api.github.com/users/rom1504/starred{/owner}{/repo}",
                "subscriptions_url": "https://api.github.com/users/rom1504/subscriptions",
                "type": "User",
                "url": "https://api.github.com/users/rom1504"
            },
            "commit_id": null,
            "commit_url": null,
            "created_at": "2023-12-17T21:41:27Z",
            "event": "labeled",
            "id": 11269378782,
            "label": {
                "color": "d73a4a",
                "name": "bug"
            },
            "node_id": "LE_lADOEC0DT85HF_9wzwAAAAKftRLe",
            "performed_via_github_app": null,
            "url": "https://api.github.com/repos/PrismarineJS/prismarine-viewer/issues/events/11269378782"
        }
    ],
    "events_url": "https://api.github.com/repos/PrismarineJS/prismarine-viewer/issues/252/events",
    "html_url": "https://github.com/PrismarineJS/prismarine-viewer/issues/252",
    "id": 1192755056,
    "labels": [
        {
            "color": "d73a4a",
            "default": true,
            "description": "Something isn't working",
            "id": 2128707506,
            "name": "bug",
            "node_id": "MDU6TGFiZWwyMTI4NzA3NTA2",
            "url": "https://api.github.com/repos/PrismarineJS/prismarine-viewer/labels/bug"
        }
    ],
    "labels_url": "https://api.github.com/repos/PrismarineJS/prismarine-viewer/issues/252/labels{/name}",
    "locked": false,
    "milestone": null,
    "node_id": "I_kwDOEC0DT85HF_9w",
    "number": 252,
    "performed_via_github_app": null,
    "reactions": {
        "+1": 0,
        "-1": 0,
        "confused": 0,
        "eyes": 0,
        "heart": 0,
        "hooray": 0,
        "laugh": 0,
        "rocket": 0,
        "total_count": 0,
        "url": "https://api.github.com/repos/PrismarineJS/prismarine-viewer/issues/252/reactions"
    },
    "repository_url": "https://api.github.com/repos/PrismarineJS/prismarine-viewer",
    "state": "open",
    "state_reason": null,
    "timeline_url": "https://api.github.com/repos/PrismarineJS/prismarine-viewer/issues/252/timeline",
    "title": "I've run this example and it does not draw lines on screen",
    "updated_at": "2023-12-17T21:41:27Z",
    "url": "https://api.github.com/repos/PrismarineJS/prismarine-viewer/issues/252",
    "user": {
        "avatar_url": "https://avatars.githubusercontent.com/u/81854722?v=4",
        "events_url": "https://api.github.com/users/Kistras/events{/privacy}",
        "followers_url": "https://api.github.com/users/Kistras/followers",
        "following_url": "https://api.github.com/users/Kistras/following{/other_user}",
        "gists_url": "https://api.github.com/users/Kistras/gists{/gist_id}",
        "gravatar_id": "",
        "html_url": "https://github.com/Kistras",
        "id": 81854722,
        "login": "Kistras",
        "node_id": "MDQ6VXNlcjgxODU0NzIy",
        "organizations_url": "https://api.github.com/users/Kistras/orgs",
        "received_events_url": "https://api.github.com/users/Kistras/received_events",
        "repos_url": "https://api.github.com/users/Kistras/repos",
        "site_admin": false,
        "starred_url": "https://api.github.com/users/Kistras/starred{/owner}{/repo}",
        "subscriptions_url": "https://api.github.com/users/Kistras/subscriptions",
        "type": "User",
        "url": "https://api.github.com/users/Kistras"
    }
}