{
    "active_lock_reason": null,
    "assignee": null,
    "assignees": [],
    "author_association": "CONTRIBUTOR",
    "body": "Can be reproduced by leaving `bot.setControlState('jump', true)` on until the bot dies with the text: `bot hit the ground too hard`\n",
    "closed_at": "2015-03-29T19:16:22Z",
    "comment_data": [
        {
            "author_association": "CONTRIBUTOR",
            "body": "Changing POSITION_UPDATE_INTERVAL_MS from 50 to 20 seems to prevent the bot from hurting itself by perpetually jumping, but it doesn't look like it actually lands before jumping again when looking more carefully.\n",
            "created_at": "2013-02-03T06:10:58Z",
            "html_url": "https://github.com/PrismarineJS/mineflayer/issues/114#issuecomment-13043016",
            "id": 13043016,
            "issue_url": "https://api.github.com/repos/PrismarineJS/mineflayer/issues/114",
            "node_id": "MDEyOklzc3VlQ29tbWVudDEzMDQzMDE2",
            "performed_via_github_app": null,
            "reactions": {
                "+1": 0,
                "-1": 0,
                "confused": 0,
                "eyes": 0,
                "heart": 0,
                "hooray": 0,
                "laugh": 0,
                "rocket": 0,
                "total_count": 0,
                "url": "https://api.github.com/repos/PrismarineJS/mineflayer/issues/comments/13043016/reactions"
            },
            "updated_at": "2013-02-03T06:10:58Z",
            "url": "https://api.github.com/repos/PrismarineJS/mineflayer/issues/comments/13043016",
            "user": {
                "avatar_url": "https://avatars.githubusercontent.com/u/159568?v=4",
                "events_url": "https://api.github.com/users/vogonistic/events{/privacy}",
                "followers_url": "https://api.github.com/users/vogonistic/followers",
                "following_url": "https://api.github.com/users/vogonistic/following{/other_user}",
                "gists_url": "https://api.github.com/users/vogonistic/gists{/gist_id}",
                "gravatar_id": "",
                "html_url": "https://github.com/vogonistic",
                "id": 159568,
                "login": "vogonistic",
                "node_id": "MDQ6VXNlcjE1OTU2OA==",
                "organizations_url": "https://api.github.com/users/vogonistic/orgs",
                "received_events_url": "https://api.github.com/users/vogonistic/received_events",
                "repos_url": "https://api.github.com/users/vogonistic/repos",
                "site_admin": false,
                "starred_url": "https://api.github.com/users/vogonistic/starred{/owner}{/repo}",
                "subscriptions_url": "https://api.github.com/users/vogonistic/subscriptions",
                "type": "User",
                "url": "https://api.github.com/users/vogonistic"
            }
        },
        {
            "author_association": "CONTRIBUTOR",
            "body": "Update interval is currently 20ms\nhttps://github.com/andrewrk/mineflayer/blob/master/lib/plugins/physics.js#L12\n\nIs this still an issue ?\n",
            "created_at": "2014-04-21T23:38:39Z",
            "html_url": "https://github.com/PrismarineJS/mineflayer/issues/114#issuecomment-40989167",
            "id": 40989167,
            "issue_url": "https://api.github.com/repos/PrismarineJS/mineflayer/issues/114",
            "node_id": "MDEyOklzc3VlQ29tbWVudDQwOTg5MTY3",
            "performed_via_github_app": null,
            "reactions": {
                "+1": 0,
                "-1": 0,
                "confused": 0,
                "eyes": 0,
                "heart": 0,
                "hooray": 0,
                "laugh": 0,
                "rocket": 0,
                "total_count": 0,
                "url": "https://api.github.com/repos/PrismarineJS/mineflayer/issues/comments/40989167/reactions"
            },
            "updated_at": "2014-04-21T23:38:39Z",
            "url": "https://api.github.com/repos/PrismarineJS/mineflayer/issues/comments/40989167",
            "user": {
                "avatar_url": "https://avatars.githubusercontent.com/u/834342?v=4",
                "events_url": "https://api.github.com/users/nevercast/events{/privacy}",
                "followers_url": "https://api.github.com/users/nevercast/followers",
                "following_url": "https://api.github.com/users/nevercast/following{/other_user}",
                "gists_url": "https://api.github.com/users/nevercast/gists{/gist_id}",
                "gravatar_id": "",
                "html_url": "https://github.com/nevercast",
                "id": 834342,
                "login": "nevercast",
                "node_id": "MDQ6VXNlcjgzNDM0Mg==",
                "organizations_url": "https://api.github.com/users/nevercast/orgs",
                "received_events_url": "https://api.github.com/users/nevercast/received_events",
                "repos_url": "https://api.github.com/users/nevercast/repos",
                "site_admin": false,
                "starred_url": "https://api.github.com/users/nevercast/starred{/owner}{/repo}",
                "subscriptions_url": "https://api.github.com/users/nevercast/subscriptions",
                "type": "User",
                "url": "https://api.github.com/users/nevercast"
            }
        },
        {
            "author_association": "MEMBER",
            "body": "IMO we shouldn't just close issues when they get old. We should close issues when we actually investigate the problem and solve it or discover that it is not a problem.\n",
            "created_at": "2014-04-21T23:45:49Z",
            "html_url": "https://github.com/PrismarineJS/mineflayer/issues/114#issuecomment-40989575",
            "id": 40989575,
            "issue_url": "https://api.github.com/repos/PrismarineJS/mineflayer/issues/114",
            "node_id": "MDEyOklzc3VlQ29tbWVudDQwOTg5NTc1",
            "performed_via_github_app": null,
            "reactions": {
                "+1": 0,
                "-1": 0,
                "confused": 0,
                "eyes": 0,
                "heart": 0,
                "hooray": 0,
                "laugh": 0,
                "rocket": 0,
                "total_count": 0,
                "url": "https://api.github.com/repos/PrismarineJS/mineflayer/issues/comments/40989575/reactions"
            },
            "updated_at": "2014-04-21T23:45:49Z",
            "url": "https://api.github.com/repos/PrismarineJS/mineflayer/issues/comments/40989575",
            "user": {
                "avatar_url": "https://avatars.githubusercontent.com/u/106511?v=4",
                "events_url": "https://api.github.com/users/andrewrk/events{/privacy}",
                "followers_url": "https://api.github.com/users/andrewrk/followers",
                "following_url": "https://api.github.com/users/andrewrk/following{/other_user}",
                "gists_url": "https://api.github.com/users/andrewrk/gists{/gist_id}",
                "gravatar_id": "",
                "html_url": "https://github.com/andrewrk",
                "id": 106511,
                "login": "andrewrk",
                "node_id": "MDQ6VXNlcjEwNjUxMQ==",
                "organizations_url": "https://api.github.com/users/andrewrk/orgs",
                "received_events_url": "https://api.github.com/users/andrewrk/received_events",
                "repos_url": "https://api.github.com/users/andrewrk/repos",
                "site_admin": false,
                "starred_url": "https://api.github.com/users/andrewrk/starred{/owner}{/repo}",
                "subscriptions_url": "https://api.github.com/users/andrewrk/subscriptions",
                "type": "User",
                "url": "https://api.github.com/users/andrewrk"
            }
        },
        {
            "author_association": "CONTRIBUTOR",
            "body": "Yeah I think I've been a bit too rigorous with this, I was just tidying up the issues to focus on the 1.7 milestone. I'll go over the issues I've closed tonight and identify the ones that still apply.\n\nI had originally made the assumption that something a year old would not still be an issue, but previous to a month ago, code was moving slower. I'll amend this tonight @andrewrk \n",
            "created_at": "2014-04-22T01:36:36Z",
            "html_url": "https://github.com/PrismarineJS/mineflayer/issues/114#issuecomment-40995512",
            "id": 40995512,
            "issue_url": "https://api.github.com/repos/PrismarineJS/mineflayer/issues/114",
            "node_id": "MDEyOklzc3VlQ29tbWVudDQwOTk1NTEy",
            "performed_via_github_app": null,
            "reactions": {
                "+1": 0,
                "-1": 0,
                "confused": 0,
                "eyes": 0,
                "heart": 0,
                "hooray": 0,
                "laugh": 0,
                "rocket": 0,
                "total_count": 0,
                "url": "https://api.github.com/repos/PrismarineJS/mineflayer/issues/comments/40995512/reactions"
            },
            "updated_at": "2014-04-22T01:36:36Z",
            "url": "https://api.github.com/repos/PrismarineJS/mineflayer/issues/comments/40995512",
            "user": {
                "avatar_url": "https://avatars.githubusercontent.com/u/834342?v=4",
                "events_url": "https://api.github.com/users/nevercast/events{/privacy}",
                "followers_url": "https://api.github.com/users/nevercast/followers",
                "following_url": "https://api.github.com/users/nevercast/following{/other_user}",
                "gists_url": "https://api.github.com/users/nevercast/gists{/gist_id}",
                "gravatar_id": "",
                "html_url": "https://github.com/nevercast",
                "id": 834342,
                "login": "nevercast",
                "node_id": "MDQ6VXNlcjgzNDM0Mg==",
                "organizations_url": "https://api.github.com/users/nevercast/orgs",
                "received_events_url": "https://api.github.com/users/nevercast/received_events",
                "repos_url": "https://api.github.com/users/nevercast/repos",
                "site_admin": false,
                "starred_url": "https://api.github.com/users/nevercast/starred{/owner}{/repo}",
                "subscriptions_url": "https://api.github.com/users/nevercast/subscriptions",
                "type": "User",
                "url": "https://api.github.com/users/nevercast"
            }
        },
        {
            "author_association": "MEMBER",
            "body": "I just checked, this is still an issue, setting bot.setControlState('jump', true); : \n- make the bot not touch the ground : I don't know whether this is wrong or not\n- after like 30s the bot die with \"fell from a high place\"\n",
            "created_at": "2015-03-19T00:23:16Z",
            "html_url": "https://github.com/PrismarineJS/mineflayer/issues/114#issuecomment-83232697",
            "id": 83232697,
            "issue_url": "https://api.github.com/repos/PrismarineJS/mineflayer/issues/114",
            "node_id": "MDEyOklzc3VlQ29tbWVudDgzMjMyNjk3",
            "performed_via_github_app": null,
            "reactions": {
                "+1": 0,
                "-1": 0,
                "confused": 0,
                "eyes": 0,
                "heart": 0,
                "hooray": 0,
                "laugh": 0,
                "rocket": 0,
                "total_count": 0,
                "url": "https://api.github.com/repos/PrismarineJS/mineflayer/issues/comments/83232697/reactions"
            },
            "updated_at": "2015-03-19T00:23:16Z",
            "url": "https://api.github.com/repos/PrismarineJS/mineflayer/issues/comments/83232697",
            "user": {
                "avatar_url": "https://avatars.githubusercontent.com/u/2346494?v=4",
                "events_url": "https://api.github.com/users/rom1504/events{/privacy}",
                "followers_url": "https://api.github.com/users/rom1504/followers",
                "following_url": "https://api.github.com/users/rom1504/following{/other_user}",
                "gists_url": "https://api.github.com/users/rom1504/gists{/gist_id}",
                "gravatar_id": "",
                "html_url": "https://github.com/rom1504",
                "id": 2346494,
                "login": "rom1504",
                "node_id": "MDQ6VXNlcjIzNDY0OTQ=",
                "organizations_url": "https://api.github.com/users/rom1504/orgs",
                "received_events_url": "https://api.github.com/users/rom1504/received_events",
                "repos_url": "https://api.github.com/users/rom1504/repos",
                "site_admin": false,
                "starred_url": "https://api.github.com/users/rom1504/starred{/owner}{/repo}",
                "subscriptions_url": "https://api.github.com/users/rom1504/subscriptions",
                "type": "User",
                "url": "https://api.github.com/users/rom1504"
            }
        },
        {
            "author_association": "MEMBER",
            "body": "do we use that http://minecraft.gamepedia.com/The_Player#Movement \n\"The maximum height a player can jump without the \"jump boost\" effect is about 1.252 blocks.\" \n?\n",
            "created_at": "2015-03-27T14:20:35Z",
            "html_url": "https://github.com/PrismarineJS/mineflayer/issues/114#issuecomment-86954704",
            "id": 86954704,
            "issue_url": "https://api.github.com/repos/PrismarineJS/mineflayer/issues/114",
            "node_id": "MDEyOklzc3VlQ29tbWVudDg2OTU0NzA0",
            "performed_via_github_app": null,
            "reactions": {
                "+1": 0,
                "-1": 0,
                "confused": 0,
                "eyes": 0,
                "heart": 0,
                "hooray": 0,
                "laugh": 0,
                "rocket": 0,
                "total_count": 0,
                "url": "https://api.github.com/repos/PrismarineJS/mineflayer/issues/comments/86954704/reactions"
            },
            "updated_at": "2015-03-27T14:20:35Z",
            "url": "https://api.github.com/repos/PrismarineJS/mineflayer/issues/comments/86954704",
            "user": {
                "avatar_url": "https://avatars.githubusercontent.com/u/2346494?v=4",
                "events_url": "https://api.github.com/users/rom1504/events{/privacy}",
                "followers_url": "https://api.github.com/users/rom1504/followers",
                "following_url": "https://api.github.com/users/rom1504/following{/other_user}",
                "gists_url": "https://api.github.com/users/rom1504/gists{/gist_id}",
                "gravatar_id": "",
                "html_url": "https://github.com/rom1504",
                "id": 2346494,
                "login": "rom1504",
                "node_id": "MDQ6VXNlcjIzNDY0OTQ=",
                "organizations_url": "https://api.github.com/users/rom1504/orgs",
                "received_events_url": "https://api.github.com/users/rom1504/received_events",
                "repos_url": "https://api.github.com/users/rom1504/repos",
                "site_admin": false,
                "starred_url": "https://api.github.com/users/rom1504/starred{/owner}{/repo}",
                "subscriptions_url": "https://api.github.com/users/rom1504/subscriptions",
                "type": "User",
                "url": "https://api.github.com/users/rom1504"
            }
        },
        {
            "author_association": "MEMBER",
            "body": "Also see http://minecraft.gamepedia.com/Effect\n",
            "created_at": "2015-03-27T14:27:32Z",
            "html_url": "https://github.com/PrismarineJS/mineflayer/issues/114#issuecomment-86957317",
            "id": 86957317,
            "issue_url": "https://api.github.com/repos/PrismarineJS/mineflayer/issues/114",
            "node_id": "MDEyOklzc3VlQ29tbWVudDg2OTU3MzE3",
            "performed_via_github_app": null,
            "reactions": {
                "+1": 0,
                "-1": 0,
                "confused": 0,
                "eyes": 0,
                "heart": 0,
                "hooray": 0,
                "laugh": 0,
                "rocket": 0,
                "total_count": 0,
                "url": "https://api.github.com/repos/PrismarineJS/mineflayer/issues/comments/86957317/reactions"
            },
            "updated_at": "2015-03-27T14:27:32Z",
            "url": "https://api.github.com/repos/PrismarineJS/mineflayer/issues/comments/86957317",
            "user": {
                "avatar_url": "https://avatars.githubusercontent.com/u/2346494?v=4",
                "events_url": "https://api.github.com/users/rom1504/events{/privacy}",
                "followers_url": "https://api.github.com/users/rom1504/followers",
                "following_url": "https://api.github.com/users/rom1504/following{/other_user}",
                "gists_url": "https://api.github.com/users/rom1504/gists{/gist_id}",
                "gravatar_id": "",
                "html_url": "https://github.com/rom1504",
                "id": 2346494,
                "login": "rom1504",
                "node_id": "MDQ6VXNlcjIzNDY0OTQ=",
                "organizations_url": "https://api.github.com/users/rom1504/orgs",
                "received_events_url": "https://api.github.com/users/rom1504/received_events",
                "repos_url": "https://api.github.com/users/rom1504/repos",
                "site_admin": false,
                "starred_url": "https://api.github.com/users/rom1504/starred{/owner}{/repo}",
                "subscriptions_url": "https://api.github.com/users/rom1504/subscriptions",
                "type": "User",
                "url": "https://api.github.com/users/rom1504"
            }
        },
        {
            "author_association": "MEMBER",
            "body": "I don't think we support status effects. It was added with 1.7, with the beacons, IIRC.\n",
            "created_at": "2015-03-27T14:54:15Z",
            "html_url": "https://github.com/PrismarineJS/mineflayer/issues/114#issuecomment-86963406",
            "id": 86963406,
            "issue_url": "https://api.github.com/repos/PrismarineJS/mineflayer/issues/114",
            "node_id": "MDEyOklzc3VlQ29tbWVudDg2OTYzNDA2",
            "performed_via_github_app": null,
            "reactions": {
                "+1": 0,
                "-1": 0,
                "confused": 0,
                "eyes": 0,
                "heart": 0,
                "hooray": 0,
                "laugh": 0,
                "rocket": 0,
                "total_count": 0,
                "url": "https://api.github.com/repos/PrismarineJS/mineflayer/issues/comments/86963406/reactions"
            },
            "updated_at": "2015-03-27T14:54:15Z",
            "url": "https://api.github.com/repos/PrismarineJS/mineflayer/issues/comments/86963406",
            "user": {
                "avatar_url": "https://avatars.githubusercontent.com/u/1069318?v=4",
                "events_url": "https://api.github.com/users/roblabla/events{/privacy}",
                "followers_url": "https://api.github.com/users/roblabla/followers",
                "following_url": "https://api.github.com/users/roblabla/following{/other_user}",
                "gists_url": "https://api.github.com/users/roblabla/gists{/gist_id}",
                "gravatar_id": "",
                "html_url": "https://github.com/roblabla",
                "id": 1069318,
                "login": "roblabla",
                "node_id": "MDQ6VXNlcjEwNjkzMTg=",
                "organizations_url": "https://api.github.com/users/roblabla/orgs",
                "received_events_url": "https://api.github.com/users/roblabla/received_events",
                "repos_url": "https://api.github.com/users/roblabla/repos",
                "site_admin": false,
                "starred_url": "https://api.github.com/users/roblabla/starred{/owner}{/repo}",
                "subscriptions_url": "https://api.github.com/users/roblabla/subscriptions",
                "type": "User",
                "url": "https://api.github.com/users/roblabla"
            }
        },
        {
            "author_association": "MEMBER",
            "body": "Yeah, but we should still jump only a maximum of 1.252 blocks. I'm pretty sure physics.js jump implementation doesn't do that.\n",
            "created_at": "2015-03-27T15:02:30Z",
            "html_url": "https://github.com/PrismarineJS/mineflayer/issues/114#issuecomment-86965551",
            "id": 86965551,
            "issue_url": "https://api.github.com/repos/PrismarineJS/mineflayer/issues/114",
            "node_id": "MDEyOklzc3VlQ29tbWVudDg2OTY1NTUx",
            "performed_via_github_app": null,
            "reactions": {
                "+1": 0,
                "-1": 0,
                "confused": 0,
                "eyes": 0,
                "heart": 0,
                "hooray": 0,
                "laugh": 0,
                "rocket": 0,
                "total_count": 0,
                "url": "https://api.github.com/repos/PrismarineJS/mineflayer/issues/comments/86965551/reactions"
            },
            "updated_at": "2015-03-27T15:02:30Z",
            "url": "https://api.github.com/repos/PrismarineJS/mineflayer/issues/comments/86965551",
            "user": {
                "avatar_url": "https://avatars.githubusercontent.com/u/2346494?v=4",
                "events_url": "https://api.github.com/users/rom1504/events{/privacy}",
                "followers_url": "https://api.github.com/users/rom1504/followers",
                "following_url": "https://api.github.com/users/rom1504/following{/other_user}",
                "gists_url": "https://api.github.com/users/rom1504/gists{/gist_id}",
                "gravatar_id": "",
                "html_url": "https://github.com/rom1504",
                "id": 2346494,
                "login": "rom1504",
                "node_id": "MDQ6VXNlcjIzNDY0OTQ=",
                "organizations_url": "https://api.github.com/users/rom1504/orgs",
                "received_events_url": "https://api.github.com/users/rom1504/received_events",
                "repos_url": "https://api.github.com/users/rom1504/repos",
                "site_admin": false,
                "starred_url": "https://api.github.com/users/rom1504/starred{/owner}{/repo}",
                "subscriptions_url": "https://api.github.com/users/rom1504/subscriptions",
                "type": "User",
                "url": "https://api.github.com/users/rom1504"
            }
        }
    ],
    "comments": 9,
    "comments_url": "https://api.github.com/repos/PrismarineJS/mineflayer/issues/114/comments",
    "created_at": "2013-02-03T05:54:08Z",
    "event_data": [
        {
            "actor": {
                "avatar_url": "https://avatars.githubusercontent.com/u/834342?v=4",
                "events_url": "https://api.github.com/users/nevercast/events{/privacy}",
                "followers_url": "https://api.github.com/users/nevercast/followers",
                "following_url": "https://api.github.com/users/nevercast/following{/other_user}",
                "gists_url": "https://api.github.com/users/nevercast/gists{/gist_id}",
                "gravatar_id": "",
                "html_url": "https://github.com/nevercast",
                "id": 834342,
                "login": "nevercast",
                "node_id": "MDQ6VXNlcjgzNDM0Mg==",
                "organizations_url": "https://api.github.com/users/nevercast/orgs",
                "received_events_url": "https://api.github.com/users/nevercast/received_events",
                "repos_url": "https://api.github.com/users/nevercast/repos",
                "site_admin": false,
                "starred_url": "https://api.github.com/users/nevercast/starred{/owner}{/repo}",
                "subscriptions_url": "https://api.github.com/users/nevercast/subscriptions",
                "type": "User",
                "url": "https://api.github.com/users/nevercast"
            },
            "commit_id": null,
            "commit_url": null,
            "created_at": "2014-04-21T23:38:39Z",
            "event": "closed",
            "id": 113681160,
            "node_id": "MDExOkNsb3NlZEV2ZW50MTEzNjgxMTYw",
            "performed_via_github_app": null,
            "state_reason": null,
            "url": "https://api.github.com/repos/PrismarineJS/mineflayer/issues/events/113681160"
        },
        {
            "actor": {
                "avatar_url": "https://avatars.githubusercontent.com/u/834342?v=4",
                "events_url": "https://api.github.com/users/nevercast/events{/privacy}",
                "followers_url": "https://api.github.com/users/nevercast/followers",
                "following_url": "https://api.github.com/users/nevercast/following{/other_user}",
                "gists_url": "https://api.github.com/users/nevercast/gists{/gist_id}",
                "gravatar_id": "",
                "html_url": "https://github.com/nevercast",
                "id": 834342,
                "login": "nevercast",
                "node_id": "MDQ6VXNlcjgzNDM0Mg==",
                "organizations_url": "https://api.github.com/users/nevercast/orgs",
                "received_events_url": "https://api.github.com/users/nevercast/received_events",
                "repos_url": "https://api.github.com/users/nevercast/repos",
                "site_admin": false,
                "starred_url": "https://api.github.com/users/nevercast/starred{/owner}{/repo}",
                "subscriptions_url": "https://api.github.com/users/nevercast/subscriptions",
                "type": "User",
                "url": "https://api.github.com/users/nevercast"
            },
            "commit_id": null,
            "commit_url": null,
            "created_at": "2014-04-21T23:38:44Z",
            "event": "reopened",
            "id": 113681190,
            "node_id": "MDEzOlJlb3BlbmVkRXZlbnQxMTM2ODExOTA=",
            "performed_via_github_app": null,
            "state_reason": null,
            "url": "https://api.github.com/repos/PrismarineJS/mineflayer/issues/events/113681190"
        },
        {
            "actor": {
                "avatar_url": "https://avatars.githubusercontent.com/u/834342?v=4",
                "events_url": "https://api.github.com/users/nevercast/events{/privacy}",
                "followers_url": "https://api.github.com/users/nevercast/followers",
                "following_url": "https://api.github.com/users/nevercast/following{/other_user}",
                "gists_url": "https://api.github.com/users/nevercast/gists{/gist_id}",
                "gravatar_id": "",
                "html_url": "https://github.com/nevercast",
                "id": 834342,
                "login": "nevercast",
                "node_id": "MDQ6VXNlcjgzNDM0Mg==",
                "organizations_url": "https://api.github.com/users/nevercast/orgs",
                "received_events_url": "https://api.github.com/users/nevercast/received_events",
                "repos_url": "https://api.github.com/users/nevercast/repos",
                "site_admin": false,
                "starred_url": "https://api.github.com/users/nevercast/starred{/owner}{/repo}",
                "subscriptions_url": "https://api.github.com/users/nevercast/subscriptions",
                "type": "User",
                "url": "https://api.github.com/users/nevercast"
            },
            "commit_id": null,
            "commit_url": null,
            "created_at": "2014-04-21T23:38:47Z",
            "event": "milestoned",
            "id": 113681202,
            "milestone": {
                "title": "Stable 1.7"
            },
            "node_id": "MDE1Ok1pbGVzdG9uZWRFdmVudDExMzY4MTIwMg==",
            "performed_via_github_app": null,
            "url": "https://api.github.com/repos/PrismarineJS/mineflayer/issues/events/113681202"
        },
        {
            "actor": {
                "avatar_url": "https://avatars.githubusercontent.com/u/106511?v=4",
                "events_url": "https://api.github.com/users/andrewrk/events{/privacy}",
                "followers_url": "https://api.github.com/users/andrewrk/followers",
                "following_url": "https://api.github.com/users/andrewrk/following{/other_user}",
                "gists_url": "https://api.github.com/users/andrewrk/gists{/gist_id}",
                "gravatar_id": "",
                "html_url": "https://github.com/andrewrk",
                "id": 106511,
                "login": "andrewrk",
                "node_id": "MDQ6VXNlcjEwNjUxMQ==",
                "organizations_url": "https://api.github.com/users/andrewrk/orgs",
                "received_events_url": "https://api.github.com/users/andrewrk/received_events",
                "repos_url": "https://api.github.com/users/andrewrk/repos",
                "site_admin": false,
                "starred_url": "https://api.github.com/users/andrewrk/starred{/owner}{/repo}",
                "subscriptions_url": "https://api.github.com/users/andrewrk/subscriptions",
                "type": "User",
                "url": "https://api.github.com/users/andrewrk"
            },
            "commit_id": null,
            "commit_url": null,
            "created_at": "2014-04-22T01:36:36Z",
            "event": "mentioned",
            "id": 113703664,
            "node_id": "MDE0Ok1lbnRpb25lZEV2ZW50MTEzNzAzNjY0",
            "performed_via_github_app": null,
            "url": "https://api.github.com/repos/PrismarineJS/mineflayer/issues/events/113703664"
        },
        {
            "actor": {
                "avatar_url": "https://avatars.githubusercontent.com/u/106511?v=4",
                "events_url": "https://api.github.com/users/andrewrk/events{/privacy}",
                "followers_url": "https://api.github.com/users/andrewrk/followers",
                "following_url": "https://api.github.com/users/andrewrk/following{/other_user}",
                "gists_url": "https://api.github.com/users/andrewrk/gists{/gist_id}",
                "gravatar_id": "",
                "html_url": "https://github.com/andrewrk",
                "id": 106511,
                "login": "andrewrk",
                "node_id": "MDQ6VXNlcjEwNjUxMQ==",
                "organizations_url": "https://api.github.com/users/andrewrk/orgs",
                "received_events_url": "https://api.github.com/users/andrewrk/received_events",
                "repos_url": "https://api.github.com/users/andrewrk/repos",
                "site_admin": false,
                "starred_url": "https://api.github.com/users/andrewrk/starred{/owner}{/repo}",
                "subscriptions_url": "https://api.github.com/users/andrewrk/subscriptions",
                "type": "User",
                "url": "https://api.github.com/users/andrewrk"
            },
            "commit_id": null,
            "commit_url": null,
            "created_at": "2014-04-22T01:36:36Z",
            "event": "subscribed",
            "id": 113703665,
            "node_id": "MDE1OlN1YnNjcmliZWRFdmVudDExMzcwMzY2NQ==",
            "performed_via_github_app": null,
            "url": "https://api.github.com/repos/PrismarineJS/mineflayer/issues/events/113703665"
        },
        {
            "actor": {
                "avatar_url": "https://avatars.githubusercontent.com/u/2346494?v=4",
                "events_url": "https://api.github.com/users/rom1504/events{/privacy}",
                "followers_url": "https://api.github.com/users/rom1504/followers",
                "following_url": "https://api.github.com/users/rom1504/following{/other_user}",
                "gists_url": "https://api.github.com/users/rom1504/gists{/gist_id}",
                "gravatar_id": "",
                "html_url": "https://github.com/rom1504",
                "id": 2346494,
                "login": "rom1504",
                "node_id": "MDQ6VXNlcjIzNDY0OTQ=",
                "organizations_url": "https://api.github.com/users/rom1504/orgs",
                "received_events_url": "https://api.github.com/users/rom1504/received_events",
                "repos_url": "https://api.github.com/users/rom1504/repos",
                "site_admin": false,
                "starred_url": "https://api.github.com/users/rom1504/starred{/owner}{/repo}",
                "subscriptions_url": "https://api.github.com/users/rom1504/subscriptions",
                "type": "User",
                "url": "https://api.github.com/users/rom1504"
            },
            "commit_id": null,
            "commit_url": null,
            "created_at": "2015-03-24T14:06:26Z",
            "event": "labeled",
            "id": 263529270,
            "label": {
                "color": "006b75",
                "name": "physics"
            },
            "node_id": "MDEyOkxhYmVsZWRFdmVudDI2MzUyOTI3MA==",
            "performed_via_github_app": null,
            "url": "https://api.github.com/repos/PrismarineJS/mineflayer/issues/events/263529270"
        },
        {
            "actor": {
                "avatar_url": "https://avatars.githubusercontent.com/u/2346494?v=4",
                "events_url": "https://api.github.com/users/rom1504/events{/privacy}",
                "followers_url": "https://api.github.com/users/rom1504/followers",
                "following_url": "https://api.github.com/users/rom1504/following{/other_user}",
                "gists_url": "https://api.github.com/users/rom1504/gists{/gist_id}",
                "gravatar_id": "",
                "html_url": "https://github.com/rom1504",
                "id": 2346494,
                "login": "rom1504",
                "node_id": "MDQ6VXNlcjIzNDY0OTQ=",
                "organizations_url": "https://api.github.com/users/rom1504/orgs",
                "received_events_url": "https://api.github.com/users/rom1504/received_events",
                "repos_url": "https://api.github.com/users/rom1504/repos",
                "site_admin": false,
                "starred_url": "https://api.github.com/users/rom1504/starred{/owner}{/repo}",
                "subscriptions_url": "https://api.github.com/users/rom1504/subscriptions",
                "type": "User",
                "url": "https://api.github.com/users/rom1504"
            },
            "commit_id": null,
            "commit_url": null,
            "created_at": "2015-03-27T12:49:54Z",
            "event": "labeled",
            "id": 266848131,
            "label": {
                "color": "e10c02",
                "name": "bug"
            },
            "node_id": "MDEyOkxhYmVsZWRFdmVudDI2Njg0ODEzMQ==",
            "performed_via_github_app": null,
            "url": "https://api.github.com/repos/PrismarineJS/mineflayer/issues/events/266848131"
        },
        {
            "actor": {
                "avatar_url": "https://avatars.githubusercontent.com/u/2346494?v=4",
                "events_url": "https://api.github.com/users/rom1504/events{/privacy}",
                "followers_url": "https://api.github.com/users/rom1504/followers",
                "following_url": "https://api.github.com/users/rom1504/following{/other_user}",
                "gists_url": "https://api.github.com/users/rom1504/gists{/gist_id}",
                "gravatar_id": "",
                "html_url": "https://github.com/rom1504",
                "id": 2346494,
                "login": "rom1504",
                "node_id": "MDQ6VXNlcjIzNDY0OTQ=",
                "organizations_url": "https://api.github.com/users/rom1504/orgs",
                "received_events_url": "https://api.github.com/users/rom1504/received_events",
                "repos_url": "https://api.github.com/users/rom1504/repos",
                "site_admin": false,
                "starred_url": "https://api.github.com/users/rom1504/starred{/owner}{/repo}",
                "subscriptions_url": "https://api.github.com/users/rom1504/subscriptions",
                "type": "User",
                "url": "https://api.github.com/users/rom1504"
            },
            "commit_id": "a8fadba468a2d5834a88f2be04ae6c1056029a4a",
            "commit_url": "https://api.github.com/repos/PrismarineJS/mineflayer/commits/a8fadba468a2d5834a88f2be04ae6c1056029a4a",
            "created_at": "2015-03-29T19:16:22Z",
            "event": "closed",
            "id": 267980785,
            "node_id": "MDExOkNsb3NlZEV2ZW50MjY3OTgwNzg1",
            "performed_via_github_app": null,
            "state_reason": null,
            "url": "https://api.github.com/repos/PrismarineJS/mineflayer/issues/events/267980785"
        },
        {
            "actor": {
                "avatar_url": "https://avatars.githubusercontent.com/u/2346494?v=4",
                "events_url": "https://api.github.com/users/rom1504/events{/privacy}",
                "followers_url": "https://api.github.com/users/rom1504/followers",
                "following_url": "https://api.github.com/users/rom1504/following{/other_user}",
                "gists_url": "https://api.github.com/users/rom1504/gists{/gist_id}",
                "gravatar_id": "",
                "html_url": "https://github.com/rom1504",
                "id": 2346494,
                "login": "rom1504",
                "node_id": "MDQ6VXNlcjIzNDY0OTQ=",
                "organizations_url": "https://api.github.com/users/rom1504/orgs",
                "received_events_url": "https://api.github.com/users/rom1504/received_events",
                "repos_url": "https://api.github.com/users/rom1504/repos",
                "site_admin": false,
                "starred_url": "https://api.github.com/users/rom1504/starred{/owner}{/repo}",
                "subscriptions_url": "https://api.github.com/users/rom1504/subscriptions",
                "type": "User",
                "url": "https://api.github.com/users/rom1504"
            },
            "commit_id": "0e7a2e3e58e4d5279b705ddf2fbfb41e36b6780d",
            "commit_url": "https://api.github.com/repos/PrismarineJS/mineflayer/commits/0e7a2e3e58e4d5279b705ddf2fbfb41e36b6780d",
            "created_at": "2016-01-09T23:55:11Z",
            "event": "referenced",
            "id": 510326158,
            "node_id": "MDE1OlJlZmVyZW5jZWRFdmVudDUxMDMyNjE1OA==",
            "performed_via_github_app": null,
            "url": "https://api.github.com/repos/PrismarineJS/mineflayer/issues/events/510326158"
        }
    ],
    "events_url": "https://api.github.com/repos/PrismarineJS/mineflayer/issues/114/events",
    "html_url": "https://github.com/PrismarineJS/mineflayer/issues/114",
    "id": 10581355,
    "labels": [
        {
            "color": "e10c02",
            "default": true,
            "description": null,
            "id": 173426,
            "name": "bug",
            "node_id": "MDU6TGFiZWwxNzM0MjY=",
            "url": "https://api.github.com/repos/PrismarineJS/mineflayer/labels/bug"
        },
        {
            "color": "006b75",
            "default": false,
            "description": null,
            "id": 191409952,
            "name": "physics",
            "node_id": "MDU6TGFiZWwxOTE0MDk5NTI=",
            "url": "https://api.github.com/repos/PrismarineJS/mineflayer/labels/physics"
        }
    ],
    "labels_url": "https://api.github.com/repos/PrismarineJS/mineflayer/issues/114/labels{/name}",
    "locked": false,
    "milestone": {
        "closed_at": "2020-05-08T23:44:04Z",
        "closed_issues": 12,
        "created_at": "2014-04-21T22:45:16Z",
        "creator": {
            "avatar_url": "https://avatars.githubusercontent.com/u/834342?v=4",
            "events_url": "https://api.github.com/users/nevercast/events{/privacy}",
            "followers_url": "https://api.github.com/users/nevercast/followers",
            "following_url": "https://api.github.com/users/nevercast/following{/other_user}",
            "gists_url": "https://api.github.com/users/nevercast/gists{/gist_id}",
            "gravatar_id": "",
            "html_url": "https://github.com/nevercast",
            "id": 834342,
            "login": "nevercast",
            "node_id": "MDQ6VXNlcjgzNDM0Mg==",
            "organizations_url": "https://api.github.com/users/nevercast/orgs",
            "received_events_url": "https://api.github.com/users/nevercast/received_events",
            "repos_url": "https://api.github.com/users/nevercast/repos",
            "site_admin": false,
            "starred_url": "https://api.github.com/users/nevercast/starred{/owner}{/repo}",
            "subscriptions_url": "https://api.github.com/users/nevercast/subscriptions",
            "type": "User",
            "url": "https://api.github.com/users/nevercast"
        },
        "description": "Minecraft 1.8.x compliant bot\r\nAll examples should work and code thoroughly checked",
        "due_on": null,
        "html_url": "https://github.com/PrismarineJS/mineflayer/milestone/1",
        "id": 636181,
        "labels_url": "https://api.github.com/repos/PrismarineJS/mineflayer/milestones/1/labels",
        "node_id": "MDk6TWlsZXN0b25lNjM2MTgx",
        "number": 1,
        "open_issues": 0,
        "state": "closed",
        "title": "1.1.0",
        "updated_at": "2020-05-08T23:44:04Z",
        "url": "https://api.github.com/repos/PrismarineJS/mineflayer/milestones/1"
    },
    "node_id": "MDU6SXNzdWUxMDU4MTM1NQ==",
    "number": 114,
    "performed_via_github_app": null,
    "reactions": {
        "+1": 0,
        "-1": 0,
        "confused": 0,
        "eyes": 0,
        "heart": 0,
        "hooray": 0,
        "laugh": 0,
        "rocket": 0,
        "total_count": 0,
        "url": "https://api.github.com/repos/PrismarineJS/mineflayer/issues/114/reactions"
    },
    "repository_url": "https://api.github.com/repos/PrismarineJS/mineflayer",
    "state": "closed",
    "state_reason": "completed",
    "timeline_url": "https://api.github.com/repos/PrismarineJS/mineflayer/issues/114/timeline",
    "title": "jumping for a long time hurts the bot",
    "updated_at": "2015-03-29T19:16:22Z",
    "url": "https://api.github.com/repos/PrismarineJS/mineflayer/issues/114",
    "user": {
        "avatar_url": "https://avatars.githubusercontent.com/u/159568?v=4",
        "events_url": "https://api.github.com/users/vogonistic/events{/privacy}",
        "followers_url": "https://api.github.com/users/vogonistic/followers",
        "following_url": "https://api.github.com/users/vogonistic/following{/other_user}",
        "gists_url": "https://api.github.com/users/vogonistic/gists{/gist_id}",
        "gravatar_id": "",
        "html_url": "https://github.com/vogonistic",
        "id": 159568,
        "login": "vogonistic",
        "node_id": "MDQ6VXNlcjE1OTU2OA==",
        "organizations_url": "https://api.github.com/users/vogonistic/orgs",
        "received_events_url": "https://api.github.com/users/vogonistic/received_events",
        "repos_url": "https://api.github.com/users/vogonistic/repos",
        "site_admin": false,
        "starred_url": "https://api.github.com/users/vogonistic/starred{/owner}{/repo}",
        "subscriptions_url": "https://api.github.com/users/vogonistic/subscriptions",
        "type": "User",
        "url": "https://api.github.com/users/vogonistic"
    }
}