{
    "active_lock_reason": null,
    "assignee": null,
    "assignees": [],
    "author_association": "CONTRIBUTOR",
    "body": "- [x] I have carefully read the [FAQ](https://github.com/PrismarineJS/mineflayer/blob/master/docs/FAQ.md) and it does not contain an answer to my question.\r\n- [x] I have carefully read the [API documentation](https://github.com/PrismarineJS/mineflayer/blob/master/docs/api.md) and it does not contain an answer to my question.\r\n- [x] I have carefully read the [examples](https://github.com/PrismarineJS/mineflayer/tree/master/examples) and they do not contain an answer to my question.\r\n\r\n## Versions\r\n - mineflayer: 2.27.0\r\n - server: Paper 1.12.2\r\n - node: 14.7.0\r\n\r\n## Detailed description of a question\r\nHow I can hurt entity, using holded item? (Bot hurting likely using his hand, not sword, but he is holding it.)\r\n",
    "closed_at": "2020-08-15T10:11:28Z",
    "comment_data": [
        {
            "author_association": "MEMBER",
            "body": "https://github.com/PrismarineJS/mineflayer/blob/master/docs/api.md#botattackentity",
            "created_at": "2020-08-14T15:11:42Z",
            "html_url": "https://github.com/PrismarineJS/mineflayer/issues/1238#issuecomment-674121917",
            "id": 674121917,
            "issue_url": "https://api.github.com/repos/PrismarineJS/mineflayer/issues/1238",
            "node_id": "MDEyOklzc3VlQ29tbWVudDY3NDEyMTkxNw==",
            "performed_via_github_app": null,
            "reactions": {
                "+1": 0,
                "-1": 0,
                "confused": 0,
                "eyes": 0,
                "heart": 0,
                "hooray": 0,
                "laugh": 0,
                "rocket": 0,
                "total_count": 0,
                "url": "https://api.github.com/repos/PrismarineJS/mineflayer/issues/comments/674121917/reactions"
            },
            "updated_at": "2020-08-14T15:11:42Z",
            "url": "https://api.github.com/repos/PrismarineJS/mineflayer/issues/comments/674121917",
            "user": {
                "avatar_url": "https://avatars.githubusercontent.com/u/3118172?v=4",
                "events_url": "https://api.github.com/users/TheDudeFromCI/events{/privacy}",
                "followers_url": "https://api.github.com/users/TheDudeFromCI/followers",
                "following_url": "https://api.github.com/users/TheDudeFromCI/following{/other_user}",
                "gists_url": "https://api.github.com/users/TheDudeFromCI/gists{/gist_id}",
                "gravatar_id": "",
                "html_url": "https://github.com/TheDudeFromCI",
                "id": 3118172,
                "login": "TheDudeFromCI",
                "node_id": "MDQ6VXNlcjMxMTgxNzI=",
                "organizations_url": "https://api.github.com/users/TheDudeFromCI/orgs",
                "received_events_url": "https://api.github.com/users/TheDudeFromCI/received_events",
                "repos_url": "https://api.github.com/users/TheDudeFromCI/repos",
                "site_admin": false,
                "starred_url": "https://api.github.com/users/TheDudeFromCI/starred{/owner}{/repo}",
                "subscriptions_url": "https://api.github.com/users/TheDudeFromCI/subscriptions",
                "type": "User",
                "url": "https://api.github.com/users/TheDudeFromCI"
            }
        },
        {
            "author_association": "CONTRIBUTOR",
            "body": "Dude, I am using it, but holding a sword it attacking like by his hands - damage is very low",
            "created_at": "2020-08-14T15:40:32Z",
            "html_url": "https://github.com/PrismarineJS/mineflayer/issues/1238#issuecomment-674135223",
            "id": 674135223,
            "issue_url": "https://api.github.com/repos/PrismarineJS/mineflayer/issues/1238",
            "node_id": "MDEyOklzc3VlQ29tbWVudDY3NDEzNTIyMw==",
            "performed_via_github_app": null,
            "reactions": {
                "+1": 0,
                "-1": 0,
                "confused": 0,
                "eyes": 0,
                "heart": 0,
                "hooray": 0,
                "laugh": 0,
                "rocket": 0,
                "total_count": 0,
                "url": "https://api.github.com/repos/PrismarineJS/mineflayer/issues/comments/674135223/reactions"
            },
            "updated_at": "2020-08-14T15:40:32Z",
            "url": "https://api.github.com/repos/PrismarineJS/mineflayer/issues/comments/674135223",
            "user": {
                "avatar_url": "https://avatars.githubusercontent.com/u/68467762?v=4",
                "events_url": "https://api.github.com/users/TheAirBlow/events{/privacy}",
                "followers_url": "https://api.github.com/users/TheAirBlow/followers",
                "following_url": "https://api.github.com/users/TheAirBlow/following{/other_user}",
                "gists_url": "https://api.github.com/users/TheAirBlow/gists{/gist_id}",
                "gravatar_id": "",
                "html_url": "https://github.com/TheAirBlow",
                "id": 68467762,
                "login": "TheAirBlow",
                "node_id": "MDQ6VXNlcjY4NDY3NzYy",
                "organizations_url": "https://api.github.com/users/TheAirBlow/orgs",
                "received_events_url": "https://api.github.com/users/TheAirBlow/received_events",
                "repos_url": "https://api.github.com/users/TheAirBlow/repos",
                "site_admin": false,
                "starred_url": "https://api.github.com/users/TheAirBlow/starred{/owner}{/repo}",
                "subscriptions_url": "https://api.github.com/users/TheAirBlow/subscriptions",
                "type": "User",
                "url": "https://api.github.com/users/TheAirBlow"
            }
        },
        {
            "author_association": "MEMBER",
            "body": "Is the sword in his offhand or something? If it's in his main hand, it might be a bug.\r\nCan we see your code and screenshots/a video of the event?",
            "created_at": "2020-08-14T15:42:03Z",
            "html_url": "https://github.com/PrismarineJS/mineflayer/issues/1238#issuecomment-674135884",
            "id": 674135884,
            "issue_url": "https://api.github.com/repos/PrismarineJS/mineflayer/issues/1238",
            "node_id": "MDEyOklzc3VlQ29tbWVudDY3NDEzNTg4NA==",
            "performed_via_github_app": null,
            "reactions": {
                "+1": 0,
                "-1": 0,
                "confused": 0,
                "eyes": 0,
                "heart": 0,
                "hooray": 0,
                "laugh": 0,
                "rocket": 0,
                "total_count": 0,
                "url": "https://api.github.com/repos/PrismarineJS/mineflayer/issues/comments/674135884/reactions"
            },
            "updated_at": "2020-08-14T15:42:12Z",
            "url": "https://api.github.com/repos/PrismarineJS/mineflayer/issues/comments/674135884",
            "user": {
                "avatar_url": "https://avatars.githubusercontent.com/u/3118172?v=4",
                "events_url": "https://api.github.com/users/TheDudeFromCI/events{/privacy}",
                "followers_url": "https://api.github.com/users/TheDudeFromCI/followers",
                "following_url": "https://api.github.com/users/TheDudeFromCI/following{/other_user}",
                "gists_url": "https://api.github.com/users/TheDudeFromCI/gists{/gist_id}",
                "gravatar_id": "",
                "html_url": "https://github.com/TheDudeFromCI",
                "id": 3118172,
                "login": "TheDudeFromCI",
                "node_id": "MDQ6VXNlcjMxMTgxNzI=",
                "organizations_url": "https://api.github.com/users/TheDudeFromCI/orgs",
                "received_events_url": "https://api.github.com/users/TheDudeFromCI/received_events",
                "repos_url": "https://api.github.com/users/TheDudeFromCI/repos",
                "site_admin": false,
                "starred_url": "https://api.github.com/users/TheDudeFromCI/starred{/owner}{/repo}",
                "subscriptions_url": "https://api.github.com/users/TheDudeFromCI/subscriptions",
                "type": "User",
                "url": "https://api.github.com/users/TheDudeFromCI"
            }
        },
        {
            "author_association": "CONTRIBUTOR",
            "body": "I gived my bot sword, and executed this:\r\n\r\n```js\r\nconst slots = bot.inventory.slots\r\nfor (var currSlot of slots) {\r\n   if (currSlot == null) continue;\r\n   if (currSlot.name = 'diamond_sword') {\r\n       const item = doggotools.itemByName(bot, currSlot.name)\r\n       bot.equip(item, 'hand')\r\n       return bot.chat(`Found diamond sword in slot number ${currSlot.slot}`)\r\n    }\r\n}\r\n```\r\nAnd sword equips successfully.\r\n\r\nBut then, when bot is attacking using this code:\r\n\r\n```js\r\nglobal.kaInterval = setInterval(killaura, 1000)\r\nfunction killaura() {\r\n     entity = doggotools.nearestEntity(bot)\r\n     if (entity !== null) {\r\n        global.canAttackSomeone = true\r\n        bot.activateItem()\r\n        bot.attack(entity, true);\r\n     }\r\n}\r\n```\r\n\r\nHe attacking me, but damage is very low.\r\n\r\nI, and the bot have unenchanted diamond armor.",
            "created_at": "2020-08-14T15:52:28Z",
            "html_url": "https://github.com/PrismarineJS/mineflayer/issues/1238#issuecomment-674140333",
            "id": 674140333,
            "issue_url": "https://api.github.com/repos/PrismarineJS/mineflayer/issues/1238",
            "node_id": "MDEyOklzc3VlQ29tbWVudDY3NDE0MDMzMw==",
            "performed_via_github_app": null,
            "reactions": {
                "+1": 0,
                "-1": 0,
                "confused": 0,
                "eyes": 0,
                "heart": 0,
                "hooray": 0,
                "laugh": 0,
                "rocket": 0,
                "total_count": 0,
                "url": "https://api.github.com/repos/PrismarineJS/mineflayer/issues/comments/674140333/reactions"
            },
            "updated_at": "2020-08-14T15:53:23Z",
            "url": "https://api.github.com/repos/PrismarineJS/mineflayer/issues/comments/674140333",
            "user": {
                "avatar_url": "https://avatars.githubusercontent.com/u/68467762?v=4",
                "events_url": "https://api.github.com/users/TheAirBlow/events{/privacy}",
                "followers_url": "https://api.github.com/users/TheAirBlow/followers",
                "following_url": "https://api.github.com/users/TheAirBlow/following{/other_user}",
                "gists_url": "https://api.github.com/users/TheAirBlow/gists{/gist_id}",
                "gravatar_id": "",
                "html_url": "https://github.com/TheAirBlow",
                "id": 68467762,
                "login": "TheAirBlow",
                "node_id": "MDQ6VXNlcjY4NDY3NzYy",
                "organizations_url": "https://api.github.com/users/TheAirBlow/orgs",
                "received_events_url": "https://api.github.com/users/TheAirBlow/received_events",
                "repos_url": "https://api.github.com/users/TheAirBlow/repos",
                "site_admin": false,
                "starred_url": "https://api.github.com/users/TheAirBlow/starred{/owner}{/repo}",
                "subscriptions_url": "https://api.github.com/users/TheAirBlow/subscriptions",
                "type": "User",
                "url": "https://api.github.com/users/TheAirBlow"
            }
        },
        {
            "author_association": "MEMBER",
            "body": "Don't use `activateItem` It's unneeded here.\r\nTry testing with no armor and see how much damage is done. The exact number of heart damage would be preferred here.\r\n\r\nIt may be related to the attack indicator, depending on how that's implemented. I'll need to know the number of hearts, though.",
            "created_at": "2020-08-14T15:55:29Z",
            "html_url": "https://github.com/PrismarineJS/mineflayer/issues/1238#issuecomment-674141626",
            "id": 674141626,
            "issue_url": "https://api.github.com/repos/PrismarineJS/mineflayer/issues/1238",
            "node_id": "MDEyOklzc3VlQ29tbWVudDY3NDE0MTYyNg==",
            "performed_via_github_app": null,
            "reactions": {
                "+1": 0,
                "-1": 0,
                "confused": 0,
                "eyes": 0,
                "heart": 0,
                "hooray": 0,
                "laugh": 0,
                "rocket": 0,
                "total_count": 0,
                "url": "https://api.github.com/repos/PrismarineJS/mineflayer/issues/comments/674141626/reactions"
            },
            "updated_at": "2020-08-14T15:55:29Z",
            "url": "https://api.github.com/repos/PrismarineJS/mineflayer/issues/comments/674141626",
            "user": {
                "avatar_url": "https://avatars.githubusercontent.com/u/3118172?v=4",
                "events_url": "https://api.github.com/users/TheDudeFromCI/events{/privacy}",
                "followers_url": "https://api.github.com/users/TheDudeFromCI/followers",
                "following_url": "https://api.github.com/users/TheDudeFromCI/following{/other_user}",
                "gists_url": "https://api.github.com/users/TheDudeFromCI/gists{/gist_id}",
                "gravatar_id": "",
                "html_url": "https://github.com/TheDudeFromCI",
                "id": 3118172,
                "login": "TheDudeFromCI",
                "node_id": "MDQ6VXNlcjMxMTgxNzI=",
                "organizations_url": "https://api.github.com/users/TheDudeFromCI/orgs",
                "received_events_url": "https://api.github.com/users/TheDudeFromCI/received_events",
                "repos_url": "https://api.github.com/users/TheDudeFromCI/repos",
                "site_admin": false,
                "starred_url": "https://api.github.com/users/TheDudeFromCI/starred{/owner}{/repo}",
                "subscriptions_url": "https://api.github.com/users/TheDudeFromCI/subscriptions",
                "type": "User",
                "url": "https://api.github.com/users/TheDudeFromCI"
            }
        },
        {
            "author_association": "CONTRIBUTOR",
            "body": "Same damage without armor",
            "created_at": "2020-08-14T15:57:36Z",
            "html_url": "https://github.com/PrismarineJS/mineflayer/issues/1238#issuecomment-674142628",
            "id": 674142628,
            "issue_url": "https://api.github.com/repos/PrismarineJS/mineflayer/issues/1238",
            "node_id": "MDEyOklzc3VlQ29tbWVudDY3NDE0MjYyOA==",
            "performed_via_github_app": null,
            "reactions": {
                "+1": 0,
                "-1": 0,
                "confused": 0,
                "eyes": 0,
                "heart": 0,
                "hooray": 0,
                "laugh": 0,
                "rocket": 0,
                "total_count": 0,
                "url": "https://api.github.com/repos/PrismarineJS/mineflayer/issues/comments/674142628/reactions"
            },
            "updated_at": "2020-08-14T15:57:36Z",
            "url": "https://api.github.com/repos/PrismarineJS/mineflayer/issues/comments/674142628",
            "user": {
                "avatar_url": "https://avatars.githubusercontent.com/u/68467762?v=4",
                "events_url": "https://api.github.com/users/TheAirBlow/events{/privacy}",
                "followers_url": "https://api.github.com/users/TheAirBlow/followers",
                "following_url": "https://api.github.com/users/TheAirBlow/following{/other_user}",
                "gists_url": "https://api.github.com/users/TheAirBlow/gists{/gist_id}",
                "gravatar_id": "",
                "html_url": "https://github.com/TheAirBlow",
                "id": 68467762,
                "login": "TheAirBlow",
                "node_id": "MDQ6VXNlcjY4NDY3NzYy",
                "organizations_url": "https://api.github.com/users/TheAirBlow/orgs",
                "received_events_url": "https://api.github.com/users/TheAirBlow/received_events",
                "repos_url": "https://api.github.com/users/TheAirBlow/repos",
                "site_admin": false,
                "starred_url": "https://api.github.com/users/TheAirBlow/starred{/owner}{/repo}",
                "subscriptions_url": "https://api.github.com/users/TheAirBlow/subscriptions",
                "type": "User",
                "url": "https://api.github.com/users/TheAirBlow"
            }
        },
        {
            "author_association": "MEMBER",
            "body": "I need the number of hearts.",
            "created_at": "2020-08-14T15:57:59Z",
            "html_url": "https://github.com/PrismarineJS/mineflayer/issues/1238#issuecomment-674142757",
            "id": 674142757,
            "issue_url": "https://api.github.com/repos/PrismarineJS/mineflayer/issues/1238",
            "node_id": "MDEyOklzc3VlQ29tbWVudDY3NDE0Mjc1Nw==",
            "performed_via_github_app": null,
            "reactions": {
                "+1": 0,
                "-1": 0,
                "confused": 0,
                "eyes": 0,
                "heart": 0,
                "hooray": 0,
                "laugh": 0,
                "rocket": 0,
                "total_count": 0,
                "url": "https://api.github.com/repos/PrismarineJS/mineflayer/issues/comments/674142757/reactions"
            },
            "updated_at": "2020-08-14T15:57:59Z",
            "url": "https://api.github.com/repos/PrismarineJS/mineflayer/issues/comments/674142757",
            "user": {
                "avatar_url": "https://avatars.githubusercontent.com/u/3118172?v=4",
                "events_url": "https://api.github.com/users/TheDudeFromCI/events{/privacy}",
                "followers_url": "https://api.github.com/users/TheDudeFromCI/followers",
                "following_url": "https://api.github.com/users/TheDudeFromCI/following{/other_user}",
                "gists_url": "https://api.github.com/users/TheDudeFromCI/gists{/gist_id}",
                "gravatar_id": "",
                "html_url": "https://github.com/TheDudeFromCI",
                "id": 3118172,
                "login": "TheDudeFromCI",
                "node_id": "MDQ6VXNlcjMxMTgxNzI=",
                "organizations_url": "https://api.github.com/users/TheDudeFromCI/orgs",
                "received_events_url": "https://api.github.com/users/TheDudeFromCI/received_events",
                "repos_url": "https://api.github.com/users/TheDudeFromCI/repos",
                "site_admin": false,
                "starred_url": "https://api.github.com/users/TheDudeFromCI/starred{/owner}{/repo}",
                "subscriptions_url": "https://api.github.com/users/TheDudeFromCI/subscriptions",
                "type": "User",
                "url": "https://api.github.com/users/TheDudeFromCI"
            }
        },
        {
            "author_association": "CONTRIBUTOR",
            "body": "Shoot, bot kicked for \"Attempting to attack an invalid entity\"",
            "created_at": "2020-08-14T16:00:11Z",
            "html_url": "https://github.com/PrismarineJS/mineflayer/issues/1238#issuecomment-674143800",
            "id": 674143800,
            "issue_url": "https://api.github.com/repos/PrismarineJS/mineflayer/issues/1238",
            "node_id": "MDEyOklzc3VlQ29tbWVudDY3NDE0MzgwMA==",
            "performed_via_github_app": null,
            "reactions": {
                "+1": 0,
                "-1": 0,
                "confused": 0,
                "eyes": 0,
                "heart": 0,
                "hooray": 0,
                "laugh": 0,
                "rocket": 0,
                "total_count": 0,
                "url": "https://api.github.com/repos/PrismarineJS/mineflayer/issues/comments/674143800/reactions"
            },
            "updated_at": "2020-08-14T16:00:18Z",
            "url": "https://api.github.com/repos/PrismarineJS/mineflayer/issues/comments/674143800",
            "user": {
                "avatar_url": "https://avatars.githubusercontent.com/u/68467762?v=4",
                "events_url": "https://api.github.com/users/TheAirBlow/events{/privacy}",
                "followers_url": "https://api.github.com/users/TheAirBlow/followers",
                "following_url": "https://api.github.com/users/TheAirBlow/following{/other_user}",
                "gists_url": "https://api.github.com/users/TheAirBlow/gists{/gist_id}",
                "gravatar_id": "",
                "html_url": "https://github.com/TheAirBlow",
                "id": 68467762,
                "login": "TheAirBlow",
                "node_id": "MDQ6VXNlcjY4NDY3NzYy",
                "organizations_url": "https://api.github.com/users/TheAirBlow/orgs",
                "received_events_url": "https://api.github.com/users/TheAirBlow/received_events",
                "repos_url": "https://api.github.com/users/TheAirBlow/repos",
                "site_admin": false,
                "starred_url": "https://api.github.com/users/TheAirBlow/starred{/owner}{/repo}",
                "subscriptions_url": "https://api.github.com/users/TheAirBlow/subscriptions",
                "type": "User",
                "url": "https://api.github.com/users/TheAirBlow"
            }
        },
        {
            "author_association": "CONTRIBUTOR",
            "body": "One heart of damage",
            "created_at": "2020-08-14T16:00:46Z",
            "html_url": "https://github.com/PrismarineJS/mineflayer/issues/1238#issuecomment-674144068",
            "id": 674144068,
            "issue_url": "https://api.github.com/repos/PrismarineJS/mineflayer/issues/1238",
            "node_id": "MDEyOklzc3VlQ29tbWVudDY3NDE0NDA2OA==",
            "performed_via_github_app": null,
            "reactions": {
                "+1": 0,
                "-1": 0,
                "confused": 0,
                "eyes": 0,
                "heart": 0,
                "hooray": 0,
                "laugh": 0,
                "rocket": 0,
                "total_count": 0,
                "url": "https://api.github.com/repos/PrismarineJS/mineflayer/issues/comments/674144068/reactions"
            },
            "updated_at": "2020-08-14T16:00:46Z",
            "url": "https://api.github.com/repos/PrismarineJS/mineflayer/issues/comments/674144068",
            "user": {
                "avatar_url": "https://avatars.githubusercontent.com/u/68467762?v=4",
                "events_url": "https://api.github.com/users/TheAirBlow/events{/privacy}",
                "followers_url": "https://api.github.com/users/TheAirBlow/followers",
                "following_url": "https://api.github.com/users/TheAirBlow/following{/other_user}",
                "gists_url": "https://api.github.com/users/TheAirBlow/gists{/gist_id}",
                "gravatar_id": "",
                "html_url": "https://github.com/TheAirBlow",
                "id": 68467762,
                "login": "TheAirBlow",
                "node_id": "MDQ6VXNlcjY4NDY3NzYy",
                "organizations_url": "https://api.github.com/users/TheAirBlow/orgs",
                "received_events_url": "https://api.github.com/users/TheAirBlow/received_events",
                "repos_url": "https://api.github.com/users/TheAirBlow/repos",
                "site_admin": false,
                "starred_url": "https://api.github.com/users/TheAirBlow/starred{/owner}{/repo}",
                "subscriptions_url": "https://api.github.com/users/TheAirBlow/subscriptions",
                "type": "User",
                "url": "https://api.github.com/users/TheAirBlow"
            }
        },
        {
            "author_association": "MEMBER",
            "body": "Looking at the code, the attack damage is calculated [server-side.](https://github.com/PrismarineJS/mineflayer/blob/c696102637fc973305e22c3d6f1bebe81cc4a3b3/lib/plugins/entities.js#L526) Is there any other context you can give?",
            "created_at": "2020-08-14T16:07:10Z",
            "html_url": "https://github.com/PrismarineJS/mineflayer/issues/1238#issuecomment-674147004",
            "id": 674147004,
            "issue_url": "https://api.github.com/repos/PrismarineJS/mineflayer/issues/1238",
            "node_id": "MDEyOklzc3VlQ29tbWVudDY3NDE0NzAwNA==",
            "performed_via_github_app": null,
            "reactions": {
                "+1": 0,
                "-1": 0,
                "confused": 0,
                "eyes": 0,
                "heart": 0,
                "hooray": 0,
                "laugh": 0,
                "rocket": 0,
                "total_count": 0,
                "url": "https://api.github.com/repos/PrismarineJS/mineflayer/issues/comments/674147004/reactions"
            },
            "updated_at": "2020-08-14T16:07:10Z",
            "url": "https://api.github.com/repos/PrismarineJS/mineflayer/issues/comments/674147004",
            "user": {
                "avatar_url": "https://avatars.githubusercontent.com/u/3118172?v=4",
                "events_url": "https://api.github.com/users/TheDudeFromCI/events{/privacy}",
                "followers_url": "https://api.github.com/users/TheDudeFromCI/followers",
                "following_url": "https://api.github.com/users/TheDudeFromCI/following{/other_user}",
                "gists_url": "https://api.github.com/users/TheDudeFromCI/gists{/gist_id}",
                "gravatar_id": "",
                "html_url": "https://github.com/TheDudeFromCI",
                "id": 3118172,
                "login": "TheDudeFromCI",
                "node_id": "MDQ6VXNlcjMxMTgxNzI=",
                "organizations_url": "https://api.github.com/users/TheDudeFromCI/orgs",
                "received_events_url": "https://api.github.com/users/TheDudeFromCI/received_events",
                "repos_url": "https://api.github.com/users/TheDudeFromCI/repos",
                "site_admin": false,
                "starred_url": "https://api.github.com/users/TheDudeFromCI/starred{/owner}{/repo}",
                "subscriptions_url": "https://api.github.com/users/TheDudeFromCI/subscriptions",
                "type": "User",
                "url": "https://api.github.com/users/TheDudeFromCI"
            }
        },
        {
            "author_association": "CONTRIBUTOR",
            "body": "No",
            "created_at": "2020-08-14T16:24:43Z",
            "html_url": "https://github.com/PrismarineJS/mineflayer/issues/1238#issuecomment-674154522",
            "id": 674154522,
            "issue_url": "https://api.github.com/repos/PrismarineJS/mineflayer/issues/1238",
            "node_id": "MDEyOklzc3VlQ29tbWVudDY3NDE1NDUyMg==",
            "performed_via_github_app": null,
            "reactions": {
                "+1": 0,
                "-1": 0,
                "confused": 0,
                "eyes": 0,
                "heart": 0,
                "hooray": 0,
                "laugh": 0,
                "rocket": 0,
                "total_count": 0,
                "url": "https://api.github.com/repos/PrismarineJS/mineflayer/issues/comments/674154522/reactions"
            },
            "updated_at": "2020-08-14T16:24:43Z",
            "url": "https://api.github.com/repos/PrismarineJS/mineflayer/issues/comments/674154522",
            "user": {
                "avatar_url": "https://avatars.githubusercontent.com/u/68467762?v=4",
                "events_url": "https://api.github.com/users/TheAirBlow/events{/privacy}",
                "followers_url": "https://api.github.com/users/TheAirBlow/followers",
                "following_url": "https://api.github.com/users/TheAirBlow/following{/other_user}",
                "gists_url": "https://api.github.com/users/TheAirBlow/gists{/gist_id}",
                "gravatar_id": "",
                "html_url": "https://github.com/TheAirBlow",
                "id": 68467762,
                "login": "TheAirBlow",
                "node_id": "MDQ6VXNlcjY4NDY3NzYy",
                "organizations_url": "https://api.github.com/users/TheAirBlow/orgs",
                "received_events_url": "https://api.github.com/users/TheAirBlow/received_events",
                "repos_url": "https://api.github.com/users/TheAirBlow/repos",
                "site_admin": false,
                "starred_url": "https://api.github.com/users/TheAirBlow/starred{/owner}{/repo}",
                "subscriptions_url": "https://api.github.com/users/TheAirBlow/subscriptions",
                "type": "User",
                "url": "https://api.github.com/users/TheAirBlow"
            }
        },
        {
            "author_association": "MEMBER",
            "body": "I've experienced the same issue, I think it is a bug but there is an easy way to fix it.\r\n\r\nThe second argument of\r\n```js\r\nbot.attack(entity, true)\r\n```\r\nis `swingArm`, if set to true, the bot makes only 1 damage whatever the held item is, but if set to false/nothing, it works properly.\r\n\r\nNow, depending on the server, the swingArm might be needed so we should fix it properly.",
            "created_at": "2020-08-14T20:21:52Z",
            "html_url": "https://github.com/PrismarineJS/mineflayer/issues/1238#issuecomment-674257248",
            "id": 674257248,
            "issue_url": "https://api.github.com/repos/PrismarineJS/mineflayer/issues/1238",
            "node_id": "MDEyOklzc3VlQ29tbWVudDY3NDI1NzI0OA==",
            "performed_via_github_app": null,
            "reactions": {
                "+1": 0,
                "-1": 0,
                "confused": 0,
                "eyes": 0,
                "heart": 0,
                "hooray": 0,
                "laugh": 0,
                "rocket": 0,
                "total_count": 0,
                "url": "https://api.github.com/repos/PrismarineJS/mineflayer/issues/comments/674257248/reactions"
            },
            "updated_at": "2020-08-14T20:21:52Z",
            "url": "https://api.github.com/repos/PrismarineJS/mineflayer/issues/comments/674257248",
            "user": {
                "avatar_url": "https://avatars.githubusercontent.com/u/1977472?v=4",
                "events_url": "https://api.github.com/users/Karang/events{/privacy}",
                "followers_url": "https://api.github.com/users/Karang/followers",
                "following_url": "https://api.github.com/users/Karang/following{/other_user}",
                "gists_url": "https://api.github.com/users/Karang/gists{/gist_id}",
                "gravatar_id": "",
                "html_url": "https://github.com/Karang",
                "id": 1977472,
                "login": "Karang",
                "node_id": "MDQ6VXNlcjE5Nzc0NzI=",
                "organizations_url": "https://api.github.com/users/Karang/orgs",
                "received_events_url": "https://api.github.com/users/Karang/received_events",
                "repos_url": "https://api.github.com/users/Karang/repos",
                "site_admin": false,
                "starred_url": "https://api.github.com/users/Karang/starred{/owner}{/repo}",
                "subscriptions_url": "https://api.github.com/users/Karang/subscriptions",
                "type": "User",
                "url": "https://api.github.com/users/Karang"
            }
        }
    ],
    "comments": 12,
    "comments_url": "https://api.github.com/repos/PrismarineJS/mineflayer/issues/1238/comments",
    "created_at": "2020-08-14T15:08:16Z",
    "event_data": [
        {
            "actor": {
                "avatar_url": "https://avatars.githubusercontent.com/u/68467762?v=4",
                "events_url": "https://api.github.com/users/TheAirBlow/events{/privacy}",
                "followers_url": "https://api.github.com/users/TheAirBlow/followers",
                "following_url": "https://api.github.com/users/TheAirBlow/following{/other_user}",
                "gists_url": "https://api.github.com/users/TheAirBlow/gists{/gist_id}",
                "gravatar_id": "",
                "html_url": "https://github.com/TheAirBlow",
                "id": 68467762,
                "login": "TheAirBlow",
                "node_id": "MDQ6VXNlcjY4NDY3NzYy",
                "organizations_url": "https://api.github.com/users/TheAirBlow/orgs",
                "received_events_url": "https://api.github.com/users/TheAirBlow/received_events",
                "repos_url": "https://api.github.com/users/TheAirBlow/repos",
                "site_admin": false,
                "starred_url": "https://api.github.com/users/TheAirBlow/starred{/owner}{/repo}",
                "subscriptions_url": "https://api.github.com/users/TheAirBlow/subscriptions",
                "type": "User",
                "url": "https://api.github.com/users/TheAirBlow"
            },
            "commit_id": null,
            "commit_url": null,
            "created_at": "2020-08-14T15:08:16Z",
            "event": "labeled",
            "id": 3656624376,
            "label": {
                "color": "d8f263",
                "name": "question"
            },
            "node_id": "MDEyOkxhYmVsZWRFdmVudDM2NTY2MjQzNzY=",
            "performed_via_github_app": null,
            "url": "https://api.github.com/repos/PrismarineJS/mineflayer/issues/events/3656624376"
        },
        {
            "actor": {
                "avatar_url": "https://avatars.githubusercontent.com/u/68467762?v=4",
                "events_url": "https://api.github.com/users/TheAirBlow/events{/privacy}",
                "followers_url": "https://api.github.com/users/TheAirBlow/followers",
                "following_url": "https://api.github.com/users/TheAirBlow/following{/other_user}",
                "gists_url": "https://api.github.com/users/TheAirBlow/gists{/gist_id}",
                "gravatar_id": "",
                "html_url": "https://github.com/TheAirBlow",
                "id": 68467762,
                "login": "TheAirBlow",
                "node_id": "MDQ6VXNlcjY4NDY3NzYy",
                "organizations_url": "https://api.github.com/users/TheAirBlow/orgs",
                "received_events_url": "https://api.github.com/users/TheAirBlow/received_events",
                "repos_url": "https://api.github.com/users/TheAirBlow/repos",
                "site_admin": false,
                "starred_url": "https://api.github.com/users/TheAirBlow/starred{/owner}{/repo}",
                "subscriptions_url": "https://api.github.com/users/TheAirBlow/subscriptions",
                "type": "User",
                "url": "https://api.github.com/users/TheAirBlow"
            },
            "commit_id": null,
            "commit_url": null,
            "created_at": "2020-08-15T10:11:28Z",
            "event": "closed",
            "id": 3658394871,
            "node_id": "MDExOkNsb3NlZEV2ZW50MzY1ODM5NDg3MQ==",
            "performed_via_github_app": null,
            "state_reason": null,
            "url": "https://api.github.com/repos/PrismarineJS/mineflayer/issues/events/3658394871"
        },
        {
            "actor": {
                "avatar_url": "https://avatars.githubusercontent.com/u/13330620?v=4",
                "events_url": "https://api.github.com/users/wvffle/events{/privacy}",
                "followers_url": "https://api.github.com/users/wvffle/followers",
                "following_url": "https://api.github.com/users/wvffle/following{/other_user}",
                "gists_url": "https://api.github.com/users/wvffle/gists{/gist_id}",
                "gravatar_id": "",
                "html_url": "https://github.com/wvffle",
                "id": 13330620,
                "login": "wvffle",
                "node_id": "MDQ6VXNlcjEzMzMwNjIw",
                "organizations_url": "https://api.github.com/users/wvffle/orgs",
                "received_events_url": "https://api.github.com/users/wvffle/received_events",
                "repos_url": "https://api.github.com/users/wvffle/repos",
                "site_admin": false,
                "starred_url": "https://api.github.com/users/wvffle/starred{/owner}{/repo}",
                "subscriptions_url": "https://api.github.com/users/wvffle/subscriptions",
                "type": "User",
                "url": "https://api.github.com/users/wvffle"
            },
            "commit_id": null,
            "commit_url": null,
            "created_at": "2020-08-15T15:38:37Z",
            "event": "renamed",
            "id": 3658631196,
            "node_id": "MDE3OlJlbmFtZWRUaXRsZUV2ZW50MzY1ODYzMTE5Ng==",
            "performed_via_github_app": null,
            "rename": {
                "from": "How to hurt using holded item",
                "to": "How to hurt using held item"
            },
            "url": "https://api.github.com/repos/PrismarineJS/mineflayer/issues/events/3658631196"
        }
    ],
    "events_url": "https://api.github.com/repos/PrismarineJS/mineflayer/issues/1238/events",
    "html_url": "https://github.com/PrismarineJS/mineflayer/issues/1238",
    "id": 679221439,
    "labels": [
        {
            "color": "d8f263",
            "default": true,
            "description": "",
            "id": 1208461827,
            "name": "question",
            "node_id": "MDU6TGFiZWwxMjA4NDYxODI3",
            "url": "https://api.github.com/repos/PrismarineJS/mineflayer/labels/question"
        }
    ],
    "labels_url": "https://api.github.com/repos/PrismarineJS/mineflayer/issues/1238/labels{/name}",
    "locked": false,
    "milestone": null,
    "node_id": "MDU6SXNzdWU2NzkyMjE0Mzk=",
    "number": 1238,
    "performed_via_github_app": null,
    "reactions": {
        "+1": 0,
        "-1": 0,
        "confused": 0,
        "eyes": 0,
        "heart": 0,
        "hooray": 0,
        "laugh": 0,
        "rocket": 0,
        "total_count": 0,
        "url": "https://api.github.com/repos/PrismarineJS/mineflayer/issues/1238/reactions"
    },
    "repository_url": "https://api.github.com/repos/PrismarineJS/mineflayer",
    "state": "closed",
    "state_reason": "completed",
    "timeline_url": "https://api.github.com/repos/PrismarineJS/mineflayer/issues/1238/timeline",
    "title": "How to hurt using held item",
    "updated_at": "2020-08-15T15:38:37Z",
    "url": "https://api.github.com/repos/PrismarineJS/mineflayer/issues/1238",
    "user": {
        "avatar_url": "https://avatars.githubusercontent.com/u/68467762?v=4",
        "events_url": "https://api.github.com/users/TheAirBlow/events{/privacy}",
        "followers_url": "https://api.github.com/users/TheAirBlow/followers",
        "following_url": "https://api.github.com/users/TheAirBlow/following{/other_user}",
        "gists_url": "https://api.github.com/users/TheAirBlow/gists{/gist_id}",
        "gravatar_id": "",
        "html_url": "https://github.com/TheAirBlow",
        "id": 68467762,
        "login": "TheAirBlow",
        "node_id": "MDQ6VXNlcjY4NDY3NzYy",
        "organizations_url": "https://api.github.com/users/TheAirBlow/orgs",
        "received_events_url": "https://api.github.com/users/TheAirBlow/received_events",
        "repos_url": "https://api.github.com/users/TheAirBlow/repos",
        "site_admin": false,
        "starred_url": "https://api.github.com/users/TheAirBlow/starred{/owner}{/repo}",
        "subscriptions_url": "https://api.github.com/users/TheAirBlow/subscriptions",
        "type": "User",
        "url": "https://api.github.com/users/TheAirBlow"
    }
}