{
    "active_lock_reason": null,
    "assignee": null,
    "assignees": [],
    "author_association": "MEMBER",
    "body": "see context in https://github.com/PrismarineJS/prismarine-item/pull/8",
    "closed_at": null,
    "comment_data": [],
    "comments": 0,
    "comments_url": "https://api.github.com/repos/PrismarineJS/mineflayer/issues/1417/comments",
    "created_at": "2020-10-31T15:21:50Z",
    "event_data": [
        {
            "actor": {
                "avatar_url": "https://avatars.githubusercontent.com/u/2346494?v=4",
                "events_url": "https://api.github.com/users/rom1504/events{/privacy}",
                "followers_url": "https://api.github.com/users/rom1504/followers",
                "following_url": "https://api.github.com/users/rom1504/following{/other_user}",
                "gists_url": "https://api.github.com/users/rom1504/gists{/gist_id}",
                "gravatar_id": "",
                "html_url": "https://github.com/rom1504",
                "id": 2346494,
                "login": "rom1504",
                "node_id": "MDQ6VXNlcjIzNDY0OTQ=",
                "organizations_url": "https://api.github.com/users/rom1504/orgs",
                "received_events_url": "https://api.github.com/users/rom1504/received_events",
                "repos_url": "https://api.github.com/users/rom1504/repos",
                "site_admin": false,
                "starred_url": "https://api.github.com/users/rom1504/starred{/owner}{/repo}",
                "subscriptions_url": "https://api.github.com/users/rom1504/subscriptions",
                "type": "User",
                "url": "https://api.github.com/users/rom1504"
            },
            "commit_id": null,
            "commit_url": null,
            "created_at": "2020-10-31T15:21:50Z",
            "event": "labeled",
            "id": 3944219195,
            "label": {
                "color": "444444",
                "name": "new feature"
            },
            "node_id": "MDEyOkxhYmVsZWRFdmVudDM5NDQyMTkxOTU=",
            "performed_via_github_app": null,
            "url": "https://api.github.com/repos/PrismarineJS/mineflayer/issues/events/3944219195"
        },
        {
            "actor": {
                "avatar_url": "https://avatars.githubusercontent.com/u/2346494?v=4",
                "events_url": "https://api.github.com/users/rom1504/events{/privacy}",
                "followers_url": "https://api.github.com/users/rom1504/followers",
                "following_url": "https://api.github.com/users/rom1504/following{/other_user}",
                "gists_url": "https://api.github.com/users/rom1504/gists{/gist_id}",
                "gravatar_id": "",
                "html_url": "https://github.com/rom1504",
                "id": 2346494,
                "login": "rom1504",
                "node_id": "MDQ6VXNlcjIzNDY0OTQ=",
                "organizations_url": "https://api.github.com/users/rom1504/orgs",
                "received_events_url": "https://api.github.com/users/rom1504/received_events",
                "repos_url": "https://api.github.com/users/rom1504/repos",
                "site_admin": false,
                "starred_url": "https://api.github.com/users/rom1504/starred{/owner}{/repo}",
                "subscriptions_url": "https://api.github.com/users/rom1504/subscriptions",
                "type": "User",
                "url": "https://api.github.com/users/rom1504"
            },
            "commit_id": null,
            "commit_url": null,
            "created_at": "2021-02-06T10:56:01Z",
            "event": "labeled",
            "id": 4299006064,
            "label": {
                "color": "bfdadc",
                "name": "Stage1"
            },
            "node_id": "MDEyOkxhYmVsZWRFdmVudDQyOTkwMDYwNjQ=",
            "performed_via_github_app": null,
            "url": "https://api.github.com/repos/PrismarineJS/mineflayer/issues/events/4299006064"
        }
    ],
    "events_url": "https://api.github.com/repos/PrismarineJS/mineflayer/issues/1417/events",
    "html_url": "https://github.com/PrismarineJS/mineflayer/issues/1417",
    "id": 733742860,
    "labels": [
        {
            "color": "444444",
            "default": false,
            "description": "",
            "id": 111395,
            "name": "new feature",
            "node_id": "MDU6TGFiZWwxMTEzOTU=",
            "url": "https://api.github.com/repos/PrismarineJS/mineflayer/labels/new%20feature"
        },
        {
            "color": "bfdadc",
            "default": false,
            "description": "just created by someone new to the project, we don't know yet if it deserves an implementation / a f",
            "id": 2720118317,
            "name": "Stage1",
            "node_id": "MDU6TGFiZWwyNzIwMTE4MzE3",
            "url": "https://api.github.com/repos/PrismarineJS/mineflayer/labels/Stage1"
        }
    ],
    "labels_url": "https://api.github.com/repos/PrismarineJS/mineflayer/issues/1417/labels{/name}",
    "locked": false,
    "milestone": null,
    "node_id": "MDU6SXNzdWU3MzM3NDI4NjA=",
    "number": 1417,
    "performed_via_github_app": null,
    "reactions": {
        "+1": 1,
        "-1": 0,
        "confused": 0,
        "eyes": 0,
        "heart": 0,
        "hooray": 0,
        "laugh": 0,
        "rocket": 0,
        "total_count": 1,
        "url": "https://api.github.com/repos/PrismarineJS/mineflayer/issues/1417/reactions"
    },
    "repository_url": "https://api.github.com/repos/PrismarineJS/mineflayer",
    "state": "open",
    "state_reason": null,
    "timeline_url": "https://api.github.com/repos/PrismarineJS/mineflayer/issues/1417/timeline",
    "title": "Consider using jsdoc",
    "updated_at": "2021-02-06T10:56:01Z",
    "url": "https://api.github.com/repos/PrismarineJS/mineflayer/issues/1417",
    "user": {
        "avatar_url": "https://avatars.githubusercontent.com/u/2346494?v=4",
        "events_url": "https://api.github.com/users/rom1504/events{/privacy}",
        "followers_url": "https://api.github.com/users/rom1504/followers",
        "following_url": "https://api.github.com/users/rom1504/following{/other_user}",
        "gists_url": "https://api.github.com/users/rom1504/gists{/gist_id}",
        "gravatar_id": "",
        "html_url": "https://github.com/rom1504",
        "id": 2346494,
        "login": "rom1504",
        "node_id": "MDQ6VXNlcjIzNDY0OTQ=",
        "organizations_url": "https://api.github.com/users/rom1504/orgs",
        "received_events_url": "https://api.github.com/users/rom1504/received_events",
        "repos_url": "https://api.github.com/users/rom1504/repos",
        "site_admin": false,
        "starred_url": "https://api.github.com/users/rom1504/starred{/owner}{/repo}",
        "subscriptions_url": "https://api.github.com/users/rom1504/subscriptions",
        "type": "User",
        "url": "https://api.github.com/users/rom1504"
    }
}