{
    "active_lock_reason": null,
    "assignee": null,
    "assignees": [],
    "author_association": "CONTRIBUTOR",
    "body": "## Is your feature request related to a problem? Please describe.\r\nWhen using mineflayer-pathfinder, it adds a listener to blockupdates, when these blockupdates don't happen because e.g. an entity blocks the placement, the listener remains and causes too many EventEmitters\r\n\r\n## Describe the solution you'd like\r\nI would like for mineflayer to have a timeout on the blockupdate listeners, so that they are removed automatically if not activated to prevent this kind of eventemitter overflow that can crash bots after some time\r\n\r\n## Describe alternatives you've considered\r\nchanging the pathfinding myself with a statemachine, adding a listener to check if the blockplace or break is rejected\r\n\r\n## Additional context\r\nthis happens in cases, when multiple bots try to pathfind on top of each other. they get stuck when trying to place a block below \r\n(which is not the problem) and attach a listener each time they retry. if these listeners were to get deleted automatically to prevent them from crashing, that would be great\r\n",
    "closed_at": "2021-01-17T23:27:04Z",
    "comment_data": [
        {
            "author_association": "MEMBER",
            "body": "I guess that would be solved by your new place block idea @Karang (would be good if you can describe what we said about that in discord in a mineflayer issue)",
            "created_at": "2021-01-12T17:37:36Z",
            "html_url": "https://github.com/PrismarineJS/mineflayer/issues/1585#issuecomment-758822006",
            "id": 758822006,
            "issue_url": "https://api.github.com/repos/PrismarineJS/mineflayer/issues/1585",
            "node_id": "MDEyOklzc3VlQ29tbWVudDc1ODgyMjAwNg==",
            "performed_via_github_app": null,
            "reactions": {
                "+1": 0,
                "-1": 0,
                "confused": 0,
                "eyes": 0,
                "heart": 0,
                "hooray": 0,
                "laugh": 0,
                "rocket": 0,
                "total_count": 0,
                "url": "https://api.github.com/repos/PrismarineJS/mineflayer/issues/comments/758822006/reactions"
            },
            "updated_at": "2021-01-12T17:37:36Z",
            "url": "https://api.github.com/repos/PrismarineJS/mineflayer/issues/comments/758822006",
            "user": {
                "avatar_url": "https://avatars.githubusercontent.com/u/2346494?v=4",
                "events_url": "https://api.github.com/users/rom1504/events{/privacy}",
                "followers_url": "https://api.github.com/users/rom1504/followers",
                "following_url": "https://api.github.com/users/rom1504/following{/other_user}",
                "gists_url": "https://api.github.com/users/rom1504/gists{/gist_id}",
                "gravatar_id": "",
                "html_url": "https://github.com/rom1504",
                "id": 2346494,
                "login": "rom1504",
                "node_id": "MDQ6VXNlcjIzNDY0OTQ=",
                "organizations_url": "https://api.github.com/users/rom1504/orgs",
                "received_events_url": "https://api.github.com/users/rom1504/received_events",
                "repos_url": "https://api.github.com/users/rom1504/repos",
                "site_admin": false,
                "starred_url": "https://api.github.com/users/rom1504/starred{/owner}{/repo}",
                "subscriptions_url": "https://api.github.com/users/rom1504/subscriptions",
                "type": "User",
                "url": "https://api.github.com/users/rom1504"
            }
        },
        {
            "author_association": "MEMBER",
            "body": "Hmm, yes and no. It would eliminate most of the cause by not registering the event and returning early if the client guessed it's not possible to place a block, but there could still be some issues. IMO the right way to fix it is to force having only 1 listener active at a time. (Meaning if a player call placeblock again it either fail or replace the current active listener).",
            "created_at": "2021-01-12T17:43:08Z",
            "html_url": "https://github.com/PrismarineJS/mineflayer/issues/1585#issuecomment-758825277",
            "id": 758825277,
            "issue_url": "https://api.github.com/repos/PrismarineJS/mineflayer/issues/1585",
            "node_id": "MDEyOklzc3VlQ29tbWVudDc1ODgyNTI3Nw==",
            "performed_via_github_app": null,
            "reactions": {
                "+1": 0,
                "-1": 0,
                "confused": 0,
                "eyes": 0,
                "heart": 0,
                "hooray": 0,
                "laugh": 0,
                "rocket": 0,
                "total_count": 0,
                "url": "https://api.github.com/repos/PrismarineJS/mineflayer/issues/comments/758825277/reactions"
            },
            "updated_at": "2021-01-12T17:43:08Z",
            "url": "https://api.github.com/repos/PrismarineJS/mineflayer/issues/comments/758825277",
            "user": {
                "avatar_url": "https://avatars.githubusercontent.com/u/1977472?v=4",
                "events_url": "https://api.github.com/users/Karang/events{/privacy}",
                "followers_url": "https://api.github.com/users/Karang/followers",
                "following_url": "https://api.github.com/users/Karang/following{/other_user}",
                "gists_url": "https://api.github.com/users/Karang/gists{/gist_id}",
                "gravatar_id": "",
                "html_url": "https://github.com/Karang",
                "id": 1977472,
                "login": "Karang",
                "node_id": "MDQ6VXNlcjE5Nzc0NzI=",
                "organizations_url": "https://api.github.com/users/Karang/orgs",
                "received_events_url": "https://api.github.com/users/Karang/received_events",
                "repos_url": "https://api.github.com/users/Karang/repos",
                "site_admin": false,
                "starred_url": "https://api.github.com/users/Karang/starred{/owner}{/repo}",
                "subscriptions_url": "https://api.github.com/users/Karang/subscriptions",
                "type": "User",
                "url": "https://api.github.com/users/Karang"
            }
        },
        {
            "author_association": "NONE",
            "body": "(I do but don't recommend this)\r\nI hack-fix it by adding `const events = require('events').EventEmitter.defaultMaxListeners = Infinity`",
            "created_at": "2021-01-16T22:26:33Z",
            "html_url": "https://github.com/PrismarineJS/mineflayer/issues/1585#issuecomment-761689634",
            "id": 761689634,
            "issue_url": "https://api.github.com/repos/PrismarineJS/mineflayer/issues/1585",
            "node_id": "MDEyOklzc3VlQ29tbWVudDc2MTY4OTYzNA==",
            "performed_via_github_app": null,
            "reactions": {
                "+1": 0,
                "-1": 0,
                "confused": 0,
                "eyes": 0,
                "heart": 0,
                "hooray": 0,
                "laugh": 0,
                "rocket": 0,
                "total_count": 0,
                "url": "https://api.github.com/repos/PrismarineJS/mineflayer/issues/comments/761689634/reactions"
            },
            "updated_at": "2021-01-16T22:26:33Z",
            "url": "https://api.github.com/repos/PrismarineJS/mineflayer/issues/comments/761689634",
            "user": {
                "avatar_url": "https://avatars.githubusercontent.com/u/68617740?v=4",
                "events_url": "https://api.github.com/users/Roizor/events{/privacy}",
                "followers_url": "https://api.github.com/users/Roizor/followers",
                "following_url": "https://api.github.com/users/Roizor/following{/other_user}",
                "gists_url": "https://api.github.com/users/Roizor/gists{/gist_id}",
                "gravatar_id": "",
                "html_url": "https://github.com/Roizor",
                "id": 68617740,
                "login": "Roizor",
                "node_id": "MDQ6VXNlcjY4NjE3NzQw",
                "organizations_url": "https://api.github.com/users/Roizor/orgs",
                "received_events_url": "https://api.github.com/users/Roizor/received_events",
                "repos_url": "https://api.github.com/users/Roizor/repos",
                "site_admin": false,
                "starred_url": "https://api.github.com/users/Roizor/starred{/owner}{/repo}",
                "subscriptions_url": "https://api.github.com/users/Roizor/subscriptions",
                "type": "User",
                "url": "https://api.github.com/users/Roizor"
            }
        },
        {
            "author_association": "CONTRIBUTOR",
            "body": "that does not solve the issue of the Listeners using resources, which slows the program significantly down in my case, though I do have my own 'hack-fix' for the time being. Will still try to push a proper fix like [suggested in discord ](https://discord.com/channels/413438066984747026/671423547541028884/795380060496068628) to resolve this issue properly",
            "created_at": "2021-01-17T12:38:54Z",
            "html_url": "https://github.com/PrismarineJS/mineflayer/issues/1585#issuecomment-761805744",
            "id": 761805744,
            "issue_url": "https://api.github.com/repos/PrismarineJS/mineflayer/issues/1585",
            "node_id": "MDEyOklzc3VlQ29tbWVudDc2MTgwNTc0NA==",
            "performed_via_github_app": null,
            "reactions": {
                "+1": 0,
                "-1": 0,
                "confused": 0,
                "eyes": 0,
                "heart": 0,
                "hooray": 0,
                "laugh": 0,
                "rocket": 0,
                "total_count": 0,
                "url": "https://api.github.com/repos/PrismarineJS/mineflayer/issues/comments/761805744/reactions"
            },
            "updated_at": "2021-01-17T12:38:54Z",
            "url": "https://api.github.com/repos/PrismarineJS/mineflayer/issues/comments/761805744",
            "user": {
                "avatar_url": "https://avatars.githubusercontent.com/u/20371518?v=4",
                "events_url": "https://api.github.com/users/rob9315/events{/privacy}",
                "followers_url": "https://api.github.com/users/rob9315/followers",
                "following_url": "https://api.github.com/users/rob9315/following{/other_user}",
                "gists_url": "https://api.github.com/users/rob9315/gists{/gist_id}",
                "gravatar_id": "",
                "html_url": "https://github.com/rob9315",
                "id": 20371518,
                "login": "rob9315",
                "node_id": "MDQ6VXNlcjIwMzcxNTE4",
                "organizations_url": "https://api.github.com/users/rob9315/orgs",
                "received_events_url": "https://api.github.com/users/rob9315/received_events",
                "repos_url": "https://api.github.com/users/rob9315/repos",
                "site_admin": false,
                "starred_url": "https://api.github.com/users/rob9315/starred{/owner}{/repo}",
                "subscriptions_url": "https://api.github.com/users/rob9315/subscriptions",
                "type": "User",
                "url": "https://api.github.com/users/rob9315"
            }
        },
        {
            "author_association": "CONTRIBUTOR",
            "body": "[issue moved](https://github.com/PrismarineJS/mineflayer/issues/1589)",
            "created_at": "2021-01-17T23:27:04Z",
            "html_url": "https://github.com/PrismarineJS/mineflayer/issues/1585#issuecomment-761899569",
            "id": 761899569,
            "issue_url": "https://api.github.com/repos/PrismarineJS/mineflayer/issues/1585",
            "node_id": "MDEyOklzc3VlQ29tbWVudDc2MTg5OTU2OQ==",
            "performed_via_github_app": null,
            "reactions": {
                "+1": 0,
                "-1": 0,
                "confused": 0,
                "eyes": 0,
                "heart": 0,
                "hooray": 0,
                "laugh": 0,
                "rocket": 0,
                "total_count": 0,
                "url": "https://api.github.com/repos/PrismarineJS/mineflayer/issues/comments/761899569/reactions"
            },
            "updated_at": "2021-01-17T23:27:04Z",
            "url": "https://api.github.com/repos/PrismarineJS/mineflayer/issues/comments/761899569",
            "user": {
                "avatar_url": "https://avatars.githubusercontent.com/u/20371518?v=4",
                "events_url": "https://api.github.com/users/rob9315/events{/privacy}",
                "followers_url": "https://api.github.com/users/rob9315/followers",
                "following_url": "https://api.github.com/users/rob9315/following{/other_user}",
                "gists_url": "https://api.github.com/users/rob9315/gists{/gist_id}",
                "gravatar_id": "",
                "html_url": "https://github.com/rob9315",
                "id": 20371518,
                "login": "rob9315",
                "node_id": "MDQ6VXNlcjIwMzcxNTE4",
                "organizations_url": "https://api.github.com/users/rob9315/orgs",
                "received_events_url": "https://api.github.com/users/rob9315/received_events",
                "repos_url": "https://api.github.com/users/rob9315/repos",
                "site_admin": false,
                "starred_url": "https://api.github.com/users/rob9315/starred{/owner}{/repo}",
                "subscriptions_url": "https://api.github.com/users/rob9315/subscriptions",
                "type": "User",
                "url": "https://api.github.com/users/rob9315"
            }
        }
    ],
    "comments": 5,
    "comments_url": "https://api.github.com/repos/PrismarineJS/mineflayer/issues/1585/comments",
    "created_at": "2021-01-12T15:16:50Z",
    "event_data": [
        {
            "actor": {
                "avatar_url": "https://avatars.githubusercontent.com/u/20371518?v=4",
                "events_url": "https://api.github.com/users/rob9315/events{/privacy}",
                "followers_url": "https://api.github.com/users/rob9315/followers",
                "following_url": "https://api.github.com/users/rob9315/following{/other_user}",
                "gists_url": "https://api.github.com/users/rob9315/gists{/gist_id}",
                "gravatar_id": "",
                "html_url": "https://github.com/rob9315",
                "id": 20371518,
                "login": "rob9315",
                "node_id": "MDQ6VXNlcjIwMzcxNTE4",
                "organizations_url": "https://api.github.com/users/rob9315/orgs",
                "received_events_url": "https://api.github.com/users/rob9315/received_events",
                "repos_url": "https://api.github.com/users/rob9315/repos",
                "site_admin": false,
                "starred_url": "https://api.github.com/users/rob9315/starred{/owner}{/repo}",
                "subscriptions_url": "https://api.github.com/users/rob9315/subscriptions",
                "type": "User",
                "url": "https://api.github.com/users/rob9315"
            },
            "commit_id": null,
            "commit_url": null,
            "created_at": "2021-01-12T15:16:50Z",
            "event": "labeled",
            "id": 4196424690,
            "label": {
                "color": "444444",
                "name": "new feature"
            },
            "node_id": "MDEyOkxhYmVsZWRFdmVudDQxOTY0MjQ2OTA=",
            "performed_via_github_app": null,
            "url": "https://api.github.com/repos/PrismarineJS/mineflayer/issues/events/4196424690"
        },
        {
            "actor": {
                "avatar_url": "https://avatars.githubusercontent.com/u/1977472?v=4",
                "events_url": "https://api.github.com/users/Karang/events{/privacy}",
                "followers_url": "https://api.github.com/users/Karang/followers",
                "following_url": "https://api.github.com/users/Karang/following{/other_user}",
                "gists_url": "https://api.github.com/users/Karang/gists{/gist_id}",
                "gravatar_id": "",
                "html_url": "https://github.com/Karang",
                "id": 1977472,
                "login": "Karang",
                "node_id": "MDQ6VXNlcjE5Nzc0NzI=",
                "organizations_url": "https://api.github.com/users/Karang/orgs",
                "received_events_url": "https://api.github.com/users/Karang/received_events",
                "repos_url": "https://api.github.com/users/Karang/repos",
                "site_admin": false,
                "starred_url": "https://api.github.com/users/Karang/starred{/owner}{/repo}",
                "subscriptions_url": "https://api.github.com/users/Karang/subscriptions",
                "type": "User",
                "url": "https://api.github.com/users/Karang"
            },
            "commit_id": null,
            "commit_url": null,
            "created_at": "2021-01-12T17:37:36Z",
            "event": "mentioned",
            "id": 4197120750,
            "node_id": "MDE0Ok1lbnRpb25lZEV2ZW50NDE5NzEyMDc1MA==",
            "performed_via_github_app": null,
            "url": "https://api.github.com/repos/PrismarineJS/mineflayer/issues/events/4197120750"
        },
        {
            "actor": {
                "avatar_url": "https://avatars.githubusercontent.com/u/1977472?v=4",
                "events_url": "https://api.github.com/users/Karang/events{/privacy}",
                "followers_url": "https://api.github.com/users/Karang/followers",
                "following_url": "https://api.github.com/users/Karang/following{/other_user}",
                "gists_url": "https://api.github.com/users/Karang/gists{/gist_id}",
                "gravatar_id": "",
                "html_url": "https://github.com/Karang",
                "id": 1977472,
                "login": "Karang",
                "node_id": "MDQ6VXNlcjE5Nzc0NzI=",
                "organizations_url": "https://api.github.com/users/Karang/orgs",
                "received_events_url": "https://api.github.com/users/Karang/received_events",
                "repos_url": "https://api.github.com/users/Karang/repos",
                "site_admin": false,
                "starred_url": "https://api.github.com/users/Karang/starred{/owner}{/repo}",
                "subscriptions_url": "https://api.github.com/users/Karang/subscriptions",
                "type": "User",
                "url": "https://api.github.com/users/Karang"
            },
            "commit_id": null,
            "commit_url": null,
            "created_at": "2021-01-12T17:37:36Z",
            "event": "subscribed",
            "id": 4197120754,
            "node_id": "MDE1OlN1YnNjcmliZWRFdmVudDQxOTcxMjA3NTQ=",
            "performed_via_github_app": null,
            "url": "https://api.github.com/repos/PrismarineJS/mineflayer/issues/events/4197120754"
        },
        {
            "actor": {
                "avatar_url": "https://avatars.githubusercontent.com/u/20371518?v=4",
                "events_url": "https://api.github.com/users/rob9315/events{/privacy}",
                "followers_url": "https://api.github.com/users/rob9315/followers",
                "following_url": "https://api.github.com/users/rob9315/following{/other_user}",
                "gists_url": "https://api.github.com/users/rob9315/gists{/gist_id}",
                "gravatar_id": "",
                "html_url": "https://github.com/rob9315",
                "id": 20371518,
                "login": "rob9315",
                "node_id": "MDQ6VXNlcjIwMzcxNTE4",
                "organizations_url": "https://api.github.com/users/rob9315/orgs",
                "received_events_url": "https://api.github.com/users/rob9315/received_events",
                "repos_url": "https://api.github.com/users/rob9315/repos",
                "site_admin": false,
                "starred_url": "https://api.github.com/users/rob9315/starred{/owner}{/repo}",
                "subscriptions_url": "https://api.github.com/users/rob9315/subscriptions",
                "type": "User",
                "url": "https://api.github.com/users/rob9315"
            },
            "commit_id": null,
            "commit_url": null,
            "created_at": "2021-01-17T23:27:04Z",
            "event": "closed",
            "id": 4215659436,
            "node_id": "MDExOkNsb3NlZEV2ZW50NDIxNTY1OTQzNg==",
            "performed_via_github_app": null,
            "state_reason": null,
            "url": "https://api.github.com/repos/PrismarineJS/mineflayer/issues/events/4215659436"
        }
    ],
    "events_url": "https://api.github.com/repos/PrismarineJS/mineflayer/issues/1585/events",
    "html_url": "https://github.com/PrismarineJS/mineflayer/issues/1585",
    "id": 784329071,
    "labels": [
        {
            "color": "444444",
            "default": false,
            "description": "",
            "id": 111395,
            "name": "new feature",
            "node_id": "MDU6TGFiZWwxMTEzOTU=",
            "url": "https://api.github.com/repos/PrismarineJS/mineflayer/labels/new%20feature"
        }
    ],
    "labels_url": "https://api.github.com/repos/PrismarineJS/mineflayer/issues/1585/labels{/name}",
    "locked": false,
    "milestone": null,
    "node_id": "MDU6SXNzdWU3ODQzMjkwNzE=",
    "number": 1585,
    "performed_via_github_app": null,
    "reactions": {
        "+1": 0,
        "-1": 0,
        "confused": 0,
        "eyes": 0,
        "heart": 0,
        "hooray": 0,
        "laugh": 0,
        "rocket": 0,
        "total_count": 0,
        "url": "https://api.github.com/repos/PrismarineJS/mineflayer/issues/1585/reactions"
    },
    "repository_url": "https://api.github.com/repos/PrismarineJS/mineflayer",
    "state": "closed",
    "state_reason": "completed",
    "timeline_url": "https://api.github.com/repos/PrismarineJS/mineflayer/issues/1585/timeline",
    "title": "EventEmitter overflow",
    "updated_at": "2021-01-17T23:27:05Z",
    "url": "https://api.github.com/repos/PrismarineJS/mineflayer/issues/1585",
    "user": {
        "avatar_url": "https://avatars.githubusercontent.com/u/20371518?v=4",
        "events_url": "https://api.github.com/users/rob9315/events{/privacy}",
        "followers_url": "https://api.github.com/users/rob9315/followers",
        "following_url": "https://api.github.com/users/rob9315/following{/other_user}",
        "gists_url": "https://api.github.com/users/rob9315/gists{/gist_id}",
        "gravatar_id": "",
        "html_url": "https://github.com/rob9315",
        "id": 20371518,
        "login": "rob9315",
        "node_id": "MDQ6VXNlcjIwMzcxNTE4",
        "organizations_url": "https://api.github.com/users/rob9315/orgs",
        "received_events_url": "https://api.github.com/users/rob9315/received_events",
        "repos_url": "https://api.github.com/users/rob9315/repos",
        "site_admin": false,
        "starred_url": "https://api.github.com/users/rob9315/starred{/owner}{/repo}",
        "subscriptions_url": "https://api.github.com/users/rob9315/subscriptions",
        "type": "User",
        "url": "https://api.github.com/users/rob9315"
    }
}