{
    "active_lock_reason": null,
    "assignee": null,
    "assignees": [],
    "author_association": "NONE",
    "body": "- [x] I have carefully read the [FAQ](https://github.com/PrismarineJS/mineflayer/blob/master/docs/FAQ.md) and it does not contain an answer to my question.\r\n- [x] I have carefully read the [API documentation](https://github.com/PrismarineJS/mineflayer/blob/master/docs/api.md) and it does not contain an answer to my question.\r\n- [x] I have carefully read the [examples](https://github.com/PrismarineJS/mineflayer/tree/master/examples) and they do not contain an answer to my question.\r\n\r\n<!-- To mark the checkbox, insert `x` into it: [x] -->\r\n\r\n## Versions\r\n - mineflayer: 3.0.0\r\n - server: vanilla/spigot/paper #.#.#\r\n - node: 14.5\r\n\r\n## Clear question\r\nI consulted the code for #1318 to keep my robot in one line of sight and digging all the time, but there was a problem and it kept prompting when it was running\"[deprecated] use bot.blockAtCursor instead\",I checked the document and replaced it with :' BOT.BLOCKATCURSOR ', but it returns an error at runtime:\r\n![QQ截图20210219171059](https://user-images.githubusercontent.com/65305146/108484583-ed9d2a00-72d6-11eb-8667-d4ca66df7a82.png)\r\n\r\nMy Code:\r\n![QQ截图20210219171409](https://user-images.githubusercontent.com/65305146/108484637-fe4da000-72d6-11eb-97b9-777886b4a744.png)\r\n\r\nHow should I solve this problem\r\n\r\n\r\n## What did you try yet?\r\n\r\nDid you try any method from the API?\r\nDid you try any example? Any error from those?\r\n\r\n## Your current code\r\n\r\nPlease put here any custom code you tried yet.\r\n\r\n```js\r\n\r\n/*\r\nSome code here, replace this\r\n*/\r\n\r\n```\r\n\r\n## Additional context\r\nAdd any other context about the problem here.\r\n",
    "closed_at": "2021-03-11T22:55:33Z",
    "comment_data": [
        {
            "author_association": "MEMBER",
            "body": "To test if `target !== undefined && target !== null` you can simply use `if (target &&` ",
            "created_at": "2021-02-20T01:05:24Z",
            "html_url": "https://github.com/PrismarineJS/mineflayer/issues/1681#issuecomment-782487742",
            "id": 782487742,
            "issue_url": "https://api.github.com/repos/PrismarineJS/mineflayer/issues/1681",
            "node_id": "MDEyOklzc3VlQ29tbWVudDc4MjQ4Nzc0Mg==",
            "performed_via_github_app": null,
            "reactions": {
                "+1": 0,
                "-1": 0,
                "confused": 0,
                "eyes": 0,
                "heart": 0,
                "hooray": 0,
                "laugh": 0,
                "rocket": 0,
                "total_count": 0,
                "url": "https://api.github.com/repos/PrismarineJS/mineflayer/issues/comments/782487742/reactions"
            },
            "updated_at": "2021-02-20T01:05:24Z",
            "url": "https://api.github.com/repos/PrismarineJS/mineflayer/issues/comments/782487742",
            "user": {
                "avatar_url": "https://avatars.githubusercontent.com/u/1977472?v=4",
                "events_url": "https://api.github.com/users/Karang/events{/privacy}",
                "followers_url": "https://api.github.com/users/Karang/followers",
                "following_url": "https://api.github.com/users/Karang/following{/other_user}",
                "gists_url": "https://api.github.com/users/Karang/gists{/gist_id}",
                "gravatar_id": "",
                "html_url": "https://github.com/Karang",
                "id": 1977472,
                "login": "Karang",
                "node_id": "MDQ6VXNlcjE5Nzc0NzI=",
                "organizations_url": "https://api.github.com/users/Karang/orgs",
                "received_events_url": "https://api.github.com/users/Karang/received_events",
                "repos_url": "https://api.github.com/users/Karang/repos",
                "site_admin": false,
                "starred_url": "https://api.github.com/users/Karang/starred{/owner}{/repo}",
                "subscriptions_url": "https://api.github.com/users/Karang/subscriptions",
                "type": "User",
                "url": "https://api.github.com/users/Karang"
            }
        },
        {
            "author_association": "NONE",
            "body": "> 测试`target !== undefined && target !== null`您是否可以简单地使用`if (target &&`\r\n\r\nOh, yeah, I can try this",
            "created_at": "2021-02-20T03:21:47Z",
            "html_url": "https://github.com/PrismarineJS/mineflayer/issues/1681#issuecomment-782549071",
            "id": 782549071,
            "issue_url": "https://api.github.com/repos/PrismarineJS/mineflayer/issues/1681",
            "node_id": "MDEyOklzc3VlQ29tbWVudDc4MjU0OTA3MQ==",
            "performed_via_github_app": null,
            "reactions": {
                "+1": 0,
                "-1": 0,
                "confused": 0,
                "eyes": 0,
                "heart": 0,
                "hooray": 0,
                "laugh": 0,
                "rocket": 0,
                "total_count": 0,
                "url": "https://api.github.com/repos/PrismarineJS/mineflayer/issues/comments/782549071/reactions"
            },
            "updated_at": "2021-02-20T03:21:47Z",
            "url": "https://api.github.com/repos/PrismarineJS/mineflayer/issues/comments/782549071",
            "user": {
                "avatar_url": "https://avatars.githubusercontent.com/u/65305146?v=4",
                "events_url": "https://api.github.com/users/areny7/events{/privacy}",
                "followers_url": "https://api.github.com/users/areny7/followers",
                "following_url": "https://api.github.com/users/areny7/following{/other_user}",
                "gists_url": "https://api.github.com/users/areny7/gists{/gist_id}",
                "gravatar_id": "",
                "html_url": "https://github.com/areny7",
                "id": 65305146,
                "login": "areny7",
                "node_id": "MDQ6VXNlcjY1MzA1MTQ2",
                "organizations_url": "https://api.github.com/users/areny7/orgs",
                "received_events_url": "https://api.github.com/users/areny7/received_events",
                "repos_url": "https://api.github.com/users/areny7/repos",
                "site_admin": false,
                "starred_url": "https://api.github.com/users/areny7/starred{/owner}{/repo}",
                "subscriptions_url": "https://api.github.com/users/areny7/subscriptions",
                "type": "User",
                "url": "https://api.github.com/users/areny7"
            }
        }
    ],
    "comments": 2,
    "comments_url": "https://api.github.com/repos/PrismarineJS/mineflayer/issues/1681/comments",
    "created_at": "2021-02-19T09:22:25Z",
    "event_data": [
        {
            "actor": {
                "avatar_url": "https://avatars.githubusercontent.com/u/65305146?v=4",
                "events_url": "https://api.github.com/users/areny7/events{/privacy}",
                "followers_url": "https://api.github.com/users/areny7/followers",
                "following_url": "https://api.github.com/users/areny7/following{/other_user}",
                "gists_url": "https://api.github.com/users/areny7/gists{/gist_id}",
                "gravatar_id": "",
                "html_url": "https://github.com/areny7",
                "id": 65305146,
                "login": "areny7",
                "node_id": "MDQ6VXNlcjY1MzA1MTQ2",
                "organizations_url": "https://api.github.com/users/areny7/orgs",
                "received_events_url": "https://api.github.com/users/areny7/received_events",
                "repos_url": "https://api.github.com/users/areny7/repos",
                "site_admin": false,
                "starred_url": "https://api.github.com/users/areny7/starred{/owner}{/repo}",
                "subscriptions_url": "https://api.github.com/users/areny7/subscriptions",
                "type": "User",
                "url": "https://api.github.com/users/areny7"
            },
            "commit_id": null,
            "commit_url": null,
            "created_at": "2021-02-19T09:22:25Z",
            "event": "labeled",
            "id": 4351143336,
            "label": {
                "color": "d8f263",
                "name": "question"
            },
            "node_id": "MDEyOkxhYmVsZWRFdmVudDQzNTExNDMzMzY=",
            "performed_via_github_app": null,
            "url": "https://api.github.com/repos/PrismarineJS/mineflayer/issues/events/4351143336"
        },
        {
            "actor": {
                "avatar_url": "https://avatars.githubusercontent.com/u/2346494?v=4",
                "events_url": "https://api.github.com/users/rom1504/events{/privacy}",
                "followers_url": "https://api.github.com/users/rom1504/followers",
                "following_url": "https://api.github.com/users/rom1504/following{/other_user}",
                "gists_url": "https://api.github.com/users/rom1504/gists{/gist_id}",
                "gravatar_id": "",
                "html_url": "https://github.com/rom1504",
                "id": 2346494,
                "login": "rom1504",
                "node_id": "MDQ6VXNlcjIzNDY0OTQ=",
                "organizations_url": "https://api.github.com/users/rom1504/orgs",
                "received_events_url": "https://api.github.com/users/rom1504/received_events",
                "repos_url": "https://api.github.com/users/rom1504/repos",
                "site_admin": false,
                "starred_url": "https://api.github.com/users/rom1504/starred{/owner}{/repo}",
                "subscriptions_url": "https://api.github.com/users/rom1504/subscriptions",
                "type": "User",
                "url": "https://api.github.com/users/rom1504"
            },
            "commit_id": null,
            "commit_url": null,
            "created_at": "2021-03-11T22:55:33Z",
            "event": "closed",
            "id": 4447854172,
            "node_id": "MDExOkNsb3NlZEV2ZW50NDQ0Nzg1NDE3Mg==",
            "performed_via_github_app": null,
            "state_reason": null,
            "url": "https://api.github.com/repos/PrismarineJS/mineflayer/issues/events/4447854172"
        }
    ],
    "events_url": "https://api.github.com/repos/PrismarineJS/mineflayer/issues/1681/events",
    "html_url": "https://github.com/PrismarineJS/mineflayer/issues/1681",
    "id": 811853016,
    "labels": [
        {
            "color": "d8f263",
            "default": true,
            "description": "",
            "id": 1208461827,
            "name": "question",
            "node_id": "MDU6TGFiZWwxMjA4NDYxODI3",
            "url": "https://api.github.com/repos/PrismarineJS/mineflayer/labels/question"
        }
    ],
    "labels_url": "https://api.github.com/repos/PrismarineJS/mineflayer/issues/1681/labels{/name}",
    "locked": false,
    "milestone": null,
    "node_id": "MDU6SXNzdWU4MTE4NTMwMTY=",
    "number": 1681,
    "performed_via_github_app": null,
    "reactions": {
        "+1": 0,
        "-1": 0,
        "confused": 0,
        "eyes": 0,
        "heart": 0,
        "hooray": 0,
        "laugh": 0,
        "rocket": 0,
        "total_count": 0,
        "url": "https://api.github.com/repos/PrismarineJS/mineflayer/issues/1681/reactions"
    },
    "repository_url": "https://api.github.com/repos/PrismarineJS/mineflayer",
    "state": "closed",
    "state_reason": "completed",
    "timeline_url": "https://api.github.com/repos/PrismarineJS/mineflayer/issues/1681/timeline",
    "title": "Unreadable position",
    "updated_at": "2021-03-11T22:55:33Z",
    "url": "https://api.github.com/repos/PrismarineJS/mineflayer/issues/1681",
    "user": {
        "avatar_url": "https://avatars.githubusercontent.com/u/65305146?v=4",
        "events_url": "https://api.github.com/users/areny7/events{/privacy}",
        "followers_url": "https://api.github.com/users/areny7/followers",
        "following_url": "https://api.github.com/users/areny7/following{/other_user}",
        "gists_url": "https://api.github.com/users/areny7/gists{/gist_id}",
        "gravatar_id": "",
        "html_url": "https://github.com/areny7",
        "id": 65305146,
        "login": "areny7",
        "node_id": "MDQ6VXNlcjY1MzA1MTQ2",
        "organizations_url": "https://api.github.com/users/areny7/orgs",
        "received_events_url": "https://api.github.com/users/areny7/received_events",
        "repos_url": "https://api.github.com/users/areny7/repos",
        "site_admin": false,
        "starred_url": "https://api.github.com/users/areny7/starred{/owner}{/repo}",
        "subscriptions_url": "https://api.github.com/users/areny7/subscriptions",
        "type": "User",
        "url": "https://api.github.com/users/areny7"
    }
}