{
    "active_lock_reason": null,
    "assignee": null,
    "assignees": [],
    "author_association": "NONE",
    "body": "- [ ] The [FAQ](https://github.com/PrismarineJS/mineflayer/blob/master/docs/FAQ.md) doesn't contain a resolution to my issue \r\n\r\n## Versions\r\n - mineflayer: 3.11.2\r\n - server: dragonsurvival.eu idk what they use\r\n - node: v17.0.1.\r\n\r\n## Detailed description of a problem\r\n\r\nMy bot cannot enter the server, it seems to be detected by an anti-bot\r\n\r\n## What did you try yet?\r\n\r\nI tried connecting it to other servers and everything worked\r\nI used the code from  PrismarineJS/node-minecraft-protocol#532 and got:\r\nconnected\r\ndisconnected3:\r\n\r\n## Your current code\r\n```js\r\n\r\n\r\nconst mineflayer = require('mineflayer');\r\n\r\n\r\nconst bot = mineflayer.createBot({\r\n\thost: 'dragonsurvival.eu',\r\n\tusername: 'mail',\r\n\tpassword: 'pass',\r\n\tversion:  '1.8.8',\r\n})\r\n\r\nbot.on('login', () => {\t\r\n\tconsole.log(\"log\")\r\n})\r\n\r\nbot.on('spawn', () => {\t\r\n\tconsole.log(\"spawn\")\r\n})\r\n\r\n\r\n\r\n```\r\n",
    "closed_at": "2021-10-29T15:46:16Z",
    "comment_data": [
        {
            "author_association": "CONTRIBUTOR",
            "body": "What do you get kicked for?\r\nCan you add listeners for kicked and error?",
            "created_at": "2021-10-23T17:20:36Z",
            "html_url": "https://github.com/PrismarineJS/mineflayer/issues/2273#issuecomment-950184464",
            "id": 950184464,
            "issue_url": "https://api.github.com/repos/PrismarineJS/mineflayer/issues/2273",
            "node_id": "IC_kwDOABOYWc44oqoQ",
            "performed_via_github_app": null,
            "reactions": {
                "+1": 0,
                "-1": 0,
                "confused": 0,
                "eyes": 0,
                "heart": 0,
                "hooray": 0,
                "laugh": 0,
                "rocket": 0,
                "total_count": 0,
                "url": "https://api.github.com/repos/PrismarineJS/mineflayer/issues/comments/950184464/reactions"
            },
            "updated_at": "2021-10-23T17:20:36Z",
            "url": "https://api.github.com/repos/PrismarineJS/mineflayer/issues/comments/950184464",
            "user": {
                "avatar_url": "https://avatars.githubusercontent.com/u/56985400?v=4",
                "events_url": "https://api.github.com/users/U5B/events{/privacy}",
                "followers_url": "https://api.github.com/users/U5B/followers",
                "following_url": "https://api.github.com/users/U5B/following{/other_user}",
                "gists_url": "https://api.github.com/users/U5B/gists{/gist_id}",
                "gravatar_id": "",
                "html_url": "https://github.com/U5B",
                "id": 56985400,
                "login": "U5B",
                "node_id": "MDQ6VXNlcjU2OTg1NDAw",
                "organizations_url": "https://api.github.com/users/U5B/orgs",
                "received_events_url": "https://api.github.com/users/U5B/received_events",
                "repos_url": "https://api.github.com/users/U5B/repos",
                "site_admin": false,
                "starred_url": "https://api.github.com/users/U5B/starred{/owner}{/repo}",
                "subscriptions_url": "https://api.github.com/users/U5B/subscriptions",
                "type": "User",
                "url": "https://api.github.com/users/U5B"
            }
        },
        {
            "author_association": "NONE",
            "body": "How xD?",
            "created_at": "2021-10-23T18:19:01Z",
            "html_url": "https://github.com/PrismarineJS/mineflayer/issues/2273#issuecomment-950192347",
            "id": 950192347,
            "issue_url": "https://api.github.com/repos/PrismarineJS/mineflayer/issues/2273",
            "node_id": "IC_kwDOABOYWc44osjb",
            "performed_via_github_app": null,
            "reactions": {
                "+1": 0,
                "-1": 0,
                "confused": 0,
                "eyes": 0,
                "heart": 0,
                "hooray": 0,
                "laugh": 0,
                "rocket": 0,
                "total_count": 0,
                "url": "https://api.github.com/repos/PrismarineJS/mineflayer/issues/comments/950192347/reactions"
            },
            "updated_at": "2021-10-23T18:19:01Z",
            "url": "https://api.github.com/repos/PrismarineJS/mineflayer/issues/comments/950192347",
            "user": {
                "avatar_url": "https://avatars.githubusercontent.com/u/93038701?v=4",
                "events_url": "https://api.github.com/users/Esa1z/events{/privacy}",
                "followers_url": "https://api.github.com/users/Esa1z/followers",
                "following_url": "https://api.github.com/users/Esa1z/following{/other_user}",
                "gists_url": "https://api.github.com/users/Esa1z/gists{/gist_id}",
                "gravatar_id": "",
                "html_url": "https://github.com/Esa1z",
                "id": 93038701,
                "login": "Esa1z",
                "node_id": "U_kgDOBYuobQ",
                "organizations_url": "https://api.github.com/users/Esa1z/orgs",
                "received_events_url": "https://api.github.com/users/Esa1z/received_events",
                "repos_url": "https://api.github.com/users/Esa1z/repos",
                "site_admin": false,
                "starred_url": "https://api.github.com/users/Esa1z/starred{/owner}{/repo}",
                "subscriptions_url": "https://api.github.com/users/Esa1z/subscriptions",
                "type": "User",
                "url": "https://api.github.com/users/Esa1z"
            }
        },
        {
            "author_association": "CONTRIBUTOR",
            "body": "bot.on('kicked', console.log)",
            "created_at": "2021-10-25T19:38:42Z",
            "html_url": "https://github.com/PrismarineJS/mineflayer/issues/2273#issuecomment-951246611",
            "id": 951246611,
            "issue_url": "https://api.github.com/repos/PrismarineJS/mineflayer/issues/2273",
            "node_id": "IC_kwDOABOYWc44st8T",
            "performed_via_github_app": null,
            "reactions": {
                "+1": 0,
                "-1": 0,
                "confused": 0,
                "eyes": 0,
                "heart": 0,
                "hooray": 0,
                "laugh": 0,
                "rocket": 0,
                "total_count": 0,
                "url": "https://api.github.com/repos/PrismarineJS/mineflayer/issues/comments/951246611/reactions"
            },
            "updated_at": "2021-10-25T19:38:42Z",
            "url": "https://api.github.com/repos/PrismarineJS/mineflayer/issues/comments/951246611",
            "user": {
                "avatar_url": "https://avatars.githubusercontent.com/u/72399198?v=4",
                "events_url": "https://api.github.com/users/Zn10plays/events{/privacy}",
                "followers_url": "https://api.github.com/users/Zn10plays/followers",
                "following_url": "https://api.github.com/users/Zn10plays/following{/other_user}",
                "gists_url": "https://api.github.com/users/Zn10plays/gists{/gist_id}",
                "gravatar_id": "",
                "html_url": "https://github.com/Zn10plays",
                "id": 72399198,
                "login": "Zn10plays",
                "node_id": "MDQ6VXNlcjcyMzk5MTk4",
                "organizations_url": "https://api.github.com/users/Zn10plays/orgs",
                "received_events_url": "https://api.github.com/users/Zn10plays/received_events",
                "repos_url": "https://api.github.com/users/Zn10plays/repos",
                "site_admin": false,
                "starred_url": "https://api.github.com/users/Zn10plays/starred{/owner}{/repo}",
                "subscriptions_url": "https://api.github.com/users/Zn10plays/subscriptions",
                "type": "User",
                "url": "https://api.github.com/users/Zn10plays"
            }
        },
        {
            "author_association": "MEMBER",
            "body": "Closing, reopen with more info",
            "created_at": "2021-10-29T15:46:16Z",
            "html_url": "https://github.com/PrismarineJS/mineflayer/issues/2273#issuecomment-954846704",
            "id": 954846704,
            "issue_url": "https://api.github.com/repos/PrismarineJS/mineflayer/issues/2273",
            "node_id": "IC_kwDOABOYWc446c3w",
            "performed_via_github_app": null,
            "reactions": {
                "+1": 0,
                "-1": 0,
                "confused": 0,
                "eyes": 0,
                "heart": 0,
                "hooray": 0,
                "laugh": 0,
                "rocket": 0,
                "total_count": 0,
                "url": "https://api.github.com/repos/PrismarineJS/mineflayer/issues/comments/954846704/reactions"
            },
            "updated_at": "2021-10-29T15:46:16Z",
            "url": "https://api.github.com/repos/PrismarineJS/mineflayer/issues/comments/954846704",
            "user": {
                "avatar_url": "https://avatars.githubusercontent.com/u/43508353?v=4",
                "events_url": "https://api.github.com/users/u9g/events{/privacy}",
                "followers_url": "https://api.github.com/users/u9g/followers",
                "following_url": "https://api.github.com/users/u9g/following{/other_user}",
                "gists_url": "https://api.github.com/users/u9g/gists{/gist_id}",
                "gravatar_id": "",
                "html_url": "https://github.com/u9g",
                "id": 43508353,
                "login": "u9g",
                "node_id": "MDQ6VXNlcjQzNTA4MzUz",
                "organizations_url": "https://api.github.com/users/u9g/orgs",
                "received_events_url": "https://api.github.com/users/u9g/received_events",
                "repos_url": "https://api.github.com/users/u9g/repos",
                "site_admin": false,
                "starred_url": "https://api.github.com/users/u9g/starred{/owner}{/repo}",
                "subscriptions_url": "https://api.github.com/users/u9g/subscriptions",
                "type": "User",
                "url": "https://api.github.com/users/u9g"
            }
        }
    ],
    "comments": 4,
    "comments_url": "https://api.github.com/repos/PrismarineJS/mineflayer/issues/2273/comments",
    "created_at": "2021-10-23T12:28:20Z",
    "event_data": [
        {
            "actor": {
                "avatar_url": "https://avatars.githubusercontent.com/u/93038701?v=4",
                "events_url": "https://api.github.com/users/Esa1z/events{/privacy}",
                "followers_url": "https://api.github.com/users/Esa1z/followers",
                "following_url": "https://api.github.com/users/Esa1z/following{/other_user}",
                "gists_url": "https://api.github.com/users/Esa1z/gists{/gist_id}",
                "gravatar_id": "",
                "html_url": "https://github.com/Esa1z",
                "id": 93038701,
                "login": "Esa1z",
                "node_id": "U_kgDOBYuobQ",
                "organizations_url": "https://api.github.com/users/Esa1z/orgs",
                "received_events_url": "https://api.github.com/users/Esa1z/received_events",
                "repos_url": "https://api.github.com/users/Esa1z/repos",
                "site_admin": false,
                "starred_url": "https://api.github.com/users/Esa1z/starred{/owner}{/repo}",
                "subscriptions_url": "https://api.github.com/users/Esa1z/subscriptions",
                "type": "User",
                "url": "https://api.github.com/users/Esa1z"
            },
            "commit_id": null,
            "commit_url": null,
            "created_at": "2021-10-23T12:28:20Z",
            "event": "labeled",
            "id": 5508220005,
            "label": {
                "color": "ba232f",
                "name": "possible bug"
            },
            "node_id": "LE_lADOABOYWc49o_mmzwAAAAFIUMRl",
            "performed_via_github_app": null,
            "url": "https://api.github.com/repos/PrismarineJS/mineflayer/issues/events/5508220005"
        },
        {
            "actor": {
                "avatar_url": "https://avatars.githubusercontent.com/u/93038701?v=4",
                "events_url": "https://api.github.com/users/Esa1z/events{/privacy}",
                "followers_url": "https://api.github.com/users/Esa1z/followers",
                "following_url": "https://api.github.com/users/Esa1z/following{/other_user}",
                "gists_url": "https://api.github.com/users/Esa1z/gists{/gist_id}",
                "gravatar_id": "",
                "html_url": "https://github.com/Esa1z",
                "id": 93038701,
                "login": "Esa1z",
                "node_id": "U_kgDOBYuobQ",
                "organizations_url": "https://api.github.com/users/Esa1z/orgs",
                "received_events_url": "https://api.github.com/users/Esa1z/received_events",
                "repos_url": "https://api.github.com/users/Esa1z/repos",
                "site_admin": false,
                "starred_url": "https://api.github.com/users/Esa1z/starred{/owner}{/repo}",
                "subscriptions_url": "https://api.github.com/users/Esa1z/subscriptions",
                "type": "User",
                "url": "https://api.github.com/users/Esa1z"
            },
            "commit_id": null,
            "commit_url": null,
            "created_at": "2021-10-23T12:28:20Z",
            "event": "labeled",
            "id": 5508220006,
            "label": {
                "color": "bfdadc",
                "name": "Stage1"
            },
            "node_id": "LE_lADOABOYWc49o_mmzwAAAAFIUMRm",
            "performed_via_github_app": null,
            "url": "https://api.github.com/repos/PrismarineJS/mineflayer/issues/events/5508220006"
        },
        {
            "actor": {
                "avatar_url": "https://avatars.githubusercontent.com/u/43508353?v=4",
                "events_url": "https://api.github.com/users/u9g/events{/privacy}",
                "followers_url": "https://api.github.com/users/u9g/followers",
                "following_url": "https://api.github.com/users/u9g/following{/other_user}",
                "gists_url": "https://api.github.com/users/u9g/gists{/gist_id}",
                "gravatar_id": "",
                "html_url": "https://github.com/u9g",
                "id": 43508353,
                "login": "u9g",
                "node_id": "MDQ6VXNlcjQzNTA4MzUz",
                "organizations_url": "https://api.github.com/users/u9g/orgs",
                "received_events_url": "https://api.github.com/users/u9g/received_events",
                "repos_url": "https://api.github.com/users/u9g/repos",
                "site_admin": false,
                "starred_url": "https://api.github.com/users/u9g/starred{/owner}{/repo}",
                "subscriptions_url": "https://api.github.com/users/u9g/subscriptions",
                "type": "User",
                "url": "https://api.github.com/users/u9g"
            },
            "commit_id": null,
            "commit_url": null,
            "created_at": "2021-10-29T15:46:16Z",
            "event": "closed",
            "id": 5541438163,
            "node_id": "CE_lADOABOYWc49o_mmzwAAAAFKS6LT",
            "performed_via_github_app": null,
            "state_reason": null,
            "url": "https://api.github.com/repos/PrismarineJS/mineflayer/issues/events/5541438163"
        }
    ],
    "events_url": "https://api.github.com/repos/PrismarineJS/mineflayer/issues/2273/events",
    "html_url": "https://github.com/PrismarineJS/mineflayer/issues/2273",
    "id": 1034156454,
    "labels": [
        {
            "color": "ba232f",
            "default": false,
            "description": "",
            "id": 1346729768,
            "name": "possible bug",
            "node_id": "MDU6TGFiZWwxMzQ2NzI5NzY4",
            "url": "https://api.github.com/repos/PrismarineJS/mineflayer/labels/possible%20bug"
        },
        {
            "color": "bfdadc",
            "default": false,
            "description": "just created by someone new to the project, we don't know yet if it deserves an implementation / a f",
            "id": 2720118317,
            "name": "Stage1",
            "node_id": "MDU6TGFiZWwyNzIwMTE4MzE3",
            "url": "https://api.github.com/repos/PrismarineJS/mineflayer/labels/Stage1"
        }
    ],
    "labels_url": "https://api.github.com/repos/PrismarineJS/mineflayer/issues/2273/labels{/name}",
    "locked": false,
    "milestone": null,
    "node_id": "I_kwDOABOYWc49o_mm",
    "number": 2273,
    "performed_via_github_app": null,
    "reactions": {
        "+1": 0,
        "-1": 0,
        "confused": 0,
        "eyes": 0,
        "heart": 0,
        "hooray": 0,
        "laugh": 0,
        "rocket": 0,
        "total_count": 0,
        "url": "https://api.github.com/repos/PrismarineJS/mineflayer/issues/2273/reactions"
    },
    "repository_url": "https://api.github.com/repos/PrismarineJS/mineflayer",
    "state": "closed",
    "state_reason": "completed",
    "timeline_url": "https://api.github.com/repos/PrismarineJS/mineflayer/issues/2273/timeline",
    "title": "My bot cant join the server",
    "updated_at": "2021-10-29T15:46:16Z",
    "url": "https://api.github.com/repos/PrismarineJS/mineflayer/issues/2273",
    "user": {
        "avatar_url": "https://avatars.githubusercontent.com/u/93038701?v=4",
        "events_url": "https://api.github.com/users/Esa1z/events{/privacy}",
        "followers_url": "https://api.github.com/users/Esa1z/followers",
        "following_url": "https://api.github.com/users/Esa1z/following{/other_user}",
        "gists_url": "https://api.github.com/users/Esa1z/gists{/gist_id}",
        "gravatar_id": "",
        "html_url": "https://github.com/Esa1z",
        "id": 93038701,
        "login": "Esa1z",
        "node_id": "U_kgDOBYuobQ",
        "organizations_url": "https://api.github.com/users/Esa1z/orgs",
        "received_events_url": "https://api.github.com/users/Esa1z/received_events",
        "repos_url": "https://api.github.com/users/Esa1z/repos",
        "site_admin": false,
        "starred_url": "https://api.github.com/users/Esa1z/starred{/owner}{/repo}",
        "subscriptions_url": "https://api.github.com/users/Esa1z/subscriptions",
        "type": "User",
        "url": "https://api.github.com/users/Esa1z"
    }
}