{
    "active_lock_reason": null,
    "assignee": null,
    "assignees": [],
    "author_association": "MEMBER",
    "body": "1. in all modules we will have a large test-typing.ts that just call everything and create everything (it will not work but it will compile)\r\n2. we add tsc typings/test-typings in npm test of all modules\r\n3. in all PRs adding a new thing in API, they will have to add something in test-typing.ts\r\n\r\nexample\r\nhttps://github.com/PrismarineJS/node-minecraft-data/blob/master/package.json#L10\r\nhttps://github.com/PrismarineJS/node-minecraft-data/blob/master/typings/test-typings.ts",
    "closed_at": null,
    "comment_data": [
        {
            "author_association": "NONE",
            "body": "Hope this can work soon. I really want to use typescript to replace javascript in my project.",
            "created_at": "2022-03-22T01:44:37Z",
            "html_url": "https://github.com/PrismarineJS/mineflayer/issues/2519#issuecomment-1074608723",
            "id": 1074608723,
            "issue_url": "https://api.github.com/repos/PrismarineJS/mineflayer/issues/2519",
            "node_id": "IC_kwDOABOYWc5ADTpT",
            "performed_via_github_app": null,
            "reactions": {
                "+1": 0,
                "-1": 0,
                "confused": 0,
                "eyes": 0,
                "heart": 0,
                "hooray": 0,
                "laugh": 0,
                "rocket": 0,
                "total_count": 0,
                "url": "https://api.github.com/repos/PrismarineJS/mineflayer/issues/comments/1074608723/reactions"
            },
            "updated_at": "2022-03-22T01:44:37Z",
            "url": "https://api.github.com/repos/PrismarineJS/mineflayer/issues/comments/1074608723",
            "user": {
                "avatar_url": "https://avatars.githubusercontent.com/u/47713889?v=4",
                "events_url": "https://api.github.com/users/EnderTheCoder/events{/privacy}",
                "followers_url": "https://api.github.com/users/EnderTheCoder/followers",
                "following_url": "https://api.github.com/users/EnderTheCoder/following{/other_user}",
                "gists_url": "https://api.github.com/users/EnderTheCoder/gists{/gist_id}",
                "gravatar_id": "",
                "html_url": "https://github.com/EnderTheCoder",
                "id": 47713889,
                "login": "EnderTheCoder",
                "node_id": "MDQ6VXNlcjQ3NzEzODg5",
                "organizations_url": "https://api.github.com/users/EnderTheCoder/orgs",
                "received_events_url": "https://api.github.com/users/EnderTheCoder/received_events",
                "repos_url": "https://api.github.com/users/EnderTheCoder/repos",
                "site_admin": false,
                "starred_url": "https://api.github.com/users/EnderTheCoder/starred{/owner}{/repo}",
                "subscriptions_url": "https://api.github.com/users/EnderTheCoder/subscriptions",
                "type": "User",
                "url": "https://api.github.com/users/EnderTheCoder"
            }
        },
        {
            "author_association": "MEMBER",
            "body": "This will not change a single thing with support of typescript. You can already use mineflayer in your typescript project ",
            "created_at": "2022-03-22T01:49:33Z",
            "html_url": "https://github.com/PrismarineJS/mineflayer/issues/2519#issuecomment-1074618486",
            "id": 1074618486,
            "issue_url": "https://api.github.com/repos/PrismarineJS/mineflayer/issues/2519",
            "node_id": "IC_kwDOABOYWc5ADWB2",
            "performed_via_github_app": null,
            "reactions": {
                "+1": 0,
                "-1": 0,
                "confused": 0,
                "eyes": 0,
                "heart": 0,
                "hooray": 0,
                "laugh": 0,
                "rocket": 0,
                "total_count": 0,
                "url": "https://api.github.com/repos/PrismarineJS/mineflayer/issues/comments/1074618486/reactions"
            },
            "updated_at": "2022-03-22T01:49:33Z",
            "url": "https://api.github.com/repos/PrismarineJS/mineflayer/issues/comments/1074618486",
            "user": {
                "avatar_url": "https://avatars.githubusercontent.com/u/2346494?v=4",
                "events_url": "https://api.github.com/users/rom1504/events{/privacy}",
                "followers_url": "https://api.github.com/users/rom1504/followers",
                "following_url": "https://api.github.com/users/rom1504/following{/other_user}",
                "gists_url": "https://api.github.com/users/rom1504/gists{/gist_id}",
                "gravatar_id": "",
                "html_url": "https://github.com/rom1504",
                "id": 2346494,
                "login": "rom1504",
                "node_id": "MDQ6VXNlcjIzNDY0OTQ=",
                "organizations_url": "https://api.github.com/users/rom1504/orgs",
                "received_events_url": "https://api.github.com/users/rom1504/received_events",
                "repos_url": "https://api.github.com/users/rom1504/repos",
                "site_admin": false,
                "starred_url": "https://api.github.com/users/rom1504/starred{/owner}{/repo}",
                "subscriptions_url": "https://api.github.com/users/rom1504/subscriptions",
                "type": "User",
                "url": "https://api.github.com/users/rom1504"
            }
        },
        {
            "author_association": "NONE",
            "body": "It's just the problem of autocomplete. I just solved it.\r\nWhen I tried to use mineflayer in the way of your example, vscode didn't give any suggestions.\r\n \r\n![2022-03-22 10-16-10 的屏幕截图](https://user-images.githubusercontent.com/47713889/159394903-191e1c40-832e-44f5-879f-49310b863ee3.png)\r\n\r\nBut if I code something like \"import mineflayer from ‘mineflayer’\", it worked.\r\n\r\n![2022-03-22 10-15-28 的屏幕截图](https://user-images.githubusercontent.com/47713889/159394926-a52504f1-11cc-47b4-8f2c-7461c3a38211.png)\r\n",
            "created_at": "2022-03-22T02:20:45Z",
            "html_url": "https://github.com/PrismarineJS/mineflayer/issues/2519#issuecomment-1074641166",
            "id": 1074641166,
            "issue_url": "https://api.github.com/repos/PrismarineJS/mineflayer/issues/2519",
            "node_id": "IC_kwDOABOYWc5ADbkO",
            "performed_via_github_app": null,
            "reactions": {
                "+1": 0,
                "-1": 0,
                "confused": 0,
                "eyes": 0,
                "heart": 0,
                "hooray": 0,
                "laugh": 0,
                "rocket": 0,
                "total_count": 0,
                "url": "https://api.github.com/repos/PrismarineJS/mineflayer/issues/comments/1074641166/reactions"
            },
            "updated_at": "2022-03-22T02:20:45Z",
            "url": "https://api.github.com/repos/PrismarineJS/mineflayer/issues/comments/1074641166",
            "user": {
                "avatar_url": "https://avatars.githubusercontent.com/u/47713889?v=4",
                "events_url": "https://api.github.com/users/EnderTheCoder/events{/privacy}",
                "followers_url": "https://api.github.com/users/EnderTheCoder/followers",
                "following_url": "https://api.github.com/users/EnderTheCoder/following{/other_user}",
                "gists_url": "https://api.github.com/users/EnderTheCoder/gists{/gist_id}",
                "gravatar_id": "",
                "html_url": "https://github.com/EnderTheCoder",
                "id": 47713889,
                "login": "EnderTheCoder",
                "node_id": "MDQ6VXNlcjQ3NzEzODg5",
                "organizations_url": "https://api.github.com/users/EnderTheCoder/orgs",
                "received_events_url": "https://api.github.com/users/EnderTheCoder/received_events",
                "repos_url": "https://api.github.com/users/EnderTheCoder/repos",
                "site_admin": false,
                "starred_url": "https://api.github.com/users/EnderTheCoder/starred{/owner}{/repo}",
                "subscriptions_url": "https://api.github.com/users/EnderTheCoder/subscriptions",
                "type": "User",
                "url": "https://api.github.com/users/EnderTheCoder"
            }
        },
        {
            "author_association": "MEMBER",
            "body": "> But if I code something like \"import mineflayer from ‘mineflayer’\", it worked.\r\n\r\nYes because typescript dose not add types without `import` when using `require`. To get types with `require` you would need to do something like this `import mineflayer = require('mineflayer')`.",
            "created_at": "2022-03-31T19:09:54Z",
            "html_url": "https://github.com/PrismarineJS/mineflayer/issues/2519#issuecomment-1084999308",
            "id": 1084999308,
            "issue_url": "https://api.github.com/repos/PrismarineJS/mineflayer/issues/2519",
            "node_id": "IC_kwDOABOYWc5Aq8aM",
            "performed_via_github_app": null,
            "reactions": {
                "+1": 0,
                "-1": 0,
                "confused": 0,
                "eyes": 0,
                "heart": 0,
                "hooray": 0,
                "laugh": 0,
                "rocket": 0,
                "total_count": 0,
                "url": "https://api.github.com/repos/PrismarineJS/mineflayer/issues/comments/1084999308/reactions"
            },
            "updated_at": "2022-03-31T19:09:54Z",
            "url": "https://api.github.com/repos/PrismarineJS/mineflayer/issues/comments/1084999308",
            "user": {
                "avatar_url": "https://avatars.githubusercontent.com/u/61137113?v=4",
                "events_url": "https://api.github.com/users/IceTank/events{/privacy}",
                "followers_url": "https://api.github.com/users/IceTank/followers",
                "following_url": "https://api.github.com/users/IceTank/following{/other_user}",
                "gists_url": "https://api.github.com/users/IceTank/gists{/gist_id}",
                "gravatar_id": "",
                "html_url": "https://github.com/IceTank",
                "id": 61137113,
                "login": "IceTank",
                "node_id": "MDQ6VXNlcjYxMTM3MTEz",
                "organizations_url": "https://api.github.com/users/IceTank/orgs",
                "received_events_url": "https://api.github.com/users/IceTank/received_events",
                "repos_url": "https://api.github.com/users/IceTank/repos",
                "site_admin": false,
                "starred_url": "https://api.github.com/users/IceTank/starred{/owner}{/repo}",
                "subscriptions_url": "https://api.github.com/users/IceTank/subscriptions",
                "type": "User",
                "url": "https://api.github.com/users/IceTank"
            }
        }
    ],
    "comments": 4,
    "comments_url": "https://api.github.com/repos/PrismarineJS/mineflayer/issues/2519/comments",
    "created_at": "2022-03-08T15:05:26Z",
    "event_data": [
        {
            "actor": {
                "avatar_url": "https://avatars.githubusercontent.com/u/2346494?v=4",
                "events_url": "https://api.github.com/users/rom1504/events{/privacy}",
                "followers_url": "https://api.github.com/users/rom1504/followers",
                "following_url": "https://api.github.com/users/rom1504/following{/other_user}",
                "gists_url": "https://api.github.com/users/rom1504/gists{/gist_id}",
                "gravatar_id": "",
                "html_url": "https://github.com/rom1504",
                "id": 2346494,
                "login": "rom1504",
                "node_id": "MDQ6VXNlcjIzNDY0OTQ=",
                "organizations_url": "https://api.github.com/users/rom1504/orgs",
                "received_events_url": "https://api.github.com/users/rom1504/received_events",
                "repos_url": "https://api.github.com/users/rom1504/repos",
                "site_admin": false,
                "starred_url": "https://api.github.com/users/rom1504/starred{/owner}{/repo}",
                "subscriptions_url": "https://api.github.com/users/rom1504/subscriptions",
                "type": "User",
                "url": "https://api.github.com/users/rom1504"
            },
            "commit_id": null,
            "commit_url": null,
            "created_at": "2022-03-08T15:05:26Z",
            "event": "labeled",
            "id": 6203163814,
            "label": {
                "color": "444444",
                "name": "new feature"
            },
            "node_id": "LE_lADOABOYWc5FTmulzwAAAAFxvMSm",
            "performed_via_github_app": null,
            "url": "https://api.github.com/repos/PrismarineJS/mineflayer/issues/events/6203163814"
        },
        {
            "actor": {
                "avatar_url": "https://avatars.githubusercontent.com/u/2346494?v=4",
                "events_url": "https://api.github.com/users/rom1504/events{/privacy}",
                "followers_url": "https://api.github.com/users/rom1504/followers",
                "following_url": "https://api.github.com/users/rom1504/following{/other_user}",
                "gists_url": "https://api.github.com/users/rom1504/gists{/gist_id}",
                "gravatar_id": "",
                "html_url": "https://github.com/rom1504",
                "id": 2346494,
                "login": "rom1504",
                "node_id": "MDQ6VXNlcjIzNDY0OTQ=",
                "organizations_url": "https://api.github.com/users/rom1504/orgs",
                "received_events_url": "https://api.github.com/users/rom1504/received_events",
                "repos_url": "https://api.github.com/users/rom1504/repos",
                "site_admin": false,
                "starred_url": "https://api.github.com/users/rom1504/starred{/owner}{/repo}",
                "subscriptions_url": "https://api.github.com/users/rom1504/subscriptions",
                "type": "User",
                "url": "https://api.github.com/users/rom1504"
            },
            "commit_id": null,
            "commit_url": null,
            "created_at": "2022-03-08T15:05:26Z",
            "event": "labeled",
            "id": 6203163818,
            "label": {
                "color": "688F3E",
                "name": "Stage3"
            },
            "node_id": "LE_lADOABOYWc5FTmulzwAAAAFxvMSq",
            "performed_via_github_app": null,
            "url": "https://api.github.com/repos/PrismarineJS/mineflayer/issues/events/6203163818"
        }
    ],
    "events_url": "https://api.github.com/repos/PrismarineJS/mineflayer/issues/2519/events",
    "html_url": "https://github.com/PrismarineJS/mineflayer/issues/2519",
    "id": 1162767269,
    "labels": [
        {
            "color": "444444",
            "default": false,
            "description": "",
            "id": 111395,
            "name": "new feature",
            "node_id": "MDU6TGFiZWwxMTEzOTU=",
            "url": "https://api.github.com/repos/PrismarineJS/mineflayer/labels/new%20feature"
        },
        {
            "color": "688F3E",
            "default": false,
            "description": "idea is precisely specified, only coding is left to do",
            "id": 2720118863,
            "name": "Stage3",
            "node_id": "MDU6TGFiZWwyNzIwMTE4ODYz",
            "url": "https://api.github.com/repos/PrismarineJS/mineflayer/labels/Stage3"
        }
    ],
    "labels_url": "https://api.github.com/repos/PrismarineJS/mineflayer/issues/2519/labels{/name}",
    "locked": false,
    "milestone": null,
    "node_id": "I_kwDOABOYWc5FTmul",
    "number": 2519,
    "performed_via_github_app": null,
    "reactions": {
        "+1": 0,
        "-1": 0,
        "confused": 0,
        "eyes": 0,
        "heart": 1,
        "hooray": 0,
        "laugh": 0,
        "rocket": 0,
        "total_count": 1,
        "url": "https://api.github.com/repos/PrismarineJS/mineflayer/issues/2519/reactions"
    },
    "repository_url": "https://api.github.com/repos/PrismarineJS/mineflayer",
    "state": "open",
    "state_reason": null,
    "timeline_url": "https://api.github.com/repos/PrismarineJS/mineflayer/issues/2519/timeline",
    "title": "Test typing to avoid typing PRs",
    "updated_at": "2022-03-31T19:09:54Z",
    "url": "https://api.github.com/repos/PrismarineJS/mineflayer/issues/2519",
    "user": {
        "avatar_url": "https://avatars.githubusercontent.com/u/2346494?v=4",
        "events_url": "https://api.github.com/users/rom1504/events{/privacy}",
        "followers_url": "https://api.github.com/users/rom1504/followers",
        "following_url": "https://api.github.com/users/rom1504/following{/other_user}",
        "gists_url": "https://api.github.com/users/rom1504/gists{/gist_id}",
        "gravatar_id": "",
        "html_url": "https://github.com/rom1504",
        "id": 2346494,
        "login": "rom1504",
        "node_id": "MDQ6VXNlcjIzNDY0OTQ=",
        "organizations_url": "https://api.github.com/users/rom1504/orgs",
        "received_events_url": "https://api.github.com/users/rom1504/received_events",
        "repos_url": "https://api.github.com/users/rom1504/repos",
        "site_admin": false,
        "starred_url": "https://api.github.com/users/rom1504/starred{/owner}{/repo}",
        "subscriptions_url": "https://api.github.com/users/rom1504/subscriptions",
        "type": "User",
        "url": "https://api.github.com/users/rom1504"
    }
}