{
    "active_lock_reason": null,
    "assignee": null,
    "assignees": [],
    "author_association": "NONE",
    "body": "- [ ] The [FAQ](https://github.com/PrismarineJS/mineflayer/blob/master/docs/FAQ.md) doesn't contain a resolution to my issue \r\n\r\n## Versions\r\n - mineflayer: latest version?\r\n - server: vanilla/spigot/paper paper 1.18.2\r\n - node: 8.6.0\r\n\r\n## Detailed description of a problem\r\nA clear and concise description of what the problem is, with as much context as possible.\r\nWhat are you building? What problem are you trying to solve?\r\n\r\n## What did you try yet?\r\n\r\nDid you try any method from the API?\r\nDid you try any example? Any error from those?\r\n\r\n## Your current code\r\n```js\r\nconst mineflayer = require('mineflayer')\r\nconst { pathfinder, Movements, goals: { GoalNear } } = require('mineflayer-pathfinder')\r\nconst RANGE_GOAL = 1 // get within this radius of the player\r\nconst vec3 = require('vec3')\r\nconst autoeat = require('mineflayer-auto-eat')\r\nconst { performance } = require('perf_hooks')\r\nconst collectBlock = require('mineflayer-collectblock').plugin\r\n\r\nconst bot = mineflayer.createBot({\r\n  host: '309SMP.aternos.me', // minecraft server ip\r\n  username: 'MineRealm', // minecraft username\r\n  password: '' // minecraft password, comment out if you want to log into online-mode=false servers\r\n  // port: 25565,                // only set if you need a port that isn't 25565\r\n  // version: false,             // only set if you need a specific version or snapshot (ie: \"1.8.9\" or \"1.16.5\"), otherwise it's set automatically\r\n  // auth: 'mojang'              // only set if you need microsoft auth, then set this to 'microsoft'\r\n})\r\n\r\nbot.loadPlugin(pathfinder)\r\n\r\nbot.once('spawn', () => {\r\n  const mcData = require('minecraft-data')(bot.version)\r\n  const defaultMove = new Movements(bot, mcData)\r\n\r\n  bot.on('chat', (username, message) => {\r\n    if (username === bot.username) return\r\n    if (message !== 'follow') return\r\n    const target = bot.players['RealmLabs']?.entity\r\n    if (!target) {\r\n      bot.chat(\"I don't see you !\")\r\n      return\r\n    }\r\n    const { x: playerX, y: playerY, z: playerZ } = target.position\r\n\r\n    bot.pathfinder.setMovements(defaultMove)\r\n    bot.pathfinder.setGoal(new GoalNear(playerX, playerY, playerZ, RANGE_GOAL))\r\n  })\r\n})\r\nlet mcData\r\nbot.once('inject_allowed', () => {\r\n  mcData = require('minecraft-data')(bot.version)\r\n})\r\n\r\nbot.on('experience', () => {\r\n  bot.chat(`I am level ${bot.experience.level} | Possibly caused by: Item Pickup, XP Pickup, Auto-Eat Start etc.`)\r\n})\r\n\r\nbot.on('chat', (username, message) => {\r\n  if (username === bot.username) return\r\n  switch (true) {\r\n    case /^list$/.test(message):\r\n      sayItems()\r\n      break\r\n    case /^chest$/.test(message):\r\n      watchChest(false, ['chest', 'ender_chest', 'trapped_chest'])\r\n      break\r\n    case /^furnace$/.test(message):\r\n      watchFurnace()\r\n      break\r\n    case /^dispenser$/.test(message):\r\n      watchChest(false, ['dispenser'])\r\n      break\r\n    case /^enchant$/.test(message):\r\n      watchEnchantmentTable()\r\n      break\r\n    case /^chestminecart$/.test(message):\r\n      watchChest(true)\r\n      break\r\n    case /^invsee \\w+( \\d)?$/.test(message): {\r\n      // invsee Herobrine [or]\r\n      // invsee Herobrine 1\r\n      const command = message.split(' ')\r\n      useInvsee(command[0], command[1])\r\n      break\r\n    }\r\n  }\r\n})\r\n\r\nfunction sayItems (items = bot.inventory.items()) {\r\n  const output = items.map(itemToString).join(', ')\r\n  if (output) {\r\n    bot.chat(output)\r\n  } else {\r\n    bot.chat('empty')\r\n  }\r\n}\r\n\r\nasync function watchChest (minecart, blocks = []) {\r\n  let chestToOpen\r\n  if (minecart) {\r\n    chestToOpen = Object.keys(bot.entities)\r\n      .map(id => bot.entities[id]).find(e => e.entityType === mcData.entitiesByName.chest_minecart &&\r\n      e.objectData.intField === 1 &&\r\n      bot.entity.position.distanceTo(e.position) < 3)\r\n    if (!chestToOpen) {\r\n      bot.chat('no chest minecart found')\r\n      return\r\n    }\r\n  } else {\r\n    chestToOpen = bot.findBlock({\r\n      matching: blocks.map(name => mcData.blocksByName[name].id),\r\n      maxDistance: 6\r\n    })\r\n    if (!chestToOpen) {\r\n      bot.chat('no chest found')\r\n      return\r\n    }\r\n  }\r\n  const chest = await bot.openChest(chestToOpen)\r\n  sayItems(chest.containerItems())\r\n  chest.on('updateSlot', (slot, oldItem, newItem) => {\r\n    bot.chat(`chest update: ${itemToString(oldItem)} -> ${itemToString(newItem)} (slot: ${slot})`)\r\n  })\r\n  chest.on('close', () => {\r\n    bot.chat('chest closed')\r\n  })\r\n\r\n  bot.on('chat', onChat)\r\n\r\n  function onChat (username, message) {\r\n    if (username === bot.username) return\r\n    const command = message.split(' ')\r\n    switch (true) {\r\n      case /^close$/.test(message):\r\n        closeChest()\r\n        break\r\n      case /^withdraw \\d+ \\w+$/.test(message):\r\n        // withdraw amount name\r\n        // ex: withdraw 16 stick\r\n        withdrawItem(command[2], command[1])\r\n        break\r\n      case /^deposit \\d+ \\w+$/.test(message):\r\n        // deposit amount name\r\n        // ex: deposit 16 stick\r\n        depositItem(command[2], command[1])\r\n        break\r\n    }\r\n  }\r\n\r\n  function closeChest () {\r\n    chest.close()\r\n    bot.removeListener('chat', onChat)\r\n  }\r\n\r\n  async function withdrawItem (name, amount) {\r\n    const item = itemByName(chest.containerItems(), name)\r\n    if (item) {\r\n      try {\r\n        await chest.withdraw(item.type, null, amount)\r\n        bot.chat(`withdrew ${amount} ${item.name}`)\r\n      } catch (err) {\r\n        bot.chat(`unable to withdraw ${amount} ${item.name}`)\r\n      }\r\n    } else {\r\n      bot.chat(`unknown item ${name}`)\r\n    }\r\n  }\r\n\r\n  async function depositItem (name, amount) {\r\n    const item = itemByName(chest.items(), name)\r\n    if (item) {\r\n      try {\r\n        await chest.deposit(item.type, null, amount)\r\n        bot.chat(`deposited ${amount} ${item.name}`)\r\n      } catch (err) {\r\n        bot.chat(`unable to deposit ${amount} ${item.name}`)\r\n      }\r\n    } else {\r\n      bot.chat(`unknown item ${name}`)\r\n    }\r\n  }\r\n}\r\n\r\nasync function watchFurnace () {\r\n  const furnaceBlock = bot.findBlock({\r\n    matching: ['furnace', 'lit_furnace'].filter(name => mcData.blocksByName[name] !== undefined).map(name => mcData.blocksByName[name].id),\r\n    maxDistance: 6\r\n  })\r\n  if (!furnaceBlock) {\r\n    bot.chat('no furnace found')\r\n    return\r\n  }\r\n  const furnace = await bot.openFurnace(furnaceBlock)\r\n  let output = ''\r\n  output += `input: ${itemToString(furnace.inputItem())}, `\r\n  output += `fuel: ${itemToString(furnace.fuelItem())}, `\r\n  output += `output: ${itemToString(furnace.outputItem())}`\r\n  bot.chat(output)\r\n\r\n  furnace.on('updateSlot', (slot, oldItem, newItem) => {\r\n    bot.chat(`furnace update: ${itemToString(oldItem)} -> ${itemToString(newItem)} (slot: ${slot})`)\r\n  })\r\n  furnace.on('close', () => {\r\n    bot.chat('furnace closed')\r\n  })\r\n  furnace.on('update', () => {\r\n    console.log(`fuel: ${Math.round(furnace.fuel * 100)}% progress: ${Math.round(furnace.progress * 100)}%`)\r\n  })\r\n\r\n  bot.on('chat', onChat)\r\n\r\n  function onChat (username, message) {\r\n    if (username === bot.username) return\r\n    const command = message.split(' ')\r\n    switch (true) {\r\n      case /^close$/.test(message):\r\n        closeFurnace()\r\n        break\r\n      case /^(input|fuel) \\d+ \\w+$/.test(message):\r\n        // input amount name\r\n        // ex: input 32 coal\r\n        putInFurnace(command[0], command[2], command[1])\r\n        break\r\n      case /^take (input|fuel|output)$/.test(message):\r\n        // take what\r\n        // ex: take output\r\n        takeFromFurnace(command[0])\r\n        break\r\n    }\r\n\r\n    function closeFurnace () {\r\n      furnace.close()\r\n      bot.removeListener('chat', onChat)\r\n    }\r\n\r\n    async function putInFurnace (where, name, amount) {\r\n      const item = itemByName(furnace.items(), name)\r\n      if (item) {\r\n        const fn = {\r\n          input: furnace.putInput,\r\n          fuel: furnace.putFuel\r\n        }[where]\r\n        try {\r\n          await fn.call(furnace, item.type, null, amount)\r\n          bot.chat(`put ${amount} ${item.name}`)\r\n        } catch (err) {\r\n          bot.chat(`unable to put ${amount} ${item.name}`)\r\n        }\r\n      } else {\r\n        bot.chat(`unknown item ${name}`)\r\n      }\r\n    }\r\n\r\n    async function takeFromFurnace (what) {\r\n      const fn = {\r\n        input: furnace.takeInput,\r\n        fuel: furnace.takeFuel,\r\n        output: furnace.takeOutput\r\n      }[what]\r\n      try {\r\n        const item = await fn.call(furnace)\r\n        bot.chat(`took ${item.name}`)\r\n      } catch (err) {\r\n        bot.chat('unable to take')\r\n      }\r\n    }\r\n  }\r\n}\r\n\r\nasync function watchEnchantmentTable () {\r\n  const enchantTableBlock = bot.findBlock({\r\n    matching: ['enchanting_table'].map(name => mcData.blocksByName[name].id),\r\n    maxDistance: 6\r\n  })\r\n  if (!enchantTableBlock) {\r\n    bot.chat('no enchantment table found')\r\n    return\r\n  }\r\n  const table = await bot.openEnchantmentTable(enchantTableBlock)\r\n  bot.chat(itemToString(table.targetItem()))\r\n\r\n  table.on('updateSlot', (slot, oldItem, newItem) => {\r\n    bot.chat(`enchantment table update: ${itemToString(oldItem)} -> ${itemToString(newItem)} (slot: ${slot})`)\r\n  })\r\n  table.on('close', () => {\r\n    bot.chat('enchantment table closed')\r\n  })\r\n  table.on('ready', () => {\r\n    bot.chat(`ready to enchant. choices are ${table.enchantments.map(o => o.level).join(', ')}`)\r\n  })\r\n\r\n  bot.on('chat', onChat)\r\n\r\n  function onChat (username, message) {\r\n    if (username === bot.username) return\r\n    const command = message.split(' ')\r\n    switch (true) {\r\n      case /^close$/.test(message):\r\n        closeEnchantmentTable()\r\n        break\r\n      case /^put \\w+$/.test(message):\r\n        // put name\r\n        // ex: put diamondsword\r\n        putItem(command[1])\r\n        break\r\n      case /^add lapis$/.test(message):\r\n        addLapis()\r\n        break\r\n      case /^enchant \\d+$/.test(message):\r\n        // enchant choice\r\n        // ex: enchant 2\r\n        enchantItem(command[1])\r\n        break\r\n      case /^take$/.test(message):\r\n        takeEnchantedItem()\r\n        break\r\n    }\r\n\r\n    function closeEnchantmentTable () {\r\n      table.close()\r\n    }\r\n\r\n    async function putItem (name) {\r\n      const item = itemByName(table.window.items(), name)\r\n      if (item) {\r\n        try {\r\n          await table.putTargetItem(item)\r\n          bot.chat(`I put ${itemToString(item)}`)\r\n        } catch (err) {\r\n          bot.chat(`error putting ${itemToString(item)}`)\r\n        }\r\n      } else {\r\n        bot.chat(`unknown item ${name}`)\r\n      }\r\n    }\r\n\r\n    async function addLapis () {\r\n      const item = itemByType(table.window.items(), ['dye', 'purple_dye', 'lapis_lazuli'].filter(name => mcData.itemByName[name] !== undefined)\r\n        .map(name => mcData.itemByName[name].id))\r\n      if (item) {\r\n        try {\r\n          await table.putLapis(item)\r\n          bot.chat(`I put ${itemToString(item)}`)\r\n        } catch (err) {\r\n          bot.chat(`error putting ${itemToString(item)}`)\r\n        }\r\n      } else {\r\n        bot.chat(\"I don't have any lapis\")\r\n      }\r\n    }\r\n\r\n    async function enchantItem (choice) {\r\n      choice = parseInt(choice, 10)\r\n      try {\r\n        const item = await table.enchant(choice)\r\n        bot.chat(`enchanted ${itemToString(item)}`)\r\n      } catch (err) {\r\n        bot.chat('error enchanting')\r\n      }\r\n    }\r\n\r\n    async function takeEnchantedItem () {\r\n      try {\r\n        const item = await table.takeTargetItem()\r\n        bot.chat(`got ${itemToString(item)}`)\r\n      } catch (err) {\r\n        bot.chat('error getting item')\r\n      }\r\n    }\r\n  }\r\n}\r\n\r\nfunction useInvsee (username, showEquipment) {\r\n  bot.once('windowOpen', (window) => {\r\n    const count = window.containerItems().length\r\n    const what = showEquipment ? 'equipment' : 'inventory items'\r\n    if (count) {\r\n      bot.chat(`${username}'s ${what}:`)\r\n      sayItems(window.containerItems())\r\n    } else {\r\n      bot.chat(`${username} has no ${what}`)\r\n    }\r\n  })\r\n  if (showEquipment) {\r\n    // any extra parameter triggers the easter egg\r\n    // and shows the other player's equipment\r\n    bot.chat(`/invsee ${username} 1`)\r\n  } else {\r\n    bot.chat(`/invsee ${username}`)\r\n  }\r\n}\r\n\r\nfunction itemToString (item) {\r\n  if (item) {\r\n    return `${item.name} x ${item.count}`\r\n  } else {\r\n    return '(nothing)'\r\n  }\r\n}\r\n\r\nfunction itemByType (items, type) {\r\n  let item\r\n  let i\r\n  for (i = 0; i < items.length; ++i) {\r\n    item = items[i]\r\n    if (item && item.type === type) return item\r\n  }\r\n  return null\r\n}\r\n\r\nfunction itemByName (items, name) {\r\n  let item\r\n  let i\r\n  for (i = 0; i < items.length; ++i) {\r\n    item = items[i]\r\n    if (item && item.name === name) return item\r\n  }\r\n  return null\r\n}\r\nlet target = null\r\n\r\nbot.on('chat', (username, message) => {\r\n  if (username === bot.username) return\r\n  target = bot.players['RealmLabs'].entity\r\n  let entity\r\n  switch (message) {\r\n    case 'forward':\r\n      bot.setControlState('forward', true)\r\n      break\r\n    case 'back':\r\n      bot.setControlState('back', true)\r\n      break\r\n    case 'left':\r\n      bot.setControlState('left', true)\r\n      break\r\n    case 'right':\r\n      bot.setControlState('right', true)\r\n      break\r\n    case 'sprint':\r\n      bot.setControlState('sprint', true)\r\n      break\r\n    case 'stop':\r\n      bot.clearControlStates()\r\n      break\r\n    case 'jump':\r\n      bot.setControlState('jump', true)\r\n      bot.setControlState('jump', false)\r\n      break\r\n    case 'jump a lot':\r\n      bot.setControlState('jump', true)\r\n      break\r\n    case 'stop jumping':\r\n      bot.setControlState('jump', false)\r\n      break\r\n    case 'attack':\r\n      entity = bot.nearestEntity()\r\n      if (entity) {\r\n        bot.attack(entity, true)\r\n      } else {\r\n        bot.chat('no nearby entities')\r\n      }\r\n      break\r\n    case 'mount':\r\n      entity = bot.nearestEntity((entity) => { return entity.type === 'object' })\r\n      if (entity) {\r\n        bot.mount(entity)\r\n      } else {\r\n        bot.chat('no nearby objects')\r\n      }\r\n      break\r\n    case 'dismount':\r\n      bot.dismount()\r\n      break\r\n    case 'move vehicle forward':\r\n      bot.moveVehicle(0.0, 1.0)\r\n      break\r\n    case 'move vehicle backward':\r\n      bot.moveVehicle(0.0, -1.0)\r\n      break\r\n    case 'move vehicle left':\r\n      bot.moveVehicle(1.0, 0.0)\r\n      break\r\n    case 'move vehicle right':\r\n      bot.moveVehicle(-1.0, 0.0)\r\n      break\r\n    case 'tp':\r\n      bot.entity.position.y += 10\r\n      break\r\n    case 'pos':\r\n      bot.chat(bot.entity.position.toString())\r\n      break\r\n    case 'yp':\r\n      bot.chat(`Yaw ${bot.entity.yaw}, pitch: ${bot.entity.pitch}`)\r\n      break\r\n  }\r\n})\r\n\r\nbot.once('spawn', () => {\r\n  // keep your eyes on the target, so creepy!\r\n  setInterval(watchTarget, 50)\r\n\r\n  function watchTarget () {\r\n    if (!target) return\r\n    bot.lookAt(target.position.offset(0, target.height, 0))\r\n  }\r\n})\r\n\r\nbot.on('mount', () => {\r\n  bot.chat(`mounted ${bot.vehicle.objectType}`)\r\n})\r\n\r\nbot.on('dismount', (vehicle) => {\r\n  bot.chat(`dismounted ${vehicle.objectType}`)\r\n})\r\n\r\nbot.on('chat', async (username, message) => {\r\n  if (username === bot.username) return\r\n  switch (message) {\r\n    case 'loaded':\r\n      await bot.waitForChunksToLoad()\r\n      bot.chat('Ready!')\r\n      break\r\n    case 'dig':\r\n      dig()\r\n      break\r\n    case 'build':\r\n      build()\r\n      break\r\n    case 'equip dirt':\r\n      equipDirt()\r\n      break\r\n  }\r\n})\r\n\r\nfunction sayItems (items = bot.inventory.items()) {\r\n  const output = items.map(itemToString).join(', ')\r\n  if (output) {\r\n    bot.chat(output)\r\n  } else {\r\n    bot.chat('empty')\r\n  }\r\n}\r\n\r\nasync function dig () {\r\n  let target\r\n  if (bot.targetDigBlock) {\r\n    bot.chat(`already digging ${bot.targetDigBlock.name}`)\r\n  } else {\r\n    target = bot.blockAt(bot.entity.position.offset(0, -1, 0))\r\n    if (target && bot.canDigBlock(target)) {\r\n      bot.chat(`starting to dig ${target.name}`)\r\n      try {\r\n        await bot.dig(target)\r\n        bot.chat(`finished digging ${target.name}`)\r\n      } catch (err) {\r\n        console.log(err.stack)\r\n      }\r\n    } else {\r\n      bot.chat('cannot dig')\r\n    }\r\n  }\r\n}\r\n\r\nfunction build () {\r\n  const referenceBlock = bot.blockAt(bot.entity.position.offset(0, -1, 0))\r\n  const jumpY = Math.floor(bot.entity.position.y) + 1.0\r\n  bot.setControlState('jump', true)\r\n  bot.on('move', placeIfHighEnough)\r\n\r\n  let tryCount = 0\r\n\r\n  async function placeIfHighEnough () {\r\n    if (bot.entity.position.y > jumpY) {\r\n      try {\r\n        await bot.placeBlock(referenceBlock, vec3(0, 1, 0))\r\n        bot.setControlState('jump', false)\r\n        bot.removeListener('move', placeIfHighEnough)\r\n        bot.chat('Placing a block was successful')\r\n      } catch (err) {\r\n        tryCount++\r\n        if (tryCount > 10) {\r\n          bot.chat(err.message)\r\n          bot.setControlState('jump', false)\r\n          bot.removeListener('move', placeIfHighEnough)\r\n        }\r\n      }\r\n    }\r\n  }\r\n}\r\n\r\nasync function equipDirt () {\r\n  const mcData = require('minecraft-data')(bot.version)\r\n  let itemsByName\r\n  if (bot.supportFeature('itemsAreNotBlocks')) {\r\n    itemsByName = 'itemsByName'\r\n  } else if (bot.supportFeature('itemsAreAlsoBlocks')) {\r\n    itemsByName = 'blocksByName'\r\n  }\r\n  try {\r\n    await bot.equip(mcData[itemsByName].dirt.id, 'hand')\r\n    bot.chat('equipped dirt')\r\n  } catch (err) {\r\n    bot.chat(`unable to equip dirt: ${err.message}`)\r\n  }\r\n}\r\n\r\nfunction itemToString (item) {\r\n  if (item) {\r\n    return `${item.name} x ${item.count}`\r\n  } else {\r\n    return '(nothing)'\r\n  }\r\n}\r\n// Load the plugin\r\nbot.loadPlugin(autoeat)\r\n\r\nbot.once('spawn', () => {\r\n  bot.autoEat.options = {\r\n    priority: 'foodPoints',\r\n    startAt: 14,\r\n    bannedFood: []\r\n  }\r\n})\r\n// The bot eats food automatically and emits these events when it starts eating and stops eating.\r\n\r\nbot.on('autoeat_started', () => {\r\n  console.log('Auto Eat started!')\r\n})\r\n\r\nbot.on('autoeat_stopped', () => {\r\n  console.log('Auto Eat stopped!')\r\n})\r\n\r\nbot.on('health', () => {\r\n  if (bot.food === 20) bot.autoEat.disable()\r\n  // Disable the plugin if the bot is at 20 food points\r\n  else bot.autoEat.enable() // Else enable the plugin again\r\n})\r\n\r\nbot.on('spawn', () => {\r\n  bot.on('chat', (username, message) => {\r\n    if (message === 'attack me') attackPlayer(username)\r\n    else if (message === 'attack') attackEntity()\r\n  })\r\n})\r\n\r\nfunction attackPlayer (username) {\r\n  const player = bot.players[username]\r\n  if (!player || !player.entity) {\r\n    bot.chat('I can\\'t see you')\r\n  } else {\r\n    bot.chat(`Attacking ${player.username}`)\r\n    bot.attack(player.entity)\r\n  }\r\n}\r\n\r\nfunction attackEntity () {\r\n  const entity = bot.nearestEntity()\r\n  if (!entity) {\r\n    bot.chat('No nearby entities')\r\n  } else {\r\n    bot.chat(`Attacking ${entity.name ?? entity.username}`)\r\n    bot.attack(entity)\r\n  }\r\n}\r\n\r\nbot.on('inject_allowed', () => {\r\n  mcData = require('minecraft-data')(bot.version)\r\n})\r\n\r\n\r\nbot.on('chat', (username, message) => {\r\n  if (username === bot.username) return\r\n  switch (message) {\r\n    case 'sleep':\r\n      goToSleep()\r\n      break\r\n    case 'wakeup':\r\n      wakeUp()\r\n      break\r\n  }\r\n})\r\n\r\nbot.on('sleep', () => {\r\n  bot.chat('sleeping on bed')\r\n})\r\nbot.on('wake', () => {\r\n  bot.chat('waking up from bed')\r\n})\r\n\r\nasync function goToSleep () {\r\n  const bed = bot.findBlock({\r\n    matching: block => bot.isABed(block)\r\n  })\r\n  if (bed) {\r\n    try {\r\n      await bot.sleep(bed)\r\n      bot.chat(\"I'm sleeping\")\r\n    } catch (err) {\r\n      bot.chat(`I can't sleep: ${err.message}`)\r\n    }\r\n  } else {\r\n    bot.chat('No nearby bed')\r\n  }\r\n}\r\n\r\nasync function wakeUp () {\r\n  try {\r\n    await bot.wake()\r\n  } catch (err) {\r\n    bot.chat(`I can't wake up: ${err.message}`)\r\n  }\r\n}\r\n\r\nbot.on('chat', async (username, message) => {\r\n  if (username === bot.username) return\r\n  const command = message.split(' ')\r\n  switch (true) {\r\n    case message === 'loaded':\r\n      await bot.waitForChunksToLoad()\r\n      bot.chat('Ready!')\r\n      break\r\n    case /^toss \\d+ \\w+$/.test(message):\r\n      // toss amount name\r\n      // ex: toss 64 diamond\r\n      tossItem(command[2], command[1])\r\n      break\r\n    case /^toss \\w+$/.test(message):\r\n      // toss name\r\n      // ex: toss diamond\r\n      tossItem(command[1])\r\n      break\r\n    case /^equip [\\w-]+ \\w+$/.test(message):\r\n      // equip destination name\r\n      // ex: equip hand diamond\r\n      equipItem(command[2], command[1])\r\n      break\r\n    case /^unequip \\w+$/.test(message):\r\n      // unequip testination\r\n      // ex: unequip hand\r\n      unequipItem(command[1])\r\n      break\r\n    case /^use$/.test(message):\r\n      useEquippedItem()\r\n      break\r\n    case /^craft \\d+ \\w+$/.test(message):\r\n      // craft amount item\r\n      // ex: craft 64 stick\r\n      craftItem(command[2], command[1])\r\n      break\r\n  }\r\n})\r\n\r\nfunction sayItems (items = null) {\r\n  if (!items) {\r\n    items = bot.inventory.items()\r\n    if (require('minecraft-data')(bot.version).isNewerOrEqualTo('1.9') && bot.inventory.slots[45]) items.push(bot.inventory.slots[45])\r\n  }\r\n  const output = items.map(itemToString).join(', ')\r\n  if (output) {\r\n    bot.chat(output)\r\n  } else {\r\n    bot.chat('empty')\r\n  }\r\n}\r\n\r\nasync function tossItem (name, amount) {\r\n  amount = parseInt(amount, 10)\r\n  const item = itemByName(name)\r\n  if (!item) {\r\n    bot.chat(`I have no ${name}`)\r\n  } else {\r\n    try {\r\n      if (amount) {\r\n        await bot.toss(item.type, null, amount)\r\n        bot.chat(`tossed ${amount} x ${name}`)\r\n      } else {\r\n        await bot.tossStack(item)\r\n        bot.chat(`tossed ${name}`)\r\n      }\r\n    } catch (err) {\r\n      bot.chat(`unable to toss: ${err.message}`)\r\n    }\r\n  }\r\n}\r\n\r\nasync function equipItem (name, destination) {\r\n  const item = itemByName(name)\r\n  if (item) {\r\n    try {\r\n      await bot.equip(item, destination)\r\n      bot.chat(`equipped ${name}`)\r\n    } catch (err) {\r\n      bot.chat(`cannot equip ${name}: ${err.message}`)\r\n    }\r\n  } else {\r\n    bot.chat(`I have no ${name}`)\r\n  }\r\n}\r\n\r\nasync function unequipItem (destination) {\r\n  try {\r\n    await bot.unequip(destination)\r\n    bot.chat('unequipped')\r\n  } catch (err) {\r\n    bot.chat(`cannot unequip: ${err.message}`)\r\n  }\r\n}\r\n\r\nfunction useEquippedItem () {\r\n  bot.chat('activating item')\r\n  bot.activateItem()\r\n}\r\n\r\nasync function craftItem (name, amount) {\r\n  amount = parseInt(amount, 10)\r\n  const mcData = require('minecraft-data')(bot.version)\r\n\r\n  const item = mcData.itemsByName[name]\r\n  const craftingTableID = mcData.blocksByName.crafting_table.id\r\n\r\n  const craftingTable = bot.findBlock({\r\n    matching: craftingTableID\r\n  })\r\n\r\n  if (item) {\r\n    const recipe = bot.recipesFor(item.id, null, 1, craftingTable)[0]\r\n    if (recipe) {\r\n      bot.chat(`I can make ${name}`)\r\n      try {\r\n        await bot.craft(recipe, amount, craftingTable)\r\n        bot.chat(`did the recipe for ${name} ${amount} times`)\r\n      } catch (err) {\r\n        bot.chat(`error making ${name}`)\r\n      }\r\n    } else {\r\n      bot.chat(`I cannot make ${name}`)\r\n    }\r\n  } else {\r\n    bot.chat(`unknown item: ${name}`)\r\n  }\r\n}\r\n\r\nfunction itemToString (item) {\r\n  if (item) {\r\n    return `${item.name} x ${item.count}`\r\n  } else {\r\n    return '(nothing)'\r\n  }\r\n}\r\n\r\nfunction itemByName (name) {\r\n  const items = bot.inventory.items()\r\n  if (require('minecraft-data')(bot.version).isNewerOrEqualTo('1.9') && bot.inventory.slots[45]) items.push(bot.inventory.slots[45])\r\n  return items.filter(item => item.name === name)[0]\r\n}\r\n\r\n          bot.on('chat', async (username, message) => {\r\n  if (username === bot.username) return\r\n\r\n  const mcData = require('minecraft-data')(bot.version)\r\n\r\n  if (message === 'loaded') {\r\n    console.log(bot.entity.position)\r\n    await bot.waitForChunksToLoad()\r\n    bot.chat('Ready!')\r\n  }\r\n\r\n  if (message.startsWith('find')) {\r\n    const name = message.split(' ')[1]\r\n    if (mcData.blocksByName[name] === undefined) {\r\n      bot.chat(`${name} is not a block name`)\r\n      return\r\n    }\r\n    const ids = [mcData.blocksByName[name].id]\r\n\r\n    const startTime = performance.now()\r\n    const blocks = bot.findBlocks({ matching: ids, maxDistance: 128, count: 10 })\r\n    const time = (performance.now() - startTime).toFixed(2)\r\n\r\n    bot.chat(`I found ${blocks.length} ${name} blocks in ${time} ms`)\r\n  }\r\n})\r\n\r\n// Load pathfinder and collect block plugins\r\nbot.loadPlugin(pathfinder)\r\nbot.loadPlugin(collectBlock)\r\n\r\n// Load mc data\r\nbot.once('spawn', () => {\r\n  mcData = require('minecraft-data')(bot.version)\r\n})\r\n\r\n// Listen for when a player says \"collect [something]\" in chat\r\nbot.on('chat', (username, message) => {\r\n  const args = message.split(' ')\r\n  if (args[0] !== 'collect') return\r\n\r\n  // Get the correct block type\r\n  const blockType = mcData.blocksByName[args[1]]\r\n  if (!blockType) {\r\n    bot.chat(\"I don't know any blocks with that name.\")\r\n    return\r\n  }\r\n\r\n  bot.chat('Collecting the nearest ' + blockType.name)\r\n\r\n  // Try and find that block type in the world\r\n  const block = bot.findBlock({\r\n    matching: blockType.id,\r\n    maxDistance: 64\r\n  })\r\n\r\n  if (!block) {\r\n    bot.chat(\"I don't see that block nearby.\")\r\n    return\r\n  }\r\n\r\n  // Collect the block if we found one\r\n  bot.collectBlock.collect(block, err => {\r\n    if (err) bot.chat(err.message)\r\n  })\r\n})\r\n\r\n      bot.on('message', (message) => {\r\n  console.log(message.toAnsi())\r\n})\r\n\r\nconsole.log('Commands :\\n' +\r\n  '  show villagers\\n' +\r\n  '  show inventory\\n' +\r\n  '  show trades <id>\\n' +\r\n  '  trade <id> <trade> [<times>]')\r\n\r\nbot.once('inject_allowed', () => {\r\n  mcData = require('minecraft-data')(bot.version)\r\n})\r\n\r\nbot.on('chat', (username, message) => {\r\n  if (username === bot.username) return\r\n  const command = message.split(' ')\r\n  switch (true) {\r\n    case message === 'show villagers':\r\n      showVillagers()\r\n      break\r\n    case message === 'show inventory':\r\n      showInventory()\r\n      break\r\n    case /^show trades [0-9]+$/.test(message):\r\n      showTrades(command[2])\r\n      break\r\n    case /^trade [0-9]+ [0-9]+( [0-9]+)?$/.test(message):\r\n      trade(command[1], command[2], command[3])\r\n      break\r\n  }\r\n})\r\n\r\nfunction showVillagers () {\r\n  const villagers = Object.keys(bot.entities).map(id => bot.entities[id]).filter(e => e.entityType === mcData.entitiesByName.villager.id)\r\n  const closeVillagersId = villagers.filter(e => bot.entity.position.distanceTo(e.position) < 3).map(e => e.id)\r\n  bot.chat(`found ${villagers.length} villagers`)\r\n  bot.chat(`villager(s) you can trade with: ${closeVillagersId.join(', ')}`)\r\n}\r\n\r\nfunction showInventory () {\r\n  bot.inventory.slots\r\n    .filter(item => item).forEach((item) => {\r\n      bot.chat(stringifyItem(item))\r\n    })\r\n}\r\n\r\nasync function showTrades (id) {\r\n  const e = bot.entities[id]\r\n  switch (true) {\r\n    case !e:\r\n      bot.chat(`cant find entity with id ${id}`)\r\n      break\r\n    case e.entityType !== mcData.entitiesByName.villager.id:\r\n      bot.chat('entity is not a villager')\r\n      break\r\n    case bot.entity.position.distanceTo(e.position) > 3:\r\n      bot.chat('villager out of reach')\r\n      break\r\n    default: {\r\n      const villager = await bot.openVillager(e)\r\n      villager.close()\r\n      stringifyTrades(villager.trades).forEach((trade, i) => {\r\n        bot.chat(`${i + 1}: ${trade}`)\r\n      })\r\n    }\r\n  }\r\n}\r\n\r\nasync function trade (id, index, count) {\r\n  const e = bot.entities[id]\r\n  switch (true) {\r\n    case !e:\r\n      bot.chat(`cant find entity with id ${id}`)\r\n      break\r\n    case e.entityType !== mcData.entitiesByName.villager.id:\r\n      bot.chat('entity is not a villager')\r\n      break\r\n    case bot.entity.position.distanceTo(e.position) > 3:\r\n      bot.chat('villager out of reach')\r\n      break\r\n    default: {\r\n      const villager = await bot.openVillager(e)\r\n      const trade = villager.trades[index - 1]\r\n      count = count || trade.maxTradeuses - trade.tooluses\r\n      switch (true) {\r\n        case !trade:\r\n          villager.close()\r\n          bot.chat('trade not found')\r\n          break\r\n        case trade.disabled:\r\n          villager.close()\r\n          bot.chat('trade is disabled')\r\n          break\r\n        case trade.maxTradeuses - trade.tooluses < count:\r\n          villager.close()\r\n          bot.chat('cant trade that often')\r\n          break\r\n        case !hasResources(villager.window, trade, count):\r\n          villager.close()\r\n          bot.chat('dont have the resources to do that trade')\r\n          break\r\n        default:\r\n          bot.chat('starting to trade')\r\n          try {\r\n            await bot.trade(villager, index - 1, count)\r\n            bot.chat(`traded ${count} times`)\r\n          } catch (err) {\r\n            bot.chat('an error acured while tyring to trade')\r\n            console.log(err)\r\n          }\r\n          villager.close()\r\n      }\r\n    }\r\n  }\r\n\r\n  function hasResources (window, trade, count) {\r\n    const first = enough(trade.firstInput, count)\r\n    const second = !trade.hasSecondItem || enough(trade.secondaryInput, count)\r\n    return first && second\r\n\r\n    function enough (item, count) {\r\n      return window.count(item.type, item.metadata) >= item.count * count\r\n    }\r\n  }\r\n}\r\n\r\nfunction stringifyTrades (trades) {\r\n  return trades.map((trade) => {\r\n    let text = stringifyItem(trade.firstInput)\r\n    if (trade.secondaryInput) text += ` & ${stringifyItem(trade.secondaryInput)}`\r\n    if (trade.disabled) text += ' x '; else text += ' » '\r\n    text += stringifyItem(trade.output)\r\n    return `(${trade.tooluses}/${trade.maxTradeuses}) ${text}`\r\n  })\r\n}\r\n\r\nfunction stringifyItem (item) {\r\n  if (!item) return 'nothing'\r\n  let text = `${item.count} ${item.displayName}`\r\n  if (item.nbt && item.nbt.value) {\r\n    const ench = item.nbt.value.ench\r\n    const StoredEnchantments = item.nbt.value.StoredEnchantments\r\n    const Potion = item.nbt.value.Potion\r\n    const display = item.nbt.value.display\r\n\r\n    if (Potion) text += ` of ${Potion.value.replace(/_/g, ' ').split(':')[1] || 'unknow type'}`\r\n    if (display) text += ` named ${display.value.Name.value}`\r\n    if (ench || StoredEnchantments) {\r\n      text += ` enchanted with ${(ench || StoredEnchantments).value.value.map((e) => {\r\n        const lvl = e.lvl.value\r\n        const id = e.id.value\r\n        return mcData.enchantments[id].displayName + ' ' + lvl\r\n      }).join(' ')}`\r\n    }\r\n  }\r\n  return text\r\n}\r\n\r\n      bot.on('chat', (username, message) => {\r\n  if (message === 'compute') {\r\n    const target = bot.players[username]?.entity\r\n    if (!target) {\r\n      bot.chat('I don\\'t know where you are')\r\n      return\r\n    }\r\n    const crystal = bot.nearestEntity(entity => entity.name.includes('crystal'))\r\n    if (!crystal) {\r\n      bot.chat('No crystal nearby')\r\n      return\r\n    }\r\n\r\n    const damages = bot.getExplosionDamages(target, crystal.position, 6)\r\n\r\n    bot.chat(`You'll take ${damages} damages.`)\r\n  }\r\n})\r\n\r\n      // /scoreboard objectives add Kills totalKillCount\r\n// /scoreboard objectives setDisplay sidebar Kills\r\nbot.on('scoreboardCreated', (scoreboard) => {\r\n  bot.chat(`New scoreboard: ${scoreboard.name}, ${scoreboard.title}`)\r\n  console.log(scoreboard)\r\n})\r\n\r\n// kill a mob for this to be displayed\r\nbot.on('scoreboardScoreUpdated', (scoreboard, updated) => {\r\n  bot.chat(`Scoreboard score : ${scoreboard.title}, ${updated.name}, ${updated.value}`)\r\n  console.log(scoreboard)\r\n})\r\n\r\n       bot.on('spawn', () => { mcData = require('minecraft-data')(bot.version) })\r\n\r\nbot.on('chat', async (username, message) => {\r\n  const command = message.split(' ')\r\n\r\n  switch (true) {\r\n    case /^xp$/.test(message):\r\n      bot.chat(bot.experience.level)\r\n      break\r\n    case /^gamemode$/.test(message):\r\n      bot.chat(bot.game.gameMode)\r\n      break\r\n    case /^anvil combine \\w+ \\w+$/.test(message): // anvil firstSlot secondSlot\r\n      combine(bot, command[2], command[3])\r\n      break\r\n    case /^anvil combine \\w+ \\w+ (.+)$/.test(message): // anvil firstSlot secondSlot name\r\n      combine(bot, command[2], command[3], command.slice(4).join(' '))\r\n      break\r\n    case /^anvil rename \\w+ (.+)/.test((message)):\r\n      rename(bot, command[2], command.slice(3).join(' '))\r\n      break\r\n  }\r\n})\r\n\r\nasync function tossItem (name, amount) {\r\n  amount = parseInt(amount, 10)\r\n  const item = itemByName(name)\r\n  if (!item) {\r\n    bot.chat(`I have no ${name}`)\r\n  } else {\r\n    try {\r\n      if (amount) {\r\n        await bot.toss(item.type, null, amount)\r\n        bot.chat(`tossed ${amount} x ${name}`)\r\n      } else {\r\n        await bot.tossStack(item)\r\n        bot.chat(`tossed ${name}`)\r\n      }\r\n    } catch (err) {\r\n      bot.chat(`unable to toss: ${err.message}`)\r\n    }\r\n  }\r\n}\r\n\r\nfunction itemByName (name) {\r\n  return bot.inventory.items().filter(item => item.name === name)[0]\r\n}\r\n\r\nfunction itemToString (item) {\r\n  if (item) {\r\n    return `${item.name} x ${item.count}`\r\n  } else {\r\n    return '(nothing)'\r\n  }\r\n}\r\n\r\nfunction sayItems (items = bot.inventory.items()) {\r\n  const output = items.map(itemToString).join(', ')\r\n  if (output) {\r\n    bot.chat(output)\r\n  } else {\r\n    bot.chat('empty')\r\n  }\r\n}\r\n\r\nfunction getAnvilIds () {\r\n  const matchingBlocks = [mcData.blocksByName.anvil.id]\r\n  if (mcData.blocksByName?.chipped_anvil) {\r\n    matchingBlocks.push(mcData.blocksByName.chipped_anvil.id)\r\n    matchingBlocks.push(mcData.blocksByName.damaged_anvil.id)\r\n  }\r\n  return matchingBlocks\r\n}\r\n\r\nasync function rename (bot, itemName, name) {\r\n  const anvilBlock = bot.findBlock({\r\n    matching: getAnvilIds()\r\n  })\r\n  const anvil = await bot.openAnvil(anvilBlock)\r\n  try {\r\n    await anvil.rename(itemByName(itemName), name)\r\n    bot.chat('Anvil used successfully.')\r\n  } catch (err) {\r\n    bot.chat(err.message)\r\n  }\r\n  anvil.close()\r\n}\r\n\r\nasync function combine (bot, itemName1, itemName2, name) {\r\n  const anvilBlock = bot.findBlock({\r\n    matching: getAnvilIds()\r\n  })\r\n  const anvil = await bot.openAnvil(anvilBlock)\r\n  try {\r\n    bot.chat('Using the anvil...')\r\n    await anvil.combine(itemByName(itemName1), itemByName(itemName2), name)\r\n    bot.chat('Anvil used successfully.')\r\n  } catch (err) {\r\n    bot.chat(err.message)\r\n  }\r\n  anvil.close()\r\n}\r\n \r\n\r\nbot.on('error', console.log)\r\n\r\n\r\n// Log errors and kick reasons:\r\nbot.on('kicked', console.log)\r\nbot.on('error', console.log)\r\n```\r\n\r\n\r\n```\r\n\r\n## Expected behavior\r\n\"come\" word expected me to see the bot come to me normally\r\n\r\n## Additional context\r\nnothing\r\n",
    "closed_at": "2022-04-24T13:19:52Z",
    "comment_data": [
        {
            "author_association": "MEMBER",
            "body": "You have way to much stuff in your code and everything is all over the place. You cannot expect anyone to read all off that to debug it for you.\r\n\r\nThere dose not seam to be any mention off 'come' in your code. If you want the bot to come to you when you write 'come' in chat I suggest you start by implementing it. There are multiple examples that already do that in the mineflayer-pathfinder github repo under the examples folder.",
            "created_at": "2022-04-24T11:31:10Z",
            "html_url": "https://github.com/PrismarineJS/mineflayer/issues/2604#issuecomment-1107822001",
            "id": 1107822001,
            "issue_url": "https://api.github.com/repos/PrismarineJS/mineflayer/issues/2604",
            "node_id": "IC_kwDOABOYWc5CCAWx",
            "performed_via_github_app": null,
            "reactions": {
                "+1": 1,
                "-1": 0,
                "confused": 0,
                "eyes": 0,
                "heart": 0,
                "hooray": 0,
                "laugh": 0,
                "rocket": 0,
                "total_count": 1,
                "url": "https://api.github.com/repos/PrismarineJS/mineflayer/issues/comments/1107822001/reactions"
            },
            "updated_at": "2022-04-24T11:31:10Z",
            "url": "https://api.github.com/repos/PrismarineJS/mineflayer/issues/comments/1107822001",
            "user": {
                "avatar_url": "https://avatars.githubusercontent.com/u/61137113?v=4",
                "events_url": "https://api.github.com/users/IceTank/events{/privacy}",
                "followers_url": "https://api.github.com/users/IceTank/followers",
                "following_url": "https://api.github.com/users/IceTank/following{/other_user}",
                "gists_url": "https://api.github.com/users/IceTank/gists{/gist_id}",
                "gravatar_id": "",
                "html_url": "https://github.com/IceTank",
                "id": 61137113,
                "login": "IceTank",
                "node_id": "MDQ6VXNlcjYxMTM3MTEz",
                "organizations_url": "https://api.github.com/users/IceTank/orgs",
                "received_events_url": "https://api.github.com/users/IceTank/received_events",
                "repos_url": "https://api.github.com/users/IceTank/repos",
                "site_admin": false,
                "starred_url": "https://api.github.com/users/IceTank/starred{/owner}{/repo}",
                "subscriptions_url": "https://api.github.com/users/IceTank/subscriptions",
                "type": "User",
                "url": "https://api.github.com/users/IceTank"
            }
        },
        {
            "author_association": "NONE",
            "body": "> You have way to much stuff in your code and everything is all over the place. You cannot expect anyone to read all off that to debug it for you.\r\n> \r\n> There dose not seam to be any mention off 'come' in your code. If you want the bot to come to you when you write 'come' in chat I suggest you start by implementing it. There are multiple examples that already do that in the mineflayer-pathfinder github repo under the examples folder.\r\n\r\ni changed the word to follow\r\n",
            "created_at": "2022-04-24T13:14:47Z",
            "html_url": "https://github.com/PrismarineJS/mineflayer/issues/2604#issuecomment-1107839802",
            "id": 1107839802,
            "issue_url": "https://api.github.com/repos/PrismarineJS/mineflayer/issues/2604",
            "node_id": "IC_kwDOABOYWc5CCEs6",
            "performed_via_github_app": null,
            "reactions": {
                "+1": 0,
                "-1": 0,
                "confused": 0,
                "eyes": 0,
                "heart": 0,
                "hooray": 0,
                "laugh": 0,
                "rocket": 0,
                "total_count": 0,
                "url": "https://api.github.com/repos/PrismarineJS/mineflayer/issues/comments/1107839802/reactions"
            },
            "updated_at": "2022-04-24T13:14:47Z",
            "url": "https://api.github.com/repos/PrismarineJS/mineflayer/issues/comments/1107839802",
            "user": {
                "avatar_url": "https://avatars.githubusercontent.com/u/73048123?v=4",
                "events_url": "https://api.github.com/users/RealmKebab/events{/privacy}",
                "followers_url": "https://api.github.com/users/RealmKebab/followers",
                "following_url": "https://api.github.com/users/RealmKebab/following{/other_user}",
                "gists_url": "https://api.github.com/users/RealmKebab/gists{/gist_id}",
                "gravatar_id": "",
                "html_url": "https://github.com/RealmKebab",
                "id": 73048123,
                "login": "RealmKebab",
                "node_id": "MDQ6VXNlcjczMDQ4MTIz",
                "organizations_url": "https://api.github.com/users/RealmKebab/orgs",
                "received_events_url": "https://api.github.com/users/RealmKebab/received_events",
                "repos_url": "https://api.github.com/users/RealmKebab/repos",
                "site_admin": false,
                "starred_url": "https://api.github.com/users/RealmKebab/starred{/owner}{/repo}",
                "subscriptions_url": "https://api.github.com/users/RealmKebab/subscriptions",
                "type": "User",
                "url": "https://api.github.com/users/RealmKebab"
            }
        },
        {
            "author_association": "NONE",
            "body": "just ignore it now",
            "created_at": "2022-04-24T13:19:52Z",
            "html_url": "https://github.com/PrismarineJS/mineflayer/issues/2604#issuecomment-1107840797",
            "id": 1107840797,
            "issue_url": "https://api.github.com/repos/PrismarineJS/mineflayer/issues/2604",
            "node_id": "IC_kwDOABOYWc5CCE8d",
            "performed_via_github_app": null,
            "reactions": {
                "+1": 0,
                "-1": 0,
                "confused": 0,
                "eyes": 0,
                "heart": 0,
                "hooray": 0,
                "laugh": 0,
                "rocket": 0,
                "total_count": 0,
                "url": "https://api.github.com/repos/PrismarineJS/mineflayer/issues/comments/1107840797/reactions"
            },
            "updated_at": "2022-04-24T13:19:52Z",
            "url": "https://api.github.com/repos/PrismarineJS/mineflayer/issues/comments/1107840797",
            "user": {
                "avatar_url": "https://avatars.githubusercontent.com/u/73048123?v=4",
                "events_url": "https://api.github.com/users/RealmKebab/events{/privacy}",
                "followers_url": "https://api.github.com/users/RealmKebab/followers",
                "following_url": "https://api.github.com/users/RealmKebab/following{/other_user}",
                "gists_url": "https://api.github.com/users/RealmKebab/gists{/gist_id}",
                "gravatar_id": "",
                "html_url": "https://github.com/RealmKebab",
                "id": 73048123,
                "login": "RealmKebab",
                "node_id": "MDQ6VXNlcjczMDQ4MTIz",
                "organizations_url": "https://api.github.com/users/RealmKebab/orgs",
                "received_events_url": "https://api.github.com/users/RealmKebab/received_events",
                "repos_url": "https://api.github.com/users/RealmKebab/repos",
                "site_admin": false,
                "starred_url": "https://api.github.com/users/RealmKebab/starred{/owner}{/repo}",
                "subscriptions_url": "https://api.github.com/users/RealmKebab/subscriptions",
                "type": "User",
                "url": "https://api.github.com/users/RealmKebab"
            }
        }
    ],
    "comments": 3,
    "comments_url": "https://api.github.com/repos/PrismarineJS/mineflayer/issues/2604/comments",
    "created_at": "2022-04-24T10:51:21Z",
    "event_data": [
        {
            "actor": {
                "avatar_url": "https://avatars.githubusercontent.com/u/73048123?v=4",
                "events_url": "https://api.github.com/users/RealmKebab/events{/privacy}",
                "followers_url": "https://api.github.com/users/RealmKebab/followers",
                "following_url": "https://api.github.com/users/RealmKebab/following{/other_user}",
                "gists_url": "https://api.github.com/users/RealmKebab/gists{/gist_id}",
                "gravatar_id": "",
                "html_url": "https://github.com/RealmKebab",
                "id": 73048123,
                "login": "RealmKebab",
                "node_id": "MDQ6VXNlcjczMDQ4MTIz",
                "organizations_url": "https://api.github.com/users/RealmKebab/orgs",
                "received_events_url": "https://api.github.com/users/RealmKebab/received_events",
                "repos_url": "https://api.github.com/users/RealmKebab/repos",
                "site_admin": false,
                "starred_url": "https://api.github.com/users/RealmKebab/starred{/owner}{/repo}",
                "subscriptions_url": "https://api.github.com/users/RealmKebab/subscriptions",
                "type": "User",
                "url": "https://api.github.com/users/RealmKebab"
            },
            "commit_id": null,
            "commit_url": null,
            "created_at": "2022-04-24T10:51:21Z",
            "event": "labeled",
            "id": 6485691696,
            "label": {
                "color": "ba232f",
                "name": "possible bug"
            },
            "node_id": "LE_lADOABOYWc5IVlrdzwAAAAGCk80w",
            "performed_via_github_app": null,
            "url": "https://api.github.com/repos/PrismarineJS/mineflayer/issues/events/6485691696"
        },
        {
            "actor": {
                "avatar_url": "https://avatars.githubusercontent.com/u/73048123?v=4",
                "events_url": "https://api.github.com/users/RealmKebab/events{/privacy}",
                "followers_url": "https://api.github.com/users/RealmKebab/followers",
                "following_url": "https://api.github.com/users/RealmKebab/following{/other_user}",
                "gists_url": "https://api.github.com/users/RealmKebab/gists{/gist_id}",
                "gravatar_id": "",
                "html_url": "https://github.com/RealmKebab",
                "id": 73048123,
                "login": "RealmKebab",
                "node_id": "MDQ6VXNlcjczMDQ4MTIz",
                "organizations_url": "https://api.github.com/users/RealmKebab/orgs",
                "received_events_url": "https://api.github.com/users/RealmKebab/received_events",
                "repos_url": "https://api.github.com/users/RealmKebab/repos",
                "site_admin": false,
                "starred_url": "https://api.github.com/users/RealmKebab/starred{/owner}{/repo}",
                "subscriptions_url": "https://api.github.com/users/RealmKebab/subscriptions",
                "type": "User",
                "url": "https://api.github.com/users/RealmKebab"
            },
            "commit_id": null,
            "commit_url": null,
            "created_at": "2022-04-24T10:51:21Z",
            "event": "labeled",
            "id": 6485691698,
            "label": {
                "color": "bfdadc",
                "name": "Stage1"
            },
            "node_id": "LE_lADOABOYWc5IVlrdzwAAAAGCk80y",
            "performed_via_github_app": null,
            "url": "https://api.github.com/repos/PrismarineJS/mineflayer/issues/events/6485691698"
        },
        {
            "actor": {
                "avatar_url": "https://avatars.githubusercontent.com/u/73048123?v=4",
                "events_url": "https://api.github.com/users/RealmKebab/events{/privacy}",
                "followers_url": "https://api.github.com/users/RealmKebab/followers",
                "following_url": "https://api.github.com/users/RealmKebab/following{/other_user}",
                "gists_url": "https://api.github.com/users/RealmKebab/gists{/gist_id}",
                "gravatar_id": "",
                "html_url": "https://github.com/RealmKebab",
                "id": 73048123,
                "login": "RealmKebab",
                "node_id": "MDQ6VXNlcjczMDQ4MTIz",
                "organizations_url": "https://api.github.com/users/RealmKebab/orgs",
                "received_events_url": "https://api.github.com/users/RealmKebab/received_events",
                "repos_url": "https://api.github.com/users/RealmKebab/repos",
                "site_admin": false,
                "starred_url": "https://api.github.com/users/RealmKebab/starred{/owner}{/repo}",
                "subscriptions_url": "https://api.github.com/users/RealmKebab/subscriptions",
                "type": "User",
                "url": "https://api.github.com/users/RealmKebab"
            },
            "commit_id": null,
            "commit_url": null,
            "created_at": "2022-04-24T13:19:53Z",
            "event": "closed",
            "id": 6485851487,
            "node_id": "CE_lADOABOYWc5IVlrdzwAAAAGClj1f",
            "performed_via_github_app": null,
            "state_reason": null,
            "url": "https://api.github.com/repos/PrismarineJS/mineflayer/issues/events/6485851487"
        }
    ],
    "events_url": "https://api.github.com/repos/PrismarineJS/mineflayer/issues/2604/events",
    "html_url": "https://github.com/PrismarineJS/mineflayer/issues/2604",
    "id": 1213618909,
    "labels": [
        {
            "color": "ba232f",
            "default": false,
            "description": "",
            "id": 1346729768,
            "name": "possible bug",
            "node_id": "MDU6TGFiZWwxMzQ2NzI5NzY4",
            "url": "https://api.github.com/repos/PrismarineJS/mineflayer/labels/possible%20bug"
        },
        {
            "color": "bfdadc",
            "default": false,
            "description": "just created by someone new to the project, we don't know yet if it deserves an implementation / a f",
            "id": 2720118317,
            "name": "Stage1",
            "node_id": "MDU6TGFiZWwyNzIwMTE4MzE3",
            "url": "https://api.github.com/repos/PrismarineJS/mineflayer/labels/Stage1"
        }
    ],
    "labels_url": "https://api.github.com/repos/PrismarineJS/mineflayer/issues/2604/labels{/name}",
    "locked": false,
    "milestone": null,
    "node_id": "I_kwDOABOYWc5IVlrd",
    "number": 2604,
    "performed_via_github_app": null,
    "reactions": {
        "+1": 0,
        "-1": 0,
        "confused": 0,
        "eyes": 0,
        "heart": 0,
        "hooray": 0,
        "laugh": 0,
        "rocket": 0,
        "total_count": 0,
        "url": "https://api.github.com/repos/PrismarineJS/mineflayer/issues/2604/reactions"
    },
    "repository_url": "https://api.github.com/repos/PrismarineJS/mineflayer",
    "state": "closed",
    "state_reason": "completed",
    "timeline_url": "https://api.github.com/repos/PrismarineJS/mineflayer/issues/2604/timeline",
    "title": "my bot keeps doing random things when i say \"come\" it did that after i put in the \"forward\" word",
    "updated_at": "2022-04-24T13:19:53Z",
    "url": "https://api.github.com/repos/PrismarineJS/mineflayer/issues/2604",
    "user": {
        "avatar_url": "https://avatars.githubusercontent.com/u/73048123?v=4",
        "events_url": "https://api.github.com/users/RealmKebab/events{/privacy}",
        "followers_url": "https://api.github.com/users/RealmKebab/followers",
        "following_url": "https://api.github.com/users/RealmKebab/following{/other_user}",
        "gists_url": "https://api.github.com/users/RealmKebab/gists{/gist_id}",
        "gravatar_id": "",
        "html_url": "https://github.com/RealmKebab",
        "id": 73048123,
        "login": "RealmKebab",
        "node_id": "MDQ6VXNlcjczMDQ4MTIz",
        "organizations_url": "https://api.github.com/users/RealmKebab/orgs",
        "received_events_url": "https://api.github.com/users/RealmKebab/received_events",
        "repos_url": "https://api.github.com/users/RealmKebab/repos",
        "site_admin": false,
        "starred_url": "https://api.github.com/users/RealmKebab/starred{/owner}{/repo}",
        "subscriptions_url": "https://api.github.com/users/RealmKebab/subscriptions",
        "type": "User",
        "url": "https://api.github.com/users/RealmKebab"
    }
}