{
    "active_lock_reason": null,
    "assignee": null,
    "assignees": [],
    "author_association": "NONE",
    "body": "My code:\r\n```\r\nmineflayer = require('mineflayer')\r\n\r\nbot = mineflayer.createBot({\r\n    'host': '******',\r\n    'port': 25565,\r\n    'username': '******',\r\n    'version': '1.12'\r\n    })\r\n\r\n@On(bot, 'login')\r\ndef handle(*args):\r\n    items_inventory = bot.inventory.slots\r\n    chest = bot.openContainer(bot.blockAt(vec3(2463,64,-525)))\r\n    if chest:\r\n        for item in items_inventory:\r\n            if item != None:\r\n                chest.deposit(item.type, None, item.count)\r\n\r\n    chest.close()\r\n```\r\n\r\nThis code should transfer all items from the inventory to the chest. But the script throws an error:\r\n```\r\njavascript.errors.JavaScriptError: ('deposit', \"TypeError: Cannot read property 'type' of null\\n    at clickDest (/usr/local/lib/node_modules/mineflayer/lib/plugins/inventory.js:263:51)\\n    at transferOne (/usr/local/lib/node_modules/mineflayer/lib/plugins/inventory.js:260:13)\\n    at runMicrotasks (<anonymous>)\\n    at processTicksAndRejections (internal/process/task_queues.js:95:5)\\n    at async transfer (/usr/local/lib/node_modules/mineflayer/lib/plugins/inventory.js:241:5)\\n    at async Window.window.deposit (/usr/local/lib/node_modules/mineflayer/lib/plugins/inventory.js:338:7)\\n    at async Bridge.call (/usr/local/lib/python3.8/site-packages/javascript/js/bridge.js:136:17)\\n    at async Bridge.onMessage (/usr/local/lib/python3.8/site-packages/javascript/js/bridge.js:226:7)\")\r\n\r\n[JSE] (node:1614) UnhandledPromiseRejectionWarning\r\n[JSE] (Use `node --trace-warnings ...` to show where the warning was created)\r\n[JSE] (node:1614) UnhandledPromiseRejectionWarning: Unhandled promise rejection. This error originated either by throwing inside of an async function without a catch block, or by rejecting a promise which was not handled with .catch(). To terminate the node process on unhandled promise rejection, use the CLI flag `--unhandled-rejections=strict` (see https://nodejs.org/api/cli.html#cli_unhandled_rejections_mode). (rejection id: 2)\r\n[JSE] (node:1614) [DEP0018] DeprecationWarning: Unhandled promise rejections are deprecated. In the future, promise rejections that are not handled will terminate the Node.js process with a non-zero exit code.\r\n```\r\n\r\nWhat is the problem? I've tried enabling async/await but it doesn't help.",
    "closed_at": "2022-06-25T05:22:20Z",
    "comment_data": [
        {
            "author_association": "NONE",
            "body": "Sorry but i can help you. But everything in mineflayer working bad at python, i just tried to migrate into JavaScript and mineflayer programming become easier",
            "created_at": "2022-06-13T06:39:08Z",
            "html_url": "https://github.com/PrismarineJS/mineflayer/issues/2657#issuecomment-1153531245",
            "id": 1153531245,
            "issue_url": "https://api.github.com/repos/PrismarineJS/mineflayer/issues/2657",
            "node_id": "IC_kwDOABOYWc5EwX1t",
            "performed_via_github_app": null,
            "reactions": {
                "+1": 0,
                "-1": 0,
                "confused": 0,
                "eyes": 0,
                "heart": 0,
                "hooray": 0,
                "laugh": 0,
                "rocket": 0,
                "total_count": 0,
                "url": "https://api.github.com/repos/PrismarineJS/mineflayer/issues/comments/1153531245/reactions"
            },
            "updated_at": "2022-06-13T06:39:08Z",
            "url": "https://api.github.com/repos/PrismarineJS/mineflayer/issues/comments/1153531245",
            "user": {
                "avatar_url": "https://avatars.githubusercontent.com/u/107216409?v=4",
                "events_url": "https://api.github.com/users/Fikow195/events{/privacy}",
                "followers_url": "https://api.github.com/users/Fikow195/followers",
                "following_url": "https://api.github.com/users/Fikow195/following{/other_user}",
                "gists_url": "https://api.github.com/users/Fikow195/gists{/gist_id}",
                "gravatar_id": "",
                "html_url": "https://github.com/Fikow195",
                "id": 107216409,
                "login": "Fikow195",
                "node_id": "U_kgDOBmP-GQ",
                "organizations_url": "https://api.github.com/users/Fikow195/orgs",
                "received_events_url": "https://api.github.com/users/Fikow195/received_events",
                "repos_url": "https://api.github.com/users/Fikow195/repos",
                "site_admin": false,
                "starred_url": "https://api.github.com/users/Fikow195/starred{/owner}{/repo}",
                "subscriptions_url": "https://api.github.com/users/Fikow195/subscriptions",
                "type": "User",
                "url": "https://api.github.com/users/Fikow195"
            }
        },
        {
            "author_association": "MEMBER",
            "body": "Please update the javascript module and see if this still happens:\r\n\r\n```js\r\npip uninstall javascript\r\npip install javascript\r\n```",
            "created_at": "2022-06-25T00:43:41Z",
            "html_url": "https://github.com/PrismarineJS/mineflayer/issues/2657#issuecomment-1166155718",
            "id": 1166155718,
            "issue_url": "https://api.github.com/repos/PrismarineJS/mineflayer/issues/2657",
            "node_id": "IC_kwDOABOYWc5Fgh_G",
            "performed_via_github_app": null,
            "reactions": {
                "+1": 0,
                "-1": 0,
                "confused": 0,
                "eyes": 0,
                "heart": 0,
                "hooray": 0,
                "laugh": 0,
                "rocket": 0,
                "total_count": 0,
                "url": "https://api.github.com/repos/PrismarineJS/mineflayer/issues/comments/1166155718/reactions"
            },
            "updated_at": "2022-06-25T00:43:41Z",
            "url": "https://api.github.com/repos/PrismarineJS/mineflayer/issues/comments/1166155718",
            "user": {
                "avatar_url": "https://avatars.githubusercontent.com/u/13713600?v=4",
                "events_url": "https://api.github.com/users/extremeheat/events{/privacy}",
                "followers_url": "https://api.github.com/users/extremeheat/followers",
                "following_url": "https://api.github.com/users/extremeheat/following{/other_user}",
                "gists_url": "https://api.github.com/users/extremeheat/gists{/gist_id}",
                "gravatar_id": "",
                "html_url": "https://github.com/extremeheat",
                "id": 13713600,
                "login": "extremeheat",
                "node_id": "MDQ6VXNlcjEzNzEzNjAw",
                "organizations_url": "https://api.github.com/users/extremeheat/orgs",
                "received_events_url": "https://api.github.com/users/extremeheat/received_events",
                "repos_url": "https://api.github.com/users/extremeheat/repos",
                "site_admin": false,
                "starred_url": "https://api.github.com/users/extremeheat/starred{/owner}{/repo}",
                "subscriptions_url": "https://api.github.com/users/extremeheat/subscriptions",
                "type": "User",
                "url": "https://api.github.com/users/extremeheat"
            }
        }
    ],
    "comments": 2,
    "comments_url": "https://api.github.com/repos/PrismarineJS/mineflayer/issues/2657/comments",
    "created_at": "2022-06-12T16:52:10Z",
    "event_data": [
        {
            "actor": {
                "avatar_url": "https://avatars.githubusercontent.com/u/45117178?v=4",
                "events_url": "https://api.github.com/users/timof123/events{/privacy}",
                "followers_url": "https://api.github.com/users/timof123/followers",
                "following_url": "https://api.github.com/users/timof123/following{/other_user}",
                "gists_url": "https://api.github.com/users/timof123/gists{/gist_id}",
                "gravatar_id": "",
                "html_url": "https://github.com/timof123",
                "id": 45117178,
                "login": "timof123",
                "node_id": "MDQ6VXNlcjQ1MTE3MTc4",
                "organizations_url": "https://api.github.com/users/timof123/orgs",
                "received_events_url": "https://api.github.com/users/timof123/received_events",
                "repos_url": "https://api.github.com/users/timof123/repos",
                "site_admin": false,
                "starred_url": "https://api.github.com/users/timof123/starred{/owner}{/repo}",
                "subscriptions_url": "https://api.github.com/users/timof123/subscriptions",
                "type": "User",
                "url": "https://api.github.com/users/timof123"
            },
            "commit_id": null,
            "commit_url": null,
            "created_at": "2022-06-12T16:52:10Z",
            "event": "labeled",
            "id": 6791702173,
            "label": {
                "color": "ba232f",
                "name": "possible bug"
            },
            "node_id": "LE_lADOABOYWc5LneymzwAAAAGU0Sad",
            "performed_via_github_app": null,
            "url": "https://api.github.com/repos/PrismarineJS/mineflayer/issues/events/6791702173"
        },
        {
            "actor": {
                "avatar_url": "https://avatars.githubusercontent.com/u/45117178?v=4",
                "events_url": "https://api.github.com/users/timof123/events{/privacy}",
                "followers_url": "https://api.github.com/users/timof123/followers",
                "following_url": "https://api.github.com/users/timof123/following{/other_user}",
                "gists_url": "https://api.github.com/users/timof123/gists{/gist_id}",
                "gravatar_id": "",
                "html_url": "https://github.com/timof123",
                "id": 45117178,
                "login": "timof123",
                "node_id": "MDQ6VXNlcjQ1MTE3MTc4",
                "organizations_url": "https://api.github.com/users/timof123/orgs",
                "received_events_url": "https://api.github.com/users/timof123/received_events",
                "repos_url": "https://api.github.com/users/timof123/repos",
                "site_admin": false,
                "starred_url": "https://api.github.com/users/timof123/starred{/owner}{/repo}",
                "subscriptions_url": "https://api.github.com/users/timof123/subscriptions",
                "type": "User",
                "url": "https://api.github.com/users/timof123"
            },
            "commit_id": null,
            "commit_url": null,
            "created_at": "2022-06-12T16:52:10Z",
            "event": "labeled",
            "id": 6791702175,
            "label": {
                "color": "bfdadc",
                "name": "Stage1"
            },
            "node_id": "LE_lADOABOYWc5LneymzwAAAAGU0Saf",
            "performed_via_github_app": null,
            "url": "https://api.github.com/repos/PrismarineJS/mineflayer/issues/events/6791702175"
        },
        {
            "actor": {
                "avatar_url": "https://avatars.githubusercontent.com/u/70920215?v=4",
                "events_url": "https://api.github.com/users/on/events{/privacy}",
                "followers_url": "https://api.github.com/users/on/followers",
                "following_url": "https://api.github.com/users/on/following{/other_user}",
                "gists_url": "https://api.github.com/users/on/gists{/gist_id}",
                "gravatar_id": "",
                "html_url": "https://github.com/on",
                "id": 70920215,
                "login": "on",
                "node_id": "MDQ6VXNlcjcwOTIwMjE1",
                "organizations_url": "https://api.github.com/users/on/orgs",
                "received_events_url": "https://api.github.com/users/on/received_events",
                "repos_url": "https://api.github.com/users/on/repos",
                "site_admin": false,
                "starred_url": "https://api.github.com/users/on/starred{/owner}{/repo}",
                "subscriptions_url": "https://api.github.com/users/on/subscriptions",
                "type": "User",
                "url": "https://api.github.com/users/on"
            },
            "commit_id": null,
            "commit_url": null,
            "created_at": "2022-06-12T16:52:10Z",
            "event": "mentioned",
            "id": 6791702189,
            "node_id": "MEE_lADOABOYWc5LneymzwAAAAGU0Sat",
            "performed_via_github_app": null,
            "url": "https://api.github.com/repos/PrismarineJS/mineflayer/issues/events/6791702189"
        },
        {
            "actor": {
                "avatar_url": "https://avatars.githubusercontent.com/u/70920215?v=4",
                "events_url": "https://api.github.com/users/on/events{/privacy}",
                "followers_url": "https://api.github.com/users/on/followers",
                "following_url": "https://api.github.com/users/on/following{/other_user}",
                "gists_url": "https://api.github.com/users/on/gists{/gist_id}",
                "gravatar_id": "",
                "html_url": "https://github.com/on",
                "id": 70920215,
                "login": "on",
                "node_id": "MDQ6VXNlcjcwOTIwMjE1",
                "organizations_url": "https://api.github.com/users/on/orgs",
                "received_events_url": "https://api.github.com/users/on/received_events",
                "repos_url": "https://api.github.com/users/on/repos",
                "site_admin": false,
                "starred_url": "https://api.github.com/users/on/starred{/owner}{/repo}",
                "subscriptions_url": "https://api.github.com/users/on/subscriptions",
                "type": "User",
                "url": "https://api.github.com/users/on"
            },
            "commit_id": null,
            "commit_url": null,
            "created_at": "2022-06-12T16:52:10Z",
            "event": "subscribed",
            "id": 6791702191,
            "node_id": "SE_lADOABOYWc5LneymzwAAAAGU0Sav",
            "performed_via_github_app": null,
            "url": "https://api.github.com/repos/PrismarineJS/mineflayer/issues/events/6791702191"
        },
        {
            "actor": {
                "avatar_url": "https://avatars.githubusercontent.com/u/70920215?v=4",
                "events_url": "https://api.github.com/users/on/events{/privacy}",
                "followers_url": "https://api.github.com/users/on/followers",
                "following_url": "https://api.github.com/users/on/following{/other_user}",
                "gists_url": "https://api.github.com/users/on/gists{/gist_id}",
                "gravatar_id": "",
                "html_url": "https://github.com/on",
                "id": 70920215,
                "login": "on",
                "node_id": "MDQ6VXNlcjcwOTIwMjE1",
                "organizations_url": "https://api.github.com/users/on/orgs",
                "received_events_url": "https://api.github.com/users/on/received_events",
                "repos_url": "https://api.github.com/users/on/repos",
                "site_admin": false,
                "starred_url": "https://api.github.com/users/on/starred{/owner}{/repo}",
                "subscriptions_url": "https://api.github.com/users/on/subscriptions",
                "type": "User",
                "url": "https://api.github.com/users/on"
            },
            "commit_id": null,
            "commit_url": null,
            "created_at": "2022-06-12T16:53:08Z",
            "event": "unsubscribed",
            "id": 6791703150,
            "node_id": "UE_lADOABOYWc5LneymzwAAAAGU0Spu",
            "performed_via_github_app": null,
            "url": "https://api.github.com/repos/PrismarineJS/mineflayer/issues/events/6791703150"
        },
        {
            "actor": {
                "avatar_url": "https://avatars.githubusercontent.com/u/45117178?v=4",
                "events_url": "https://api.github.com/users/timof123/events{/privacy}",
                "followers_url": "https://api.github.com/users/timof123/followers",
                "following_url": "https://api.github.com/users/timof123/following{/other_user}",
                "gists_url": "https://api.github.com/users/timof123/gists{/gist_id}",
                "gravatar_id": "",
                "html_url": "https://github.com/timof123",
                "id": 45117178,
                "login": "timof123",
                "node_id": "MDQ6VXNlcjQ1MTE3MTc4",
                "organizations_url": "https://api.github.com/users/timof123/orgs",
                "received_events_url": "https://api.github.com/users/timof123/received_events",
                "repos_url": "https://api.github.com/users/timof123/repos",
                "site_admin": false,
                "starred_url": "https://api.github.com/users/timof123/starred{/owner}{/repo}",
                "subscriptions_url": "https://api.github.com/users/timof123/subscriptions",
                "type": "User",
                "url": "https://api.github.com/users/timof123"
            },
            "commit_id": null,
            "commit_url": null,
            "created_at": "2022-06-25T05:22:20Z",
            "event": "closed",
            "id": 6878420518,
            "node_id": "CE_lADOABOYWc5LneymzwAAAAGZ_F4m",
            "performed_via_github_app": null,
            "state_reason": null,
            "url": "https://api.github.com/repos/PrismarineJS/mineflayer/issues/events/6878420518"
        }
    ],
    "events_url": "https://api.github.com/repos/PrismarineJS/mineflayer/issues/2657/events",
    "html_url": "https://github.com/PrismarineJS/mineflayer/issues/2657",
    "id": 1268640934,
    "labels": [
        {
            "color": "ba232f",
            "default": false,
            "description": "",
            "id": 1346729768,
            "name": "possible bug",
            "node_id": "MDU6TGFiZWwxMzQ2NzI5NzY4",
            "url": "https://api.github.com/repos/PrismarineJS/mineflayer/labels/possible%20bug"
        },
        {
            "color": "bfdadc",
            "default": false,
            "description": "just created by someone new to the project, we don't know yet if it deserves an implementation / a f",
            "id": 2720118317,
            "name": "Stage1",
            "node_id": "MDU6TGFiZWwyNzIwMTE4MzE3",
            "url": "https://api.github.com/repos/PrismarineJS/mineflayer/labels/Stage1"
        }
    ],
    "labels_url": "https://api.github.com/repos/PrismarineJS/mineflayer/issues/2657/labels{/name}",
    "locked": false,
    "milestone": null,
    "node_id": "I_kwDOABOYWc5Lneym",
    "number": 2657,
    "performed_via_github_app": null,
    "reactions": {
        "+1": 0,
        "-1": 0,
        "confused": 0,
        "eyes": 0,
        "heart": 0,
        "hooray": 0,
        "laugh": 0,
        "rocket": 0,
        "total_count": 0,
        "url": "https://api.github.com/repos/PrismarineJS/mineflayer/issues/2657/reactions"
    },
    "repository_url": "https://api.github.com/repos/PrismarineJS/mineflayer",
    "state": "closed",
    "state_reason": "completed",
    "timeline_url": "https://api.github.com/repos/PrismarineJS/mineflayer/issues/2657/timeline",
    "title": "chest.deposit() not working when using Python",
    "updated_at": "2022-06-25T05:22:20Z",
    "url": "https://api.github.com/repos/PrismarineJS/mineflayer/issues/2657",
    "user": {
        "avatar_url": "https://avatars.githubusercontent.com/u/45117178?v=4",
        "events_url": "https://api.github.com/users/timof123/events{/privacy}",
        "followers_url": "https://api.github.com/users/timof123/followers",
        "following_url": "https://api.github.com/users/timof123/following{/other_user}",
        "gists_url": "https://api.github.com/users/timof123/gists{/gist_id}",
        "gravatar_id": "",
        "html_url": "https://github.com/timof123",
        "id": 45117178,
        "login": "timof123",
        "node_id": "MDQ6VXNlcjQ1MTE3MTc4",
        "organizations_url": "https://api.github.com/users/timof123/orgs",
        "received_events_url": "https://api.github.com/users/timof123/received_events",
        "repos_url": "https://api.github.com/users/timof123/repos",
        "site_admin": false,
        "starred_url": "https://api.github.com/users/timof123/starred{/owner}{/repo}",
        "subscriptions_url": "https://api.github.com/users/timof123/subscriptions",
        "type": "User",
        "url": "https://api.github.com/users/timof123"
    }
}