{
    "active_lock_reason": null,
    "assignee": null,
    "assignees": [],
    "author_association": "NONE",
    "body": "Why `bot.world` is typed as `any` and not [World](https://github.com/PrismarineJS/prismarine-world/blob/master/src/world.js)?\r\n\r\nIt should be simple to add this typing, I'm having trouble having to look both apis to work with the code.\r\n",
    "closed_at": null,
    "comment_data": [
        {
            "author_association": "MEMBER",
            "body": "Feel free to open a PR to fix. I believe it should point to prismarine world instance ",
            "created_at": "2022-07-10T01:45:56Z",
            "html_url": "https://github.com/PrismarineJS/mineflayer/issues/2687#issuecomment-1179635656",
            "id": 1179635656,
            "issue_url": "https://api.github.com/repos/PrismarineJS/mineflayer/issues/2687",
            "node_id": "IC_kwDOABOYWc5GT8_I",
            "performed_via_github_app": null,
            "reactions": {
                "+1": 0,
                "-1": 0,
                "confused": 0,
                "eyes": 0,
                "heart": 0,
                "hooray": 0,
                "laugh": 0,
                "rocket": 0,
                "total_count": 0,
                "url": "https://api.github.com/repos/PrismarineJS/mineflayer/issues/comments/1179635656/reactions"
            },
            "updated_at": "2022-07-10T01:45:56Z",
            "url": "https://api.github.com/repos/PrismarineJS/mineflayer/issues/comments/1179635656",
            "user": {
                "avatar_url": "https://avatars.githubusercontent.com/u/13713600?v=4",
                "events_url": "https://api.github.com/users/extremeheat/events{/privacy}",
                "followers_url": "https://api.github.com/users/extremeheat/followers",
                "following_url": "https://api.github.com/users/extremeheat/following{/other_user}",
                "gists_url": "https://api.github.com/users/extremeheat/gists{/gist_id}",
                "gravatar_id": "",
                "html_url": "https://github.com/extremeheat",
                "id": 13713600,
                "login": "extremeheat",
                "node_id": "MDQ6VXNlcjEzNzEzNjAw",
                "organizations_url": "https://api.github.com/users/extremeheat/orgs",
                "received_events_url": "https://api.github.com/users/extremeheat/received_events",
                "repos_url": "https://api.github.com/users/extremeheat/repos",
                "site_admin": false,
                "starred_url": "https://api.github.com/users/extremeheat/starred{/owner}{/repo}",
                "subscriptions_url": "https://api.github.com/users/extremeheat/subscriptions",
                "type": "User",
                "url": "https://api.github.com/users/extremeheat"
            }
        },
        {
            "author_association": "MEMBER",
            "body": "The reason why bot.world does not have a type definition is because the type definition for prismarine-world has not been created yet.",
            "created_at": "2022-07-10T10:36:36Z",
            "html_url": "https://github.com/PrismarineJS/mineflayer/issues/2687#issuecomment-1179701691",
            "id": 1179701691,
            "issue_url": "https://api.github.com/repos/PrismarineJS/mineflayer/issues/2687",
            "node_id": "IC_kwDOABOYWc5GUNG7",
            "performed_via_github_app": null,
            "reactions": {
                "+1": 0,
                "-1": 0,
                "confused": 0,
                "eyes": 0,
                "heart": 0,
                "hooray": 0,
                "laugh": 0,
                "rocket": 0,
                "total_count": 0,
                "url": "https://api.github.com/repos/PrismarineJS/mineflayer/issues/comments/1179701691/reactions"
            },
            "updated_at": "2022-07-10T10:36:36Z",
            "url": "https://api.github.com/repos/PrismarineJS/mineflayer/issues/comments/1179701691",
            "user": {
                "avatar_url": "https://avatars.githubusercontent.com/u/61137113?v=4",
                "events_url": "https://api.github.com/users/IceTank/events{/privacy}",
                "followers_url": "https://api.github.com/users/IceTank/followers",
                "following_url": "https://api.github.com/users/IceTank/following{/other_user}",
                "gists_url": "https://api.github.com/users/IceTank/gists{/gist_id}",
                "gravatar_id": "",
                "html_url": "https://github.com/IceTank",
                "id": 61137113,
                "login": "IceTank",
                "node_id": "MDQ6VXNlcjYxMTM3MTEz",
                "organizations_url": "https://api.github.com/users/IceTank/orgs",
                "received_events_url": "https://api.github.com/users/IceTank/received_events",
                "repos_url": "https://api.github.com/users/IceTank/repos",
                "site_admin": false,
                "starred_url": "https://api.github.com/users/IceTank/starred{/owner}{/repo}",
                "subscriptions_url": "https://api.github.com/users/IceTank/subscriptions",
                "type": "User",
                "url": "https://api.github.com/users/IceTank"
            }
        },
        {
            "author_association": "NONE",
            "body": "I could do a PR but I would need to also make a PR to prismarine-world. Did someone reviewed [this](https://github.com/PrismarineJS/prismarine-world/pull/99)?",
            "created_at": "2022-07-11T18:43:24Z",
            "html_url": "https://github.com/PrismarineJS/mineflayer/issues/2687#issuecomment-1180743392",
            "id": 1180743392,
            "issue_url": "https://api.github.com/repos/PrismarineJS/mineflayer/issues/2687",
            "node_id": "IC_kwDOABOYWc5GYLbg",
            "performed_via_github_app": null,
            "reactions": {
                "+1": 0,
                "-1": 0,
                "confused": 0,
                "eyes": 0,
                "heart": 0,
                "hooray": 0,
                "laugh": 0,
                "rocket": 0,
                "total_count": 0,
                "url": "https://api.github.com/repos/PrismarineJS/mineflayer/issues/comments/1180743392/reactions"
            },
            "updated_at": "2022-07-11T18:43:24Z",
            "url": "https://api.github.com/repos/PrismarineJS/mineflayer/issues/comments/1180743392",
            "user": {
                "avatar_url": "https://avatars.githubusercontent.com/u/65435039?v=4",
                "events_url": "https://api.github.com/users/schneiderchristopher/events{/privacy}",
                "followers_url": "https://api.github.com/users/schneiderchristopher/followers",
                "following_url": "https://api.github.com/users/schneiderchristopher/following{/other_user}",
                "gists_url": "https://api.github.com/users/schneiderchristopher/gists{/gist_id}",
                "gravatar_id": "",
                "html_url": "https://github.com/schneiderchristopher",
                "id": 65435039,
                "login": "schneiderchristopher",
                "node_id": "MDQ6VXNlcjY1NDM1MDM5",
                "organizations_url": "https://api.github.com/users/schneiderchristopher/orgs",
                "received_events_url": "https://api.github.com/users/schneiderchristopher/received_events",
                "repos_url": "https://api.github.com/users/schneiderchristopher/repos",
                "site_admin": false,
                "starred_url": "https://api.github.com/users/schneiderchristopher/starred{/owner}{/repo}",
                "subscriptions_url": "https://api.github.com/users/schneiderchristopher/subscriptions",
                "type": "User",
                "url": "https://api.github.com/users/schneiderchristopher"
            }
        }
    ],
    "comments": 3,
    "comments_url": "https://api.github.com/repos/PrismarineJS/mineflayer/issues/2687/comments",
    "created_at": "2022-07-07T00:29:48Z",
    "event_data": [
        {
            "actor": {
                "avatar_url": "https://avatars.githubusercontent.com/u/65435039?v=4",
                "events_url": "https://api.github.com/users/schneiderchristopher/events{/privacy}",
                "followers_url": "https://api.github.com/users/schneiderchristopher/followers",
                "following_url": "https://api.github.com/users/schneiderchristopher/following{/other_user}",
                "gists_url": "https://api.github.com/users/schneiderchristopher/gists{/gist_id}",
                "gravatar_id": "",
                "html_url": "https://github.com/schneiderchristopher",
                "id": 65435039,
                "login": "schneiderchristopher",
                "node_id": "MDQ6VXNlcjY1NDM1MDM5",
                "organizations_url": "https://api.github.com/users/schneiderchristopher/orgs",
                "received_events_url": "https://api.github.com/users/schneiderchristopher/received_events",
                "repos_url": "https://api.github.com/users/schneiderchristopher/repos",
                "site_admin": false,
                "starred_url": "https://api.github.com/users/schneiderchristopher/starred{/owner}{/repo}",
                "subscriptions_url": "https://api.github.com/users/schneiderchristopher/subscriptions",
                "type": "User",
                "url": "https://api.github.com/users/schneiderchristopher"
            },
            "commit_id": null,
            "commit_url": null,
            "created_at": "2022-07-07T00:29:48Z",
            "event": "labeled",
            "id": 6947281395,
            "label": {
                "color": "444444",
                "name": "new feature"
            },
            "node_id": "LE_lADOABOYWc5NSQGazwAAAAGeFxnz",
            "performed_via_github_app": null,
            "url": "https://api.github.com/repos/PrismarineJS/mineflayer/issues/events/6947281395"
        },
        {
            "actor": {
                "avatar_url": "https://avatars.githubusercontent.com/u/65435039?v=4",
                "events_url": "https://api.github.com/users/schneiderchristopher/events{/privacy}",
                "followers_url": "https://api.github.com/users/schneiderchristopher/followers",
                "following_url": "https://api.github.com/users/schneiderchristopher/following{/other_user}",
                "gists_url": "https://api.github.com/users/schneiderchristopher/gists{/gist_id}",
                "gravatar_id": "",
                "html_url": "https://github.com/schneiderchristopher",
                "id": 65435039,
                "login": "schneiderchristopher",
                "node_id": "MDQ6VXNlcjY1NDM1MDM5",
                "organizations_url": "https://api.github.com/users/schneiderchristopher/orgs",
                "received_events_url": "https://api.github.com/users/schneiderchristopher/received_events",
                "repos_url": "https://api.github.com/users/schneiderchristopher/repos",
                "site_admin": false,
                "starred_url": "https://api.github.com/users/schneiderchristopher/starred{/owner}{/repo}",
                "subscriptions_url": "https://api.github.com/users/schneiderchristopher/subscriptions",
                "type": "User",
                "url": "https://api.github.com/users/schneiderchristopher"
            },
            "commit_id": null,
            "commit_url": null,
            "created_at": "2022-07-07T00:29:48Z",
            "event": "labeled",
            "id": 6947281398,
            "label": {
                "color": "bfdadc",
                "name": "Stage1"
            },
            "node_id": "LE_lADOABOYWc5NSQGazwAAAAGeFxn2",
            "performed_via_github_app": null,
            "url": "https://api.github.com/repos/PrismarineJS/mineflayer/issues/events/6947281398"
        }
    ],
    "events_url": "https://api.github.com/repos/PrismarineJS/mineflayer/issues/2687/events",
    "html_url": "https://github.com/PrismarineJS/mineflayer/issues/2687",
    "id": 1296630170,
    "labels": [
        {
            "color": "444444",
            "default": false,
            "description": "",
            "id": 111395,
            "name": "new feature",
            "node_id": "MDU6TGFiZWwxMTEzOTU=",
            "url": "https://api.github.com/repos/PrismarineJS/mineflayer/labels/new%20feature"
        },
        {
            "color": "bfdadc",
            "default": false,
            "description": "just created by someone new to the project, we don't know yet if it deserves an implementation / a f",
            "id": 2720118317,
            "name": "Stage1",
            "node_id": "MDU6TGFiZWwyNzIwMTE4MzE3",
            "url": "https://api.github.com/repos/PrismarineJS/mineflayer/labels/Stage1"
        }
    ],
    "labels_url": "https://api.github.com/repos/PrismarineJS/mineflayer/issues/2687/labels{/name}",
    "locked": false,
    "milestone": null,
    "node_id": "I_kwDOABOYWc5NSQGa",
    "number": 2687,
    "performed_via_github_app": null,
    "reactions": {
        "+1": 0,
        "-1": 0,
        "confused": 0,
        "eyes": 0,
        "heart": 0,
        "hooray": 0,
        "laugh": 0,
        "rocket": 0,
        "total_count": 0,
        "url": "https://api.github.com/repos/PrismarineJS/mineflayer/issues/2687/reactions"
    },
    "repository_url": "https://api.github.com/repos/PrismarineJS/mineflayer",
    "state": "open",
    "state_reason": null,
    "timeline_url": "https://api.github.com/repos/PrismarineJS/mineflayer/issues/2687/timeline",
    "title": "Bot.world type",
    "updated_at": "2022-07-11T18:43:24Z",
    "url": "https://api.github.com/repos/PrismarineJS/mineflayer/issues/2687",
    "user": {
        "avatar_url": "https://avatars.githubusercontent.com/u/65435039?v=4",
        "events_url": "https://api.github.com/users/schneiderchristopher/events{/privacy}",
        "followers_url": "https://api.github.com/users/schneiderchristopher/followers",
        "following_url": "https://api.github.com/users/schneiderchristopher/following{/other_user}",
        "gists_url": "https://api.github.com/users/schneiderchristopher/gists{/gist_id}",
        "gravatar_id": "",
        "html_url": "https://github.com/schneiderchristopher",
        "id": 65435039,
        "login": "schneiderchristopher",
        "node_id": "MDQ6VXNlcjY1NDM1MDM5",
        "organizations_url": "https://api.github.com/users/schneiderchristopher/orgs",
        "received_events_url": "https://api.github.com/users/schneiderchristopher/received_events",
        "repos_url": "https://api.github.com/users/schneiderchristopher/repos",
        "site_admin": false,
        "starred_url": "https://api.github.com/users/schneiderchristopher/starred{/owner}{/repo}",
        "subscriptions_url": "https://api.github.com/users/schneiderchristopher/subscriptions",
        "type": "User",
        "url": "https://api.github.com/users/schneiderchristopher"
    }
}