{
    "active_lock_reason": null,
    "assignee": null,
    "assignees": [],
    "author_association": "NONE",
    "body": "## Is your feature request related to a problem? Please describe.\r\nMy feature request is not related to a problem.\r\n\r\n## Describe the solution you'd like\r\nThere should be separate events for when title is changed and when the subtitle is changed. Currently, [the event is fired when any of them change](https://github.com/PrismarineJS/mineflayer/blob/master/lib/plugins/title.js#L5), but whether it was the title or the subtitle, is not specified. The 'title' event currently only knows about the new text, but changing that event would not make it backwards compatible. I open this issue for discussion on that\r\n\r\n## Describe alternatives you've considered\r\nNone",
    "closed_at": null,
    "closed_by": null,
    "comment_data": [
        {
            "author_association": "CONTRIBUTOR",
            "body": "aside from that this event won't even be fired anymore for 1.19 and possibly below versions because title and subtitle has been separated into [two](https://wiki.vg/Protocol#Set_Title_Text) [packets](https://wiki.vg/Protocol#Set_Subtitle_Text)",
            "created_at": "2022-07-27T20:27:37Z",
            "html_url": "https://github.com/PrismarineJS/mineflayer/issues/2715#issuecomment-1197331503",
            "id": 1197331503,
            "issue_url": "https://api.github.com/repos/PrismarineJS/mineflayer/issues/2715",
            "node_id": "IC_kwDOABOYWc5HXdQv",
            "performed_via_github_app": null,
            "reactions": {
                "+1": 0,
                "-1": 0,
                "confused": 0,
                "eyes": 0,
                "heart": 0,
                "hooray": 0,
                "laugh": 0,
                "rocket": 0,
                "total_count": 0,
                "url": "https://api.github.com/repos/PrismarineJS/mineflayer/issues/comments/1197331503/reactions"
            },
            "updated_at": "2022-07-27T20:27:37Z",
            "url": "https://api.github.com/repos/PrismarineJS/mineflayer/issues/comments/1197331503",
            "user": {
                "avatar_url": "https://avatars.githubusercontent.com/u/20371518?v=4",
                "events_url": "https://api.github.com/users/rob9315/events{/privacy}",
                "followers_url": "https://api.github.com/users/rob9315/followers",
                "following_url": "https://api.github.com/users/rob9315/following{/other_user}",
                "gists_url": "https://api.github.com/users/rob9315/gists{/gist_id}",
                "gravatar_id": "",
                "html_url": "https://github.com/rob9315",
                "id": 20371518,
                "login": "rob9315",
                "node_id": "MDQ6VXNlcjIwMzcxNTE4",
                "organizations_url": "https://api.github.com/users/rob9315/orgs",
                "received_events_url": "https://api.github.com/users/rob9315/received_events",
                "repos_url": "https://api.github.com/users/rob9315/repos",
                "site_admin": false,
                "starred_url": "https://api.github.com/users/rob9315/starred{/owner}{/repo}",
                "subscriptions_url": "https://api.github.com/users/rob9315/subscriptions",
                "type": "User",
                "url": "https://api.github.com/users/rob9315",
                "user_view_type": "public"
            }
        },
        {
            "author_association": "CONTRIBUTOR",
            "body": "backwards compatibility for this is probably not a big deal as i doubt anyone depended on this wrong behavior considering it's already been broken for quite a while, i propose the event should be split into `title` and `subtitle`, where each carries the expected data.",
            "created_at": "2022-07-27T20:31:37Z",
            "html_url": "https://github.com/PrismarineJS/mineflayer/issues/2715#issuecomment-1197335406",
            "id": 1197335406,
            "issue_url": "https://api.github.com/repos/PrismarineJS/mineflayer/issues/2715",
            "node_id": "IC_kwDOABOYWc5HXeNu",
            "performed_via_github_app": null,
            "reactions": {
                "+1": 0,
                "-1": 0,
                "confused": 0,
                "eyes": 0,
                "heart": 0,
                "hooray": 0,
                "laugh": 0,
                "rocket": 0,
                "total_count": 0,
                "url": "https://api.github.com/repos/PrismarineJS/mineflayer/issues/comments/1197335406/reactions"
            },
            "updated_at": "2022-07-27T20:31:37Z",
            "url": "https://api.github.com/repos/PrismarineJS/mineflayer/issues/comments/1197335406",
            "user": {
                "avatar_url": "https://avatars.githubusercontent.com/u/20371518?v=4",
                "events_url": "https://api.github.com/users/rob9315/events{/privacy}",
                "followers_url": "https://api.github.com/users/rob9315/followers",
                "following_url": "https://api.github.com/users/rob9315/following{/other_user}",
                "gists_url": "https://api.github.com/users/rob9315/gists{/gist_id}",
                "gravatar_id": "",
                "html_url": "https://github.com/rob9315",
                "id": 20371518,
                "login": "rob9315",
                "node_id": "MDQ6VXNlcjIwMzcxNTE4",
                "organizations_url": "https://api.github.com/users/rob9315/orgs",
                "received_events_url": "https://api.github.com/users/rob9315/received_events",
                "repos_url": "https://api.github.com/users/rob9315/repos",
                "site_admin": false,
                "starred_url": "https://api.github.com/users/rob9315/starred{/owner}{/repo}",
                "subscriptions_url": "https://api.github.com/users/rob9315/subscriptions",
                "type": "User",
                "url": "https://api.github.com/users/rob9315",
                "user_view_type": "public"
            }
        },
        {
            "author_association": "NONE",
            "body": "#610 was when the current changes were made\r\nFor a bot I'm building, from the provided data, I can easily tell what is a title and what is a subtitle. But it is not different in the code, which is not practical\r\n\r\nFor the two events, in earlier version it was the same packet so those cases should be reviewed too",
            "created_at": "2022-07-27T22:06:58Z",
            "html_url": "https://github.com/PrismarineJS/mineflayer/issues/2715#issuecomment-1197421789",
            "id": 1197421789,
            "issue_url": "https://api.github.com/repos/PrismarineJS/mineflayer/issues/2715",
            "node_id": "IC_kwDOABOYWc5HXzTd",
            "performed_via_github_app": null,
            "reactions": {
                "+1": 0,
                "-1": 0,
                "confused": 0,
                "eyes": 0,
                "heart": 0,
                "hooray": 0,
                "laugh": 0,
                "rocket": 0,
                "total_count": 0,
                "url": "https://api.github.com/repos/PrismarineJS/mineflayer/issues/comments/1197421789/reactions"
            },
            "updated_at": "2022-07-27T22:06:58Z",
            "url": "https://api.github.com/repos/PrismarineJS/mineflayer/issues/comments/1197421789",
            "user": {
                "avatar_url": "https://avatars.githubusercontent.com/u/65848142?v=4",
                "events_url": "https://api.github.com/users/IamMusavaRibica/events{/privacy}",
                "followers_url": "https://api.github.com/users/IamMusavaRibica/followers",
                "following_url": "https://api.github.com/users/IamMusavaRibica/following{/other_user}",
                "gists_url": "https://api.github.com/users/IamMusavaRibica/gists{/gist_id}",
                "gravatar_id": "",
                "html_url": "https://github.com/IamMusavaRibica",
                "id": 65848142,
                "login": "IamMusavaRibica",
                "node_id": "MDQ6VXNlcjY1ODQ4MTQy",
                "organizations_url": "https://api.github.com/users/IamMusavaRibica/orgs",
                "received_events_url": "https://api.github.com/users/IamMusavaRibica/received_events",
                "repos_url": "https://api.github.com/users/IamMusavaRibica/repos",
                "site_admin": false,
                "starred_url": "https://api.github.com/users/IamMusavaRibica/starred{/owner}{/repo}",
                "subscriptions_url": "https://api.github.com/users/IamMusavaRibica/subscriptions",
                "type": "User",
                "url": "https://api.github.com/users/IamMusavaRibica",
                "user_view_type": "public"
            }
        },
        {
            "author_association": "CONTRIBUTOR",
            "body": "yes, the old packet should trigger 'title' and 'subtitle' when appropriate",
            "created_at": "2022-07-27T22:09:30Z",
            "html_url": "https://github.com/PrismarineJS/mineflayer/issues/2715#issuecomment-1197423946",
            "id": 1197423946,
            "issue_url": "https://api.github.com/repos/PrismarineJS/mineflayer/issues/2715",
            "node_id": "IC_kwDOABOYWc5HXz1K",
            "performed_via_github_app": null,
            "reactions": {
                "+1": 0,
                "-1": 0,
                "confused": 0,
                "eyes": 0,
                "heart": 0,
                "hooray": 0,
                "laugh": 0,
                "rocket": 0,
                "total_count": 0,
                "url": "https://api.github.com/repos/PrismarineJS/mineflayer/issues/comments/1197423946/reactions"
            },
            "updated_at": "2022-07-27T22:09:30Z",
            "url": "https://api.github.com/repos/PrismarineJS/mineflayer/issues/comments/1197423946",
            "user": {
                "avatar_url": "https://avatars.githubusercontent.com/u/20371518?v=4",
                "events_url": "https://api.github.com/users/rob9315/events{/privacy}",
                "followers_url": "https://api.github.com/users/rob9315/followers",
                "following_url": "https://api.github.com/users/rob9315/following{/other_user}",
                "gists_url": "https://api.github.com/users/rob9315/gists{/gist_id}",
                "gravatar_id": "",
                "html_url": "https://github.com/rob9315",
                "id": 20371518,
                "login": "rob9315",
                "node_id": "MDQ6VXNlcjIwMzcxNTE4",
                "organizations_url": "https://api.github.com/users/rob9315/orgs",
                "received_events_url": "https://api.github.com/users/rob9315/received_events",
                "repos_url": "https://api.github.com/users/rob9315/repos",
                "site_admin": false,
                "starred_url": "https://api.github.com/users/rob9315/starred{/owner}{/repo}",
                "subscriptions_url": "https://api.github.com/users/rob9315/subscriptions",
                "type": "User",
                "url": "https://api.github.com/users/rob9315",
                "user_view_type": "public"
            }
        },
        {
            "author_association": "NONE",
            "body": "https://github.com/PrismarineJS/mineflayer/pull/3498",
            "created_at": "2024-11-09T18:54:10Z",
            "html_url": "https://github.com/PrismarineJS/mineflayer/issues/2715#issuecomment-2466410205",
            "id": 2466410205,
            "issue_url": "https://api.github.com/repos/PrismarineJS/mineflayer/issues/2715",
            "node_id": "IC_kwDOABOYWc6TAm7d",
            "performed_via_github_app": null,
            "reactions": {
                "+1": 0,
                "-1": 0,
                "confused": 0,
                "eyes": 0,
                "heart": 0,
                "hooray": 0,
                "laugh": 0,
                "rocket": 0,
                "total_count": 0,
                "url": "https://api.github.com/repos/PrismarineJS/mineflayer/issues/comments/2466410205/reactions"
            },
            "updated_at": "2024-11-09T18:54:10Z",
            "url": "https://api.github.com/repos/PrismarineJS/mineflayer/issues/comments/2466410205",
            "user": {
                "avatar_url": "https://avatars.githubusercontent.com/u/61847310?v=4",
                "events_url": "https://api.github.com/users/SMEDjs/events{/privacy}",
                "followers_url": "https://api.github.com/users/SMEDjs/followers",
                "following_url": "https://api.github.com/users/SMEDjs/following{/other_user}",
                "gists_url": "https://api.github.com/users/SMEDjs/gists{/gist_id}",
                "gravatar_id": "",
                "html_url": "https://github.com/SMEDjs",
                "id": 61847310,
                "login": "SMEDjs",
                "node_id": "MDQ6VXNlcjYxODQ3MzEw",
                "organizations_url": "https://api.github.com/users/SMEDjs/orgs",
                "received_events_url": "https://api.github.com/users/SMEDjs/received_events",
                "repos_url": "https://api.github.com/users/SMEDjs/repos",
                "site_admin": false,
                "starred_url": "https://api.github.com/users/SMEDjs/starred{/owner}{/repo}",
                "subscriptions_url": "https://api.github.com/users/SMEDjs/subscriptions",
                "type": "User",
                "url": "https://api.github.com/users/SMEDjs",
                "user_view_type": "public"
            }
        }
    ],
    "comments": 5,
    "comments_url": "https://api.github.com/repos/PrismarineJS/mineflayer/issues/2715/comments",
    "created_at": "2022-07-27T20:24:02Z",
    "event_data": [
        {
            "actor": {
                "avatar_url": "https://avatars.githubusercontent.com/u/65848142?v=4",
                "events_url": "https://api.github.com/users/IamMusavaRibica/events{/privacy}",
                "followers_url": "https://api.github.com/users/IamMusavaRibica/followers",
                "following_url": "https://api.github.com/users/IamMusavaRibica/following{/other_user}",
                "gists_url": "https://api.github.com/users/IamMusavaRibica/gists{/gist_id}",
                "gravatar_id": "",
                "html_url": "https://github.com/IamMusavaRibica",
                "id": 65848142,
                "login": "IamMusavaRibica",
                "node_id": "MDQ6VXNlcjY1ODQ4MTQy",
                "organizations_url": "https://api.github.com/users/IamMusavaRibica/orgs",
                "received_events_url": "https://api.github.com/users/IamMusavaRibica/received_events",
                "repos_url": "https://api.github.com/users/IamMusavaRibica/repos",
                "site_admin": false,
                "starred_url": "https://api.github.com/users/IamMusavaRibica/starred{/owner}{/repo}",
                "subscriptions_url": "https://api.github.com/users/IamMusavaRibica/subscriptions",
                "type": "User",
                "url": "https://api.github.com/users/IamMusavaRibica",
                "user_view_type": "public"
            },
            "commit_id": null,
            "commit_url": null,
            "created_at": "2022-07-27T20:24:02Z",
            "event": "labeled",
            "id": 7076321481,
            "label": {
                "color": "444444",
                "name": "new feature"
            },
            "node_id": "LE_lADOABOYWc5OruWAzwAAAAGlyBjJ",
            "performed_via_github_app": null,
            "url": "https://api.github.com/repos/PrismarineJS/mineflayer/issues/events/7076321481"
        },
        {
            "actor": {
                "avatar_url": "https://avatars.githubusercontent.com/u/65848142?v=4",
                "events_url": "https://api.github.com/users/IamMusavaRibica/events{/privacy}",
                "followers_url": "https://api.github.com/users/IamMusavaRibica/followers",
                "following_url": "https://api.github.com/users/IamMusavaRibica/following{/other_user}",
                "gists_url": "https://api.github.com/users/IamMusavaRibica/gists{/gist_id}",
                "gravatar_id": "",
                "html_url": "https://github.com/IamMusavaRibica",
                "id": 65848142,
                "login": "IamMusavaRibica",
                "node_id": "MDQ6VXNlcjY1ODQ4MTQy",
                "organizations_url": "https://api.github.com/users/IamMusavaRibica/orgs",
                "received_events_url": "https://api.github.com/users/IamMusavaRibica/received_events",
                "repos_url": "https://api.github.com/users/IamMusavaRibica/repos",
                "site_admin": false,
                "starred_url": "https://api.github.com/users/IamMusavaRibica/starred{/owner}{/repo}",
                "subscriptions_url": "https://api.github.com/users/IamMusavaRibica/subscriptions",
                "type": "User",
                "url": "https://api.github.com/users/IamMusavaRibica",
                "user_view_type": "public"
            },
            "commit_id": null,
            "commit_url": null,
            "created_at": "2022-07-27T20:24:02Z",
            "event": "labeled",
            "id": 7076321483,
            "label": {
                "color": "bfdadc",
                "name": "Stage1"
            },
            "node_id": "LE_lADOABOYWc5OruWAzwAAAAGlyBjL",
            "performed_via_github_app": null,
            "url": "https://api.github.com/repos/PrismarineJS/mineflayer/issues/events/7076321483"
        }
    ],
    "events_url": "https://api.github.com/repos/PrismarineJS/mineflayer/issues/2715/events",
    "html_url": "https://github.com/PrismarineJS/mineflayer/issues/2715",
    "id": 1320084864,
    "labels": [
        {
            "color": "444444",
            "default": false,
            "description": "",
            "id": 111395,
            "name": "new feature",
            "node_id": "MDU6TGFiZWwxMTEzOTU=",
            "url": "https://api.github.com/repos/PrismarineJS/mineflayer/labels/new%20feature"
        },
        {
            "color": "bfdadc",
            "default": false,
            "description": "just created by someone new to the project, we don't know yet if it deserves an implementation / a f",
            "id": 2720118317,
            "name": "Stage1",
            "node_id": "MDU6TGFiZWwyNzIwMTE4MzE3",
            "url": "https://api.github.com/repos/PrismarineJS/mineflayer/labels/Stage1"
        }
    ],
    "labels_url": "https://api.github.com/repos/PrismarineJS/mineflayer/issues/2715/labels{/name}",
    "locked": false,
    "milestone": null,
    "node_id": "I_kwDOABOYWc5OruWA",
    "number": 2715,
    "performed_via_github_app": null,
    "reactions": {
        "+1": 0,
        "-1": 0,
        "confused": 0,
        "eyes": 0,
        "heart": 0,
        "hooray": 0,
        "laugh": 0,
        "rocket": 0,
        "total_count": 0,
        "url": "https://api.github.com/repos/PrismarineJS/mineflayer/issues/2715/reactions"
    },
    "repository_url": "https://api.github.com/repos/PrismarineJS/mineflayer",
    "state": "open",
    "state_reason": null,
    "timeline_url": "https://api.github.com/repos/PrismarineJS/mineflayer/issues/2715/timeline",
    "title": "Separate title and subtitle updates",
    "updated_at": "2024-11-09T18:54:11Z",
    "url": "https://api.github.com/repos/PrismarineJS/mineflayer/issues/2715",
    "user": {
        "avatar_url": "https://avatars.githubusercontent.com/u/65848142?v=4",
        "events_url": "https://api.github.com/users/IamMusavaRibica/events{/privacy}",
        "followers_url": "https://api.github.com/users/IamMusavaRibica/followers",
        "following_url": "https://api.github.com/users/IamMusavaRibica/following{/other_user}",
        "gists_url": "https://api.github.com/users/IamMusavaRibica/gists{/gist_id}",
        "gravatar_id": "",
        "html_url": "https://github.com/IamMusavaRibica",
        "id": 65848142,
        "login": "IamMusavaRibica",
        "node_id": "MDQ6VXNlcjY1ODQ4MTQy",
        "organizations_url": "https://api.github.com/users/IamMusavaRibica/orgs",
        "received_events_url": "https://api.github.com/users/IamMusavaRibica/received_events",
        "repos_url": "https://api.github.com/users/IamMusavaRibica/repos",
        "site_admin": false,
        "starred_url": "https://api.github.com/users/IamMusavaRibica/starred{/owner}{/repo}",
        "subscriptions_url": "https://api.github.com/users/IamMusavaRibica/subscriptions",
        "type": "User",
        "url": "https://api.github.com/users/IamMusavaRibica",
        "user_view_type": "public"
    }
}