{
    "active_lock_reason": null,
    "assignee": null,
    "assignees": [],
    "author_association": "NONE",
    "body": "- [ ] The [FAQ](https://github.com/PrismarineJS/mineflayer/blob/master/docs/FAQ.md) doesn't contain a resolution to my issue \r\n\r\n## Versions\r\n - mineflayer: 3.18.0\r\n - server: vanilla/spigot/paper 1.8.9\r\n - node: 16.13.2\r\n\r\n## Detailed description of a problem\r\nI have a discord integrated bot for chatting and other purposes. The bot works completely fine before it reconnects due to any reason. After the reconnect, it doesnt seem to be working. \r\n\r\n## What did you try yet?\r\nI tried using the bot.chat command which didnt work\r\n\r\n## Your current code\r\n```js\r\nvar bot = mineflayer.createBot(b);\r\nbindEvents(bot);\r\n\r\nfunction bindEvents(bot) {\r\n    bot.once('login', () => {\r\n        bot.settings.viewDistance = 'tiny';\r\n        bot.settings.colorsEnabled = false;\r\n\r\n        console.log(bot.username + ' has connected to ' + config.serverip + '.')\r\n        bot.chat('/login ' + config.password)\r\n    });\r\n\r\n    bot.on('kicked', (reason, loggedIn) => {\r\n        console.log(reason, loggedIn);\r\n        bot.quit();\r\n    });\r\n\r\n    bot.on('end', () => {\r\n        options.wait(options.minuteToMS / 10).then(() => {\r\n            console.log('Bot is restarting...');\r\n            bot = mineflayer.createBot(b);\r\n            bindEvents(bot);\r\n        });\r\n    });\r\n\r\n    bot.on('error', (err) => { console.log(err) });\r\n};\r\n\r\n//handlers\r\n        fs.readdirSync('./handlers').forEach((handler) => {\r\n            require(`./handlers/${handler}`)(client, bot)\r\n        });\r\n     \r\n```\r\n\r\n```js\r\nmodule.exports = async (client, bot) => {\r\n\r\n    const eventsPath = path.join(process.cwd(), 'events');\r\n    const eventFiles = fs.readdirSync(eventsPath).filter(file => file.endsWith('.js'));\r\n\r\n    for (const file of eventFiles) {\r\n        const filePath = path.join(eventsPath, file);\r\n        const event = require(filePath);\r\n        if (event.once) {\r\n            client.once(event.name, (...args) => event.execute(client, bot, ...args));\r\n        } else {\r\n            client.on(event.name, (...args) => event.execute(client, bot, ...args));\r\n        }\r\n    }\r\n\r\n}\r\n```\r\n\r\n```js\r\nmodule.exports = {\r\n  name: 'sudo',\r\n  \r\n  execute(bot, database, arguments, options, embed, message) {\r\n    bot.chat(arguments);\r\n    embed\r\n      .setAuthor({name:'✅ Sudo Successful'});\r\n  },\r\n}\r\n```\r\n\r\n## Expected behavior\r\nExpected the bot to send the message in the server\r\n\r\n## Additional context\r\nAdd any other context about the problem here.\r\n\r\n",
    "closed_at": "2023-02-12T05:00:57Z",
    "comment_data": [
        {
            "author_association": "NONE",
            "body": "[`EventListener#once`](https://nodejs.org/api/events.html#emitteronceeventname-listener) will only listen to the event one time; do you need to use `/login ...` each time you log in, or only the first time? Currently, you only listen to the `login` event the first time it's fired (with `bot.once('login', ...)`)",
            "created_at": "2022-11-20T19:54:45Z",
            "html_url": "https://github.com/PrismarineJS/mineflayer/issues/2830#issuecomment-1321227319",
            "id": 1321227319,
            "issue_url": "https://api.github.com/repos/PrismarineJS/mineflayer/issues/2830",
            "node_id": "IC_kwDOABOYWc5OwFQ3",
            "performed_via_github_app": null,
            "reactions": {
                "+1": 2,
                "-1": 0,
                "confused": 0,
                "eyes": 0,
                "heart": 0,
                "hooray": 0,
                "laugh": 0,
                "rocket": 0,
                "total_count": 2,
                "url": "https://api.github.com/repos/PrismarineJS/mineflayer/issues/comments/1321227319/reactions"
            },
            "updated_at": "2022-11-20T19:54:45Z",
            "url": "https://api.github.com/repos/PrismarineJS/mineflayer/issues/comments/1321227319",
            "user": {
                "avatar_url": "https://avatars.githubusercontent.com/u/83993260?v=4",
                "events_url": "https://api.github.com/users/matteopolak/events{/privacy}",
                "followers_url": "https://api.github.com/users/matteopolak/followers",
                "following_url": "https://api.github.com/users/matteopolak/following{/other_user}",
                "gists_url": "https://api.github.com/users/matteopolak/gists{/gist_id}",
                "gravatar_id": "",
                "html_url": "https://github.com/matteopolak",
                "id": 83993260,
                "login": "matteopolak",
                "node_id": "MDQ6VXNlcjgzOTkzMjYw",
                "organizations_url": "https://api.github.com/users/matteopolak/orgs",
                "received_events_url": "https://api.github.com/users/matteopolak/received_events",
                "repos_url": "https://api.github.com/users/matteopolak/repos",
                "site_admin": false,
                "starred_url": "https://api.github.com/users/matteopolak/starred{/owner}{/repo}",
                "subscriptions_url": "https://api.github.com/users/matteopolak/subscriptions",
                "type": "User",
                "url": "https://api.github.com/users/matteopolak"
            }
        }
    ],
    "comments": 1,
    "comments_url": "https://api.github.com/repos/PrismarineJS/mineflayer/issues/2830/comments",
    "created_at": "2022-11-13T12:11:45Z",
    "event_data": [
        {
            "actor": {
                "avatar_url": "https://avatars.githubusercontent.com/u/13713600?v=4",
                "events_url": "https://api.github.com/users/extremeheat/events{/privacy}",
                "followers_url": "https://api.github.com/users/extremeheat/followers",
                "following_url": "https://api.github.com/users/extremeheat/following{/other_user}",
                "gists_url": "https://api.github.com/users/extremeheat/gists{/gist_id}",
                "gravatar_id": "",
                "html_url": "https://github.com/extremeheat",
                "id": 13713600,
                "login": "extremeheat",
                "node_id": "MDQ6VXNlcjEzNzEzNjAw",
                "organizations_url": "https://api.github.com/users/extremeheat/orgs",
                "received_events_url": "https://api.github.com/users/extremeheat/received_events",
                "repos_url": "https://api.github.com/users/extremeheat/repos",
                "site_admin": false,
                "starred_url": "https://api.github.com/users/extremeheat/starred{/owner}{/repo}",
                "subscriptions_url": "https://api.github.com/users/extremeheat/subscriptions",
                "type": "User",
                "url": "https://api.github.com/users/extremeheat"
            },
            "commit_id": null,
            "commit_url": null,
            "created_at": "2023-02-12T05:00:58Z",
            "event": "closed",
            "id": 8497750686,
            "node_id": "CE_lADOABOYWc5WPekfzwAAAAH6gWKe",
            "performed_via_github_app": null,
            "state_reason": null,
            "url": "https://api.github.com/repos/PrismarineJS/mineflayer/issues/events/8497750686"
        }
    ],
    "events_url": "https://api.github.com/repos/PrismarineJS/mineflayer/issues/2830/events",
    "html_url": "https://github.com/PrismarineJS/mineflayer/issues/2830",
    "id": 1446897951,
    "labels": [],
    "labels_url": "https://api.github.com/repos/PrismarineJS/mineflayer/issues/2830/labels{/name}",
    "locked": false,
    "milestone": null,
    "node_id": "I_kwDOABOYWc5WPekf",
    "number": 2830,
    "performed_via_github_app": null,
    "reactions": {
        "+1": 0,
        "-1": 0,
        "confused": 0,
        "eyes": 0,
        "heart": 0,
        "hooray": 0,
        "laugh": 0,
        "rocket": 0,
        "total_count": 0,
        "url": "https://api.github.com/repos/PrismarineJS/mineflayer/issues/2830/reactions"
    },
    "repository_url": "https://api.github.com/repos/PrismarineJS/mineflayer",
    "state": "closed",
    "state_reason": "completed",
    "timeline_url": "https://api.github.com/repos/PrismarineJS/mineflayer/issues/2830/timeline",
    "title": "Bot doesn't work after restart",
    "updated_at": "2023-02-12T05:00:57Z",
    "url": "https://api.github.com/repos/PrismarineJS/mineflayer/issues/2830",
    "user": {
        "avatar_url": "https://avatars.githubusercontent.com/u/67088212?v=4",
        "events_url": "https://api.github.com/users/EaterAS/events{/privacy}",
        "followers_url": "https://api.github.com/users/EaterAS/followers",
        "following_url": "https://api.github.com/users/EaterAS/following{/other_user}",
        "gists_url": "https://api.github.com/users/EaterAS/gists{/gist_id}",
        "gravatar_id": "",
        "html_url": "https://github.com/EaterAS",
        "id": 67088212,
        "login": "EaterAS",
        "node_id": "MDQ6VXNlcjY3MDg4MjEy",
        "organizations_url": "https://api.github.com/users/EaterAS/orgs",
        "received_events_url": "https://api.github.com/users/EaterAS/received_events",
        "repos_url": "https://api.github.com/users/EaterAS/repos",
        "site_admin": false,
        "starred_url": "https://api.github.com/users/EaterAS/starred{/owner}{/repo}",
        "subscriptions_url": "https://api.github.com/users/EaterAS/subscriptions",
        "type": "User",
        "url": "https://api.github.com/users/EaterAS"
    }
}