{
    "active_lock_reason": null,
    "assignee": null,
    "assignees": [],
    "author_association": "NONE",
    "body": "Any updates as to when support for 1.19.4 will be added? I would love to see this added sometime, thanks! :)",
    "closed_at": "2023-05-13T16:06:33Z",
    "comment_data": [
        {
            "author_association": "NONE",
            "body": "https://github.com/PrismarineJS/node-minecraft-protocol/issues/1097",
            "created_at": "2023-05-09T00:12:15Z",
            "html_url": "https://github.com/PrismarineJS/mineflayer/issues/3044#issuecomment-1539218554",
            "id": 1539218554,
            "issue_url": "https://api.github.com/repos/PrismarineJS/mineflayer/issues/3044",
            "node_id": "IC_kwDOABOYWc5bvpx6",
            "performed_via_github_app": null,
            "reactions": {
                "+1": 0,
                "-1": 0,
                "confused": 0,
                "eyes": 0,
                "heart": 0,
                "hooray": 0,
                "laugh": 0,
                "rocket": 0,
                "total_count": 0,
                "url": "https://api.github.com/repos/PrismarineJS/mineflayer/issues/comments/1539218554/reactions"
            },
            "updated_at": "2023-05-09T00:12:15Z",
            "url": "https://api.github.com/repos/PrismarineJS/mineflayer/issues/comments/1539218554",
            "user": {
                "avatar_url": "https://avatars.githubusercontent.com/u/50884811?v=4",
                "events_url": "https://api.github.com/users/LiamTheNinja5/events{/privacy}",
                "followers_url": "https://api.github.com/users/LiamTheNinja5/followers",
                "following_url": "https://api.github.com/users/LiamTheNinja5/following{/other_user}",
                "gists_url": "https://api.github.com/users/LiamTheNinja5/gists{/gist_id}",
                "gravatar_id": "",
                "html_url": "https://github.com/LiamTheNinja5",
                "id": 50884811,
                "login": "LiamTheNinja5",
                "node_id": "MDQ6VXNlcjUwODg0ODEx",
                "organizations_url": "https://api.github.com/users/LiamTheNinja5/orgs",
                "received_events_url": "https://api.github.com/users/LiamTheNinja5/received_events",
                "repos_url": "https://api.github.com/users/LiamTheNinja5/repos",
                "site_admin": false,
                "starred_url": "https://api.github.com/users/LiamTheNinja5/starred{/owner}{/repo}",
                "subscriptions_url": "https://api.github.com/users/LiamTheNinja5/subscriptions",
                "type": "User",
                "url": "https://api.github.com/users/LiamTheNinja5"
            }
        },
        {
            "author_association": "NONE",
            "body": "dupe of #3005 ",
            "created_at": "2023-05-11T10:16:04Z",
            "html_url": "https://github.com/PrismarineJS/mineflayer/issues/3044#issuecomment-1543725868",
            "id": 1543725868,
            "issue_url": "https://api.github.com/repos/PrismarineJS/mineflayer/issues/3044",
            "node_id": "IC_kwDOABOYWc5cA2Ms",
            "performed_via_github_app": null,
            "reactions": {
                "+1": 0,
                "-1": 0,
                "confused": 0,
                "eyes": 0,
                "heart": 0,
                "hooray": 0,
                "laugh": 0,
                "rocket": 0,
                "total_count": 0,
                "url": "https://api.github.com/repos/PrismarineJS/mineflayer/issues/comments/1543725868/reactions"
            },
            "updated_at": "2023-05-11T10:16:04Z",
            "url": "https://api.github.com/repos/PrismarineJS/mineflayer/issues/comments/1543725868",
            "user": {
                "avatar_url": "https://avatars.githubusercontent.com/u/92477814?v=4",
                "events_url": "https://api.github.com/users/andriycraft/events{/privacy}",
                "followers_url": "https://api.github.com/users/andriycraft/followers",
                "following_url": "https://api.github.com/users/andriycraft/following{/other_user}",
                "gists_url": "https://api.github.com/users/andriycraft/gists{/gist_id}",
                "gravatar_id": "",
                "html_url": "https://github.com/andriycraft",
                "id": 92477814,
                "login": "andriycraft",
                "node_id": "U_kgDOBYMZdg",
                "organizations_url": "https://api.github.com/users/andriycraft/orgs",
                "received_events_url": "https://api.github.com/users/andriycraft/received_events",
                "repos_url": "https://api.github.com/users/andriycraft/repos",
                "site_admin": false,
                "starred_url": "https://api.github.com/users/andriycraft/starred{/owner}{/repo}",
                "subscriptions_url": "https://api.github.com/users/andriycraft/subscriptions",
                "type": "User",
                "url": "https://api.github.com/users/andriycraft"
            }
        }
    ],
    "comments": 2,
    "comments_url": "https://api.github.com/repos/PrismarineJS/mineflayer/issues/3044/comments",
    "created_at": "2023-05-08T23:31:27Z",
    "event_data": [
        {
            "actor": {
                "avatar_url": "https://avatars.githubusercontent.com/u/103229161?v=4",
                "events_url": "https://api.github.com/users/SimplySnox/events{/privacy}",
                "followers_url": "https://api.github.com/users/SimplySnox/followers",
                "following_url": "https://api.github.com/users/SimplySnox/following{/other_user}",
                "gists_url": "https://api.github.com/users/SimplySnox/gists{/gist_id}",
                "gravatar_id": "",
                "html_url": "https://github.com/SimplySnox",
                "id": 103229161,
                "login": "SimplySnox",
                "node_id": "U_kgDOBicm6Q",
                "organizations_url": "https://api.github.com/users/SimplySnox/orgs",
                "received_events_url": "https://api.github.com/users/SimplySnox/received_events",
                "repos_url": "https://api.github.com/users/SimplySnox/repos",
                "site_admin": false,
                "starred_url": "https://api.github.com/users/SimplySnox/starred{/owner}{/repo}",
                "subscriptions_url": "https://api.github.com/users/SimplySnox/subscriptions",
                "type": "User",
                "url": "https://api.github.com/users/SimplySnox"
            },
            "commit_id": null,
            "commit_url": null,
            "created_at": "2023-05-08T23:31:27Z",
            "event": "labeled",
            "id": 9195249126,
            "label": {
                "color": "444444",
                "name": "new feature"
            },
            "node_id": "LE_lADOABOYWc5lZGnPzwAAAAIkFF3m",
            "performed_via_github_app": null,
            "url": "https://api.github.com/repos/PrismarineJS/mineflayer/issues/events/9195249126"
        },
        {
            "actor": {
                "avatar_url": "https://avatars.githubusercontent.com/u/103229161?v=4",
                "events_url": "https://api.github.com/users/SimplySnox/events{/privacy}",
                "followers_url": "https://api.github.com/users/SimplySnox/followers",
                "following_url": "https://api.github.com/users/SimplySnox/following{/other_user}",
                "gists_url": "https://api.github.com/users/SimplySnox/gists{/gist_id}",
                "gravatar_id": "",
                "html_url": "https://github.com/SimplySnox",
                "id": 103229161,
                "login": "SimplySnox",
                "node_id": "U_kgDOBicm6Q",
                "organizations_url": "https://api.github.com/users/SimplySnox/orgs",
                "received_events_url": "https://api.github.com/users/SimplySnox/received_events",
                "repos_url": "https://api.github.com/users/SimplySnox/repos",
                "site_admin": false,
                "starred_url": "https://api.github.com/users/SimplySnox/starred{/owner}{/repo}",
                "subscriptions_url": "https://api.github.com/users/SimplySnox/subscriptions",
                "type": "User",
                "url": "https://api.github.com/users/SimplySnox"
            },
            "commit_id": null,
            "commit_url": null,
            "created_at": "2023-05-08T23:31:27Z",
            "event": "labeled",
            "id": 9195249128,
            "label": {
                "color": "bfdadc",
                "name": "Stage1"
            },
            "node_id": "LE_lADOABOYWc5lZGnPzwAAAAIkFF3o",
            "performed_via_github_app": null,
            "url": "https://api.github.com/repos/PrismarineJS/mineflayer/issues/events/9195249128"
        },
        {
            "actor": {
                "avatar_url": "https://avatars.githubusercontent.com/u/13713600?v=4",
                "events_url": "https://api.github.com/users/extremeheat/events{/privacy}",
                "followers_url": "https://api.github.com/users/extremeheat/followers",
                "following_url": "https://api.github.com/users/extremeheat/following{/other_user}",
                "gists_url": "https://api.github.com/users/extremeheat/gists{/gist_id}",
                "gravatar_id": "",
                "html_url": "https://github.com/extremeheat",
                "id": 13713600,
                "login": "extremeheat",
                "node_id": "MDQ6VXNlcjEzNzEzNjAw",
                "organizations_url": "https://api.github.com/users/extremeheat/orgs",
                "received_events_url": "https://api.github.com/users/extremeheat/received_events",
                "repos_url": "https://api.github.com/users/extremeheat/repos",
                "site_admin": false,
                "starred_url": "https://api.github.com/users/extremeheat/starred{/owner}{/repo}",
                "subscriptions_url": "https://api.github.com/users/extremeheat/subscriptions",
                "type": "User",
                "url": "https://api.github.com/users/extremeheat"
            },
            "commit_id": null,
            "commit_url": null,
            "created_at": "2023-05-13T16:06:33Z",
            "event": "closed",
            "id": 9238873050,
            "node_id": "CE_lADOABOYWc5lZGnPzwAAAAImrgPa",
            "performed_via_github_app": null,
            "state_reason": "not_planned",
            "url": "https://api.github.com/repos/PrismarineJS/mineflayer/issues/events/9238873050"
        }
    ],
    "events_url": "https://api.github.com/repos/PrismarineJS/mineflayer/issues/3044/events",
    "html_url": "https://github.com/PrismarineJS/mineflayer/issues/3044",
    "id": 1701079503,
    "labels": [
        {
            "color": "444444",
            "default": false,
            "description": "",
            "id": 111395,
            "name": "new feature",
            "node_id": "MDU6TGFiZWwxMTEzOTU=",
            "url": "https://api.github.com/repos/PrismarineJS/mineflayer/labels/new%20feature"
        },
        {
            "color": "bfdadc",
            "default": false,
            "description": "just created by someone new to the project, we don't know yet if it deserves an implementation / a f",
            "id": 2720118317,
            "name": "Stage1",
            "node_id": "MDU6TGFiZWwyNzIwMTE4MzE3",
            "url": "https://api.github.com/repos/PrismarineJS/mineflayer/labels/Stage1"
        }
    ],
    "labels_url": "https://api.github.com/repos/PrismarineJS/mineflayer/issues/3044/labels{/name}",
    "locked": false,
    "milestone": null,
    "node_id": "I_kwDOABOYWc5lZGnP",
    "number": 3044,
    "performed_via_github_app": null,
    "reactions": {
        "+1": 0,
        "-1": 0,
        "confused": 0,
        "eyes": 0,
        "heart": 0,
        "hooray": 0,
        "laugh": 0,
        "rocket": 0,
        "total_count": 0,
        "url": "https://api.github.com/repos/PrismarineJS/mineflayer/issues/3044/reactions"
    },
    "repository_url": "https://api.github.com/repos/PrismarineJS/mineflayer",
    "state": "closed",
    "state_reason": "not_planned",
    "timeline_url": "https://api.github.com/repos/PrismarineJS/mineflayer/issues/3044/timeline",
    "title": "1.19.4 Support",
    "updated_at": "2023-05-13T16:06:33Z",
    "url": "https://api.github.com/repos/PrismarineJS/mineflayer/issues/3044",
    "user": {
        "avatar_url": "https://avatars.githubusercontent.com/u/103229161?v=4",
        "events_url": "https://api.github.com/users/SimplySnox/events{/privacy}",
        "followers_url": "https://api.github.com/users/SimplySnox/followers",
        "following_url": "https://api.github.com/users/SimplySnox/following{/other_user}",
        "gists_url": "https://api.github.com/users/SimplySnox/gists{/gist_id}",
        "gravatar_id": "",
        "html_url": "https://github.com/SimplySnox",
        "id": 103229161,
        "login": "SimplySnox",
        "node_id": "U_kgDOBicm6Q",
        "organizations_url": "https://api.github.com/users/SimplySnox/orgs",
        "received_events_url": "https://api.github.com/users/SimplySnox/received_events",
        "repos_url": "https://api.github.com/users/SimplySnox/repos",
        "site_admin": false,
        "starred_url": "https://api.github.com/users/SimplySnox/starred{/owner}{/repo}",
        "subscriptions_url": "https://api.github.com/users/SimplySnox/subscriptions",
        "type": "User",
        "url": "https://api.github.com/users/SimplySnox"
    }
}