{
    "active_lock_reason": null,
    "assignee": null,
    "assignees": [],
    "author_association": "NONE",
    "body": "When i launch my old script it spam in \"Ignoring block entities as chunk failed to load at\" in console,but it didn't do that before and i remove all console.log() in code\r\nScript on js,i use only mineflayer\r\n",
    "closed_at": "2023-06-28T21:46:12Z",
    "comment_data": [
        {
            "author_association": "NONE",
            "body": "```js\r\nconsole.warn = () => {};\r\n```\r\nYou can add this to your code",
            "created_at": "2023-06-28T21:27:31Z",
            "html_url": "https://github.com/PrismarineJS/mineflayer/issues/3076#issuecomment-1612132025",
            "id": 1612132025,
            "issue_url": "https://api.github.com/repos/PrismarineJS/mineflayer/issues/3076",
            "node_id": "IC_kwDOABOYWc5gFy65",
            "performed_via_github_app": null,
            "reactions": {
                "+1": 0,
                "-1": 1,
                "confused": 0,
                "eyes": 0,
                "heart": 0,
                "hooray": 0,
                "laugh": 0,
                "rocket": 0,
                "total_count": 1,
                "url": "https://api.github.com/repos/PrismarineJS/mineflayer/issues/comments/1612132025/reactions"
            },
            "updated_at": "2023-06-28T21:27:31Z",
            "url": "https://api.github.com/repos/PrismarineJS/mineflayer/issues/comments/1612132025",
            "user": {
                "avatar_url": "https://avatars.githubusercontent.com/u/107792656?v=4",
                "events_url": "https://api.github.com/users/streetraceing/events{/privacy}",
                "followers_url": "https://api.github.com/users/streetraceing/followers",
                "following_url": "https://api.github.com/users/streetraceing/following{/other_user}",
                "gists_url": "https://api.github.com/users/streetraceing/gists{/gist_id}",
                "gravatar_id": "",
                "html_url": "https://github.com/streetraceing",
                "id": 107792656,
                "login": "streetraceing",
                "node_id": "U_kgDOBmzJEA",
                "organizations_url": "https://api.github.com/users/streetraceing/orgs",
                "received_events_url": "https://api.github.com/users/streetraceing/received_events",
                "repos_url": "https://api.github.com/users/streetraceing/repos",
                "site_admin": false,
                "starred_url": "https://api.github.com/users/streetraceing/starred{/owner}{/repo}",
                "subscriptions_url": "https://api.github.com/users/streetraceing/subscriptions",
                "type": "User",
                "url": "https://api.github.com/users/streetraceing"
            }
        },
        {
            "author_association": "MEMBER",
            "body": "The above is bad unless you want to disable all your console logging, ignore the above comment.  \r\n\r\nYou can enable the “hideErrors” flag in the bot options instead. ",
            "created_at": "2023-06-28T21:46:12Z",
            "html_url": "https://github.com/PrismarineJS/mineflayer/issues/3076#issuecomment-1612148534",
            "id": 1612148534,
            "issue_url": "https://api.github.com/repos/PrismarineJS/mineflayer/issues/3076",
            "node_id": "IC_kwDOABOYWc5gF282",
            "performed_via_github_app": null,
            "reactions": {
                "+1": 0,
                "-1": 0,
                "confused": 0,
                "eyes": 0,
                "heart": 0,
                "hooray": 0,
                "laugh": 0,
                "rocket": 0,
                "total_count": 0,
                "url": "https://api.github.com/repos/PrismarineJS/mineflayer/issues/comments/1612148534/reactions"
            },
            "updated_at": "2023-06-28T21:46:12Z",
            "url": "https://api.github.com/repos/PrismarineJS/mineflayer/issues/comments/1612148534",
            "user": {
                "avatar_url": "https://avatars.githubusercontent.com/u/13713600?v=4",
                "events_url": "https://api.github.com/users/extremeheat/events{/privacy}",
                "followers_url": "https://api.github.com/users/extremeheat/followers",
                "following_url": "https://api.github.com/users/extremeheat/following{/other_user}",
                "gists_url": "https://api.github.com/users/extremeheat/gists{/gist_id}",
                "gravatar_id": "",
                "html_url": "https://github.com/extremeheat",
                "id": 13713600,
                "login": "extremeheat",
                "node_id": "MDQ6VXNlcjEzNzEzNjAw",
                "organizations_url": "https://api.github.com/users/extremeheat/orgs",
                "received_events_url": "https://api.github.com/users/extremeheat/received_events",
                "repos_url": "https://api.github.com/users/extremeheat/repos",
                "site_admin": false,
                "starred_url": "https://api.github.com/users/extremeheat/starred{/owner}{/repo}",
                "subscriptions_url": "https://api.github.com/users/extremeheat/subscriptions",
                "type": "User",
                "url": "https://api.github.com/users/extremeheat"
            }
        }
    ],
    "comments": 2,
    "comments_url": "https://api.github.com/repos/PrismarineJS/mineflayer/issues/3076/comments",
    "created_at": "2023-06-11T14:41:53Z",
    "event_data": [
        {
            "actor": {
                "avatar_url": "https://avatars.githubusercontent.com/u/74070886?v=4",
                "events_url": "https://api.github.com/users/cmetanamaker/events{/privacy}",
                "followers_url": "https://api.github.com/users/cmetanamaker/followers",
                "following_url": "https://api.github.com/users/cmetanamaker/following{/other_user}",
                "gists_url": "https://api.github.com/users/cmetanamaker/gists{/gist_id}",
                "gravatar_id": "",
                "html_url": "https://github.com/cmetanamaker",
                "id": 74070886,
                "login": "cmetanamaker",
                "node_id": "MDQ6VXNlcjc0MDcwODg2",
                "organizations_url": "https://api.github.com/users/cmetanamaker/orgs",
                "received_events_url": "https://api.github.com/users/cmetanamaker/received_events",
                "repos_url": "https://api.github.com/users/cmetanamaker/repos",
                "site_admin": false,
                "starred_url": "https://api.github.com/users/cmetanamaker/starred{/owner}{/repo}",
                "subscriptions_url": "https://api.github.com/users/cmetanamaker/subscriptions",
                "type": "User",
                "url": "https://api.github.com/users/cmetanamaker"
            },
            "commit_id": null,
            "commit_url": null,
            "created_at": "2023-06-11T14:41:53Z",
            "event": "labeled",
            "id": 9494355039,
            "label": {
                "color": "F9D0C4",
                "name": "possible bug"
            },
            "node_id": "LE_lADOABOYWc5oZRzgzwAAAAI16Fxf",
            "performed_via_github_app": null,
            "url": "https://api.github.com/repos/PrismarineJS/mineflayer/issues/events/9494355039"
        },
        {
            "actor": {
                "avatar_url": "https://avatars.githubusercontent.com/u/74070886?v=4",
                "events_url": "https://api.github.com/users/cmetanamaker/events{/privacy}",
                "followers_url": "https://api.github.com/users/cmetanamaker/followers",
                "following_url": "https://api.github.com/users/cmetanamaker/following{/other_user}",
                "gists_url": "https://api.github.com/users/cmetanamaker/gists{/gist_id}",
                "gravatar_id": "",
                "html_url": "https://github.com/cmetanamaker",
                "id": 74070886,
                "login": "cmetanamaker",
                "node_id": "MDQ6VXNlcjc0MDcwODg2",
                "organizations_url": "https://api.github.com/users/cmetanamaker/orgs",
                "received_events_url": "https://api.github.com/users/cmetanamaker/received_events",
                "repos_url": "https://api.github.com/users/cmetanamaker/repos",
                "site_admin": false,
                "starred_url": "https://api.github.com/users/cmetanamaker/starred{/owner}{/repo}",
                "subscriptions_url": "https://api.github.com/users/cmetanamaker/subscriptions",
                "type": "User",
                "url": "https://api.github.com/users/cmetanamaker"
            },
            "commit_id": null,
            "commit_url": null,
            "created_at": "2023-06-11T14:41:53Z",
            "event": "labeled",
            "id": 9494355042,
            "label": {
                "color": "bfdadc",
                "name": "Stage1"
            },
            "node_id": "LE_lADOABOYWc5oZRzgzwAAAAI16Fxi",
            "performed_via_github_app": null,
            "url": "https://api.github.com/repos/PrismarineJS/mineflayer/issues/events/9494355042"
        },
        {
            "actor": {
                "avatar_url": "https://avatars.githubusercontent.com/u/13713600?v=4",
                "events_url": "https://api.github.com/users/extremeheat/events{/privacy}",
                "followers_url": "https://api.github.com/users/extremeheat/followers",
                "following_url": "https://api.github.com/users/extremeheat/following{/other_user}",
                "gists_url": "https://api.github.com/users/extremeheat/gists{/gist_id}",
                "gravatar_id": "",
                "html_url": "https://github.com/extremeheat",
                "id": 13713600,
                "login": "extremeheat",
                "node_id": "MDQ6VXNlcjEzNzEzNjAw",
                "organizations_url": "https://api.github.com/users/extremeheat/orgs",
                "received_events_url": "https://api.github.com/users/extremeheat/received_events",
                "repos_url": "https://api.github.com/users/extremeheat/repos",
                "site_admin": false,
                "starred_url": "https://api.github.com/users/extremeheat/starred{/owner}{/repo}",
                "subscriptions_url": "https://api.github.com/users/extremeheat/subscriptions",
                "type": "User",
                "url": "https://api.github.com/users/extremeheat"
            },
            "commit_id": null,
            "commit_url": null,
            "created_at": "2023-06-28T21:46:12Z",
            "event": "closed",
            "id": 9670447054,
            "node_id": "CE_lADOABOYWc5oZRzgzwAAAAJAZ0_O",
            "performed_via_github_app": null,
            "state_reason": null,
            "url": "https://api.github.com/repos/PrismarineJS/mineflayer/issues/events/9670447054"
        }
    ],
    "events_url": "https://api.github.com/repos/PrismarineJS/mineflayer/issues/3076/events",
    "html_url": "https://github.com/PrismarineJS/mineflayer/issues/3076",
    "id": 1751456992,
    "labels": [
        {
            "color": "F9D0C4",
            "default": false,
            "description": "",
            "id": 1346729768,
            "name": "possible bug",
            "node_id": "MDU6TGFiZWwxMzQ2NzI5NzY4",
            "url": "https://api.github.com/repos/PrismarineJS/mineflayer/labels/possible%20bug"
        },
        {
            "color": "bfdadc",
            "default": false,
            "description": "just created by someone new to the project, we don't know yet if it deserves an implementation / a f",
            "id": 2720118317,
            "name": "Stage1",
            "node_id": "MDU6TGFiZWwyNzIwMTE4MzE3",
            "url": "https://api.github.com/repos/PrismarineJS/mineflayer/labels/Stage1"
        }
    ],
    "labels_url": "https://api.github.com/repos/PrismarineJS/mineflayer/issues/3076/labels{/name}",
    "locked": false,
    "milestone": null,
    "node_id": "I_kwDOABOYWc5oZRzg",
    "number": 3076,
    "performed_via_github_app": null,
    "reactions": {
        "+1": 0,
        "-1": 0,
        "confused": 0,
        "eyes": 0,
        "heart": 0,
        "hooray": 0,
        "laugh": 0,
        "rocket": 0,
        "total_count": 0,
        "url": "https://api.github.com/repos/PrismarineJS/mineflayer/issues/3076/reactions"
    },
    "repository_url": "https://api.github.com/repos/PrismarineJS/mineflayer",
    "state": "closed",
    "state_reason": "completed",
    "timeline_url": "https://api.github.com/repos/PrismarineJS/mineflayer/issues/3076/timeline",
    "title": "Ignoring block entities as chunk failed to load at",
    "updated_at": "2023-06-28T21:46:13Z",
    "url": "https://api.github.com/repos/PrismarineJS/mineflayer/issues/3076",
    "user": {
        "avatar_url": "https://avatars.githubusercontent.com/u/74070886?v=4",
        "events_url": "https://api.github.com/users/cmetanamaker/events{/privacy}",
        "followers_url": "https://api.github.com/users/cmetanamaker/followers",
        "following_url": "https://api.github.com/users/cmetanamaker/following{/other_user}",
        "gists_url": "https://api.github.com/users/cmetanamaker/gists{/gist_id}",
        "gravatar_id": "",
        "html_url": "https://github.com/cmetanamaker",
        "id": 74070886,
        "login": "cmetanamaker",
        "node_id": "MDQ6VXNlcjc0MDcwODg2",
        "organizations_url": "https://api.github.com/users/cmetanamaker/orgs",
        "received_events_url": "https://api.github.com/users/cmetanamaker/received_events",
        "repos_url": "https://api.github.com/users/cmetanamaker/repos",
        "site_admin": false,
        "starred_url": "https://api.github.com/users/cmetanamaker/starred{/owner}{/repo}",
        "subscriptions_url": "https://api.github.com/users/cmetanamaker/subscriptions",
        "type": "User",
        "url": "https://api.github.com/users/cmetanamaker"
    }
}