{
    "active_lock_reason": null,
    "assignee": {
        "avatar_url": "https://avatars.githubusercontent.com/u/87436?v=4",
        "events_url": "https://api.github.com/users/thejoshwolfe/events{/privacy}",
        "followers_url": "https://api.github.com/users/thejoshwolfe/followers",
        "following_url": "https://api.github.com/users/thejoshwolfe/following{/other_user}",
        "gists_url": "https://api.github.com/users/thejoshwolfe/gists{/gist_id}",
        "gravatar_id": "",
        "html_url": "https://github.com/thejoshwolfe",
        "id": 87436,
        "login": "thejoshwolfe",
        "node_id": "MDQ6VXNlcjg3NDM2",
        "organizations_url": "https://api.github.com/users/thejoshwolfe/orgs",
        "received_events_url": "https://api.github.com/users/thejoshwolfe/received_events",
        "repos_url": "https://api.github.com/users/thejoshwolfe/repos",
        "site_admin": false,
        "starred_url": "https://api.github.com/users/thejoshwolfe/starred{/owner}{/repo}",
        "subscriptions_url": "https://api.github.com/users/thejoshwolfe/subscriptions",
        "type": "User",
        "url": "https://api.github.com/users/thejoshwolfe"
    },
    "assignees": [
        {
            "avatar_url": "https://avatars.githubusercontent.com/u/87436?v=4",
            "events_url": "https://api.github.com/users/thejoshwolfe/events{/privacy}",
            "followers_url": "https://api.github.com/users/thejoshwolfe/followers",
            "following_url": "https://api.github.com/users/thejoshwolfe/following{/other_user}",
            "gists_url": "https://api.github.com/users/thejoshwolfe/gists{/gist_id}",
            "gravatar_id": "",
            "html_url": "https://github.com/thejoshwolfe",
            "id": 87436,
            "login": "thejoshwolfe",
            "node_id": "MDQ6VXNlcjg3NDM2",
            "organizations_url": "https://api.github.com/users/thejoshwolfe/orgs",
            "received_events_url": "https://api.github.com/users/thejoshwolfe/received_events",
            "repos_url": "https://api.github.com/users/thejoshwolfe/repos",
            "site_admin": false,
            "starred_url": "https://api.github.com/users/thejoshwolfe/starred{/owner}{/repo}",
            "subscriptions_url": "https://api.github.com/users/thejoshwolfe/subscriptions",
            "type": "User",
            "url": "https://api.github.com/users/thejoshwolfe"
        }
    ],
    "author_association": "CONTRIBUTOR",
    "body": "items.js and eat.js need updating.\n",
    "closed_at": "2011-10-31T10:44:11Z",
    "comment_data": [],
    "comments": 0,
    "comments_url": "https://api.github.com/repos/PrismarineJS/mineflayer/issues/32/comments",
    "created_at": "2011-10-31T06:49:24Z",
    "event_data": [
        {
            "actor": {
                "avatar_url": "https://avatars.githubusercontent.com/u/87436?v=4",
                "events_url": "https://api.github.com/users/thejoshwolfe/events{/privacy}",
                "followers_url": "https://api.github.com/users/thejoshwolfe/followers",
                "following_url": "https://api.github.com/users/thejoshwolfe/following{/other_user}",
                "gists_url": "https://api.github.com/users/thejoshwolfe/gists{/gist_id}",
                "gravatar_id": "",
                "html_url": "https://github.com/thejoshwolfe",
                "id": 87436,
                "login": "thejoshwolfe",
                "node_id": "MDQ6VXNlcjg3NDM2",
                "organizations_url": "https://api.github.com/users/thejoshwolfe/orgs",
                "received_events_url": "https://api.github.com/users/thejoshwolfe/received_events",
                "repos_url": "https://api.github.com/users/thejoshwolfe/repos",
                "site_admin": false,
                "starred_url": "https://api.github.com/users/thejoshwolfe/starred{/owner}{/repo}",
                "subscriptions_url": "https://api.github.com/users/thejoshwolfe/subscriptions",
                "type": "User",
                "url": "https://api.github.com/users/thejoshwolfe"
            },
            "commit_id": null,
            "commit_url": null,
            "created_at": "2011-10-31T06:49:24Z",
            "event": "subscribed",
            "id": 4837366,
            "node_id": "MDE1OlN1YnNjcmliZWRFdmVudDQ4MzczNjY=",
            "performed_via_github_app": null,
            "url": "https://api.github.com/repos/PrismarineJS/mineflayer/issues/events/4837366"
        },
        {
            "actor": {
                "avatar_url": "https://avatars.githubusercontent.com/u/87436?v=4",
                "events_url": "https://api.github.com/users/thejoshwolfe/events{/privacy}",
                "followers_url": "https://api.github.com/users/thejoshwolfe/followers",
                "following_url": "https://api.github.com/users/thejoshwolfe/following{/other_user}",
                "gists_url": "https://api.github.com/users/thejoshwolfe/gists{/gist_id}",
                "gravatar_id": "",
                "html_url": "https://github.com/thejoshwolfe",
                "id": 87436,
                "login": "thejoshwolfe",
                "node_id": "MDQ6VXNlcjg3NDM2",
                "organizations_url": "https://api.github.com/users/thejoshwolfe/orgs",
                "received_events_url": "https://api.github.com/users/thejoshwolfe/received_events",
                "repos_url": "https://api.github.com/users/thejoshwolfe/repos",
                "site_admin": false,
                "starred_url": "https://api.github.com/users/thejoshwolfe/starred{/owner}{/repo}",
                "subscriptions_url": "https://api.github.com/users/thejoshwolfe/subscriptions",
                "type": "User",
                "url": "https://api.github.com/users/thejoshwolfe"
            },
            "assignee": {
                "avatar_url": "https://avatars.githubusercontent.com/u/87436?v=4",
                "events_url": "https://api.github.com/users/thejoshwolfe/events{/privacy}",
                "followers_url": "https://api.github.com/users/thejoshwolfe/followers",
                "following_url": "https://api.github.com/users/thejoshwolfe/following{/other_user}",
                "gists_url": "https://api.github.com/users/thejoshwolfe/gists{/gist_id}",
                "gravatar_id": "",
                "html_url": "https://github.com/thejoshwolfe",
                "id": 87436,
                "login": "thejoshwolfe",
                "node_id": "MDQ6VXNlcjg3NDM2",
                "organizations_url": "https://api.github.com/users/thejoshwolfe/orgs",
                "received_events_url": "https://api.github.com/users/thejoshwolfe/received_events",
                "repos_url": "https://api.github.com/users/thejoshwolfe/repos",
                "site_admin": false,
                "starred_url": "https://api.github.com/users/thejoshwolfe/starred{/owner}{/repo}",
                "subscriptions_url": "https://api.github.com/users/thejoshwolfe/subscriptions",
                "type": "User",
                "url": "https://api.github.com/users/thejoshwolfe"
            },
            "assigner": {
                "avatar_url": "https://avatars.githubusercontent.com/u/10137?v=4",
                "events_url": "https://api.github.com/users/ghost/events{/privacy}",
                "followers_url": "https://api.github.com/users/ghost/followers",
                "following_url": "https://api.github.com/users/ghost/following{/other_user}",
                "gists_url": "https://api.github.com/users/ghost/gists{/gist_id}",
                "gravatar_id": "",
                "html_url": "https://github.com/ghost",
                "id": 10137,
                "login": "ghost",
                "node_id": "MDQ6VXNlcjEwMTM3",
                "organizations_url": "https://api.github.com/users/ghost/orgs",
                "received_events_url": "https://api.github.com/users/ghost/received_events",
                "repos_url": "https://api.github.com/users/ghost/repos",
                "site_admin": false,
                "starred_url": "https://api.github.com/users/ghost/starred{/owner}{/repo}",
                "subscriptions_url": "https://api.github.com/users/ghost/subscriptions",
                "type": "User",
                "url": "https://api.github.com/users/ghost"
            },
            "commit_id": null,
            "commit_url": null,
            "created_at": "2011-10-31T06:49:38Z",
            "event": "assigned",
            "id": 4837367,
            "node_id": "MDEzOkFzc2lnbmVkRXZlbnQ0ODM3MzY3",
            "performed_via_github_app": null,
            "url": "https://api.github.com/repos/PrismarineJS/mineflayer/issues/events/4837367"
        },
        {
            "actor": {
                "avatar_url": "https://avatars.githubusercontent.com/u/87436?v=4",
                "events_url": "https://api.github.com/users/thejoshwolfe/events{/privacy}",
                "followers_url": "https://api.github.com/users/thejoshwolfe/followers",
                "following_url": "https://api.github.com/users/thejoshwolfe/following{/other_user}",
                "gists_url": "https://api.github.com/users/thejoshwolfe/gists{/gist_id}",
                "gravatar_id": "",
                "html_url": "https://github.com/thejoshwolfe",
                "id": 87436,
                "login": "thejoshwolfe",
                "node_id": "MDQ6VXNlcjg3NDM2",
                "organizations_url": "https://api.github.com/users/thejoshwolfe/orgs",
                "received_events_url": "https://api.github.com/users/thejoshwolfe/received_events",
                "repos_url": "https://api.github.com/users/thejoshwolfe/repos",
                "site_admin": false,
                "starred_url": "https://api.github.com/users/thejoshwolfe/starred{/owner}{/repo}",
                "subscriptions_url": "https://api.github.com/users/thejoshwolfe/subscriptions",
                "type": "User",
                "url": "https://api.github.com/users/thejoshwolfe"
            },
            "commit_id": "c85a5c4de2919434172f19116150bd4642dddf22",
            "commit_url": "https://api.github.com/repos/PrismarineJS/mineflayer/commits/c85a5c4de2919434172f19116150bd4642dddf22",
            "created_at": "2011-10-31T07:21:39Z",
            "event": "referenced",
            "id": 4837727,
            "node_id": "MDE1OlJlZmVyZW5jZWRFdmVudDQ4Mzc3Mjc=",
            "performed_via_github_app": null,
            "url": "https://api.github.com/repos/PrismarineJS/mineflayer/issues/events/4837727"
        },
        {
            "actor": {
                "avatar_url": "https://avatars.githubusercontent.com/u/87436?v=4",
                "events_url": "https://api.github.com/users/thejoshwolfe/events{/privacy}",
                "followers_url": "https://api.github.com/users/thejoshwolfe/followers",
                "following_url": "https://api.github.com/users/thejoshwolfe/following{/other_user}",
                "gists_url": "https://api.github.com/users/thejoshwolfe/gists{/gist_id}",
                "gravatar_id": "",
                "html_url": "https://github.com/thejoshwolfe",
                "id": 87436,
                "login": "thejoshwolfe",
                "node_id": "MDQ6VXNlcjg3NDM2",
                "organizations_url": "https://api.github.com/users/thejoshwolfe/orgs",
                "received_events_url": "https://api.github.com/users/thejoshwolfe/received_events",
                "repos_url": "https://api.github.com/users/thejoshwolfe/repos",
                "site_admin": false,
                "starred_url": "https://api.github.com/users/thejoshwolfe/starred{/owner}{/repo}",
                "subscriptions_url": "https://api.github.com/users/thejoshwolfe/subscriptions",
                "type": "User",
                "url": "https://api.github.com/users/thejoshwolfe"
            },
            "commit_id": "28d10070bf9d4aa2e0ae70da4c3bda874f24960d",
            "commit_url": "https://api.github.com/repos/PrismarineJS/mineflayer/commits/28d10070bf9d4aa2e0ae70da4c3bda874f24960d",
            "created_at": "2011-10-31T08:34:26Z",
            "event": "referenced",
            "id": 4838998,
            "node_id": "MDE1OlJlZmVyZW5jZWRFdmVudDQ4Mzg5OTg=",
            "performed_via_github_app": null,
            "url": "https://api.github.com/repos/PrismarineJS/mineflayer/issues/events/4838998"
        },
        {
            "actor": {
                "avatar_url": "https://avatars.githubusercontent.com/u/87436?v=4",
                "events_url": "https://api.github.com/users/thejoshwolfe/events{/privacy}",
                "followers_url": "https://api.github.com/users/thejoshwolfe/followers",
                "following_url": "https://api.github.com/users/thejoshwolfe/following{/other_user}",
                "gists_url": "https://api.github.com/users/thejoshwolfe/gists{/gist_id}",
                "gravatar_id": "",
                "html_url": "https://github.com/thejoshwolfe",
                "id": 87436,
                "login": "thejoshwolfe",
                "node_id": "MDQ6VXNlcjg3NDM2",
                "organizations_url": "https://api.github.com/users/thejoshwolfe/orgs",
                "received_events_url": "https://api.github.com/users/thejoshwolfe/received_events",
                "repos_url": "https://api.github.com/users/thejoshwolfe/repos",
                "site_admin": false,
                "starred_url": "https://api.github.com/users/thejoshwolfe/starred{/owner}{/repo}",
                "subscriptions_url": "https://api.github.com/users/thejoshwolfe/subscriptions",
                "type": "User",
                "url": "https://api.github.com/users/thejoshwolfe"
            },
            "commit_id": "c0d2e30c9304b3b579d732b22be99bb3db6713ac",
            "commit_url": "https://api.github.com/repos/PrismarineJS/mineflayer/commits/c0d2e30c9304b3b579d732b22be99bb3db6713ac",
            "created_at": "2011-10-31T10:43:14Z",
            "event": "referenced",
            "id": 4842187,
            "node_id": "MDE1OlJlZmVyZW5jZWRFdmVudDQ4NDIxODc=",
            "performed_via_github_app": null,
            "url": "https://api.github.com/repos/PrismarineJS/mineflayer/issues/events/4842187"
        },
        {
            "actor": {
                "avatar_url": "https://avatars.githubusercontent.com/u/87436?v=4",
                "events_url": "https://api.github.com/users/thejoshwolfe/events{/privacy}",
                "followers_url": "https://api.github.com/users/thejoshwolfe/followers",
                "following_url": "https://api.github.com/users/thejoshwolfe/following{/other_user}",
                "gists_url": "https://api.github.com/users/thejoshwolfe/gists{/gist_id}",
                "gravatar_id": "",
                "html_url": "https://github.com/thejoshwolfe",
                "id": 87436,
                "login": "thejoshwolfe",
                "node_id": "MDQ6VXNlcjg3NDM2",
                "organizations_url": "https://api.github.com/users/thejoshwolfe/orgs",
                "received_events_url": "https://api.github.com/users/thejoshwolfe/received_events",
                "repos_url": "https://api.github.com/users/thejoshwolfe/repos",
                "site_admin": false,
                "starred_url": "https://api.github.com/users/thejoshwolfe/starred{/owner}{/repo}",
                "subscriptions_url": "https://api.github.com/users/thejoshwolfe/subscriptions",
                "type": "User",
                "url": "https://api.github.com/users/thejoshwolfe"
            },
            "commit_id": null,
            "commit_url": null,
            "created_at": "2011-10-31T10:44:11Z",
            "event": "closed",
            "id": 4842216,
            "node_id": "MDExOkNsb3NlZEV2ZW50NDg0MjIxNg==",
            "performed_via_github_app": null,
            "state_reason": null,
            "url": "https://api.github.com/repos/PrismarineJS/mineflayer/issues/events/4842216"
        },
        {
            "actor": {
                "avatar_url": "https://avatars.githubusercontent.com/u/87436?v=4",
                "events_url": "https://api.github.com/users/thejoshwolfe/events{/privacy}",
                "followers_url": "https://api.github.com/users/thejoshwolfe/followers",
                "following_url": "https://api.github.com/users/thejoshwolfe/following{/other_user}",
                "gists_url": "https://api.github.com/users/thejoshwolfe/gists{/gist_id}",
                "gravatar_id": "",
                "html_url": "https://github.com/thejoshwolfe",
                "id": 87436,
                "login": "thejoshwolfe",
                "node_id": "MDQ6VXNlcjg3NDM2",
                "organizations_url": "https://api.github.com/users/thejoshwolfe/orgs",
                "received_events_url": "https://api.github.com/users/thejoshwolfe/received_events",
                "repos_url": "https://api.github.com/users/thejoshwolfe/repos",
                "site_admin": false,
                "starred_url": "https://api.github.com/users/thejoshwolfe/starred{/owner}{/repo}",
                "subscriptions_url": "https://api.github.com/users/thejoshwolfe/subscriptions",
                "type": "User",
                "url": "https://api.github.com/users/thejoshwolfe"
            },
            "commit_id": "8bf2ac35cfc3d5f59ef41ccb7236987a88d59e17",
            "commit_url": "https://api.github.com/repos/PrismarineJS/mineflayer/commits/8bf2ac35cfc3d5f59ef41ccb7236987a88d59e17",
            "created_at": "2011-11-01T01:40:49Z",
            "event": "referenced",
            "id": 4876854,
            "node_id": "MDE1OlJlZmVyZW5jZWRFdmVudDQ4NzY4NTQ=",
            "performed_via_github_app": null,
            "url": "https://api.github.com/repos/PrismarineJS/mineflayer/issues/events/4876854"
        }
    ],
    "events_url": "https://api.github.com/repos/PrismarineJS/mineflayer/issues/32/events",
    "html_url": "https://github.com/PrismarineJS/mineflayer/issues/32",
    "id": 2094346,
    "labels": [],
    "labels_url": "https://api.github.com/repos/PrismarineJS/mineflayer/issues/32/labels{/name}",
    "locked": false,
    "milestone": null,
    "node_id": "MDU6SXNzdWUyMDk0MzQ2",
    "number": 32,
    "performed_via_github_app": null,
    "reactions": {
        "+1": 0,
        "-1": 0,
        "confused": 0,
        "eyes": 0,
        "heart": 0,
        "hooray": 0,
        "laugh": 0,
        "rocket": 0,
        "total_count": 0,
        "url": "https://api.github.com/repos/PrismarineJS/mineflayer/issues/32/reactions"
    },
    "repository_url": "https://api.github.com/repos/PrismarineJS/mineflayer",
    "state": "closed",
    "state_reason": "completed",
    "timeline_url": "https://api.github.com/repos/PrismarineJS/mineflayer/issues/32/timeline",
    "title": "update food logic for 1.8 food system",
    "updated_at": "2011-10-31T10:44:11Z",
    "url": "https://api.github.com/repos/PrismarineJS/mineflayer/issues/32",
    "user": {
        "avatar_url": "https://avatars.githubusercontent.com/u/87436?v=4",
        "events_url": "https://api.github.com/users/thejoshwolfe/events{/privacy}",
        "followers_url": "https://api.github.com/users/thejoshwolfe/followers",
        "following_url": "https://api.github.com/users/thejoshwolfe/following{/other_user}",
        "gists_url": "https://api.github.com/users/thejoshwolfe/gists{/gist_id}",
        "gravatar_id": "",
        "html_url": "https://github.com/thejoshwolfe",
        "id": 87436,
        "login": "thejoshwolfe",
        "node_id": "MDQ6VXNlcjg3NDM2",
        "organizations_url": "https://api.github.com/users/thejoshwolfe/orgs",
        "received_events_url": "https://api.github.com/users/thejoshwolfe/received_events",
        "repos_url": "https://api.github.com/users/thejoshwolfe/repos",
        "site_admin": false,
        "starred_url": "https://api.github.com/users/thejoshwolfe/starred{/owner}{/repo}",
        "subscriptions_url": "https://api.github.com/users/thejoshwolfe/subscriptions",
        "type": "User",
        "url": "https://api.github.com/users/thejoshwolfe"
    }
}