{
    "active_lock_reason": null,
    "assignee": null,
    "assignees": [],
    "author_association": "NONE",
    "body": "- [x] The [FAQ](https://github.com/PrismarineJS/mineflayer/blob/master/docs/FAQ.md) doesn't contain a resolution to my issue \r\n\r\n## Versions\r\n - mineflayer: latest\r\n - server: vanilla 1.20.1\r\n - node: 18.17.0\r\n\r\n## Detailed description of a problem\r\nI am trying to make my bot respond to certain commands, however, the function for that command is called, but the bot did not move\r\n\r\n## What did you try yet?\r\nI tried making everything async, however it ended in disaster. I tried restarting my computer -- sometimes that worked, but other times it didn't\r\n\r\n## Your current code\r\n```py\r\n        @bot.add_method()\r\n        def forward(hold_time=1):\r\n            \"\"\"\r\n            Holds the \"W\" key for hold_time seconds\r\n            \"\"\"\r\n            print(\"forward\")\r\n            self.internal_bot.setControlState(\"forward\", True)\r\n            time.sleep(hold_time)\r\n            self.internal_bot.setControlState(\"forward\", False)\r\n```\r\n\r\n## Expected behavior\r\nThe bot moves 100% of the time\r\n\r\n## Additional context\r\nI am using JSPyBridge.\r\n",
    "closed_at": null,
    "comment_data": [],
    "comments": 0,
    "comments_url": "https://api.github.com/repos/PrismarineJS/mineflayer/issues/3212/comments",
    "created_at": "2023-10-22T04:08:51Z",
    "event_data": [
        {
            "actor": {
                "avatar_url": "https://avatars.githubusercontent.com/u/84367421?v=4",
                "events_url": "https://api.github.com/users/HellishBro/events{/privacy}",
                "followers_url": "https://api.github.com/users/HellishBro/followers",
                "following_url": "https://api.github.com/users/HellishBro/following{/other_user}",
                "gists_url": "https://api.github.com/users/HellishBro/gists{/gist_id}",
                "gravatar_id": "",
                "html_url": "https://github.com/HellishBro",
                "id": 84367421,
                "login": "HellishBro",
                "node_id": "MDQ6VXNlcjg0MzY3NDIx",
                "organizations_url": "https://api.github.com/users/HellishBro/orgs",
                "received_events_url": "https://api.github.com/users/HellishBro/received_events",
                "repos_url": "https://api.github.com/users/HellishBro/repos",
                "site_admin": false,
                "starred_url": "https://api.github.com/users/HellishBro/starred{/owner}{/repo}",
                "subscriptions_url": "https://api.github.com/users/HellishBro/subscriptions",
                "type": "User",
                "url": "https://api.github.com/users/HellishBro"
            },
            "commit_id": null,
            "commit_url": null,
            "created_at": "2023-10-22T04:08:52Z",
            "event": "labeled",
            "id": 10732545213,
            "label": {
                "color": "F9D0C4",
                "name": "possible bug"
            },
            "node_id": "LE_lADOABOYWc50kmjbzwAAAAJ_taS9",
            "performed_via_github_app": null,
            "url": "https://api.github.com/repos/PrismarineJS/mineflayer/issues/events/10732545213"
        },
        {
            "actor": {
                "avatar_url": "https://avatars.githubusercontent.com/u/84367421?v=4",
                "events_url": "https://api.github.com/users/HellishBro/events{/privacy}",
                "followers_url": "https://api.github.com/users/HellishBro/followers",
                "following_url": "https://api.github.com/users/HellishBro/following{/other_user}",
                "gists_url": "https://api.github.com/users/HellishBro/gists{/gist_id}",
                "gravatar_id": "",
                "html_url": "https://github.com/HellishBro",
                "id": 84367421,
                "login": "HellishBro",
                "node_id": "MDQ6VXNlcjg0MzY3NDIx",
                "organizations_url": "https://api.github.com/users/HellishBro/orgs",
                "received_events_url": "https://api.github.com/users/HellishBro/received_events",
                "repos_url": "https://api.github.com/users/HellishBro/repos",
                "site_admin": false,
                "starred_url": "https://api.github.com/users/HellishBro/starred{/owner}{/repo}",
                "subscriptions_url": "https://api.github.com/users/HellishBro/subscriptions",
                "type": "User",
                "url": "https://api.github.com/users/HellishBro"
            },
            "commit_id": null,
            "commit_url": null,
            "created_at": "2023-10-22T04:08:52Z",
            "event": "labeled",
            "id": 10732545214,
            "label": {
                "color": "bfdadc",
                "name": "Stage1"
            },
            "node_id": "LE_lADOABOYWc50kmjbzwAAAAJ_taS-",
            "performed_via_github_app": null,
            "url": "https://api.github.com/repos/PrismarineJS/mineflayer/issues/events/10732545214"
        }
    ],
    "events_url": "https://api.github.com/repos/PrismarineJS/mineflayer/issues/3212/events",
    "html_url": "https://github.com/PrismarineJS/mineflayer/issues/3212",
    "id": 1955752155,
    "labels": [
        {
            "color": "F9D0C4",
            "default": false,
            "description": "",
            "id": 1346729768,
            "name": "possible bug",
            "node_id": "MDU6TGFiZWwxMzQ2NzI5NzY4",
            "url": "https://api.github.com/repos/PrismarineJS/mineflayer/labels/possible%20bug"
        },
        {
            "color": "bfdadc",
            "default": false,
            "description": "just created by someone new to the project, we don't know yet if it deserves an implementation / a f",
            "id": 2720118317,
            "name": "Stage1",
            "node_id": "MDU6TGFiZWwyNzIwMTE4MzE3",
            "url": "https://api.github.com/repos/PrismarineJS/mineflayer/labels/Stage1"
        }
    ],
    "labels_url": "https://api.github.com/repos/PrismarineJS/mineflayer/issues/3212/labels{/name}",
    "locked": false,
    "milestone": null,
    "node_id": "I_kwDOABOYWc50kmjb",
    "number": 3212,
    "performed_via_github_app": null,
    "reactions": {
        "+1": 0,
        "-1": 0,
        "confused": 0,
        "eyes": 0,
        "heart": 0,
        "hooray": 0,
        "laugh": 0,
        "rocket": 0,
        "total_count": 0,
        "url": "https://api.github.com/repos/PrismarineJS/mineflayer/issues/3212/reactions"
    },
    "repository_url": "https://api.github.com/repos/PrismarineJS/mineflayer",
    "state": "open",
    "state_reason": null,
    "timeline_url": "https://api.github.com/repos/PrismarineJS/mineflayer/issues/3212/timeline",
    "title": "bot.setControlState sometimes not work",
    "updated_at": "2023-10-22T04:08:51Z",
    "url": "https://api.github.com/repos/PrismarineJS/mineflayer/issues/3212",
    "user": {
        "avatar_url": "https://avatars.githubusercontent.com/u/84367421?v=4",
        "events_url": "https://api.github.com/users/HellishBro/events{/privacy}",
        "followers_url": "https://api.github.com/users/HellishBro/followers",
        "following_url": "https://api.github.com/users/HellishBro/following{/other_user}",
        "gists_url": "https://api.github.com/users/HellishBro/gists{/gist_id}",
        "gravatar_id": "",
        "html_url": "https://github.com/HellishBro",
        "id": 84367421,
        "login": "HellishBro",
        "node_id": "MDQ6VXNlcjg0MzY3NDIx",
        "organizations_url": "https://api.github.com/users/HellishBro/orgs",
        "received_events_url": "https://api.github.com/users/HellishBro/received_events",
        "repos_url": "https://api.github.com/users/HellishBro/repos",
        "site_admin": false,
        "starred_url": "https://api.github.com/users/HellishBro/starred{/owner}{/repo}",
        "subscriptions_url": "https://api.github.com/users/HellishBro/subscriptions",
        "type": "User",
        "url": "https://api.github.com/users/HellishBro"
    }
}