{
    "active_lock_reason": null,
    "assignee": null,
    "assignees": [],
    "author_association": "NONE",
    "body": "- [X] The [FAQ](https://github.com/PrismarineJS/mineflayer/blob/master/docs/FAQ.md) doesn't contain a resolution to my issue \r\n\r\n## Versions\r\n - mineflayer: 4.14.0\r\n - server: vanilla 1.20.1\r\n - node: 20.8.0\r\n\r\n## Detailed description of a problem\r\nI was trying to get the bot to the middle of a water pool, by walking it over a boat, and it wasn't moving. I eventually teleported the bot to where I wanted it and it started walking backwards.\r\nThe physics of the bot doesn't support walking on to boats, and instead treats them as walls.\r\n\r\nhttps://github.com/PrismarineJS/mineflayer/assets/55368789/cb8ab56c-939f-483a-9692-e078ec6366ce\r\n\r\n## Your current code\r\n```js\r\n// note: replaced chat handling with the code I used in the video\r\nconst mineflayer = require('mineflayer')\r\nconst bot = mineflayer.createBot({\r\n  host: 'localhost',\r\n  port: 44741,\r\n  username: 'SentryBuster',\r\n  auth: 'offline'\r\n})\r\nbot.once('login',()=>{\r\n  bot.settings.skinParts.showCape = false\r\n  var flipped = false;\r\n  setInterval(()=>{\r\n    let skinparts = bot.settings.skinParts;\r\n    // skinparts.showJacket = flipped;\r\n    // skinparts.showLeftSleeve = flipped;\r\n    // skinparts.showRightSleeve = flipped;\r\n    // skinparts.showLeftPants = flipped;\r\n    // skinparts.showRightPants = flipped;\r\n    skinparts.showHat = flipped;\r\n    flipped=!flipped\r\n    bot.setSettings(bot.settings);\r\n  },250)\r\n})\r\nbot.on('spawn',()=>{\r\n  bot.setControlState('forward',true);\r\n  setTimeout({\r\n    bot.setControlState('forward',false);\r\n    bot.setControlState('back',true);\r\n  },250)\r\n})\r\n```\r\n\r\n## Expected behavior\r\nI expect the bot to walk onto the boat, just like it does for slabs and stairs.\r\n\r\n## Additional context\r\nI searched the issues and found a similar issue (#228) about the bot having issues with block collision boxes, but no mention of entities.\r\n\r\nI definitely could modify the bot to jump, and it was only for the bot to get to the middle of the water pool, but I feel like it'd be good to make an issue about this, if anyone else encounters it, or if it becomes a bigger problem in the future. This is an edge case and may not be worth fixing.",
    "closed_at": null,
    "comment_data": [],
    "comments": 0,
    "comments_url": "https://api.github.com/repos/PrismarineJS/mineflayer/issues/3213/comments",
    "created_at": "2023-10-23T04:37:09Z",
    "event_data": [
        {
            "actor": {
                "avatar_url": "https://avatars.githubusercontent.com/u/55368789?v=4",
                "events_url": "https://api.github.com/users/bainchild/events{/privacy}",
                "followers_url": "https://api.github.com/users/bainchild/followers",
                "following_url": "https://api.github.com/users/bainchild/following{/other_user}",
                "gists_url": "https://api.github.com/users/bainchild/gists{/gist_id}",
                "gravatar_id": "",
                "html_url": "https://github.com/bainchild",
                "id": 55368789,
                "login": "bainchild",
                "node_id": "MDQ6VXNlcjU1MzY4Nzg5",
                "organizations_url": "https://api.github.com/users/bainchild/orgs",
                "received_events_url": "https://api.github.com/users/bainchild/received_events",
                "repos_url": "https://api.github.com/users/bainchild/repos",
                "site_admin": false,
                "starred_url": "https://api.github.com/users/bainchild/starred{/owner}{/repo}",
                "subscriptions_url": "https://api.github.com/users/bainchild/subscriptions",
                "type": "User",
                "url": "https://api.github.com/users/bainchild"
            },
            "commit_id": null,
            "commit_url": null,
            "created_at": "2023-10-23T04:37:09Z",
            "event": "labeled",
            "id": 10735606551,
            "label": {
                "color": "F9D0C4",
                "name": "possible bug"
            },
            "node_id": "LE_lADOABOYWc50m1OGzwAAAAJ_5FsX",
            "performed_via_github_app": null,
            "url": "https://api.github.com/repos/PrismarineJS/mineflayer/issues/events/10735606551"
        },
        {
            "actor": {
                "avatar_url": "https://avatars.githubusercontent.com/u/55368789?v=4",
                "events_url": "https://api.github.com/users/bainchild/events{/privacy}",
                "followers_url": "https://api.github.com/users/bainchild/followers",
                "following_url": "https://api.github.com/users/bainchild/following{/other_user}",
                "gists_url": "https://api.github.com/users/bainchild/gists{/gist_id}",
                "gravatar_id": "",
                "html_url": "https://github.com/bainchild",
                "id": 55368789,
                "login": "bainchild",
                "node_id": "MDQ6VXNlcjU1MzY4Nzg5",
                "organizations_url": "https://api.github.com/users/bainchild/orgs",
                "received_events_url": "https://api.github.com/users/bainchild/received_events",
                "repos_url": "https://api.github.com/users/bainchild/repos",
                "site_admin": false,
                "starred_url": "https://api.github.com/users/bainchild/starred{/owner}{/repo}",
                "subscriptions_url": "https://api.github.com/users/bainchild/subscriptions",
                "type": "User",
                "url": "https://api.github.com/users/bainchild"
            },
            "commit_id": null,
            "commit_url": null,
            "created_at": "2023-10-23T04:37:09Z",
            "event": "labeled",
            "id": 10735606557,
            "label": {
                "color": "bfdadc",
                "name": "Stage1"
            },
            "node_id": "LE_lADOABOYWc50m1OGzwAAAAJ_5Fsd",
            "performed_via_github_app": null,
            "url": "https://api.github.com/repos/PrismarineJS/mineflayer/issues/events/10735606557"
        }
    ],
    "events_url": "https://api.github.com/repos/PrismarineJS/mineflayer/issues/3213/events",
    "html_url": "https://github.com/PrismarineJS/mineflayer/issues/3213",
    "id": 1956336518,
    "labels": [
        {
            "color": "F9D0C4",
            "default": false,
            "description": "",
            "id": 1346729768,
            "name": "possible bug",
            "node_id": "MDU6TGFiZWwxMzQ2NzI5NzY4",
            "url": "https://api.github.com/repos/PrismarineJS/mineflayer/labels/possible%20bug"
        },
        {
            "color": "bfdadc",
            "default": false,
            "description": "just created by someone new to the project, we don't know yet if it deserves an implementation / a f",
            "id": 2720118317,
            "name": "Stage1",
            "node_id": "MDU6TGFiZWwyNzIwMTE4MzE3",
            "url": "https://api.github.com/repos/PrismarineJS/mineflayer/labels/Stage1"
        }
    ],
    "labels_url": "https://api.github.com/repos/PrismarineJS/mineflayer/issues/3213/labels{/name}",
    "locked": false,
    "milestone": null,
    "node_id": "I_kwDOABOYWc50m1OG",
    "number": 3213,
    "performed_via_github_app": null,
    "reactions": {
        "+1": 0,
        "-1": 0,
        "confused": 0,
        "eyes": 0,
        "heart": 0,
        "hooray": 0,
        "laugh": 0,
        "rocket": 0,
        "total_count": 0,
        "url": "https://api.github.com/repos/PrismarineJS/mineflayer/issues/3213/reactions"
    },
    "repository_url": "https://api.github.com/repos/PrismarineJS/mineflayer",
    "state": "open",
    "state_reason": null,
    "timeline_url": "https://api.github.com/repos/PrismarineJS/mineflayer/issues/3213/timeline",
    "title": "Bot treats foot-height entity as wall.",
    "updated_at": "2023-10-23T05:40:23Z",
    "url": "https://api.github.com/repos/PrismarineJS/mineflayer/issues/3213",
    "user": {
        "avatar_url": "https://avatars.githubusercontent.com/u/55368789?v=4",
        "events_url": "https://api.github.com/users/bainchild/events{/privacy}",
        "followers_url": "https://api.github.com/users/bainchild/followers",
        "following_url": "https://api.github.com/users/bainchild/following{/other_user}",
        "gists_url": "https://api.github.com/users/bainchild/gists{/gist_id}",
        "gravatar_id": "",
        "html_url": "https://github.com/bainchild",
        "id": 55368789,
        "login": "bainchild",
        "node_id": "MDQ6VXNlcjU1MzY4Nzg5",
        "organizations_url": "https://api.github.com/users/bainchild/orgs",
        "received_events_url": "https://api.github.com/users/bainchild/received_events",
        "repos_url": "https://api.github.com/users/bainchild/repos",
        "site_admin": false,
        "starred_url": "https://api.github.com/users/bainchild/starred{/owner}{/repo}",
        "subscriptions_url": "https://api.github.com/users/bainchild/subscriptions",
        "type": "User",
        "url": "https://api.github.com/users/bainchild"
    }
}