{
    "active_lock_reason": null,
    "assignee": null,
    "assignees": [],
    "author_association": "NONE",
    "body": "- [x] The [FAQ](https://github.com/PrismarineJS/mineflayer/blob/master/docs/FAQ.md) doesn't contain a resolution to my issue \r\n\r\n## Versions\r\n - mineflayer: 4.20.1\r\n - server: vanila | paper 1.20.6\r\n - node: 20.10.0\r\n\r\n## Detailed description of a problem\r\nI'm trying to connect a mineflayer bot to minecraft 1.20.6 server. It worked fine in 1.20.4, but when I updated the server to 1.20.6 it all the bots stopped connecting and it is giving me the error `Do not have protocol data for protocol version 766 (attempted to use 763 data)` How can I fix it? Thank you!\r\n\r\n![error](https://github.com/PrismarineJS/mineflayer/assets/116897242/a985b825-5621-45e7-83ea-4e6e2fb7a085)\r\n",
    "closed_at": "2024-05-05T04:34:16Z",
    "comment_data": [
        {
            "author_association": "MEMBER",
            "body": "The error is correct, 1.20.5+ is not currently supported",
            "created_at": "2024-05-05T04:25:29Z",
            "html_url": "https://github.com/PrismarineJS/mineflayer/issues/3371#issuecomment-2094577001",
            "id": 2094577001,
            "issue_url": "https://api.github.com/repos/PrismarineJS/mineflayer/issues/3371",
            "node_id": "IC_kwDOABOYWc582LVp",
            "performed_via_github_app": null,
            "reactions": {
                "+1": 0,
                "-1": 0,
                "confused": 0,
                "eyes": 0,
                "heart": 1,
                "hooray": 0,
                "laugh": 0,
                "rocket": 0,
                "total_count": 1,
                "url": "https://api.github.com/repos/PrismarineJS/mineflayer/issues/comments/2094577001/reactions"
            },
            "updated_at": "2024-05-05T04:25:29Z",
            "url": "https://api.github.com/repos/PrismarineJS/mineflayer/issues/comments/2094577001",
            "user": {
                "avatar_url": "https://avatars.githubusercontent.com/u/13713600?v=4",
                "events_url": "https://api.github.com/users/extremeheat/events{/privacy}",
                "followers_url": "https://api.github.com/users/extremeheat/followers",
                "following_url": "https://api.github.com/users/extremeheat/following{/other_user}",
                "gists_url": "https://api.github.com/users/extremeheat/gists{/gist_id}",
                "gravatar_id": "",
                "html_url": "https://github.com/extremeheat",
                "id": 13713600,
                "login": "extremeheat",
                "node_id": "MDQ6VXNlcjEzNzEzNjAw",
                "organizations_url": "https://api.github.com/users/extremeheat/orgs",
                "received_events_url": "https://api.github.com/users/extremeheat/received_events",
                "repos_url": "https://api.github.com/users/extremeheat/repos",
                "site_admin": false,
                "starred_url": "https://api.github.com/users/extremeheat/starred{/owner}{/repo}",
                "subscriptions_url": "https://api.github.com/users/extremeheat/subscriptions",
                "type": "User",
                "url": "https://api.github.com/users/extremeheat"
            }
        },
        {
            "author_association": "NONE",
            "body": "Okay, Thank you! @extremeheat ",
            "created_at": "2024-05-05T04:34:16Z",
            "html_url": "https://github.com/PrismarineJS/mineflayer/issues/3371#issuecomment-2094578268",
            "id": 2094578268,
            "issue_url": "https://api.github.com/repos/PrismarineJS/mineflayer/issues/3371",
            "node_id": "IC_kwDOABOYWc582Lpc",
            "performed_via_github_app": null,
            "reactions": {
                "+1": 0,
                "-1": 0,
                "confused": 0,
                "eyes": 0,
                "heart": 0,
                "hooray": 0,
                "laugh": 0,
                "rocket": 0,
                "total_count": 0,
                "url": "https://api.github.com/repos/PrismarineJS/mineflayer/issues/comments/2094578268/reactions"
            },
            "updated_at": "2024-05-05T04:34:16Z",
            "url": "https://api.github.com/repos/PrismarineJS/mineflayer/issues/comments/2094578268",
            "user": {
                "avatar_url": "https://avatars.githubusercontent.com/u/116897242?v=4",
                "events_url": "https://api.github.com/users/AlphaArchangel/events{/privacy}",
                "followers_url": "https://api.github.com/users/AlphaArchangel/followers",
                "following_url": "https://api.github.com/users/AlphaArchangel/following{/other_user}",
                "gists_url": "https://api.github.com/users/AlphaArchangel/gists{/gist_id}",
                "gravatar_id": "",
                "html_url": "https://github.com/AlphaArchangel",
                "id": 116897242,
                "login": "AlphaArchangel",
                "node_id": "U_kgDOBve12g",
                "organizations_url": "https://api.github.com/users/AlphaArchangel/orgs",
                "received_events_url": "https://api.github.com/users/AlphaArchangel/received_events",
                "repos_url": "https://api.github.com/users/AlphaArchangel/repos",
                "site_admin": false,
                "starred_url": "https://api.github.com/users/AlphaArchangel/starred{/owner}{/repo}",
                "subscriptions_url": "https://api.github.com/users/AlphaArchangel/subscriptions",
                "type": "User",
                "url": "https://api.github.com/users/AlphaArchangel"
            }
        },
        {
            "author_association": "NONE",
            "body": "Any idea on when this will be supported?",
            "created_at": "2024-05-07T19:05:08Z",
            "html_url": "https://github.com/PrismarineJS/mineflayer/issues/3371#issuecomment-2099116298",
            "id": 2099116298,
            "issue_url": "https://api.github.com/repos/PrismarineJS/mineflayer/issues/3371",
            "node_id": "IC_kwDOABOYWc59HfkK",
            "performed_via_github_app": null,
            "reactions": {
                "+1": 0,
                "-1": 0,
                "confused": 0,
                "eyes": 1,
                "heart": 0,
                "hooray": 0,
                "laugh": 0,
                "rocket": 0,
                "total_count": 1,
                "url": "https://api.github.com/repos/PrismarineJS/mineflayer/issues/comments/2099116298/reactions"
            },
            "updated_at": "2024-05-07T19:05:08Z",
            "url": "https://api.github.com/repos/PrismarineJS/mineflayer/issues/comments/2099116298",
            "user": {
                "avatar_url": "https://avatars.githubusercontent.com/u/17987686?v=4",
                "events_url": "https://api.github.com/users/MaxtorCoder/events{/privacy}",
                "followers_url": "https://api.github.com/users/MaxtorCoder/followers",
                "following_url": "https://api.github.com/users/MaxtorCoder/following{/other_user}",
                "gists_url": "https://api.github.com/users/MaxtorCoder/gists{/gist_id}",
                "gravatar_id": "",
                "html_url": "https://github.com/MaxtorCoder",
                "id": 17987686,
                "login": "MaxtorCoder",
                "node_id": "MDQ6VXNlcjE3OTg3Njg2",
                "organizations_url": "https://api.github.com/users/MaxtorCoder/orgs",
                "received_events_url": "https://api.github.com/users/MaxtorCoder/received_events",
                "repos_url": "https://api.github.com/users/MaxtorCoder/repos",
                "site_admin": false,
                "starred_url": "https://api.github.com/users/MaxtorCoder/starred{/owner}{/repo}",
                "subscriptions_url": "https://api.github.com/users/MaxtorCoder/subscriptions",
                "type": "User",
                "url": "https://api.github.com/users/MaxtorCoder"
            }
        }
    ],
    "comments": 3,
    "comments_url": "https://api.github.com/repos/PrismarineJS/mineflayer/issues/3371/comments",
    "created_at": "2024-05-05T04:24:11Z",
    "event_data": [
        {
            "actor": {
                "avatar_url": "https://avatars.githubusercontent.com/u/116897242?v=4",
                "events_url": "https://api.github.com/users/AlphaArchangel/events{/privacy}",
                "followers_url": "https://api.github.com/users/AlphaArchangel/followers",
                "following_url": "https://api.github.com/users/AlphaArchangel/following{/other_user}",
                "gists_url": "https://api.github.com/users/AlphaArchangel/gists{/gist_id}",
                "gravatar_id": "",
                "html_url": "https://github.com/AlphaArchangel",
                "id": 116897242,
                "login": "AlphaArchangel",
                "node_id": "U_kgDOBve12g",
                "organizations_url": "https://api.github.com/users/AlphaArchangel/orgs",
                "received_events_url": "https://api.github.com/users/AlphaArchangel/received_events",
                "repos_url": "https://api.github.com/users/AlphaArchangel/repos",
                "site_admin": false,
                "starred_url": "https://api.github.com/users/AlphaArchangel/starred{/owner}{/repo}",
                "subscriptions_url": "https://api.github.com/users/AlphaArchangel/subscriptions",
                "type": "User",
                "url": "https://api.github.com/users/AlphaArchangel"
            },
            "commit_id": null,
            "commit_url": null,
            "created_at": "2024-05-05T04:24:12Z",
            "event": "labeled",
            "id": 12706151292,
            "label": {
                "color": "F9D0C4",
                "name": "possible bug"
            },
            "node_id": "LE_lADOABOYWc6H25wfzwAAAAL1WHt8",
            "performed_via_github_app": null,
            "url": "https://api.github.com/repos/PrismarineJS/mineflayer/issues/events/12706151292"
        },
        {
            "actor": {
                "avatar_url": "https://avatars.githubusercontent.com/u/116897242?v=4",
                "events_url": "https://api.github.com/users/AlphaArchangel/events{/privacy}",
                "followers_url": "https://api.github.com/users/AlphaArchangel/followers",
                "following_url": "https://api.github.com/users/AlphaArchangel/following{/other_user}",
                "gists_url": "https://api.github.com/users/AlphaArchangel/gists{/gist_id}",
                "gravatar_id": "",
                "html_url": "https://github.com/AlphaArchangel",
                "id": 116897242,
                "login": "AlphaArchangel",
                "node_id": "U_kgDOBve12g",
                "organizations_url": "https://api.github.com/users/AlphaArchangel/orgs",
                "received_events_url": "https://api.github.com/users/AlphaArchangel/received_events",
                "repos_url": "https://api.github.com/users/AlphaArchangel/repos",
                "site_admin": false,
                "starred_url": "https://api.github.com/users/AlphaArchangel/starred{/owner}{/repo}",
                "subscriptions_url": "https://api.github.com/users/AlphaArchangel/subscriptions",
                "type": "User",
                "url": "https://api.github.com/users/AlphaArchangel"
            },
            "commit_id": null,
            "commit_url": null,
            "created_at": "2024-05-05T04:24:12Z",
            "event": "labeled",
            "id": 12706151295,
            "label": {
                "color": "bfdadc",
                "name": "Stage1"
            },
            "node_id": "LE_lADOABOYWc6H25wfzwAAAAL1WHt_",
            "performed_via_github_app": null,
            "url": "https://api.github.com/repos/PrismarineJS/mineflayer/issues/events/12706151295"
        },
        {
            "actor": {
                "avatar_url": "https://avatars.githubusercontent.com/u/116897242?v=4",
                "events_url": "https://api.github.com/users/AlphaArchangel/events{/privacy}",
                "followers_url": "https://api.github.com/users/AlphaArchangel/followers",
                "following_url": "https://api.github.com/users/AlphaArchangel/following{/other_user}",
                "gists_url": "https://api.github.com/users/AlphaArchangel/gists{/gist_id}",
                "gravatar_id": "",
                "html_url": "https://github.com/AlphaArchangel",
                "id": 116897242,
                "login": "AlphaArchangel",
                "node_id": "U_kgDOBve12g",
                "organizations_url": "https://api.github.com/users/AlphaArchangel/orgs",
                "received_events_url": "https://api.github.com/users/AlphaArchangel/received_events",
                "repos_url": "https://api.github.com/users/AlphaArchangel/repos",
                "site_admin": false,
                "starred_url": "https://api.github.com/users/AlphaArchangel/starred{/owner}{/repo}",
                "subscriptions_url": "https://api.github.com/users/AlphaArchangel/subscriptions",
                "type": "User",
                "url": "https://api.github.com/users/AlphaArchangel"
            },
            "commit_id": null,
            "commit_url": null,
            "created_at": "2024-05-05T04:34:16Z",
            "event": "closed",
            "id": 12706175189,
            "node_id": "CE_lADOABOYWc6H25wfzwAAAAL1WNjV",
            "performed_via_github_app": null,
            "state_reason": null,
            "url": "https://api.github.com/repos/PrismarineJS/mineflayer/issues/events/12706175189"
        },
        {
            "actor": {
                "avatar_url": "https://avatars.githubusercontent.com/u/13713600?v=4",
                "events_url": "https://api.github.com/users/extremeheat/events{/privacy}",
                "followers_url": "https://api.github.com/users/extremeheat/followers",
                "following_url": "https://api.github.com/users/extremeheat/following{/other_user}",
                "gists_url": "https://api.github.com/users/extremeheat/gists{/gist_id}",
                "gravatar_id": "",
                "html_url": "https://github.com/extremeheat",
                "id": 13713600,
                "login": "extremeheat",
                "node_id": "MDQ6VXNlcjEzNzEzNjAw",
                "organizations_url": "https://api.github.com/users/extremeheat/orgs",
                "received_events_url": "https://api.github.com/users/extremeheat/received_events",
                "repos_url": "https://api.github.com/users/extremeheat/repos",
                "site_admin": false,
                "starred_url": "https://api.github.com/users/extremeheat/starred{/owner}{/repo}",
                "subscriptions_url": "https://api.github.com/users/extremeheat/subscriptions",
                "type": "User",
                "url": "https://api.github.com/users/extremeheat"
            },
            "commit_id": null,
            "commit_url": null,
            "created_at": "2024-05-05T04:34:17Z",
            "event": "mentioned",
            "id": 12706175240,
            "node_id": "MEE_lADOABOYWc6H25wfzwAAAAL1WNkI",
            "performed_via_github_app": null,
            "url": "https://api.github.com/repos/PrismarineJS/mineflayer/issues/events/12706175240"
        },
        {
            "actor": {
                "avatar_url": "https://avatars.githubusercontent.com/u/13713600?v=4",
                "events_url": "https://api.github.com/users/extremeheat/events{/privacy}",
                "followers_url": "https://api.github.com/users/extremeheat/followers",
                "following_url": "https://api.github.com/users/extremeheat/following{/other_user}",
                "gists_url": "https://api.github.com/users/extremeheat/gists{/gist_id}",
                "gravatar_id": "",
                "html_url": "https://github.com/extremeheat",
                "id": 13713600,
                "login": "extremeheat",
                "node_id": "MDQ6VXNlcjEzNzEzNjAw",
                "organizations_url": "https://api.github.com/users/extremeheat/orgs",
                "received_events_url": "https://api.github.com/users/extremeheat/received_events",
                "repos_url": "https://api.github.com/users/extremeheat/repos",
                "site_admin": false,
                "starred_url": "https://api.github.com/users/extremeheat/starred{/owner}{/repo}",
                "subscriptions_url": "https://api.github.com/users/extremeheat/subscriptions",
                "type": "User",
                "url": "https://api.github.com/users/extremeheat"
            },
            "commit_id": null,
            "commit_url": null,
            "created_at": "2024-05-05T04:34:17Z",
            "event": "subscribed",
            "id": 12706175245,
            "node_id": "SE_lADOABOYWc6H25wfzwAAAAL1WNkN",
            "performed_via_github_app": null,
            "url": "https://api.github.com/repos/PrismarineJS/mineflayer/issues/events/12706175245"
        }
    ],
    "events_url": "https://api.github.com/repos/PrismarineJS/mineflayer/issues/3371/events",
    "html_url": "https://github.com/PrismarineJS/mineflayer/issues/3371",
    "id": 2279316511,
    "labels": [
        {
            "color": "F9D0C4",
            "default": false,
            "description": "",
            "id": 1346729768,
            "name": "possible bug",
            "node_id": "MDU6TGFiZWwxMzQ2NzI5NzY4",
            "url": "https://api.github.com/repos/PrismarineJS/mineflayer/labels/possible%20bug"
        },
        {
            "color": "bfdadc",
            "default": false,
            "description": "just created by someone new to the project, we don't know yet if it deserves an implementation / a f",
            "id": 2720118317,
            "name": "Stage1",
            "node_id": "MDU6TGFiZWwyNzIwMTE4MzE3",
            "url": "https://api.github.com/repos/PrismarineJS/mineflayer/labels/Stage1"
        }
    ],
    "labels_url": "https://api.github.com/repos/PrismarineJS/mineflayer/issues/3371/labels{/name}",
    "locked": false,
    "milestone": null,
    "node_id": "I_kwDOABOYWc6H25wf",
    "number": 3371,
    "performed_via_github_app": null,
    "reactions": {
        "+1": 0,
        "-1": 0,
        "confused": 0,
        "eyes": 0,
        "heart": 0,
        "hooray": 0,
        "laugh": 0,
        "rocket": 0,
        "total_count": 0,
        "url": "https://api.github.com/repos/PrismarineJS/mineflayer/issues/3371/reactions"
    },
    "repository_url": "https://api.github.com/repos/PrismarineJS/mineflayer",
    "state": "closed",
    "state_reason": "completed",
    "timeline_url": "https://api.github.com/repos/PrismarineJS/mineflayer/issues/3371/timeline",
    "title": "Do not have protocol data for protocol version 766 (attempted to use 763 data)",
    "updated_at": "2024-05-07T19:05:09Z",
    "url": "https://api.github.com/repos/PrismarineJS/mineflayer/issues/3371",
    "user": {
        "avatar_url": "https://avatars.githubusercontent.com/u/116897242?v=4",
        "events_url": "https://api.github.com/users/AlphaArchangel/events{/privacy}",
        "followers_url": "https://api.github.com/users/AlphaArchangel/followers",
        "following_url": "https://api.github.com/users/AlphaArchangel/following{/other_user}",
        "gists_url": "https://api.github.com/users/AlphaArchangel/gists{/gist_id}",
        "gravatar_id": "",
        "html_url": "https://github.com/AlphaArchangel",
        "id": 116897242,
        "login": "AlphaArchangel",
        "node_id": "U_kgDOBve12g",
        "organizations_url": "https://api.github.com/users/AlphaArchangel/orgs",
        "received_events_url": "https://api.github.com/users/AlphaArchangel/received_events",
        "repos_url": "https://api.github.com/users/AlphaArchangel/repos",
        "site_admin": false,
        "starred_url": "https://api.github.com/users/AlphaArchangel/starred{/owner}{/repo}",
        "subscriptions_url": "https://api.github.com/users/AlphaArchangel/subscriptions",
        "type": "User",
        "url": "https://api.github.com/users/AlphaArchangel"
    }
}