{
    "active_lock_reason": null,
    "assignee": null,
    "assignees": [],
    "author_association": "CONTRIBUTOR",
    "body": "My bot is getting kicked from my 1.10.2 server\n\nHere's my error.\n\n> I got kicked for {\"text\":\"Outdated client! Please use 1.10.2\"}\n\nIs minecraft-protocol outdated? Is there some way I can manually change the version sent to the server?\n",
    "closed_at": "2016-09-12T09:09:52Z",
    "comment_data": [
        {
            "author_association": "MEMBER",
            "body": "You can try to specify the version in the constructor :\n\n``` js\nvar mc = require('minecraft-protocol');\nmc.createClient({\n  version: '1.10',\n  // ... Other options\n});\n```\n\nThough I think it's supposed to find the version automatically.\n\nOn Jul 31, 2016 8:05 AM, \"safazi\" notifications@github.com wrote:\n\n> My bot is getting kicked. from my 1.10.2 server\n> \n> Here's my error.\n> \n> I got kicked for {\"text\":\"Outdated client! Please use 1.10.2\"}\n> \n> Is minecraft-protocol outdated? Is there some way I can manually change\n> the version sent to the server?\n> \n> —\n> You are receiving this because you are subscribed to this thread.\n> Reply to this email directly, view it on GitHub\n> https://github.com/PrismarineJS/mineflayer/issues/443, or mute the\n> thread\n> https://github.com/notifications/unsubscribe-auth/ABBRBtEyfx1H6tH8pXlIJeOVptYCQjM_ks5qbDsVgaJpZM4JY96i\n> .\n",
            "created_at": "2016-07-31T07:34:21Z",
            "html_url": "https://github.com/PrismarineJS/mineflayer/issues/443#issuecomment-236416115",
            "id": 236416115,
            "issue_url": "https://api.github.com/repos/PrismarineJS/mineflayer/issues/443",
            "node_id": "MDEyOklzc3VlQ29tbWVudDIzNjQxNjExNQ==",
            "performed_via_github_app": null,
            "reactions": {
                "+1": 0,
                "-1": 0,
                "confused": 0,
                "eyes": 0,
                "heart": 0,
                "hooray": 0,
                "laugh": 0,
                "rocket": 0,
                "total_count": 0,
                "url": "https://api.github.com/repos/PrismarineJS/mineflayer/issues/comments/236416115/reactions"
            },
            "updated_at": "2016-07-31T07:34:21Z",
            "url": "https://api.github.com/repos/PrismarineJS/mineflayer/issues/comments/236416115",
            "user": {
                "avatar_url": "https://avatars.githubusercontent.com/u/1069318?v=4",
                "events_url": "https://api.github.com/users/roblabla/events{/privacy}",
                "followers_url": "https://api.github.com/users/roblabla/followers",
                "following_url": "https://api.github.com/users/roblabla/following{/other_user}",
                "gists_url": "https://api.github.com/users/roblabla/gists{/gist_id}",
                "gravatar_id": "",
                "html_url": "https://github.com/roblabla",
                "id": 1069318,
                "login": "roblabla",
                "node_id": "MDQ6VXNlcjEwNjkzMTg=",
                "organizations_url": "https://api.github.com/users/roblabla/orgs",
                "received_events_url": "https://api.github.com/users/roblabla/received_events",
                "repos_url": "https://api.github.com/users/roblabla/repos",
                "site_admin": false,
                "starred_url": "https://api.github.com/users/roblabla/starred{/owner}{/repo}",
                "subscriptions_url": "https://api.github.com/users/roblabla/subscriptions",
                "type": "User",
                "url": "https://api.github.com/users/roblabla"
            }
        },
        {
            "author_association": "MEMBER",
            "body": "Version:false for auto detection.\nBut that's for node-minecraft-protocol\nMineflayer doesn't quite support anything but 1.8 yet.\nFeel free to contribute in supporting 1.10 though !\n\nOn Sun, Jul 31, 2016, 09:34 Robin Lambertz notifications@github.com wrote:\n\n> You can try to specify the version in the constructor :\n> \n> ``` js\n> var mc = require('minecraft-protocol');\n> mc.createClient({\n> version: '1.10',\n> // ... Other options\n> });\n> ```\n> \n> Though I think it's supposed to find the version automatically.\n> \n> On Jul 31, 2016 8:05 AM, \"safazi\" notifications@github.com wrote:\n> \n> > My bot is getting kicked. from my 1.10.2 server\n> > \n> > Here's my error.\n> > \n> > I got kicked for {\"text\":\"Outdated client! Please use 1.10.2\"}\n> > \n> > Is minecraft-protocol outdated? Is there some way I can manually change\n> > the version sent to the server?\n> > \n> > —\n> > You are receiving this because you are subscribed to this thread.\n> > Reply to this email directly, view it on GitHub\n> > https://github.com/PrismarineJS/mineflayer/issues/443, or mute the\n> > thread\n> > <\n> > https://github.com/notifications/unsubscribe-auth/ABBRBtEyfx1H6tH8pXlIJeOVptYCQjM_ks5qbDsVgaJpZM4JY96i\n> > \n> > .\n> \n> —\n> You are receiving this because you are subscribed to this thread.\n> Reply to this email directly, view it on GitHub\n> https://github.com/PrismarineJS/mineflayer/issues/443#issuecomment-236416115,\n> or mute the thread\n> https://github.com/notifications/unsubscribe-auth/ACPN_nS1Ymi6E41FlJ-x8NOvIWCSqw1iks5qbE_9gaJpZM4JY96i\n> .\n",
            "created_at": "2016-07-31T10:10:31Z",
            "html_url": "https://github.com/PrismarineJS/mineflayer/issues/443#issuecomment-236421836",
            "id": 236421836,
            "issue_url": "https://api.github.com/repos/PrismarineJS/mineflayer/issues/443",
            "node_id": "MDEyOklzc3VlQ29tbWVudDIzNjQyMTgzNg==",
            "performed_via_github_app": null,
            "reactions": {
                "+1": 0,
                "-1": 0,
                "confused": 0,
                "eyes": 0,
                "heart": 0,
                "hooray": 0,
                "laugh": 0,
                "rocket": 0,
                "total_count": 0,
                "url": "https://api.github.com/repos/PrismarineJS/mineflayer/issues/comments/236421836/reactions"
            },
            "updated_at": "2016-07-31T10:10:31Z",
            "url": "https://api.github.com/repos/PrismarineJS/mineflayer/issues/comments/236421836",
            "user": {
                "avatar_url": "https://avatars.githubusercontent.com/u/2346494?v=4",
                "events_url": "https://api.github.com/users/rom1504/events{/privacy}",
                "followers_url": "https://api.github.com/users/rom1504/followers",
                "following_url": "https://api.github.com/users/rom1504/following{/other_user}",
                "gists_url": "https://api.github.com/users/rom1504/gists{/gist_id}",
                "gravatar_id": "",
                "html_url": "https://github.com/rom1504",
                "id": 2346494,
                "login": "rom1504",
                "node_id": "MDQ6VXNlcjIzNDY0OTQ=",
                "organizations_url": "https://api.github.com/users/rom1504/orgs",
                "received_events_url": "https://api.github.com/users/rom1504/received_events",
                "repos_url": "https://api.github.com/users/rom1504/repos",
                "site_admin": false,
                "starred_url": "https://api.github.com/users/rom1504/starred{/owner}{/repo}",
                "subscriptions_url": "https://api.github.com/users/rom1504/subscriptions",
                "type": "User",
                "url": "https://api.github.com/users/rom1504"
            }
        },
        {
            "author_association": "NONE",
            "body": "Hi Rom1504!  What areas need help to get MF to 1.10?  Is there a list we can poke at and see what can be done?  Or is it a chaos cloud that we cant really attack in small slices?  I see that MCP is already supporting 1.10, so I suspect you have a clear idea what needs doing already.\n",
            "created_at": "2016-09-10T01:35:35Z",
            "html_url": "https://github.com/PrismarineJS/mineflayer/issues/443#issuecomment-246079857",
            "id": 246079857,
            "issue_url": "https://api.github.com/repos/PrismarineJS/mineflayer/issues/443",
            "node_id": "MDEyOklzc3VlQ29tbWVudDI0NjA3OTg1Nw==",
            "performed_via_github_app": null,
            "reactions": {
                "+1": 0,
                "-1": 0,
                "confused": 0,
                "eyes": 0,
                "heart": 0,
                "hooray": 0,
                "laugh": 0,
                "rocket": 0,
                "total_count": 0,
                "url": "https://api.github.com/repos/PrismarineJS/mineflayer/issues/comments/246079857/reactions"
            },
            "updated_at": "2016-09-10T01:35:35Z",
            "url": "https://api.github.com/repos/PrismarineJS/mineflayer/issues/comments/246079857",
            "user": {
                "avatar_url": "https://avatars.githubusercontent.com/u/1197883?v=4",
                "events_url": "https://api.github.com/users/growlf/events{/privacy}",
                "followers_url": "https://api.github.com/users/growlf/followers",
                "following_url": "https://api.github.com/users/growlf/following{/other_user}",
                "gists_url": "https://api.github.com/users/growlf/gists{/gist_id}",
                "gravatar_id": "",
                "html_url": "https://github.com/growlf",
                "id": 1197883,
                "login": "growlf",
                "node_id": "MDQ6VXNlcjExOTc4ODM=",
                "organizations_url": "https://api.github.com/users/growlf/orgs",
                "received_events_url": "https://api.github.com/users/growlf/received_events",
                "repos_url": "https://api.github.com/users/growlf/repos",
                "site_admin": false,
                "starred_url": "https://api.github.com/users/growlf/starred{/owner}{/repo}",
                "subscriptions_url": "https://api.github.com/users/growlf/subscriptions",
                "type": "User",
                "url": "https://api.github.com/users/growlf"
            }
        },
        {
            "author_association": "NONE",
            "body": "@growlf The biggest stepping stone is to get the chunk parser updated to support 1.9+ (#417)\n",
            "created_at": "2016-09-10T01:50:03Z",
            "html_url": "https://github.com/PrismarineJS/mineflayer/issues/443#issuecomment-246080789",
            "id": 246080789,
            "issue_url": "https://api.github.com/repos/PrismarineJS/mineflayer/issues/443",
            "node_id": "MDEyOklzc3VlQ29tbWVudDI0NjA4MDc4OQ==",
            "performed_via_github_app": null,
            "reactions": {
                "+1": 0,
                "-1": 0,
                "confused": 0,
                "eyes": 0,
                "heart": 0,
                "hooray": 0,
                "laugh": 0,
                "rocket": 0,
                "total_count": 0,
                "url": "https://api.github.com/repos/PrismarineJS/mineflayer/issues/comments/246080789/reactions"
            },
            "updated_at": "2016-09-10T01:50:03Z",
            "url": "https://api.github.com/repos/PrismarineJS/mineflayer/issues/comments/246080789",
            "user": {
                "avatar_url": "https://avatars.githubusercontent.com/u/6800855?v=4",
                "events_url": "https://api.github.com/users/imnofox/events{/privacy}",
                "followers_url": "https://api.github.com/users/imnofox/followers",
                "following_url": "https://api.github.com/users/imnofox/following{/other_user}",
                "gists_url": "https://api.github.com/users/imnofox/gists{/gist_id}",
                "gravatar_id": "",
                "html_url": "https://github.com/imnofox",
                "id": 6800855,
                "login": "imnofox",
                "node_id": "MDQ6VXNlcjY4MDA4NTU=",
                "organizations_url": "https://api.github.com/users/imnofox/orgs",
                "received_events_url": "https://api.github.com/users/imnofox/received_events",
                "repos_url": "https://api.github.com/users/imnofox/repos",
                "site_admin": false,
                "starred_url": "https://api.github.com/users/imnofox/starred{/owner}{/repo}",
                "subscriptions_url": "https://api.github.com/users/imnofox/subscriptions",
                "type": "User",
                "url": "https://api.github.com/users/imnofox"
            }
        },
        {
            "author_association": "MEMBER",
            "body": "closed in favor of #449 \n",
            "created_at": "2016-09-12T09:09:52Z",
            "html_url": "https://github.com/PrismarineJS/mineflayer/issues/443#issuecomment-246290625",
            "id": 246290625,
            "issue_url": "https://api.github.com/repos/PrismarineJS/mineflayer/issues/443",
            "node_id": "MDEyOklzc3VlQ29tbWVudDI0NjI5MDYyNQ==",
            "performed_via_github_app": null,
            "reactions": {
                "+1": 0,
                "-1": 0,
                "confused": 0,
                "eyes": 0,
                "heart": 0,
                "hooray": 0,
                "laugh": 0,
                "rocket": 0,
                "total_count": 0,
                "url": "https://api.github.com/repos/PrismarineJS/mineflayer/issues/comments/246290625/reactions"
            },
            "updated_at": "2016-09-12T09:09:52Z",
            "url": "https://api.github.com/repos/PrismarineJS/mineflayer/issues/comments/246290625",
            "user": {
                "avatar_url": "https://avatars.githubusercontent.com/u/2346494?v=4",
                "events_url": "https://api.github.com/users/rom1504/events{/privacy}",
                "followers_url": "https://api.github.com/users/rom1504/followers",
                "following_url": "https://api.github.com/users/rom1504/following{/other_user}",
                "gists_url": "https://api.github.com/users/rom1504/gists{/gist_id}",
                "gravatar_id": "",
                "html_url": "https://github.com/rom1504",
                "id": 2346494,
                "login": "rom1504",
                "node_id": "MDQ6VXNlcjIzNDY0OTQ=",
                "organizations_url": "https://api.github.com/users/rom1504/orgs",
                "received_events_url": "https://api.github.com/users/rom1504/received_events",
                "repos_url": "https://api.github.com/users/rom1504/repos",
                "site_admin": false,
                "starred_url": "https://api.github.com/users/rom1504/starred{/owner}{/repo}",
                "subscriptions_url": "https://api.github.com/users/rom1504/subscriptions",
                "type": "User",
                "url": "https://api.github.com/users/rom1504"
            }
        }
    ],
    "comments": 5,
    "comments_url": "https://api.github.com/repos/PrismarineJS/mineflayer/issues/443/comments",
    "created_at": "2016-07-31T06:05:09Z",
    "event_data": [
        {
            "actor": {
                "avatar_url": "https://avatars.githubusercontent.com/u/1197883?v=4",
                "events_url": "https://api.github.com/users/growlf/events{/privacy}",
                "followers_url": "https://api.github.com/users/growlf/followers",
                "following_url": "https://api.github.com/users/growlf/following{/other_user}",
                "gists_url": "https://api.github.com/users/growlf/gists{/gist_id}",
                "gravatar_id": "",
                "html_url": "https://github.com/growlf",
                "id": 1197883,
                "login": "growlf",
                "node_id": "MDQ6VXNlcjExOTc4ODM=",
                "organizations_url": "https://api.github.com/users/growlf/orgs",
                "received_events_url": "https://api.github.com/users/growlf/received_events",
                "repos_url": "https://api.github.com/users/growlf/repos",
                "site_admin": false,
                "starred_url": "https://api.github.com/users/growlf/starred{/owner}{/repo}",
                "subscriptions_url": "https://api.github.com/users/growlf/subscriptions",
                "type": "User",
                "url": "https://api.github.com/users/growlf"
            },
            "commit_id": null,
            "commit_url": null,
            "created_at": "2016-09-10T01:50:03Z",
            "event": "mentioned",
            "id": 784755024,
            "node_id": "MDE0Ok1lbnRpb25lZEV2ZW50Nzg0NzU1MDI0",
            "performed_via_github_app": null,
            "url": "https://api.github.com/repos/PrismarineJS/mineflayer/issues/events/784755024"
        },
        {
            "actor": {
                "avatar_url": "https://avatars.githubusercontent.com/u/1197883?v=4",
                "events_url": "https://api.github.com/users/growlf/events{/privacy}",
                "followers_url": "https://api.github.com/users/growlf/followers",
                "following_url": "https://api.github.com/users/growlf/following{/other_user}",
                "gists_url": "https://api.github.com/users/growlf/gists{/gist_id}",
                "gravatar_id": "",
                "html_url": "https://github.com/growlf",
                "id": 1197883,
                "login": "growlf",
                "node_id": "MDQ6VXNlcjExOTc4ODM=",
                "organizations_url": "https://api.github.com/users/growlf/orgs",
                "received_events_url": "https://api.github.com/users/growlf/received_events",
                "repos_url": "https://api.github.com/users/growlf/repos",
                "site_admin": false,
                "starred_url": "https://api.github.com/users/growlf/starred{/owner}{/repo}",
                "subscriptions_url": "https://api.github.com/users/growlf/subscriptions",
                "type": "User",
                "url": "https://api.github.com/users/growlf"
            },
            "commit_id": null,
            "commit_url": null,
            "created_at": "2016-09-10T01:50:03Z",
            "event": "subscribed",
            "id": 784755025,
            "node_id": "MDE1OlN1YnNjcmliZWRFdmVudDc4NDc1NTAyNQ==",
            "performed_via_github_app": null,
            "url": "https://api.github.com/repos/PrismarineJS/mineflayer/issues/events/784755025"
        },
        {
            "actor": {
                "avatar_url": "https://avatars.githubusercontent.com/u/2346494?v=4",
                "events_url": "https://api.github.com/users/rom1504/events{/privacy}",
                "followers_url": "https://api.github.com/users/rom1504/followers",
                "following_url": "https://api.github.com/users/rom1504/following{/other_user}",
                "gists_url": "https://api.github.com/users/rom1504/gists{/gist_id}",
                "gravatar_id": "",
                "html_url": "https://github.com/rom1504",
                "id": 2346494,
                "login": "rom1504",
                "node_id": "MDQ6VXNlcjIzNDY0OTQ=",
                "organizations_url": "https://api.github.com/users/rom1504/orgs",
                "received_events_url": "https://api.github.com/users/rom1504/received_events",
                "repos_url": "https://api.github.com/users/rom1504/repos",
                "site_admin": false,
                "starred_url": "https://api.github.com/users/rom1504/starred{/owner}{/repo}",
                "subscriptions_url": "https://api.github.com/users/rom1504/subscriptions",
                "type": "User",
                "url": "https://api.github.com/users/rom1504"
            },
            "commit_id": null,
            "commit_url": null,
            "created_at": "2016-09-12T09:09:52Z",
            "event": "closed",
            "id": 785658104,
            "node_id": "MDExOkNsb3NlZEV2ZW50Nzg1NjU4MTA0",
            "performed_via_github_app": null,
            "state_reason": null,
            "url": "https://api.github.com/repos/PrismarineJS/mineflayer/issues/events/785658104"
        }
    ],
    "events_url": "https://api.github.com/repos/PrismarineJS/mineflayer/issues/443/events",
    "html_url": "https://github.com/PrismarineJS/mineflayer/issues/443",
    "id": 168503815,
    "labels": [],
    "labels_url": "https://api.github.com/repos/PrismarineJS/mineflayer/issues/443/labels{/name}",
    "locked": false,
    "milestone": null,
    "node_id": "MDU6SXNzdWUxNjg1MDM4MTU=",
    "number": 443,
    "performed_via_github_app": null,
    "reactions": {
        "+1": 0,
        "-1": 0,
        "confused": 0,
        "eyes": 0,
        "heart": 0,
        "hooray": 0,
        "laugh": 0,
        "rocket": 0,
        "total_count": 0,
        "url": "https://api.github.com/repos/PrismarineJS/mineflayer/issues/443/reactions"
    },
    "repository_url": "https://api.github.com/repos/PrismarineJS/mineflayer",
    "state": "closed",
    "state_reason": "completed",
    "timeline_url": "https://api.github.com/repos/PrismarineJS/mineflayer/issues/443/timeline",
    "title": "Bot getting kicked for outdated client?",
    "updated_at": "2016-09-12T09:09:52Z",
    "url": "https://api.github.com/repos/PrismarineJS/mineflayer/issues/443",
    "user": {
        "avatar_url": "https://avatars.githubusercontent.com/u/16279574?v=4",
        "events_url": "https://api.github.com/users/safazi/events{/privacy}",
        "followers_url": "https://api.github.com/users/safazi/followers",
        "following_url": "https://api.github.com/users/safazi/following{/other_user}",
        "gists_url": "https://api.github.com/users/safazi/gists{/gist_id}",
        "gravatar_id": "",
        "html_url": "https://github.com/safazi",
        "id": 16279574,
        "login": "safazi",
        "node_id": "MDQ6VXNlcjE2Mjc5NTc0",
        "organizations_url": "https://api.github.com/users/safazi/orgs",
        "received_events_url": "https://api.github.com/users/safazi/received_events",
        "repos_url": "https://api.github.com/users/safazi/repos",
        "site_admin": false,
        "starred_url": "https://api.github.com/users/safazi/starred{/owner}{/repo}",
        "subscriptions_url": "https://api.github.com/users/safazi/subscriptions",
        "type": "User",
        "url": "https://api.github.com/users/safazi"
    }
}