{
    "active_lock_reason": null,
    "assignee": null,
    "assignees": [],
    "author_association": "MEMBER",
    "body": "so we can have some information like\r\n\r\n- what happens when using a minefalyer example?\r\n- what happens when using a nmp example?\r\n- what mineflyer version?\r\n- what server version?\r\n- which server?\r\n- what's the output of DEBUG=\"minecraft-protocol\"?\r\n- what's the error msg?\r\n- what script is used?\r\n- ...",
    "closed_at": "2018-07-29T13:05:04Z",
    "comment_data": [
        {
            "author_association": "MEMBER",
            "body": "yeah would be nice https://github.com/PrismarineJS/mineflayer/blob/master/doc/contribute.md#reporting-bugs\r\n\r\nhttps://github.com/blog/2111-issue-and-pull-request-templates",
            "created_at": "2017-07-09T10:50:44Z",
            "html_url": "https://github.com/PrismarineJS/mineflayer/issues/552#issuecomment-313912637",
            "id": 313912637,
            "issue_url": "https://api.github.com/repos/PrismarineJS/mineflayer/issues/552",
            "node_id": "MDEyOklzc3VlQ29tbWVudDMxMzkxMjYzNw==",
            "performed_via_github_app": null,
            "reactions": {
                "+1": 0,
                "-1": 0,
                "confused": 0,
                "eyes": 0,
                "heart": 0,
                "hooray": 0,
                "laugh": 0,
                "rocket": 0,
                "total_count": 0,
                "url": "https://api.github.com/repos/PrismarineJS/mineflayer/issues/comments/313912637/reactions"
            },
            "updated_at": "2017-07-09T10:50:44Z",
            "url": "https://api.github.com/repos/PrismarineJS/mineflayer/issues/comments/313912637",
            "user": {
                "avatar_url": "https://avatars.githubusercontent.com/u/2346494?v=4",
                "events_url": "https://api.github.com/users/rom1504/events{/privacy}",
                "followers_url": "https://api.github.com/users/rom1504/followers",
                "following_url": "https://api.github.com/users/rom1504/following{/other_user}",
                "gists_url": "https://api.github.com/users/rom1504/gists{/gist_id}",
                "gravatar_id": "",
                "html_url": "https://github.com/rom1504",
                "id": 2346494,
                "login": "rom1504",
                "node_id": "MDQ6VXNlcjIzNDY0OTQ=",
                "organizations_url": "https://api.github.com/users/rom1504/orgs",
                "received_events_url": "https://api.github.com/users/rom1504/received_events",
                "repos_url": "https://api.github.com/users/rom1504/repos",
                "site_admin": false,
                "starred_url": "https://api.github.com/users/rom1504/starred{/owner}{/repo}",
                "subscriptions_url": "https://api.github.com/users/rom1504/subscriptions",
                "type": "User",
                "url": "https://api.github.com/users/rom1504"
            }
        },
        {
            "author_association": "MEMBER",
            "body": "https://github.com/PrismarineJS/mineflayer/blob/master/docs/issue_template.md\r\n\r\nthanks for the example of content @plexigras ",
            "created_at": "2018-07-29T13:05:04Z",
            "html_url": "https://github.com/PrismarineJS/mineflayer/issues/552#issuecomment-408676587",
            "id": 408676587,
            "issue_url": "https://api.github.com/repos/PrismarineJS/mineflayer/issues/552",
            "node_id": "MDEyOklzc3VlQ29tbWVudDQwODY3NjU4Nw==",
            "performed_via_github_app": null,
            "reactions": {
                "+1": 0,
                "-1": 0,
                "confused": 0,
                "eyes": 0,
                "heart": 0,
                "hooray": 0,
                "laugh": 0,
                "rocket": 0,
                "total_count": 0,
                "url": "https://api.github.com/repos/PrismarineJS/mineflayer/issues/comments/408676587/reactions"
            },
            "updated_at": "2018-07-29T13:05:04Z",
            "url": "https://api.github.com/repos/PrismarineJS/mineflayer/issues/comments/408676587",
            "user": {
                "avatar_url": "https://avatars.githubusercontent.com/u/2346494?v=4",
                "events_url": "https://api.github.com/users/rom1504/events{/privacy}",
                "followers_url": "https://api.github.com/users/rom1504/followers",
                "following_url": "https://api.github.com/users/rom1504/following{/other_user}",
                "gists_url": "https://api.github.com/users/rom1504/gists{/gist_id}",
                "gravatar_id": "",
                "html_url": "https://github.com/rom1504",
                "id": 2346494,
                "login": "rom1504",
                "node_id": "MDQ6VXNlcjIzNDY0OTQ=",
                "organizations_url": "https://api.github.com/users/rom1504/orgs",
                "received_events_url": "https://api.github.com/users/rom1504/received_events",
                "repos_url": "https://api.github.com/users/rom1504/repos",
                "site_admin": false,
                "starred_url": "https://api.github.com/users/rom1504/starred{/owner}{/repo}",
                "subscriptions_url": "https://api.github.com/users/rom1504/subscriptions",
                "type": "User",
                "url": "https://api.github.com/users/rom1504"
            }
        }
    ],
    "comments": 2,
    "comments_url": "https://api.github.com/repos/PrismarineJS/mineflayer/issues/552/comments",
    "created_at": "2017-07-04T11:09:46Z",
    "event_data": [
        {
            "actor": {
                "avatar_url": "https://avatars.githubusercontent.com/u/2346494?v=4",
                "events_url": "https://api.github.com/users/rom1504/events{/privacy}",
                "followers_url": "https://api.github.com/users/rom1504/followers",
                "following_url": "https://api.github.com/users/rom1504/following{/other_user}",
                "gists_url": "https://api.github.com/users/rom1504/gists{/gist_id}",
                "gravatar_id": "",
                "html_url": "https://github.com/rom1504",
                "id": 2346494,
                "login": "rom1504",
                "node_id": "MDQ6VXNlcjIzNDY0OTQ=",
                "organizations_url": "https://api.github.com/users/rom1504/orgs",
                "received_events_url": "https://api.github.com/users/rom1504/received_events",
                "repos_url": "https://api.github.com/users/rom1504/repos",
                "site_admin": false,
                "starred_url": "https://api.github.com/users/rom1504/starred{/owner}{/repo}",
                "subscriptions_url": "https://api.github.com/users/rom1504/subscriptions",
                "type": "User",
                "url": "https://api.github.com/users/rom1504"
            },
            "commit_id": null,
            "commit_url": null,
            "created_at": "2017-07-10T14:01:45Z",
            "event": "labeled",
            "id": 1156848692,
            "label": {
                "color": "d4c5f9",
                "name": "documentation"
            },
            "node_id": "MDEyOkxhYmVsZWRFdmVudDExNTY4NDg2OTI=",
            "performed_via_github_app": null,
            "url": "https://api.github.com/repos/PrismarineJS/mineflayer/issues/events/1156848692"
        },
        {
            "actor": {
                "avatar_url": "https://avatars.githubusercontent.com/u/8838132?v=4",
                "events_url": "https://api.github.com/users/plexigras/events{/privacy}",
                "followers_url": "https://api.github.com/users/plexigras/followers",
                "following_url": "https://api.github.com/users/plexigras/following{/other_user}",
                "gists_url": "https://api.github.com/users/plexigras/gists{/gist_id}",
                "gravatar_id": "",
                "html_url": "https://github.com/plexigras",
                "id": 8838132,
                "login": "plexigras",
                "node_id": "MDQ6VXNlcjg4MzgxMzI=",
                "organizations_url": "https://api.github.com/users/plexigras/orgs",
                "received_events_url": "https://api.github.com/users/plexigras/received_events",
                "repos_url": "https://api.github.com/users/plexigras/repos",
                "site_admin": false,
                "starred_url": "https://api.github.com/users/plexigras/starred{/owner}{/repo}",
                "subscriptions_url": "https://api.github.com/users/plexigras/subscriptions",
                "type": "User",
                "url": "https://api.github.com/users/plexigras"
            },
            "commit_id": null,
            "commit_url": null,
            "created_at": "2018-07-29T13:05:04Z",
            "event": "mentioned",
            "id": 1758880915,
            "node_id": "MDE0Ok1lbnRpb25lZEV2ZW50MTc1ODg4MDkxNQ==",
            "performed_via_github_app": null,
            "url": "https://api.github.com/repos/PrismarineJS/mineflayer/issues/events/1758880915"
        },
        {
            "actor": {
                "avatar_url": "https://avatars.githubusercontent.com/u/8838132?v=4",
                "events_url": "https://api.github.com/users/plexigras/events{/privacy}",
                "followers_url": "https://api.github.com/users/plexigras/followers",
                "following_url": "https://api.github.com/users/plexigras/following{/other_user}",
                "gists_url": "https://api.github.com/users/plexigras/gists{/gist_id}",
                "gravatar_id": "",
                "html_url": "https://github.com/plexigras",
                "id": 8838132,
                "login": "plexigras",
                "node_id": "MDQ6VXNlcjg4MzgxMzI=",
                "organizations_url": "https://api.github.com/users/plexigras/orgs",
                "received_events_url": "https://api.github.com/users/plexigras/received_events",
                "repos_url": "https://api.github.com/users/plexigras/repos",
                "site_admin": false,
                "starred_url": "https://api.github.com/users/plexigras/starred{/owner}{/repo}",
                "subscriptions_url": "https://api.github.com/users/plexigras/subscriptions",
                "type": "User",
                "url": "https://api.github.com/users/plexigras"
            },
            "commit_id": null,
            "commit_url": null,
            "created_at": "2018-07-29T13:05:04Z",
            "event": "subscribed",
            "id": 1758880917,
            "node_id": "MDE1OlN1YnNjcmliZWRFdmVudDE3NTg4ODA5MTc=",
            "performed_via_github_app": null,
            "url": "https://api.github.com/repos/PrismarineJS/mineflayer/issues/events/1758880917"
        },
        {
            "actor": {
                "avatar_url": "https://avatars.githubusercontent.com/u/2346494?v=4",
                "events_url": "https://api.github.com/users/rom1504/events{/privacy}",
                "followers_url": "https://api.github.com/users/rom1504/followers",
                "following_url": "https://api.github.com/users/rom1504/following{/other_user}",
                "gists_url": "https://api.github.com/users/rom1504/gists{/gist_id}",
                "gravatar_id": "",
                "html_url": "https://github.com/rom1504",
                "id": 2346494,
                "login": "rom1504",
                "node_id": "MDQ6VXNlcjIzNDY0OTQ=",
                "organizations_url": "https://api.github.com/users/rom1504/orgs",
                "received_events_url": "https://api.github.com/users/rom1504/received_events",
                "repos_url": "https://api.github.com/users/rom1504/repos",
                "site_admin": false,
                "starred_url": "https://api.github.com/users/rom1504/starred{/owner}{/repo}",
                "subscriptions_url": "https://api.github.com/users/rom1504/subscriptions",
                "type": "User",
                "url": "https://api.github.com/users/rom1504"
            },
            "commit_id": null,
            "commit_url": null,
            "created_at": "2018-07-29T13:05:04Z",
            "event": "closed",
            "id": 1758880921,
            "node_id": "MDExOkNsb3NlZEV2ZW50MTc1ODg4MDkyMQ==",
            "performed_via_github_app": null,
            "state_reason": null,
            "url": "https://api.github.com/repos/PrismarineJS/mineflayer/issues/events/1758880921"
        }
    ],
    "events_url": "https://api.github.com/repos/PrismarineJS/mineflayer/issues/552/events",
    "html_url": "https://github.com/PrismarineJS/mineflayer/issues/552",
    "id": 240389159,
    "labels": [
        {
            "color": "d4c5f9",
            "default": true,
            "description": null,
            "id": 194380998,
            "name": "documentation",
            "node_id": "MDU6TGFiZWwxOTQzODA5OTg=",
            "url": "https://api.github.com/repos/PrismarineJS/mineflayer/labels/documentation"
        }
    ],
    "labels_url": "https://api.github.com/repos/PrismarineJS/mineflayer/issues/552/labels{/name}",
    "locked": false,
    "milestone": null,
    "node_id": "MDU6SXNzdWUyNDAzODkxNTk=",
    "number": 552,
    "performed_via_github_app": null,
    "reactions": {
        "+1": 0,
        "-1": 0,
        "confused": 0,
        "eyes": 0,
        "heart": 0,
        "hooray": 0,
        "laugh": 0,
        "rocket": 0,
        "total_count": 0,
        "url": "https://api.github.com/repos/PrismarineJS/mineflayer/issues/552/reactions"
    },
    "repository_url": "https://api.github.com/repos/PrismarineJS/mineflayer",
    "state": "closed",
    "state_reason": "completed",
    "timeline_url": "https://api.github.com/repos/PrismarineJS/mineflayer/issues/552/timeline",
    "title": "create default issue",
    "updated_at": "2018-07-29T13:05:04Z",
    "url": "https://api.github.com/repos/PrismarineJS/mineflayer/issues/552",
    "user": {
        "avatar_url": "https://avatars.githubusercontent.com/u/8838132?v=4",
        "events_url": "https://api.github.com/users/plexigras/events{/privacy}",
        "followers_url": "https://api.github.com/users/plexigras/followers",
        "following_url": "https://api.github.com/users/plexigras/following{/other_user}",
        "gists_url": "https://api.github.com/users/plexigras/gists{/gist_id}",
        "gravatar_id": "",
        "html_url": "https://github.com/plexigras",
        "id": 8838132,
        "login": "plexigras",
        "node_id": "MDQ6VXNlcjg4MzgxMzI=",
        "organizations_url": "https://api.github.com/users/plexigras/orgs",
        "received_events_url": "https://api.github.com/users/plexigras/received_events",
        "repos_url": "https://api.github.com/users/plexigras/repos",
        "site_admin": false,
        "starred_url": "https://api.github.com/users/plexigras/starred{/owner}{/repo}",
        "subscriptions_url": "https://api.github.com/users/plexigras/subscriptions",
        "type": "User",
        "url": "https://api.github.com/users/plexigras"
    }
}