{
    "active_lock_reason": null,
    "assignee": null,
    "assignees": [],
    "author_association": "CONTRIBUTOR",
    "body": "The mineflayer-script inventory library doesn't handle the difference between a single and a double chest, and instead treats both as double chests.\n",
    "closed_at": "2013-01-05T05:51:03Z",
    "comment_data": [
        {
            "author_association": "CONTRIBUTOR",
            "body": "I'm working on redesigning the inventory library in branch inventory, I will make sure to fix this issue before it merges into master.\n",
            "created_at": "2011-11-13T21:42:56Z",
            "html_url": "https://github.com/PrismarineJS/mineflayer/issues/6#issuecomment-2724637",
            "id": 2724637,
            "issue_url": "https://api.github.com/repos/PrismarineJS/mineflayer/issues/6",
            "node_id": "MDEyOklzc3VlQ29tbWVudDI3MjQ2Mzc=",
            "performed_via_github_app": null,
            "reactions": {
                "+1": 0,
                "-1": 0,
                "confused": 0,
                "eyes": 0,
                "heart": 0,
                "hooray": 0,
                "laugh": 0,
                "rocket": 0,
                "total_count": 0,
                "url": "https://api.github.com/repos/PrismarineJS/mineflayer/issues/comments/2724637/reactions"
            },
            "updated_at": "2011-11-13T21:42:56Z",
            "url": "https://api.github.com/repos/PrismarineJS/mineflayer/issues/comments/2724637",
            "user": {
                "avatar_url": "https://avatars.githubusercontent.com/u/412436?v=4",
                "events_url": "https://api.github.com/users/Darthfett/events{/privacy}",
                "followers_url": "https://api.github.com/users/Darthfett/followers",
                "following_url": "https://api.github.com/users/Darthfett/following{/other_user}",
                "gists_url": "https://api.github.com/users/Darthfett/gists{/gist_id}",
                "gravatar_id": "",
                "html_url": "https://github.com/Darthfett",
                "id": 412436,
                "login": "Darthfett",
                "node_id": "MDQ6VXNlcjQxMjQzNg==",
                "organizations_url": "https://api.github.com/users/Darthfett/orgs",
                "received_events_url": "https://api.github.com/users/Darthfett/received_events",
                "repos_url": "https://api.github.com/users/Darthfett/repos",
                "site_admin": false,
                "starred_url": "https://api.github.com/users/Darthfett/starred{/owner}{/repo}",
                "subscriptions_url": "https://api.github.com/users/Darthfett/subscriptions",
                "type": "User",
                "url": "https://api.github.com/users/Darthfett"
            }
        },
        {
            "author_association": "CONTRIBUTOR",
            "body": "This is now fixed in the inventory branch, as of commit f46128075d1d629cc70cd04635fffc86c7e14643.\n",
            "created_at": "2011-11-14T22:52:56Z",
            "html_url": "https://github.com/PrismarineJS/mineflayer/issues/6#issuecomment-2738035",
            "id": 2738035,
            "issue_url": "https://api.github.com/repos/PrismarineJS/mineflayer/issues/6",
            "node_id": "MDEyOklzc3VlQ29tbWVudDI3MzgwMzU=",
            "performed_via_github_app": null,
            "reactions": {
                "+1": 0,
                "-1": 0,
                "confused": 0,
                "eyes": 0,
                "heart": 0,
                "hooray": 0,
                "laugh": 0,
                "rocket": 0,
                "total_count": 0,
                "url": "https://api.github.com/repos/PrismarineJS/mineflayer/issues/comments/2738035/reactions"
            },
            "updated_at": "2011-11-14T22:53:13Z",
            "url": "https://api.github.com/repos/PrismarineJS/mineflayer/issues/comments/2738035",
            "user": {
                "avatar_url": "https://avatars.githubusercontent.com/u/412436?v=4",
                "events_url": "https://api.github.com/users/Darthfett/events{/privacy}",
                "followers_url": "https://api.github.com/users/Darthfett/followers",
                "following_url": "https://api.github.com/users/Darthfett/following{/other_user}",
                "gists_url": "https://api.github.com/users/Darthfett/gists{/gist_id}",
                "gravatar_id": "",
                "html_url": "https://github.com/Darthfett",
                "id": 412436,
                "login": "Darthfett",
                "node_id": "MDQ6VXNlcjQxMjQzNg==",
                "organizations_url": "https://api.github.com/users/Darthfett/orgs",
                "received_events_url": "https://api.github.com/users/Darthfett/received_events",
                "repos_url": "https://api.github.com/users/Darthfett/repos",
                "site_admin": false,
                "starred_url": "https://api.github.com/users/Darthfett/starred{/owner}{/repo}",
                "subscriptions_url": "https://api.github.com/users/Darthfett/subscriptions",
                "type": "User",
                "url": "https://api.github.com/users/Darthfett"
            }
        },
        {
            "author_association": "MEMBER",
            "body": "irrelevent after switch to node.js\n",
            "created_at": "2013-01-05T05:51:03Z",
            "html_url": "https://github.com/PrismarineJS/mineflayer/issues/6#issuecomment-11910532",
            "id": 11910532,
            "issue_url": "https://api.github.com/repos/PrismarineJS/mineflayer/issues/6",
            "node_id": "MDEyOklzc3VlQ29tbWVudDExOTEwNTMy",
            "performed_via_github_app": null,
            "reactions": {
                "+1": 0,
                "-1": 0,
                "confused": 0,
                "eyes": 0,
                "heart": 0,
                "hooray": 0,
                "laugh": 0,
                "rocket": 0,
                "total_count": 0,
                "url": "https://api.github.com/repos/PrismarineJS/mineflayer/issues/comments/11910532/reactions"
            },
            "updated_at": "2013-01-05T05:51:03Z",
            "url": "https://api.github.com/repos/PrismarineJS/mineflayer/issues/comments/11910532",
            "user": {
                "avatar_url": "https://avatars.githubusercontent.com/u/106511?v=4",
                "events_url": "https://api.github.com/users/andrewrk/events{/privacy}",
                "followers_url": "https://api.github.com/users/andrewrk/followers",
                "following_url": "https://api.github.com/users/andrewrk/following{/other_user}",
                "gists_url": "https://api.github.com/users/andrewrk/gists{/gist_id}",
                "gravatar_id": "",
                "html_url": "https://github.com/andrewrk",
                "id": 106511,
                "login": "andrewrk",
                "node_id": "MDQ6VXNlcjEwNjUxMQ==",
                "organizations_url": "https://api.github.com/users/andrewrk/orgs",
                "received_events_url": "https://api.github.com/users/andrewrk/received_events",
                "repos_url": "https://api.github.com/users/andrewrk/repos",
                "site_admin": false,
                "starred_url": "https://api.github.com/users/andrewrk/starred{/owner}{/repo}",
                "subscriptions_url": "https://api.github.com/users/andrewrk/subscriptions",
                "type": "User",
                "url": "https://api.github.com/users/andrewrk"
            }
        }
    ],
    "comments": 3,
    "comments_url": "https://api.github.com/repos/PrismarineJS/mineflayer/issues/6/comments",
    "created_at": "2011-06-05T20:15:12Z",
    "event_data": [
        {
            "actor": {
                "avatar_url": "https://avatars.githubusercontent.com/u/412436?v=4",
                "events_url": "https://api.github.com/users/Darthfett/events{/privacy}",
                "followers_url": "https://api.github.com/users/Darthfett/followers",
                "following_url": "https://api.github.com/users/Darthfett/following{/other_user}",
                "gists_url": "https://api.github.com/users/Darthfett/gists{/gist_id}",
                "gravatar_id": "",
                "html_url": "https://github.com/Darthfett",
                "id": 412436,
                "login": "Darthfett",
                "node_id": "MDQ6VXNlcjQxMjQzNg==",
                "organizations_url": "https://api.github.com/users/Darthfett/orgs",
                "received_events_url": "https://api.github.com/users/Darthfett/received_events",
                "repos_url": "https://api.github.com/users/Darthfett/repos",
                "site_admin": false,
                "starred_url": "https://api.github.com/users/Darthfett/starred{/owner}{/repo}",
                "subscriptions_url": "https://api.github.com/users/Darthfett/subscriptions",
                "type": "User",
                "url": "https://api.github.com/users/Darthfett"
            },
            "assignee": {
                "avatar_url": "https://avatars.githubusercontent.com/u/412436?v=4",
                "events_url": "https://api.github.com/users/Darthfett/events{/privacy}",
                "followers_url": "https://api.github.com/users/Darthfett/followers",
                "following_url": "https://api.github.com/users/Darthfett/following{/other_user}",
                "gists_url": "https://api.github.com/users/Darthfett/gists{/gist_id}",
                "gravatar_id": "",
                "html_url": "https://github.com/Darthfett",
                "id": 412436,
                "login": "Darthfett",
                "node_id": "MDQ6VXNlcjQxMjQzNg==",
                "organizations_url": "https://api.github.com/users/Darthfett/orgs",
                "received_events_url": "https://api.github.com/users/Darthfett/received_events",
                "repos_url": "https://api.github.com/users/Darthfett/repos",
                "site_admin": false,
                "starred_url": "https://api.github.com/users/Darthfett/starred{/owner}{/repo}",
                "subscriptions_url": "https://api.github.com/users/Darthfett/subscriptions",
                "type": "User",
                "url": "https://api.github.com/users/Darthfett"
            },
            "assigner": {
                "avatar_url": "https://avatars.githubusercontent.com/u/10137?v=4",
                "events_url": "https://api.github.com/users/ghost/events{/privacy}",
                "followers_url": "https://api.github.com/users/ghost/followers",
                "following_url": "https://api.github.com/users/ghost/following{/other_user}",
                "gists_url": "https://api.github.com/users/ghost/gists{/gist_id}",
                "gravatar_id": "",
                "html_url": "https://github.com/ghost",
                "id": 10137,
                "login": "ghost",
                "node_id": "MDQ6VXNlcjEwMTM3",
                "organizations_url": "https://api.github.com/users/ghost/orgs",
                "received_events_url": "https://api.github.com/users/ghost/received_events",
                "repos_url": "https://api.github.com/users/ghost/repos",
                "site_admin": false,
                "starred_url": "https://api.github.com/users/ghost/starred{/owner}{/repo}",
                "subscriptions_url": "https://api.github.com/users/ghost/subscriptions",
                "type": "User",
                "url": "https://api.github.com/users/ghost"
            },
            "commit_id": null,
            "commit_url": null,
            "created_at": "2011-06-05T20:15:12Z",
            "event": "assigned",
            "id": 1024133,
            "node_id": "MDEzOkFzc2lnbmVkRXZlbnQxMDI0MTMz",
            "performed_via_github_app": null,
            "url": "https://api.github.com/repos/PrismarineJS/mineflayer/issues/events/1024133"
        },
        {
            "actor": {
                "avatar_url": "https://avatars.githubusercontent.com/u/412436?v=4",
                "events_url": "https://api.github.com/users/Darthfett/events{/privacy}",
                "followers_url": "https://api.github.com/users/Darthfett/followers",
                "following_url": "https://api.github.com/users/Darthfett/following{/other_user}",
                "gists_url": "https://api.github.com/users/Darthfett/gists{/gist_id}",
                "gravatar_id": "",
                "html_url": "https://github.com/Darthfett",
                "id": 412436,
                "login": "Darthfett",
                "node_id": "MDQ6VXNlcjQxMjQzNg==",
                "organizations_url": "https://api.github.com/users/Darthfett/orgs",
                "received_events_url": "https://api.github.com/users/Darthfett/received_events",
                "repos_url": "https://api.github.com/users/Darthfett/repos",
                "site_admin": false,
                "starred_url": "https://api.github.com/users/Darthfett/starred{/owner}{/repo}",
                "subscriptions_url": "https://api.github.com/users/Darthfett/subscriptions",
                "type": "User",
                "url": "https://api.github.com/users/Darthfett"
            },
            "commit_id": null,
            "commit_url": null,
            "created_at": "2011-06-05T20:15:12Z",
            "event": "subscribed",
            "id": 1024134,
            "node_id": "MDE1OlN1YnNjcmliZWRFdmVudDEwMjQxMzQ=",
            "performed_via_github_app": null,
            "url": "https://api.github.com/repos/PrismarineJS/mineflayer/issues/events/1024134"
        },
        {
            "actor": {
                "avatar_url": "https://avatars.githubusercontent.com/u/106511?v=4",
                "events_url": "https://api.github.com/users/andrewrk/events{/privacy}",
                "followers_url": "https://api.github.com/users/andrewrk/followers",
                "following_url": "https://api.github.com/users/andrewrk/following{/other_user}",
                "gists_url": "https://api.github.com/users/andrewrk/gists{/gist_id}",
                "gravatar_id": "",
                "html_url": "https://github.com/andrewrk",
                "id": 106511,
                "login": "andrewrk",
                "node_id": "MDQ6VXNlcjEwNjUxMQ==",
                "organizations_url": "https://api.github.com/users/andrewrk/orgs",
                "received_events_url": "https://api.github.com/users/andrewrk/received_events",
                "repos_url": "https://api.github.com/users/andrewrk/repos",
                "site_admin": false,
                "starred_url": "https://api.github.com/users/andrewrk/starred{/owner}{/repo}",
                "subscriptions_url": "https://api.github.com/users/andrewrk/subscriptions",
                "type": "User",
                "url": "https://api.github.com/users/andrewrk"
            },
            "commit_id": null,
            "commit_url": null,
            "created_at": "2013-01-05T05:51:03Z",
            "event": "closed",
            "id": 33493346,
            "node_id": "MDExOkNsb3NlZEV2ZW50MzM0OTMzNDY=",
            "performed_via_github_app": null,
            "state_reason": null,
            "url": "https://api.github.com/repos/PrismarineJS/mineflayer/issues/events/33493346"
        }
    ],
    "events_url": "https://api.github.com/repos/PrismarineJS/mineflayer/issues/6/events",
    "html_url": "https://github.com/PrismarineJS/mineflayer/issues/6",
    "id": 1006258,
    "labels": [
        {
            "color": "e10c02",
            "default": true,
            "description": null,
            "id": 173426,
            "name": "bug",
            "node_id": "MDU6TGFiZWwxNzM0MjY=",
            "url": "https://api.github.com/repos/PrismarineJS/mineflayer/labels/bug"
        }
    ],
    "labels_url": "https://api.github.com/repos/PrismarineJS/mineflayer/issues/6/labels{/name}",
    "locked": false,
    "milestone": null,
    "node_id": "MDU6SXNzdWUxMDA2MjU4",
    "number": 6,
    "performed_via_github_app": null,
    "reactions": {
        "+1": 0,
        "-1": 0,
        "confused": 0,
        "eyes": 0,
        "heart": 0,
        "hooray": 0,
        "laugh": 0,
        "rocket": 0,
        "total_count": 0,
        "url": "https://api.github.com/repos/PrismarineJS/mineflayer/issues/6/reactions"
    },
    "repository_url": "https://api.github.com/repos/PrismarineJS/mineflayer",
    "state": "closed",
    "state_reason": "completed",
    "timeline_url": "https://api.github.com/repos/PrismarineJS/mineflayer/issues/6/timeline",
    "title": "inventory library crashes with single chests",
    "updated_at": "2013-01-07T23:16:04Z",
    "url": "https://api.github.com/repos/PrismarineJS/mineflayer/issues/6",
    "user": {
        "avatar_url": "https://avatars.githubusercontent.com/u/412436?v=4",
        "events_url": "https://api.github.com/users/Darthfett/events{/privacy}",
        "followers_url": "https://api.github.com/users/Darthfett/followers",
        "following_url": "https://api.github.com/users/Darthfett/following{/other_user}",
        "gists_url": "https://api.github.com/users/Darthfett/gists{/gist_id}",
        "gravatar_id": "",
        "html_url": "https://github.com/Darthfett",
        "id": 412436,
        "login": "Darthfett",
        "node_id": "MDQ6VXNlcjQxMjQzNg==",
        "organizations_url": "https://api.github.com/users/Darthfett/orgs",
        "received_events_url": "https://api.github.com/users/Darthfett/received_events",
        "repos_url": "https://api.github.com/users/Darthfett/repos",
        "site_admin": false,
        "starred_url": "https://api.github.com/users/Darthfett/starred{/owner}{/repo}",
        "subscriptions_url": "https://api.github.com/users/Darthfett/subscriptions",
        "type": "User",
        "url": "https://api.github.com/users/Darthfett"
    }
}