{
    "active_lock_reason": null,
    "assignee": null,
    "assignees": [],
    "author_association": "NONE",
    "body": "Edit:\r\nNew error:\r\n\r\n```\r\n\r\nC:\\Users\\Melon\\Pictures\\Bot\\mineflayer-master\\examples>node melonBot.js play.t\r\notalfreedom.me 25565 MelonBot\r\nmelonbot@melon:~$ events.js:160\r\n      throw er; // Unhandled 'error' event\r\n      ^\r\n\r\nError: Deserialization error for play.toClient : Read error for name : 107127 is\r\n not in the mappings value\r\n    at ProtoDef.readMapper (C:\\Users\\Melon\\Pictures\\Bot\\node_modules\\protodef\\\r\nsrc\\datatypes\\utils.js:27:31)\r\n    at ProtoDef.read (C:\\Users\\Melon\\Pictures\\Bot\\node_modules\\protodef\\src\\pr\r\notodef.js:127:29)\r\n    at tryDoc (C:\\Users\\Melon\\Pictures\\Bot\\node_modules\\protodef\\src\\datatypes\r\n\\structures.js:46:32)\r\n    at tryCatch (C:\\Users\\Melon\\Pictures\\Bot\\node_modules\\protodef\\src\\utils.j\r\ns:63:16)\r\n    at tryDoc (C:\\Users\\Melon\\Pictures\\Bot\\node_modules\\protodef\\src\\utils.js:\r\n67:10)\r\n    at typeArgs.forEach (C:\\Users\\Melon\\Pictures\\Bot\\node_modules\\protodef\\src\r\n\\datatypes\\structures.js:45:5)\r\n    at Array.forEach (native)\r\n    at ProtoDef.readContainer (C:\\Users\\Melon\\Pictures\\Bot\\node_modules\\protod\r\nef\\src\\datatypes\\structures.js:44:12)\r\n    at ProtoDef.read (C:\\Users\\Melon\\Pictures\\Bot\\node_modules\\protodef\\src\\pr\r\notodef.js:39:25)\r\n    at ProtoDef.read (C:\\Users\\Melon\\Pictures\\Bot\\node_modules\\protodef\\src\\pr\r\notodef.js:127:29)\r\n\r\nC:\\Users\\Melon\\Pictures\\Bot\\mineflayer-master\\examples>pause\r\nPress any key to continue . . .\r\n\r\n```\r\n\r\n",
    "closed_at": "2020-12-28T17:44:04Z",
    "comment_data": [
        {
            "author_association": "MEMBER",
            "body": "Which server which version ?\n\nOn Thu, Oct 19, 2017, 04:05 FaZeMelon <notifications@github.com> wrote:\n\n> So I've tried reinstalling and recoding my mineflayer bot but still the\n> same error.\n>\n> events.js:160\n> throw er; // Unhandled 'error' event\n> ^\n>\n> Error: Deserialization error for play.toClient : Read error for name : 123\n> is no\n> t in the mappings value\n> at ProtoDef.readMapper (C:\\Users\\Melon\\Pictures\\Bot\\node_modules\\protodef\n> src\\datatypes\\utils.js:27:31)\n> at ProtoDef.read (C:\\Users\\Melon\\Pictures\\Bot\\node_modules\\protodef\\src\\pr\n> otodef.js:127:29)\n> at tryDoc (C:\\Users\\Melon\\Pictures\\Bot\\node_modules\\protodef\\src\\datatypes\n> \\structures.js:46:32)\n> at tryCatch (C:\\Users\\Melon\\Pictures\\Bot\\node_modules\\protodef\\src\\utils.j\n> s:63:16)\n> at tryDoc (C:\\Users\\Melon\\Pictures\\Bot\\node_modules\\protodef\\src\\utils.js:\n> 67:10)\n> at typeArgs.forEach (C:\\Users\\Melon\\Pictures\\Bot\\node_modules\\protodef\\src\n> \\datatypes\\structures.js:45:5)\n> at Array.forEach (native)\n> at ProtoDef.readContainer (C:\\Users\\Melon\\Pictures\\Bot\\node_modules\\protod\n> ef\\src\\datatypes\\structures.js:44:12)\n> at ProtoDef.read (C:\\Users\\Melon\\Pictures\\Bot\\node_modules\\protodef\\src\\pr\n> otodef.js:39:25)\n> at ProtoDef.read (C:\\Users\\Melon\\Pictures\\Bot\\node_modules\\protodef\\src\\pr\n> otodef.js:127:29)\n>\n> C:\\Users\\Melon\\Pictures\\Bot\\mineflayer-master\\examples>pause\n>\n> Press any key to continue . . .\n>\n> I don't know what's going on, but apparently it could be a problem with\n> the nodes in mineflayer itself. I don't really know.\n>\n> —\n> You are receiving this because you are subscribed to this thread.\n> Reply to this email directly, view it on GitHub\n> <https://github.com/PrismarineJS/mineflayer/issues/603>, or mute the\n> thread\n> <https://github.com/notifications/unsubscribe-auth/ACPN_lchc8zT6oQBVtcW-xk3XKNxHvnfks5stq5RgaJpZM4P-ma3>\n> .\n>\n",
            "created_at": "2017-10-19T07:05:11Z",
            "html_url": "https://github.com/PrismarineJS/mineflayer/issues/603#issuecomment-337818331",
            "id": 337818331,
            "issue_url": "https://api.github.com/repos/PrismarineJS/mineflayer/issues/603",
            "node_id": "MDEyOklzc3VlQ29tbWVudDMzNzgxODMzMQ==",
            "performed_via_github_app": null,
            "reactions": {
                "+1": 0,
                "-1": 0,
                "confused": 0,
                "eyes": 0,
                "heart": 0,
                "hooray": 0,
                "laugh": 0,
                "rocket": 0,
                "total_count": 0,
                "url": "https://api.github.com/repos/PrismarineJS/mineflayer/issues/comments/337818331/reactions"
            },
            "updated_at": "2017-10-19T07:05:11Z",
            "url": "https://api.github.com/repos/PrismarineJS/mineflayer/issues/comments/337818331",
            "user": {
                "avatar_url": "https://avatars.githubusercontent.com/u/2346494?v=4",
                "events_url": "https://api.github.com/users/rom1504/events{/privacy}",
                "followers_url": "https://api.github.com/users/rom1504/followers",
                "following_url": "https://api.github.com/users/rom1504/following{/other_user}",
                "gists_url": "https://api.github.com/users/rom1504/gists{/gist_id}",
                "gravatar_id": "",
                "html_url": "https://github.com/rom1504",
                "id": 2346494,
                "login": "rom1504",
                "node_id": "MDQ6VXNlcjIzNDY0OTQ=",
                "organizations_url": "https://api.github.com/users/rom1504/orgs",
                "received_events_url": "https://api.github.com/users/rom1504/received_events",
                "repos_url": "https://api.github.com/users/rom1504/repos",
                "site_admin": false,
                "starred_url": "https://api.github.com/users/rom1504/starred{/owner}{/repo}",
                "subscriptions_url": "https://api.github.com/users/rom1504/subscriptions",
                "type": "User",
                "url": "https://api.github.com/users/rom1504"
            }
        },
        {
            "author_association": "NONE",
            "body": "Play.totalfreedom.me > 1.12.2",
            "created_at": "2017-10-19T17:17:08Z",
            "html_url": "https://github.com/PrismarineJS/mineflayer/issues/603#issuecomment-337976353",
            "id": 337976353,
            "issue_url": "https://api.github.com/repos/PrismarineJS/mineflayer/issues/603",
            "node_id": "MDEyOklzc3VlQ29tbWVudDMzNzk3NjM1Mw==",
            "performed_via_github_app": null,
            "reactions": {
                "+1": 0,
                "-1": 0,
                "confused": 0,
                "eyes": 0,
                "heart": 0,
                "hooray": 0,
                "laugh": 0,
                "rocket": 0,
                "total_count": 0,
                "url": "https://api.github.com/repos/PrismarineJS/mineflayer/issues/comments/337976353/reactions"
            },
            "updated_at": "2017-10-19T17:17:08Z",
            "url": "https://api.github.com/repos/PrismarineJS/mineflayer/issues/comments/337976353",
            "user": {
                "avatar_url": "https://avatars.githubusercontent.com/u/19884509?v=4",
                "events_url": "https://api.github.com/users/FaZeMelon/events{/privacy}",
                "followers_url": "https://api.github.com/users/FaZeMelon/followers",
                "following_url": "https://api.github.com/users/FaZeMelon/following{/other_user}",
                "gists_url": "https://api.github.com/users/FaZeMelon/gists{/gist_id}",
                "gravatar_id": "",
                "html_url": "https://github.com/FaZeMelon",
                "id": 19884509,
                "login": "FaZeMelon",
                "node_id": "MDQ6VXNlcjE5ODg0NTA5",
                "organizations_url": "https://api.github.com/users/FaZeMelon/orgs",
                "received_events_url": "https://api.github.com/users/FaZeMelon/received_events",
                "repos_url": "https://api.github.com/users/FaZeMelon/repos",
                "site_admin": false,
                "starred_url": "https://api.github.com/users/FaZeMelon/starred{/owner}{/repo}",
                "subscriptions_url": "https://api.github.com/users/FaZeMelon/subscriptions",
                "type": "User",
                "url": "https://api.github.com/users/FaZeMelon"
            }
        },
        {
            "author_association": "NONE",
            "body": "I don't know if you saw my previous message but it was TotalFreedom and\n1.12.2. I don't think it's the version since I've used the bot and it has\nworked on the same server and the same version. I doubt that it was\nanything on my side since I did reinstall mineflayer.\n\nOn Oct 19, 2017 3:05 AM, \"Romain Beaumont\" <notifications@github.com> wrote:\n\n> Which server which version ?\n>\n> On Thu, Oct 19, 2017, 04:05 FaZeMelon <notifications@github.com> wrote:\n>\n> > So I've tried reinstalling and recoding my mineflayer bot but still the\n> > same error.\n> >\n> > events.js:160\n> > throw er; // Unhandled 'error' event\n> > ^\n> >\n> > Error: Deserialization error for play.toClient : Read error for name :\n> 123\n> > is no\n> > t in the mappings value\n> > at ProtoDef.readMapper (C:\\Users\\Melon\\Pictures\\Bot\\\n> node_modules\\protodef\n> > src\\datatypes\\utils.js:27:31)\n> > at ProtoDef.read (C:\\Users\\Melon\\Pictures\\Bot\\\n> node_modules\\protodef\\src\\pr\n> > otodef.js:127:29)\n> > at tryDoc (C:\\Users\\Melon\\Pictures\\Bot\\node_modules\\protodef\\src\\\n> datatypes\n> > \\structures.js:46:32)\n> > at tryCatch (C:\\Users\\Melon\\Pictures\\Bot\\node_modules\\protodef\\src\\\n> utils.j\n> > s:63:16)\n> > at tryDoc (C:\\Users\\Melon\\Pictures\\Bot\\node_modules\\protodef\\src\\\n> utils.js:\n> > 67:10)\n> > at typeArgs.forEach (C:\\Users\\Melon\\Pictures\\Bot\\\n> node_modules\\protodef\\src\n> > \\datatypes\\structures.js:45:5)\n> > at Array.forEach (native)\n> > at ProtoDef.readContainer (C:\\Users\\Melon\\Pictures\\Bot\\\n> node_modules\\protod\n> > ef\\src\\datatypes\\structures.js:44:12)\n> > at ProtoDef.read (C:\\Users\\Melon\\Pictures\\Bot\\\n> node_modules\\protodef\\src\\pr\n> > otodef.js:39:25)\n> > at ProtoDef.read (C:\\Users\\Melon\\Pictures\\Bot\\\n> node_modules\\protodef\\src\\pr\n> > otodef.js:127:29)\n> >\n> > C:\\Users\\Melon\\Pictures\\Bot\\mineflayer-master\\examples>pause\n> >\n> > Press any key to continue . . .\n> >\n> > I don't know what's going on, but apparently it could be a problem with\n> > the nodes in mineflayer itself. I don't really know.\n> >\n> > —\n> > You are receiving this because you are subscribed to this thread.\n> > Reply to this email directly, view it on GitHub\n> > <https://github.com/PrismarineJS/mineflayer/issues/603>, or mute the\n> > thread\n> > <https://github.com/notifications/unsubscribe-auth/ACPN_lchc8zT6oQBVtcW-\n> xk3XKNxHvnfks5stq5RgaJpZM4P-ma3>\n> > .\n> >\n>\n> —\n> You are receiving this because you authored the thread.\n> Reply to this email directly, view it on GitHub\n> <https://github.com/PrismarineJS/mineflayer/issues/603#issuecomment-337818331>,\n> or mute the thread\n> <https://github.com/notifications/unsubscribe-auth/AS9p3X0MgU2MLi-cPXOOlPcpRjC1RRgNks5stvSpgaJpZM4P-ma3>\n> .\n>\n",
            "created_at": "2017-10-20T17:04:11Z",
            "html_url": "https://github.com/PrismarineJS/mineflayer/issues/603#issuecomment-338265225",
            "id": 338265225,
            "issue_url": "https://api.github.com/repos/PrismarineJS/mineflayer/issues/603",
            "node_id": "MDEyOklzc3VlQ29tbWVudDMzODI2NTIyNQ==",
            "performed_via_github_app": null,
            "reactions": {
                "+1": 0,
                "-1": 0,
                "confused": 0,
                "eyes": 0,
                "heart": 0,
                "hooray": 0,
                "laugh": 0,
                "rocket": 0,
                "total_count": 0,
                "url": "https://api.github.com/repos/PrismarineJS/mineflayer/issues/comments/338265225/reactions"
            },
            "updated_at": "2017-10-20T17:04:11Z",
            "url": "https://api.github.com/repos/PrismarineJS/mineflayer/issues/comments/338265225",
            "user": {
                "avatar_url": "https://avatars.githubusercontent.com/u/19884509?v=4",
                "events_url": "https://api.github.com/users/FaZeMelon/events{/privacy}",
                "followers_url": "https://api.github.com/users/FaZeMelon/followers",
                "following_url": "https://api.github.com/users/FaZeMelon/following{/other_user}",
                "gists_url": "https://api.github.com/users/FaZeMelon/gists{/gist_id}",
                "gravatar_id": "",
                "html_url": "https://github.com/FaZeMelon",
                "id": 19884509,
                "login": "FaZeMelon",
                "node_id": "MDQ6VXNlcjE5ODg0NTA5",
                "organizations_url": "https://api.github.com/users/FaZeMelon/orgs",
                "received_events_url": "https://api.github.com/users/FaZeMelon/received_events",
                "repos_url": "https://api.github.com/users/FaZeMelon/repos",
                "site_admin": false,
                "starred_url": "https://api.github.com/users/FaZeMelon/starred{/owner}{/repo}",
                "subscriptions_url": "https://api.github.com/users/FaZeMelon/subscriptions",
                "type": "User",
                "url": "https://api.github.com/users/FaZeMelon"
            }
        },
        {
            "author_association": "NONE",
            "body": "Same issue here.\r\nTested with two servers:\r\n\r\n1. CraftBukkit version git-Spigot-5695bca-53fccdf (MC: 1.12.2) (Implementing API version 1.12.2-R0.1-SNAPSHOT)\r\nBot connects and then works normally for a couple of seconds and then disconnects with the error above.\r\n\r\n2. Paper version git-Paper-1244 (MC: 1.12.2) (Implementing API version 1.12.2-R0.1-SNAPSHOT)\r\n(behind BungeeCord version git:BungeeCord-Bootstrap:1.12-SNAPSHOT:8d49424:1273 by md_5)\r\nBot connects and doesn't execute any actions and gets disconnected almost instantly.\r\n\r\nEdit:\r\nnode: v6.11.5\r\nnpm: 5.5.1",
            "created_at": "2017-11-04T04:58:19Z",
            "html_url": "https://github.com/PrismarineJS/mineflayer/issues/603#issuecomment-341872354",
            "id": 341872354,
            "issue_url": "https://api.github.com/repos/PrismarineJS/mineflayer/issues/603",
            "node_id": "MDEyOklzc3VlQ29tbWVudDM0MTg3MjM1NA==",
            "performed_via_github_app": null,
            "reactions": {
                "+1": 0,
                "-1": 0,
                "confused": 0,
                "eyes": 0,
                "heart": 0,
                "hooray": 0,
                "laugh": 0,
                "rocket": 0,
                "total_count": 0,
                "url": "https://api.github.com/repos/PrismarineJS/mineflayer/issues/comments/341872354/reactions"
            },
            "updated_at": "2017-11-04T05:00:08Z",
            "url": "https://api.github.com/repos/PrismarineJS/mineflayer/issues/comments/341872354",
            "user": {
                "avatar_url": "https://avatars.githubusercontent.com/u/8191379?v=4",
                "events_url": "https://api.github.com/users/tfk333/events{/privacy}",
                "followers_url": "https://api.github.com/users/tfk333/followers",
                "following_url": "https://api.github.com/users/tfk333/following{/other_user}",
                "gists_url": "https://api.github.com/users/tfk333/gists{/gist_id}",
                "gravatar_id": "",
                "html_url": "https://github.com/tfk333",
                "id": 8191379,
                "login": "tfk333",
                "node_id": "MDQ6VXNlcjgxOTEzNzk=",
                "organizations_url": "https://api.github.com/users/tfk333/orgs",
                "received_events_url": "https://api.github.com/users/tfk333/received_events",
                "repos_url": "https://api.github.com/users/tfk333/repos",
                "site_admin": false,
                "starred_url": "https://api.github.com/users/tfk333/starred{/owner}{/repo}",
                "subscriptions_url": "https://api.github.com/users/tfk333/subscriptions",
                "type": "User",
                "url": "https://api.github.com/users/tfk333"
            }
        },
        {
            "author_association": "NONE",
            "body": "Ok, I've seemed to reproduce the issue presented by the OP.\r\n[Console Log Here](https://i.imgur.com/FiXOu4W.png)\r\nThe error seems to be related to users on the server using particles relating to a plugin called \"PlayerParticles\". I managed to crash my bot using them and got a similar error. I can only assume this is the error which was presented to the OP. So, if the user with particles is in range, the bot will crash.\r\n\r\nTested on Server: play.totalfreedom.me\r\nServer Version: 1.12.x\r\nBot Version: 1.12.1\r\n\r\nNode version: v6.11.2\r\nNPM version: v3.10.10",
            "created_at": "2017-11-11T10:58:11Z",
            "html_url": "https://github.com/PrismarineJS/mineflayer/issues/603#issuecomment-343656711",
            "id": 343656711,
            "issue_url": "https://api.github.com/repos/PrismarineJS/mineflayer/issues/603",
            "node_id": "MDEyOklzc3VlQ29tbWVudDM0MzY1NjcxMQ==",
            "performed_via_github_app": null,
            "reactions": {
                "+1": 0,
                "-1": 0,
                "confused": 0,
                "eyes": 0,
                "heart": 0,
                "hooray": 0,
                "laugh": 0,
                "rocket": 0,
                "total_count": 0,
                "url": "https://api.github.com/repos/PrismarineJS/mineflayer/issues/comments/343656711/reactions"
            },
            "updated_at": "2017-11-11T11:04:53Z",
            "url": "https://api.github.com/repos/PrismarineJS/mineflayer/issues/comments/343656711",
            "user": {
                "avatar_url": "https://avatars.githubusercontent.com/u/31005993?v=4",
                "events_url": "https://api.github.com/users/ItzRaiin94/events{/privacy}",
                "followers_url": "https://api.github.com/users/ItzRaiin94/followers",
                "following_url": "https://api.github.com/users/ItzRaiin94/following{/other_user}",
                "gists_url": "https://api.github.com/users/ItzRaiin94/gists{/gist_id}",
                "gravatar_id": "",
                "html_url": "https://github.com/ItzRaiin94",
                "id": 31005993,
                "login": "ItzRaiin94",
                "node_id": "MDQ6VXNlcjMxMDA1OTkz",
                "organizations_url": "https://api.github.com/users/ItzRaiin94/orgs",
                "received_events_url": "https://api.github.com/users/ItzRaiin94/received_events",
                "repos_url": "https://api.github.com/users/ItzRaiin94/repos",
                "site_admin": false,
                "starred_url": "https://api.github.com/users/ItzRaiin94/starred{/owner}{/repo}",
                "subscriptions_url": "https://api.github.com/users/ItzRaiin94/subscriptions",
                "type": "User",
                "url": "https://api.github.com/users/ItzRaiin94"
            }
        },
        {
            "author_association": "MEMBER",
            "body": "do you guys have the same issue when just using node-minecraft-protocol?\r\n\r\ni joined using nmp and had no problem",
            "created_at": "2017-11-11T11:24:51Z",
            "html_url": "https://github.com/PrismarineJS/mineflayer/issues/603#issuecomment-343658073",
            "id": 343658073,
            "issue_url": "https://api.github.com/repos/PrismarineJS/mineflayer/issues/603",
            "node_id": "MDEyOklzc3VlQ29tbWVudDM0MzY1ODA3Mw==",
            "performed_via_github_app": null,
            "reactions": {
                "+1": 0,
                "-1": 0,
                "confused": 0,
                "eyes": 0,
                "heart": 0,
                "hooray": 0,
                "laugh": 0,
                "rocket": 0,
                "total_count": 0,
                "url": "https://api.github.com/repos/PrismarineJS/mineflayer/issues/comments/343658073/reactions"
            },
            "updated_at": "2017-11-11T11:32:17Z",
            "url": "https://api.github.com/repos/PrismarineJS/mineflayer/issues/comments/343658073",
            "user": {
                "avatar_url": "https://avatars.githubusercontent.com/u/8838132?v=4",
                "events_url": "https://api.github.com/users/plexigras/events{/privacy}",
                "followers_url": "https://api.github.com/users/plexigras/followers",
                "following_url": "https://api.github.com/users/plexigras/following{/other_user}",
                "gists_url": "https://api.github.com/users/plexigras/gists{/gist_id}",
                "gravatar_id": "",
                "html_url": "https://github.com/plexigras",
                "id": 8838132,
                "login": "plexigras",
                "node_id": "MDQ6VXNlcjg4MzgxMzI=",
                "organizations_url": "https://api.github.com/users/plexigras/orgs",
                "received_events_url": "https://api.github.com/users/plexigras/received_events",
                "repos_url": "https://api.github.com/users/plexigras/repos",
                "site_admin": false,
                "starred_url": "https://api.github.com/users/plexigras/starred{/owner}{/repo}",
                "subscriptions_url": "https://api.github.com/users/plexigras/subscriptions",
                "type": "User",
                "url": "https://api.github.com/users/plexigras"
            }
        },
        {
            "author_association": "NONE",
            "body": "None of the servers I have tested it with, had that plugin (or any other particle-related plugins) installed.\r\nI'm currently not able to do any tests, but will try it with nmp once I'm able to.",
            "created_at": "2017-11-20T14:29:32Z",
            "html_url": "https://github.com/PrismarineJS/mineflayer/issues/603#issuecomment-345711674",
            "id": 345711674,
            "issue_url": "https://api.github.com/repos/PrismarineJS/mineflayer/issues/603",
            "node_id": "MDEyOklzc3VlQ29tbWVudDM0NTcxMTY3NA==",
            "performed_via_github_app": null,
            "reactions": {
                "+1": 0,
                "-1": 0,
                "confused": 0,
                "eyes": 0,
                "heart": 0,
                "hooray": 0,
                "laugh": 0,
                "rocket": 0,
                "total_count": 0,
                "url": "https://api.github.com/repos/PrismarineJS/mineflayer/issues/comments/345711674/reactions"
            },
            "updated_at": "2017-11-20T14:29:32Z",
            "url": "https://api.github.com/repos/PrismarineJS/mineflayer/issues/comments/345711674",
            "user": {
                "avatar_url": "https://avatars.githubusercontent.com/u/8191379?v=4",
                "events_url": "https://api.github.com/users/tfk333/events{/privacy}",
                "followers_url": "https://api.github.com/users/tfk333/followers",
                "following_url": "https://api.github.com/users/tfk333/following{/other_user}",
                "gists_url": "https://api.github.com/users/tfk333/gists{/gist_id}",
                "gravatar_id": "",
                "html_url": "https://github.com/tfk333",
                "id": 8191379,
                "login": "tfk333",
                "node_id": "MDQ6VXNlcjgxOTEzNzk=",
                "organizations_url": "https://api.github.com/users/tfk333/orgs",
                "received_events_url": "https://api.github.com/users/tfk333/received_events",
                "repos_url": "https://api.github.com/users/tfk333/repos",
                "site_admin": false,
                "starred_url": "https://api.github.com/users/tfk333/starred{/owner}{/repo}",
                "subscriptions_url": "https://api.github.com/users/tfk333/subscriptions",
                "type": "User",
                "url": "https://api.github.com/users/tfk333"
            }
        },
        {
            "author_association": "NONE",
            "body": "Sorry for the (very) late reply. I've just tested the client_echo example and am getting a similar error:\r\n\r\n```\r\nconnected\r\nC:\\Users\\ThiKam\\Downloads\\node-minecraft-protocol-master\\src\\transforms\\framing.js:76\r\n          throw e;\r\n          ^\r\n\r\nError: Deserialization error for play.toClient : Chunk size is\r\n    at FullPacketParser._transform (C:\\Users\\ThiKam\\Downloads\\node-minecraft-protocol-master\\node_modules\\protodef\\src\\serializer.js\r\n:78:15)\r\n    at FullPacketParser.Transform._read (C:\\Users\\ThiKam\\Downloads\\node-minecraft-protocol-master\\node_modules\\readable-stream\\lib\\_\r\nstream_transform.js:184:10)\r\n    at FullPacketParser.Transform._write (C:\\Users\\ThiKam\\Downloads\\node-minecraft-protocol-master\\node_modules\\readable-stream\\lib\\\r\n_stream_transform.js:172:83)\r\n    at doWrite (C:\\Users\\ThiKam\\Downloads\\node-minecraft-protocol-master\\node_modules\\readable-stream\\lib\\_stream_writable.js:418:64\r\n)\r\n    at writeOrBuffer (C:\\Users\\ThiKam\\Downloads\\node-minecraft-protocol-master\\node_modules\\readable-stream\\lib\\_stream_writable.js:\r\n407:5)\r\n    at FullPacketParser.Writable.write (C:\\Users\\ThiKam\\Downloads\\node-minecraft-protocol-master\\node_modules\\readable-stream\\lib\\_s\r\ntream_writable.js:334:11)\r\n    at Decompressor.ondata (C:\\Users\\ThiKam\\Downloads\\node-minecraft-protocol-master\\node_modules\\readable-stream\\lib\\_stream_readab\r\nle.js:619:20)\r\n    at emitOne (events.js:116:13)\r\n    at Decompressor.emit (events.js:211:7)\r\n    at addChunk (C:\\Users\\ThiKam\\Downloads\\node-minecraft-protocol-master\\node_modules\\readable-stream\\lib\\_stream_readable.js:291:1\r\n2)\r\n```",
            "created_at": "2018-02-14T13:14:23Z",
            "html_url": "https://github.com/PrismarineJS/mineflayer/issues/603#issuecomment-365603353",
            "id": 365603353,
            "issue_url": "https://api.github.com/repos/PrismarineJS/mineflayer/issues/603",
            "node_id": "MDEyOklzc3VlQ29tbWVudDM2NTYwMzM1Mw==",
            "performed_via_github_app": null,
            "reactions": {
                "+1": 0,
                "-1": 0,
                "confused": 0,
                "eyes": 0,
                "heart": 0,
                "hooray": 0,
                "laugh": 0,
                "rocket": 0,
                "total_count": 0,
                "url": "https://api.github.com/repos/PrismarineJS/mineflayer/issues/comments/365603353/reactions"
            },
            "updated_at": "2018-02-14T13:14:23Z",
            "url": "https://api.github.com/repos/PrismarineJS/mineflayer/issues/comments/365603353",
            "user": {
                "avatar_url": "https://avatars.githubusercontent.com/u/8191379?v=4",
                "events_url": "https://api.github.com/users/tfk333/events{/privacy}",
                "followers_url": "https://api.github.com/users/tfk333/followers",
                "following_url": "https://api.github.com/users/tfk333/following{/other_user}",
                "gists_url": "https://api.github.com/users/tfk333/gists{/gist_id}",
                "gravatar_id": "",
                "html_url": "https://github.com/tfk333",
                "id": 8191379,
                "login": "tfk333",
                "node_id": "MDQ6VXNlcjgxOTEzNzk=",
                "organizations_url": "https://api.github.com/users/tfk333/orgs",
                "received_events_url": "https://api.github.com/users/tfk333/received_events",
                "repos_url": "https://api.github.com/users/tfk333/repos",
                "site_admin": false,
                "starred_url": "https://api.github.com/users/tfk333/starred{/owner}{/repo}",
                "subscriptions_url": "https://api.github.com/users/tfk333/subscriptions",
                "type": "User",
                "url": "https://api.github.com/users/tfk333"
            }
        },
        {
            "author_association": "NONE",
            "body": "I was getting the error from my own client that I coded. The problem arises\nwith certain particles, and that makes servers with particles functionally\nuseless.\n\nOn Wed, Feb 14, 2018 at 8:14 AM ThierryKamber <notifications@github.com>\nwrote:\n\n> Sorry for the (very) late reply. I've just tested the client_echo example\n> and am getting a similar error:\n>\n> connected\n> C:\\Users\\ThiKam\\Downloads\\node-minecraft-protocol-master\\src\\transforms\\framing.js:76\n>           throw e;\n>           ^\n>\n> Error: Deserialization error for play.toClient : Chunk size is\n>     at FullPacketParser._transform (C:\\Users\\ThiKam\\Downloads\\node-minecraft-protocol-master\\node_modules\\protodef\\src\\serializer.js\n> :78:15)\n>     at FullPacketParser.Transform._read (C:\\Users\\ThiKam\\Downloads\\node-minecraft-protocol-master\\node_modules\\readable-stream\\lib\\_\n> stream_transform.js:184:10)\n>     at FullPacketParser.Transform._write (C:\\Users\\ThiKam\\Downloads\\node-minecraft-protocol-master\\node_modules\\readable-stream\\lib\\\n> _stream_transform.js:172:83)\n>     at doWrite (C:\\Users\\ThiKam\\Downloads\\node-minecraft-protocol-master\\node_modules\\readable-stream\\lib\\_stream_writable.js:418:64\n> )\n>     at writeOrBuffer (C:\\Users\\ThiKam\\Downloads\\node-minecraft-protocol-master\\node_modules\\readable-stream\\lib\\_stream_writable.js:\n> 407:5)\n>     at FullPacketParser.Writable.write (C:\\Users\\ThiKam\\Downloads\\node-minecraft-protocol-master\\node_modules\\readable-stream\\lib\\_s\n> tream_writable.js:334:11)\n>     at Decompressor.ondata (C:\\Users\\ThiKam\\Downloads\\node-minecraft-protocol-master\\node_modules\\readable-stream\\lib\\_stream_readab\n> le.js:619:20)\n>     at emitOne (events.js:116:13)\n>     at Decompressor.emit (events.js:211:7)\n>     at addChunk (C:\\Users\\ThiKam\\Downloads\\node-minecraft-protocol-master\\node_modules\\readable-stream\\lib\\_stream_readable.js:291:1\n> 2)\n>\n> —\n> You are receiving this because you authored the thread.\n>\n>\n> Reply to this email directly, view it on GitHub\n> <https://github.com/PrismarineJS/mineflayer/issues/603#issuecomment-365603353>,\n> or mute the thread\n> <https://github.com/notifications/unsubscribe-auth/AS9p3QNGN4XJSMNT5-D_xouluY7ckJz1ks5tUtw0gaJpZM4P-ma3>\n> .\n>\n",
            "created_at": "2018-02-14T22:03:06Z",
            "html_url": "https://github.com/PrismarineJS/mineflayer/issues/603#issuecomment-365759796",
            "id": 365759796,
            "issue_url": "https://api.github.com/repos/PrismarineJS/mineflayer/issues/603",
            "node_id": "MDEyOklzc3VlQ29tbWVudDM2NTc1OTc5Ng==",
            "performed_via_github_app": null,
            "reactions": {
                "+1": 0,
                "-1": 0,
                "confused": 0,
                "eyes": 0,
                "heart": 0,
                "hooray": 0,
                "laugh": 0,
                "rocket": 0,
                "total_count": 0,
                "url": "https://api.github.com/repos/PrismarineJS/mineflayer/issues/comments/365759796/reactions"
            },
            "updated_at": "2018-02-14T22:03:06Z",
            "url": "https://api.github.com/repos/PrismarineJS/mineflayer/issues/comments/365759796",
            "user": {
                "avatar_url": "https://avatars.githubusercontent.com/u/19884509?v=4",
                "events_url": "https://api.github.com/users/FaZeMelon/events{/privacy}",
                "followers_url": "https://api.github.com/users/FaZeMelon/followers",
                "following_url": "https://api.github.com/users/FaZeMelon/following{/other_user}",
                "gists_url": "https://api.github.com/users/FaZeMelon/gists{/gist_id}",
                "gravatar_id": "",
                "html_url": "https://github.com/FaZeMelon",
                "id": 19884509,
                "login": "FaZeMelon",
                "node_id": "MDQ6VXNlcjE5ODg0NTA5",
                "organizations_url": "https://api.github.com/users/FaZeMelon/orgs",
                "received_events_url": "https://api.github.com/users/FaZeMelon/received_events",
                "repos_url": "https://api.github.com/users/FaZeMelon/repos",
                "site_admin": false,
                "starred_url": "https://api.github.com/users/FaZeMelon/starred{/owner}{/repo}",
                "subscriptions_url": "https://api.github.com/users/FaZeMelon/subscriptions",
                "type": "User",
                "url": "https://api.github.com/users/FaZeMelon"
            }
        },
        {
            "author_association": "MEMBER",
            "body": "reopen if you still have this issue",
            "created_at": "2020-05-09T20:16:22Z",
            "html_url": "https://github.com/PrismarineJS/mineflayer/issues/603#issuecomment-626229894",
            "id": 626229894,
            "issue_url": "https://api.github.com/repos/PrismarineJS/mineflayer/issues/603",
            "node_id": "MDEyOklzc3VlQ29tbWVudDYyNjIyOTg5NA==",
            "performed_via_github_app": null,
            "reactions": {
                "+1": 0,
                "-1": 0,
                "confused": 0,
                "eyes": 0,
                "heart": 0,
                "hooray": 0,
                "laugh": 0,
                "rocket": 0,
                "total_count": 0,
                "url": "https://api.github.com/repos/PrismarineJS/mineflayer/issues/comments/626229894/reactions"
            },
            "updated_at": "2020-05-09T20:16:22Z",
            "url": "https://api.github.com/repos/PrismarineJS/mineflayer/issues/comments/626229894",
            "user": {
                "avatar_url": "https://avatars.githubusercontent.com/u/2346494?v=4",
                "events_url": "https://api.github.com/users/rom1504/events{/privacy}",
                "followers_url": "https://api.github.com/users/rom1504/followers",
                "following_url": "https://api.github.com/users/rom1504/following{/other_user}",
                "gists_url": "https://api.github.com/users/rom1504/gists{/gist_id}",
                "gravatar_id": "",
                "html_url": "https://github.com/rom1504",
                "id": 2346494,
                "login": "rom1504",
                "node_id": "MDQ6VXNlcjIzNDY0OTQ=",
                "organizations_url": "https://api.github.com/users/rom1504/orgs",
                "received_events_url": "https://api.github.com/users/rom1504/received_events",
                "repos_url": "https://api.github.com/users/rom1504/repos",
                "site_admin": false,
                "starred_url": "https://api.github.com/users/rom1504/starred{/owner}{/repo}",
                "subscriptions_url": "https://api.github.com/users/rom1504/subscriptions",
                "type": "User",
                "url": "https://api.github.com/users/rom1504"
            }
        },
        {
            "author_association": "NONE",
            "body": "still have the issue, 1.15.2 mineflayer\r\nError: Deserialization error for play.toClient.declare_recipes.recipes.0.data : Read error for params.declare_recipes.recipes.0.data : crafting_shapeless has no associated fieldInfo in switch\r\n\r\nearthmc.net\r\n",
            "created_at": "2020-05-10T04:54:45Z",
            "html_url": "https://github.com/PrismarineJS/mineflayer/issues/603#issuecomment-626273579",
            "id": 626273579,
            "issue_url": "https://api.github.com/repos/PrismarineJS/mineflayer/issues/603",
            "node_id": "MDEyOklzc3VlQ29tbWVudDYyNjI3MzU3OQ==",
            "performed_via_github_app": null,
            "reactions": {
                "+1": 0,
                "-1": 0,
                "confused": 0,
                "eyes": 0,
                "heart": 0,
                "hooray": 0,
                "laugh": 0,
                "rocket": 0,
                "total_count": 0,
                "url": "https://api.github.com/repos/PrismarineJS/mineflayer/issues/comments/626273579/reactions"
            },
            "updated_at": "2020-05-10T04:54:45Z",
            "url": "https://api.github.com/repos/PrismarineJS/mineflayer/issues/comments/626273579",
            "user": {
                "avatar_url": "https://avatars.githubusercontent.com/u/48740106?v=4",
                "events_url": "https://api.github.com/users/moom0o/events{/privacy}",
                "followers_url": "https://api.github.com/users/moom0o/followers",
                "following_url": "https://api.github.com/users/moom0o/following{/other_user}",
                "gists_url": "https://api.github.com/users/moom0o/gists{/gist_id}",
                "gravatar_id": "",
                "html_url": "https://github.com/moom0o",
                "id": 48740106,
                "login": "moom0o",
                "node_id": "MDQ6VXNlcjQ4NzQwMTA2",
                "organizations_url": "https://api.github.com/users/moom0o/orgs",
                "received_events_url": "https://api.github.com/users/moom0o/received_events",
                "repos_url": "https://api.github.com/users/moom0o/repos",
                "site_admin": false,
                "starred_url": "https://api.github.com/users/moom0o/starred{/owner}{/repo}",
                "subscriptions_url": "https://api.github.com/users/moom0o/subscriptions",
                "type": "User",
                "url": "https://api.github.com/users/moom0o"
            }
        },
        {
            "author_association": "MEMBER",
            "body": "Ok weird, I'll have a look",
            "created_at": "2020-05-10T09:00:49Z",
            "html_url": "https://github.com/PrismarineJS/mineflayer/issues/603#issuecomment-626295759",
            "id": 626295759,
            "issue_url": "https://api.github.com/repos/PrismarineJS/mineflayer/issues/603",
            "node_id": "MDEyOklzc3VlQ29tbWVudDYyNjI5NTc1OQ==",
            "performed_via_github_app": null,
            "reactions": {
                "+1": 0,
                "-1": 0,
                "confused": 0,
                "eyes": 0,
                "heart": 0,
                "hooray": 0,
                "laugh": 0,
                "rocket": 0,
                "total_count": 0,
                "url": "https://api.github.com/repos/PrismarineJS/mineflayer/issues/comments/626295759/reactions"
            },
            "updated_at": "2020-05-10T09:00:49Z",
            "url": "https://api.github.com/repos/PrismarineJS/mineflayer/issues/comments/626295759",
            "user": {
                "avatar_url": "https://avatars.githubusercontent.com/u/2346494?v=4",
                "events_url": "https://api.github.com/users/rom1504/events{/privacy}",
                "followers_url": "https://api.github.com/users/rom1504/followers",
                "following_url": "https://api.github.com/users/rom1504/following{/other_user}",
                "gists_url": "https://api.github.com/users/rom1504/gists{/gist_id}",
                "gravatar_id": "",
                "html_url": "https://github.com/rom1504",
                "id": 2346494,
                "login": "rom1504",
                "node_id": "MDQ6VXNlcjIzNDY0OTQ=",
                "organizations_url": "https://api.github.com/users/rom1504/orgs",
                "received_events_url": "https://api.github.com/users/rom1504/received_events",
                "repos_url": "https://api.github.com/users/rom1504/repos",
                "site_admin": false,
                "starred_url": "https://api.github.com/users/rom1504/starred{/owner}{/repo}",
                "subscriptions_url": "https://api.github.com/users/rom1504/subscriptions",
                "type": "User",
                "url": "https://api.github.com/users/rom1504"
            }
        },
        {
            "author_association": "MEMBER",
            "body": "@skyrawr this is pretty much another error, please create new issue for that",
            "created_at": "2020-05-11T08:56:41Z",
            "html_url": "https://github.com/PrismarineJS/mineflayer/issues/603#issuecomment-626568654",
            "id": 626568654,
            "issue_url": "https://api.github.com/repos/PrismarineJS/mineflayer/issues/603",
            "node_id": "MDEyOklzc3VlQ29tbWVudDYyNjU2ODY1NA==",
            "performed_via_github_app": null,
            "reactions": {
                "+1": 0,
                "-1": 0,
                "confused": 0,
                "eyes": 0,
                "heart": 0,
                "hooray": 0,
                "laugh": 0,
                "rocket": 0,
                "total_count": 0,
                "url": "https://api.github.com/repos/PrismarineJS/mineflayer/issues/comments/626568654/reactions"
            },
            "updated_at": "2020-05-11T08:56:41Z",
            "url": "https://api.github.com/repos/PrismarineJS/mineflayer/issues/comments/626568654",
            "user": {
                "avatar_url": "https://avatars.githubusercontent.com/u/13330620?v=4",
                "events_url": "https://api.github.com/users/wvffle/events{/privacy}",
                "followers_url": "https://api.github.com/users/wvffle/followers",
                "following_url": "https://api.github.com/users/wvffle/following{/other_user}",
                "gists_url": "https://api.github.com/users/wvffle/gists{/gist_id}",
                "gravatar_id": "",
                "html_url": "https://github.com/wvffle",
                "id": 13330620,
                "login": "wvffle",
                "node_id": "MDQ6VXNlcjEzMzMwNjIw",
                "organizations_url": "https://api.github.com/users/wvffle/orgs",
                "received_events_url": "https://api.github.com/users/wvffle/received_events",
                "repos_url": "https://api.github.com/users/wvffle/repos",
                "site_admin": false,
                "starred_url": "https://api.github.com/users/wvffle/starred{/owner}{/repo}",
                "subscriptions_url": "https://api.github.com/users/wvffle/subscriptions",
                "type": "User",
                "url": "https://api.github.com/users/wvffle"
            }
        },
        {
            "author_association": "NONE",
            "body": "same issue, nmp proxy broke after defending a raid, 1.15.2.",
            "created_at": "2020-06-04T06:03:25Z",
            "html_url": "https://github.com/PrismarineJS/mineflayer/issues/603#issuecomment-638621718",
            "id": 638621718,
            "issue_url": "https://api.github.com/repos/PrismarineJS/mineflayer/issues/603",
            "node_id": "MDEyOklzc3VlQ29tbWVudDYzODYyMTcxOA==",
            "performed_via_github_app": null,
            "reactions": {
                "+1": 0,
                "-1": 0,
                "confused": 0,
                "eyes": 0,
                "heart": 0,
                "hooray": 0,
                "laugh": 0,
                "rocket": 0,
                "total_count": 0,
                "url": "https://api.github.com/repos/PrismarineJS/mineflayer/issues/comments/638621718/reactions"
            },
            "updated_at": "2020-06-04T06:03:39Z",
            "url": "https://api.github.com/repos/PrismarineJS/mineflayer/issues/comments/638621718",
            "user": {
                "avatar_url": "https://avatars.githubusercontent.com/u/36255199?v=4",
                "events_url": "https://api.github.com/users/duxeyo/events{/privacy}",
                "followers_url": "https://api.github.com/users/duxeyo/followers",
                "following_url": "https://api.github.com/users/duxeyo/following{/other_user}",
                "gists_url": "https://api.github.com/users/duxeyo/gists{/gist_id}",
                "gravatar_id": "",
                "html_url": "https://github.com/duxeyo",
                "id": 36255199,
                "login": "duxeyo",
                "node_id": "MDQ6VXNlcjM2MjU1MTk5",
                "organizations_url": "https://api.github.com/users/duxeyo/orgs",
                "received_events_url": "https://api.github.com/users/duxeyo/received_events",
                "repos_url": "https://api.github.com/users/duxeyo/repos",
                "site_admin": false,
                "starred_url": "https://api.github.com/users/duxeyo/starred{/owner}{/repo}",
                "subscriptions_url": "https://api.github.com/users/duxeyo/subscriptions",
                "type": "User",
                "url": "https://api.github.com/users/duxeyo"
            }
        },
        {
            "author_association": "NONE",
            "body": "Same issue.",
            "created_at": "2020-06-16T17:07:45Z",
            "html_url": "https://github.com/PrismarineJS/mineflayer/issues/603#issuecomment-644894242",
            "id": 644894242,
            "issue_url": "https://api.github.com/repos/PrismarineJS/mineflayer/issues/603",
            "node_id": "MDEyOklzc3VlQ29tbWVudDY0NDg5NDI0Mg==",
            "performed_via_github_app": null,
            "reactions": {
                "+1": 0,
                "-1": 0,
                "confused": 0,
                "eyes": 0,
                "heart": 0,
                "hooray": 0,
                "laugh": 0,
                "rocket": 0,
                "total_count": 0,
                "url": "https://api.github.com/repos/PrismarineJS/mineflayer/issues/comments/644894242/reactions"
            },
            "updated_at": "2020-06-16T17:07:45Z",
            "url": "https://api.github.com/repos/PrismarineJS/mineflayer/issues/comments/644894242",
            "user": {
                "avatar_url": "https://avatars.githubusercontent.com/u/33694505?v=4",
                "events_url": "https://api.github.com/users/shadowdevfr/events{/privacy}",
                "followers_url": "https://api.github.com/users/shadowdevfr/followers",
                "following_url": "https://api.github.com/users/shadowdevfr/following{/other_user}",
                "gists_url": "https://api.github.com/users/shadowdevfr/gists{/gist_id}",
                "gravatar_id": "",
                "html_url": "https://github.com/shadowdevfr",
                "id": 33694505,
                "login": "shadowdevfr",
                "node_id": "MDQ6VXNlcjMzNjk0NTA1",
                "organizations_url": "https://api.github.com/users/shadowdevfr/orgs",
                "received_events_url": "https://api.github.com/users/shadowdevfr/received_events",
                "repos_url": "https://api.github.com/users/shadowdevfr/repos",
                "site_admin": false,
                "starred_url": "https://api.github.com/users/shadowdevfr/starred{/owner}{/repo}",
                "subscriptions_url": "https://api.github.com/users/shadowdevfr/subscriptions",
                "type": "User",
                "url": "https://api.github.com/users/shadowdevfr"
            }
        },
        {
            "author_association": "MEMBER",
            "body": "Post the full error.\r\n\"Same issue\" is not solvable",
            "created_at": "2020-06-16T17:09:29Z",
            "html_url": "https://github.com/PrismarineJS/mineflayer/issues/603#issuecomment-644895103",
            "id": 644895103,
            "issue_url": "https://api.github.com/repos/PrismarineJS/mineflayer/issues/603",
            "node_id": "MDEyOklzc3VlQ29tbWVudDY0NDg5NTEwMw==",
            "performed_via_github_app": null,
            "reactions": {
                "+1": 0,
                "-1": 0,
                "confused": 0,
                "eyes": 0,
                "heart": 0,
                "hooray": 0,
                "laugh": 0,
                "rocket": 0,
                "total_count": 0,
                "url": "https://api.github.com/repos/PrismarineJS/mineflayer/issues/comments/644895103/reactions"
            },
            "updated_at": "2020-06-16T17:09:29Z",
            "url": "https://api.github.com/repos/PrismarineJS/mineflayer/issues/comments/644895103",
            "user": {
                "avatar_url": "https://avatars.githubusercontent.com/u/2346494?v=4",
                "events_url": "https://api.github.com/users/rom1504/events{/privacy}",
                "followers_url": "https://api.github.com/users/rom1504/followers",
                "following_url": "https://api.github.com/users/rom1504/following{/other_user}",
                "gists_url": "https://api.github.com/users/rom1504/gists{/gist_id}",
                "gravatar_id": "",
                "html_url": "https://github.com/rom1504",
                "id": 2346494,
                "login": "rom1504",
                "node_id": "MDQ6VXNlcjIzNDY0OTQ=",
                "organizations_url": "https://api.github.com/users/rom1504/orgs",
                "received_events_url": "https://api.github.com/users/rom1504/received_events",
                "repos_url": "https://api.github.com/users/rom1504/repos",
                "site_admin": false,
                "starred_url": "https://api.github.com/users/rom1504/starred{/owner}{/repo}",
                "subscriptions_url": "https://api.github.com/users/rom1504/subscriptions",
                "type": "User",
                "url": "https://api.github.com/users/rom1504"
            }
        },
        {
            "author_association": "MEMBER",
            "body": "too random",
            "created_at": "2020-12-28T17:44:04Z",
            "html_url": "https://github.com/PrismarineJS/mineflayer/issues/603#issuecomment-751804041",
            "id": 751804041,
            "issue_url": "https://api.github.com/repos/PrismarineJS/mineflayer/issues/603",
            "node_id": "MDEyOklzc3VlQ29tbWVudDc1MTgwNDA0MQ==",
            "performed_via_github_app": null,
            "reactions": {
                "+1": 0,
                "-1": 0,
                "confused": 0,
                "eyes": 0,
                "heart": 0,
                "hooray": 0,
                "laugh": 0,
                "rocket": 0,
                "total_count": 0,
                "url": "https://api.github.com/repos/PrismarineJS/mineflayer/issues/comments/751804041/reactions"
            },
            "updated_at": "2020-12-28T17:44:04Z",
            "url": "https://api.github.com/repos/PrismarineJS/mineflayer/issues/comments/751804041",
            "user": {
                "avatar_url": "https://avatars.githubusercontent.com/u/2346494?v=4",
                "events_url": "https://api.github.com/users/rom1504/events{/privacy}",
                "followers_url": "https://api.github.com/users/rom1504/followers",
                "following_url": "https://api.github.com/users/rom1504/following{/other_user}",
                "gists_url": "https://api.github.com/users/rom1504/gists{/gist_id}",
                "gravatar_id": "",
                "html_url": "https://github.com/rom1504",
                "id": 2346494,
                "login": "rom1504",
                "node_id": "MDQ6VXNlcjIzNDY0OTQ=",
                "organizations_url": "https://api.github.com/users/rom1504/orgs",
                "received_events_url": "https://api.github.com/users/rom1504/received_events",
                "repos_url": "https://api.github.com/users/rom1504/repos",
                "site_admin": false,
                "starred_url": "https://api.github.com/users/rom1504/starred{/owner}{/repo}",
                "subscriptions_url": "https://api.github.com/users/rom1504/subscriptions",
                "type": "User",
                "url": "https://api.github.com/users/rom1504"
            }
        }
    ],
    "comments": 18,
    "comments_url": "https://api.github.com/repos/PrismarineJS/mineflayer/issues/603/comments",
    "created_at": "2017-10-19T02:05:05Z",
    "event_data": [
        {
            "actor": {
                "avatar_url": "https://avatars.githubusercontent.com/u/2346494?v=4",
                "events_url": "https://api.github.com/users/rom1504/events{/privacy}",
                "followers_url": "https://api.github.com/users/rom1504/followers",
                "following_url": "https://api.github.com/users/rom1504/following{/other_user}",
                "gists_url": "https://api.github.com/users/rom1504/gists{/gist_id}",
                "gravatar_id": "",
                "html_url": "https://github.com/rom1504",
                "id": 2346494,
                "login": "rom1504",
                "node_id": "MDQ6VXNlcjIzNDY0OTQ=",
                "organizations_url": "https://api.github.com/users/rom1504/orgs",
                "received_events_url": "https://api.github.com/users/rom1504/received_events",
                "repos_url": "https://api.github.com/users/rom1504/repos",
                "site_admin": false,
                "starred_url": "https://api.github.com/users/rom1504/starred{/owner}{/repo}",
                "subscriptions_url": "https://api.github.com/users/rom1504/subscriptions",
                "type": "User",
                "url": "https://api.github.com/users/rom1504"
            },
            "commit_id": null,
            "commit_url": null,
            "created_at": "2017-11-05T14:39:52Z",
            "event": "labeled",
            "id": 1326505062,
            "label": {
                "color": "a9597f",
                "name": "non-vanilla"
            },
            "node_id": "MDEyOkxhYmVsZWRFdmVudDEzMjY1MDUwNjI=",
            "performed_via_github_app": null,
            "url": "https://api.github.com/repos/PrismarineJS/mineflayer/issues/events/1326505062"
        },
        {
            "actor": {
                "avatar_url": "https://avatars.githubusercontent.com/u/2346494?v=4",
                "events_url": "https://api.github.com/users/rom1504/events{/privacy}",
                "followers_url": "https://api.github.com/users/rom1504/followers",
                "following_url": "https://api.github.com/users/rom1504/following{/other_user}",
                "gists_url": "https://api.github.com/users/rom1504/gists{/gist_id}",
                "gravatar_id": "",
                "html_url": "https://github.com/rom1504",
                "id": 2346494,
                "login": "rom1504",
                "node_id": "MDQ6VXNlcjIzNDY0OTQ=",
                "organizations_url": "https://api.github.com/users/rom1504/orgs",
                "received_events_url": "https://api.github.com/users/rom1504/received_events",
                "repos_url": "https://api.github.com/users/rom1504/repos",
                "site_admin": false,
                "starred_url": "https://api.github.com/users/rom1504/starred{/owner}{/repo}",
                "subscriptions_url": "https://api.github.com/users/rom1504/subscriptions",
                "type": "User",
                "url": "https://api.github.com/users/rom1504"
            },
            "commit_id": null,
            "commit_url": null,
            "created_at": "2017-11-05T14:40:44Z",
            "event": "labeled",
            "id": 1326505475,
            "label": {
                "color": "207de5",
                "name": "protocol support"
            },
            "node_id": "MDEyOkxhYmVsZWRFdmVudDEzMjY1MDU0NzU=",
            "performed_via_github_app": null,
            "url": "https://api.github.com/repos/PrismarineJS/mineflayer/issues/events/1326505475"
        },
        {
            "actor": {
                "avatar_url": "https://avatars.githubusercontent.com/u/2346494?v=4",
                "events_url": "https://api.github.com/users/rom1504/events{/privacy}",
                "followers_url": "https://api.github.com/users/rom1504/followers",
                "following_url": "https://api.github.com/users/rom1504/following{/other_user}",
                "gists_url": "https://api.github.com/users/rom1504/gists{/gist_id}",
                "gravatar_id": "",
                "html_url": "https://github.com/rom1504",
                "id": 2346494,
                "login": "rom1504",
                "node_id": "MDQ6VXNlcjIzNDY0OTQ=",
                "organizations_url": "https://api.github.com/users/rom1504/orgs",
                "received_events_url": "https://api.github.com/users/rom1504/received_events",
                "repos_url": "https://api.github.com/users/rom1504/repos",
                "site_admin": false,
                "starred_url": "https://api.github.com/users/rom1504/starred{/owner}{/repo}",
                "subscriptions_url": "https://api.github.com/users/rom1504/subscriptions",
                "type": "User",
                "url": "https://api.github.com/users/rom1504"
            },
            "commit_id": null,
            "commit_url": null,
            "created_at": "2020-05-09T20:16:22Z",
            "event": "closed",
            "id": 3319712259,
            "node_id": "MDExOkNsb3NlZEV2ZW50MzMxOTcxMjI1OQ==",
            "performed_via_github_app": null,
            "state_reason": null,
            "url": "https://api.github.com/repos/PrismarineJS/mineflayer/issues/events/3319712259"
        },
        {
            "actor": {
                "avatar_url": "https://avatars.githubusercontent.com/u/2346494?v=4",
                "events_url": "https://api.github.com/users/rom1504/events{/privacy}",
                "followers_url": "https://api.github.com/users/rom1504/followers",
                "following_url": "https://api.github.com/users/rom1504/following{/other_user}",
                "gists_url": "https://api.github.com/users/rom1504/gists{/gist_id}",
                "gravatar_id": "",
                "html_url": "https://github.com/rom1504",
                "id": 2346494,
                "login": "rom1504",
                "node_id": "MDQ6VXNlcjIzNDY0OTQ=",
                "organizations_url": "https://api.github.com/users/rom1504/orgs",
                "received_events_url": "https://api.github.com/users/rom1504/received_events",
                "repos_url": "https://api.github.com/users/rom1504/repos",
                "site_admin": false,
                "starred_url": "https://api.github.com/users/rom1504/starred{/owner}{/repo}",
                "subscriptions_url": "https://api.github.com/users/rom1504/subscriptions",
                "type": "User",
                "url": "https://api.github.com/users/rom1504"
            },
            "commit_id": null,
            "commit_url": null,
            "created_at": "2020-05-10T09:00:21Z",
            "event": "reopened",
            "id": 3320128624,
            "node_id": "MDEzOlJlb3BlbmVkRXZlbnQzMzIwMTI4NjI0",
            "performed_via_github_app": null,
            "state_reason": null,
            "url": "https://api.github.com/repos/PrismarineJS/mineflayer/issues/events/3320128624"
        },
        {
            "actor": {
                "avatar_url": "https://avatars.githubusercontent.com/u/2346494?v=4",
                "events_url": "https://api.github.com/users/rom1504/events{/privacy}",
                "followers_url": "https://api.github.com/users/rom1504/followers",
                "following_url": "https://api.github.com/users/rom1504/following{/other_user}",
                "gists_url": "https://api.github.com/users/rom1504/gists{/gist_id}",
                "gravatar_id": "",
                "html_url": "https://github.com/rom1504",
                "id": 2346494,
                "login": "rom1504",
                "node_id": "MDQ6VXNlcjIzNDY0OTQ=",
                "organizations_url": "https://api.github.com/users/rom1504/orgs",
                "received_events_url": "https://api.github.com/users/rom1504/received_events",
                "repos_url": "https://api.github.com/users/rom1504/repos",
                "site_admin": false,
                "starred_url": "https://api.github.com/users/rom1504/starred{/owner}{/repo}",
                "subscriptions_url": "https://api.github.com/users/rom1504/subscriptions",
                "type": "User",
                "url": "https://api.github.com/users/rom1504"
            },
            "commit_id": null,
            "commit_url": null,
            "created_at": "2020-12-28T17:44:04Z",
            "event": "closed",
            "id": 4152662078,
            "node_id": "MDExOkNsb3NlZEV2ZW50NDE1MjY2MjA3OA==",
            "performed_via_github_app": null,
            "state_reason": null,
            "url": "https://api.github.com/repos/PrismarineJS/mineflayer/issues/events/4152662078"
        }
    ],
    "events_url": "https://api.github.com/repos/PrismarineJS/mineflayer/issues/603/events",
    "html_url": "https://github.com/PrismarineJS/mineflayer/issues/603",
    "id": 266697592,
    "labels": [
        {
            "color": "207de5",
            "default": false,
            "description": null,
            "id": 192723915,
            "name": "protocol support",
            "node_id": "MDU6TGFiZWwxOTI3MjM5MTU=",
            "url": "https://api.github.com/repos/PrismarineJS/mineflayer/labels/protocol%20support"
        },
        {
            "color": "a9597f",
            "default": false,
            "description": null,
            "id": 567571996,
            "name": "non-vanilla",
            "node_id": "MDU6TGFiZWw1Njc1NzE5OTY=",
            "url": "https://api.github.com/repos/PrismarineJS/mineflayer/labels/non-vanilla"
        }
    ],
    "labels_url": "https://api.github.com/repos/PrismarineJS/mineflayer/issues/603/labels{/name}",
    "locked": false,
    "milestone": null,
    "node_id": "MDU6SXNzdWUyNjY2OTc1OTI=",
    "number": 603,
    "performed_via_github_app": null,
    "reactions": {
        "+1": 0,
        "-1": 0,
        "confused": 0,
        "eyes": 0,
        "heart": 0,
        "hooray": 0,
        "laugh": 0,
        "rocket": 0,
        "total_count": 0,
        "url": "https://api.github.com/repos/PrismarineJS/mineflayer/issues/603/reactions"
    },
    "repository_url": "https://api.github.com/repos/PrismarineJS/mineflayer",
    "state": "closed",
    "state_reason": "completed",
    "timeline_url": "https://api.github.com/repos/PrismarineJS/mineflayer/issues/603/timeline",
    "title": "Error: Deserialization error for play.toClient : Read error for name : 123 is no t in the mappings value",
    "updated_at": "2020-12-28T17:44:04Z",
    "url": "https://api.github.com/repos/PrismarineJS/mineflayer/issues/603",
    "user": {
        "avatar_url": "https://avatars.githubusercontent.com/u/19884509?v=4",
        "events_url": "https://api.github.com/users/FaZeMelon/events{/privacy}",
        "followers_url": "https://api.github.com/users/FaZeMelon/followers",
        "following_url": "https://api.github.com/users/FaZeMelon/following{/other_user}",
        "gists_url": "https://api.github.com/users/FaZeMelon/gists{/gist_id}",
        "gravatar_id": "",
        "html_url": "https://github.com/FaZeMelon",
        "id": 19884509,
        "login": "FaZeMelon",
        "node_id": "MDQ6VXNlcjE5ODg0NTA5",
        "organizations_url": "https://api.github.com/users/FaZeMelon/orgs",
        "received_events_url": "https://api.github.com/users/FaZeMelon/received_events",
        "repos_url": "https://api.github.com/users/FaZeMelon/repos",
        "site_admin": false,
        "starred_url": "https://api.github.com/users/FaZeMelon/starred{/owner}{/repo}",
        "subscriptions_url": "https://api.github.com/users/FaZeMelon/subscriptions",
        "type": "User",
        "url": "https://api.github.com/users/FaZeMelon"
    }
}