{
    "active_lock_reason": null,
    "assignee": null,
    "assignees": [],
    "author_association": "NONE",
    "body": "I have tried the examples, downloaded and tried testing several other bots and coded my own bot all with no success. I even took and coded my own `placeBlock` function based off of the original one switching around the variables to see if that was the issue. \r\n\r\nIt doesnt look like there are any protocol changes that should mess with this http://wiki.vg/Protocol_History#1.12.2\r\n\r\nLooks like the latest protocol version( http://wiki.vg/Protocol#Player_Block_Placement )  matches up with \r\nthe minecraft-protocol/data code -> https://github.com/PrismarineJS/minecraft-data/blob/master/data/pc/1.12.2/protocol.json#L3780\r\n\r\n\r\n```\r\n\"dependencies\": {\r\n    \"mineflayer\":\"2.6.1\",\r\n    \"mineflayer-blockfinder\": \"0.0.7\",\r\n    \"mineflayer-bloodhound\": \"https://github.com/Nixes/mineflayer-bloodhound\",\r\n    \"mineflayer-navigate\": \"0.0.10\",\r\n    \"mineflayer-radar\": \"0.0.2\",\r\n  }\r\n```\r\nIt seems to be finding the blocks fine, it looks at them at least. I also tried having it select random blocks around it self. It looks like it has the block equipped alright, I can see the block in its hand and the block shows up in the `bot.heldItem` spot.\r\n\r\nAny suggestions would be huge. Thanks!",
    "closed_at": "2018-05-01T19:24:40Z",
    "comment_data": [
        {
            "author_association": "MEMBER",
            "body": "Might be related with the fact that 1.12.2 is not currently supported by\nmineflayer ;) Look at the readme.\nI'll update it.\n\nOn Sun, Mar 25, 2018, 19:24 Matt Lea <notifications@github.com> wrote:\n\n> I have tried the examples, downloaded and tried testing several other bots\n> and coded my own bot all with no success. I even took and coded my own\n> placeBlock function based off of the original one switching around the\n> variables to see if that was the issue.\n>\n> It doesnt look like there are any protocol changes that should mess with\n> this http://wiki.vg/Protocol_History#1.12.2\n>\n> Looks like the latest protocol version(\n> http://wiki.vg/Protocol#Player_Block_Placement ) matches up with\n> the minecraft-protocol/data code ->\n> https://github.com/PrismarineJS/minecraft-data/blob/master/data/pc/1.12.2/protocol.json#L3780\n>\n> \"dependencies\": {\n>     \"mineflayer\":\"2.6.1\",\n>     \"mineflayer-blockfinder\": \"0.0.7\",\n>     \"mineflayer-bloodhound\": \"https://github.com/Nixes/mineflayer-bloodhound\",\n>     \"mineflayer-navigate\": \"0.0.10\",\n>     \"mineflayer-radar\": \"0.0.2\",\n>   }\n>\n> It seems to be finding the blocks fine, it looks at them at least. I also\n> tried having it select random blocks around it self. It looks like it has\n> the block equipped alright, I can see the block in its hand and the block\n> shows up in the bot.heldItem spot.\n>\n> Any suggestions would be huge. Thanks!\n>\n> —\n> You are receiving this because you are subscribed to this thread.\n> Reply to this email directly, view it on GitHub\n> <https://github.com/PrismarineJS/mineflayer/issues/656>, or mute the\n> thread\n> <https://github.com/notifications/unsubscribe-auth/ACPN_gdzzckPiaiw7BC9cLJymUBQkd9aks5th9LjgaJpZM4S6OVL>\n> .\n>\n",
            "created_at": "2018-03-25T23:10:45Z",
            "html_url": "https://github.com/PrismarineJS/mineflayer/issues/656#issuecomment-376011567",
            "id": 376011567,
            "issue_url": "https://api.github.com/repos/PrismarineJS/mineflayer/issues/656",
            "node_id": "MDEyOklzc3VlQ29tbWVudDM3NjAxMTU2Nw==",
            "performed_via_github_app": null,
            "reactions": {
                "+1": 0,
                "-1": 0,
                "confused": 0,
                "eyes": 0,
                "heart": 0,
                "hooray": 0,
                "laugh": 0,
                "rocket": 0,
                "total_count": 0,
                "url": "https://api.github.com/repos/PrismarineJS/mineflayer/issues/comments/376011567/reactions"
            },
            "updated_at": "2018-03-25T23:10:45Z",
            "url": "https://api.github.com/repos/PrismarineJS/mineflayer/issues/comments/376011567",
            "user": {
                "avatar_url": "https://avatars.githubusercontent.com/u/2346494?v=4",
                "events_url": "https://api.github.com/users/rom1504/events{/privacy}",
                "followers_url": "https://api.github.com/users/rom1504/followers",
                "following_url": "https://api.github.com/users/rom1504/following{/other_user}",
                "gists_url": "https://api.github.com/users/rom1504/gists{/gist_id}",
                "gravatar_id": "",
                "html_url": "https://github.com/rom1504",
                "id": 2346494,
                "login": "rom1504",
                "node_id": "MDQ6VXNlcjIzNDY0OTQ=",
                "organizations_url": "https://api.github.com/users/rom1504/orgs",
                "received_events_url": "https://api.github.com/users/rom1504/received_events",
                "repos_url": "https://api.github.com/users/rom1504/repos",
                "site_admin": false,
                "starred_url": "https://api.github.com/users/rom1504/starred{/owner}{/repo}",
                "subscriptions_url": "https://api.github.com/users/rom1504/subscriptions",
                "type": "User",
                "url": "https://api.github.com/users/rom1504"
            }
        },
        {
            "author_association": "NONE",
            "body": "@rom1504 I am aware but the protocols match enough that I doubt that is the actual cause. Also the `minecraft-protocol` actually supports 1.12.2 -> https://www.npmjs.com/package/minecraft-protocol\r\nEither way in the end I was able to fix this by adjusting stuff on the server, not the client. Still not super consistent but we can mark this as closed",
            "created_at": "2018-03-27T13:55:40Z",
            "html_url": "https://github.com/PrismarineJS/mineflayer/issues/656#issuecomment-376534146",
            "id": 376534146,
            "issue_url": "https://api.github.com/repos/PrismarineJS/mineflayer/issues/656",
            "node_id": "MDEyOklzc3VlQ29tbWVudDM3NjUzNDE0Ng==",
            "performed_via_github_app": null,
            "reactions": {
                "+1": 0,
                "-1": 0,
                "confused": 0,
                "eyes": 0,
                "heart": 0,
                "hooray": 0,
                "laugh": 0,
                "rocket": 0,
                "total_count": 0,
                "url": "https://api.github.com/repos/PrismarineJS/mineflayer/issues/comments/376534146/reactions"
            },
            "updated_at": "2018-03-27T13:55:40Z",
            "url": "https://api.github.com/repos/PrismarineJS/mineflayer/issues/comments/376534146",
            "user": {
                "avatar_url": "https://avatars.githubusercontent.com/u/260698?v=4",
                "events_url": "https://api.github.com/users/schematical/events{/privacy}",
                "followers_url": "https://api.github.com/users/schematical/followers",
                "following_url": "https://api.github.com/users/schematical/following{/other_user}",
                "gists_url": "https://api.github.com/users/schematical/gists{/gist_id}",
                "gravatar_id": "",
                "html_url": "https://github.com/schematical",
                "id": 260698,
                "login": "schematical",
                "node_id": "MDQ6VXNlcjI2MDY5OA==",
                "organizations_url": "https://api.github.com/users/schematical/orgs",
                "received_events_url": "https://api.github.com/users/schematical/received_events",
                "repos_url": "https://api.github.com/users/schematical/repos",
                "site_admin": false,
                "starred_url": "https://api.github.com/users/schematical/starred{/owner}{/repo}",
                "subscriptions_url": "https://api.github.com/users/schematical/subscriptions",
                "type": "User",
                "url": "https://api.github.com/users/schematical"
            }
        },
        {
            "author_association": "MEMBER",
            "body": "I checked it with digger.js, it works in 1.12.2.\r\nI think you're probably doing something more complex than using just place block.",
            "created_at": "2018-05-01T19:24:40Z",
            "html_url": "https://github.com/PrismarineJS/mineflayer/issues/656#issuecomment-385764092",
            "id": 385764092,
            "issue_url": "https://api.github.com/repos/PrismarineJS/mineflayer/issues/656",
            "node_id": "MDEyOklzc3VlQ29tbWVudDM4NTc2NDA5Mg==",
            "performed_via_github_app": null,
            "reactions": {
                "+1": 0,
                "-1": 0,
                "confused": 0,
                "eyes": 0,
                "heart": 0,
                "hooray": 0,
                "laugh": 0,
                "rocket": 0,
                "total_count": 0,
                "url": "https://api.github.com/repos/PrismarineJS/mineflayer/issues/comments/385764092/reactions"
            },
            "updated_at": "2018-05-01T19:24:40Z",
            "url": "https://api.github.com/repos/PrismarineJS/mineflayer/issues/comments/385764092",
            "user": {
                "avatar_url": "https://avatars.githubusercontent.com/u/2346494?v=4",
                "events_url": "https://api.github.com/users/rom1504/events{/privacy}",
                "followers_url": "https://api.github.com/users/rom1504/followers",
                "following_url": "https://api.github.com/users/rom1504/following{/other_user}",
                "gists_url": "https://api.github.com/users/rom1504/gists{/gist_id}",
                "gravatar_id": "",
                "html_url": "https://github.com/rom1504",
                "id": 2346494,
                "login": "rom1504",
                "node_id": "MDQ6VXNlcjIzNDY0OTQ=",
                "organizations_url": "https://api.github.com/users/rom1504/orgs",
                "received_events_url": "https://api.github.com/users/rom1504/received_events",
                "repos_url": "https://api.github.com/users/rom1504/repos",
                "site_admin": false,
                "starred_url": "https://api.github.com/users/rom1504/starred{/owner}{/repo}",
                "subscriptions_url": "https://api.github.com/users/rom1504/subscriptions",
                "type": "User",
                "url": "https://api.github.com/users/rom1504"
            }
        }
    ],
    "comments": 3,
    "comments_url": "https://api.github.com/repos/PrismarineJS/mineflayer/issues/656/comments",
    "created_at": "2018-03-25T17:24:51Z",
    "event_data": [
        {
            "actor": {
                "avatar_url": "https://avatars.githubusercontent.com/u/2346494?v=4",
                "events_url": "https://api.github.com/users/rom1504/events{/privacy}",
                "followers_url": "https://api.github.com/users/rom1504/followers",
                "following_url": "https://api.github.com/users/rom1504/following{/other_user}",
                "gists_url": "https://api.github.com/users/rom1504/gists{/gist_id}",
                "gravatar_id": "",
                "html_url": "https://github.com/rom1504",
                "id": 2346494,
                "login": "rom1504",
                "node_id": "MDQ6VXNlcjIzNDY0OTQ=",
                "organizations_url": "https://api.github.com/users/rom1504/orgs",
                "received_events_url": "https://api.github.com/users/rom1504/received_events",
                "repos_url": "https://api.github.com/users/rom1504/repos",
                "site_admin": false,
                "starred_url": "https://api.github.com/users/rom1504/starred{/owner}{/repo}",
                "subscriptions_url": "https://api.github.com/users/rom1504/subscriptions",
                "type": "User",
                "url": "https://api.github.com/users/rom1504"
            },
            "commit_id": null,
            "commit_url": null,
            "created_at": "2018-03-27T13:55:40Z",
            "event": "mentioned",
            "id": 1543286478,
            "node_id": "MDE0Ok1lbnRpb25lZEV2ZW50MTU0MzI4NjQ3OA==",
            "performed_via_github_app": null,
            "url": "https://api.github.com/repos/PrismarineJS/mineflayer/issues/events/1543286478"
        },
        {
            "actor": {
                "avatar_url": "https://avatars.githubusercontent.com/u/2346494?v=4",
                "events_url": "https://api.github.com/users/rom1504/events{/privacy}",
                "followers_url": "https://api.github.com/users/rom1504/followers",
                "following_url": "https://api.github.com/users/rom1504/following{/other_user}",
                "gists_url": "https://api.github.com/users/rom1504/gists{/gist_id}",
                "gravatar_id": "",
                "html_url": "https://github.com/rom1504",
                "id": 2346494,
                "login": "rom1504",
                "node_id": "MDQ6VXNlcjIzNDY0OTQ=",
                "organizations_url": "https://api.github.com/users/rom1504/orgs",
                "received_events_url": "https://api.github.com/users/rom1504/received_events",
                "repos_url": "https://api.github.com/users/rom1504/repos",
                "site_admin": false,
                "starred_url": "https://api.github.com/users/rom1504/starred{/owner}{/repo}",
                "subscriptions_url": "https://api.github.com/users/rom1504/subscriptions",
                "type": "User",
                "url": "https://api.github.com/users/rom1504"
            },
            "commit_id": null,
            "commit_url": null,
            "created_at": "2018-03-27T13:55:40Z",
            "event": "subscribed",
            "id": 1543286479,
            "node_id": "MDE1OlN1YnNjcmliZWRFdmVudDE1NDMyODY0Nzk=",
            "performed_via_github_app": null,
            "url": "https://api.github.com/repos/PrismarineJS/mineflayer/issues/events/1543286479"
        },
        {
            "actor": {
                "avatar_url": "https://avatars.githubusercontent.com/u/260698?v=4",
                "events_url": "https://api.github.com/users/schematical/events{/privacy}",
                "followers_url": "https://api.github.com/users/schematical/followers",
                "following_url": "https://api.github.com/users/schematical/following{/other_user}",
                "gists_url": "https://api.github.com/users/schematical/gists{/gist_id}",
                "gravatar_id": "",
                "html_url": "https://github.com/schematical",
                "id": 260698,
                "login": "schematical",
                "node_id": "MDQ6VXNlcjI2MDY5OA==",
                "organizations_url": "https://api.github.com/users/schematical/orgs",
                "received_events_url": "https://api.github.com/users/schematical/received_events",
                "repos_url": "https://api.github.com/users/schematical/repos",
                "site_admin": false,
                "starred_url": "https://api.github.com/users/schematical/starred{/owner}{/repo}",
                "subscriptions_url": "https://api.github.com/users/schematical/subscriptions",
                "type": "User",
                "url": "https://api.github.com/users/schematical"
            },
            "commit_id": null,
            "commit_url": null,
            "created_at": "2018-03-27T13:55:40Z",
            "event": "closed",
            "id": 1543286483,
            "node_id": "MDExOkNsb3NlZEV2ZW50MTU0MzI4NjQ4Mw==",
            "performed_via_github_app": null,
            "state_reason": null,
            "url": "https://api.github.com/repos/PrismarineJS/mineflayer/issues/events/1543286483"
        },
        {
            "actor": {
                "avatar_url": "https://avatars.githubusercontent.com/u/2346494?v=4",
                "events_url": "https://api.github.com/users/rom1504/events{/privacy}",
                "followers_url": "https://api.github.com/users/rom1504/followers",
                "following_url": "https://api.github.com/users/rom1504/following{/other_user}",
                "gists_url": "https://api.github.com/users/rom1504/gists{/gist_id}",
                "gravatar_id": "",
                "html_url": "https://github.com/rom1504",
                "id": 2346494,
                "login": "rom1504",
                "node_id": "MDQ6VXNlcjIzNDY0OTQ=",
                "organizations_url": "https://api.github.com/users/rom1504/orgs",
                "received_events_url": "https://api.github.com/users/rom1504/received_events",
                "repos_url": "https://api.github.com/users/rom1504/repos",
                "site_admin": false,
                "starred_url": "https://api.github.com/users/rom1504/starred{/owner}{/repo}",
                "subscriptions_url": "https://api.github.com/users/rom1504/subscriptions",
                "type": "User",
                "url": "https://api.github.com/users/rom1504"
            },
            "commit_id": null,
            "commit_url": null,
            "created_at": "2018-03-27T17:37:03Z",
            "event": "reopened",
            "id": 1543814858,
            "node_id": "MDEzOlJlb3BlbmVkRXZlbnQxNTQzODE0ODU4",
            "performed_via_github_app": null,
            "state_reason": null,
            "url": "https://api.github.com/repos/PrismarineJS/mineflayer/issues/events/1543814858"
        },
        {
            "actor": {
                "avatar_url": "https://avatars.githubusercontent.com/u/2346494?v=4",
                "events_url": "https://api.github.com/users/rom1504/events{/privacy}",
                "followers_url": "https://api.github.com/users/rom1504/followers",
                "following_url": "https://api.github.com/users/rom1504/following{/other_user}",
                "gists_url": "https://api.github.com/users/rom1504/gists{/gist_id}",
                "gravatar_id": "",
                "html_url": "https://github.com/rom1504",
                "id": 2346494,
                "login": "rom1504",
                "node_id": "MDQ6VXNlcjIzNDY0OTQ=",
                "organizations_url": "https://api.github.com/users/rom1504/orgs",
                "received_events_url": "https://api.github.com/users/rom1504/received_events",
                "repos_url": "https://api.github.com/users/rom1504/repos",
                "site_admin": false,
                "starred_url": "https://api.github.com/users/rom1504/starred{/owner}{/repo}",
                "subscriptions_url": "https://api.github.com/users/rom1504/subscriptions",
                "type": "User",
                "url": "https://api.github.com/users/rom1504"
            },
            "commit_id": null,
            "commit_url": null,
            "created_at": "2018-05-01T19:24:40Z",
            "event": "closed",
            "id": 1603989410,
            "node_id": "MDExOkNsb3NlZEV2ZW50MTYwMzk4OTQxMA==",
            "performed_via_github_app": null,
            "state_reason": null,
            "url": "https://api.github.com/repos/PrismarineJS/mineflayer/issues/events/1603989410"
        }
    ],
    "events_url": "https://api.github.com/repos/PrismarineJS/mineflayer/issues/656/events",
    "html_url": "https://github.com/PrismarineJS/mineflayer/issues/656",
    "id": 308368135,
    "labels": [],
    "labels_url": "https://api.github.com/repos/PrismarineJS/mineflayer/issues/656/labels{/name}",
    "locked": false,
    "milestone": null,
    "node_id": "MDU6SXNzdWUzMDgzNjgxMzU=",
    "number": 656,
    "performed_via_github_app": null,
    "reactions": {
        "+1": 0,
        "-1": 0,
        "confused": 0,
        "eyes": 0,
        "heart": 0,
        "hooray": 0,
        "laugh": 0,
        "rocket": 0,
        "total_count": 0,
        "url": "https://api.github.com/repos/PrismarineJS/mineflayer/issues/656/reactions"
    },
    "repository_url": "https://api.github.com/repos/PrismarineJS/mineflayer",
    "state": "closed",
    "state_reason": "completed",
    "timeline_url": "https://api.github.com/repos/PrismarineJS/mineflayer/issues/656/timeline",
    "title": "`placeBlock` doesn't work with server 1.12.2",
    "updated_at": "2018-05-01T19:24:40Z",
    "url": "https://api.github.com/repos/PrismarineJS/mineflayer/issues/656",
    "user": {
        "avatar_url": "https://avatars.githubusercontent.com/u/260698?v=4",
        "events_url": "https://api.github.com/users/schematical/events{/privacy}",
        "followers_url": "https://api.github.com/users/schematical/followers",
        "following_url": "https://api.github.com/users/schematical/following{/other_user}",
        "gists_url": "https://api.github.com/users/schematical/gists{/gist_id}",
        "gravatar_id": "",
        "html_url": "https://github.com/schematical",
        "id": 260698,
        "login": "schematical",
        "node_id": "MDQ6VXNlcjI2MDY5OA==",
        "organizations_url": "https://api.github.com/users/schematical/orgs",
        "received_events_url": "https://api.github.com/users/schematical/received_events",
        "repos_url": "https://api.github.com/users/schematical/repos",
        "site_admin": false,
        "starred_url": "https://api.github.com/users/schematical/starred{/owner}{/repo}",
        "subscriptions_url": "https://api.github.com/users/schematical/subscriptions",
        "type": "User",
        "url": "https://api.github.com/users/schematical"
    }
}