{
    "active_lock_reason": null,
    "assignee": null,
    "assignees": [],
    "author_association": "MEMBER",
    "body": "that bug came back (found with rbot)...",
    "closed_at": "2020-05-09T00:12:58Z",
    "comment_data": [
        {
            "author_association": "NONE",
            "body": "Hey, so how about using an alternative method like *bot.moveSlotItem()* and crafting?",
            "created_at": "2020-01-29T10:48:04Z",
            "html_url": "https://github.com/PrismarineJS/mineflayer/issues/661#issuecomment-579699438",
            "id": 579699438,
            "issue_url": "https://api.github.com/repos/PrismarineJS/mineflayer/issues/661",
            "node_id": "MDEyOklzc3VlQ29tbWVudDU3OTY5OTQzOA==",
            "performed_via_github_app": null,
            "reactions": {
                "+1": 0,
                "-1": 0,
                "confused": 0,
                "eyes": 0,
                "heart": 0,
                "hooray": 0,
                "laugh": 0,
                "rocket": 0,
                "total_count": 0,
                "url": "https://api.github.com/repos/PrismarineJS/mineflayer/issues/comments/579699438/reactions"
            },
            "updated_at": "2020-01-29T10:48:04Z",
            "url": "https://api.github.com/repos/PrismarineJS/mineflayer/issues/comments/579699438",
            "user": {
                "avatar_url": "https://avatars.githubusercontent.com/u/23046301?v=4",
                "events_url": "https://api.github.com/users/Kshitij-Jande/events{/privacy}",
                "followers_url": "https://api.github.com/users/Kshitij-Jande/followers",
                "following_url": "https://api.github.com/users/Kshitij-Jande/following{/other_user}",
                "gists_url": "https://api.github.com/users/Kshitij-Jande/gists{/gist_id}",
                "gravatar_id": "",
                "html_url": "https://github.com/Kshitij-Jande",
                "id": 23046301,
                "login": "Kshitij-Jande",
                "node_id": "MDQ6VXNlcjIzMDQ2MzAx",
                "organizations_url": "https://api.github.com/users/Kshitij-Jande/orgs",
                "received_events_url": "https://api.github.com/users/Kshitij-Jande/received_events",
                "repos_url": "https://api.github.com/users/Kshitij-Jande/repos",
                "site_admin": false,
                "starred_url": "https://api.github.com/users/Kshitij-Jande/starred{/owner}{/repo}",
                "subscriptions_url": "https://api.github.com/users/Kshitij-Jande/subscriptions",
                "type": "User",
                "url": "https://api.github.com/users/Kshitij-Jande"
            }
        },
        {
            "author_association": "NONE",
            "body": "And, how to do it?",
            "created_at": "2020-01-29T10:48:23Z",
            "html_url": "https://github.com/PrismarineJS/mineflayer/issues/661#issuecomment-579699537",
            "id": 579699537,
            "issue_url": "https://api.github.com/repos/PrismarineJS/mineflayer/issues/661",
            "node_id": "MDEyOklzc3VlQ29tbWVudDU3OTY5OTUzNw==",
            "performed_via_github_app": null,
            "reactions": {
                "+1": 0,
                "-1": 0,
                "confused": 0,
                "eyes": 0,
                "heart": 0,
                "hooray": 0,
                "laugh": 0,
                "rocket": 0,
                "total_count": 0,
                "url": "https://api.github.com/repos/PrismarineJS/mineflayer/issues/comments/579699537/reactions"
            },
            "updated_at": "2020-01-29T10:48:23Z",
            "url": "https://api.github.com/repos/PrismarineJS/mineflayer/issues/comments/579699537",
            "user": {
                "avatar_url": "https://avatars.githubusercontent.com/u/23046301?v=4",
                "events_url": "https://api.github.com/users/Kshitij-Jande/events{/privacy}",
                "followers_url": "https://api.github.com/users/Kshitij-Jande/followers",
                "following_url": "https://api.github.com/users/Kshitij-Jande/following{/other_user}",
                "gists_url": "https://api.github.com/users/Kshitij-Jande/gists{/gist_id}",
                "gravatar_id": "",
                "html_url": "https://github.com/Kshitij-Jande",
                "id": 23046301,
                "login": "Kshitij-Jande",
                "node_id": "MDQ6VXNlcjIzMDQ2MzAx",
                "organizations_url": "https://api.github.com/users/Kshitij-Jande/orgs",
                "received_events_url": "https://api.github.com/users/Kshitij-Jande/received_events",
                "repos_url": "https://api.github.com/users/Kshitij-Jande/repos",
                "site_admin": false,
                "starred_url": "https://api.github.com/users/Kshitij-Jande/starred{/owner}{/repo}",
                "subscriptions_url": "https://api.github.com/users/Kshitij-Jande/subscriptions",
                "type": "User",
                "url": "https://api.github.com/users/Kshitij-Jande"
            }
        }
    ],
    "comments": 2,
    "comments_url": "https://api.github.com/repos/PrismarineJS/mineflayer/issues/661/comments",
    "created_at": "2018-05-02T22:36:57Z",
    "event_data": [
        {
            "actor": {
                "avatar_url": "https://avatars.githubusercontent.com/u/2346494?v=4",
                "events_url": "https://api.github.com/users/rom1504/events{/privacy}",
                "followers_url": "https://api.github.com/users/rom1504/followers",
                "following_url": "https://api.github.com/users/rom1504/following{/other_user}",
                "gists_url": "https://api.github.com/users/rom1504/gists{/gist_id}",
                "gravatar_id": "",
                "html_url": "https://github.com/rom1504",
                "id": 2346494,
                "login": "rom1504",
                "node_id": "MDQ6VXNlcjIzNDY0OTQ=",
                "organizations_url": "https://api.github.com/users/rom1504/orgs",
                "received_events_url": "https://api.github.com/users/rom1504/received_events",
                "repos_url": "https://api.github.com/users/rom1504/repos",
                "site_admin": false,
                "starred_url": "https://api.github.com/users/rom1504/starred{/owner}{/repo}",
                "subscriptions_url": "https://api.github.com/users/rom1504/subscriptions",
                "type": "User",
                "url": "https://api.github.com/users/rom1504"
            },
            "commit_id": null,
            "commit_url": null,
            "created_at": "2018-05-02T22:36:58Z",
            "event": "labeled",
            "id": 1606595961,
            "label": {
                "color": "e10c02",
                "name": "bug"
            },
            "node_id": "MDEyOkxhYmVsZWRFdmVudDE2MDY1OTU5NjE=",
            "performed_via_github_app": null,
            "url": "https://api.github.com/repos/PrismarineJS/mineflayer/issues/events/1606595961"
        },
        {
            "actor": {
                "avatar_url": "https://avatars.githubusercontent.com/u/2346494?v=4",
                "events_url": "https://api.github.com/users/rom1504/events{/privacy}",
                "followers_url": "https://api.github.com/users/rom1504/followers",
                "following_url": "https://api.github.com/users/rom1504/following{/other_user}",
                "gists_url": "https://api.github.com/users/rom1504/gists{/gist_id}",
                "gravatar_id": "",
                "html_url": "https://github.com/rom1504",
                "id": 2346494,
                "login": "rom1504",
                "node_id": "MDQ6VXNlcjIzNDY0OTQ=",
                "organizations_url": "https://api.github.com/users/rom1504/orgs",
                "received_events_url": "https://api.github.com/users/rom1504/received_events",
                "repos_url": "https://api.github.com/users/rom1504/repos",
                "site_admin": false,
                "starred_url": "https://api.github.com/users/rom1504/starred{/owner}{/repo}",
                "subscriptions_url": "https://api.github.com/users/rom1504/subscriptions",
                "type": "User",
                "url": "https://api.github.com/users/rom1504"
            },
            "commit_id": null,
            "commit_url": null,
            "created_at": "2018-05-02T22:36:58Z",
            "event": "labeled",
            "id": 1606595964,
            "label": {
                "color": "c7def8",
                "name": "inventory"
            },
            "node_id": "MDEyOkxhYmVsZWRFdmVudDE2MDY1OTU5NjQ=",
            "performed_via_github_app": null,
            "url": "https://api.github.com/repos/PrismarineJS/mineflayer/issues/events/1606595964"
        },
        {
            "actor": {
                "avatar_url": "https://avatars.githubusercontent.com/u/1977472?v=4",
                "events_url": "https://api.github.com/users/Karang/events{/privacy}",
                "followers_url": "https://api.github.com/users/Karang/followers",
                "following_url": "https://api.github.com/users/Karang/following{/other_user}",
                "gists_url": "https://api.github.com/users/Karang/gists{/gist_id}",
                "gravatar_id": "",
                "html_url": "https://github.com/Karang",
                "id": 1977472,
                "login": "Karang",
                "node_id": "MDQ6VXNlcjE5Nzc0NzI=",
                "organizations_url": "https://api.github.com/users/Karang/orgs",
                "received_events_url": "https://api.github.com/users/Karang/received_events",
                "repos_url": "https://api.github.com/users/Karang/repos",
                "site_admin": false,
                "starred_url": "https://api.github.com/users/Karang/starred{/owner}{/repo}",
                "subscriptions_url": "https://api.github.com/users/Karang/subscriptions",
                "type": "User",
                "url": "https://api.github.com/users/Karang"
            },
            "commit_id": null,
            "commit_url": null,
            "created_at": "2020-05-09T00:12:58Z",
            "event": "closed",
            "id": 3318787908,
            "node_id": "MDExOkNsb3NlZEV2ZW50MzMxODc4NzkwOA==",
            "performed_via_github_app": null,
            "state_reason": null,
            "url": "https://api.github.com/repos/PrismarineJS/mineflayer/issues/events/3318787908"
        }
    ],
    "events_url": "https://api.github.com/repos/PrismarineJS/mineflayer/issues/661/events",
    "html_url": "https://github.com/PrismarineJS/mineflayer/issues/661",
    "id": 319735351,
    "labels": [
        {
            "color": "e10c02",
            "default": true,
            "description": null,
            "id": 173426,
            "name": "bug",
            "node_id": "MDU6TGFiZWwxNzM0MjY=",
            "url": "https://api.github.com/repos/PrismarineJS/mineflayer/labels/bug"
        },
        {
            "color": "c7def8",
            "default": false,
            "description": null,
            "id": 191409385,
            "name": "inventory",
            "node_id": "MDU6TGFiZWwxOTE0MDkzODU=",
            "url": "https://api.github.com/repos/PrismarineJS/mineflayer/labels/inventory"
        }
    ],
    "labels_url": "https://api.github.com/repos/PrismarineJS/mineflayer/issues/661/labels{/name}",
    "locked": false,
    "milestone": null,
    "node_id": "MDU6SXNzdWUzMTk3MzUzNTE=",
    "number": 661,
    "performed_via_github_app": null,
    "reactions": {
        "+1": 0,
        "-1": 0,
        "confused": 0,
        "eyes": 0,
        "heart": 0,
        "hooray": 0,
        "laugh": 0,
        "rocket": 0,
        "total_count": 0,
        "url": "https://api.github.com/repos/PrismarineJS/mineflayer/issues/661/reactions"
    },
    "repository_url": "https://api.github.com/repos/PrismarineJS/mineflayer",
    "state": "closed",
    "state_reason": "completed",
    "timeline_url": "https://api.github.com/repos/PrismarineJS/mineflayer/issues/661/timeline",
    "title": "fix crafting toss items",
    "updated_at": "2020-05-09T00:12:58Z",
    "url": "https://api.github.com/repos/PrismarineJS/mineflayer/issues/661",
    "user": {
        "avatar_url": "https://avatars.githubusercontent.com/u/2346494?v=4",
        "events_url": "https://api.github.com/users/rom1504/events{/privacy}",
        "followers_url": "https://api.github.com/users/rom1504/followers",
        "following_url": "https://api.github.com/users/rom1504/following{/other_user}",
        "gists_url": "https://api.github.com/users/rom1504/gists{/gist_id}",
        "gravatar_id": "",
        "html_url": "https://github.com/rom1504",
        "id": 2346494,
        "login": "rom1504",
        "node_id": "MDQ6VXNlcjIzNDY0OTQ=",
        "organizations_url": "https://api.github.com/users/rom1504/orgs",
        "received_events_url": "https://api.github.com/users/rom1504/received_events",
        "repos_url": "https://api.github.com/users/rom1504/repos",
        "site_admin": false,
        "starred_url": "https://api.github.com/users/rom1504/starred{/owner}{/repo}",
        "subscriptions_url": "https://api.github.com/users/rom1504/subscriptions",
        "type": "User",
        "url": "https://api.github.com/users/rom1504"
    }
}