{
    "active_lock_reason": null,
    "assignee": null,
    "assignees": [],
    "author_association": "NONE",
    "body": "I can't seam to find a respawn method, could anyone help me?",
    "closed_at": "2018-07-29T13:08:01Z",
    "comment_data": [
        {
            "author_association": "MEMBER",
            "body": "It respawn automatically, see respawn.js\n\nOn Thu, Jul 19, 2018, 22:52 ROMTypo <notifications@github.com> wrote:\n\n> I can't seam to find a respawn method, could anyone help me?\n>\n> —\n> You are receiving this because you are subscribed to this thread.\n> Reply to this email directly, view it on GitHub\n> <https://github.com/PrismarineJS/mineflayer/issues/685>, or mute the\n> thread\n> <https://github.com/notifications/unsubscribe-auth/ACPN_sdYyg0WSBMVOZ5O96BWrDqtfNI_ks5uIPF5gaJpZM4VXEyB>\n> .\n>\n",
            "created_at": "2018-07-19T21:16:24Z",
            "html_url": "https://github.com/PrismarineJS/mineflayer/issues/685#issuecomment-406417061",
            "id": 406417061,
            "issue_url": "https://api.github.com/repos/PrismarineJS/mineflayer/issues/685",
            "node_id": "MDEyOklzc3VlQ29tbWVudDQwNjQxNzA2MQ==",
            "performed_via_github_app": null,
            "reactions": {
                "+1": 0,
                "-1": 0,
                "confused": 0,
                "eyes": 0,
                "heart": 0,
                "hooray": 0,
                "laugh": 0,
                "rocket": 0,
                "total_count": 0,
                "url": "https://api.github.com/repos/PrismarineJS/mineflayer/issues/comments/406417061/reactions"
            },
            "updated_at": "2018-07-19T21:16:24Z",
            "url": "https://api.github.com/repos/PrismarineJS/mineflayer/issues/comments/406417061",
            "user": {
                "avatar_url": "https://avatars.githubusercontent.com/u/2346494?v=4",
                "events_url": "https://api.github.com/users/rom1504/events{/privacy}",
                "followers_url": "https://api.github.com/users/rom1504/followers",
                "following_url": "https://api.github.com/users/rom1504/following{/other_user}",
                "gists_url": "https://api.github.com/users/rom1504/gists{/gist_id}",
                "gravatar_id": "",
                "html_url": "https://github.com/rom1504",
                "id": 2346494,
                "login": "rom1504",
                "node_id": "MDQ6VXNlcjIzNDY0OTQ=",
                "organizations_url": "https://api.github.com/users/rom1504/orgs",
                "received_events_url": "https://api.github.com/users/rom1504/received_events",
                "repos_url": "https://api.github.com/users/rom1504/repos",
                "site_admin": false,
                "starred_url": "https://api.github.com/users/rom1504/starred{/owner}{/repo}",
                "subscriptions_url": "https://api.github.com/users/rom1504/subscriptions",
                "type": "User",
                "url": "https://api.github.com/users/rom1504"
            }
        },
        {
            "author_association": "NONE",
            "body": "@rom1504 I can't seem to find it, can you link it? And what currently happens is that when it dies it disconnects and the process exits, with no error",
            "created_at": "2018-07-19T22:02:20Z",
            "html_url": "https://github.com/PrismarineJS/mineflayer/issues/685#issuecomment-406428243",
            "id": 406428243,
            "issue_url": "https://api.github.com/repos/PrismarineJS/mineflayer/issues/685",
            "node_id": "MDEyOklzc3VlQ29tbWVudDQwNjQyODI0Mw==",
            "performed_via_github_app": null,
            "reactions": {
                "+1": 0,
                "-1": 0,
                "confused": 0,
                "eyes": 0,
                "heart": 0,
                "hooray": 0,
                "laugh": 0,
                "rocket": 0,
                "total_count": 0,
                "url": "https://api.github.com/repos/PrismarineJS/mineflayer/issues/comments/406428243/reactions"
            },
            "updated_at": "2018-07-19T22:02:30Z",
            "url": "https://api.github.com/repos/PrismarineJS/mineflayer/issues/comments/406428243",
            "user": {
                "avatar_url": "https://avatars.githubusercontent.com/u/18755147?v=4",
                "events_url": "https://api.github.com/users/ROMTypo/events{/privacy}",
                "followers_url": "https://api.github.com/users/ROMTypo/followers",
                "following_url": "https://api.github.com/users/ROMTypo/following{/other_user}",
                "gists_url": "https://api.github.com/users/ROMTypo/gists{/gist_id}",
                "gravatar_id": "",
                "html_url": "https://github.com/ROMTypo",
                "id": 18755147,
                "login": "ROMTypo",
                "node_id": "MDQ6VXNlcjE4NzU1MTQ3",
                "organizations_url": "https://api.github.com/users/ROMTypo/orgs",
                "received_events_url": "https://api.github.com/users/ROMTypo/received_events",
                "repos_url": "https://api.github.com/users/ROMTypo/repos",
                "site_admin": false,
                "starred_url": "https://api.github.com/users/ROMTypo/starred{/owner}{/repo}",
                "subscriptions_url": "https://api.github.com/users/ROMTypo/subscriptions",
                "type": "User",
                "url": "https://api.github.com/users/ROMTypo"
            }
        },
        {
            "author_association": "MEMBER",
            "body": "That means your server is probably doing something custom on dieing. Check\nwith debug mode (see node-minecraft-protocol readme)\n\nThe respawning logic is there\nhttps://github.com/PrismarineJS/mineflayer/blob/master/lib/plugins/health.js\nNo respawn.js indeed\n\nOn Fri, Jul 20, 2018, 00:02 ROMTypo <notifications@github.com> wrote:\n\n> @rom1504 <https://github.com/rom1504> I can't seem to find it, can you\n> link it? And what currently happens is that when it dies it disconnects and\n> the process exits\n>\n> —\n> You are receiving this because you were mentioned.\n>\n>\n> Reply to this email directly, view it on GitHub\n> <https://github.com/PrismarineJS/mineflayer/issues/685#issuecomment-406428243>,\n> or mute the thread\n> <https://github.com/notifications/unsubscribe-auth/ACPN_nHo1kxo4l7Kdx0tmY0uuXFIDBlQks5uIQHtgaJpZM4VXEyB>\n> .\n>\n",
            "created_at": "2018-07-19T22:10:28Z",
            "html_url": "https://github.com/PrismarineJS/mineflayer/issues/685#issuecomment-406429996",
            "id": 406429996,
            "issue_url": "https://api.github.com/repos/PrismarineJS/mineflayer/issues/685",
            "node_id": "MDEyOklzc3VlQ29tbWVudDQwNjQyOTk5Ng==",
            "performed_via_github_app": null,
            "reactions": {
                "+1": 0,
                "-1": 0,
                "confused": 0,
                "eyes": 0,
                "heart": 0,
                "hooray": 0,
                "laugh": 0,
                "rocket": 0,
                "total_count": 0,
                "url": "https://api.github.com/repos/PrismarineJS/mineflayer/issues/comments/406429996/reactions"
            },
            "updated_at": "2018-07-19T22:10:28Z",
            "url": "https://api.github.com/repos/PrismarineJS/mineflayer/issues/comments/406429996",
            "user": {
                "avatar_url": "https://avatars.githubusercontent.com/u/2346494?v=4",
                "events_url": "https://api.github.com/users/rom1504/events{/privacy}",
                "followers_url": "https://api.github.com/users/rom1504/followers",
                "following_url": "https://api.github.com/users/rom1504/following{/other_user}",
                "gists_url": "https://api.github.com/users/rom1504/gists{/gist_id}",
                "gravatar_id": "",
                "html_url": "https://github.com/rom1504",
                "id": 2346494,
                "login": "rom1504",
                "node_id": "MDQ6VXNlcjIzNDY0OTQ=",
                "organizations_url": "https://api.github.com/users/rom1504/orgs",
                "received_events_url": "https://api.github.com/users/rom1504/received_events",
                "repos_url": "https://api.github.com/users/rom1504/repos",
                "site_admin": false,
                "starred_url": "https://api.github.com/users/rom1504/starred{/owner}{/repo}",
                "subscriptions_url": "https://api.github.com/users/rom1504/subscriptions",
                "type": "User",
                "url": "https://api.github.com/users/rom1504"
            }
        },
        {
            "author_association": "NONE",
            "body": "Bump, automatic respawning seems to be broken, the bots just get killed instantly when logging into a server and stay dead\r\n",
            "created_at": "2018-11-08T19:23:46Z",
            "html_url": "https://github.com/PrismarineJS/mineflayer/issues/685#issuecomment-437124117",
            "id": 437124117,
            "issue_url": "https://api.github.com/repos/PrismarineJS/mineflayer/issues/685",
            "node_id": "MDEyOklzc3VlQ29tbWVudDQzNzEyNDExNw==",
            "performed_via_github_app": null,
            "reactions": {
                "+1": 0,
                "-1": 0,
                "confused": 0,
                "eyes": 0,
                "heart": 0,
                "hooray": 0,
                "laugh": 0,
                "rocket": 0,
                "total_count": 0,
                "url": "https://api.github.com/repos/PrismarineJS/mineflayer/issues/comments/437124117/reactions"
            },
            "updated_at": "2018-11-08T19:23:46Z",
            "url": "https://api.github.com/repos/PrismarineJS/mineflayer/issues/comments/437124117",
            "user": {
                "avatar_url": "https://avatars.githubusercontent.com/u/13834197?v=4",
                "events_url": "https://api.github.com/users/Wqrld/events{/privacy}",
                "followers_url": "https://api.github.com/users/Wqrld/followers",
                "following_url": "https://api.github.com/users/Wqrld/following{/other_user}",
                "gists_url": "https://api.github.com/users/Wqrld/gists{/gist_id}",
                "gravatar_id": "",
                "html_url": "https://github.com/Wqrld",
                "id": 13834197,
                "login": "Wqrld",
                "node_id": "MDQ6VXNlcjEzODM0MTk3",
                "organizations_url": "https://api.github.com/users/Wqrld/orgs",
                "received_events_url": "https://api.github.com/users/Wqrld/received_events",
                "repos_url": "https://api.github.com/users/Wqrld/repos",
                "site_admin": false,
                "starred_url": "https://api.github.com/users/Wqrld/starred{/owner}{/repo}",
                "subscriptions_url": "https://api.github.com/users/Wqrld/subscriptions",
                "type": "User",
                "url": "https://api.github.com/users/Wqrld"
            }
        },
        {
            "author_association": "MEMBER",
            "body": "No, that's something not supported in your server.\r\nOpen a new issue with your custom server name and the details of what you tried.",
            "created_at": "2018-11-08T21:20:54Z",
            "html_url": "https://github.com/PrismarineJS/mineflayer/issues/685#issuecomment-437160099",
            "id": 437160099,
            "issue_url": "https://api.github.com/repos/PrismarineJS/mineflayer/issues/685",
            "node_id": "MDEyOklzc3VlQ29tbWVudDQzNzE2MDA5OQ==",
            "performed_via_github_app": null,
            "reactions": {
                "+1": 0,
                "-1": 0,
                "confused": 0,
                "eyes": 0,
                "heart": 0,
                "hooray": 0,
                "laugh": 0,
                "rocket": 0,
                "total_count": 0,
                "url": "https://api.github.com/repos/PrismarineJS/mineflayer/issues/comments/437160099/reactions"
            },
            "updated_at": "2018-11-08T21:20:54Z",
            "url": "https://api.github.com/repos/PrismarineJS/mineflayer/issues/comments/437160099",
            "user": {
                "avatar_url": "https://avatars.githubusercontent.com/u/2346494?v=4",
                "events_url": "https://api.github.com/users/rom1504/events{/privacy}",
                "followers_url": "https://api.github.com/users/rom1504/followers",
                "following_url": "https://api.github.com/users/rom1504/following{/other_user}",
                "gists_url": "https://api.github.com/users/rom1504/gists{/gist_id}",
                "gravatar_id": "",
                "html_url": "https://github.com/rom1504",
                "id": 2346494,
                "login": "rom1504",
                "node_id": "MDQ6VXNlcjIzNDY0OTQ=",
                "organizations_url": "https://api.github.com/users/rom1504/orgs",
                "received_events_url": "https://api.github.com/users/rom1504/received_events",
                "repos_url": "https://api.github.com/users/rom1504/repos",
                "site_admin": false,
                "starred_url": "https://api.github.com/users/rom1504/starred{/owner}{/repo}",
                "subscriptions_url": "https://api.github.com/users/rom1504/subscriptions",
                "type": "User",
                "url": "https://api.github.com/users/rom1504"
            }
        }
    ],
    "comments": 5,
    "comments_url": "https://api.github.com/repos/PrismarineJS/mineflayer/issues/685/comments",
    "created_at": "2018-07-19T20:52:08Z",
    "event_data": [
        {
            "actor": {
                "avatar_url": "https://avatars.githubusercontent.com/u/2346494?v=4",
                "events_url": "https://api.github.com/users/rom1504/events{/privacy}",
                "followers_url": "https://api.github.com/users/rom1504/followers",
                "following_url": "https://api.github.com/users/rom1504/following{/other_user}",
                "gists_url": "https://api.github.com/users/rom1504/gists{/gist_id}",
                "gravatar_id": "",
                "html_url": "https://github.com/rom1504",
                "id": 2346494,
                "login": "rom1504",
                "node_id": "MDQ6VXNlcjIzNDY0OTQ=",
                "organizations_url": "https://api.github.com/users/rom1504/orgs",
                "received_events_url": "https://api.github.com/users/rom1504/received_events",
                "repos_url": "https://api.github.com/users/rom1504/repos",
                "site_admin": false,
                "starred_url": "https://api.github.com/users/rom1504/starred{/owner}{/repo}",
                "subscriptions_url": "https://api.github.com/users/rom1504/subscriptions",
                "type": "User",
                "url": "https://api.github.com/users/rom1504"
            },
            "commit_id": null,
            "commit_url": null,
            "created_at": "2018-07-19T22:02:20Z",
            "event": "mentioned",
            "id": 1743628215,
            "node_id": "MDE0Ok1lbnRpb25lZEV2ZW50MTc0MzYyODIxNQ==",
            "performed_via_github_app": null,
            "url": "https://api.github.com/repos/PrismarineJS/mineflayer/issues/events/1743628215"
        },
        {
            "actor": {
                "avatar_url": "https://avatars.githubusercontent.com/u/2346494?v=4",
                "events_url": "https://api.github.com/users/rom1504/events{/privacy}",
                "followers_url": "https://api.github.com/users/rom1504/followers",
                "following_url": "https://api.github.com/users/rom1504/following{/other_user}",
                "gists_url": "https://api.github.com/users/rom1504/gists{/gist_id}",
                "gravatar_id": "",
                "html_url": "https://github.com/rom1504",
                "id": 2346494,
                "login": "rom1504",
                "node_id": "MDQ6VXNlcjIzNDY0OTQ=",
                "organizations_url": "https://api.github.com/users/rom1504/orgs",
                "received_events_url": "https://api.github.com/users/rom1504/received_events",
                "repos_url": "https://api.github.com/users/rom1504/repos",
                "site_admin": false,
                "starred_url": "https://api.github.com/users/rom1504/starred{/owner}{/repo}",
                "subscriptions_url": "https://api.github.com/users/rom1504/subscriptions",
                "type": "User",
                "url": "https://api.github.com/users/rom1504"
            },
            "commit_id": null,
            "commit_url": null,
            "created_at": "2018-07-19T22:02:20Z",
            "event": "subscribed",
            "id": 1743628218,
            "node_id": "MDE1OlN1YnNjcmliZWRFdmVudDE3NDM2MjgyMTg=",
            "performed_via_github_app": null,
            "url": "https://api.github.com/repos/PrismarineJS/mineflayer/issues/events/1743628218"
        },
        {
            "actor": {
                "avatar_url": "https://avatars.githubusercontent.com/u/2346494?v=4",
                "events_url": "https://api.github.com/users/rom1504/events{/privacy}",
                "followers_url": "https://api.github.com/users/rom1504/followers",
                "following_url": "https://api.github.com/users/rom1504/following{/other_user}",
                "gists_url": "https://api.github.com/users/rom1504/gists{/gist_id}",
                "gravatar_id": "",
                "html_url": "https://github.com/rom1504",
                "id": 2346494,
                "login": "rom1504",
                "node_id": "MDQ6VXNlcjIzNDY0OTQ=",
                "organizations_url": "https://api.github.com/users/rom1504/orgs",
                "received_events_url": "https://api.github.com/users/rom1504/received_events",
                "repos_url": "https://api.github.com/users/rom1504/repos",
                "site_admin": false,
                "starred_url": "https://api.github.com/users/rom1504/starred{/owner}{/repo}",
                "subscriptions_url": "https://api.github.com/users/rom1504/subscriptions",
                "type": "User",
                "url": "https://api.github.com/users/rom1504"
            },
            "commit_id": null,
            "commit_url": null,
            "created_at": "2018-07-19T22:10:28Z",
            "event": "mentioned",
            "id": 1743639672,
            "node_id": "MDE0Ok1lbnRpb25lZEV2ZW50MTc0MzYzOTY3Mg==",
            "performed_via_github_app": null,
            "url": "https://api.github.com/repos/PrismarineJS/mineflayer/issues/events/1743639672"
        },
        {
            "actor": {
                "avatar_url": "https://avatars.githubusercontent.com/u/2346494?v=4",
                "events_url": "https://api.github.com/users/rom1504/events{/privacy}",
                "followers_url": "https://api.github.com/users/rom1504/followers",
                "following_url": "https://api.github.com/users/rom1504/following{/other_user}",
                "gists_url": "https://api.github.com/users/rom1504/gists{/gist_id}",
                "gravatar_id": "",
                "html_url": "https://github.com/rom1504",
                "id": 2346494,
                "login": "rom1504",
                "node_id": "MDQ6VXNlcjIzNDY0OTQ=",
                "organizations_url": "https://api.github.com/users/rom1504/orgs",
                "received_events_url": "https://api.github.com/users/rom1504/received_events",
                "repos_url": "https://api.github.com/users/rom1504/repos",
                "site_admin": false,
                "starred_url": "https://api.github.com/users/rom1504/starred{/owner}{/repo}",
                "subscriptions_url": "https://api.github.com/users/rom1504/subscriptions",
                "type": "User",
                "url": "https://api.github.com/users/rom1504"
            },
            "commit_id": null,
            "commit_url": null,
            "created_at": "2018-07-19T22:10:29Z",
            "event": "subscribed",
            "id": 1743639673,
            "node_id": "MDE1OlN1YnNjcmliZWRFdmVudDE3NDM2Mzk2NzM=",
            "performed_via_github_app": null,
            "url": "https://api.github.com/repos/PrismarineJS/mineflayer/issues/events/1743639673"
        },
        {
            "actor": {
                "avatar_url": "https://avatars.githubusercontent.com/u/2346494?v=4",
                "events_url": "https://api.github.com/users/rom1504/events{/privacy}",
                "followers_url": "https://api.github.com/users/rom1504/followers",
                "following_url": "https://api.github.com/users/rom1504/following{/other_user}",
                "gists_url": "https://api.github.com/users/rom1504/gists{/gist_id}",
                "gravatar_id": "",
                "html_url": "https://github.com/rom1504",
                "id": 2346494,
                "login": "rom1504",
                "node_id": "MDQ6VXNlcjIzNDY0OTQ=",
                "organizations_url": "https://api.github.com/users/rom1504/orgs",
                "received_events_url": "https://api.github.com/users/rom1504/received_events",
                "repos_url": "https://api.github.com/users/rom1504/repos",
                "site_admin": false,
                "starred_url": "https://api.github.com/users/rom1504/starred{/owner}{/repo}",
                "subscriptions_url": "https://api.github.com/users/rom1504/subscriptions",
                "type": "User",
                "url": "https://api.github.com/users/rom1504"
            },
            "commit_id": null,
            "commit_url": null,
            "created_at": "2018-07-29T13:08:01Z",
            "event": "closed",
            "id": 1758881794,
            "node_id": "MDExOkNsb3NlZEV2ZW50MTc1ODg4MTc5NA==",
            "performed_via_github_app": null,
            "state_reason": null,
            "url": "https://api.github.com/repos/PrismarineJS/mineflayer/issues/events/1758881794"
        }
    ],
    "events_url": "https://api.github.com/repos/PrismarineJS/mineflayer/issues/685/events",
    "html_url": "https://github.com/PrismarineJS/mineflayer/issues/685",
    "id": 342884981,
    "labels": [],
    "labels_url": "https://api.github.com/repos/PrismarineJS/mineflayer/issues/685/labels{/name}",
    "locked": false,
    "milestone": null,
    "node_id": "MDU6SXNzdWUzNDI4ODQ5ODE=",
    "number": 685,
    "performed_via_github_app": null,
    "reactions": {
        "+1": 0,
        "-1": 0,
        "confused": 0,
        "eyes": 0,
        "heart": 0,
        "hooray": 0,
        "laugh": 0,
        "rocket": 0,
        "total_count": 0,
        "url": "https://api.github.com/repos/PrismarineJS/mineflayer/issues/685/reactions"
    },
    "repository_url": "https://api.github.com/repos/PrismarineJS/mineflayer",
    "state": "closed",
    "state_reason": "completed",
    "timeline_url": "https://api.github.com/repos/PrismarineJS/mineflayer/issues/685/timeline",
    "title": "Respawn Method?",
    "updated_at": "2018-11-08T21:20:54Z",
    "url": "https://api.github.com/repos/PrismarineJS/mineflayer/issues/685",
    "user": {
        "avatar_url": "https://avatars.githubusercontent.com/u/18755147?v=4",
        "events_url": "https://api.github.com/users/ROMTypo/events{/privacy}",
        "followers_url": "https://api.github.com/users/ROMTypo/followers",
        "following_url": "https://api.github.com/users/ROMTypo/following{/other_user}",
        "gists_url": "https://api.github.com/users/ROMTypo/gists{/gist_id}",
        "gravatar_id": "",
        "html_url": "https://github.com/ROMTypo",
        "id": 18755147,
        "login": "ROMTypo",
        "node_id": "MDQ6VXNlcjE4NzU1MTQ3",
        "organizations_url": "https://api.github.com/users/ROMTypo/orgs",
        "received_events_url": "https://api.github.com/users/ROMTypo/received_events",
        "repos_url": "https://api.github.com/users/ROMTypo/repos",
        "site_admin": false,
        "starred_url": "https://api.github.com/users/ROMTypo/starred{/owner}{/repo}",
        "subscriptions_url": "https://api.github.com/users/ROMTypo/subscriptions",
        "type": "User",
        "url": "https://api.github.com/users/ROMTypo"
    }
}