{
    "active_lock_reason": null,
    "assignee": null,
    "assignees": [],
    "author_association": "NONE",
    "body": "the bot floats on snow\r\nhttps://i.imgur.com/ArProeQ.png\r\ntip: treat the snow like a pressure plate",
    "closed_at": "2020-05-09T02:44:14Z",
    "comment_data": [
        {
            "author_association": "MEMBER",
            "body": "See\nhttps://github.com/PrismarineJS/mineflayer/issues/228\n\nOn Thu, Jul 26, 2018, 17:20 MrAlex <notifications@github.com> wrote:\n\n> the bot floats on snow\n> https://i.imgur.com/ArProeQ.png\n> tip: treat the snow like a pressure plate\n>\n> —\n> You are receiving this because you are subscribed to this thread.\n> Reply to this email directly, view it on GitHub\n> <https://github.com/PrismarineJS/mineflayer/issues/692>, or mute the\n> thread\n> <https://github.com/notifications/unsubscribe-auth/ACPN_nYkv5o0wWAv8rvJP7xOPYm9nEh7ks5uKd4mgaJpZM4ViCBB>\n> .\n>\n",
            "created_at": "2018-07-26T17:53:31Z",
            "html_url": "https://github.com/PrismarineJS/mineflayer/issues/692#issuecomment-408180857",
            "id": 408180857,
            "issue_url": "https://api.github.com/repos/PrismarineJS/mineflayer/issues/692",
            "node_id": "MDEyOklzc3VlQ29tbWVudDQwODE4MDg1Nw==",
            "performed_via_github_app": null,
            "reactions": {
                "+1": 0,
                "-1": 0,
                "confused": 0,
                "eyes": 0,
                "heart": 0,
                "hooray": 0,
                "laugh": 0,
                "rocket": 0,
                "total_count": 0,
                "url": "https://api.github.com/repos/PrismarineJS/mineflayer/issues/comments/408180857/reactions"
            },
            "updated_at": "2018-07-26T17:53:31Z",
            "url": "https://api.github.com/repos/PrismarineJS/mineflayer/issues/comments/408180857",
            "user": {
                "avatar_url": "https://avatars.githubusercontent.com/u/2346494?v=4",
                "events_url": "https://api.github.com/users/rom1504/events{/privacy}",
                "followers_url": "https://api.github.com/users/rom1504/followers",
                "following_url": "https://api.github.com/users/rom1504/following{/other_user}",
                "gists_url": "https://api.github.com/users/rom1504/gists{/gist_id}",
                "gravatar_id": "",
                "html_url": "https://github.com/rom1504",
                "id": 2346494,
                "login": "rom1504",
                "node_id": "MDQ6VXNlcjIzNDY0OTQ=",
                "organizations_url": "https://api.github.com/users/rom1504/orgs",
                "received_events_url": "https://api.github.com/users/rom1504/received_events",
                "repos_url": "https://api.github.com/users/rom1504/repos",
                "site_admin": false,
                "starred_url": "https://api.github.com/users/rom1504/starred{/owner}{/repo}",
                "subscriptions_url": "https://api.github.com/users/rom1504/subscriptions",
                "type": "User",
                "url": "https://api.github.com/users/rom1504"
            }
        },
        {
            "author_association": "NONE",
            "body": "I also noticed this . . . when walking, the bot gets stuck against single snow layers that the player or other entities would not even interact with.",
            "created_at": "2019-05-15T23:24:46Z",
            "html_url": "https://github.com/PrismarineJS/mineflayer/issues/692#issuecomment-492859998",
            "id": 492859998,
            "issue_url": "https://api.github.com/repos/PrismarineJS/mineflayer/issues/692",
            "node_id": "MDEyOklzc3VlQ29tbWVudDQ5Mjg1OTk5OA==",
            "performed_via_github_app": null,
            "reactions": {
                "+1": 0,
                "-1": 0,
                "confused": 0,
                "eyes": 0,
                "heart": 0,
                "hooray": 0,
                "laugh": 0,
                "rocket": 0,
                "total_count": 0,
                "url": "https://api.github.com/repos/PrismarineJS/mineflayer/issues/comments/492859998/reactions"
            },
            "updated_at": "2019-05-15T23:24:46Z",
            "url": "https://api.github.com/repos/PrismarineJS/mineflayer/issues/comments/492859998",
            "user": {
                "avatar_url": "https://avatars.githubusercontent.com/u/40661852?v=4",
                "events_url": "https://api.github.com/users/generic-github-user/events{/privacy}",
                "followers_url": "https://api.github.com/users/generic-github-user/followers",
                "following_url": "https://api.github.com/users/generic-github-user/following{/other_user}",
                "gists_url": "https://api.github.com/users/generic-github-user/gists{/gist_id}",
                "gravatar_id": "",
                "html_url": "https://github.com/generic-github-user",
                "id": 40661852,
                "login": "generic-github-user",
                "node_id": "MDQ6VXNlcjQwNjYxODUy",
                "organizations_url": "https://api.github.com/users/generic-github-user/orgs",
                "received_events_url": "https://api.github.com/users/generic-github-user/received_events",
                "repos_url": "https://api.github.com/users/generic-github-user/repos",
                "site_admin": false,
                "starred_url": "https://api.github.com/users/generic-github-user/starred{/owner}{/repo}",
                "subscriptions_url": "https://api.github.com/users/generic-github-user/subscriptions",
                "type": "User",
                "url": "https://api.github.com/users/generic-github-user"
            }
        },
        {
            "author_association": "NONE",
            "body": "In [minecraft-data](https://github.com/PrismarineJS/minecraft-data), `snow_layer` is marked as \"block\":\r\n[blocks.json#L2109](https://github.com/PrismarineJS/minecraft-data/blob/master/data/pc/1.8/blocks.json#L2109) :\r\n```\r\n{\r\n    \"id\": 78,\r\n    \"displayName\": \"Snow (layer)\",\r\n    \"name\": \"snow_layer\",\r\n    \"hardness\": 0.2,\r\n    \"stackSize\": 64,\r\n    \"diggable\": true,\r\n    \"boundingBox\": \"block\",\r\n    \"material\": \"dirt\"\r\n}\r\n```\r\n\r\nChanging `boundingBox` to `empty` makes the bot **stand on** (not floating on) snow_layer.",
            "created_at": "2020-03-06T10:05:06Z",
            "html_url": "https://github.com/PrismarineJS/mineflayer/issues/692#issuecomment-595695766",
            "id": 595695766,
            "issue_url": "https://api.github.com/repos/PrismarineJS/mineflayer/issues/692",
            "node_id": "MDEyOklzc3VlQ29tbWVudDU5NTY5NTc2Ng==",
            "performed_via_github_app": null,
            "reactions": {
                "+1": 0,
                "-1": 0,
                "confused": 0,
                "eyes": 0,
                "heart": 0,
                "hooray": 0,
                "laugh": 0,
                "rocket": 0,
                "total_count": 0,
                "url": "https://api.github.com/repos/PrismarineJS/mineflayer/issues/comments/595695766/reactions"
            },
            "updated_at": "2020-03-06T10:05:06Z",
            "url": "https://api.github.com/repos/PrismarineJS/mineflayer/issues/comments/595695766",
            "user": {
                "avatar_url": "https://avatars.githubusercontent.com/u/30196401?v=4",
                "events_url": "https://api.github.com/users/UMRnInside/events{/privacy}",
                "followers_url": "https://api.github.com/users/UMRnInside/followers",
                "following_url": "https://api.github.com/users/UMRnInside/following{/other_user}",
                "gists_url": "https://api.github.com/users/UMRnInside/gists{/gist_id}",
                "gravatar_id": "",
                "html_url": "https://github.com/UMRnInside",
                "id": 30196401,
                "login": "UMRnInside",
                "node_id": "MDQ6VXNlcjMwMTk2NDAx",
                "organizations_url": "https://api.github.com/users/UMRnInside/orgs",
                "received_events_url": "https://api.github.com/users/UMRnInside/received_events",
                "repos_url": "https://api.github.com/users/UMRnInside/repos",
                "site_admin": false,
                "starred_url": "https://api.github.com/users/UMRnInside/starred{/owner}{/repo}",
                "subscriptions_url": "https://api.github.com/users/UMRnInside/subscriptions",
                "type": "User",
                "url": "https://api.github.com/users/UMRnInside"
            }
        },
        {
            "author_association": "MEMBER",
            "body": "duplicate of https://github.com/PrismarineJS/mineflayer/issues/228 changing the bounding box to empty will not solve the issue (the bot will stand on the block bellow it)",
            "created_at": "2020-05-09T02:44:14Z",
            "html_url": "https://github.com/PrismarineJS/mineflayer/issues/692#issuecomment-626093043",
            "id": 626093043,
            "issue_url": "https://api.github.com/repos/PrismarineJS/mineflayer/issues/692",
            "node_id": "MDEyOklzc3VlQ29tbWVudDYyNjA5MzA0Mw==",
            "performed_via_github_app": null,
            "reactions": {
                "+1": 0,
                "-1": 0,
                "confused": 0,
                "eyes": 0,
                "heart": 0,
                "hooray": 0,
                "laugh": 0,
                "rocket": 0,
                "total_count": 0,
                "url": "https://api.github.com/repos/PrismarineJS/mineflayer/issues/comments/626093043/reactions"
            },
            "updated_at": "2020-05-09T02:44:14Z",
            "url": "https://api.github.com/repos/PrismarineJS/mineflayer/issues/comments/626093043",
            "user": {
                "avatar_url": "https://avatars.githubusercontent.com/u/1977472?v=4",
                "events_url": "https://api.github.com/users/Karang/events{/privacy}",
                "followers_url": "https://api.github.com/users/Karang/followers",
                "following_url": "https://api.github.com/users/Karang/following{/other_user}",
                "gists_url": "https://api.github.com/users/Karang/gists{/gist_id}",
                "gravatar_id": "",
                "html_url": "https://github.com/Karang",
                "id": 1977472,
                "login": "Karang",
                "node_id": "MDQ6VXNlcjE5Nzc0NzI=",
                "organizations_url": "https://api.github.com/users/Karang/orgs",
                "received_events_url": "https://api.github.com/users/Karang/received_events",
                "repos_url": "https://api.github.com/users/Karang/repos",
                "site_admin": false,
                "starred_url": "https://api.github.com/users/Karang/starred{/owner}{/repo}",
                "subscriptions_url": "https://api.github.com/users/Karang/subscriptions",
                "type": "User",
                "url": "https://api.github.com/users/Karang"
            }
        }
    ],
    "comments": 4,
    "comments_url": "https://api.github.com/repos/PrismarineJS/mineflayer/issues/692/comments",
    "created_at": "2018-07-26T15:16:53Z",
    "event_data": [
        {
            "actor": {
                "avatar_url": "https://avatars.githubusercontent.com/u/2346494?v=4",
                "events_url": "https://api.github.com/users/rom1504/events{/privacy}",
                "followers_url": "https://api.github.com/users/rom1504/followers",
                "following_url": "https://api.github.com/users/rom1504/following{/other_user}",
                "gists_url": "https://api.github.com/users/rom1504/gists{/gist_id}",
                "gravatar_id": "",
                "html_url": "https://github.com/rom1504",
                "id": 2346494,
                "login": "rom1504",
                "node_id": "MDQ6VXNlcjIzNDY0OTQ=",
                "organizations_url": "https://api.github.com/users/rom1504/orgs",
                "received_events_url": "https://api.github.com/users/rom1504/received_events",
                "repos_url": "https://api.github.com/users/rom1504/repos",
                "site_admin": false,
                "starred_url": "https://api.github.com/users/rom1504/starred{/owner}{/repo}",
                "subscriptions_url": "https://api.github.com/users/rom1504/subscriptions",
                "type": "User",
                "url": "https://api.github.com/users/rom1504"
            },
            "commit_id": null,
            "commit_url": null,
            "created_at": "2018-07-29T13:05:22Z",
            "event": "labeled",
            "id": 1758881045,
            "label": {
                "color": "444444",
                "name": "new feature"
            },
            "node_id": "MDEyOkxhYmVsZWRFdmVudDE3NTg4ODEwNDU=",
            "performed_via_github_app": null,
            "url": "https://api.github.com/repos/PrismarineJS/mineflayer/issues/events/1758881045"
        },
        {
            "actor": {
                "avatar_url": "https://avatars.githubusercontent.com/u/1977472?v=4",
                "events_url": "https://api.github.com/users/Karang/events{/privacy}",
                "followers_url": "https://api.github.com/users/Karang/followers",
                "following_url": "https://api.github.com/users/Karang/following{/other_user}",
                "gists_url": "https://api.github.com/users/Karang/gists{/gist_id}",
                "gravatar_id": "",
                "html_url": "https://github.com/Karang",
                "id": 1977472,
                "login": "Karang",
                "node_id": "MDQ6VXNlcjE5Nzc0NzI=",
                "organizations_url": "https://api.github.com/users/Karang/orgs",
                "received_events_url": "https://api.github.com/users/Karang/received_events",
                "repos_url": "https://api.github.com/users/Karang/repos",
                "site_admin": false,
                "starred_url": "https://api.github.com/users/Karang/starred{/owner}{/repo}",
                "subscriptions_url": "https://api.github.com/users/Karang/subscriptions",
                "type": "User",
                "url": "https://api.github.com/users/Karang"
            },
            "commit_id": null,
            "commit_url": null,
            "created_at": "2020-05-09T02:44:14Z",
            "event": "closed",
            "id": 3318923461,
            "node_id": "MDExOkNsb3NlZEV2ZW50MzMxODkyMzQ2MQ==",
            "performed_via_github_app": null,
            "state_reason": null,
            "url": "https://api.github.com/repos/PrismarineJS/mineflayer/issues/events/3318923461"
        }
    ],
    "events_url": "https://api.github.com/repos/PrismarineJS/mineflayer/issues/692/events",
    "html_url": "https://github.com/PrismarineJS/mineflayer/issues/692",
    "id": 344888886,
    "labels": [
        {
            "color": "444444",
            "default": false,
            "description": "",
            "id": 111395,
            "name": "new feature",
            "node_id": "MDU6TGFiZWwxMTEzOTU=",
            "url": "https://api.github.com/repos/PrismarineJS/mineflayer/labels/new%20feature"
        }
    ],
    "labels_url": "https://api.github.com/repos/PrismarineJS/mineflayer/issues/692/labels{/name}",
    "locked": false,
    "milestone": null,
    "node_id": "MDU6SXNzdWUzNDQ4ODg4ODY=",
    "number": 692,
    "performed_via_github_app": null,
    "reactions": {
        "+1": 0,
        "-1": 0,
        "confused": 0,
        "eyes": 0,
        "heart": 0,
        "hooray": 0,
        "laugh": 0,
        "rocket": 0,
        "total_count": 0,
        "url": "https://api.github.com/repos/PrismarineJS/mineflayer/issues/692/reactions"
    },
    "repository_url": "https://api.github.com/repos/PrismarineJS/mineflayer",
    "state": "closed",
    "state_reason": "completed",
    "timeline_url": "https://api.github.com/repos/PrismarineJS/mineflayer/issues/692/timeline",
    "title": "snow is treated as a full block",
    "updated_at": "2020-05-09T02:44:14Z",
    "url": "https://api.github.com/repos/PrismarineJS/mineflayer/issues/692",
    "user": {
        "avatar_url": "https://avatars.githubusercontent.com/u/24595840?v=4",
        "events_url": "https://api.github.com/users/MrAlexEsisteGia/events{/privacy}",
        "followers_url": "https://api.github.com/users/MrAlexEsisteGia/followers",
        "following_url": "https://api.github.com/users/MrAlexEsisteGia/following{/other_user}",
        "gists_url": "https://api.github.com/users/MrAlexEsisteGia/gists{/gist_id}",
        "gravatar_id": "",
        "html_url": "https://github.com/MrAlexEsisteGia",
        "id": 24595840,
        "login": "MrAlexEsisteGia",
        "node_id": "MDQ6VXNlcjI0NTk1ODQw",
        "organizations_url": "https://api.github.com/users/MrAlexEsisteGia/orgs",
        "received_events_url": "https://api.github.com/users/MrAlexEsisteGia/received_events",
        "repos_url": "https://api.github.com/users/MrAlexEsisteGia/repos",
        "site_admin": false,
        "starred_url": "https://api.github.com/users/MrAlexEsisteGia/starred{/owner}{/repo}",
        "subscriptions_url": "https://api.github.com/users/MrAlexEsisteGia/subscriptions",
        "type": "User",
        "url": "https://api.github.com/users/MrAlexEsisteGia"
    }
}