{
    "active_lock_reason": null,
    "assignee": null,
    "assignees": [],
    "author_association": "NONE",
    "body": "If you are reporting a bug please report on these points :\r\n\r\n* what you want to do (the objective in english)\r\njust trying to get the bot started and the chat event running.\r\n* what you tried (the code)\r\n```\r\nconst Discord = require('discord.js');\r\nconst chalk = require('chalk');\r\nconst ddiff = require('return-deep-diff');\r\nconst fs = require('graceful-fs');\r\nconst mineflayer = require('mineflayer');\r\n\r\nconst sparkMcClient = new mineflayer.createBot({\r\n    host: 'play.sadonmc.com',\r\n    username: 'myUsername',\r\n    password: 'mypassword',\r\n    version: \"1.8\",\r\n    });\r\n\r\nconst sparkClient = new Discord.Client();\r\n\r\nsparkMcClient.on('chat', (username, message) => {\r\n    if (username === sparkMcClient.username) return\r\n    console.log(message);\r\n  })\r\n```\r\n* what `happened`\r\n```\r\n{ Error: querySrv ENOTFOUND _minecraft._tcp.play.sadonmc.com\r\n    at errnoException (dns.js:50:10)\r\n    at QueryReqWrap.onresolve [as oncomplete] (dns.js:238:19)\r\n  code: 'ENOTFOUND',\r\n  errno: 'ENOTFOUND',\r\n  syscall: 'querySrv',\r\n  hostname: '_minecraft._tcp.play.sadonmc.com' }\r\n```\r\n* what you expected to happen\r\nJust trying to get the bot started\r\nIn particular it will be useful to provide these informations :\r\n\r\n* what happens when using a mineflayer example?\r\nI'm using the echo example, just trying to see if I can get this bot to connect.\r\n* what happens when using a node-minecraft-protocol example?\r\n* what mineflayer version?\r\n2.7.3\r\n* what server version?\r\nThe server only accepts 1.8 & higher.\r\n* which server? (spigot, paper, vanilla, any particular plugins ?)\r\n* what's the output of DEBUG=\"minecraft-protocol\" node your_bot.js ?\r\n* what's the error msg?\r\n* what script is used?\r\n",
    "closed_at": "2018-08-25T23:48:35Z",
    "comment_data": [
        {
            "author_association": "NONE",
            "body": "```\r\n{ Error: querySrv ESERVFAIL _minecraft._tcp.play.hypixel.net\r\n    at errnoException (dns.js:50:10)\r\n    at QueryReqWrap.onresolve [as oncomplete] (dns.js:238:19)\r\n  code: 'ESERVFAIL',\r\n  errno: 'ESERVFAIL',\r\n  syscall: 'querySrv',\r\n  hostname: '_minecraft._tcp.play.hypixel.net' }\r\n```\r\n\r\nGetting this error when I tried it on hypixel.",
            "created_at": "2018-08-06T20:26:22Z",
            "html_url": "https://github.com/PrismarineJS/mineflayer/issues/699#issuecomment-410842148",
            "id": 410842148,
            "issue_url": "https://api.github.com/repos/PrismarineJS/mineflayer/issues/699",
            "node_id": "MDEyOklzc3VlQ29tbWVudDQxMDg0MjE0OA==",
            "performed_via_github_app": null,
            "reactions": {
                "+1": 0,
                "-1": 0,
                "confused": 0,
                "eyes": 0,
                "heart": 0,
                "hooray": 0,
                "laugh": 0,
                "rocket": 0,
                "total_count": 0,
                "url": "https://api.github.com/repos/PrismarineJS/mineflayer/issues/comments/410842148/reactions"
            },
            "updated_at": "2018-08-06T20:26:22Z",
            "url": "https://api.github.com/repos/PrismarineJS/mineflayer/issues/comments/410842148",
            "user": {
                "avatar_url": "https://avatars.githubusercontent.com/u/39072329?v=4",
                "events_url": "https://api.github.com/users/SaltySpark/events{/privacy}",
                "followers_url": "https://api.github.com/users/SaltySpark/followers",
                "following_url": "https://api.github.com/users/SaltySpark/following{/other_user}",
                "gists_url": "https://api.github.com/users/SaltySpark/gists{/gist_id}",
                "gravatar_id": "",
                "html_url": "https://github.com/SaltySpark",
                "id": 39072329,
                "login": "SaltySpark",
                "node_id": "MDQ6VXNlcjM5MDcyMzI5",
                "organizations_url": "https://api.github.com/users/SaltySpark/orgs",
                "received_events_url": "https://api.github.com/users/SaltySpark/received_events",
                "repos_url": "https://api.github.com/users/SaltySpark/repos",
                "site_admin": false,
                "starred_url": "https://api.github.com/users/SaltySpark/starred{/owner}{/repo}",
                "subscriptions_url": "https://api.github.com/users/SaltySpark/subscriptions",
                "type": "User",
                "url": "https://api.github.com/users/SaltySpark"
            }
        },
        {
            "author_association": "NONE",
            "body": "Still not solved, keeps giving the same error.",
            "created_at": "2018-08-07T14:49:38Z",
            "html_url": "https://github.com/PrismarineJS/mineflayer/issues/699#issuecomment-411083789",
            "id": 411083789,
            "issue_url": "https://api.github.com/repos/PrismarineJS/mineflayer/issues/699",
            "node_id": "MDEyOklzc3VlQ29tbWVudDQxMTA4Mzc4OQ==",
            "performed_via_github_app": null,
            "reactions": {
                "+1": 0,
                "-1": 0,
                "confused": 0,
                "eyes": 0,
                "heart": 0,
                "hooray": 0,
                "laugh": 0,
                "rocket": 0,
                "total_count": 0,
                "url": "https://api.github.com/repos/PrismarineJS/mineflayer/issues/comments/411083789/reactions"
            },
            "updated_at": "2018-08-07T14:49:38Z",
            "url": "https://api.github.com/repos/PrismarineJS/mineflayer/issues/comments/411083789",
            "user": {
                "avatar_url": "https://avatars.githubusercontent.com/u/39072329?v=4",
                "events_url": "https://api.github.com/users/SaltySpark/events{/privacy}",
                "followers_url": "https://api.github.com/users/SaltySpark/followers",
                "following_url": "https://api.github.com/users/SaltySpark/following{/other_user}",
                "gists_url": "https://api.github.com/users/SaltySpark/gists{/gist_id}",
                "gravatar_id": "",
                "html_url": "https://github.com/SaltySpark",
                "id": 39072329,
                "login": "SaltySpark",
                "node_id": "MDQ6VXNlcjM5MDcyMzI5",
                "organizations_url": "https://api.github.com/users/SaltySpark/orgs",
                "received_events_url": "https://api.github.com/users/SaltySpark/received_events",
                "repos_url": "https://api.github.com/users/SaltySpark/repos",
                "site_admin": false,
                "starred_url": "https://api.github.com/users/SaltySpark/starred{/owner}{/repo}",
                "subscriptions_url": "https://api.github.com/users/SaltySpark/subscriptions",
                "type": "User",
                "url": "https://api.github.com/users/SaltySpark"
            }
        },
        {
            "author_association": "MEMBER",
            "body": "you could try setting the port to `25565`",
            "created_at": "2018-08-07T17:01:31Z",
            "html_url": "https://github.com/PrismarineJS/mineflayer/issues/699#issuecomment-411128958",
            "id": 411128958,
            "issue_url": "https://api.github.com/repos/PrismarineJS/mineflayer/issues/699",
            "node_id": "MDEyOklzc3VlQ29tbWVudDQxMTEyODk1OA==",
            "performed_via_github_app": null,
            "reactions": {
                "+1": 0,
                "-1": 0,
                "confused": 0,
                "eyes": 0,
                "heart": 0,
                "hooray": 0,
                "laugh": 0,
                "rocket": 0,
                "total_count": 0,
                "url": "https://api.github.com/repos/PrismarineJS/mineflayer/issues/comments/411128958/reactions"
            },
            "updated_at": "2018-08-07T17:01:31Z",
            "url": "https://api.github.com/repos/PrismarineJS/mineflayer/issues/comments/411128958",
            "user": {
                "avatar_url": "https://avatars.githubusercontent.com/u/8838132?v=4",
                "events_url": "https://api.github.com/users/plexigras/events{/privacy}",
                "followers_url": "https://api.github.com/users/plexigras/followers",
                "following_url": "https://api.github.com/users/plexigras/following{/other_user}",
                "gists_url": "https://api.github.com/users/plexigras/gists{/gist_id}",
                "gravatar_id": "",
                "html_url": "https://github.com/plexigras",
                "id": 8838132,
                "login": "plexigras",
                "node_id": "MDQ6VXNlcjg4MzgxMzI=",
                "organizations_url": "https://api.github.com/users/plexigras/orgs",
                "received_events_url": "https://api.github.com/users/plexigras/received_events",
                "repos_url": "https://api.github.com/users/plexigras/repos",
                "site_admin": false,
                "starred_url": "https://api.github.com/users/plexigras/starred{/owner}{/repo}",
                "subscriptions_url": "https://api.github.com/users/plexigras/subscriptions",
                "type": "User",
                "url": "https://api.github.com/users/plexigras"
            }
        },
        {
            "author_association": "MEMBER",
            "body": "We probably should remove the code trying to use that _tcp thing. Not sure what it even tries to do.",
            "created_at": "2018-08-07T20:19:59Z",
            "html_url": "https://github.com/PrismarineJS/mineflayer/issues/699#issuecomment-411188645",
            "id": 411188645,
            "issue_url": "https://api.github.com/repos/PrismarineJS/mineflayer/issues/699",
            "node_id": "MDEyOklzc3VlQ29tbWVudDQxMTE4ODY0NQ==",
            "performed_via_github_app": null,
            "reactions": {
                "+1": 0,
                "-1": 0,
                "confused": 0,
                "eyes": 0,
                "heart": 0,
                "hooray": 0,
                "laugh": 0,
                "rocket": 0,
                "total_count": 0,
                "url": "https://api.github.com/repos/PrismarineJS/mineflayer/issues/comments/411188645/reactions"
            },
            "updated_at": "2018-08-07T20:19:59Z",
            "url": "https://api.github.com/repos/PrismarineJS/mineflayer/issues/comments/411188645",
            "user": {
                "avatar_url": "https://avatars.githubusercontent.com/u/2346494?v=4",
                "events_url": "https://api.github.com/users/rom1504/events{/privacy}",
                "followers_url": "https://api.github.com/users/rom1504/followers",
                "following_url": "https://api.github.com/users/rom1504/following{/other_user}",
                "gists_url": "https://api.github.com/users/rom1504/gists{/gist_id}",
                "gravatar_id": "",
                "html_url": "https://github.com/rom1504",
                "id": 2346494,
                "login": "rom1504",
                "node_id": "MDQ6VXNlcjIzNDY0OTQ=",
                "organizations_url": "https://api.github.com/users/rom1504/orgs",
                "received_events_url": "https://api.github.com/users/rom1504/received_events",
                "repos_url": "https://api.github.com/users/rom1504/repos",
                "site_admin": false,
                "starred_url": "https://api.github.com/users/rom1504/starred{/owner}{/repo}",
                "subscriptions_url": "https://api.github.com/users/rom1504/subscriptions",
                "type": "User",
                "url": "https://api.github.com/users/rom1504"
            }
        },
        {
            "author_association": "MEMBER",
            "body": "It's for SRV DNS records support. Minecraft does it too, we shouldn't remove it.",
            "created_at": "2018-08-07T21:03:39Z",
            "html_url": "https://github.com/PrismarineJS/mineflayer/issues/699#issuecomment-411201813",
            "id": 411201813,
            "issue_url": "https://api.github.com/repos/PrismarineJS/mineflayer/issues/699",
            "node_id": "MDEyOklzc3VlQ29tbWVudDQxMTIwMTgxMw==",
            "performed_via_github_app": null,
            "reactions": {
                "+1": 0,
                "-1": 0,
                "confused": 0,
                "eyes": 0,
                "heart": 0,
                "hooray": 0,
                "laugh": 0,
                "rocket": 0,
                "total_count": 0,
                "url": "https://api.github.com/repos/PrismarineJS/mineflayer/issues/comments/411201813/reactions"
            },
            "updated_at": "2018-08-07T21:03:39Z",
            "url": "https://api.github.com/repos/PrismarineJS/mineflayer/issues/comments/411201813",
            "user": {
                "avatar_url": "https://avatars.githubusercontent.com/u/1069318?v=4",
                "events_url": "https://api.github.com/users/roblabla/events{/privacy}",
                "followers_url": "https://api.github.com/users/roblabla/followers",
                "following_url": "https://api.github.com/users/roblabla/following{/other_user}",
                "gists_url": "https://api.github.com/users/roblabla/gists{/gist_id}",
                "gravatar_id": "",
                "html_url": "https://github.com/roblabla",
                "id": 1069318,
                "login": "roblabla",
                "node_id": "MDQ6VXNlcjEwNjkzMTg=",
                "organizations_url": "https://api.github.com/users/roblabla/orgs",
                "received_events_url": "https://api.github.com/users/roblabla/received_events",
                "repos_url": "https://api.github.com/users/roblabla/repos",
                "site_admin": false,
                "starred_url": "https://api.github.com/users/roblabla/starred{/owner}{/repo}",
                "subscriptions_url": "https://api.github.com/users/roblabla/subscriptions",
                "type": "User",
                "url": "https://api.github.com/users/roblabla"
            }
        },
        {
            "author_association": "NONE",
            "body": "So other then setting the port to 25565, which is should do by default, what should I do?\r\n\r\nAdding the port doesn't fix it.",
            "created_at": "2018-08-07T23:25:19Z",
            "html_url": "https://github.com/PrismarineJS/mineflayer/issues/699#issuecomment-411234073",
            "id": 411234073,
            "issue_url": "https://api.github.com/repos/PrismarineJS/mineflayer/issues/699",
            "node_id": "MDEyOklzc3VlQ29tbWVudDQxMTIzNDA3Mw==",
            "performed_via_github_app": null,
            "reactions": {
                "+1": 0,
                "-1": 0,
                "confused": 0,
                "eyes": 0,
                "heart": 0,
                "hooray": 0,
                "laugh": 0,
                "rocket": 0,
                "total_count": 0,
                "url": "https://api.github.com/repos/PrismarineJS/mineflayer/issues/comments/411234073/reactions"
            },
            "updated_at": "2018-08-07T23:26:56Z",
            "url": "https://api.github.com/repos/PrismarineJS/mineflayer/issues/comments/411234073",
            "user": {
                "avatar_url": "https://avatars.githubusercontent.com/u/39072329?v=4",
                "events_url": "https://api.github.com/users/SaltySpark/events{/privacy}",
                "followers_url": "https://api.github.com/users/SaltySpark/followers",
                "following_url": "https://api.github.com/users/SaltySpark/following{/other_user}",
                "gists_url": "https://api.github.com/users/SaltySpark/gists{/gist_id}",
                "gravatar_id": "",
                "html_url": "https://github.com/SaltySpark",
                "id": 39072329,
                "login": "SaltySpark",
                "node_id": "MDQ6VXNlcjM5MDcyMzI5",
                "organizations_url": "https://api.github.com/users/SaltySpark/orgs",
                "received_events_url": "https://api.github.com/users/SaltySpark/received_events",
                "repos_url": "https://api.github.com/users/SaltySpark/repos",
                "site_admin": false,
                "starred_url": "https://api.github.com/users/SaltySpark/starred{/owner}{/repo}",
                "subscriptions_url": "https://api.github.com/users/SaltySpark/subscriptions",
                "type": "User",
                "url": "https://api.github.com/users/SaltySpark"
            }
        },
        {
            "author_association": "NONE",
            "body": "I've tried changing the server, seems like none work.",
            "created_at": "2018-08-07T23:29:07Z",
            "html_url": "https://github.com/PrismarineJS/mineflayer/issues/699#issuecomment-411234744",
            "id": 411234744,
            "issue_url": "https://api.github.com/repos/PrismarineJS/mineflayer/issues/699",
            "node_id": "MDEyOklzc3VlQ29tbWVudDQxMTIzNDc0NA==",
            "performed_via_github_app": null,
            "reactions": {
                "+1": 0,
                "-1": 0,
                "confused": 0,
                "eyes": 0,
                "heart": 0,
                "hooray": 0,
                "laugh": 0,
                "rocket": 0,
                "total_count": 0,
                "url": "https://api.github.com/repos/PrismarineJS/mineflayer/issues/comments/411234744/reactions"
            },
            "updated_at": "2018-08-07T23:29:07Z",
            "url": "https://api.github.com/repos/PrismarineJS/mineflayer/issues/comments/411234744",
            "user": {
                "avatar_url": "https://avatars.githubusercontent.com/u/39072329?v=4",
                "events_url": "https://api.github.com/users/SaltySpark/events{/privacy}",
                "followers_url": "https://api.github.com/users/SaltySpark/followers",
                "following_url": "https://api.github.com/users/SaltySpark/following{/other_user}",
                "gists_url": "https://api.github.com/users/SaltySpark/gists{/gist_id}",
                "gravatar_id": "",
                "html_url": "https://github.com/SaltySpark",
                "id": 39072329,
                "login": "SaltySpark",
                "node_id": "MDQ6VXNlcjM5MDcyMzI5",
                "organizations_url": "https://api.github.com/users/SaltySpark/orgs",
                "received_events_url": "https://api.github.com/users/SaltySpark/received_events",
                "repos_url": "https://api.github.com/users/SaltySpark/repos",
                "site_admin": false,
                "starred_url": "https://api.github.com/users/SaltySpark/starred{/owner}{/repo}",
                "subscriptions_url": "https://api.github.com/users/SaltySpark/subscriptions",
                "type": "User",
                "url": "https://api.github.com/users/SaltySpark"
            }
        },
        {
            "author_association": "NONE",
            "body": "Still not solved...",
            "created_at": "2018-08-12T16:22:54Z",
            "html_url": "https://github.com/PrismarineJS/mineflayer/issues/699#issuecomment-412353909",
            "id": 412353909,
            "issue_url": "https://api.github.com/repos/PrismarineJS/mineflayer/issues/699",
            "node_id": "MDEyOklzc3VlQ29tbWVudDQxMjM1MzkwOQ==",
            "performed_via_github_app": null,
            "reactions": {
                "+1": 0,
                "-1": 0,
                "confused": 0,
                "eyes": 0,
                "heart": 0,
                "hooray": 0,
                "laugh": 0,
                "rocket": 0,
                "total_count": 0,
                "url": "https://api.github.com/repos/PrismarineJS/mineflayer/issues/comments/412353909/reactions"
            },
            "updated_at": "2018-08-12T16:22:54Z",
            "url": "https://api.github.com/repos/PrismarineJS/mineflayer/issues/comments/412353909",
            "user": {
                "avatar_url": "https://avatars.githubusercontent.com/u/39072329?v=4",
                "events_url": "https://api.github.com/users/SaltySpark/events{/privacy}",
                "followers_url": "https://api.github.com/users/SaltySpark/followers",
                "following_url": "https://api.github.com/users/SaltySpark/following{/other_user}",
                "gists_url": "https://api.github.com/users/SaltySpark/gists{/gist_id}",
                "gravatar_id": "",
                "html_url": "https://github.com/SaltySpark",
                "id": 39072329,
                "login": "SaltySpark",
                "node_id": "MDQ6VXNlcjM5MDcyMzI5",
                "organizations_url": "https://api.github.com/users/SaltySpark/orgs",
                "received_events_url": "https://api.github.com/users/SaltySpark/received_events",
                "repos_url": "https://api.github.com/users/SaltySpark/repos",
                "site_admin": false,
                "starred_url": "https://api.github.com/users/SaltySpark/starred{/owner}{/repo}",
                "subscriptions_url": "https://api.github.com/users/SaltySpark/subscriptions",
                "type": "User",
                "url": "https://api.github.com/users/SaltySpark"
            }
        },
        {
            "author_association": "MEMBER",
            "body": "Try to make optional what's in tcp.js",
            "created_at": "2018-08-12T18:24:06Z",
            "html_url": "https://github.com/PrismarineJS/mineflayer/issues/699#issuecomment-412362086",
            "id": 412362086,
            "issue_url": "https://api.github.com/repos/PrismarineJS/mineflayer/issues/699",
            "node_id": "MDEyOklzc3VlQ29tbWVudDQxMjM2MjA4Ng==",
            "performed_via_github_app": null,
            "reactions": {
                "+1": 0,
                "-1": 0,
                "confused": 0,
                "eyes": 0,
                "heart": 0,
                "hooray": 0,
                "laugh": 0,
                "rocket": 0,
                "total_count": 0,
                "url": "https://api.github.com/repos/PrismarineJS/mineflayer/issues/comments/412362086/reactions"
            },
            "updated_at": "2018-08-12T18:24:06Z",
            "url": "https://api.github.com/repos/PrismarineJS/mineflayer/issues/comments/412362086",
            "user": {
                "avatar_url": "https://avatars.githubusercontent.com/u/2346494?v=4",
                "events_url": "https://api.github.com/users/rom1504/events{/privacy}",
                "followers_url": "https://api.github.com/users/rom1504/followers",
                "following_url": "https://api.github.com/users/rom1504/following{/other_user}",
                "gists_url": "https://api.github.com/users/rom1504/gists{/gist_id}",
                "gravatar_id": "",
                "html_url": "https://github.com/rom1504",
                "id": 2346494,
                "login": "rom1504",
                "node_id": "MDQ6VXNlcjIzNDY0OTQ=",
                "organizations_url": "https://api.github.com/users/rom1504/orgs",
                "received_events_url": "https://api.github.com/users/rom1504/received_events",
                "repos_url": "https://api.github.com/users/rom1504/repos",
                "site_admin": false,
                "starred_url": "https://api.github.com/users/rom1504/starred{/owner}{/repo}",
                "subscriptions_url": "https://api.github.com/users/rom1504/subscriptions",
                "type": "User",
                "url": "https://api.github.com/users/rom1504"
            }
        },
        {
            "author_association": "NONE",
            "body": "There is no tcp.js\r\n\r\nReally confused on what to do, please help.",
            "created_at": "2018-08-16T22:06:31Z",
            "html_url": "https://github.com/PrismarineJS/mineflayer/issues/699#issuecomment-413699098",
            "id": 413699098,
            "issue_url": "https://api.github.com/repos/PrismarineJS/mineflayer/issues/699",
            "node_id": "MDEyOklzc3VlQ29tbWVudDQxMzY5OTA5OA==",
            "performed_via_github_app": null,
            "reactions": {
                "+1": 0,
                "-1": 0,
                "confused": 0,
                "eyes": 0,
                "heart": 0,
                "hooray": 0,
                "laugh": 0,
                "rocket": 0,
                "total_count": 0,
                "url": "https://api.github.com/repos/PrismarineJS/mineflayer/issues/comments/413699098/reactions"
            },
            "updated_at": "2018-08-16T22:06:31Z",
            "url": "https://api.github.com/repos/PrismarineJS/mineflayer/issues/comments/413699098",
            "user": {
                "avatar_url": "https://avatars.githubusercontent.com/u/39072329?v=4",
                "events_url": "https://api.github.com/users/SaltySpark/events{/privacy}",
                "followers_url": "https://api.github.com/users/SaltySpark/followers",
                "following_url": "https://api.github.com/users/SaltySpark/following{/other_user}",
                "gists_url": "https://api.github.com/users/SaltySpark/gists{/gist_id}",
                "gravatar_id": "",
                "html_url": "https://github.com/SaltySpark",
                "id": 39072329,
                "login": "SaltySpark",
                "node_id": "MDQ6VXNlcjM5MDcyMzI5",
                "organizations_url": "https://api.github.com/users/SaltySpark/orgs",
                "received_events_url": "https://api.github.com/users/SaltySpark/received_events",
                "repos_url": "https://api.github.com/users/SaltySpark/repos",
                "site_admin": false,
                "starred_url": "https://api.github.com/users/SaltySpark/starred{/owner}{/repo}",
                "subscriptions_url": "https://api.github.com/users/SaltySpark/subscriptions",
                "type": "User",
                "url": "https://api.github.com/users/SaltySpark"
            }
        },
        {
            "author_association": "MEMBER",
            "body": "It's in node-minecraft-protocol\n\nOn Fri, Aug 17, 2018, 00:06 SaltySpark <notifications@github.com> wrote:\n\n> There is no tcp.js\n>\n> Really confused on what to do, please help.\n>\n> —\n> You are receiving this because you commented.\n>\n>\n> Reply to this email directly, view it on GitHub\n> <https://github.com/PrismarineJS/mineflayer/issues/699#issuecomment-413699098>,\n> or mute the thread\n> <https://github.com/notifications/unsubscribe-auth/ACPN_vztaGoSI1UR8Oe7wHPE_NWtrZmAks5uRezogaJpZM4VxB87>\n> .\n>\n",
            "created_at": "2018-08-17T19:18:00Z",
            "html_url": "https://github.com/PrismarineJS/mineflayer/issues/699#issuecomment-413963971",
            "id": 413963971,
            "issue_url": "https://api.github.com/repos/PrismarineJS/mineflayer/issues/699",
            "node_id": "MDEyOklzc3VlQ29tbWVudDQxMzk2Mzk3MQ==",
            "performed_via_github_app": null,
            "reactions": {
                "+1": 0,
                "-1": 0,
                "confused": 0,
                "eyes": 0,
                "heart": 0,
                "hooray": 0,
                "laugh": 0,
                "rocket": 0,
                "total_count": 0,
                "url": "https://api.github.com/repos/PrismarineJS/mineflayer/issues/comments/413963971/reactions"
            },
            "updated_at": "2018-08-17T19:18:00Z",
            "url": "https://api.github.com/repos/PrismarineJS/mineflayer/issues/comments/413963971",
            "user": {
                "avatar_url": "https://avatars.githubusercontent.com/u/2346494?v=4",
                "events_url": "https://api.github.com/users/rom1504/events{/privacy}",
                "followers_url": "https://api.github.com/users/rom1504/followers",
                "following_url": "https://api.github.com/users/rom1504/following{/other_user}",
                "gists_url": "https://api.github.com/users/rom1504/gists{/gist_id}",
                "gravatar_id": "",
                "html_url": "https://github.com/rom1504",
                "id": 2346494,
                "login": "rom1504",
                "node_id": "MDQ6VXNlcjIzNDY0OTQ=",
                "organizations_url": "https://api.github.com/users/rom1504/orgs",
                "received_events_url": "https://api.github.com/users/rom1504/received_events",
                "repos_url": "https://api.github.com/users/rom1504/repos",
                "site_admin": false,
                "starred_url": "https://api.github.com/users/rom1504/starred{/owner}{/repo}",
                "subscriptions_url": "https://api.github.com/users/rom1504/subscriptions",
                "type": "User",
                "url": "https://api.github.com/users/rom1504"
            }
        },
        {
            "author_association": "MEMBER",
            "body": "now fixed, just run npm update",
            "created_at": "2018-08-25T23:48:35Z",
            "html_url": "https://github.com/PrismarineJS/mineflayer/issues/699#issuecomment-416003721",
            "id": 416003721,
            "issue_url": "https://api.github.com/repos/PrismarineJS/mineflayer/issues/699",
            "node_id": "MDEyOklzc3VlQ29tbWVudDQxNjAwMzcyMQ==",
            "performed_via_github_app": null,
            "reactions": {
                "+1": 0,
                "-1": 0,
                "confused": 0,
                "eyes": 0,
                "heart": 0,
                "hooray": 0,
                "laugh": 0,
                "rocket": 0,
                "total_count": 0,
                "url": "https://api.github.com/repos/PrismarineJS/mineflayer/issues/comments/416003721/reactions"
            },
            "updated_at": "2018-08-25T23:48:35Z",
            "url": "https://api.github.com/repos/PrismarineJS/mineflayer/issues/comments/416003721",
            "user": {
                "avatar_url": "https://avatars.githubusercontent.com/u/2346494?v=4",
                "events_url": "https://api.github.com/users/rom1504/events{/privacy}",
                "followers_url": "https://api.github.com/users/rom1504/followers",
                "following_url": "https://api.github.com/users/rom1504/following{/other_user}",
                "gists_url": "https://api.github.com/users/rom1504/gists{/gist_id}",
                "gravatar_id": "",
                "html_url": "https://github.com/rom1504",
                "id": 2346494,
                "login": "rom1504",
                "node_id": "MDQ6VXNlcjIzNDY0OTQ=",
                "organizations_url": "https://api.github.com/users/rom1504/orgs",
                "received_events_url": "https://api.github.com/users/rom1504/received_events",
                "repos_url": "https://api.github.com/users/rom1504/repos",
                "site_admin": false,
                "starred_url": "https://api.github.com/users/rom1504/starred{/owner}{/repo}",
                "subscriptions_url": "https://api.github.com/users/rom1504/subscriptions",
                "type": "User",
                "url": "https://api.github.com/users/rom1504"
            }
        }
    ],
    "comments": 12,
    "comments_url": "https://api.github.com/repos/PrismarineJS/mineflayer/issues/699/comments",
    "created_at": "2018-08-06T20:24:48Z",
    "event_data": [
        {
            "actor": {
                "avatar_url": "https://avatars.githubusercontent.com/u/39072329?v=4",
                "events_url": "https://api.github.com/users/SaltySpark/events{/privacy}",
                "followers_url": "https://api.github.com/users/SaltySpark/followers",
                "following_url": "https://api.github.com/users/SaltySpark/following{/other_user}",
                "gists_url": "https://api.github.com/users/SaltySpark/gists{/gist_id}",
                "gravatar_id": "",
                "html_url": "https://github.com/SaltySpark",
                "id": 39072329,
                "login": "SaltySpark",
                "node_id": "MDQ6VXNlcjM5MDcyMzI5",
                "organizations_url": "https://api.github.com/users/SaltySpark/orgs",
                "received_events_url": "https://api.github.com/users/SaltySpark/received_events",
                "repos_url": "https://api.github.com/users/SaltySpark/repos",
                "site_admin": false,
                "starred_url": "https://api.github.com/users/SaltySpark/starred{/owner}{/repo}",
                "subscriptions_url": "https://api.github.com/users/SaltySpark/subscriptions",
                "type": "User",
                "url": "https://api.github.com/users/SaltySpark"
            },
            "commit_id": null,
            "commit_url": null,
            "created_at": "2018-08-06T20:26:22Z",
            "event": "closed",
            "id": 1773793129,
            "node_id": "MDExOkNsb3NlZEV2ZW50MTc3Mzc5MzEyOQ==",
            "performed_via_github_app": null,
            "state_reason": null,
            "url": "https://api.github.com/repos/PrismarineJS/mineflayer/issues/events/1773793129"
        },
        {
            "actor": {
                "avatar_url": "https://avatars.githubusercontent.com/u/39072329?v=4",
                "events_url": "https://api.github.com/users/SaltySpark/events{/privacy}",
                "followers_url": "https://api.github.com/users/SaltySpark/followers",
                "following_url": "https://api.github.com/users/SaltySpark/following{/other_user}",
                "gists_url": "https://api.github.com/users/SaltySpark/gists{/gist_id}",
                "gravatar_id": "",
                "html_url": "https://github.com/SaltySpark",
                "id": 39072329,
                "login": "SaltySpark",
                "node_id": "MDQ6VXNlcjM5MDcyMzI5",
                "organizations_url": "https://api.github.com/users/SaltySpark/orgs",
                "received_events_url": "https://api.github.com/users/SaltySpark/received_events",
                "repos_url": "https://api.github.com/users/SaltySpark/repos",
                "site_admin": false,
                "starred_url": "https://api.github.com/users/SaltySpark/starred{/owner}{/repo}",
                "subscriptions_url": "https://api.github.com/users/SaltySpark/subscriptions",
                "type": "User",
                "url": "https://api.github.com/users/SaltySpark"
            },
            "commit_id": null,
            "commit_url": null,
            "created_at": "2018-08-06T20:26:25Z",
            "event": "reopened",
            "id": 1773793185,
            "node_id": "MDEzOlJlb3BlbmVkRXZlbnQxNzczNzkzMTg1",
            "performed_via_github_app": null,
            "state_reason": null,
            "url": "https://api.github.com/repos/PrismarineJS/mineflayer/issues/events/1773793185"
        },
        {
            "actor": {
                "avatar_url": "https://avatars.githubusercontent.com/u/2346494?v=4",
                "events_url": "https://api.github.com/users/rom1504/events{/privacy}",
                "followers_url": "https://api.github.com/users/rom1504/followers",
                "following_url": "https://api.github.com/users/rom1504/following{/other_user}",
                "gists_url": "https://api.github.com/users/rom1504/gists{/gist_id}",
                "gravatar_id": "",
                "html_url": "https://github.com/rom1504",
                "id": 2346494,
                "login": "rom1504",
                "node_id": "MDQ6VXNlcjIzNDY0OTQ=",
                "organizations_url": "https://api.github.com/users/rom1504/orgs",
                "received_events_url": "https://api.github.com/users/rom1504/received_events",
                "repos_url": "https://api.github.com/users/rom1504/repos",
                "site_admin": false,
                "starred_url": "https://api.github.com/users/rom1504/starred{/owner}{/repo}",
                "subscriptions_url": "https://api.github.com/users/rom1504/subscriptions",
                "type": "User",
                "url": "https://api.github.com/users/rom1504"
            },
            "commit_id": null,
            "commit_url": null,
            "created_at": "2018-08-25T23:48:35Z",
            "event": "closed",
            "id": 1809169958,
            "node_id": "MDExOkNsb3NlZEV2ZW50MTgwOTE2OTk1OA==",
            "performed_via_github_app": null,
            "state_reason": null,
            "url": "https://api.github.com/repos/PrismarineJS/mineflayer/issues/events/1809169958"
        }
    ],
    "events_url": "https://api.github.com/repos/PrismarineJS/mineflayer/issues/699/events",
    "html_url": "https://github.com/PrismarineJS/mineflayer/issues/699",
    "id": 348069673,
    "labels": [],
    "labels_url": "https://api.github.com/repos/PrismarineJS/mineflayer/issues/699/labels{/name}",
    "locked": false,
    "milestone": null,
    "node_id": "MDU6SXNzdWUzNDgwNjk2NzM=",
    "number": 699,
    "performed_via_github_app": null,
    "reactions": {
        "+1": 0,
        "-1": 0,
        "confused": 0,
        "eyes": 0,
        "heart": 0,
        "hooray": 0,
        "laugh": 0,
        "rocket": 0,
        "total_count": 0,
        "url": "https://api.github.com/repos/PrismarineJS/mineflayer/issues/699/reactions"
    },
    "repository_url": "https://api.github.com/repos/PrismarineJS/mineflayer",
    "state": "closed",
    "state_reason": "completed",
    "timeline_url": "https://api.github.com/repos/PrismarineJS/mineflayer/issues/699/timeline",
    "title": "Getting an error while doing a basic example.",
    "updated_at": "2018-08-25T23:48:35Z",
    "url": "https://api.github.com/repos/PrismarineJS/mineflayer/issues/699",
    "user": {
        "avatar_url": "https://avatars.githubusercontent.com/u/39072329?v=4",
        "events_url": "https://api.github.com/users/SaltySpark/events{/privacy}",
        "followers_url": "https://api.github.com/users/SaltySpark/followers",
        "following_url": "https://api.github.com/users/SaltySpark/following{/other_user}",
        "gists_url": "https://api.github.com/users/SaltySpark/gists{/gist_id}",
        "gravatar_id": "",
        "html_url": "https://github.com/SaltySpark",
        "id": 39072329,
        "login": "SaltySpark",
        "node_id": "MDQ6VXNlcjM5MDcyMzI5",
        "organizations_url": "https://api.github.com/users/SaltySpark/orgs",
        "received_events_url": "https://api.github.com/users/SaltySpark/received_events",
        "repos_url": "https://api.github.com/users/SaltySpark/repos",
        "site_admin": false,
        "starred_url": "https://api.github.com/users/SaltySpark/starred{/owner}{/repo}",
        "subscriptions_url": "https://api.github.com/users/SaltySpark/subscriptions",
        "type": "User",
        "url": "https://api.github.com/users/SaltySpark"
    }
}