{
    "active_lock_reason": null,
    "assignee": null,
    "assignees": [],
    "author_association": "NONE",
    "body": "Wouldn't it be cool to be able to do\n\n``` coffee-script\ncreepersNearMe = client.find(\"entity.creeper\")\ndiamondsNearMe = client.find(\"block.diamond\")\n```\n\nbut also be able to chain\n\n``` coffee-script\nclient.find(\"block.diamond\").dig(1000) # interval between digs otherwise you get kicked by bukkit\n\nclient.find(\"entity.creeper\").attack(100) # interval between attacks\n\nclient.find(\"block.diamond\").each (block) ->\n  if block.isWithinReach client.entity # 6 blocks\n    block.mine()\n\nclient.find(\"entity.skeleton\").walkTo({jumpEnabled: true}).attack()\n\nclient.find(\"object.chest\").interact().openWindow (window) ->\n  # window.title, #window.slots, etc.\n```\n\nJust some thoughts - let me know what you think.\n",
    "closed_at": "2013-01-11T16:19:40Z",
    "comment_data": [
        {
            "author_association": "MEMBER",
            "body": "That syntax looks fun. However that functionality can and should be built _on top of_ mineflayer rather than _baked into_ mineflayer. In other words, that kind of syntax likely won't make it into mineflayer itself, but if you want to make another project that depends on mineflayer and supplies an even higher level API, go for it.\n",
            "created_at": "2013-01-08T15:28:48Z",
            "html_url": "https://github.com/PrismarineJS/mineflayer/issues/72#issuecomment-12001541",
            "id": 12001541,
            "issue_url": "https://api.github.com/repos/PrismarineJS/mineflayer/issues/72",
            "node_id": "MDEyOklzc3VlQ29tbWVudDEyMDAxNTQx",
            "performed_via_github_app": null,
            "reactions": {
                "+1": 0,
                "-1": 0,
                "confused": 0,
                "eyes": 0,
                "heart": 0,
                "hooray": 0,
                "laugh": 0,
                "rocket": 0,
                "total_count": 0,
                "url": "https://api.github.com/repos/PrismarineJS/mineflayer/issues/comments/12001541/reactions"
            },
            "updated_at": "2013-01-08T15:28:48Z",
            "url": "https://api.github.com/repos/PrismarineJS/mineflayer/issues/comments/12001541",
            "user": {
                "avatar_url": "https://avatars.githubusercontent.com/u/106511?v=4",
                "events_url": "https://api.github.com/users/andrewrk/events{/privacy}",
                "followers_url": "https://api.github.com/users/andrewrk/followers",
                "following_url": "https://api.github.com/users/andrewrk/following{/other_user}",
                "gists_url": "https://api.github.com/users/andrewrk/gists{/gist_id}",
                "gravatar_id": "",
                "html_url": "https://github.com/andrewrk",
                "id": 106511,
                "login": "andrewrk",
                "node_id": "MDQ6VXNlcjEwNjUxMQ==",
                "organizations_url": "https://api.github.com/users/andrewrk/orgs",
                "received_events_url": "https://api.github.com/users/andrewrk/received_events",
                "repos_url": "https://api.github.com/users/andrewrk/repos",
                "site_admin": false,
                "starred_url": "https://api.github.com/users/andrewrk/starred{/owner}{/repo}",
                "subscriptions_url": "https://api.github.com/users/andrewrk/subscriptions",
                "type": "User",
                "url": "https://api.github.com/users/andrewrk"
            }
        },
        {
            "author_association": "MEMBER",
            "body": "It is not planned for mineflayer to include, for example, the A\\* pathfinding algorithm.\n",
            "created_at": "2013-01-08T15:30:15Z",
            "html_url": "https://github.com/PrismarineJS/mineflayer/issues/72#issuecomment-12001602",
            "id": 12001602,
            "issue_url": "https://api.github.com/repos/PrismarineJS/mineflayer/issues/72",
            "node_id": "MDEyOklzc3VlQ29tbWVudDEyMDAxNjAy",
            "performed_via_github_app": null,
            "reactions": {
                "+1": 0,
                "-1": 0,
                "confused": 0,
                "eyes": 0,
                "heart": 0,
                "hooray": 0,
                "laugh": 0,
                "rocket": 0,
                "total_count": 0,
                "url": "https://api.github.com/repos/PrismarineJS/mineflayer/issues/comments/12001602/reactions"
            },
            "updated_at": "2013-01-08T15:30:15Z",
            "url": "https://api.github.com/repos/PrismarineJS/mineflayer/issues/comments/12001602",
            "user": {
                "avatar_url": "https://avatars.githubusercontent.com/u/106511?v=4",
                "events_url": "https://api.github.com/users/andrewrk/events{/privacy}",
                "followers_url": "https://api.github.com/users/andrewrk/followers",
                "following_url": "https://api.github.com/users/andrewrk/following{/other_user}",
                "gists_url": "https://api.github.com/users/andrewrk/gists{/gist_id}",
                "gravatar_id": "",
                "html_url": "https://github.com/andrewrk",
                "id": 106511,
                "login": "andrewrk",
                "node_id": "MDQ6VXNlcjEwNjUxMQ==",
                "organizations_url": "https://api.github.com/users/andrewrk/orgs",
                "received_events_url": "https://api.github.com/users/andrewrk/received_events",
                "repos_url": "https://api.github.com/users/andrewrk/repos",
                "site_admin": false,
                "starred_url": "https://api.github.com/users/andrewrk/starred{/owner}{/repo}",
                "subscriptions_url": "https://api.github.com/users/andrewrk/subscriptions",
                "type": "User",
                "url": "https://api.github.com/users/andrewrk"
            }
        },
        {
            "author_association": "MEMBER",
            "body": "Yeah this is out of scope of mineflayer. Mineflayer's goal is to give you a high level api to minecraft; _not_ to do any AI for you.\n",
            "created_at": "2013-01-11T16:19:40Z",
            "html_url": "https://github.com/PrismarineJS/mineflayer/issues/72#issuecomment-12151240",
            "id": 12151240,
            "issue_url": "https://api.github.com/repos/PrismarineJS/mineflayer/issues/72",
            "node_id": "MDEyOklzc3VlQ29tbWVudDEyMTUxMjQw",
            "performed_via_github_app": null,
            "reactions": {
                "+1": 0,
                "-1": 0,
                "confused": 0,
                "eyes": 0,
                "heart": 0,
                "hooray": 0,
                "laugh": 0,
                "rocket": 0,
                "total_count": 0,
                "url": "https://api.github.com/repos/PrismarineJS/mineflayer/issues/comments/12151240/reactions"
            },
            "updated_at": "2013-01-11T16:19:53Z",
            "url": "https://api.github.com/repos/PrismarineJS/mineflayer/issues/comments/12151240",
            "user": {
                "avatar_url": "https://avatars.githubusercontent.com/u/106511?v=4",
                "events_url": "https://api.github.com/users/andrewrk/events{/privacy}",
                "followers_url": "https://api.github.com/users/andrewrk/followers",
                "following_url": "https://api.github.com/users/andrewrk/following{/other_user}",
                "gists_url": "https://api.github.com/users/andrewrk/gists{/gist_id}",
                "gravatar_id": "",
                "html_url": "https://github.com/andrewrk",
                "id": 106511,
                "login": "andrewrk",
                "node_id": "MDQ6VXNlcjEwNjUxMQ==",
                "organizations_url": "https://api.github.com/users/andrewrk/orgs",
                "received_events_url": "https://api.github.com/users/andrewrk/received_events",
                "repos_url": "https://api.github.com/users/andrewrk/repos",
                "site_admin": false,
                "starred_url": "https://api.github.com/users/andrewrk/starred{/owner}{/repo}",
                "subscriptions_url": "https://api.github.com/users/andrewrk/subscriptions",
                "type": "User",
                "url": "https://api.github.com/users/andrewrk"
            }
        }
    ],
    "comments": 3,
    "comments_url": "https://api.github.com/repos/PrismarineJS/mineflayer/issues/72/comments",
    "created_at": "2013-01-08T15:16:20Z",
    "event_data": [
        {
            "actor": {
                "avatar_url": "https://avatars.githubusercontent.com/u/106511?v=4",
                "events_url": "https://api.github.com/users/andrewrk/events{/privacy}",
                "followers_url": "https://api.github.com/users/andrewrk/followers",
                "following_url": "https://api.github.com/users/andrewrk/following{/other_user}",
                "gists_url": "https://api.github.com/users/andrewrk/gists{/gist_id}",
                "gravatar_id": "",
                "html_url": "https://github.com/andrewrk",
                "id": 106511,
                "login": "andrewrk",
                "node_id": "MDQ6VXNlcjEwNjUxMQ==",
                "organizations_url": "https://api.github.com/users/andrewrk/orgs",
                "received_events_url": "https://api.github.com/users/andrewrk/received_events",
                "repos_url": "https://api.github.com/users/andrewrk/repos",
                "site_admin": false,
                "starred_url": "https://api.github.com/users/andrewrk/starred{/owner}{/repo}",
                "subscriptions_url": "https://api.github.com/users/andrewrk/subscriptions",
                "type": "User",
                "url": "https://api.github.com/users/andrewrk"
            },
            "commit_id": null,
            "commit_url": null,
            "created_at": "2013-01-11T16:19:40Z",
            "event": "closed",
            "id": 34118891,
            "node_id": "MDExOkNsb3NlZEV2ZW50MzQxMTg4OTE=",
            "performed_via_github_app": null,
            "state_reason": null,
            "url": "https://api.github.com/repos/PrismarineJS/mineflayer/issues/events/34118891"
        }
    ],
    "events_url": "https://api.github.com/repos/PrismarineJS/mineflayer/issues/72/events",
    "html_url": "https://github.com/PrismarineJS/mineflayer/issues/72",
    "id": 9771078,
    "labels": [],
    "labels_url": "https://api.github.com/repos/PrismarineJS/mineflayer/issues/72/labels{/name}",
    "locked": false,
    "milestone": null,
    "node_id": "MDU6SXNzdWU5NzcxMDc4",
    "number": 72,
    "performed_via_github_app": null,
    "reactions": {
        "+1": 0,
        "-1": 0,
        "confused": 0,
        "eyes": 0,
        "heart": 0,
        "hooray": 0,
        "laugh": 0,
        "rocket": 0,
        "total_count": 0,
        "url": "https://api.github.com/repos/PrismarineJS/mineflayer/issues/72/reactions"
    },
    "repository_url": "https://api.github.com/repos/PrismarineJS/mineflayer",
    "state": "closed",
    "state_reason": "completed",
    "timeline_url": "https://api.github.com/repos/PrismarineJS/mineflayer/issues/72/timeline",
    "title": "Idea: jQuery style syntax for finding blocks/entities",
    "updated_at": "2013-01-11T16:19:53Z",
    "url": "https://api.github.com/repos/PrismarineJS/mineflayer/issues/72",
    "user": {
        "avatar_url": "https://avatars.githubusercontent.com/u/425716?v=4",
        "events_url": "https://api.github.com/users/yocontra/events{/privacy}",
        "followers_url": "https://api.github.com/users/yocontra/followers",
        "following_url": "https://api.github.com/users/yocontra/following{/other_user}",
        "gists_url": "https://api.github.com/users/yocontra/gists{/gist_id}",
        "gravatar_id": "",
        "html_url": "https://github.com/yocontra",
        "id": 425716,
        "login": "yocontra",
        "node_id": "MDQ6VXNlcjQyNTcxNg==",
        "organizations_url": "https://api.github.com/users/yocontra/orgs",
        "received_events_url": "https://api.github.com/users/yocontra/received_events",
        "repos_url": "https://api.github.com/users/yocontra/repos",
        "site_admin": false,
        "starred_url": "https://api.github.com/users/yocontra/starred{/owner}{/repo}",
        "subscriptions_url": "https://api.github.com/users/yocontra/subscriptions",
        "type": "User",
        "url": "https://api.github.com/users/yocontra"
    }
}