{
    "active_lock_reason": null,
    "assignee": {
        "avatar_url": "https://avatars.githubusercontent.com/u/13330620?v=4",
        "events_url": "https://api.github.com/users/wvffle/events{/privacy}",
        "followers_url": "https://api.github.com/users/wvffle/followers",
        "following_url": "https://api.github.com/users/wvffle/following{/other_user}",
        "gists_url": "https://api.github.com/users/wvffle/gists{/gist_id}",
        "gravatar_id": "",
        "html_url": "https://github.com/wvffle",
        "id": 13330620,
        "login": "wvffle",
        "node_id": "MDQ6VXNlcjEzMzMwNjIw",
        "organizations_url": "https://api.github.com/users/wvffle/orgs",
        "received_events_url": "https://api.github.com/users/wvffle/received_events",
        "repos_url": "https://api.github.com/users/wvffle/repos",
        "site_admin": false,
        "starred_url": "https://api.github.com/users/wvffle/starred{/owner}{/repo}",
        "subscriptions_url": "https://api.github.com/users/wvffle/subscriptions",
        "type": "User",
        "url": "https://api.github.com/users/wvffle"
    },
    "assignees": [
        {
            "avatar_url": "https://avatars.githubusercontent.com/u/13330620?v=4",
            "events_url": "https://api.github.com/users/wvffle/events{/privacy}",
            "followers_url": "https://api.github.com/users/wvffle/followers",
            "following_url": "https://api.github.com/users/wvffle/following{/other_user}",
            "gists_url": "https://api.github.com/users/wvffle/gists{/gist_id}",
            "gravatar_id": "",
            "html_url": "https://github.com/wvffle",
            "id": 13330620,
            "login": "wvffle",
            "node_id": "MDQ6VXNlcjEzMzMwNjIw",
            "organizations_url": "https://api.github.com/users/wvffle/orgs",
            "received_events_url": "https://api.github.com/users/wvffle/received_events",
            "repos_url": "https://api.github.com/users/wvffle/repos",
            "site_admin": false,
            "starred_url": "https://api.github.com/users/wvffle/starred{/owner}{/repo}",
            "subscriptions_url": "https://api.github.com/users/wvffle/subscriptions",
            "type": "User",
            "url": "https://api.github.com/users/wvffle"
        }
    ],
    "author_association": "MEMBER",
    "body": "<!-- Issuehunt Badges -->\n[<img alt=\"Issuehunt badges\" src=\"https://img.shields.io/badge/IssueHunt-%246%20Rewarded-%237E24E3.svg\" />](https://issuehunt.io/r/PrismarineJS/mineflayer/issues/725)\n<!-- /Issuehunt Badges -->\n\n\nwe can do something like https://nodejs.org/api/fs.html#fs_fs_promises_api to provide promises\n\n\n<!-- Issuehunt content -->\n\n---\n\n<details>\n<summary>\n<b>IssueHunt Summary</b>\n</summary>\n\n#### [<img src='https://avatars2.githubusercontent.com/u/14372001?v=4' alt='ph0t0shop' width=24 height=24> ph0t0shop](https://issuehunt.io/u/ph0t0shop) has been rewarded.\n\n### Backers (Total: $6.00)\n\n- [<img src='https://avatars1.githubusercontent.com/u/2346494?v=4' alt='rom1504' width=24 height=24> rom1504](https://issuehunt.io/u/rom1504) ($2.00)\n- [<img src='https://avatars2.githubusercontent.com/u/17525823?v=4' alt='imharvol' width=24 height=24> imharvol](https://issuehunt.io/u/imharvol) ($2.00)\n- [<img src='https://avatars2.githubusercontent.com/u/25003283?v=4' alt='louis030195' width=24 height=24> louis030195](https://issuehunt.io/u/louis030195) ($2.00)\n\n### Submitted pull Requests\n- [#1475 Promisify](https://issuehunt.io/r/PrismarineJS/mineflayer/pull/1475)\n---\n\n### Tips\n\n- Checkout the [Issuehunt explorer](https://issuehunt.io/r/PrismarineJS/mineflayer/) to discover more funded issues.\n- Need some help from other developers? [Add your repositories](https://issuehunt.io/r/new) on IssueHunt to raise funds.\n</details>\n<!-- /Issuehunt content-->",
    "closed_at": "2020-12-05T01:35:29Z",
    "comment_data": [
        {
            "author_association": "MEMBER",
            "body": "i have not tested it but i think it should work\r\n\r\n```javascript\r\nconst mineflayer = require('mineflayer')\r\nconst { promisify } = require('util')\r\n\r\nconst promisifyPlugin = bot => {\r\n  bot.promisify = n => {\r\n    if (!bot[n] || bot[n] instanceof Promise) return\r\n    bot[n] = promisify(bot[n])\r\n  }\r\n  ['wake', ...].forEach(bot.promisify)\r\n}\r\n\r\nconst bot = mineflayer.createBot(...)\r\nbot.loadPlugin(promisifyPlugin)\r\nbot.once('login', () => {\r\n  bot.wake().then(...)\r\n})\r\n```",
            "created_at": "2018-10-04T09:06:15Z",
            "html_url": "https://github.com/PrismarineJS/mineflayer/issues/725#issuecomment-426942378",
            "id": 426942378,
            "issue_url": "https://api.github.com/repos/PrismarineJS/mineflayer/issues/725",
            "node_id": "MDEyOklzc3VlQ29tbWVudDQyNjk0MjM3OA==",
            "performed_via_github_app": null,
            "reactions": {
                "+1": 0,
                "-1": 0,
                "confused": 0,
                "eyes": 0,
                "heart": 0,
                "hooray": 0,
                "laugh": 0,
                "rocket": 0,
                "total_count": 0,
                "url": "https://api.github.com/repos/PrismarineJS/mineflayer/issues/comments/426942378/reactions"
            },
            "updated_at": "2018-10-04T09:06:15Z",
            "url": "https://api.github.com/repos/PrismarineJS/mineflayer/issues/comments/426942378",
            "user": {
                "avatar_url": "https://avatars.githubusercontent.com/u/8838132?v=4",
                "events_url": "https://api.github.com/users/plexigras/events{/privacy}",
                "followers_url": "https://api.github.com/users/plexigras/followers",
                "following_url": "https://api.github.com/users/plexigras/following{/other_user}",
                "gists_url": "https://api.github.com/users/plexigras/gists{/gist_id}",
                "gravatar_id": "",
                "html_url": "https://github.com/plexigras",
                "id": 8838132,
                "login": "plexigras",
                "node_id": "MDQ6VXNlcjg4MzgxMzI=",
                "organizations_url": "https://api.github.com/users/plexigras/orgs",
                "received_events_url": "https://api.github.com/users/plexigras/received_events",
                "repos_url": "https://api.github.com/users/plexigras/repos",
                "site_admin": false,
                "starred_url": "https://api.github.com/users/plexigras/starred{/owner}{/repo}",
                "subscriptions_url": "https://api.github.com/users/plexigras/subscriptions",
                "type": "User",
                "url": "https://api.github.com/users/plexigras"
            }
        },
        {
            "author_association": "MEMBER",
            "body": "Yes it's of course possible to promisify mineflayer.\nMy point was we could have a mineflayer.promises. That seems like a\nreasonable choice to support promises without breaking the API\n\nOn Thu, Oct 4, 2018, 11:06 plexigras <notifications@github.com> wrote:\n\n> i have not tested it but i think it should work\n>\n> const mineflayer = require('mineflayer')const { promisify } = require('util')\n> const promisifyPlugin = bot => {\n>   bot.promisify = n => {\n>     if (!bot[n] || bot[n] instanceof Promise) return\n>     bot[n] = promisify(bot[n])\n>   }\n>   ['wake', ...].forEach(bot.promisify)\n> }\n> const bot = mineflayer.createBot(...)bot.loadPlugin(promisifyPlugin)bot.once('login', () => {\n>   bot.wake().then(...)\n> })\n>\n> —\n> You are receiving this because you authored the thread.\n> Reply to this email directly, view it on GitHub\n> <https://github.com/PrismarineJS/mineflayer/issues/725#issuecomment-426942378>,\n> or mute the thread\n> <https://github.com/notifications/unsubscribe-auth/ACPN_kdtMviOurBWAYwbXBbrJ2u4exTHks5uhc-IgaJpZM4XHDD7>\n> .\n>\n",
            "created_at": "2018-10-04T19:09:06Z",
            "html_url": "https://github.com/PrismarineJS/mineflayer/issues/725#issuecomment-427135359",
            "id": 427135359,
            "issue_url": "https://api.github.com/repos/PrismarineJS/mineflayer/issues/725",
            "node_id": "MDEyOklzc3VlQ29tbWVudDQyNzEzNTM1OQ==",
            "performed_via_github_app": null,
            "reactions": {
                "+1": 0,
                "-1": 0,
                "confused": 0,
                "eyes": 0,
                "heart": 0,
                "hooray": 0,
                "laugh": 0,
                "rocket": 0,
                "total_count": 0,
                "url": "https://api.github.com/repos/PrismarineJS/mineflayer/issues/comments/427135359/reactions"
            },
            "updated_at": "2018-10-04T19:09:06Z",
            "url": "https://api.github.com/repos/PrismarineJS/mineflayer/issues/comments/427135359",
            "user": {
                "avatar_url": "https://avatars.githubusercontent.com/u/2346494?v=4",
                "events_url": "https://api.github.com/users/rom1504/events{/privacy}",
                "followers_url": "https://api.github.com/users/rom1504/followers",
                "following_url": "https://api.github.com/users/rom1504/following{/other_user}",
                "gists_url": "https://api.github.com/users/rom1504/gists{/gist_id}",
                "gravatar_id": "",
                "html_url": "https://github.com/rom1504",
                "id": 2346494,
                "login": "rom1504",
                "node_id": "MDQ6VXNlcjIzNDY0OTQ=",
                "organizations_url": "https://api.github.com/users/rom1504/orgs",
                "received_events_url": "https://api.github.com/users/rom1504/received_events",
                "repos_url": "https://api.github.com/users/rom1504/repos",
                "site_admin": false,
                "starred_url": "https://api.github.com/users/rom1504/starred{/owner}{/repo}",
                "subscriptions_url": "https://api.github.com/users/rom1504/subscriptions",
                "type": "User",
                "url": "https://api.github.com/users/rom1504"
            }
        },
        {
            "author_association": "MEMBER",
            "body": "I think I can work on that in my spare time",
            "created_at": "2019-04-23T08:02:24Z",
            "html_url": "https://github.com/PrismarineJS/mineflayer/issues/725#issuecomment-485687828",
            "id": 485687828,
            "issue_url": "https://api.github.com/repos/PrismarineJS/mineflayer/issues/725",
            "node_id": "MDEyOklzc3VlQ29tbWVudDQ4NTY4NzgyOA==",
            "performed_via_github_app": null,
            "reactions": {
                "+1": 0,
                "-1": 0,
                "confused": 0,
                "eyes": 0,
                "heart": 0,
                "hooray": 0,
                "laugh": 0,
                "rocket": 0,
                "total_count": 0,
                "url": "https://api.github.com/repos/PrismarineJS/mineflayer/issues/comments/485687828/reactions"
            },
            "updated_at": "2019-04-23T08:02:24Z",
            "url": "https://api.github.com/repos/PrismarineJS/mineflayer/issues/comments/485687828",
            "user": {
                "avatar_url": "https://avatars.githubusercontent.com/u/13330620?v=4",
                "events_url": "https://api.github.com/users/wvffle/events{/privacy}",
                "followers_url": "https://api.github.com/users/wvffle/followers",
                "following_url": "https://api.github.com/users/wvffle/following{/other_user}",
                "gists_url": "https://api.github.com/users/wvffle/gists{/gist_id}",
                "gravatar_id": "",
                "html_url": "https://github.com/wvffle",
                "id": 13330620,
                "login": "wvffle",
                "node_id": "MDQ6VXNlcjEzMzMwNjIw",
                "organizations_url": "https://api.github.com/users/wvffle/orgs",
                "received_events_url": "https://api.github.com/users/wvffle/received_events",
                "repos_url": "https://api.github.com/users/wvffle/repos",
                "site_admin": false,
                "starred_url": "https://api.github.com/users/wvffle/starred{/owner}{/repo}",
                "subscriptions_url": "https://api.github.com/users/wvffle/subscriptions",
                "type": "User",
                "url": "https://api.github.com/users/wvffle"
            }
        },
        {
            "author_association": "MEMBER",
            "body": "On this something better we can do is support both callback and promise externally.\r\nInternally we would use only promises (and async/await)",
            "created_at": "2020-05-09T02:02:23Z",
            "html_url": "https://github.com/PrismarineJS/mineflayer/issues/725#issuecomment-626087843",
            "id": 626087843,
            "issue_url": "https://api.github.com/repos/PrismarineJS/mineflayer/issues/725",
            "node_id": "MDEyOklzc3VlQ29tbWVudDYyNjA4Nzg0Mw==",
            "performed_via_github_app": null,
            "reactions": {
                "+1": 0,
                "-1": 0,
                "confused": 0,
                "eyes": 0,
                "heart": 0,
                "hooray": 0,
                "laugh": 0,
                "rocket": 0,
                "total_count": 0,
                "url": "https://api.github.com/repos/PrismarineJS/mineflayer/issues/comments/626087843/reactions"
            },
            "updated_at": "2020-05-09T02:02:23Z",
            "url": "https://api.github.com/repos/PrismarineJS/mineflayer/issues/comments/626087843",
            "user": {
                "avatar_url": "https://avatars.githubusercontent.com/u/2346494?v=4",
                "events_url": "https://api.github.com/users/rom1504/events{/privacy}",
                "followers_url": "https://api.github.com/users/rom1504/followers",
                "following_url": "https://api.github.com/users/rom1504/following{/other_user}",
                "gists_url": "https://api.github.com/users/rom1504/gists{/gist_id}",
                "gravatar_id": "",
                "html_url": "https://github.com/rom1504",
                "id": 2346494,
                "login": "rom1504",
                "node_id": "MDQ6VXNlcjIzNDY0OTQ=",
                "organizations_url": "https://api.github.com/users/rom1504/orgs",
                "received_events_url": "https://api.github.com/users/rom1504/received_events",
                "repos_url": "https://api.github.com/users/rom1504/repos",
                "site_admin": false,
                "starred_url": "https://api.github.com/users/rom1504/starred{/owner}{/repo}",
                "subscriptions_url": "https://api.github.com/users/rom1504/subscriptions",
                "type": "User",
                "url": "https://api.github.com/users/rom1504"
            }
        },
        {
            "author_association": "NONE",
            "body": "[@rom1504](https://issuehunt.io/u/rom1504) has funded $2.00 to this issue.\n\n---\n- Submit pull request via [IssueHunt](https://issuehunt.io/repos/1284185/issues/725) to receive this reward.\n- Want to contribute? Chip in to this issue via [IssueHunt](https://issuehunt.io/repos/1284185/issues/725).\n- Checkout the [IssueHunt Issue Explorer](https://issuehunt.io/issues) to see more funded issues.\n- Need help from developers? [Add your repository](https://issuehunt.io/r/new) on IssueHunt to raise funds.",
            "created_at": "2020-10-25T02:11:50Z",
            "html_url": "https://github.com/PrismarineJS/mineflayer/issues/725#issuecomment-716082343",
            "id": 716082343,
            "issue_url": "https://api.github.com/repos/PrismarineJS/mineflayer/issues/725",
            "node_id": "MDEyOklzc3VlQ29tbWVudDcxNjA4MjM0Mw==",
            "performed_via_github_app": null,
            "reactions": {
                "+1": 0,
                "-1": 0,
                "confused": 0,
                "eyes": 0,
                "heart": 0,
                "hooray": 0,
                "laugh": 0,
                "rocket": 0,
                "total_count": 0,
                "url": "https://api.github.com/repos/PrismarineJS/mineflayer/issues/comments/716082343/reactions"
            },
            "updated_at": "2020-10-25T02:11:50Z",
            "url": "https://api.github.com/repos/PrismarineJS/mineflayer/issues/comments/716082343",
            "user": {
                "avatar_url": "https://avatars.githubusercontent.com/in/29881?v=4",
                "events_url": "https://api.github.com/users/issuehunt-app%5Bbot%5D/events{/privacy}",
                "followers_url": "https://api.github.com/users/issuehunt-app%5Bbot%5D/followers",
                "following_url": "https://api.github.com/users/issuehunt-app%5Bbot%5D/following{/other_user}",
                "gists_url": "https://api.github.com/users/issuehunt-app%5Bbot%5D/gists{/gist_id}",
                "gravatar_id": "",
                "html_url": "https://github.com/apps/issuehunt-app",
                "id": 50163732,
                "login": "issuehunt-app[bot]",
                "node_id": "MDM6Qm90NTAxNjM3MzI=",
                "organizations_url": "https://api.github.com/users/issuehunt-app%5Bbot%5D/orgs",
                "received_events_url": "https://api.github.com/users/issuehunt-app%5Bbot%5D/received_events",
                "repos_url": "https://api.github.com/users/issuehunt-app%5Bbot%5D/repos",
                "site_admin": false,
                "starred_url": "https://api.github.com/users/issuehunt-app%5Bbot%5D/starred{/owner}{/repo}",
                "subscriptions_url": "https://api.github.com/users/issuehunt-app%5Bbot%5D/subscriptions",
                "type": "Bot",
                "url": "https://api.github.com/users/issuehunt-app%5Bbot%5D"
            }
        },
        {
            "author_association": "NONE",
            "body": "[@imharvol](https://issuehunt.io/u/imharvol) has funded $2.00 to this issue.\n\n---\n- Submit pull request via [IssueHunt](https://issuehunt.io/repos/1284185/issues/725) to receive this reward.\n- Want to contribute? Chip in to this issue via [IssueHunt](https://issuehunt.io/repos/1284185/issues/725).\n- Checkout the [IssueHunt Issue Explorer](https://issuehunt.io/issues) to see more funded issues.\n- Need help from developers? [Add your repository](https://issuehunt.io/r/new) on IssueHunt to raise funds.",
            "created_at": "2020-10-25T09:24:07Z",
            "html_url": "https://github.com/PrismarineJS/mineflayer/issues/725#issuecomment-716117692",
            "id": 716117692,
            "issue_url": "https://api.github.com/repos/PrismarineJS/mineflayer/issues/725",
            "node_id": "MDEyOklzc3VlQ29tbWVudDcxNjExNzY5Mg==",
            "performed_via_github_app": null,
            "reactions": {
                "+1": 0,
                "-1": 0,
                "confused": 0,
                "eyes": 0,
                "heart": 0,
                "hooray": 0,
                "laugh": 0,
                "rocket": 0,
                "total_count": 0,
                "url": "https://api.github.com/repos/PrismarineJS/mineflayer/issues/comments/716117692/reactions"
            },
            "updated_at": "2020-10-25T09:24:07Z",
            "url": "https://api.github.com/repos/PrismarineJS/mineflayer/issues/comments/716117692",
            "user": {
                "avatar_url": "https://avatars.githubusercontent.com/in/29881?v=4",
                "events_url": "https://api.github.com/users/issuehunt-app%5Bbot%5D/events{/privacy}",
                "followers_url": "https://api.github.com/users/issuehunt-app%5Bbot%5D/followers",
                "following_url": "https://api.github.com/users/issuehunt-app%5Bbot%5D/following{/other_user}",
                "gists_url": "https://api.github.com/users/issuehunt-app%5Bbot%5D/gists{/gist_id}",
                "gravatar_id": "",
                "html_url": "https://github.com/apps/issuehunt-app",
                "id": 50163732,
                "login": "issuehunt-app[bot]",
                "node_id": "MDM6Qm90NTAxNjM3MzI=",
                "organizations_url": "https://api.github.com/users/issuehunt-app%5Bbot%5D/orgs",
                "received_events_url": "https://api.github.com/users/issuehunt-app%5Bbot%5D/received_events",
                "repos_url": "https://api.github.com/users/issuehunt-app%5Bbot%5D/repos",
                "site_admin": false,
                "starred_url": "https://api.github.com/users/issuehunt-app%5Bbot%5D/starred{/owner}{/repo}",
                "subscriptions_url": "https://api.github.com/users/issuehunt-app%5Bbot%5D/subscriptions",
                "type": "Bot",
                "url": "https://api.github.com/users/issuehunt-app%5Bbot%5D"
            }
        },
        {
            "author_association": "NONE",
            "body": "[@louis030195](https://issuehunt.io/u/louis030195) has funded $2.00 to this issue.\n\n---\n- Submit pull request via [IssueHunt](https://issuehunt.io/repos/1284185/issues/725) to receive this reward.\n- Want to contribute? Chip in to this issue via [IssueHunt](https://issuehunt.io/repos/1284185/issues/725).\n- Checkout the [IssueHunt Issue Explorer](https://issuehunt.io/issues) to see more funded issues.\n- Need help from developers? [Add your repository](https://issuehunt.io/r/new) on IssueHunt to raise funds.",
            "created_at": "2020-10-31T20:22:01Z",
            "html_url": "https://github.com/PrismarineJS/mineflayer/issues/725#issuecomment-719983693",
            "id": 719983693,
            "issue_url": "https://api.github.com/repos/PrismarineJS/mineflayer/issues/725",
            "node_id": "MDEyOklzc3VlQ29tbWVudDcxOTk4MzY5Mw==",
            "performed_via_github_app": null,
            "reactions": {
                "+1": 0,
                "-1": 0,
                "confused": 0,
                "eyes": 0,
                "heart": 0,
                "hooray": 0,
                "laugh": 0,
                "rocket": 0,
                "total_count": 0,
                "url": "https://api.github.com/repos/PrismarineJS/mineflayer/issues/comments/719983693/reactions"
            },
            "updated_at": "2020-10-31T20:22:01Z",
            "url": "https://api.github.com/repos/PrismarineJS/mineflayer/issues/comments/719983693",
            "user": {
                "avatar_url": "https://avatars.githubusercontent.com/in/29881?v=4",
                "events_url": "https://api.github.com/users/issuehunt-app%5Bbot%5D/events{/privacy}",
                "followers_url": "https://api.github.com/users/issuehunt-app%5Bbot%5D/followers",
                "following_url": "https://api.github.com/users/issuehunt-app%5Bbot%5D/following{/other_user}",
                "gists_url": "https://api.github.com/users/issuehunt-app%5Bbot%5D/gists{/gist_id}",
                "gravatar_id": "",
                "html_url": "https://github.com/apps/issuehunt-app",
                "id": 50163732,
                "login": "issuehunt-app[bot]",
                "node_id": "MDM6Qm90NTAxNjM3MzI=",
                "organizations_url": "https://api.github.com/users/issuehunt-app%5Bbot%5D/orgs",
                "received_events_url": "https://api.github.com/users/issuehunt-app%5Bbot%5D/received_events",
                "repos_url": "https://api.github.com/users/issuehunt-app%5Bbot%5D/repos",
                "site_admin": false,
                "starred_url": "https://api.github.com/users/issuehunt-app%5Bbot%5D/starred{/owner}{/repo}",
                "subscriptions_url": "https://api.github.com/users/issuehunt-app%5Bbot%5D/subscriptions",
                "type": "Bot",
                "url": "https://api.github.com/users/issuehunt-app%5Bbot%5D"
            }
        },
        {
            "author_association": "CONTRIBUTOR",
            "body": "I'm willing to do this, but do you really want to keep supporting callbacks? I think it's beneficial to the quality of the framework to implement this in a breaking way, with everything async/promisified and no more callbacks anywhere.",
            "created_at": "2020-12-01T01:16:31Z",
            "html_url": "https://github.com/PrismarineJS/mineflayer/issues/725#issuecomment-736153065",
            "id": 736153065,
            "issue_url": "https://api.github.com/repos/PrismarineJS/mineflayer/issues/725",
            "node_id": "MDEyOklzc3VlQ29tbWVudDczNjE1MzA2NQ==",
            "performed_via_github_app": null,
            "reactions": {
                "+1": 0,
                "-1": 0,
                "confused": 0,
                "eyes": 0,
                "heart": 0,
                "hooray": 0,
                "laugh": 0,
                "rocket": 0,
                "total_count": 0,
                "url": "https://api.github.com/repos/PrismarineJS/mineflayer/issues/comments/736153065/reactions"
            },
            "updated_at": "2020-12-01T01:16:31Z",
            "url": "https://api.github.com/repos/PrismarineJS/mineflayer/issues/comments/736153065",
            "user": {
                "avatar_url": "https://avatars.githubusercontent.com/u/14372001?v=4",
                "events_url": "https://api.github.com/users/ph0t0shop/events{/privacy}",
                "followers_url": "https://api.github.com/users/ph0t0shop/followers",
                "following_url": "https://api.github.com/users/ph0t0shop/following{/other_user}",
                "gists_url": "https://api.github.com/users/ph0t0shop/gists{/gist_id}",
                "gravatar_id": "",
                "html_url": "https://github.com/ph0t0shop",
                "id": 14372001,
                "login": "ph0t0shop",
                "node_id": "MDQ6VXNlcjE0MzcyMDAx",
                "organizations_url": "https://api.github.com/users/ph0t0shop/orgs",
                "received_events_url": "https://api.github.com/users/ph0t0shop/received_events",
                "repos_url": "https://api.github.com/users/ph0t0shop/repos",
                "site_admin": false,
                "starred_url": "https://api.github.com/users/ph0t0shop/starred{/owner}{/repo}",
                "subscriptions_url": "https://api.github.com/users/ph0t0shop/subscriptions",
                "type": "User",
                "url": "https://api.github.com/users/ph0t0shop"
            }
        },
        {
            "author_association": "MEMBER",
            "body": "@ph0t0shop what's the benefit of removing callback for exposed functions ?\r\nAll internal can use only promises and exposing callback is just something you call on all functions to add it.",
            "created_at": "2020-12-01T01:24:36Z",
            "html_url": "https://github.com/PrismarineJS/mineflayer/issues/725#issuecomment-736155710",
            "id": 736155710,
            "issue_url": "https://api.github.com/repos/PrismarineJS/mineflayer/issues/725",
            "node_id": "MDEyOklzc3VlQ29tbWVudDczNjE1NTcxMA==",
            "performed_via_github_app": null,
            "reactions": {
                "+1": 0,
                "-1": 0,
                "confused": 0,
                "eyes": 0,
                "heart": 0,
                "hooray": 0,
                "laugh": 0,
                "rocket": 0,
                "total_count": 0,
                "url": "https://api.github.com/repos/PrismarineJS/mineflayer/issues/comments/736155710/reactions"
            },
            "updated_at": "2020-12-01T01:24:36Z",
            "url": "https://api.github.com/repos/PrismarineJS/mineflayer/issues/comments/736155710",
            "user": {
                "avatar_url": "https://avatars.githubusercontent.com/u/2346494?v=4",
                "events_url": "https://api.github.com/users/rom1504/events{/privacy}",
                "followers_url": "https://api.github.com/users/rom1504/followers",
                "following_url": "https://api.github.com/users/rom1504/following{/other_user}",
                "gists_url": "https://api.github.com/users/rom1504/gists{/gist_id}",
                "gravatar_id": "",
                "html_url": "https://github.com/rom1504",
                "id": 2346494,
                "login": "rom1504",
                "node_id": "MDQ6VXNlcjIzNDY0OTQ=",
                "organizations_url": "https://api.github.com/users/rom1504/orgs",
                "received_events_url": "https://api.github.com/users/rom1504/received_events",
                "repos_url": "https://api.github.com/users/rom1504/repos",
                "site_admin": false,
                "starred_url": "https://api.github.com/users/rom1504/starred{/owner}{/repo}",
                "subscriptions_url": "https://api.github.com/users/rom1504/subscriptions",
                "type": "User",
                "url": "https://api.github.com/users/rom1504"
            }
        },
        {
            "author_association": "MEMBER",
            "body": "That would mean a breaking change and that all the existing projects using mineflayer would have to be updated. IMO it’s not worth a breaking change over, there’s no practical benefit other than a slightly simpler API call. ",
            "created_at": "2020-12-01T01:27:59Z",
            "html_url": "https://github.com/PrismarineJS/mineflayer/issues/725#issuecomment-736156702",
            "id": 736156702,
            "issue_url": "https://api.github.com/repos/PrismarineJS/mineflayer/issues/725",
            "node_id": "MDEyOklzc3VlQ29tbWVudDczNjE1NjcwMg==",
            "performed_via_github_app": null,
            "reactions": {
                "+1": 0,
                "-1": 0,
                "confused": 0,
                "eyes": 0,
                "heart": 0,
                "hooray": 0,
                "laugh": 0,
                "rocket": 0,
                "total_count": 0,
                "url": "https://api.github.com/repos/PrismarineJS/mineflayer/issues/comments/736156702/reactions"
            },
            "updated_at": "2020-12-01T01:27:59Z",
            "url": "https://api.github.com/repos/PrismarineJS/mineflayer/issues/comments/736156702",
            "user": {
                "avatar_url": "https://avatars.githubusercontent.com/u/13713600?v=4",
                "events_url": "https://api.github.com/users/extremeheat/events{/privacy}",
                "followers_url": "https://api.github.com/users/extremeheat/followers",
                "following_url": "https://api.github.com/users/extremeheat/following{/other_user}",
                "gists_url": "https://api.github.com/users/extremeheat/gists{/gist_id}",
                "gravatar_id": "",
                "html_url": "https://github.com/extremeheat",
                "id": 13713600,
                "login": "extremeheat",
                "node_id": "MDQ6VXNlcjEzNzEzNjAw",
                "organizations_url": "https://api.github.com/users/extremeheat/orgs",
                "received_events_url": "https://api.github.com/users/extremeheat/received_events",
                "repos_url": "https://api.github.com/users/extremeheat/repos",
                "site_admin": false,
                "starred_url": "https://api.github.com/users/extremeheat/starred{/owner}{/repo}",
                "subscriptions_url": "https://api.github.com/users/extremeheat/subscriptions",
                "type": "User",
                "url": "https://api.github.com/users/extremeheat"
            }
        },
        {
            "author_association": "MEMBER",
            "body": "Example \r\n```\r\nfunction callbackify (g) {\r\nreturn function(a, cb) {\r\nreturn g.then(r => {cb(r); return r;})\r\n}\r\n}\r\nfunction f(a) {\r\nconst b = a+1\r\nreturn Promise.resolve(b)\r\n}\r\nmodule.exports = callbackify(f)\r\n```\r\n\r\n(Callbackify can be generalised to handle any number of arguments easily enough)",
            "created_at": "2020-12-01T01:29:35Z",
            "html_url": "https://github.com/PrismarineJS/mineflayer/issues/725#issuecomment-736157228",
            "id": 736157228,
            "issue_url": "https://api.github.com/repos/PrismarineJS/mineflayer/issues/725",
            "node_id": "MDEyOklzc3VlQ29tbWVudDczNjE1NzIyOA==",
            "performed_via_github_app": null,
            "reactions": {
                "+1": 0,
                "-1": 0,
                "confused": 0,
                "eyes": 0,
                "heart": 0,
                "hooray": 0,
                "laugh": 0,
                "rocket": 0,
                "total_count": 0,
                "url": "https://api.github.com/repos/PrismarineJS/mineflayer/issues/comments/736157228/reactions"
            },
            "updated_at": "2020-12-01T01:29:35Z",
            "url": "https://api.github.com/repos/PrismarineJS/mineflayer/issues/comments/736157228",
            "user": {
                "avatar_url": "https://avatars.githubusercontent.com/u/2346494?v=4",
                "events_url": "https://api.github.com/users/rom1504/events{/privacy}",
                "followers_url": "https://api.github.com/users/rom1504/followers",
                "following_url": "https://api.github.com/users/rom1504/following{/other_user}",
                "gists_url": "https://api.github.com/users/rom1504/gists{/gist_id}",
                "gravatar_id": "",
                "html_url": "https://github.com/rom1504",
                "id": 2346494,
                "login": "rom1504",
                "node_id": "MDQ6VXNlcjIzNDY0OTQ=",
                "organizations_url": "https://api.github.com/users/rom1504/orgs",
                "received_events_url": "https://api.github.com/users/rom1504/received_events",
                "repos_url": "https://api.github.com/users/rom1504/repos",
                "site_admin": false,
                "starred_url": "https://api.github.com/users/rom1504/starred{/owner}{/repo}",
                "subscriptions_url": "https://api.github.com/users/rom1504/subscriptions",
                "type": "User",
                "url": "https://api.github.com/users/rom1504"
            }
        },
        {
            "author_association": "MEMBER",
            "body": "My point is it would not even be simpler. ",
            "created_at": "2020-12-01T01:30:28Z",
            "html_url": "https://github.com/PrismarineJS/mineflayer/issues/725#issuecomment-736157505",
            "id": 736157505,
            "issue_url": "https://api.github.com/repos/PrismarineJS/mineflayer/issues/725",
            "node_id": "MDEyOklzc3VlQ29tbWVudDczNjE1NzUwNQ==",
            "performed_via_github_app": null,
            "reactions": {
                "+1": 0,
                "-1": 0,
                "confused": 0,
                "eyes": 0,
                "heart": 0,
                "hooray": 0,
                "laugh": 0,
                "rocket": 0,
                "total_count": 0,
                "url": "https://api.github.com/repos/PrismarineJS/mineflayer/issues/comments/736157505/reactions"
            },
            "updated_at": "2020-12-01T01:30:28Z",
            "url": "https://api.github.com/repos/PrismarineJS/mineflayer/issues/comments/736157505",
            "user": {
                "avatar_url": "https://avatars.githubusercontent.com/u/2346494?v=4",
                "events_url": "https://api.github.com/users/rom1504/events{/privacy}",
                "followers_url": "https://api.github.com/users/rom1504/followers",
                "following_url": "https://api.github.com/users/rom1504/following{/other_user}",
                "gists_url": "https://api.github.com/users/rom1504/gists{/gist_id}",
                "gravatar_id": "",
                "html_url": "https://github.com/rom1504",
                "id": 2346494,
                "login": "rom1504",
                "node_id": "MDQ6VXNlcjIzNDY0OTQ=",
                "organizations_url": "https://api.github.com/users/rom1504/orgs",
                "received_events_url": "https://api.github.com/users/rom1504/received_events",
                "repos_url": "https://api.github.com/users/rom1504/repos",
                "site_admin": false,
                "starred_url": "https://api.github.com/users/rom1504/starred{/owner}{/repo}",
                "subscriptions_url": "https://api.github.com/users/rom1504/subscriptions",
                "type": "User",
                "url": "https://api.github.com/users/rom1504"
            }
        },
        {
            "author_association": "MEMBER",
            "body": "Read https://github.com/PrismarineJS/mineflayer/pull/984 too\n\nOn Tue, Dec 1, 2020, 02:16 ph0t0shop <notifications@github.com> wrote:\n\n> I'm willing to do this, but do you really want to keep supporting\n> callbacks? I think it's beneficial to the quality of the framework to\n> implement this in a breaking way, with everything async/promisified and no\n> more callbacks anywhere.\n>\n> —\n> You are receiving this because you authored the thread.\n> Reply to this email directly, view it on GitHub\n> <https://github.com/PrismarineJS/mineflayer/issues/725#issuecomment-736153065>,\n> or unsubscribe\n> <https://github.com/notifications/unsubscribe-auth/AAR437XIBZAX6BYK5NEYSP3SSQ7X3ANCNFSM4FY4GD5Q>\n> .\n>\n",
            "created_at": "2020-12-01T01:32:30Z",
            "html_url": "https://github.com/PrismarineJS/mineflayer/issues/725#issuecomment-736158124",
            "id": 736158124,
            "issue_url": "https://api.github.com/repos/PrismarineJS/mineflayer/issues/725",
            "node_id": "MDEyOklzc3VlQ29tbWVudDczNjE1ODEyNA==",
            "performed_via_github_app": null,
            "reactions": {
                "+1": 0,
                "-1": 0,
                "confused": 0,
                "eyes": 0,
                "heart": 0,
                "hooray": 0,
                "laugh": 0,
                "rocket": 0,
                "total_count": 0,
                "url": "https://api.github.com/repos/PrismarineJS/mineflayer/issues/comments/736158124/reactions"
            },
            "updated_at": "2020-12-01T01:32:30Z",
            "url": "https://api.github.com/repos/PrismarineJS/mineflayer/issues/comments/736158124",
            "user": {
                "avatar_url": "https://avatars.githubusercontent.com/u/2346494?v=4",
                "events_url": "https://api.github.com/users/rom1504/events{/privacy}",
                "followers_url": "https://api.github.com/users/rom1504/followers",
                "following_url": "https://api.github.com/users/rom1504/following{/other_user}",
                "gists_url": "https://api.github.com/users/rom1504/gists{/gist_id}",
                "gravatar_id": "",
                "html_url": "https://github.com/rom1504",
                "id": 2346494,
                "login": "rom1504",
                "node_id": "MDQ6VXNlcjIzNDY0OTQ=",
                "organizations_url": "https://api.github.com/users/rom1504/orgs",
                "received_events_url": "https://api.github.com/users/rom1504/received_events",
                "repos_url": "https://api.github.com/users/rom1504/repos",
                "site_admin": false,
                "starred_url": "https://api.github.com/users/rom1504/starred{/owner}{/repo}",
                "subscriptions_url": "https://api.github.com/users/rom1504/subscriptions",
                "type": "User",
                "url": "https://api.github.com/users/rom1504"
            }
        },
        {
            "author_association": "CONTRIBUTOR",
            "body": "Yes, but then it can't be the same function so one would have to call a different function depending on whether they want to use the async or the callback version. The way you listed with callbackify will not expose the promise version",
            "created_at": "2020-12-01T10:02:49Z",
            "html_url": "https://github.com/PrismarineJS/mineflayer/issues/725#issuecomment-736370087",
            "id": 736370087,
            "issue_url": "https://api.github.com/repos/PrismarineJS/mineflayer/issues/725",
            "node_id": "MDEyOklzc3VlQ29tbWVudDczNjM3MDA4Nw==",
            "performed_via_github_app": null,
            "reactions": {
                "+1": 0,
                "-1": 0,
                "confused": 0,
                "eyes": 0,
                "heart": 0,
                "hooray": 0,
                "laugh": 0,
                "rocket": 0,
                "total_count": 0,
                "url": "https://api.github.com/repos/PrismarineJS/mineflayer/issues/comments/736370087/reactions"
            },
            "updated_at": "2020-12-01T10:02:49Z",
            "url": "https://api.github.com/repos/PrismarineJS/mineflayer/issues/comments/736370087",
            "user": {
                "avatar_url": "https://avatars.githubusercontent.com/u/14372001?v=4",
                "events_url": "https://api.github.com/users/ph0t0shop/events{/privacy}",
                "followers_url": "https://api.github.com/users/ph0t0shop/followers",
                "following_url": "https://api.github.com/users/ph0t0shop/following{/other_user}",
                "gists_url": "https://api.github.com/users/ph0t0shop/gists{/gist_id}",
                "gravatar_id": "",
                "html_url": "https://github.com/ph0t0shop",
                "id": 14372001,
                "login": "ph0t0shop",
                "node_id": "MDQ6VXNlcjE0MzcyMDAx",
                "organizations_url": "https://api.github.com/users/ph0t0shop/orgs",
                "received_events_url": "https://api.github.com/users/ph0t0shop/received_events",
                "repos_url": "https://api.github.com/users/ph0t0shop/repos",
                "site_admin": false,
                "starred_url": "https://api.github.com/users/ph0t0shop/starred{/owner}{/repo}",
                "subscriptions_url": "https://api.github.com/users/ph0t0shop/subscriptions",
                "type": "User",
                "url": "https://api.github.com/users/ph0t0shop"
            }
        },
        {
            "author_association": "MEMBER",
            "body": "Yes it does. The example I did make the function both take a callback and return a promise",
            "created_at": "2020-12-01T12:31:54Z",
            "html_url": "https://github.com/PrismarineJS/mineflayer/issues/725#issuecomment-736523054",
            "id": 736523054,
            "issue_url": "https://api.github.com/repos/PrismarineJS/mineflayer/issues/725",
            "node_id": "MDEyOklzc3VlQ29tbWVudDczNjUyMzA1NA==",
            "performed_via_github_app": null,
            "reactions": {
                "+1": 0,
                "-1": 0,
                "confused": 0,
                "eyes": 0,
                "heart": 0,
                "hooray": 0,
                "laugh": 0,
                "rocket": 0,
                "total_count": 0,
                "url": "https://api.github.com/repos/PrismarineJS/mineflayer/issues/comments/736523054/reactions"
            },
            "updated_at": "2020-12-01T12:31:54Z",
            "url": "https://api.github.com/repos/PrismarineJS/mineflayer/issues/comments/736523054",
            "user": {
                "avatar_url": "https://avatars.githubusercontent.com/u/2346494?v=4",
                "events_url": "https://api.github.com/users/rom1504/events{/privacy}",
                "followers_url": "https://api.github.com/users/rom1504/followers",
                "following_url": "https://api.github.com/users/rom1504/following{/other_user}",
                "gists_url": "https://api.github.com/users/rom1504/gists{/gist_id}",
                "gravatar_id": "",
                "html_url": "https://github.com/rom1504",
                "id": 2346494,
                "login": "rom1504",
                "node_id": "MDQ6VXNlcjIzNDY0OTQ=",
                "organizations_url": "https://api.github.com/users/rom1504/orgs",
                "received_events_url": "https://api.github.com/users/rom1504/received_events",
                "repos_url": "https://api.github.com/users/rom1504/repos",
                "site_admin": false,
                "starred_url": "https://api.github.com/users/rom1504/starred{/owner}{/repo}",
                "subscriptions_url": "https://api.github.com/users/rom1504/subscriptions",
                "type": "User",
                "url": "https://api.github.com/users/rom1504"
            }
        },
        {
            "author_association": "CONTRIBUTOR",
            "body": "These are all the functions that will need to be converted. Non-exposed ones are between parentheses. I'll probably start working on converting them\r\n```bed#wake\r\nbed#sleep\r\nblocks#waitForChunksToLoad\r\n(book#write)\r\n(book#modifyBook)\r\nbook#writeBook\r\nbook#signBook\r\nchat#tabComplete\r\nchest#deposit\r\nchest#withdraw\r\ncraft#craft\r\n(craft#craftOnce)\r\ncreative#setInventorySlot\r\ncreative#flyTo\r\ndigging#dig\r\ndispenser#deposit\r\ndispenser#withdraw\r\nenchantment_table#enchant\r\nenchantment_table#takeTargetItem\r\nenchantment_table#putTargetItem\r\nenchantment_table#putLapis\r\n(furnace#takeSomething)\r\nfurnace#takeInput\r\nfurnace#takeFuel\r\nfurnace#takeOutput\r\n(furnace#putSomething)\r\nfurnace#putInput\r\nfurnace#putFuel\r\ninventory#consume\r\ninventory#fish\r\ninventory#putSelectedItemRange\r\ninventory#activateBlock\r\ninventory#activateEntity\r\ninventory#activateEntityAt\r\ninventory#transfer\r\ninventory#placeBlock\r\ninventory#clickWindow\r\ninventory#putAway\r\ninventory#moveSlotItem\r\nphysics#look\r\nphysics#lookAt\r\nsimple_inventory#tossStack\r\nsimple_inventory#toss\r\nsimple_inventory#unequip\r\n(simple_inventory#equipEmpty)\r\nsimple_inventory#equip\r\nvillager#openVillager\r\nvillager#trade\r\n(villager#putRequirements)\r\n(villager#deposit)",
            "created_at": "2020-12-01T20:36:31Z",
            "html_url": "https://github.com/PrismarineJS/mineflayer/issues/725#issuecomment-736804537",
            "id": 736804537,
            "issue_url": "https://api.github.com/repos/PrismarineJS/mineflayer/issues/725",
            "node_id": "MDEyOklzc3VlQ29tbWVudDczNjgwNDUzNw==",
            "performed_via_github_app": null,
            "reactions": {
                "+1": 0,
                "-1": 0,
                "confused": 0,
                "eyes": 0,
                "heart": 0,
                "hooray": 0,
                "laugh": 0,
                "rocket": 0,
                "total_count": 0,
                "url": "https://api.github.com/repos/PrismarineJS/mineflayer/issues/comments/736804537/reactions"
            },
            "updated_at": "2020-12-01T20:36:49Z",
            "url": "https://api.github.com/repos/PrismarineJS/mineflayer/issues/comments/736804537",
            "user": {
                "avatar_url": "https://avatars.githubusercontent.com/u/14372001?v=4",
                "events_url": "https://api.github.com/users/ph0t0shop/events{/privacy}",
                "followers_url": "https://api.github.com/users/ph0t0shop/followers",
                "following_url": "https://api.github.com/users/ph0t0shop/following{/other_user}",
                "gists_url": "https://api.github.com/users/ph0t0shop/gists{/gist_id}",
                "gravatar_id": "",
                "html_url": "https://github.com/ph0t0shop",
                "id": 14372001,
                "login": "ph0t0shop",
                "node_id": "MDQ6VXNlcjE0MzcyMDAx",
                "organizations_url": "https://api.github.com/users/ph0t0shop/orgs",
                "received_events_url": "https://api.github.com/users/ph0t0shop/received_events",
                "repos_url": "https://api.github.com/users/ph0t0shop/repos",
                "site_admin": false,
                "starred_url": "https://api.github.com/users/ph0t0shop/starred{/owner}{/repo}",
                "subscriptions_url": "https://api.github.com/users/ph0t0shop/subscriptions",
                "type": "User",
                "url": "https://api.github.com/users/ph0t0shop"
            }
        },
        {
            "author_association": "NONE",
            "body": "[@rom1504](https://issuehunt.io/u/rom1504) has rewarded $5.40 to [@ph0t0shop](https://issuehunt.io/u/ph0t0shop). [See it on IssueHunt](https://issuehunt.io/repos/1284185/issues/725)\n\n- :moneybag: Total deposit: $6.00\n- :tada: Repository reward(0%): $0.00\n- :wrench: Service fee(10%): $0.60",
            "created_at": "2020-12-05T01:38:53Z",
            "html_url": "https://github.com/PrismarineJS/mineflayer/issues/725#issuecomment-739102749",
            "id": 739102749,
            "issue_url": "https://api.github.com/repos/PrismarineJS/mineflayer/issues/725",
            "node_id": "MDEyOklzc3VlQ29tbWVudDczOTEwMjc0OQ==",
            "performed_via_github_app": null,
            "reactions": {
                "+1": 0,
                "-1": 0,
                "confused": 0,
                "eyes": 0,
                "heart": 0,
                "hooray": 0,
                "laugh": 0,
                "rocket": 0,
                "total_count": 0,
                "url": "https://api.github.com/repos/PrismarineJS/mineflayer/issues/comments/739102749/reactions"
            },
            "updated_at": "2020-12-05T01:38:53Z",
            "url": "https://api.github.com/repos/PrismarineJS/mineflayer/issues/comments/739102749",
            "user": {
                "avatar_url": "https://avatars.githubusercontent.com/in/29881?v=4",
                "events_url": "https://api.github.com/users/issuehunt-app%5Bbot%5D/events{/privacy}",
                "followers_url": "https://api.github.com/users/issuehunt-app%5Bbot%5D/followers",
                "following_url": "https://api.github.com/users/issuehunt-app%5Bbot%5D/following{/other_user}",
                "gists_url": "https://api.github.com/users/issuehunt-app%5Bbot%5D/gists{/gist_id}",
                "gravatar_id": "",
                "html_url": "https://github.com/apps/issuehunt-app",
                "id": 50163732,
                "login": "issuehunt-app[bot]",
                "node_id": "MDM6Qm90NTAxNjM3MzI=",
                "organizations_url": "https://api.github.com/users/issuehunt-app%5Bbot%5D/orgs",
                "received_events_url": "https://api.github.com/users/issuehunt-app%5Bbot%5D/received_events",
                "repos_url": "https://api.github.com/users/issuehunt-app%5Bbot%5D/repos",
                "site_admin": false,
                "starred_url": "https://api.github.com/users/issuehunt-app%5Bbot%5D/starred{/owner}{/repo}",
                "subscriptions_url": "https://api.github.com/users/issuehunt-app%5Bbot%5D/subscriptions",
                "type": "Bot",
                "url": "https://api.github.com/users/issuehunt-app%5Bbot%5D"
            }
        },
        {
            "author_association": "MEMBER",
            "body": "congrats and thanks @ph0t0shop !",
            "created_at": "2020-12-05T01:39:41Z",
            "html_url": "https://github.com/PrismarineJS/mineflayer/issues/725#issuecomment-739102856",
            "id": 739102856,
            "issue_url": "https://api.github.com/repos/PrismarineJS/mineflayer/issues/725",
            "node_id": "MDEyOklzc3VlQ29tbWVudDczOTEwMjg1Ng==",
            "performed_via_github_app": null,
            "reactions": {
                "+1": 0,
                "-1": 0,
                "confused": 0,
                "eyes": 0,
                "heart": 0,
                "hooray": 2,
                "laugh": 0,
                "rocket": 0,
                "total_count": 2,
                "url": "https://api.github.com/repos/PrismarineJS/mineflayer/issues/comments/739102856/reactions"
            },
            "updated_at": "2020-12-05T01:39:41Z",
            "url": "https://api.github.com/repos/PrismarineJS/mineflayer/issues/comments/739102856",
            "user": {
                "avatar_url": "https://avatars.githubusercontent.com/u/2346494?v=4",
                "events_url": "https://api.github.com/users/rom1504/events{/privacy}",
                "followers_url": "https://api.github.com/users/rom1504/followers",
                "following_url": "https://api.github.com/users/rom1504/following{/other_user}",
                "gists_url": "https://api.github.com/users/rom1504/gists{/gist_id}",
                "gravatar_id": "",
                "html_url": "https://github.com/rom1504",
                "id": 2346494,
                "login": "rom1504",
                "node_id": "MDQ6VXNlcjIzNDY0OTQ=",
                "organizations_url": "https://api.github.com/users/rom1504/orgs",
                "received_events_url": "https://api.github.com/users/rom1504/received_events",
                "repos_url": "https://api.github.com/users/rom1504/repos",
                "site_admin": false,
                "starred_url": "https://api.github.com/users/rom1504/starred{/owner}{/repo}",
                "subscriptions_url": "https://api.github.com/users/rom1504/subscriptions",
                "type": "User",
                "url": "https://api.github.com/users/rom1504"
            }
        }
    ],
    "comments": 18,
    "comments_url": "https://api.github.com/repos/PrismarineJS/mineflayer/issues/725/comments",
    "created_at": "2018-10-03T22:20:20Z",
    "event_data": [
        {
            "actor": {
                "avatar_url": "https://avatars.githubusercontent.com/u/2346494?v=4",
                "events_url": "https://api.github.com/users/rom1504/events{/privacy}",
                "followers_url": "https://api.github.com/users/rom1504/followers",
                "following_url": "https://api.github.com/users/rom1504/following{/other_user}",
                "gists_url": "https://api.github.com/users/rom1504/gists{/gist_id}",
                "gravatar_id": "",
                "html_url": "https://github.com/rom1504",
                "id": 2346494,
                "login": "rom1504",
                "node_id": "MDQ6VXNlcjIzNDY0OTQ=",
                "organizations_url": "https://api.github.com/users/rom1504/orgs",
                "received_events_url": "https://api.github.com/users/rom1504/received_events",
                "repos_url": "https://api.github.com/users/rom1504/repos",
                "site_admin": false,
                "starred_url": "https://api.github.com/users/rom1504/starred{/owner}{/repo}",
                "subscriptions_url": "https://api.github.com/users/rom1504/subscriptions",
                "type": "User",
                "url": "https://api.github.com/users/rom1504"
            },
            "commit_id": null,
            "commit_url": null,
            "created_at": "2018-10-07T18:17:37Z",
            "event": "labeled",
            "id": 1889114658,
            "label": {
                "color": "444444",
                "name": "new feature"
            },
            "node_id": "MDEyOkxhYmVsZWRFdmVudDE4ODkxMTQ2NTg=",
            "performed_via_github_app": null,
            "url": "https://api.github.com/repos/PrismarineJS/mineflayer/issues/events/1889114658"
        },
        {
            "actor": {
                "avatar_url": "https://avatars.githubusercontent.com/u/2346494?v=4",
                "events_url": "https://api.github.com/users/rom1504/events{/privacy}",
                "followers_url": "https://api.github.com/users/rom1504/followers",
                "following_url": "https://api.github.com/users/rom1504/following{/other_user}",
                "gists_url": "https://api.github.com/users/rom1504/gists{/gist_id}",
                "gravatar_id": "",
                "html_url": "https://github.com/rom1504",
                "id": 2346494,
                "login": "rom1504",
                "node_id": "MDQ6VXNlcjIzNDY0OTQ=",
                "organizations_url": "https://api.github.com/users/rom1504/orgs",
                "received_events_url": "https://api.github.com/users/rom1504/received_events",
                "repos_url": "https://api.github.com/users/rom1504/repos",
                "site_admin": false,
                "starred_url": "https://api.github.com/users/rom1504/starred{/owner}{/repo}",
                "subscriptions_url": "https://api.github.com/users/rom1504/subscriptions",
                "type": "User",
                "url": "https://api.github.com/users/rom1504"
            },
            "commit_id": null,
            "commit_url": null,
            "created_at": "2020-05-09T01:24:23Z",
            "event": "labeled",
            "id": 3318859624,
            "label": {
                "color": "8bc43c",
                "name": "high priority"
            },
            "node_id": "MDEyOkxhYmVsZWRFdmVudDMzMTg4NTk2MjQ=",
            "performed_via_github_app": null,
            "url": "https://api.github.com/repos/PrismarineJS/mineflayer/issues/events/3318859624"
        },
        {
            "actor": {
                "avatar_url": "https://avatars.githubusercontent.com/u/2346494?v=4",
                "events_url": "https://api.github.com/users/rom1504/events{/privacy}",
                "followers_url": "https://api.github.com/users/rom1504/followers",
                "following_url": "https://api.github.com/users/rom1504/following{/other_user}",
                "gists_url": "https://api.github.com/users/rom1504/gists{/gist_id}",
                "gravatar_id": "",
                "html_url": "https://github.com/rom1504",
                "id": 2346494,
                "login": "rom1504",
                "node_id": "MDQ6VXNlcjIzNDY0OTQ=",
                "organizations_url": "https://api.github.com/users/rom1504/orgs",
                "received_events_url": "https://api.github.com/users/rom1504/received_events",
                "repos_url": "https://api.github.com/users/rom1504/repos",
                "site_admin": false,
                "starred_url": "https://api.github.com/users/rom1504/starred{/owner}{/repo}",
                "subscriptions_url": "https://api.github.com/users/rom1504/subscriptions",
                "type": "User",
                "url": "https://api.github.com/users/rom1504"
            },
            "commit_id": null,
            "commit_url": null,
            "created_at": "2020-05-09T21:10:50Z",
            "event": "added_to_project",
            "id": 3319750455,
            "node_id": "MDE5OkFkZGVkVG9Qcm9qZWN0RXZlbnQzMzE5NzUwNDU1",
            "performed_via_github_app": null,
            "project_card": {
                "column_name": "To Do",
                "id": 37904290,
                "project_id": 4488498,
                "project_url": "https://api.github.com/projects/4488498",
                "url": "https://api.github.com/projects/columns/cards/37904290"
            },
            "url": "https://api.github.com/repos/PrismarineJS/mineflayer/issues/events/3319750455"
        },
        {
            "actor": {
                "avatar_url": "https://avatars.githubusercontent.com/u/13330620?v=4",
                "events_url": "https://api.github.com/users/wvffle/events{/privacy}",
                "followers_url": "https://api.github.com/users/wvffle/followers",
                "following_url": "https://api.github.com/users/wvffle/following{/other_user}",
                "gists_url": "https://api.github.com/users/wvffle/gists{/gist_id}",
                "gravatar_id": "",
                "html_url": "https://github.com/wvffle",
                "id": 13330620,
                "login": "wvffle",
                "node_id": "MDQ6VXNlcjEzMzMwNjIw",
                "organizations_url": "https://api.github.com/users/wvffle/orgs",
                "received_events_url": "https://api.github.com/users/wvffle/received_events",
                "repos_url": "https://api.github.com/users/wvffle/repos",
                "site_admin": false,
                "starred_url": "https://api.github.com/users/wvffle/starred{/owner}{/repo}",
                "subscriptions_url": "https://api.github.com/users/wvffle/subscriptions",
                "type": "User",
                "url": "https://api.github.com/users/wvffle"
            },
            "assignee": {
                "avatar_url": "https://avatars.githubusercontent.com/u/13330620?v=4",
                "events_url": "https://api.github.com/users/wvffle/events{/privacy}",
                "followers_url": "https://api.github.com/users/wvffle/followers",
                "following_url": "https://api.github.com/users/wvffle/following{/other_user}",
                "gists_url": "https://api.github.com/users/wvffle/gists{/gist_id}",
                "gravatar_id": "",
                "html_url": "https://github.com/wvffle",
                "id": 13330620,
                "login": "wvffle",
                "node_id": "MDQ6VXNlcjEzMzMwNjIw",
                "organizations_url": "https://api.github.com/users/wvffle/orgs",
                "received_events_url": "https://api.github.com/users/wvffle/received_events",
                "repos_url": "https://api.github.com/users/wvffle/repos",
                "site_admin": false,
                "starred_url": "https://api.github.com/users/wvffle/starred{/owner}{/repo}",
                "subscriptions_url": "https://api.github.com/users/wvffle/subscriptions",
                "type": "User",
                "url": "https://api.github.com/users/wvffle"
            },
            "assigner": {
                "avatar_url": "https://avatars.githubusercontent.com/u/13330620?v=4",
                "events_url": "https://api.github.com/users/wvffle/events{/privacy}",
                "followers_url": "https://api.github.com/users/wvffle/followers",
                "following_url": "https://api.github.com/users/wvffle/following{/other_user}",
                "gists_url": "https://api.github.com/users/wvffle/gists{/gist_id}",
                "gravatar_id": "",
                "html_url": "https://github.com/wvffle",
                "id": 13330620,
                "login": "wvffle",
                "node_id": "MDQ6VXNlcjEzMzMwNjIw",
                "organizations_url": "https://api.github.com/users/wvffle/orgs",
                "received_events_url": "https://api.github.com/users/wvffle/received_events",
                "repos_url": "https://api.github.com/users/wvffle/repos",
                "site_admin": false,
                "starred_url": "https://api.github.com/users/wvffle/starred{/owner}{/repo}",
                "subscriptions_url": "https://api.github.com/users/wvffle/subscriptions",
                "type": "User",
                "url": "https://api.github.com/users/wvffle"
            },
            "commit_id": null,
            "commit_url": null,
            "created_at": "2020-05-10T10:34:27Z",
            "event": "assigned",
            "id": 3320191933,
            "node_id": "MDEzOkFzc2lnbmVkRXZlbnQzMzIwMTkxOTMz",
            "performed_via_github_app": null,
            "url": "https://api.github.com/repos/PrismarineJS/mineflayer/issues/events/3320191933"
        },
        {
            "actor": {
                "avatar_url": "https://avatars.githubusercontent.com/u/2346494?v=4",
                "events_url": "https://api.github.com/users/rom1504/events{/privacy}",
                "followers_url": "https://api.github.com/users/rom1504/followers",
                "following_url": "https://api.github.com/users/rom1504/following{/other_user}",
                "gists_url": "https://api.github.com/users/rom1504/gists{/gist_id}",
                "gravatar_id": "",
                "html_url": "https://github.com/rom1504",
                "id": 2346494,
                "login": "rom1504",
                "node_id": "MDQ6VXNlcjIzNDY0OTQ=",
                "organizations_url": "https://api.github.com/users/rom1504/orgs",
                "received_events_url": "https://api.github.com/users/rom1504/received_events",
                "repos_url": "https://api.github.com/users/rom1504/repos",
                "site_admin": false,
                "starred_url": "https://api.github.com/users/rom1504/starred{/owner}{/repo}",
                "subscriptions_url": "https://api.github.com/users/rom1504/subscriptions",
                "type": "User",
                "url": "https://api.github.com/users/rom1504"
            },
            "commit_id": null,
            "commit_url": null,
            "created_at": "2020-05-20T19:57:34Z",
            "event": "moved_columns_in_project",
            "id": 3358094125,
            "node_id": "MDI2Ok1vdmVkQ29sdW1uc0luUHJvamVjdEV2ZW50MzM1ODA5NDEyNQ==",
            "performed_via_github_app": null,
            "project_card": {
                "column_name": "In progress",
                "id": 37904290,
                "previous_column_name": "To Do",
                "project_id": 4488498,
                "project_url": "https://api.github.com/projects/4488498",
                "url": "https://api.github.com/projects/columns/cards/37904290"
            },
            "url": "https://api.github.com/repos/PrismarineJS/mineflayer/issues/events/3358094125"
        },
        {
            "actor": {
                "avatar_url": "https://avatars.githubusercontent.com/in/29881?v=4",
                "events_url": "https://api.github.com/users/issuehunt-app%5Bbot%5D/events{/privacy}",
                "followers_url": "https://api.github.com/users/issuehunt-app%5Bbot%5D/followers",
                "following_url": "https://api.github.com/users/issuehunt-app%5Bbot%5D/following{/other_user}",
                "gists_url": "https://api.github.com/users/issuehunt-app%5Bbot%5D/gists{/gist_id}",
                "gravatar_id": "",
                "html_url": "https://github.com/apps/issuehunt-app",
                "id": 50163732,
                "login": "issuehunt-app[bot]",
                "node_id": "MDM6Qm90NTAxNjM3MzI=",
                "organizations_url": "https://api.github.com/users/issuehunt-app%5Bbot%5D/orgs",
                "received_events_url": "https://api.github.com/users/issuehunt-app%5Bbot%5D/received_events",
                "repos_url": "https://api.github.com/users/issuehunt-app%5Bbot%5D/repos",
                "site_admin": false,
                "starred_url": "https://api.github.com/users/issuehunt-app%5Bbot%5D/starred{/owner}{/repo}",
                "subscriptions_url": "https://api.github.com/users/issuehunt-app%5Bbot%5D/subscriptions",
                "type": "Bot",
                "url": "https://api.github.com/users/issuehunt-app%5Bbot%5D"
            },
            "commit_id": null,
            "commit_url": null,
            "created_at": "2020-10-25T02:11:51Z",
            "event": "labeled",
            "id": 3917383665,
            "label": {
                "color": "e5fbf2",
                "name": ":dollar: Funded on Issuehunt"
            },
            "node_id": "MDEyOkxhYmVsZWRFdmVudDM5MTczODM2NjU=",
            "performed_via_github_app": null,
            "url": "https://api.github.com/repos/PrismarineJS/mineflayer/issues/events/3917383665"
        },
        {
            "actor": {
                "avatar_url": "https://avatars.githubusercontent.com/u/14372001?v=4",
                "events_url": "https://api.github.com/users/ph0t0shop/events{/privacy}",
                "followers_url": "https://api.github.com/users/ph0t0shop/followers",
                "following_url": "https://api.github.com/users/ph0t0shop/following{/other_user}",
                "gists_url": "https://api.github.com/users/ph0t0shop/gists{/gist_id}",
                "gravatar_id": "",
                "html_url": "https://github.com/ph0t0shop",
                "id": 14372001,
                "login": "ph0t0shop",
                "node_id": "MDQ6VXNlcjE0MzcyMDAx",
                "organizations_url": "https://api.github.com/users/ph0t0shop/orgs",
                "received_events_url": "https://api.github.com/users/ph0t0shop/received_events",
                "repos_url": "https://api.github.com/users/ph0t0shop/repos",
                "site_admin": false,
                "starred_url": "https://api.github.com/users/ph0t0shop/starred{/owner}{/repo}",
                "subscriptions_url": "https://api.github.com/users/ph0t0shop/subscriptions",
                "type": "User",
                "url": "https://api.github.com/users/ph0t0shop"
            },
            "commit_id": null,
            "commit_url": null,
            "created_at": "2020-12-01T01:24:36Z",
            "event": "mentioned",
            "id": 4054678083,
            "node_id": "MDE0Ok1lbnRpb25lZEV2ZW50NDA1NDY3ODA4Mw==",
            "performed_via_github_app": null,
            "url": "https://api.github.com/repos/PrismarineJS/mineflayer/issues/events/4054678083"
        },
        {
            "actor": {
                "avatar_url": "https://avatars.githubusercontent.com/u/14372001?v=4",
                "events_url": "https://api.github.com/users/ph0t0shop/events{/privacy}",
                "followers_url": "https://api.github.com/users/ph0t0shop/followers",
                "following_url": "https://api.github.com/users/ph0t0shop/following{/other_user}",
                "gists_url": "https://api.github.com/users/ph0t0shop/gists{/gist_id}",
                "gravatar_id": "",
                "html_url": "https://github.com/ph0t0shop",
                "id": 14372001,
                "login": "ph0t0shop",
                "node_id": "MDQ6VXNlcjE0MzcyMDAx",
                "organizations_url": "https://api.github.com/users/ph0t0shop/orgs",
                "received_events_url": "https://api.github.com/users/ph0t0shop/received_events",
                "repos_url": "https://api.github.com/users/ph0t0shop/repos",
                "site_admin": false,
                "starred_url": "https://api.github.com/users/ph0t0shop/starred{/owner}{/repo}",
                "subscriptions_url": "https://api.github.com/users/ph0t0shop/subscriptions",
                "type": "User",
                "url": "https://api.github.com/users/ph0t0shop"
            },
            "commit_id": null,
            "commit_url": null,
            "created_at": "2020-12-01T01:24:36Z",
            "event": "subscribed",
            "id": 4054678085,
            "node_id": "MDE1OlN1YnNjcmliZWRFdmVudDQwNTQ2NzgwODU=",
            "performed_via_github_app": null,
            "url": "https://api.github.com/repos/PrismarineJS/mineflayer/issues/events/4054678085"
        },
        {
            "actor": {
                "avatar_url": "https://avatars.githubusercontent.com/u/2346494?v=4",
                "events_url": "https://api.github.com/users/rom1504/events{/privacy}",
                "followers_url": "https://api.github.com/users/rom1504/followers",
                "following_url": "https://api.github.com/users/rom1504/following{/other_user}",
                "gists_url": "https://api.github.com/users/rom1504/gists{/gist_id}",
                "gravatar_id": "",
                "html_url": "https://github.com/rom1504",
                "id": 2346494,
                "login": "rom1504",
                "node_id": "MDQ6VXNlcjIzNDY0OTQ=",
                "organizations_url": "https://api.github.com/users/rom1504/orgs",
                "received_events_url": "https://api.github.com/users/rom1504/received_events",
                "repos_url": "https://api.github.com/users/rom1504/repos",
                "site_admin": false,
                "starred_url": "https://api.github.com/users/rom1504/starred{/owner}{/repo}",
                "subscriptions_url": "https://api.github.com/users/rom1504/subscriptions",
                "type": "User",
                "url": "https://api.github.com/users/rom1504"
            },
            "commit_id": null,
            "commit_url": null,
            "created_at": "2020-12-05T01:35:29Z",
            "event": "closed",
            "id": 4075049618,
            "node_id": "MDExOkNsb3NlZEV2ZW50NDA3NTA0OTYxOA==",
            "performed_via_github_app": null,
            "state_reason": null,
            "url": "https://api.github.com/repos/PrismarineJS/mineflayer/issues/events/4075049618"
        },
        {
            "actor": {
                "avatar_url": "https://avatars.githubusercontent.com/u/2346494?v=4",
                "events_url": "https://api.github.com/users/rom1504/events{/privacy}",
                "followers_url": "https://api.github.com/users/rom1504/followers",
                "following_url": "https://api.github.com/users/rom1504/following{/other_user}",
                "gists_url": "https://api.github.com/users/rom1504/gists{/gist_id}",
                "gravatar_id": "",
                "html_url": "https://github.com/rom1504",
                "id": 2346494,
                "login": "rom1504",
                "node_id": "MDQ6VXNlcjIzNDY0OTQ=",
                "organizations_url": "https://api.github.com/users/rom1504/orgs",
                "received_events_url": "https://api.github.com/users/rom1504/received_events",
                "repos_url": "https://api.github.com/users/rom1504/repos",
                "site_admin": false,
                "starred_url": "https://api.github.com/users/rom1504/starred{/owner}{/repo}",
                "subscriptions_url": "https://api.github.com/users/rom1504/subscriptions",
                "type": "User",
                "url": "https://api.github.com/users/rom1504"
            },
            "commit_id": null,
            "commit_url": null,
            "created_at": "2020-12-05T01:35:29Z",
            "event": "moved_columns_in_project",
            "id": 4075049637,
            "node_id": "MDI2Ok1vdmVkQ29sdW1uc0luUHJvamVjdEV2ZW50NDA3NTA0OTYzNw==",
            "performed_via_github_app": null,
            "project_card": {
                "column_name": "Done",
                "id": 37904290,
                "previous_column_name": "In progress",
                "project_id": 4488498,
                "project_url": "https://api.github.com/projects/4488498",
                "url": "https://api.github.com/projects/columns/cards/37904290"
            },
            "url": "https://api.github.com/repos/PrismarineJS/mineflayer/issues/events/4075049637"
        },
        {
            "actor": {
                "avatar_url": "https://avatars.githubusercontent.com/in/29881?v=4",
                "events_url": "https://api.github.com/users/issuehunt-app%5Bbot%5D/events{/privacy}",
                "followers_url": "https://api.github.com/users/issuehunt-app%5Bbot%5D/followers",
                "following_url": "https://api.github.com/users/issuehunt-app%5Bbot%5D/following{/other_user}",
                "gists_url": "https://api.github.com/users/issuehunt-app%5Bbot%5D/gists{/gist_id}",
                "gravatar_id": "",
                "html_url": "https://github.com/apps/issuehunt-app",
                "id": 50163732,
                "login": "issuehunt-app[bot]",
                "node_id": "MDM6Qm90NTAxNjM3MzI=",
                "organizations_url": "https://api.github.com/users/issuehunt-app%5Bbot%5D/orgs",
                "received_events_url": "https://api.github.com/users/issuehunt-app%5Bbot%5D/received_events",
                "repos_url": "https://api.github.com/users/issuehunt-app%5Bbot%5D/repos",
                "site_admin": false,
                "starred_url": "https://api.github.com/users/issuehunt-app%5Bbot%5D/starred{/owner}{/repo}",
                "subscriptions_url": "https://api.github.com/users/issuehunt-app%5Bbot%5D/subscriptions",
                "type": "Bot",
                "url": "https://api.github.com/users/issuehunt-app%5Bbot%5D"
            },
            "commit_id": null,
            "commit_url": null,
            "created_at": "2020-12-05T01:38:53Z",
            "event": "unlabeled",
            "id": 4075052904,
            "label": {
                "color": "e5fbf2",
                "name": ":dollar: Funded on Issuehunt"
            },
            "node_id": "MDE0OlVubGFiZWxlZEV2ZW50NDA3NTA1MjkwNA==",
            "performed_via_github_app": null,
            "url": "https://api.github.com/repos/PrismarineJS/mineflayer/issues/events/4075052904"
        },
        {
            "actor": {
                "avatar_url": "https://avatars.githubusercontent.com/in/29881?v=4",
                "events_url": "https://api.github.com/users/issuehunt-app%5Bbot%5D/events{/privacy}",
                "followers_url": "https://api.github.com/users/issuehunt-app%5Bbot%5D/followers",
                "following_url": "https://api.github.com/users/issuehunt-app%5Bbot%5D/following{/other_user}",
                "gists_url": "https://api.github.com/users/issuehunt-app%5Bbot%5D/gists{/gist_id}",
                "gravatar_id": "",
                "html_url": "https://github.com/apps/issuehunt-app",
                "id": 50163732,
                "login": "issuehunt-app[bot]",
                "node_id": "MDM6Qm90NTAxNjM3MzI=",
                "organizations_url": "https://api.github.com/users/issuehunt-app%5Bbot%5D/orgs",
                "received_events_url": "https://api.github.com/users/issuehunt-app%5Bbot%5D/received_events",
                "repos_url": "https://api.github.com/users/issuehunt-app%5Bbot%5D/repos",
                "site_admin": false,
                "starred_url": "https://api.github.com/users/issuehunt-app%5Bbot%5D/starred{/owner}{/repo}",
                "subscriptions_url": "https://api.github.com/users/issuehunt-app%5Bbot%5D/subscriptions",
                "type": "Bot",
                "url": "https://api.github.com/users/issuehunt-app%5Bbot%5D"
            },
            "commit_id": null,
            "commit_url": null,
            "created_at": "2020-12-05T01:38:54Z",
            "event": "labeled",
            "id": 4075052919,
            "label": {
                "color": "eceafc",
                "name": ":gift: Rewarded on Issuehunt"
            },
            "node_id": "MDEyOkxhYmVsZWRFdmVudDQwNzUwNTI5MTk=",
            "performed_via_github_app": null,
            "url": "https://api.github.com/repos/PrismarineJS/mineflayer/issues/events/4075052919"
        },
        {
            "actor": {
                "avatar_url": "https://avatars.githubusercontent.com/u/14372001?v=4",
                "events_url": "https://api.github.com/users/ph0t0shop/events{/privacy}",
                "followers_url": "https://api.github.com/users/ph0t0shop/followers",
                "following_url": "https://api.github.com/users/ph0t0shop/following{/other_user}",
                "gists_url": "https://api.github.com/users/ph0t0shop/gists{/gist_id}",
                "gravatar_id": "",
                "html_url": "https://github.com/ph0t0shop",
                "id": 14372001,
                "login": "ph0t0shop",
                "node_id": "MDQ6VXNlcjE0MzcyMDAx",
                "organizations_url": "https://api.github.com/users/ph0t0shop/orgs",
                "received_events_url": "https://api.github.com/users/ph0t0shop/received_events",
                "repos_url": "https://api.github.com/users/ph0t0shop/repos",
                "site_admin": false,
                "starred_url": "https://api.github.com/users/ph0t0shop/starred{/owner}{/repo}",
                "subscriptions_url": "https://api.github.com/users/ph0t0shop/subscriptions",
                "type": "User",
                "url": "https://api.github.com/users/ph0t0shop"
            },
            "commit_id": null,
            "commit_url": null,
            "created_at": "2020-12-05T01:39:41Z",
            "event": "mentioned",
            "id": 4075053852,
            "node_id": "MDE0Ok1lbnRpb25lZEV2ZW50NDA3NTA1Mzg1Mg==",
            "performed_via_github_app": null,
            "url": "https://api.github.com/repos/PrismarineJS/mineflayer/issues/events/4075053852"
        },
        {
            "actor": {
                "avatar_url": "https://avatars.githubusercontent.com/u/14372001?v=4",
                "events_url": "https://api.github.com/users/ph0t0shop/events{/privacy}",
                "followers_url": "https://api.github.com/users/ph0t0shop/followers",
                "following_url": "https://api.github.com/users/ph0t0shop/following{/other_user}",
                "gists_url": "https://api.github.com/users/ph0t0shop/gists{/gist_id}",
                "gravatar_id": "",
                "html_url": "https://github.com/ph0t0shop",
                "id": 14372001,
                "login": "ph0t0shop",
                "node_id": "MDQ6VXNlcjE0MzcyMDAx",
                "organizations_url": "https://api.github.com/users/ph0t0shop/orgs",
                "received_events_url": "https://api.github.com/users/ph0t0shop/received_events",
                "repos_url": "https://api.github.com/users/ph0t0shop/repos",
                "site_admin": false,
                "starred_url": "https://api.github.com/users/ph0t0shop/starred{/owner}{/repo}",
                "subscriptions_url": "https://api.github.com/users/ph0t0shop/subscriptions",
                "type": "User",
                "url": "https://api.github.com/users/ph0t0shop"
            },
            "commit_id": null,
            "commit_url": null,
            "created_at": "2020-12-05T01:39:41Z",
            "event": "subscribed",
            "id": 4075053853,
            "node_id": "MDE1OlN1YnNjcmliZWRFdmVudDQwNzUwNTM4NTM=",
            "performed_via_github_app": null,
            "url": "https://api.github.com/repos/PrismarineJS/mineflayer/issues/events/4075053853"
        }
    ],
    "events_url": "https://api.github.com/repos/PrismarineJS/mineflayer/issues/725/events",
    "html_url": "https://github.com/PrismarineJS/mineflayer/issues/725",
    "id": 366552283,
    "labels": [
        {
            "color": "444444",
            "default": false,
            "description": "",
            "id": 111395,
            "name": "new feature",
            "node_id": "MDU6TGFiZWwxMTEzOTU=",
            "url": "https://api.github.com/repos/PrismarineJS/mineflayer/labels/new%20feature"
        },
        {
            "color": "8bc43c",
            "default": false,
            "description": "",
            "id": 2047395772,
            "name": "high priority",
            "node_id": "MDU6TGFiZWwyMDQ3Mzk1Nzcy",
            "url": "https://api.github.com/repos/PrismarineJS/mineflayer/labels/high%20priority"
        }
    ],
    "labels_url": "https://api.github.com/repos/PrismarineJS/mineflayer/issues/725/labels{/name}",
    "locked": false,
    "milestone": null,
    "node_id": "MDU6SXNzdWUzNjY1NTIyODM=",
    "number": 725,
    "performed_via_github_app": null,
    "reactions": {
        "+1": 0,
        "-1": 0,
        "confused": 0,
        "eyes": 0,
        "heart": 0,
        "hooray": 0,
        "laugh": 0,
        "rocket": 0,
        "total_count": 0,
        "url": "https://api.github.com/repos/PrismarineJS/mineflayer/issues/725/reactions"
    },
    "repository_url": "https://api.github.com/repos/PrismarineJS/mineflayer",
    "state": "closed",
    "state_reason": "completed",
    "timeline_url": "https://api.github.com/repos/PrismarineJS/mineflayer/issues/725/timeline",
    "title": "promisify",
    "updated_at": "2020-12-05T01:39:41Z",
    "url": "https://api.github.com/repos/PrismarineJS/mineflayer/issues/725",
    "user": {
        "avatar_url": "https://avatars.githubusercontent.com/u/2346494?v=4",
        "events_url": "https://api.github.com/users/rom1504/events{/privacy}",
        "followers_url": "https://api.github.com/users/rom1504/followers",
        "following_url": "https://api.github.com/users/rom1504/following{/other_user}",
        "gists_url": "https://api.github.com/users/rom1504/gists{/gist_id}",
        "gravatar_id": "",
        "html_url": "https://github.com/rom1504",
        "id": 2346494,
        "login": "rom1504",
        "node_id": "MDQ6VXNlcjIzNDY0OTQ=",
        "organizations_url": "https://api.github.com/users/rom1504/orgs",
        "received_events_url": "https://api.github.com/users/rom1504/received_events",
        "repos_url": "https://api.github.com/users/rom1504/repos",
        "site_admin": false,
        "starred_url": "https://api.github.com/users/rom1504/starred{/owner}{/repo}",
        "subscriptions_url": "https://api.github.com/users/rom1504/subscriptions",
        "type": "User",
        "url": "https://api.github.com/users/rom1504"
    }
}