{
    "active_lock_reason": null,
    "assignee": null,
    "assignees": [],
    "author_association": "CONTRIBUTOR",
    "body": "This is a really weird bug, and I've isolated it to Bot.activateBlock\r\nI have a function that finds a sign based on the Text1 of its blockEntity.\r\nThis works great, and will find the sign over and over again without problem.\r\nHowever, when I call bot.activateBlock, the last sign I looked for has its blockEntity object deleted.\r\n(This is confirmed when I search for the same sign again)\r\nThis is really weird, and nowhere in my code do I assign anything to blockEntity.\r\nDestroying and re-placing the sign lets it be read once more, but then the same problem happens.\r\nServer is on Spigot 1.12.2.\r\n\r\nCoffee:\r\n```coffee\r\nSign = findSign 'exit' # Searches for Line1 == 'exit'\r\nButton = Bot.blockAt (Sign.position.offset(0,-1,0)) # the button to press\r\nBot.activateBlock Button # Works just fine\r\n\r\n# Calling the same a few moments after\r\nSign = findSign 'exit' # multiple signs exist, 'exit' sign's blockEntity does not. Other signs it finds still have their blockEntity.\r\n# Sign is undefined.\r\n```",
    "closed_at": "2019-05-04T00:23:42Z",
    "comment_data": [
        {
            "author_association": "CONTRIBUTOR",
            "body": "Also, it doesn't appear to have to do with blockAt - I can run that over and over again.\r\nactivateBlock is where the sign loses its blockEntity.",
            "created_at": "2019-05-02T16:34:44Z",
            "html_url": "https://github.com/PrismarineJS/mineflayer/issues/800#issuecomment-488742552",
            "id": 488742552,
            "issue_url": "https://api.github.com/repos/PrismarineJS/mineflayer/issues/800",
            "node_id": "MDEyOklzc3VlQ29tbWVudDQ4ODc0MjU1Mg==",
            "performed_via_github_app": null,
            "reactions": {
                "+1": 0,
                "-1": 0,
                "confused": 0,
                "eyes": 0,
                "heart": 0,
                "hooray": 0,
                "laugh": 0,
                "rocket": 0,
                "total_count": 0,
                "url": "https://api.github.com/repos/PrismarineJS/mineflayer/issues/comments/488742552/reactions"
            },
            "updated_at": "2019-05-02T16:34:44Z",
            "url": "https://api.github.com/repos/PrismarineJS/mineflayer/issues/comments/488742552",
            "user": {
                "avatar_url": "https://avatars.githubusercontent.com/u/16279574?v=4",
                "events_url": "https://api.github.com/users/safazi/events{/privacy}",
                "followers_url": "https://api.github.com/users/safazi/followers",
                "following_url": "https://api.github.com/users/safazi/following{/other_user}",
                "gists_url": "https://api.github.com/users/safazi/gists{/gist_id}",
                "gravatar_id": "",
                "html_url": "https://github.com/safazi",
                "id": 16279574,
                "login": "safazi",
                "node_id": "MDQ6VXNlcjE2Mjc5NTc0",
                "organizations_url": "https://api.github.com/users/safazi/orgs",
                "received_events_url": "https://api.github.com/users/safazi/received_events",
                "repos_url": "https://api.github.com/users/safazi/repos",
                "site_admin": false,
                "starred_url": "https://api.github.com/users/safazi/starred{/owner}{/repo}",
                "subscriptions_url": "https://api.github.com/users/safazi/subscriptions",
                "type": "User",
                "url": "https://api.github.com/users/safazi"
            }
        }
    ],
    "comments": 1,
    "comments_url": "https://api.github.com/repos/PrismarineJS/mineflayer/issues/800/comments",
    "created_at": "2019-05-02T16:32:18Z",
    "event_data": [
        {
            "actor": {
                "avatar_url": "https://avatars.githubusercontent.com/u/2346494?v=4",
                "events_url": "https://api.github.com/users/rom1504/events{/privacy}",
                "followers_url": "https://api.github.com/users/rom1504/followers",
                "following_url": "https://api.github.com/users/rom1504/following{/other_user}",
                "gists_url": "https://api.github.com/users/rom1504/gists{/gist_id}",
                "gravatar_id": "",
                "html_url": "https://github.com/rom1504",
                "id": 2346494,
                "login": "rom1504",
                "node_id": "MDQ6VXNlcjIzNDY0OTQ=",
                "organizations_url": "https://api.github.com/users/rom1504/orgs",
                "received_events_url": "https://api.github.com/users/rom1504/received_events",
                "repos_url": "https://api.github.com/users/rom1504/repos",
                "site_admin": false,
                "starred_url": "https://api.github.com/users/rom1504/starred{/owner}{/repo}",
                "subscriptions_url": "https://api.github.com/users/rom1504/subscriptions",
                "type": "User",
                "url": "https://api.github.com/users/rom1504"
            },
            "commit_id": "a9f77cb69c2ac78ce86880641ad63cb132ee86ee",
            "commit_url": "https://api.github.com/repos/PrismarineJS/mineflayer/commits/a9f77cb69c2ac78ce86880641ad63cb132ee86ee",
            "created_at": "2019-05-04T00:23:42Z",
            "event": "closed",
            "id": 2318732289,
            "node_id": "MDExOkNsb3NlZEV2ZW50MjMxODczMjI4OQ==",
            "performed_via_github_app": null,
            "state_reason": null,
            "url": "https://api.github.com/repos/PrismarineJS/mineflayer/issues/events/2318732289"
        }
    ],
    "events_url": "https://api.github.com/repos/PrismarineJS/mineflayer/issues/800/events",
    "html_url": "https://github.com/PrismarineJS/mineflayer/issues/800",
    "id": 439681128,
    "labels": [],
    "labels_url": "https://api.github.com/repos/PrismarineJS/mineflayer/issues/800/labels{/name}",
    "locked": false,
    "milestone": null,
    "node_id": "MDU6SXNzdWU0Mzk2ODExMjg=",
    "number": 800,
    "performed_via_github_app": null,
    "reactions": {
        "+1": 0,
        "-1": 0,
        "confused": 0,
        "eyes": 0,
        "heart": 0,
        "hooray": 0,
        "laugh": 0,
        "rocket": 0,
        "total_count": 0,
        "url": "https://api.github.com/repos/PrismarineJS/mineflayer/issues/800/reactions"
    },
    "repository_url": "https://api.github.com/repos/PrismarineJS/mineflayer",
    "state": "closed",
    "state_reason": "completed",
    "timeline_url": "https://api.github.com/repos/PrismarineJS/mineflayer/issues/800/timeline",
    "title": "activateBlock called on a button is deleting blockEntity of sign",
    "updated_at": "2019-05-04T00:23:42Z",
    "url": "https://api.github.com/repos/PrismarineJS/mineflayer/issues/800",
    "user": {
        "avatar_url": "https://avatars.githubusercontent.com/u/16279574?v=4",
        "events_url": "https://api.github.com/users/safazi/events{/privacy}",
        "followers_url": "https://api.github.com/users/safazi/followers",
        "following_url": "https://api.github.com/users/safazi/following{/other_user}",
        "gists_url": "https://api.github.com/users/safazi/gists{/gist_id}",
        "gravatar_id": "",
        "html_url": "https://github.com/safazi",
        "id": 16279574,
        "login": "safazi",
        "node_id": "MDQ6VXNlcjE2Mjc5NTc0",
        "organizations_url": "https://api.github.com/users/safazi/orgs",
        "received_events_url": "https://api.github.com/users/safazi/received_events",
        "repos_url": "https://api.github.com/users/safazi/repos",
        "site_admin": false,
        "starred_url": "https://api.github.com/users/safazi/starred{/owner}{/repo}",
        "subscriptions_url": "https://api.github.com/users/safazi/subscriptions",
        "type": "User",
        "url": "https://api.github.com/users/safazi"
    }
}