{
    "active_lock_reason": null,
    "assignee": null,
    "assignees": [],
    "author_association": "MEMBER",
    "body": "Right now we have events like `entityUpdate` and `bossBarUpdated`\nwhich may be a little bit confusing and nonintuitive for newcomers\n\nI think that most of the events should be in present and not past time\n\nChanging that would be a breaking change for already existing projects but would make event names more consistent",
    "closed_at": "2020-06-01T07:35:46Z",
    "comment_data": [
        {
            "author_association": "MEMBER",
            "body": "To avoid breaking changes, we could introduce aliases to keep the old names around. Not sure if it's worth it though.",
            "created_at": "2019-08-26T12:38:31Z",
            "html_url": "https://github.com/PrismarineJS/mineflayer/issues/859#issuecomment-524843662",
            "id": 524843662,
            "issue_url": "https://api.github.com/repos/PrismarineJS/mineflayer/issues/859",
            "node_id": "MDEyOklzc3VlQ29tbWVudDUyNDg0MzY2Mg==",
            "performed_via_github_app": null,
            "reactions": {
                "+1": 0,
                "-1": 0,
                "confused": 0,
                "eyes": 0,
                "heart": 0,
                "hooray": 0,
                "laugh": 0,
                "rocket": 0,
                "total_count": 0,
                "url": "https://api.github.com/repos/PrismarineJS/mineflayer/issues/comments/524843662/reactions"
            },
            "updated_at": "2019-08-26T12:38:53Z",
            "url": "https://api.github.com/repos/PrismarineJS/mineflayer/issues/comments/524843662",
            "user": {
                "avatar_url": "https://avatars.githubusercontent.com/u/1069318?v=4",
                "events_url": "https://api.github.com/users/roblabla/events{/privacy}",
                "followers_url": "https://api.github.com/users/roblabla/followers",
                "following_url": "https://api.github.com/users/roblabla/following{/other_user}",
                "gists_url": "https://api.github.com/users/roblabla/gists{/gist_id}",
                "gravatar_id": "",
                "html_url": "https://github.com/roblabla",
                "id": 1069318,
                "login": "roblabla",
                "node_id": "MDQ6VXNlcjEwNjkzMTg=",
                "organizations_url": "https://api.github.com/users/roblabla/orgs",
                "received_events_url": "https://api.github.com/users/roblabla/received_events",
                "repos_url": "https://api.github.com/users/roblabla/repos",
                "site_admin": false,
                "starred_url": "https://api.github.com/users/roblabla/starred{/owner}{/repo}",
                "subscriptions_url": "https://api.github.com/users/roblabla/subscriptions",
                "type": "User",
                "url": "https://api.github.com/users/roblabla"
            }
        },
        {
            "author_association": "MEMBER",
            "body": "I don't really think it's worth it. Especially now that we have typescript definition for autocomplete",
            "created_at": "2020-06-01T07:35:46Z",
            "html_url": "https://github.com/PrismarineJS/mineflayer/issues/859#issuecomment-636667747",
            "id": 636667747,
            "issue_url": "https://api.github.com/repos/PrismarineJS/mineflayer/issues/859",
            "node_id": "MDEyOklzc3VlQ29tbWVudDYzNjY2Nzc0Nw==",
            "performed_via_github_app": null,
            "reactions": {
                "+1": 0,
                "-1": 0,
                "confused": 0,
                "eyes": 0,
                "heart": 0,
                "hooray": 0,
                "laugh": 0,
                "rocket": 0,
                "total_count": 0,
                "url": "https://api.github.com/repos/PrismarineJS/mineflayer/issues/comments/636667747/reactions"
            },
            "updated_at": "2020-06-01T07:35:46Z",
            "url": "https://api.github.com/repos/PrismarineJS/mineflayer/issues/comments/636667747",
            "user": {
                "avatar_url": "https://avatars.githubusercontent.com/u/2346494?v=4",
                "events_url": "https://api.github.com/users/rom1504/events{/privacy}",
                "followers_url": "https://api.github.com/users/rom1504/followers",
                "following_url": "https://api.github.com/users/rom1504/following{/other_user}",
                "gists_url": "https://api.github.com/users/rom1504/gists{/gist_id}",
                "gravatar_id": "",
                "html_url": "https://github.com/rom1504",
                "id": 2346494,
                "login": "rom1504",
                "node_id": "MDQ6VXNlcjIzNDY0OTQ=",
                "organizations_url": "https://api.github.com/users/rom1504/orgs",
                "received_events_url": "https://api.github.com/users/rom1504/received_events",
                "repos_url": "https://api.github.com/users/rom1504/repos",
                "site_admin": false,
                "starred_url": "https://api.github.com/users/rom1504/starred{/owner}{/repo}",
                "subscriptions_url": "https://api.github.com/users/rom1504/subscriptions",
                "type": "User",
                "url": "https://api.github.com/users/rom1504"
            }
        }
    ],
    "comments": 2,
    "comments_url": "https://api.github.com/repos/PrismarineJS/mineflayer/issues/859/comments",
    "created_at": "2019-08-26T11:24:10Z",
    "event_data": [
        {
            "actor": {
                "avatar_url": "https://avatars.githubusercontent.com/u/13330620?v=4",
                "events_url": "https://api.github.com/users/wvffle/events{/privacy}",
                "followers_url": "https://api.github.com/users/wvffle/followers",
                "following_url": "https://api.github.com/users/wvffle/following{/other_user}",
                "gists_url": "https://api.github.com/users/wvffle/gists{/gist_id}",
                "gravatar_id": "",
                "html_url": "https://github.com/wvffle",
                "id": 13330620,
                "login": "wvffle",
                "node_id": "MDQ6VXNlcjEzMzMwNjIw",
                "organizations_url": "https://api.github.com/users/wvffle/orgs",
                "received_events_url": "https://api.github.com/users/wvffle/received_events",
                "repos_url": "https://api.github.com/users/wvffle/repos",
                "site_admin": false,
                "starred_url": "https://api.github.com/users/wvffle/starred{/owner}{/repo}",
                "subscriptions_url": "https://api.github.com/users/wvffle/subscriptions",
                "type": "User",
                "url": "https://api.github.com/users/wvffle"
            },
            "commit_id": null,
            "commit_url": null,
            "created_at": "2019-08-26T11:24:10Z",
            "event": "labeled",
            "id": 2583369961,
            "label": {
                "color": "eb6420",
                "name": "refactoring"
            },
            "node_id": "MDEyOkxhYmVsZWRFdmVudDI1ODMzNjk5NjE=",
            "performed_via_github_app": null,
            "url": "https://api.github.com/repos/PrismarineJS/mineflayer/issues/events/2583369961"
        },
        {
            "actor": {
                "avatar_url": "https://avatars.githubusercontent.com/u/13330620?v=4",
                "events_url": "https://api.github.com/users/wvffle/events{/privacy}",
                "followers_url": "https://api.github.com/users/wvffle/followers",
                "following_url": "https://api.github.com/users/wvffle/following{/other_user}",
                "gists_url": "https://api.github.com/users/wvffle/gists{/gist_id}",
                "gravatar_id": "",
                "html_url": "https://github.com/wvffle",
                "id": 13330620,
                "login": "wvffle",
                "node_id": "MDQ6VXNlcjEzMzMwNjIw",
                "organizations_url": "https://api.github.com/users/wvffle/orgs",
                "received_events_url": "https://api.github.com/users/wvffle/received_events",
                "repos_url": "https://api.github.com/users/wvffle/repos",
                "site_admin": false,
                "starred_url": "https://api.github.com/users/wvffle/starred{/owner}{/repo}",
                "subscriptions_url": "https://api.github.com/users/wvffle/subscriptions",
                "type": "User",
                "url": "https://api.github.com/users/wvffle"
            },
            "commit_id": null,
            "commit_url": null,
            "created_at": "2019-08-26T11:26:09Z",
            "event": "unlabeled",
            "id": 2583373970,
            "label": {
                "color": "eb6420",
                "name": "refactoring"
            },
            "node_id": "MDE0OlVubGFiZWxlZEV2ZW50MjU4MzM3Mzk3MA==",
            "performed_via_github_app": null,
            "url": "https://api.github.com/repos/PrismarineJS/mineflayer/issues/events/2583373970"
        },
        {
            "actor": {
                "avatar_url": "https://avatars.githubusercontent.com/u/2346494?v=4",
                "events_url": "https://api.github.com/users/rom1504/events{/privacy}",
                "followers_url": "https://api.github.com/users/rom1504/followers",
                "following_url": "https://api.github.com/users/rom1504/following{/other_user}",
                "gists_url": "https://api.github.com/users/rom1504/gists{/gist_id}",
                "gravatar_id": "",
                "html_url": "https://github.com/rom1504",
                "id": 2346494,
                "login": "rom1504",
                "node_id": "MDQ6VXNlcjIzNDY0OTQ=",
                "organizations_url": "https://api.github.com/users/rom1504/orgs",
                "received_events_url": "https://api.github.com/users/rom1504/received_events",
                "repos_url": "https://api.github.com/users/rom1504/repos",
                "site_admin": false,
                "starred_url": "https://api.github.com/users/rom1504/starred{/owner}{/repo}",
                "subscriptions_url": "https://api.github.com/users/rom1504/subscriptions",
                "type": "User",
                "url": "https://api.github.com/users/rom1504"
            },
            "commit_id": null,
            "commit_url": null,
            "created_at": "2020-06-01T07:35:46Z",
            "event": "closed",
            "id": 3391898312,
            "node_id": "MDExOkNsb3NlZEV2ZW50MzM5MTg5ODMxMg==",
            "performed_via_github_app": null,
            "state_reason": null,
            "url": "https://api.github.com/repos/PrismarineJS/mineflayer/issues/events/3391898312"
        }
    ],
    "events_url": "https://api.github.com/repos/PrismarineJS/mineflayer/issues/859/events",
    "html_url": "https://github.com/PrismarineJS/mineflayer/issues/859",
    "id": 485185690,
    "labels": [],
    "labels_url": "https://api.github.com/repos/PrismarineJS/mineflayer/issues/859/labels{/name}",
    "locked": false,
    "milestone": null,
    "node_id": "MDU6SXNzdWU0ODUxODU2OTA=",
    "number": 859,
    "performed_via_github_app": null,
    "reactions": {
        "+1": 0,
        "-1": 0,
        "confused": 0,
        "eyes": 0,
        "heart": 0,
        "hooray": 0,
        "laugh": 0,
        "rocket": 0,
        "total_count": 0,
        "url": "https://api.github.com/repos/PrismarineJS/mineflayer/issues/859/reactions"
    },
    "repository_url": "https://api.github.com/repos/PrismarineJS/mineflayer",
    "state": "closed",
    "state_reason": "completed",
    "timeline_url": "https://api.github.com/repos/PrismarineJS/mineflayer/issues/859/timeline",
    "title": "Inconsistent event names",
    "updated_at": "2020-06-01T07:35:47Z",
    "url": "https://api.github.com/repos/PrismarineJS/mineflayer/issues/859",
    "user": {
        "avatar_url": "https://avatars.githubusercontent.com/u/13330620?v=4",
        "events_url": "https://api.github.com/users/wvffle/events{/privacy}",
        "followers_url": "https://api.github.com/users/wvffle/followers",
        "following_url": "https://api.github.com/users/wvffle/following{/other_user}",
        "gists_url": "https://api.github.com/users/wvffle/gists{/gist_id}",
        "gravatar_id": "",
        "html_url": "https://github.com/wvffle",
        "id": 13330620,
        "login": "wvffle",
        "node_id": "MDQ6VXNlcjEzMzMwNjIw",
        "organizations_url": "https://api.github.com/users/wvffle/orgs",
        "received_events_url": "https://api.github.com/users/wvffle/received_events",
        "repos_url": "https://api.github.com/users/wvffle/repos",
        "site_admin": false,
        "starred_url": "https://api.github.com/users/wvffle/starred{/owner}{/repo}",
        "subscriptions_url": "https://api.github.com/users/wvffle/subscriptions",
        "type": "User",
        "url": "https://api.github.com/users/wvffle"
    }
}