{
    "active_lock_reason": null,
    "assignee": null,
    "assignees": [],
    "author_association": "CONTRIBUTOR",
    "body": "\n***\n☝️ **Important announcement:** Greenkeeper will be saying goodbye 👋 and passing the torch to Snyk on June 3rd, 2020! [Find out how to migrate to Snyk and more at greenkeeper.io](https://greenkeeper.io)\n***\n## The dependency [minecraft-data](https://github.com/PrismarineJS/node-minecraft-data) was updated from `2.47.0` to `2.48.0`.\n\n🚨 [View failing branch](https://github.com/PrismarineJS/mineflayer/compare/master...PrismarineJS:greenkeeper%2Fminecraft-data-2.48.0).\n\nThis version is **covered** by your **current version range** and after updating it in your project **the build failed**.\n\n\n\n\nminecraft-data is a direct dependency of this project, and **it is very likely causing it to break**. If other packages depend on yours, this update is probably also breaking those in turn.\n\n\n\n<details>\n<summary>Status Details</summary>\n\n- ❌ **ci/circleci: build:** Your tests failed on CircleCI ([Details](https://circleci.com/gh/PrismarineJS/mineflayer/1141?utm_campaign=vcs-integration-link&utm_medium=referral&utm_source=github-build-link)).\n</details>\n\n\n---\n\n<details>\n<summary>Commits</summary>\n<p>The new version differs by 2 commits.</p>\n<ul>\n<li><a href=\"https://urls.greenkeeper.io/PrismarineJS/node-minecraft-data/commit/d1c1d194edc0fd7078b9cecf1280e3b0f0fe32b9\"><code>d1c1d19</code></a> <code>Release 2.48.0</code></li>\n<li><a href=\"https://urls.greenkeeper.io/PrismarineJS/node-minecraft-data/commit/4d6ff59e6b1cea13f35853c47456376fe31371f7\"><code>4d6ff59</code></a> <code>update mcdata to 2.48.0</code></li>\n</ul>\n<p>See the <a href=\"https://urls.greenkeeper.io/PrismarineJS/node-minecraft-data/compare/cc3656d3c0676b2f6bab718c33fe11a17d25494a...d1c1d194edc0fd7078b9cecf1280e3b0f0fe32b9\">full diff</a></p>\n</details>\n\n\n<details>\n<summary>FAQ and help</summary>\n\nThere is a collection of [frequently asked questions](https://greenkeeper.io/faq.html). If those don’t help, you can always [ask the humans behind Greenkeeper](https://github.com/greenkeeperio/greenkeeper/issues/new).\n</details>\n\n---\n\n\nYour [Greenkeeper](https://greenkeeper.io) Bot :palm_tree:\n",
    "closed_at": "2020-05-03T10:20:50Z",
    "comment_data": [
        {
            "author_association": "CONTRIBUTOR",
            "body": "After pinning to **2.47.0** your tests are passing again. [Downgrade this dependency 📌](https://github.com/PrismarineJS/mineflayer/compare/master...PrismarineJS:greenkeeper%2Fminecraft-data-pin-2.47.0).",
            "created_at": "2020-05-03T00:58:33Z",
            "html_url": "https://github.com/PrismarineJS/mineflayer/issues/966#issuecomment-623036336",
            "id": 623036336,
            "issue_url": "https://api.github.com/repos/PrismarineJS/mineflayer/issues/966",
            "node_id": "MDEyOklzc3VlQ29tbWVudDYyMzAzNjMzNg==",
            "performed_via_github_app": null,
            "reactions": {
                "+1": 0,
                "-1": 0,
                "confused": 0,
                "eyes": 0,
                "heart": 0,
                "hooray": 0,
                "laugh": 0,
                "rocket": 0,
                "total_count": 0,
                "url": "https://api.github.com/repos/PrismarineJS/mineflayer/issues/comments/623036336/reactions"
            },
            "updated_at": "2020-05-03T00:58:33Z",
            "url": "https://api.github.com/repos/PrismarineJS/mineflayer/issues/comments/623036336",
            "user": {
                "avatar_url": "https://avatars.githubusercontent.com/in/505?v=4",
                "events_url": "https://api.github.com/users/greenkeeper%5Bbot%5D/events{/privacy}",
                "followers_url": "https://api.github.com/users/greenkeeper%5Bbot%5D/followers",
                "following_url": "https://api.github.com/users/greenkeeper%5Bbot%5D/following{/other_user}",
                "gists_url": "https://api.github.com/users/greenkeeper%5Bbot%5D/gists{/gist_id}",
                "gravatar_id": "",
                "html_url": "https://github.com/apps/greenkeeper",
                "id": 23040076,
                "login": "greenkeeper[bot]",
                "node_id": "MDM6Qm90MjMwNDAwNzY=",
                "organizations_url": "https://api.github.com/users/greenkeeper%5Bbot%5D/orgs",
                "received_events_url": "https://api.github.com/users/greenkeeper%5Bbot%5D/received_events",
                "repos_url": "https://api.github.com/users/greenkeeper%5Bbot%5D/repos",
                "site_admin": false,
                "starred_url": "https://api.github.com/users/greenkeeper%5Bbot%5D/starred{/owner}{/repo}",
                "subscriptions_url": "https://api.github.com/users/greenkeeper%5Bbot%5D/subscriptions",
                "type": "Bot",
                "url": "https://api.github.com/users/greenkeeper%5Bbot%5D"
            }
        },
        {
            "author_association": "CONTRIBUTOR",
            "body": "- The `dependency` [minecraft-data](https://github.com/PrismarineJS/node-minecraft-data) was updated from `2.48.0` to `2.49.0`.\n\n\nYour tests are passing again with this update. [Explicitly upgrade to this version 🚀](https://github.com/PrismarineJS/mineflayer/compare/master...PrismarineJS:greenkeeper%2Fminecraft-data-2.49.0)\n\n\n\n<details>\n<summary>Commits</summary>\n<p>The new version differs by 3 commits.</p>\n<ul>\n<li><a href=\"https://urls.greenkeeper.io/PrismarineJS/node-minecraft-data/commit/921ae6e7b471f2ef7f317a986a27194145ec3498\"><code>921ae6e</code></a> <code>Release 2.49.0</code></li>\n<li><a href=\"https://urls.greenkeeper.io/PrismarineJS/node-minecraft-data/commit/be80cefbd6058eb140e10714d295ab717ba3369e\"><code>be80cef</code></a> <code>add loading test</code></li>\n<li><a href=\"https://urls.greenkeeper.io/PrismarineJS/node-minecraft-data/commit/8103f34ce7ba26eb6d395119f8d56bc3a902df18\"><code>8103f34</code></a> <code>update mcdata to 2.49.0</code></li>\n</ul>\n<p>See the <a href=\"https://urls.greenkeeper.io/PrismarineJS/node-minecraft-data/compare/d1c1d194edc0fd7078b9cecf1280e3b0f0fe32b9...921ae6e7b471f2ef7f317a986a27194145ec3498\">full diff</a></p>\n</details>",
            "created_at": "2020-05-03T10:19:11Z",
            "html_url": "https://github.com/PrismarineJS/mineflayer/issues/966#issuecomment-623087053",
            "id": 623087053,
            "issue_url": "https://api.github.com/repos/PrismarineJS/mineflayer/issues/966",
            "node_id": "MDEyOklzc3VlQ29tbWVudDYyMzA4NzA1Mw==",
            "performed_via_github_app": null,
            "reactions": {
                "+1": 0,
                "-1": 0,
                "confused": 0,
                "eyes": 0,
                "heart": 0,
                "hooray": 0,
                "laugh": 0,
                "rocket": 0,
                "total_count": 0,
                "url": "https://api.github.com/repos/PrismarineJS/mineflayer/issues/comments/623087053/reactions"
            },
            "updated_at": "2020-05-03T10:19:11Z",
            "url": "https://api.github.com/repos/PrismarineJS/mineflayer/issues/comments/623087053",
            "user": {
                "avatar_url": "https://avatars.githubusercontent.com/in/505?v=4",
                "events_url": "https://api.github.com/users/greenkeeper%5Bbot%5D/events{/privacy}",
                "followers_url": "https://api.github.com/users/greenkeeper%5Bbot%5D/followers",
                "following_url": "https://api.github.com/users/greenkeeper%5Bbot%5D/following{/other_user}",
                "gists_url": "https://api.github.com/users/greenkeeper%5Bbot%5D/gists{/gist_id}",
                "gravatar_id": "",
                "html_url": "https://github.com/apps/greenkeeper",
                "id": 23040076,
                "login": "greenkeeper[bot]",
                "node_id": "MDM6Qm90MjMwNDAwNzY=",
                "organizations_url": "https://api.github.com/users/greenkeeper%5Bbot%5D/orgs",
                "received_events_url": "https://api.github.com/users/greenkeeper%5Bbot%5D/received_events",
                "repos_url": "https://api.github.com/users/greenkeeper%5Bbot%5D/repos",
                "site_admin": false,
                "starred_url": "https://api.github.com/users/greenkeeper%5Bbot%5D/starred{/owner}{/repo}",
                "subscriptions_url": "https://api.github.com/users/greenkeeper%5Bbot%5D/subscriptions",
                "type": "Bot",
                "url": "https://api.github.com/users/greenkeeper%5Bbot%5D"
            }
        }
    ],
    "comments": 2,
    "comments_url": "https://api.github.com/repos/PrismarineJS/mineflayer/issues/966/comments",
    "created_at": "2020-05-03T00:51:32Z",
    "event_data": [
        {
            "actor": {
                "avatar_url": "https://avatars.githubusercontent.com/in/505?v=4",
                "events_url": "https://api.github.com/users/greenkeeper%5Bbot%5D/events{/privacy}",
                "followers_url": "https://api.github.com/users/greenkeeper%5Bbot%5D/followers",
                "following_url": "https://api.github.com/users/greenkeeper%5Bbot%5D/following{/other_user}",
                "gists_url": "https://api.github.com/users/greenkeeper%5Bbot%5D/gists{/gist_id}",
                "gravatar_id": "",
                "html_url": "https://github.com/apps/greenkeeper",
                "id": 23040076,
                "login": "greenkeeper[bot]",
                "node_id": "MDM6Qm90MjMwNDAwNzY=",
                "organizations_url": "https://api.github.com/users/greenkeeper%5Bbot%5D/orgs",
                "received_events_url": "https://api.github.com/users/greenkeeper%5Bbot%5D/received_events",
                "repos_url": "https://api.github.com/users/greenkeeper%5Bbot%5D/repos",
                "site_admin": false,
                "starred_url": "https://api.github.com/users/greenkeeper%5Bbot%5D/starred{/owner}{/repo}",
                "subscriptions_url": "https://api.github.com/users/greenkeeper%5Bbot%5D/subscriptions",
                "type": "Bot",
                "url": "https://api.github.com/users/greenkeeper%5Bbot%5D"
            },
            "commit_id": null,
            "commit_url": null,
            "created_at": "2020-05-03T00:51:33Z",
            "event": "labeled",
            "id": 3296944907,
            "label": {
                "color": "ededed",
                "name": "greenkeeper"
            },
            "node_id": "MDEyOkxhYmVsZWRFdmVudDMyOTY5NDQ5MDc=",
            "performed_via_github_app": null,
            "url": "https://api.github.com/repos/PrismarineJS/mineflayer/issues/events/3296944907"
        },
        {
            "actor": {
                "avatar_url": "https://avatars.githubusercontent.com/u/2346494?v=4",
                "events_url": "https://api.github.com/users/rom1504/events{/privacy}",
                "followers_url": "https://api.github.com/users/rom1504/followers",
                "following_url": "https://api.github.com/users/rom1504/following{/other_user}",
                "gists_url": "https://api.github.com/users/rom1504/gists{/gist_id}",
                "gravatar_id": "",
                "html_url": "https://github.com/rom1504",
                "id": 2346494,
                "login": "rom1504",
                "node_id": "MDQ6VXNlcjIzNDY0OTQ=",
                "organizations_url": "https://api.github.com/users/rom1504/orgs",
                "received_events_url": "https://api.github.com/users/rom1504/received_events",
                "repos_url": "https://api.github.com/users/rom1504/repos",
                "site_admin": false,
                "starred_url": "https://api.github.com/users/rom1504/starred{/owner}{/repo}",
                "subscriptions_url": "https://api.github.com/users/rom1504/subscriptions",
                "type": "User",
                "url": "https://api.github.com/users/rom1504"
            },
            "commit_id": null,
            "commit_url": null,
            "created_at": "2020-05-03T10:20:50Z",
            "event": "closed",
            "id": 3297269755,
            "node_id": "MDExOkNsb3NlZEV2ZW50MzI5NzI2OTc1NQ==",
            "performed_via_github_app": null,
            "state_reason": null,
            "url": "https://api.github.com/repos/PrismarineJS/mineflayer/issues/events/3297269755"
        }
    ],
    "events_url": "https://api.github.com/repos/PrismarineJS/mineflayer/issues/966/events",
    "html_url": "https://github.com/PrismarineJS/mineflayer/issues/966",
    "id": 611305423,
    "labels": [
        {
            "color": "ededed",
            "default": false,
            "description": null,
            "id": 351380056,
            "name": "greenkeeper",
            "node_id": "MDU6TGFiZWwzNTEzODAwNTY=",
            "url": "https://api.github.com/repos/PrismarineJS/mineflayer/labels/greenkeeper"
        }
    ],
    "labels_url": "https://api.github.com/repos/PrismarineJS/mineflayer/issues/966/labels{/name}",
    "locked": false,
    "milestone": null,
    "node_id": "MDU6SXNzdWU2MTEzMDU0MjM=",
    "number": 966,
    "performed_via_github_app": null,
    "reactions": {
        "+1": 0,
        "-1": 0,
        "confused": 0,
        "eyes": 0,
        "heart": 0,
        "hooray": 0,
        "laugh": 0,
        "rocket": 0,
        "total_count": 0,
        "url": "https://api.github.com/repos/PrismarineJS/mineflayer/issues/966/reactions"
    },
    "repository_url": "https://api.github.com/repos/PrismarineJS/mineflayer",
    "state": "closed",
    "state_reason": "completed",
    "timeline_url": "https://api.github.com/repos/PrismarineJS/mineflayer/issues/966/timeline",
    "title": "An in-range update of minecraft-data is breaking the build 🚨",
    "updated_at": "2020-05-03T10:20:50Z",
    "url": "https://api.github.com/repos/PrismarineJS/mineflayer/issues/966",
    "user": {
        "avatar_url": "https://avatars.githubusercontent.com/in/505?v=4",
        "events_url": "https://api.github.com/users/greenkeeper%5Bbot%5D/events{/privacy}",
        "followers_url": "https://api.github.com/users/greenkeeper%5Bbot%5D/followers",
        "following_url": "https://api.github.com/users/greenkeeper%5Bbot%5D/following{/other_user}",
        "gists_url": "https://api.github.com/users/greenkeeper%5Bbot%5D/gists{/gist_id}",
        "gravatar_id": "",
        "html_url": "https://github.com/apps/greenkeeper",
        "id": 23040076,
        "login": "greenkeeper[bot]",
        "node_id": "MDM6Qm90MjMwNDAwNzY=",
        "organizations_url": "https://api.github.com/users/greenkeeper%5Bbot%5D/orgs",
        "received_events_url": "https://api.github.com/users/greenkeeper%5Bbot%5D/received_events",
        "repos_url": "https://api.github.com/users/greenkeeper%5Bbot%5D/repos",
        "site_admin": false,
        "starred_url": "https://api.github.com/users/greenkeeper%5Bbot%5D/starred{/owner}{/repo}",
        "subscriptions_url": "https://api.github.com/users/greenkeeper%5Bbot%5D/subscriptions",
        "type": "Bot",
        "url": "https://api.github.com/users/greenkeeper%5Bbot%5D"
    }
}