{
    "_links": {
        "comments": {
            "href": "https://api.github.com/repos/PrismarineJS/prismarinejs.github.io/issues/69/comments"
        },
        "commits": {
            "href": "https://api.github.com/repos/PrismarineJS/prismarinejs.github.io/pulls/69/commits"
        },
        "html": {
            "href": "https://github.com/PrismarineJS/prismarinejs.github.io/pull/69"
        },
        "issue": {
            "href": "https://api.github.com/repos/PrismarineJS/prismarinejs.github.io/issues/69"
        },
        "review_comment": {
            "href": "https://api.github.com/repos/PrismarineJS/prismarinejs.github.io/pulls/comments{/number}"
        },
        "review_comments": {
            "href": "https://api.github.com/repos/PrismarineJS/prismarinejs.github.io/pulls/69/comments"
        },
        "self": {
            "href": "https://api.github.com/repos/PrismarineJS/prismarinejs.github.io/pulls/69"
        },
        "statuses": {
            "href": "https://api.github.com/repos/PrismarineJS/prismarinejs.github.io/statuses/f461887574e1fcfa5efbaf95b58c970366c1fd26"
        }
    },
    "active_lock_reason": null,
    "additions": 20,
    "assignee": null,
    "assignees": [],
    "author_association": "NONE",
    "auto_merge": null,
    "base": {
        "label": "PrismarineJS:src",
        "ref": "src",
        "repo": {
            "allow_forking": true,
            "archive_url": "https://api.github.com/repos/PrismarineJS/prismarinejs.github.io/{archive_format}{/ref}",
            "archived": false,
            "assignees_url": "https://api.github.com/repos/PrismarineJS/prismarinejs.github.io/assignees{/user}",
            "blobs_url": "https://api.github.com/repos/PrismarineJS/prismarinejs.github.io/git/blobs{/sha}",
            "branches_url": "https://api.github.com/repos/PrismarineJS/prismarinejs.github.io/branches{/branch}",
            "clone_url": "https://github.com/PrismarineJS/prismarinejs.github.io.git",
            "collaborators_url": "https://api.github.com/repos/PrismarineJS/prismarinejs.github.io/collaborators{/collaborator}",
            "comments_url": "https://api.github.com/repos/PrismarineJS/prismarinejs.github.io/comments{/number}",
            "commits_url": "https://api.github.com/repos/PrismarineJS/prismarinejs.github.io/commits{/sha}",
            "compare_url": "https://api.github.com/repos/PrismarineJS/prismarinejs.github.io/compare/{base}...{head}",
            "contents_url": "https://api.github.com/repos/PrismarineJS/prismarinejs.github.io/contents/{+path}",
            "contributors_url": "https://api.github.com/repos/PrismarineJS/prismarinejs.github.io/contributors",
            "created_at": "2015-02-23T23:08:27Z",
            "default_branch": "src",
            "deployments_url": "https://api.github.com/repos/PrismarineJS/prismarinejs.github.io/deployments",
            "description": "https://prismarinejs.github.io",
            "disabled": false,
            "downloads_url": "https://api.github.com/repos/PrismarineJS/prismarinejs.github.io/downloads",
            "events_url": "https://api.github.com/repos/PrismarineJS/prismarinejs.github.io/events",
            "fork": false,
            "forks": 4,
            "forks_count": 4,
            "forks_url": "https://api.github.com/repos/PrismarineJS/prismarinejs.github.io/forks",
            "full_name": "PrismarineJS/prismarinejs.github.io",
            "git_commits_url": "https://api.github.com/repos/PrismarineJS/prismarinejs.github.io/git/commits{/sha}",
            "git_refs_url": "https://api.github.com/repos/PrismarineJS/prismarinejs.github.io/git/refs{/sha}",
            "git_tags_url": "https://api.github.com/repos/PrismarineJS/prismarinejs.github.io/git/tags{/sha}",
            "git_url": "git://github.com/PrismarineJS/prismarinejs.github.io.git",
            "has_discussions": false,
            "has_downloads": true,
            "has_issues": true,
            "has_pages": true,
            "has_projects": true,
            "has_wiki": true,
            "homepage": "",
            "hooks_url": "https://api.github.com/repos/PrismarineJS/prismarinejs.github.io/hooks",
            "html_url": "https://github.com/PrismarineJS/prismarinejs.github.io",
            "id": 31234934,
            "is_template": false,
            "issue_comment_url": "https://api.github.com/repos/PrismarineJS/prismarinejs.github.io/issues/comments{/number}",
            "issue_events_url": "https://api.github.com/repos/PrismarineJS/prismarinejs.github.io/issues/events{/number}",
            "issues_url": "https://api.github.com/repos/PrismarineJS/prismarinejs.github.io/issues{/number}",
            "keys_url": "https://api.github.com/repos/PrismarineJS/prismarinejs.github.io/keys{/key_id}",
            "labels_url": "https://api.github.com/repos/PrismarineJS/prismarinejs.github.io/labels{/name}",
            "language": "JavaScript",
            "languages_url": "https://api.github.com/repos/PrismarineJS/prismarinejs.github.io/languages",
            "license": {
                "key": "mit",
                "name": "MIT License",
                "node_id": "MDc6TGljZW5zZTEz",
                "spdx_id": "MIT",
                "url": "https://api.github.com/licenses/mit"
            },
            "merges_url": "https://api.github.com/repos/PrismarineJS/prismarinejs.github.io/merges",
            "milestones_url": "https://api.github.com/repos/PrismarineJS/prismarinejs.github.io/milestones{/number}",
            "mirror_url": null,
            "name": "prismarinejs.github.io",
            "node_id": "MDEwOlJlcG9zaXRvcnkzMTIzNDkzNA==",
            "notifications_url": "https://api.github.com/repos/PrismarineJS/prismarinejs.github.io/notifications{?since,all,participating}",
            "open_issues": 5,
            "open_issues_count": 5,
            "owner": {
                "avatar_url": "https://avatars.githubusercontent.com/u/11053411?v=4",
                "events_url": "https://api.github.com/users/PrismarineJS/events{/privacy}",
                "followers_url": "https://api.github.com/users/PrismarineJS/followers",
                "following_url": "https://api.github.com/users/PrismarineJS/following{/other_user}",
                "gists_url": "https://api.github.com/users/PrismarineJS/gists{/gist_id}",
                "gravatar_id": "",
                "html_url": "https://github.com/PrismarineJS",
                "id": 11053411,
                "login": "PrismarineJS",
                "node_id": "MDEyOk9yZ2FuaXphdGlvbjExMDUzNDEx",
                "organizations_url": "https://api.github.com/users/PrismarineJS/orgs",
                "received_events_url": "https://api.github.com/users/PrismarineJS/received_events",
                "repos_url": "https://api.github.com/users/PrismarineJS/repos",
                "site_admin": false,
                "starred_url": "https://api.github.com/users/PrismarineJS/starred{/owner}{/repo}",
                "subscriptions_url": "https://api.github.com/users/PrismarineJS/subscriptions",
                "type": "Organization",
                "url": "https://api.github.com/users/PrismarineJS"
            },
            "private": false,
            "pulls_url": "https://api.github.com/repos/PrismarineJS/prismarinejs.github.io/pulls{/number}",
            "pushed_at": "2023-04-08T23:05:28Z",
            "releases_url": "https://api.github.com/repos/PrismarineJS/prismarinejs.github.io/releases{/id}",
            "size": 11198,
            "ssh_url": "git@github.com:PrismarineJS/prismarinejs.github.io.git",
            "stargazers_count": 10,
            "stargazers_url": "https://api.github.com/repos/PrismarineJS/prismarinejs.github.io/stargazers",
            "statuses_url": "https://api.github.com/repos/PrismarineJS/prismarinejs.github.io/statuses/{sha}",
            "subscribers_url": "https://api.github.com/repos/PrismarineJS/prismarinejs.github.io/subscribers",
            "subscription_url": "https://api.github.com/repos/PrismarineJS/prismarinejs.github.io/subscription",
            "svn_url": "https://github.com/PrismarineJS/prismarinejs.github.io",
            "tags_url": "https://api.github.com/repos/PrismarineJS/prismarinejs.github.io/tags",
            "teams_url": "https://api.github.com/repos/PrismarineJS/prismarinejs.github.io/teams",
            "topics": [
                "github-pages",
                "html",
                "javascript",
                "js-org",
                "react"
            ],
            "trees_url": "https://api.github.com/repos/PrismarineJS/prismarinejs.github.io/git/trees{/sha}",
            "updated_at": "2023-05-06T03:32:14Z",
            "url": "https://api.github.com/repos/PrismarineJS/prismarinejs.github.io",
            "visibility": "public",
            "watchers": 10,
            "watchers_count": 10,
            "web_commit_signoff_required": false
        },
        "sha": "c50f6beb9f5b3f504d5c477ae875fd995c7656d3",
        "user": {
            "avatar_url": "https://avatars.githubusercontent.com/u/11053411?v=4",
            "events_url": "https://api.github.com/users/PrismarineJS/events{/privacy}",
            "followers_url": "https://api.github.com/users/PrismarineJS/followers",
            "following_url": "https://api.github.com/users/PrismarineJS/following{/other_user}",
            "gists_url": "https://api.github.com/users/PrismarineJS/gists{/gist_id}",
            "gravatar_id": "",
            "html_url": "https://github.com/PrismarineJS",
            "id": 11053411,
            "login": "PrismarineJS",
            "node_id": "MDEyOk9yZ2FuaXphdGlvbjExMDUzNDEx",
            "organizations_url": "https://api.github.com/users/PrismarineJS/orgs",
            "received_events_url": "https://api.github.com/users/PrismarineJS/received_events",
            "repos_url": "https://api.github.com/users/PrismarineJS/repos",
            "site_admin": false,
            "starred_url": "https://api.github.com/users/PrismarineJS/starred{/owner}{/repo}",
            "subscriptions_url": "https://api.github.com/users/PrismarineJS/subscriptions",
            "type": "Organization",
            "url": "https://api.github.com/users/PrismarineJS"
        }
    },
    "body": "Adding an contribution guideline at this project.",
    "changed_files": 1,
    "closed_at": "2023-07-29T09:53:08Z",
    "comment_data": [],
    "comment_regular_data": [
        {
            "author_association": "MEMBER",
            "body": "please open to prismarine template to discuss if we would like to have this guide in prismarinejs",
            "created_at": "2023-07-29T09:53:08Z",
            "html_url": "https://github.com/PrismarineJS/prismarinejs.github.io/pull/69#issuecomment-1656693666",
            "id": 1656693666,
            "issue_url": "https://api.github.com/repos/PrismarineJS/prismarinejs.github.io/issues/69",
            "node_id": "IC_kwDOAdybds5ivyOi",
            "performed_via_github_app": null,
            "reactions": {
                "+1": 0,
                "-1": 0,
                "confused": 0,
                "eyes": 0,
                "heart": 0,
                "hooray": 0,
                "laugh": 0,
                "rocket": 0,
                "total_count": 0,
                "url": "https://api.github.com/repos/PrismarineJS/prismarinejs.github.io/issues/comments/1656693666/reactions"
            },
            "updated_at": "2023-07-29T09:53:08Z",
            "url": "https://api.github.com/repos/PrismarineJS/prismarinejs.github.io/issues/comments/1656693666",
            "user": {
                "avatar_url": "https://avatars.githubusercontent.com/u/2346494?v=4",
                "events_url": "https://api.github.com/users/rom1504/events{/privacy}",
                "followers_url": "https://api.github.com/users/rom1504/followers",
                "following_url": "https://api.github.com/users/rom1504/following{/other_user}",
                "gists_url": "https://api.github.com/users/rom1504/gists{/gist_id}",
                "gravatar_id": "",
                "html_url": "https://github.com/rom1504",
                "id": 2346494,
                "login": "rom1504",
                "node_id": "MDQ6VXNlcjIzNDY0OTQ=",
                "organizations_url": "https://api.github.com/users/rom1504/orgs",
                "received_events_url": "https://api.github.com/users/rom1504/received_events",
                "repos_url": "https://api.github.com/users/rom1504/repos",
                "site_admin": false,
                "starred_url": "https://api.github.com/users/rom1504/starred{/owner}{/repo}",
                "subscriptions_url": "https://api.github.com/users/rom1504/subscriptions",
                "type": "User",
                "url": "https://api.github.com/users/rom1504"
            }
        }
    ],
    "comments": 1,
    "comments_url": "https://api.github.com/repos/PrismarineJS/prismarinejs.github.io/issues/69/comments",
    "commit_data": [
        {
            "author": {
                "avatar_url": "https://avatars.githubusercontent.com/u/97875033?v=4",
                "events_url": "https://api.github.com/users/AugustinMauroy/events{/privacy}",
                "followers_url": "https://api.github.com/users/AugustinMauroy/followers",
                "following_url": "https://api.github.com/users/AugustinMauroy/following{/other_user}",
                "gists_url": "https://api.github.com/users/AugustinMauroy/gists{/gist_id}",
                "gravatar_id": "",
                "html_url": "https://github.com/AugustinMauroy",
                "id": 97875033,
                "login": "AugustinMauroy",
                "node_id": "U_kgDOBdV0WQ",
                "organizations_url": "https://api.github.com/users/AugustinMauroy/orgs",
                "received_events_url": "https://api.github.com/users/AugustinMauroy/received_events",
                "repos_url": "https://api.github.com/users/AugustinMauroy/repos",
                "site_admin": false,
                "starred_url": "https://api.github.com/users/AugustinMauroy/starred{/owner}{/repo}",
                "subscriptions_url": "https://api.github.com/users/AugustinMauroy/subscriptions",
                "type": "User",
                "url": "https://api.github.com/users/AugustinMauroy"
            },
            "comments_url": "https://api.github.com/repos/PrismarineJS/prismarinejs.github.io/commits/f461887574e1fcfa5efbaf95b58c970366c1fd26/comments",
            "commit": {
                "author": {
                    "date": "2023-02-10T15:05:22Z",
                    "email": "97875033+AugustinMauroy@users.noreply.github.com",
                    "name": "Augustin Mauroy"
                },
                "comment_count": 0,
                "committer": {
                    "date": "2023-02-10T15:05:22Z",
                    "email": "97875033+AugustinMauroy@users.noreply.github.com",
                    "name": "Augustin Mauroy"
                },
                "message": "chore(contribute): introduce the contribution guideline",
                "tree": {
                    "sha": "07a936582bfba29d5addf15d075ef3e5ea7372c7",
                    "url": "https://api.github.com/repos/PrismarineJS/prismarinejs.github.io/git/trees/07a936582bfba29d5addf15d075ef3e5ea7372c7"
                },
                "url": "https://api.github.com/repos/PrismarineJS/prismarinejs.github.io/git/commits/f461887574e1fcfa5efbaf95b58c970366c1fd26",
                "verification": {
                    "payload": null,
                    "reason": "unsigned",
                    "signature": null,
                    "verified": false
                }
            },
            "committer": {
                "avatar_url": "https://avatars.githubusercontent.com/u/97875033?v=4",
                "events_url": "https://api.github.com/users/AugustinMauroy/events{/privacy}",
                "followers_url": "https://api.github.com/users/AugustinMauroy/followers",
                "following_url": "https://api.github.com/users/AugustinMauroy/following{/other_user}",
                "gists_url": "https://api.github.com/users/AugustinMauroy/gists{/gist_id}",
                "gravatar_id": "",
                "html_url": "https://github.com/AugustinMauroy",
                "id": 97875033,
                "login": "AugustinMauroy",
                "node_id": "U_kgDOBdV0WQ",
                "organizations_url": "https://api.github.com/users/AugustinMauroy/orgs",
                "received_events_url": "https://api.github.com/users/AugustinMauroy/received_events",
                "repos_url": "https://api.github.com/users/AugustinMauroy/repos",
                "site_admin": false,
                "starred_url": "https://api.github.com/users/AugustinMauroy/starred{/owner}{/repo}",
                "subscriptions_url": "https://api.github.com/users/AugustinMauroy/subscriptions",
                "type": "User",
                "url": "https://api.github.com/users/AugustinMauroy"
            },
            "html_url": "https://github.com/PrismarineJS/prismarinejs.github.io/commit/f461887574e1fcfa5efbaf95b58c970366c1fd26",
            "node_id": "C_kwDOI75ygNoAKGY0NjE4ODc1NzRlMWZjZmE1ZWZiYWY5NWI1OGM5NzAzNjZjMWZkMjY",
            "parents": [
                {
                    "html_url": "https://github.com/PrismarineJS/prismarinejs.github.io/commit/c50f6beb9f5b3f504d5c477ae875fd995c7656d3",
                    "sha": "c50f6beb9f5b3f504d5c477ae875fd995c7656d3",
                    "url": "https://api.github.com/repos/PrismarineJS/prismarinejs.github.io/commits/c50f6beb9f5b3f504d5c477ae875fd995c7656d3"
                }
            ],
            "sha": "f461887574e1fcfa5efbaf95b58c970366c1fd26",
            "url": "https://api.github.com/repos/PrismarineJS/prismarinejs.github.io/commits/f461887574e1fcfa5efbaf95b58c970366c1fd26"
        }
    ],
    "commits": 1,
    "commits_url": "https://api.github.com/repos/PrismarineJS/prismarinejs.github.io/pulls/69/commits",
    "created_at": "2023-02-10T15:05:51Z",
    "deletions": 0,
    "diff_url": "https://github.com/PrismarineJS/prismarinejs.github.io/pull/69.diff",
    "draft": false,
    "head": {
        "label": "AugustinMauroy:chore(contributing)",
        "ref": "chore(contributing)",
        "repo": {
            "allow_forking": true,
            "archive_url": "https://api.github.com/repos/AugustinMauroy/prismarinejs.github.io/{archive_format}{/ref}",
            "archived": false,
            "assignees_url": "https://api.github.com/repos/AugustinMauroy/prismarinejs.github.io/assignees{/user}",
            "blobs_url": "https://api.github.com/repos/AugustinMauroy/prismarinejs.github.io/git/blobs{/sha}",
            "branches_url": "https://api.github.com/repos/AugustinMauroy/prismarinejs.github.io/branches{/branch}",
            "clone_url": "https://github.com/AugustinMauroy/prismarinejs.github.io.git",
            "collaborators_url": "https://api.github.com/repos/AugustinMauroy/prismarinejs.github.io/collaborators{/collaborator}",
            "comments_url": "https://api.github.com/repos/AugustinMauroy/prismarinejs.github.io/comments{/number}",
            "commits_url": "https://api.github.com/repos/AugustinMauroy/prismarinejs.github.io/commits{/sha}",
            "compare_url": "https://api.github.com/repos/AugustinMauroy/prismarinejs.github.io/compare/{base}...{head}",
            "contents_url": "https://api.github.com/repos/AugustinMauroy/prismarinejs.github.io/contents/{+path}",
            "contributors_url": "https://api.github.com/repos/AugustinMauroy/prismarinejs.github.io/contributors",
            "created_at": "2023-02-09T16:59:32Z",
            "default_branch": "src",
            "deployments_url": "https://api.github.com/repos/AugustinMauroy/prismarinejs.github.io/deployments",
            "description": "https://prismarine.js.org/",
            "disabled": false,
            "downloads_url": "https://api.github.com/repos/AugustinMauroy/prismarinejs.github.io/downloads",
            "events_url": "https://api.github.com/repos/AugustinMauroy/prismarinejs.github.io/events",
            "fork": true,
            "forks": 0,
            "forks_count": 0,
            "forks_url": "https://api.github.com/repos/AugustinMauroy/prismarinejs.github.io/forks",
            "full_name": "AugustinMauroy/prismarinejs.github.io",
            "git_commits_url": "https://api.github.com/repos/AugustinMauroy/prismarinejs.github.io/git/commits{/sha}",
            "git_refs_url": "https://api.github.com/repos/AugustinMauroy/prismarinejs.github.io/git/refs{/sha}",
            "git_tags_url": "https://api.github.com/repos/AugustinMauroy/prismarinejs.github.io/git/tags{/sha}",
            "git_url": "git://github.com/AugustinMauroy/prismarinejs.github.io.git",
            "has_discussions": false,
            "has_downloads": true,
            "has_issues": false,
            "has_pages": false,
            "has_projects": true,
            "has_wiki": true,
            "homepage": "",
            "hooks_url": "https://api.github.com/repos/AugustinMauroy/prismarinejs.github.io/hooks",
            "html_url": "https://github.com/AugustinMauroy/prismarinejs.github.io",
            "id": 599683712,
            "is_template": false,
            "issue_comment_url": "https://api.github.com/repos/AugustinMauroy/prismarinejs.github.io/issues/comments{/number}",
            "issue_events_url": "https://api.github.com/repos/AugustinMauroy/prismarinejs.github.io/issues/events{/number}",
            "issues_url": "https://api.github.com/repos/AugustinMauroy/prismarinejs.github.io/issues{/number}",
            "keys_url": "https://api.github.com/repos/AugustinMauroy/prismarinejs.github.io/keys{/key_id}",
            "labels_url": "https://api.github.com/repos/AugustinMauroy/prismarinejs.github.io/labels{/name}",
            "language": null,
            "languages_url": "https://api.github.com/repos/AugustinMauroy/prismarinejs.github.io/languages",
            "license": {
                "key": "mit",
                "name": "MIT License",
                "node_id": "MDc6TGljZW5zZTEz",
                "spdx_id": "MIT",
                "url": "https://api.github.com/licenses/mit"
            },
            "merges_url": "https://api.github.com/repos/AugustinMauroy/prismarinejs.github.io/merges",
            "milestones_url": "https://api.github.com/repos/AugustinMauroy/prismarinejs.github.io/milestones{/number}",
            "mirror_url": null,
            "name": "prismarinejs.github.io",
            "node_id": "R_kgDOI75ygA",
            "notifications_url": "https://api.github.com/repos/AugustinMauroy/prismarinejs.github.io/notifications{?since,all,participating}",
            "open_issues": 0,
            "open_issues_count": 0,
            "owner": {
                "avatar_url": "https://avatars.githubusercontent.com/u/97875033?v=4",
                "events_url": "https://api.github.com/users/AugustinMauroy/events{/privacy}",
                "followers_url": "https://api.github.com/users/AugustinMauroy/followers",
                "following_url": "https://api.github.com/users/AugustinMauroy/following{/other_user}",
                "gists_url": "https://api.github.com/users/AugustinMauroy/gists{/gist_id}",
                "gravatar_id": "",
                "html_url": "https://github.com/AugustinMauroy",
                "id": 97875033,
                "login": "AugustinMauroy",
                "node_id": "U_kgDOBdV0WQ",
                "organizations_url": "https://api.github.com/users/AugustinMauroy/orgs",
                "received_events_url": "https://api.github.com/users/AugustinMauroy/received_events",
                "repos_url": "https://api.github.com/users/AugustinMauroy/repos",
                "site_admin": false,
                "starred_url": "https://api.github.com/users/AugustinMauroy/starred{/owner}{/repo}",
                "subscriptions_url": "https://api.github.com/users/AugustinMauroy/subscriptions",
                "type": "User",
                "url": "https://api.github.com/users/AugustinMauroy"
            },
            "private": false,
            "pulls_url": "https://api.github.com/repos/AugustinMauroy/prismarinejs.github.io/pulls{/number}",
            "pushed_at": "2023-05-29T15:08:57Z",
            "releases_url": "https://api.github.com/repos/AugustinMauroy/prismarinejs.github.io/releases{/id}",
            "size": 11034,
            "ssh_url": "git@github.com:AugustinMauroy/prismarinejs.github.io.git",
            "stargazers_count": 0,
            "stargazers_url": "https://api.github.com/repos/AugustinMauroy/prismarinejs.github.io/stargazers",
            "statuses_url": "https://api.github.com/repos/AugustinMauroy/prismarinejs.github.io/statuses/{sha}",
            "subscribers_url": "https://api.github.com/repos/AugustinMauroy/prismarinejs.github.io/subscribers",
            "subscription_url": "https://api.github.com/repos/AugustinMauroy/prismarinejs.github.io/subscription",
            "svn_url": "https://github.com/AugustinMauroy/prismarinejs.github.io",
            "tags_url": "https://api.github.com/repos/AugustinMauroy/prismarinejs.github.io/tags",
            "teams_url": "https://api.github.com/repos/AugustinMauroy/prismarinejs.github.io/teams",
            "topics": [],
            "trees_url": "https://api.github.com/repos/AugustinMauroy/prismarinejs.github.io/git/trees{/sha}",
            "updated_at": "2023-02-08T21:25:07Z",
            "url": "https://api.github.com/repos/AugustinMauroy/prismarinejs.github.io",
            "visibility": "public",
            "watchers": 0,
            "watchers_count": 0,
            "web_commit_signoff_required": false
        },
        "sha": "f461887574e1fcfa5efbaf95b58c970366c1fd26",
        "user": {
            "avatar_url": "https://avatars.githubusercontent.com/u/97875033?v=4",
            "events_url": "https://api.github.com/users/AugustinMauroy/events{/privacy}",
            "followers_url": "https://api.github.com/users/AugustinMauroy/followers",
            "following_url": "https://api.github.com/users/AugustinMauroy/following{/other_user}",
            "gists_url": "https://api.github.com/users/AugustinMauroy/gists{/gist_id}",
            "gravatar_id": "",
            "html_url": "https://github.com/AugustinMauroy",
            "id": 97875033,
            "login": "AugustinMauroy",
            "node_id": "U_kgDOBdV0WQ",
            "organizations_url": "https://api.github.com/users/AugustinMauroy/orgs",
            "received_events_url": "https://api.github.com/users/AugustinMauroy/received_events",
            "repos_url": "https://api.github.com/users/AugustinMauroy/repos",
            "site_admin": false,
            "starred_url": "https://api.github.com/users/AugustinMauroy/starred{/owner}{/repo}",
            "subscriptions_url": "https://api.github.com/users/AugustinMauroy/subscriptions",
            "type": "User",
            "url": "https://api.github.com/users/AugustinMauroy"
        }
    },
    "html_url": "https://github.com/PrismarineJS/prismarinejs.github.io/pull/69",
    "id": 1236835973,
    "issue_url": "https://api.github.com/repos/PrismarineJS/prismarinejs.github.io/issues/69",
    "labels": [],
    "locked": false,
    "maintainer_can_modify": false,
    "merge_commit_sha": "f1b971a79fa83db19eb306dff31a9e49ab51eda9",
    "mergeable": true,
    "mergeable_state": "behind",
    "merged": false,
    "merged_at": null,
    "merged_by": null,
    "milestone": null,
    "node_id": "PR_kwDOAdybds5JuJ6F",
    "number": 69,
    "patch_url": "https://github.com/PrismarineJS/prismarinejs.github.io/pull/69.patch",
    "rebaseable": false,
    "requested_reviewers": [],
    "requested_teams": [],
    "review_comment_url": "https://api.github.com/repos/PrismarineJS/prismarinejs.github.io/pulls/comments{/number}",
    "review_comments": 0,
    "review_comments_url": "https://api.github.com/repos/PrismarineJS/prismarinejs.github.io/pulls/69/comments",
    "state": "closed",
    "statuses_url": "https://api.github.com/repos/PrismarineJS/prismarinejs.github.io/statuses/f461887574e1fcfa5efbaf95b58c970366c1fd26",
    "title": "chore(contribute): introduce the contribution guideline",
    "updated_at": "2023-07-29T09:53:09Z",
    "url": "https://api.github.com/repos/PrismarineJS/prismarinejs.github.io/pulls/69",
    "user": {
        "avatar_url": "https://avatars.githubusercontent.com/u/97875033?v=4",
        "events_url": "https://api.github.com/users/AugustinMauroy/events{/privacy}",
        "followers_url": "https://api.github.com/users/AugustinMauroy/followers",
        "following_url": "https://api.github.com/users/AugustinMauroy/following{/other_user}",
        "gists_url": "https://api.github.com/users/AugustinMauroy/gists{/gist_id}",
        "gravatar_id": "",
        "html_url": "https://github.com/AugustinMauroy",
        "id": 97875033,
        "login": "AugustinMauroy",
        "node_id": "U_kgDOBdV0WQ",
        "organizations_url": "https://api.github.com/users/AugustinMauroy/orgs",
        "received_events_url": "https://api.github.com/users/AugustinMauroy/received_events",
        "repos_url": "https://api.github.com/users/AugustinMauroy/repos",
        "site_admin": false,
        "starred_url": "https://api.github.com/users/AugustinMauroy/starred{/owner}{/repo}",
        "subscriptions_url": "https://api.github.com/users/AugustinMauroy/subscriptions",
        "type": "User",
        "url": "https://api.github.com/users/AugustinMauroy"
    }
}