{
    "_links": {
        "comments": {
            "href": "https://api.github.com/repos/PrismarineJS/prismarinejs.github.io/issues/8/comments"
        },
        "commits": {
            "href": "https://api.github.com/repos/PrismarineJS/prismarinejs.github.io/pulls/8/commits"
        },
        "html": {
            "href": "https://github.com/PrismarineJS/prismarinejs.github.io/pull/8"
        },
        "issue": {
            "href": "https://api.github.com/repos/PrismarineJS/prismarinejs.github.io/issues/8"
        },
        "review_comment": {
            "href": "https://api.github.com/repos/PrismarineJS/prismarinejs.github.io/pulls/comments{/number}"
        },
        "review_comments": {
            "href": "https://api.github.com/repos/PrismarineJS/prismarinejs.github.io/pulls/8/comments"
        },
        "self": {
            "href": "https://api.github.com/repos/PrismarineJS/prismarinejs.github.io/pulls/8"
        },
        "statuses": {
            "href": "https://api.github.com/repos/PrismarineJS/prismarinejs.github.io/statuses/74512de239977c52eebfd00fa1012d1c638b2951"
        }
    },
    "active_lock_reason": null,
    "additions": 222,
    "assignee": null,
    "assignees": [],
    "author_association": "MEMBER",
    "auto_merge": null,
    "base": {
        "label": "PrismarineJS:master",
        "ref": "master",
        "repo": {
            "allow_forking": true,
            "archive_url": "https://api.github.com/repos/PrismarineJS/prismarinejs.github.io/{archive_format}{/ref}",
            "archived": false,
            "assignees_url": "https://api.github.com/repos/PrismarineJS/prismarinejs.github.io/assignees{/user}",
            "blobs_url": "https://api.github.com/repos/PrismarineJS/prismarinejs.github.io/git/blobs{/sha}",
            "branches_url": "https://api.github.com/repos/PrismarineJS/prismarinejs.github.io/branches{/branch}",
            "clone_url": "https://github.com/PrismarineJS/prismarinejs.github.io.git",
            "collaborators_url": "https://api.github.com/repos/PrismarineJS/prismarinejs.github.io/collaborators{/collaborator}",
            "comments_url": "https://api.github.com/repos/PrismarineJS/prismarinejs.github.io/comments{/number}",
            "commits_url": "https://api.github.com/repos/PrismarineJS/prismarinejs.github.io/commits{/sha}",
            "compare_url": "https://api.github.com/repos/PrismarineJS/prismarinejs.github.io/compare/{base}...{head}",
            "contents_url": "https://api.github.com/repos/PrismarineJS/prismarinejs.github.io/contents/{+path}",
            "contributors_url": "https://api.github.com/repos/PrismarineJS/prismarinejs.github.io/contributors",
            "created_at": "2015-02-23T23:08:27Z",
            "default_branch": "src",
            "deployments_url": "https://api.github.com/repos/PrismarineJS/prismarinejs.github.io/deployments",
            "description": "https://prismarinejs.github.io",
            "disabled": false,
            "downloads_url": "https://api.github.com/repos/PrismarineJS/prismarinejs.github.io/downloads",
            "events_url": "https://api.github.com/repos/PrismarineJS/prismarinejs.github.io/events",
            "fork": false,
            "forks": 5,
            "forks_count": 5,
            "forks_url": "https://api.github.com/repos/PrismarineJS/prismarinejs.github.io/forks",
            "full_name": "PrismarineJS/prismarinejs.github.io",
            "git_commits_url": "https://api.github.com/repos/PrismarineJS/prismarinejs.github.io/git/commits{/sha}",
            "git_refs_url": "https://api.github.com/repos/PrismarineJS/prismarinejs.github.io/git/refs{/sha}",
            "git_tags_url": "https://api.github.com/repos/PrismarineJS/prismarinejs.github.io/git/tags{/sha}",
            "git_url": "git://github.com/PrismarineJS/prismarinejs.github.io.git",
            "has_discussions": false,
            "has_downloads": true,
            "has_issues": true,
            "has_pages": true,
            "has_projects": true,
            "has_wiki": true,
            "homepage": "",
            "hooks_url": "https://api.github.com/repos/PrismarineJS/prismarinejs.github.io/hooks",
            "html_url": "https://github.com/PrismarineJS/prismarinejs.github.io",
            "id": 31234934,
            "is_template": false,
            "issue_comment_url": "https://api.github.com/repos/PrismarineJS/prismarinejs.github.io/issues/comments{/number}",
            "issue_events_url": "https://api.github.com/repos/PrismarineJS/prismarinejs.github.io/issues/events{/number}",
            "issues_url": "https://api.github.com/repos/PrismarineJS/prismarinejs.github.io/issues{/number}",
            "keys_url": "https://api.github.com/repos/PrismarineJS/prismarinejs.github.io/keys{/key_id}",
            "labels_url": "https://api.github.com/repos/PrismarineJS/prismarinejs.github.io/labels{/name}",
            "language": "JavaScript",
            "languages_url": "https://api.github.com/repos/PrismarineJS/prismarinejs.github.io/languages",
            "license": {
                "key": "mit",
                "name": "MIT License",
                "node_id": "MDc6TGljZW5zZTEz",
                "spdx_id": "MIT",
                "url": "https://api.github.com/licenses/mit"
            },
            "merges_url": "https://api.github.com/repos/PrismarineJS/prismarinejs.github.io/merges",
            "milestones_url": "https://api.github.com/repos/PrismarineJS/prismarinejs.github.io/milestones{/number}",
            "mirror_url": null,
            "name": "prismarinejs.github.io",
            "node_id": "MDEwOlJlcG9zaXRvcnkzMTIzNDkzNA==",
            "notifications_url": "https://api.github.com/repos/PrismarineJS/prismarinejs.github.io/notifications{?since,all,participating}",
            "open_issues": 8,
            "open_issues_count": 8,
            "owner": {
                "avatar_url": "https://avatars.githubusercontent.com/u/11053411?v=4",
                "events_url": "https://api.github.com/users/PrismarineJS/events{/privacy}",
                "followers_url": "https://api.github.com/users/PrismarineJS/followers",
                "following_url": "https://api.github.com/users/PrismarineJS/following{/other_user}",
                "gists_url": "https://api.github.com/users/PrismarineJS/gists{/gist_id}",
                "gravatar_id": "",
                "html_url": "https://github.com/PrismarineJS",
                "id": 11053411,
                "login": "PrismarineJS",
                "node_id": "MDEyOk9yZ2FuaXphdGlvbjExMDUzNDEx",
                "organizations_url": "https://api.github.com/users/PrismarineJS/orgs",
                "received_events_url": "https://api.github.com/users/PrismarineJS/received_events",
                "repos_url": "https://api.github.com/users/PrismarineJS/repos",
                "site_admin": false,
                "starred_url": "https://api.github.com/users/PrismarineJS/starred{/owner}{/repo}",
                "subscriptions_url": "https://api.github.com/users/PrismarineJS/subscriptions",
                "type": "Organization",
                "url": "https://api.github.com/users/PrismarineJS"
            },
            "private": false,
            "pulls_url": "https://api.github.com/repos/PrismarineJS/prismarinejs.github.io/pulls{/number}",
            "pushed_at": "2023-04-08T23:05:28Z",
            "releases_url": "https://api.github.com/repos/PrismarineJS/prismarinejs.github.io/releases{/id}",
            "size": 11198,
            "ssh_url": "git@github.com:PrismarineJS/prismarinejs.github.io.git",
            "stargazers_count": 9,
            "stargazers_url": "https://api.github.com/repos/PrismarineJS/prismarinejs.github.io/stargazers",
            "statuses_url": "https://api.github.com/repos/PrismarineJS/prismarinejs.github.io/statuses/{sha}",
            "subscribers_url": "https://api.github.com/repos/PrismarineJS/prismarinejs.github.io/subscribers",
            "subscription_url": "https://api.github.com/repos/PrismarineJS/prismarinejs.github.io/subscription",
            "svn_url": "https://github.com/PrismarineJS/prismarinejs.github.io",
            "tags_url": "https://api.github.com/repos/PrismarineJS/prismarinejs.github.io/tags",
            "teams_url": "https://api.github.com/repos/PrismarineJS/prismarinejs.github.io/teams",
            "topics": [
                "github-pages",
                "html",
                "javascript",
                "js-org",
                "react"
            ],
            "trees_url": "https://api.github.com/repos/PrismarineJS/prismarinejs.github.io/git/trees{/sha}",
            "updated_at": "2023-04-05T19:25:01Z",
            "url": "https://api.github.com/repos/PrismarineJS/prismarinejs.github.io",
            "visibility": "public",
            "watchers": 9,
            "watchers_count": 9,
            "web_commit_signoff_required": false
        },
        "sha": "bb3c8527231ff770f3832ce4c3c1eb4e5d2db21d",
        "user": {
            "avatar_url": "https://avatars.githubusercontent.com/u/11053411?v=4",
            "events_url": "https://api.github.com/users/PrismarineJS/events{/privacy}",
            "followers_url": "https://api.github.com/users/PrismarineJS/followers",
            "following_url": "https://api.github.com/users/PrismarineJS/following{/other_user}",
            "gists_url": "https://api.github.com/users/PrismarineJS/gists{/gist_id}",
            "gravatar_id": "",
            "html_url": "https://github.com/PrismarineJS",
            "id": 11053411,
            "login": "PrismarineJS",
            "node_id": "MDEyOk9yZ2FuaXphdGlvbjExMDUzNDEx",
            "organizations_url": "https://api.github.com/users/PrismarineJS/orgs",
            "received_events_url": "https://api.github.com/users/PrismarineJS/received_events",
            "repos_url": "https://api.github.com/users/PrismarineJS/repos",
            "site_admin": false,
            "starred_url": "https://api.github.com/users/PrismarineJS/starred{/owner}{/repo}",
            "subscriptions_url": "https://api.github.com/users/PrismarineJS/subscriptions",
            "type": "Organization",
            "url": "https://api.github.com/users/PrismarineJS"
        }
    },
    "body": "I was bored one day and saw that the PrismarineJS project's website needed a bit of a facelift, so I got to work on updating the design, minifying the code, optimizing SEO, etc. I also compiled Bootstrap v4 Alpha myself and applied it to the repo.\n\nThe website _should_ look better and load a little bit faster now.\n",
    "changed_files": 2,
    "closed_at": "2016-03-13T17:53:00Z",
    "comment_data": [],
    "comment_regular_data": [
        {
            "author_association": "MEMBER",
            "body": "Can you put it also on your gh-pages branch so we can see how it looks like ?\n",
            "created_at": "2016-03-13T12:41:37Z",
            "html_url": "https://github.com/PrismarineJS/prismarinejs.github.io/pull/8#issuecomment-195949585",
            "id": 195949585,
            "issue_url": "https://api.github.com/repos/PrismarineJS/prismarinejs.github.io/issues/8",
            "node_id": "MDEyOklzc3VlQ29tbWVudDE5NTk0OTU4NQ==",
            "performed_via_github_app": null,
            "reactions": {
                "+1": 0,
                "-1": 0,
                "confused": 0,
                "eyes": 0,
                "heart": 0,
                "hooray": 0,
                "laugh": 0,
                "rocket": 0,
                "total_count": 0,
                "url": "https://api.github.com/repos/PrismarineJS/prismarinejs.github.io/issues/comments/195949585/reactions"
            },
            "updated_at": "2016-03-13T12:41:37Z",
            "url": "https://api.github.com/repos/PrismarineJS/prismarinejs.github.io/issues/comments/195949585",
            "user": {
                "avatar_url": "https://avatars.githubusercontent.com/u/2346494?v=4",
                "events_url": "https://api.github.com/users/rom1504/events{/privacy}",
                "followers_url": "https://api.github.com/users/rom1504/followers",
                "following_url": "https://api.github.com/users/rom1504/following{/other_user}",
                "gists_url": "https://api.github.com/users/rom1504/gists{/gist_id}",
                "gravatar_id": "",
                "html_url": "https://github.com/rom1504",
                "id": 2346494,
                "login": "rom1504",
                "node_id": "MDQ6VXNlcjIzNDY0OTQ=",
                "organizations_url": "https://api.github.com/users/rom1504/orgs",
                "received_events_url": "https://api.github.com/users/rom1504/received_events",
                "repos_url": "https://api.github.com/users/rom1504/repos",
                "site_admin": false,
                "starred_url": "https://api.github.com/users/rom1504/starred{/owner}{/repo}",
                "subscriptions_url": "https://api.github.com/users/rom1504/subscriptions",
                "type": "User",
                "url": "https://api.github.com/users/rom1504"
            }
        },
        {
            "author_association": "MEMBER",
            "body": "Ah nevermind, it's there I guess http://astronode.github.io/\n",
            "created_at": "2016-03-13T12:55:07Z",
            "html_url": "https://github.com/PrismarineJS/prismarinejs.github.io/pull/8#issuecomment-195952113",
            "id": 195952113,
            "issue_url": "https://api.github.com/repos/PrismarineJS/prismarinejs.github.io/issues/8",
            "node_id": "MDEyOklzc3VlQ29tbWVudDE5NTk1MjExMw==",
            "performed_via_github_app": null,
            "reactions": {
                "+1": 0,
                "-1": 0,
                "confused": 0,
                "eyes": 0,
                "heart": 0,
                "hooray": 0,
                "laugh": 0,
                "rocket": 0,
                "total_count": 0,
                "url": "https://api.github.com/repos/PrismarineJS/prismarinejs.github.io/issues/comments/195952113/reactions"
            },
            "updated_at": "2016-03-13T12:55:07Z",
            "url": "https://api.github.com/repos/PrismarineJS/prismarinejs.github.io/issues/comments/195952113",
            "user": {
                "avatar_url": "https://avatars.githubusercontent.com/u/2346494?v=4",
                "events_url": "https://api.github.com/users/rom1504/events{/privacy}",
                "followers_url": "https://api.github.com/users/rom1504/followers",
                "following_url": "https://api.github.com/users/rom1504/following{/other_user}",
                "gists_url": "https://api.github.com/users/rom1504/gists{/gist_id}",
                "gravatar_id": "",
                "html_url": "https://github.com/rom1504",
                "id": 2346494,
                "login": "rom1504",
                "node_id": "MDQ6VXNlcjIzNDY0OTQ=",
                "organizations_url": "https://api.github.com/users/rom1504/orgs",
                "received_events_url": "https://api.github.com/users/rom1504/received_events",
                "repos_url": "https://api.github.com/users/rom1504/repos",
                "site_admin": false,
                "starred_url": "https://api.github.com/users/rom1504/starred{/owner}{/repo}",
                "subscriptions_url": "https://api.github.com/users/rom1504/subscriptions",
                "type": "User",
                "url": "https://api.github.com/users/rom1504"
            }
        },
        {
            "author_association": "MEMBER",
            "body": "Loved it, merged the pull\n",
            "created_at": "2016-03-13T17:53:17Z",
            "html_url": "https://github.com/PrismarineJS/prismarinejs.github.io/pull/8#issuecomment-196012570",
            "id": 196012570,
            "issue_url": "https://api.github.com/repos/PrismarineJS/prismarinejs.github.io/issues/8",
            "node_id": "MDEyOklzc3VlQ29tbWVudDE5NjAxMjU3MA==",
            "performed_via_github_app": null,
            "reactions": {
                "+1": 0,
                "-1": 0,
                "confused": 0,
                "eyes": 0,
                "heart": 0,
                "hooray": 0,
                "laugh": 0,
                "rocket": 0,
                "total_count": 0,
                "url": "https://api.github.com/repos/PrismarineJS/prismarinejs.github.io/issues/comments/196012570/reactions"
            },
            "updated_at": "2016-03-13T17:53:17Z",
            "url": "https://api.github.com/repos/PrismarineJS/prismarinejs.github.io/issues/comments/196012570",
            "user": {
                "avatar_url": "https://avatars.githubusercontent.com/u/5957463?v=4",
                "events_url": "https://api.github.com/users/BradyLF/events{/privacy}",
                "followers_url": "https://api.github.com/users/BradyLF/followers",
                "following_url": "https://api.github.com/users/BradyLF/following{/other_user}",
                "gists_url": "https://api.github.com/users/BradyLF/gists{/gist_id}",
                "gravatar_id": "",
                "html_url": "https://github.com/BradyLF",
                "id": 5957463,
                "login": "BradyLF",
                "node_id": "MDQ6VXNlcjU5NTc0NjM=",
                "organizations_url": "https://api.github.com/users/BradyLF/orgs",
                "received_events_url": "https://api.github.com/users/BradyLF/received_events",
                "repos_url": "https://api.github.com/users/BradyLF/repos",
                "site_admin": false,
                "starred_url": "https://api.github.com/users/BradyLF/starred{/owner}{/repo}",
                "subscriptions_url": "https://api.github.com/users/BradyLF/subscriptions",
                "type": "User",
                "url": "https://api.github.com/users/BradyLF"
            }
        },
        {
            "author_association": "MEMBER",
            "body": "I'm not that much convinced that this design is better, but I don't really care.\nThere is a problem though: there were 9 names, now there is 5, can you add back the 4 you removed ?\n",
            "created_at": "2016-03-14T09:01:49Z",
            "html_url": "https://github.com/PrismarineJS/prismarinejs.github.io/pull/8#issuecomment-196211694",
            "id": 196211694,
            "issue_url": "https://api.github.com/repos/PrismarineJS/prismarinejs.github.io/issues/8",
            "node_id": "MDEyOklzc3VlQ29tbWVudDE5NjIxMTY5NA==",
            "performed_via_github_app": null,
            "reactions": {
                "+1": 1,
                "-1": 0,
                "confused": 0,
                "eyes": 0,
                "heart": 0,
                "hooray": 0,
                "laugh": 0,
                "rocket": 0,
                "total_count": 1,
                "url": "https://api.github.com/repos/PrismarineJS/prismarinejs.github.io/issues/comments/196211694/reactions"
            },
            "updated_at": "2016-03-14T09:01:49Z",
            "url": "https://api.github.com/repos/PrismarineJS/prismarinejs.github.io/issues/comments/196211694",
            "user": {
                "avatar_url": "https://avatars.githubusercontent.com/u/2346494?v=4",
                "events_url": "https://api.github.com/users/rom1504/events{/privacy}",
                "followers_url": "https://api.github.com/users/rom1504/followers",
                "following_url": "https://api.github.com/users/rom1504/following{/other_user}",
                "gists_url": "https://api.github.com/users/rom1504/gists{/gist_id}",
                "gravatar_id": "",
                "html_url": "https://github.com/rom1504",
                "id": 2346494,
                "login": "rom1504",
                "node_id": "MDQ6VXNlcjIzNDY0OTQ=",
                "organizations_url": "https://api.github.com/users/rom1504/orgs",
                "received_events_url": "https://api.github.com/users/rom1504/received_events",
                "repos_url": "https://api.github.com/users/rom1504/repos",
                "site_admin": false,
                "starred_url": "https://api.github.com/users/rom1504/starred{/owner}{/repo}",
                "subscriptions_url": "https://api.github.com/users/rom1504/subscriptions",
                "type": "User",
                "url": "https://api.github.com/users/rom1504"
            }
        },
        {
            "author_association": "MEMBER",
            "body": "While you're at it, BradyLF is in charge of marketing and if he'd like i'm ok with adding you to the web team.\n",
            "created_at": "2016-03-15T20:30:04Z",
            "html_url": "https://github.com/PrismarineJS/prismarinejs.github.io/pull/8#issuecomment-197007807",
            "id": 197007807,
            "issue_url": "https://api.github.com/repos/PrismarineJS/prismarinejs.github.io/issues/8",
            "node_id": "MDEyOklzc3VlQ29tbWVudDE5NzAwNzgwNw==",
            "performed_via_github_app": null,
            "reactions": {
                "+1": 0,
                "-1": 0,
                "confused": 0,
                "eyes": 0,
                "heart": 0,
                "hooray": 0,
                "laugh": 0,
                "rocket": 0,
                "total_count": 0,
                "url": "https://api.github.com/repos/PrismarineJS/prismarinejs.github.io/issues/comments/197007807/reactions"
            },
            "updated_at": "2016-03-15T20:30:04Z",
            "url": "https://api.github.com/repos/PrismarineJS/prismarinejs.github.io/issues/comments/197007807",
            "user": {
                "avatar_url": "https://avatars.githubusercontent.com/u/1077050?v=4",
                "events_url": "https://api.github.com/users/dcbartlett/events{/privacy}",
                "followers_url": "https://api.github.com/users/dcbartlett/followers",
                "following_url": "https://api.github.com/users/dcbartlett/following{/other_user}",
                "gists_url": "https://api.github.com/users/dcbartlett/gists{/gist_id}",
                "gravatar_id": "",
                "html_url": "https://github.com/dcbartlett",
                "id": 1077050,
                "login": "dcbartlett",
                "node_id": "MDQ6VXNlcjEwNzcwNTA=",
                "organizations_url": "https://api.github.com/users/dcbartlett/orgs",
                "received_events_url": "https://api.github.com/users/dcbartlett/received_events",
                "repos_url": "https://api.github.com/users/dcbartlett/repos",
                "site_admin": false,
                "starred_url": "https://api.github.com/users/dcbartlett/starred{/owner}{/repo}",
                "subscriptions_url": "https://api.github.com/users/dcbartlett/subscriptions",
                "type": "User",
                "url": "https://api.github.com/users/dcbartlett"
            }
        },
        {
            "author_association": "MEMBER",
            "body": "Sounds good to me!\n",
            "created_at": "2016-03-15T22:17:28Z",
            "html_url": "https://github.com/PrismarineJS/prismarinejs.github.io/pull/8#issuecomment-197049744",
            "id": 197049744,
            "issue_url": "https://api.github.com/repos/PrismarineJS/prismarinejs.github.io/issues/8",
            "node_id": "MDEyOklzc3VlQ29tbWVudDE5NzA0OTc0NA==",
            "performed_via_github_app": null,
            "reactions": {
                "+1": 0,
                "-1": 0,
                "confused": 0,
                "eyes": 0,
                "heart": 0,
                "hooray": 0,
                "laugh": 0,
                "rocket": 0,
                "total_count": 0,
                "url": "https://api.github.com/repos/PrismarineJS/prismarinejs.github.io/issues/comments/197049744/reactions"
            },
            "updated_at": "2016-03-15T22:17:28Z",
            "url": "https://api.github.com/repos/PrismarineJS/prismarinejs.github.io/issues/comments/197049744",
            "user": {
                "avatar_url": "https://avatars.githubusercontent.com/u/5957463?v=4",
                "events_url": "https://api.github.com/users/BradyLF/events{/privacy}",
                "followers_url": "https://api.github.com/users/BradyLF/followers",
                "following_url": "https://api.github.com/users/BradyLF/following{/other_user}",
                "gists_url": "https://api.github.com/users/BradyLF/gists{/gist_id}",
                "gravatar_id": "",
                "html_url": "https://github.com/BradyLF",
                "id": 5957463,
                "login": "BradyLF",
                "node_id": "MDQ6VXNlcjU5NTc0NjM=",
                "organizations_url": "https://api.github.com/users/BradyLF/orgs",
                "received_events_url": "https://api.github.com/users/BradyLF/received_events",
                "repos_url": "https://api.github.com/users/BradyLF/repos",
                "site_admin": false,
                "starred_url": "https://api.github.com/users/BradyLF/starred{/owner}{/repo}",
                "subscriptions_url": "https://api.github.com/users/BradyLF/subscriptions",
                "type": "User",
                "url": "https://api.github.com/users/BradyLF"
            }
        },
        {
            "author_association": "MEMBER",
            "body": "@AstroNode what you say?\n",
            "created_at": "2016-03-16T16:40:17Z",
            "html_url": "https://github.com/PrismarineJS/prismarinejs.github.io/pull/8#issuecomment-197416134",
            "id": 197416134,
            "issue_url": "https://api.github.com/repos/PrismarineJS/prismarinejs.github.io/issues/8",
            "node_id": "MDEyOklzc3VlQ29tbWVudDE5NzQxNjEzNA==",
            "performed_via_github_app": null,
            "reactions": {
                "+1": 0,
                "-1": 0,
                "confused": 0,
                "eyes": 0,
                "heart": 0,
                "hooray": 0,
                "laugh": 0,
                "rocket": 0,
                "total_count": 0,
                "url": "https://api.github.com/repos/PrismarineJS/prismarinejs.github.io/issues/comments/197416134/reactions"
            },
            "updated_at": "2016-03-16T16:40:17Z",
            "url": "https://api.github.com/repos/PrismarineJS/prismarinejs.github.io/issues/comments/197416134",
            "user": {
                "avatar_url": "https://avatars.githubusercontent.com/u/1077050?v=4",
                "events_url": "https://api.github.com/users/dcbartlett/events{/privacy}",
                "followers_url": "https://api.github.com/users/dcbartlett/followers",
                "following_url": "https://api.github.com/users/dcbartlett/following{/other_user}",
                "gists_url": "https://api.github.com/users/dcbartlett/gists{/gist_id}",
                "gravatar_id": "",
                "html_url": "https://github.com/dcbartlett",
                "id": 1077050,
                "login": "dcbartlett",
                "node_id": "MDQ6VXNlcjEwNzcwNTA=",
                "organizations_url": "https://api.github.com/users/dcbartlett/orgs",
                "received_events_url": "https://api.github.com/users/dcbartlett/received_events",
                "repos_url": "https://api.github.com/users/dcbartlett/repos",
                "site_admin": false,
                "starred_url": "https://api.github.com/users/dcbartlett/starred{/owner}{/repo}",
                "subscriptions_url": "https://api.github.com/users/dcbartlett/subscriptions",
                "type": "User",
                "url": "https://api.github.com/users/dcbartlett"
            }
        },
        {
            "author_association": "MEMBER",
            "body": "@dcbartlett :+1: \n",
            "created_at": "2016-03-16T20:56:50Z",
            "html_url": "https://github.com/PrismarineJS/prismarinejs.github.io/pull/8#issuecomment-197546154",
            "id": 197546154,
            "issue_url": "https://api.github.com/repos/PrismarineJS/prismarinejs.github.io/issues/8",
            "node_id": "MDEyOklzc3VlQ29tbWVudDE5NzU0NjE1NA==",
            "performed_via_github_app": null,
            "reactions": {
                "+1": 0,
                "-1": 0,
                "confused": 0,
                "eyes": 0,
                "heart": 0,
                "hooray": 0,
                "laugh": 0,
                "rocket": 0,
                "total_count": 0,
                "url": "https://api.github.com/repos/PrismarineJS/prismarinejs.github.io/issues/comments/197546154/reactions"
            },
            "updated_at": "2016-03-16T20:56:50Z",
            "url": "https://api.github.com/repos/PrismarineJS/prismarinejs.github.io/issues/comments/197546154",
            "user": {
                "avatar_url": "https://avatars.githubusercontent.com/u/5000732?v=4",
                "events_url": "https://api.github.com/users/ciolt/events{/privacy}",
                "followers_url": "https://api.github.com/users/ciolt/followers",
                "following_url": "https://api.github.com/users/ciolt/following{/other_user}",
                "gists_url": "https://api.github.com/users/ciolt/gists{/gist_id}",
                "gravatar_id": "",
                "html_url": "https://github.com/ciolt",
                "id": 5000732,
                "login": "ciolt",
                "node_id": "MDQ6VXNlcjUwMDA3MzI=",
                "organizations_url": "https://api.github.com/users/ciolt/orgs",
                "received_events_url": "https://api.github.com/users/ciolt/received_events",
                "repos_url": "https://api.github.com/users/ciolt/repos",
                "site_admin": false,
                "starred_url": "https://api.github.com/users/ciolt/starred{/owner}{/repo}",
                "subscriptions_url": "https://api.github.com/users/ciolt/subscriptions",
                "type": "User",
                "url": "https://api.github.com/users/ciolt"
            }
        },
        {
            "author_association": "MEMBER",
            "body": "@AstroNode please submit a code update to add yourself to the list under brady, i'll go ahead and add you to git permissions so you can push directly.\n",
            "created_at": "2016-03-21T18:00:13Z",
            "html_url": "https://github.com/PrismarineJS/prismarinejs.github.io/pull/8#issuecomment-199403700",
            "id": 199403700,
            "issue_url": "https://api.github.com/repos/PrismarineJS/prismarinejs.github.io/issues/8",
            "node_id": "MDEyOklzc3VlQ29tbWVudDE5OTQwMzcwMA==",
            "performed_via_github_app": null,
            "reactions": {
                "+1": 0,
                "-1": 0,
                "confused": 0,
                "eyes": 0,
                "heart": 0,
                "hooray": 0,
                "laugh": 0,
                "rocket": 0,
                "total_count": 0,
                "url": "https://api.github.com/repos/PrismarineJS/prismarinejs.github.io/issues/comments/199403700/reactions"
            },
            "updated_at": "2016-03-21T18:00:13Z",
            "url": "https://api.github.com/repos/PrismarineJS/prismarinejs.github.io/issues/comments/199403700",
            "user": {
                "avatar_url": "https://avatars.githubusercontent.com/u/1077050?v=4",
                "events_url": "https://api.github.com/users/dcbartlett/events{/privacy}",
                "followers_url": "https://api.github.com/users/dcbartlett/followers",
                "following_url": "https://api.github.com/users/dcbartlett/following{/other_user}",
                "gists_url": "https://api.github.com/users/dcbartlett/gists{/gist_id}",
                "gravatar_id": "",
                "html_url": "https://github.com/dcbartlett",
                "id": 1077050,
                "login": "dcbartlett",
                "node_id": "MDQ6VXNlcjEwNzcwNTA=",
                "organizations_url": "https://api.github.com/users/dcbartlett/orgs",
                "received_events_url": "https://api.github.com/users/dcbartlett/received_events",
                "repos_url": "https://api.github.com/users/dcbartlett/repos",
                "site_admin": false,
                "starred_url": "https://api.github.com/users/dcbartlett/starred{/owner}{/repo}",
                "subscriptions_url": "https://api.github.com/users/dcbartlett/subscriptions",
                "type": "User",
                "url": "https://api.github.com/users/dcbartlett"
            }
        },
        {
            "author_association": "MEMBER",
            "body": "@dcbartlett Done.\n",
            "created_at": "2016-03-23T06:25:28Z",
            "html_url": "https://github.com/PrismarineJS/prismarinejs.github.io/pull/8#issuecomment-200204487",
            "id": 200204487,
            "issue_url": "https://api.github.com/repos/PrismarineJS/prismarinejs.github.io/issues/8",
            "node_id": "MDEyOklzc3VlQ29tbWVudDIwMDIwNDQ4Nw==",
            "performed_via_github_app": null,
            "reactions": {
                "+1": 0,
                "-1": 0,
                "confused": 0,
                "eyes": 0,
                "heart": 0,
                "hooray": 0,
                "laugh": 0,
                "rocket": 0,
                "total_count": 0,
                "url": "https://api.github.com/repos/PrismarineJS/prismarinejs.github.io/issues/comments/200204487/reactions"
            },
            "updated_at": "2016-03-23T06:25:28Z",
            "url": "https://api.github.com/repos/PrismarineJS/prismarinejs.github.io/issues/comments/200204487",
            "user": {
                "avatar_url": "https://avatars.githubusercontent.com/u/5000732?v=4",
                "events_url": "https://api.github.com/users/ciolt/events{/privacy}",
                "followers_url": "https://api.github.com/users/ciolt/followers",
                "following_url": "https://api.github.com/users/ciolt/following{/other_user}",
                "gists_url": "https://api.github.com/users/ciolt/gists{/gist_id}",
                "gravatar_id": "",
                "html_url": "https://github.com/ciolt",
                "id": 5000732,
                "login": "ciolt",
                "node_id": "MDQ6VXNlcjUwMDA3MzI=",
                "organizations_url": "https://api.github.com/users/ciolt/orgs",
                "received_events_url": "https://api.github.com/users/ciolt/received_events",
                "repos_url": "https://api.github.com/users/ciolt/repos",
                "site_admin": false,
                "starred_url": "https://api.github.com/users/ciolt/starred{/owner}{/repo}",
                "subscriptions_url": "https://api.github.com/users/ciolt/subscriptions",
                "type": "User",
                "url": "https://api.github.com/users/ciolt"
            }
        },
        {
            "author_association": "MEMBER",
            "body": "did you push? i don't see you on the site.  You should be able to push directly now without needing a PR.\n",
            "created_at": "2016-03-23T17:51:30Z",
            "html_url": "https://github.com/PrismarineJS/prismarinejs.github.io/pull/8#issuecomment-200464812",
            "id": 200464812,
            "issue_url": "https://api.github.com/repos/PrismarineJS/prismarinejs.github.io/issues/8",
            "node_id": "MDEyOklzc3VlQ29tbWVudDIwMDQ2NDgxMg==",
            "performed_via_github_app": null,
            "reactions": {
                "+1": 0,
                "-1": 0,
                "confused": 0,
                "eyes": 0,
                "heart": 0,
                "hooray": 0,
                "laugh": 0,
                "rocket": 0,
                "total_count": 0,
                "url": "https://api.github.com/repos/PrismarineJS/prismarinejs.github.io/issues/comments/200464812/reactions"
            },
            "updated_at": "2016-03-23T17:51:30Z",
            "url": "https://api.github.com/repos/PrismarineJS/prismarinejs.github.io/issues/comments/200464812",
            "user": {
                "avatar_url": "https://avatars.githubusercontent.com/u/1077050?v=4",
                "events_url": "https://api.github.com/users/dcbartlett/events{/privacy}",
                "followers_url": "https://api.github.com/users/dcbartlett/followers",
                "following_url": "https://api.github.com/users/dcbartlett/following{/other_user}",
                "gists_url": "https://api.github.com/users/dcbartlett/gists{/gist_id}",
                "gravatar_id": "",
                "html_url": "https://github.com/dcbartlett",
                "id": 1077050,
                "login": "dcbartlett",
                "node_id": "MDQ6VXNlcjEwNzcwNTA=",
                "organizations_url": "https://api.github.com/users/dcbartlett/orgs",
                "received_events_url": "https://api.github.com/users/dcbartlett/received_events",
                "repos_url": "https://api.github.com/users/dcbartlett/repos",
                "site_admin": false,
                "starred_url": "https://api.github.com/users/dcbartlett/starred{/owner}{/repo}",
                "subscriptions_url": "https://api.github.com/users/dcbartlett/subscriptions",
                "type": "User",
                "url": "https://api.github.com/users/dcbartlett"
            }
        },
        {
            "author_association": "MEMBER",
            "body": "Didn't seem to work, and the Git CLI returns a 403 \"no permission\" error when pushing directly.\n\n![](https://i.gyazo.com/d4038ad233f9796a07bee46b03dc5403.png)\n",
            "created_at": "2016-03-25T20:50:28Z",
            "html_url": "https://github.com/PrismarineJS/prismarinejs.github.io/pull/8#issuecomment-201494144",
            "id": 201494144,
            "issue_url": "https://api.github.com/repos/PrismarineJS/prismarinejs.github.io/issues/8",
            "node_id": "MDEyOklzc3VlQ29tbWVudDIwMTQ5NDE0NA==",
            "performed_via_github_app": null,
            "reactions": {
                "+1": 0,
                "-1": 0,
                "confused": 0,
                "eyes": 0,
                "heart": 0,
                "hooray": 0,
                "laugh": 0,
                "rocket": 0,
                "total_count": 0,
                "url": "https://api.github.com/repos/PrismarineJS/prismarinejs.github.io/issues/comments/201494144/reactions"
            },
            "updated_at": "2016-03-25T20:53:32Z",
            "url": "https://api.github.com/repos/PrismarineJS/prismarinejs.github.io/issues/comments/201494144",
            "user": {
                "avatar_url": "https://avatars.githubusercontent.com/u/5000732?v=4",
                "events_url": "https://api.github.com/users/ciolt/events{/privacy}",
                "followers_url": "https://api.github.com/users/ciolt/followers",
                "following_url": "https://api.github.com/users/ciolt/following{/other_user}",
                "gists_url": "https://api.github.com/users/ciolt/gists{/gist_id}",
                "gravatar_id": "",
                "html_url": "https://github.com/ciolt",
                "id": 5000732,
                "login": "ciolt",
                "node_id": "MDQ6VXNlcjUwMDA3MzI=",
                "organizations_url": "https://api.github.com/users/ciolt/orgs",
                "received_events_url": "https://api.github.com/users/ciolt/received_events",
                "repos_url": "https://api.github.com/users/ciolt/repos",
                "site_admin": false,
                "starred_url": "https://api.github.com/users/ciolt/starred{/owner}{/repo}",
                "subscriptions_url": "https://api.github.com/users/ciolt/subscriptions",
                "type": "User",
                "url": "https://api.github.com/users/ciolt"
            }
        },
        {
            "author_association": "MEMBER",
            "body": "Ah, sorry, you have to accept the invite to become part of the team, then you can push.\n\nhttps://github.com/PrismarineJS  - you can accept it here, at the top of the screen.\n",
            "created_at": "2016-03-27T00:40:43Z",
            "html_url": "https://github.com/PrismarineJS/prismarinejs.github.io/pull/8#issuecomment-201963482",
            "id": 201963482,
            "issue_url": "https://api.github.com/repos/PrismarineJS/prismarinejs.github.io/issues/8",
            "node_id": "MDEyOklzc3VlQ29tbWVudDIwMTk2MzQ4Mg==",
            "performed_via_github_app": null,
            "reactions": {
                "+1": 0,
                "-1": 0,
                "confused": 0,
                "eyes": 0,
                "heart": 0,
                "hooray": 0,
                "laugh": 0,
                "rocket": 0,
                "total_count": 0,
                "url": "https://api.github.com/repos/PrismarineJS/prismarinejs.github.io/issues/comments/201963482/reactions"
            },
            "updated_at": "2016-03-27T00:41:00Z",
            "url": "https://api.github.com/repos/PrismarineJS/prismarinejs.github.io/issues/comments/201963482",
            "user": {
                "avatar_url": "https://avatars.githubusercontent.com/u/1077050?v=4",
                "events_url": "https://api.github.com/users/dcbartlett/events{/privacy}",
                "followers_url": "https://api.github.com/users/dcbartlett/followers",
                "following_url": "https://api.github.com/users/dcbartlett/following{/other_user}",
                "gists_url": "https://api.github.com/users/dcbartlett/gists{/gist_id}",
                "gravatar_id": "",
                "html_url": "https://github.com/dcbartlett",
                "id": 1077050,
                "login": "dcbartlett",
                "node_id": "MDQ6VXNlcjEwNzcwNTA=",
                "organizations_url": "https://api.github.com/users/dcbartlett/orgs",
                "received_events_url": "https://api.github.com/users/dcbartlett/received_events",
                "repos_url": "https://api.github.com/users/dcbartlett/repos",
                "site_admin": false,
                "starred_url": "https://api.github.com/users/dcbartlett/starred{/owner}{/repo}",
                "subscriptions_url": "https://api.github.com/users/dcbartlett/subscriptions",
                "type": "User",
                "url": "https://api.github.com/users/dcbartlett"
            }
        },
        {
            "author_association": "MEMBER",
            "body": "Thanks!\n",
            "created_at": "2016-03-27T02:00:54Z",
            "html_url": "https://github.com/PrismarineJS/prismarinejs.github.io/pull/8#issuecomment-201971368",
            "id": 201971368,
            "issue_url": "https://api.github.com/repos/PrismarineJS/prismarinejs.github.io/issues/8",
            "node_id": "MDEyOklzc3VlQ29tbWVudDIwMTk3MTM2OA==",
            "performed_via_github_app": null,
            "reactions": {
                "+1": 0,
                "-1": 0,
                "confused": 0,
                "eyes": 0,
                "heart": 0,
                "hooray": 0,
                "laugh": 0,
                "rocket": 0,
                "total_count": 0,
                "url": "https://api.github.com/repos/PrismarineJS/prismarinejs.github.io/issues/comments/201971368/reactions"
            },
            "updated_at": "2016-03-27T02:00:54Z",
            "url": "https://api.github.com/repos/PrismarineJS/prismarinejs.github.io/issues/comments/201971368",
            "user": {
                "avatar_url": "https://avatars.githubusercontent.com/u/5000732?v=4",
                "events_url": "https://api.github.com/users/ciolt/events{/privacy}",
                "followers_url": "https://api.github.com/users/ciolt/followers",
                "following_url": "https://api.github.com/users/ciolt/following{/other_user}",
                "gists_url": "https://api.github.com/users/ciolt/gists{/gist_id}",
                "gravatar_id": "",
                "html_url": "https://github.com/ciolt",
                "id": 5000732,
                "login": "ciolt",
                "node_id": "MDQ6VXNlcjUwMDA3MzI=",
                "organizations_url": "https://api.github.com/users/ciolt/orgs",
                "received_events_url": "https://api.github.com/users/ciolt/received_events",
                "repos_url": "https://api.github.com/users/ciolt/repos",
                "site_admin": false,
                "starred_url": "https://api.github.com/users/ciolt/starred{/owner}{/repo}",
                "subscriptions_url": "https://api.github.com/users/ciolt/subscriptions",
                "type": "User",
                "url": "https://api.github.com/users/ciolt"
            }
        }
    ],
    "comments": 14,
    "comments_url": "https://api.github.com/repos/PrismarineJS/prismarinejs.github.io/issues/8/comments",
    "commit_data": [
        {
            "author": null,
            "comments_url": "https://api.github.com/repos/PrismarineJS/prismarinejs.github.io/commits/45a6d151b5dfd670d06137261a95188585df03fa/comments",
            "commit": {
                "author": {
                    "date": "2016-03-13T02:22:03Z",
                    "email": "nathans@nate.com",
                    "name": "Astro"
                },
                "comment_count": 0,
                "committer": {
                    "date": "2016-03-13T02:22:03Z",
                    "email": "nathans@nate.com",
                    "name": "Astro"
                },
                "message": "Changed description",
                "tree": {
                    "sha": "b71c1d7b9187c619d661688130900e36b52f24c8",
                    "url": "https://api.github.com/repos/PrismarineJS/prismarinejs.github.io/git/trees/b71c1d7b9187c619d661688130900e36b52f24c8"
                },
                "url": "https://api.github.com/repos/PrismarineJS/prismarinejs.github.io/git/commits/45a6d151b5dfd670d06137261a95188585df03fa",
                "verification": {
                    "payload": null,
                    "reason": "unsigned",
                    "signature": null,
                    "verified": false
                }
            },
            "committer": null,
            "html_url": "https://github.com/PrismarineJS/prismarinejs.github.io/commit/45a6d151b5dfd670d06137261a95188585df03fa",
            "node_id": "MDY6Q29tbWl0MzEyMzQ5MzQ6NDVhNmQxNTFiNWRmZDY3MGQwNjEzNzI2MWE5NTE4ODU4NWRmMDNmYQ==",
            "parents": [
                {
                    "html_url": "https://github.com/PrismarineJS/prismarinejs.github.io/commit/bb3c8527231ff770f3832ce4c3c1eb4e5d2db21d",
                    "sha": "bb3c8527231ff770f3832ce4c3c1eb4e5d2db21d",
                    "url": "https://api.github.com/repos/PrismarineJS/prismarinejs.github.io/commits/bb3c8527231ff770f3832ce4c3c1eb4e5d2db21d"
                }
            ],
            "sha": "45a6d151b5dfd670d06137261a95188585df03fa",
            "url": "https://api.github.com/repos/PrismarineJS/prismarinejs.github.io/commits/45a6d151b5dfd670d06137261a95188585df03fa"
        },
        {
            "author": null,
            "comments_url": "https://api.github.com/repos/PrismarineJS/prismarinejs.github.io/commits/eabf3004229340afde4d88d1edc99ec30cc32c30/comments",
            "commit": {
                "author": {
                    "date": "2016-03-13T04:34:58Z",
                    "email": "nathans@nate.com",
                    "name": "Astro"
                },
                "comment_count": 0,
                "committer": {
                    "date": "2016-03-13T04:34:58Z",
                    "email": "nathans@nate.com",
                    "name": "Astro"
                },
                "message": "Changed around some stuff",
                "tree": {
                    "sha": "c3e0919b4ff31a8b3c5ee31429ff2dd51a7946da",
                    "url": "https://api.github.com/repos/PrismarineJS/prismarinejs.github.io/git/trees/c3e0919b4ff31a8b3c5ee31429ff2dd51a7946da"
                },
                "url": "https://api.github.com/repos/PrismarineJS/prismarinejs.github.io/git/commits/eabf3004229340afde4d88d1edc99ec30cc32c30",
                "verification": {
                    "payload": null,
                    "reason": "unsigned",
                    "signature": null,
                    "verified": false
                }
            },
            "committer": null,
            "html_url": "https://github.com/PrismarineJS/prismarinejs.github.io/commit/eabf3004229340afde4d88d1edc99ec30cc32c30",
            "node_id": "MDY6Q29tbWl0MzEyMzQ5MzQ6ZWFiZjMwMDQyMjkzNDBhZmRlNGQ4OGQxZWRjOTllYzMwY2MzMmMzMA==",
            "parents": [
                {
                    "html_url": "https://github.com/PrismarineJS/prismarinejs.github.io/commit/45a6d151b5dfd670d06137261a95188585df03fa",
                    "sha": "45a6d151b5dfd670d06137261a95188585df03fa",
                    "url": "https://api.github.com/repos/PrismarineJS/prismarinejs.github.io/commits/45a6d151b5dfd670d06137261a95188585df03fa"
                }
            ],
            "sha": "eabf3004229340afde4d88d1edc99ec30cc32c30",
            "url": "https://api.github.com/repos/PrismarineJS/prismarinejs.github.io/commits/eabf3004229340afde4d88d1edc99ec30cc32c30"
        },
        {
            "author": null,
            "comments_url": "https://api.github.com/repos/PrismarineJS/prismarinejs.github.io/commits/74512de239977c52eebfd00fa1012d1c638b2951/comments",
            "commit": {
                "author": {
                    "date": "2016-03-13T06:29:40Z",
                    "email": "nathans@nate.com",
                    "name": "Astro"
                },
                "comment_count": 0,
                "committer": {
                    "date": "2016-03-13T06:29:40Z",
                    "email": "nathans@nate.com",
                    "name": "Astro"
                },
                "message": "Updated the design",
                "tree": {
                    "sha": "2a33d4ea5720b7b9073d2ec7532d23d62f04a9b7",
                    "url": "https://api.github.com/repos/PrismarineJS/prismarinejs.github.io/git/trees/2a33d4ea5720b7b9073d2ec7532d23d62f04a9b7"
                },
                "url": "https://api.github.com/repos/PrismarineJS/prismarinejs.github.io/git/commits/74512de239977c52eebfd00fa1012d1c638b2951",
                "verification": {
                    "payload": null,
                    "reason": "unsigned",
                    "signature": null,
                    "verified": false
                }
            },
            "committer": null,
            "html_url": "https://github.com/PrismarineJS/prismarinejs.github.io/commit/74512de239977c52eebfd00fa1012d1c638b2951",
            "node_id": "MDY6Q29tbWl0MzEyMzQ5MzQ6NzQ1MTJkZTIzOTk3N2M1MmVlYmZkMDBmYTEwMTJkMWM2MzhiMjk1MQ==",
            "parents": [
                {
                    "html_url": "https://github.com/PrismarineJS/prismarinejs.github.io/commit/eabf3004229340afde4d88d1edc99ec30cc32c30",
                    "sha": "eabf3004229340afde4d88d1edc99ec30cc32c30",
                    "url": "https://api.github.com/repos/PrismarineJS/prismarinejs.github.io/commits/eabf3004229340afde4d88d1edc99ec30cc32c30"
                }
            ],
            "sha": "74512de239977c52eebfd00fa1012d1c638b2951",
            "url": "https://api.github.com/repos/PrismarineJS/prismarinejs.github.io/commits/74512de239977c52eebfd00fa1012d1c638b2951"
        }
    ],
    "commits": 3,
    "commits_url": "https://api.github.com/repos/PrismarineJS/prismarinejs.github.io/pulls/8/commits",
    "created_at": "2016-03-13T06:36:45Z",
    "deletions": 6791,
    "diff_url": "https://github.com/PrismarineJS/prismarinejs.github.io/pull/8.diff",
    "draft": false,
    "head": {
        "label": "ciolt:master",
        "ref": "master",
        "repo": null,
        "sha": "74512de239977c52eebfd00fa1012d1c638b2951",
        "user": {
            "avatar_url": "https://avatars.githubusercontent.com/u/5000732?v=4",
            "events_url": "https://api.github.com/users/ciolt/events{/privacy}",
            "followers_url": "https://api.github.com/users/ciolt/followers",
            "following_url": "https://api.github.com/users/ciolt/following{/other_user}",
            "gists_url": "https://api.github.com/users/ciolt/gists{/gist_id}",
            "gravatar_id": "",
            "html_url": "https://github.com/ciolt",
            "id": 5000732,
            "login": "ciolt",
            "node_id": "MDQ6VXNlcjUwMDA3MzI=",
            "organizations_url": "https://api.github.com/users/ciolt/orgs",
            "received_events_url": "https://api.github.com/users/ciolt/received_events",
            "repos_url": "https://api.github.com/users/ciolt/repos",
            "site_admin": false,
            "starred_url": "https://api.github.com/users/ciolt/starred{/owner}{/repo}",
            "subscriptions_url": "https://api.github.com/users/ciolt/subscriptions",
            "type": "User",
            "url": "https://api.github.com/users/ciolt"
        }
    },
    "html_url": "https://github.com/PrismarineJS/prismarinejs.github.io/pull/8",
    "id": 62663554,
    "issue_url": "https://api.github.com/repos/PrismarineJS/prismarinejs.github.io/issues/8",
    "labels": [],
    "locked": false,
    "maintainer_can_modify": false,
    "merge_commit_sha": "d4f8cc9373e2a5e1efcf5ec32d014940de57d792",
    "mergeable": null,
    "mergeable_state": "unknown",
    "merged": true,
    "merged_at": "2016-03-13T17:53:00Z",
    "merged_by": {
        "avatar_url": "https://avatars.githubusercontent.com/u/5957463?v=4",
        "events_url": "https://api.github.com/users/BradyLF/events{/privacy}",
        "followers_url": "https://api.github.com/users/BradyLF/followers",
        "following_url": "https://api.github.com/users/BradyLF/following{/other_user}",
        "gists_url": "https://api.github.com/users/BradyLF/gists{/gist_id}",
        "gravatar_id": "",
        "html_url": "https://github.com/BradyLF",
        "id": 5957463,
        "login": "BradyLF",
        "node_id": "MDQ6VXNlcjU5NTc0NjM=",
        "organizations_url": "https://api.github.com/users/BradyLF/orgs",
        "received_events_url": "https://api.github.com/users/BradyLF/received_events",
        "repos_url": "https://api.github.com/users/BradyLF/repos",
        "site_admin": false,
        "starred_url": "https://api.github.com/users/BradyLF/starred{/owner}{/repo}",
        "subscriptions_url": "https://api.github.com/users/BradyLF/subscriptions",
        "type": "User",
        "url": "https://api.github.com/users/BradyLF"
    },
    "milestone": null,
    "node_id": "MDExOlB1bGxSZXF1ZXN0NjI2NjM1NTQ=",
    "number": 8,
    "patch_url": "https://github.com/PrismarineJS/prismarinejs.github.io/pull/8.patch",
    "rebaseable": null,
    "requested_reviewers": [],
    "requested_teams": [],
    "review_comment_url": "https://api.github.com/repos/PrismarineJS/prismarinejs.github.io/pulls/comments{/number}",
    "review_comments": 0,
    "review_comments_url": "https://api.github.com/repos/PrismarineJS/prismarinejs.github.io/pulls/8/comments",
    "state": "closed",
    "statuses_url": "https://api.github.com/repos/PrismarineJS/prismarinejs.github.io/statuses/74512de239977c52eebfd00fa1012d1c638b2951",
    "title": "New Website Design?",
    "updated_at": "2016-03-27T02:00:54Z",
    "url": "https://api.github.com/repos/PrismarineJS/prismarinejs.github.io/pulls/8",
    "user": {
        "avatar_url": "https://avatars.githubusercontent.com/u/5000732?v=4",
        "events_url": "https://api.github.com/users/ciolt/events{/privacy}",
        "followers_url": "https://api.github.com/users/ciolt/followers",
        "following_url": "https://api.github.com/users/ciolt/following{/other_user}",
        "gists_url": "https://api.github.com/users/ciolt/gists{/gist_id}",
        "gravatar_id": "",
        "html_url": "https://github.com/ciolt",
        "id": 5000732,
        "login": "ciolt",
        "node_id": "MDQ6VXNlcjUwMDA3MzI=",
        "organizations_url": "https://api.github.com/users/ciolt/orgs",
        "received_events_url": "https://api.github.com/users/ciolt/received_events",
        "repos_url": "https://api.github.com/users/ciolt/repos",
        "site_admin": false,
        "starred_url": "https://api.github.com/users/ciolt/starred{/owner}{/repo}",
        "subscriptions_url": "https://api.github.com/users/ciolt/subscriptions",
        "type": "User",
        "url": "https://api.github.com/users/ciolt"
    }
}