{
    "active_lock_reason": null,
    "assignee": null,
    "assignees": [],
    "author_association": "MEMBER",
    "body": "1. Browserify flying-squid for a singleplayer server\n2. Use WebRTC to open to LAN",
    "closed_at": null,
    "comment_data": [
        {
            "author_association": "MEMBER",
            "body": "Webrtc doesn't open to LAN.\nIt does open to internet though.\n\nOn Wed, Mar 3, 2021, 00:46 AwesomestCode <notifications@github.com> wrote:\n\n>\n>    1. Browserify flying-squid for a singleplayer server\n>    2. Use WebRTC to open to LAN\n>\n> —\n> You are receiving this because you are subscribed to this thread.\n> Reply to this email directly, view it on GitHub\n> <https://github.com/PrismarineJS/prismarine-web-client/issues/47>, or\n> unsubscribe\n> <https://github.com/notifications/unsubscribe-auth/AAR437XTY2IMXP3CSIAO5XDTBV2HBANCNFSM4YP6M5SQ>\n> .\n>\n",
            "created_at": "2021-03-03T08:58:41Z",
            "html_url": "https://github.com/PrismarineJS/prismarine-web-client/issues/47#issuecomment-789552329",
            "id": 789552329,
            "issue_url": "https://api.github.com/repos/PrismarineJS/prismarine-web-client/issues/47",
            "node_id": "MDEyOklzc3VlQ29tbWVudDc4OTU1MjMyOQ==",
            "performed_via_github_app": null,
            "reactions": {
                "+1": 0,
                "-1": 0,
                "confused": 0,
                "eyes": 0,
                "heart": 0,
                "hooray": 0,
                "laugh": 0,
                "rocket": 0,
                "total_count": 0,
                "url": "https://api.github.com/repos/PrismarineJS/prismarine-web-client/issues/comments/789552329/reactions"
            },
            "updated_at": "2021-03-03T08:58:41Z",
            "url": "https://api.github.com/repos/PrismarineJS/prismarine-web-client/issues/comments/789552329",
            "user": {
                "avatar_url": "https://avatars.githubusercontent.com/u/2346494?v=4",
                "events_url": "https://api.github.com/users/rom1504/events{/privacy}",
                "followers_url": "https://api.github.com/users/rom1504/followers",
                "following_url": "https://api.github.com/users/rom1504/following{/other_user}",
                "gists_url": "https://api.github.com/users/rom1504/gists{/gist_id}",
                "gravatar_id": "",
                "html_url": "https://github.com/rom1504",
                "id": 2346494,
                "login": "rom1504",
                "node_id": "MDQ6VXNlcjIzNDY0OTQ=",
                "organizations_url": "https://api.github.com/users/rom1504/orgs",
                "received_events_url": "https://api.github.com/users/rom1504/received_events",
                "repos_url": "https://api.github.com/users/rom1504/repos",
                "site_admin": false,
                "starred_url": "https://api.github.com/users/rom1504/starred{/owner}{/repo}",
                "subscriptions_url": "https://api.github.com/users/rom1504/subscriptions",
                "type": "User",
                "url": "https://api.github.com/users/rom1504"
            }
        },
        {
            "author_association": "MEMBER",
            "body": "How:\r\n* socketProvider option in nmp createServer\r\n* use it with a fake local socket for single player\r\n* use it with a simple-peer webrtc socket for crazy experiments",
            "created_at": "2021-03-14T01:52:10Z",
            "html_url": "https://github.com/PrismarineJS/prismarine-web-client/issues/47#issuecomment-798815863",
            "id": 798815863,
            "issue_url": "https://api.github.com/repos/PrismarineJS/prismarine-web-client/issues/47",
            "node_id": "MDEyOklzc3VlQ29tbWVudDc5ODgxNTg2Mw==",
            "performed_via_github_app": null,
            "reactions": {
                "+1": 0,
                "-1": 0,
                "confused": 0,
                "eyes": 0,
                "heart": 0,
                "hooray": 0,
                "laugh": 0,
                "rocket": 0,
                "total_count": 0,
                "url": "https://api.github.com/repos/PrismarineJS/prismarine-web-client/issues/comments/798815863/reactions"
            },
            "updated_at": "2021-03-14T01:52:10Z",
            "url": "https://api.github.com/repos/PrismarineJS/prismarine-web-client/issues/comments/798815863",
            "user": {
                "avatar_url": "https://avatars.githubusercontent.com/u/2346494?v=4",
                "events_url": "https://api.github.com/users/rom1504/events{/privacy}",
                "followers_url": "https://api.github.com/users/rom1504/followers",
                "following_url": "https://api.github.com/users/rom1504/following{/other_user}",
                "gists_url": "https://api.github.com/users/rom1504/gists{/gist_id}",
                "gravatar_id": "",
                "html_url": "https://github.com/rom1504",
                "id": 2346494,
                "login": "rom1504",
                "node_id": "MDQ6VXNlcjIzNDY0OTQ=",
                "organizations_url": "https://api.github.com/users/rom1504/orgs",
                "received_events_url": "https://api.github.com/users/rom1504/received_events",
                "repos_url": "https://api.github.com/users/rom1504/repos",
                "site_admin": false,
                "starred_url": "https://api.github.com/users/rom1504/starred{/owner}{/repo}",
                "subscriptions_url": "https://api.github.com/users/rom1504/subscriptions",
                "type": "User",
                "url": "https://api.github.com/users/rom1504"
            }
        },
        {
            "author_association": "MEMBER",
            "body": "anvil may need to be adapted by using indexeddb",
            "created_at": "2021-03-14T01:52:31Z",
            "html_url": "https://github.com/PrismarineJS/prismarine-web-client/issues/47#issuecomment-798815890",
            "id": 798815890,
            "issue_url": "https://api.github.com/repos/PrismarineJS/prismarine-web-client/issues/47",
            "node_id": "MDEyOklzc3VlQ29tbWVudDc5ODgxNTg5MA==",
            "performed_via_github_app": null,
            "reactions": {
                "+1": 0,
                "-1": 0,
                "confused": 0,
                "eyes": 0,
                "heart": 0,
                "hooray": 0,
                "laugh": 0,
                "rocket": 0,
                "total_count": 0,
                "url": "https://api.github.com/repos/PrismarineJS/prismarine-web-client/issues/comments/798815890/reactions"
            },
            "updated_at": "2021-03-14T01:52:31Z",
            "url": "https://api.github.com/repos/PrismarineJS/prismarine-web-client/issues/comments/798815890",
            "user": {
                "avatar_url": "https://avatars.githubusercontent.com/u/2346494?v=4",
                "events_url": "https://api.github.com/users/rom1504/events{/privacy}",
                "followers_url": "https://api.github.com/users/rom1504/followers",
                "following_url": "https://api.github.com/users/rom1504/following{/other_user}",
                "gists_url": "https://api.github.com/users/rom1504/gists{/gist_id}",
                "gravatar_id": "",
                "html_url": "https://github.com/rom1504",
                "id": 2346494,
                "login": "rom1504",
                "node_id": "MDQ6VXNlcjIzNDY0OTQ=",
                "organizations_url": "https://api.github.com/users/rom1504/orgs",
                "received_events_url": "https://api.github.com/users/rom1504/received_events",
                "repos_url": "https://api.github.com/users/rom1504/repos",
                "site_admin": false,
                "starred_url": "https://api.github.com/users/rom1504/starred{/owner}{/repo}",
                "subscriptions_url": "https://api.github.com/users/rom1504/subscriptions",
                "type": "User",
                "url": "https://api.github.com/users/rom1504"
            }
        },
        {
            "author_association": "NONE",
            "body": "I think its useless",
            "created_at": "2021-03-14T13:06:25Z",
            "html_url": "https://github.com/PrismarineJS/prismarine-web-client/issues/47#issuecomment-798903686",
            "id": 798903686,
            "issue_url": "https://api.github.com/repos/PrismarineJS/prismarine-web-client/issues/47",
            "node_id": "MDEyOklzc3VlQ29tbWVudDc5ODkwMzY4Ng==",
            "performed_via_github_app": null,
            "reactions": {
                "+1": 1,
                "-1": 3,
                "confused": 1,
                "eyes": 0,
                "heart": 0,
                "hooray": 0,
                "laugh": 0,
                "rocket": 0,
                "total_count": 5,
                "url": "https://api.github.com/repos/PrismarineJS/prismarine-web-client/issues/comments/798903686/reactions"
            },
            "updated_at": "2021-03-14T13:06:25Z",
            "url": "https://api.github.com/repos/PrismarineJS/prismarine-web-client/issues/comments/798903686",
            "user": {
                "avatar_url": "https://avatars.githubusercontent.com/u/73744616?v=4",
                "events_url": "https://api.github.com/users/KaffinPX/events{/privacy}",
                "followers_url": "https://api.github.com/users/KaffinPX/followers",
                "following_url": "https://api.github.com/users/KaffinPX/following{/other_user}",
                "gists_url": "https://api.github.com/users/KaffinPX/gists{/gist_id}",
                "gravatar_id": "",
                "html_url": "https://github.com/KaffinPX",
                "id": 73744616,
                "login": "KaffinPX",
                "node_id": "MDQ6VXNlcjczNzQ0NjE2",
                "organizations_url": "https://api.github.com/users/KaffinPX/orgs",
                "received_events_url": "https://api.github.com/users/KaffinPX/received_events",
                "repos_url": "https://api.github.com/users/KaffinPX/repos",
                "site_admin": false,
                "starred_url": "https://api.github.com/users/KaffinPX/starred{/owner}{/repo}",
                "subscriptions_url": "https://api.github.com/users/KaffinPX/subscriptions",
                "type": "User",
                "url": "https://api.github.com/users/KaffinPX"
            }
        },
        {
            "author_association": "MEMBER",
            "body": "Another idea here is to use a reverse websocket proxy",
            "created_at": "2021-03-16T12:50:04Z",
            "html_url": "https://github.com/PrismarineJS/prismarine-web-client/issues/47#issuecomment-800230789",
            "id": 800230789,
            "issue_url": "https://api.github.com/repos/PrismarineJS/prismarine-web-client/issues/47",
            "node_id": "MDEyOklzc3VlQ29tbWVudDgwMDIzMDc4OQ==",
            "performed_via_github_app": null,
            "reactions": {
                "+1": 0,
                "-1": 0,
                "confused": 0,
                "eyes": 0,
                "heart": 0,
                "hooray": 0,
                "laugh": 0,
                "rocket": 0,
                "total_count": 0,
                "url": "https://api.github.com/repos/PrismarineJS/prismarine-web-client/issues/comments/800230789/reactions"
            },
            "updated_at": "2021-03-16T12:50:04Z",
            "url": "https://api.github.com/repos/PrismarineJS/prismarine-web-client/issues/comments/800230789",
            "user": {
                "avatar_url": "https://avatars.githubusercontent.com/u/2346494?v=4",
                "events_url": "https://api.github.com/users/rom1504/events{/privacy}",
                "followers_url": "https://api.github.com/users/rom1504/followers",
                "following_url": "https://api.github.com/users/rom1504/following{/other_user}",
                "gists_url": "https://api.github.com/users/rom1504/gists{/gist_id}",
                "gravatar_id": "",
                "html_url": "https://github.com/rom1504",
                "id": 2346494,
                "login": "rom1504",
                "node_id": "MDQ6VXNlcjIzNDY0OTQ=",
                "organizations_url": "https://api.github.com/users/rom1504/orgs",
                "received_events_url": "https://api.github.com/users/rom1504/received_events",
                "repos_url": "https://api.github.com/users/rom1504/repos",
                "site_admin": false,
                "starred_url": "https://api.github.com/users/rom1504/starred{/owner}{/repo}",
                "subscriptions_url": "https://api.github.com/users/rom1504/subscriptions",
                "type": "User",
                "url": "https://api.github.com/users/rom1504"
            }
        },
        {
            "author_association": "CONTRIBUTOR",
            "body": "Hey! I'm currently working on this feature and wanted to report the progress. Currently, support implemented for the following backends (this all is possible only with the latest version of browserFS):\r\n\r\n- localstorage - just hit & play *(5mb cap)* - can be exported with `/export`\r\n- ZIP loading - just dragndrop *(not really effective, but still can load any size, though there is ~400mb limit on ios)*\r\n- Folder loading - best option, but available only in Chrome: dragndrop or via folder picker (*read*/*write* to real fs)\r\n- Download & play from link - [link example](https://zardoy.github.io/prismarine-web-client/?map=https://test-assets.vercel.app/world.zip&mapVersion=1.8.8) - downloads map from server & uses ZIP FS later\r\n\r\nI have used PeerJS previously for small projects and I think I'll also use it here for multiplayer.\r\n\r\nI could test almost any 1.8 save, however, it seems that saves for 1.14+ are not supported by prismarine-chunk? (https://github.com/PrismarineJS/flying-squid/issues/632, https://github.com/PrismarineJS/flying-squid/issues/545)\r\n\r\nAlso will work to improve zipFS later.",
            "created_at": "2023-09-04T13:30:07Z",
            "html_url": "https://github.com/PrismarineJS/prismarine-web-client/issues/47#issuecomment-1705279726",
            "id": 1705279726,
            "issue_url": "https://api.github.com/repos/PrismarineJS/prismarine-web-client/issues/47",
            "node_id": "IC_kwDOFHEu6c5lpIDu",
            "performed_via_github_app": null,
            "reactions": {
                "+1": 0,
                "-1": 0,
                "confused": 0,
                "eyes": 0,
                "heart": 0,
                "hooray": 0,
                "laugh": 0,
                "rocket": 0,
                "total_count": 0,
                "url": "https://api.github.com/repos/PrismarineJS/prismarine-web-client/issues/comments/1705279726/reactions"
            },
            "updated_at": "2023-09-04T13:30:07Z",
            "url": "https://api.github.com/repos/PrismarineJS/prismarine-web-client/issues/comments/1705279726",
            "user": {
                "avatar_url": "https://avatars.githubusercontent.com/u/46503702?v=4",
                "events_url": "https://api.github.com/users/zardoy/events{/privacy}",
                "followers_url": "https://api.github.com/users/zardoy/followers",
                "following_url": "https://api.github.com/users/zardoy/following{/other_user}",
                "gists_url": "https://api.github.com/users/zardoy/gists{/gist_id}",
                "gravatar_id": "",
                "html_url": "https://github.com/zardoy",
                "id": 46503702,
                "login": "zardoy",
                "node_id": "MDQ6VXNlcjQ2NTAzNzAy",
                "organizations_url": "https://api.github.com/users/zardoy/orgs",
                "received_events_url": "https://api.github.com/users/zardoy/received_events",
                "repos_url": "https://api.github.com/users/zardoy/repos",
                "site_admin": false,
                "starred_url": "https://api.github.com/users/zardoy/starred{/owner}{/repo}",
                "subscriptions_url": "https://api.github.com/users/zardoy/subscriptions",
                "type": "User",
                "url": "https://api.github.com/users/zardoy"
            }
        },
        {
            "author_association": "MEMBER",
            "body": "P-chunk support up to 1.20\r\n\r\nOn Mon, Sep 4, 2023, 15:30 Vitaly ***@***.***> wrote:\r\n\r\n> Hey! I'm currently working on this feature and wanted to report the\r\n> progress. Currently, support implemented for the following backends (this\r\n> all is possible only with the latest version of browserFS):\r\n>\r\n>    - localstorage - just hit & play *(5mb cap)* - can be exported with\r\n>    /export\r\n>    - ZIP loading - just dragndrop *(not really effective, but still can\r\n>    load any size, though there is ~400mb limit on ios)*\r\n>    - Folder loading - best option, but available only in Chrome:\r\n>    dragndrop or via folder picker (*read*/*write* to real fs)\r\n>    - Download & play from link - link example\r\n>    <https://zardoy.github.io/prismarine-web-client/?map=https://test-assets.vercel.app/world.zip&mapVersion=1.8.8>\r\n>    - downloads map from server & uses ZIP FS later\r\n>\r\n> I have used PeerJS previously for small projects and I think I'll also use\r\n> it here for multiplayer.\r\n>\r\n> I could test almost any 1.8 save, however, it seems that saves for 1.14+\r\n> are not supported by prismarine-chunk? (PrismarineJS/flying-squid#632\r\n> <https://github.com/PrismarineJS/flying-squid/issues/632>,\r\n> PrismarineJS/flying-squid#545\r\n> <https://github.com/PrismarineJS/flying-squid/issues/545>)\r\n>\r\n> Also will work to improve zipFS later.\r\n>\r\n> —\r\n> Reply to this email directly, view it on GitHub\r\n> <https://github.com/PrismarineJS/prismarine-web-client/issues/47#issuecomment-1705279726>,\r\n> or unsubscribe\r\n> <https://github.com/notifications/unsubscribe-auth/AAR437SA4UVBBN5APIJU44DXYXJWTANCNFSM4YP6M5SQ>\r\n> .\r\n> You are receiving this because you commented.Message ID:\r\n> ***@***.***>\r\n>\r\n",
            "created_at": "2023-09-04T13:33:30Z",
            "html_url": "https://github.com/PrismarineJS/prismarine-web-client/issues/47#issuecomment-1705284823",
            "id": 1705284823,
            "issue_url": "https://api.github.com/repos/PrismarineJS/prismarine-web-client/issues/47",
            "node_id": "IC_kwDOFHEu6c5lpJTX",
            "performed_via_github_app": null,
            "reactions": {
                "+1": 0,
                "-1": 0,
                "confused": 0,
                "eyes": 0,
                "heart": 0,
                "hooray": 0,
                "laugh": 0,
                "rocket": 0,
                "total_count": 0,
                "url": "https://api.github.com/repos/PrismarineJS/prismarine-web-client/issues/comments/1705284823/reactions"
            },
            "updated_at": "2023-09-04T13:33:30Z",
            "url": "https://api.github.com/repos/PrismarineJS/prismarine-web-client/issues/comments/1705284823",
            "user": {
                "avatar_url": "https://avatars.githubusercontent.com/u/2346494?v=4",
                "events_url": "https://api.github.com/users/rom1504/events{/privacy}",
                "followers_url": "https://api.github.com/users/rom1504/followers",
                "following_url": "https://api.github.com/users/rom1504/following{/other_user}",
                "gists_url": "https://api.github.com/users/rom1504/gists{/gist_id}",
                "gravatar_id": "",
                "html_url": "https://github.com/rom1504",
                "id": 2346494,
                "login": "rom1504",
                "node_id": "MDQ6VXNlcjIzNDY0OTQ=",
                "organizations_url": "https://api.github.com/users/rom1504/orgs",
                "received_events_url": "https://api.github.com/users/rom1504/received_events",
                "repos_url": "https://api.github.com/users/rom1504/repos",
                "site_admin": false,
                "starred_url": "https://api.github.com/users/rom1504/starred{/owner}{/repo}",
                "subscriptions_url": "https://api.github.com/users/rom1504/subscriptions",
                "type": "User",
                "url": "https://api.github.com/users/rom1504"
            }
        },
        {
            "author_association": "MEMBER",
            "body": "Great you're working on this!\r\n\r\nOn Mon, Sep 4, 2023, 15:33 Romain Beaumont ***@***.***> wrote:\r\n\r\n> P-chunk support up to 1.20\r\n>\r\n> On Mon, Sep 4, 2023, 15:30 Vitaly ***@***.***> wrote:\r\n>\r\n>> Hey! I'm currently working on this feature and wanted to report the\r\n>> progress. Currently, support implemented for the following backends (this\r\n>> all is possible only with the latest version of browserFS):\r\n>>\r\n>>    - localstorage - just hit & play *(5mb cap)* - can be exported with\r\n>>    /export\r\n>>    - ZIP loading - just dragndrop *(not really effective, but still can\r\n>>    load any size, though there is ~400mb limit on ios)*\r\n>>    - Folder loading - best option, but available only in Chrome:\r\n>>    dragndrop or via folder picker (*read*/*write* to real fs)\r\n>>    - Download & play from link - link example\r\n>>    <https://zardoy.github.io/prismarine-web-client/?map=https://test-assets.vercel.app/world.zip&mapVersion=1.8.8>\r\n>>    - downloads map from server & uses ZIP FS later\r\n>>\r\n>> I have used PeerJS previously for small projects and I think I'll also\r\n>> use it here for multiplayer.\r\n>>\r\n>> I could test almost any 1.8 save, however, it seems that saves for 1.14+\r\n>> are not supported by prismarine-chunk? (PrismarineJS/flying-squid#632\r\n>> <https://github.com/PrismarineJS/flying-squid/issues/632>,\r\n>> PrismarineJS/flying-squid#545\r\n>> <https://github.com/PrismarineJS/flying-squid/issues/545>)\r\n>>\r\n>> Also will work to improve zipFS later.\r\n>>\r\n>> —\r\n>> Reply to this email directly, view it on GitHub\r\n>> <https://github.com/PrismarineJS/prismarine-web-client/issues/47#issuecomment-1705279726>,\r\n>> or unsubscribe\r\n>> <https://github.com/notifications/unsubscribe-auth/AAR437SA4UVBBN5APIJU44DXYXJWTANCNFSM4YP6M5SQ>\r\n>> .\r\n>> You are receiving this because you commented.Message ID:\r\n>> ***@***.***>\r\n>>\r\n>\r\n",
            "created_at": "2023-09-04T13:34:32Z",
            "html_url": "https://github.com/PrismarineJS/prismarine-web-client/issues/47#issuecomment-1705286335",
            "id": 1705286335,
            "issue_url": "https://api.github.com/repos/PrismarineJS/prismarine-web-client/issues/47",
            "node_id": "IC_kwDOFHEu6c5lpJq_",
            "performed_via_github_app": null,
            "reactions": {
                "+1": 0,
                "-1": 0,
                "confused": 0,
                "eyes": 0,
                "heart": 0,
                "hooray": 0,
                "laugh": 0,
                "rocket": 1,
                "total_count": 1,
                "url": "https://api.github.com/repos/PrismarineJS/prismarine-web-client/issues/comments/1705286335/reactions"
            },
            "updated_at": "2023-09-04T13:34:32Z",
            "url": "https://api.github.com/repos/PrismarineJS/prismarine-web-client/issues/comments/1705286335",
            "user": {
                "avatar_url": "https://avatars.githubusercontent.com/u/2346494?v=4",
                "events_url": "https://api.github.com/users/rom1504/events{/privacy}",
                "followers_url": "https://api.github.com/users/rom1504/followers",
                "following_url": "https://api.github.com/users/rom1504/following{/other_user}",
                "gists_url": "https://api.github.com/users/rom1504/gists{/gist_id}",
                "gravatar_id": "",
                "html_url": "https://github.com/rom1504",
                "id": 2346494,
                "login": "rom1504",
                "node_id": "MDQ6VXNlcjIzNDY0OTQ=",
                "organizations_url": "https://api.github.com/users/rom1504/orgs",
                "received_events_url": "https://api.github.com/users/rom1504/received_events",
                "repos_url": "https://api.github.com/users/rom1504/repos",
                "site_admin": false,
                "starred_url": "https://api.github.com/users/rom1504/starred{/owner}{/repo}",
                "subscriptions_url": "https://api.github.com/users/rom1504/subscriptions",
                "type": "User",
                "url": "https://api.github.com/users/rom1504"
            }
        },
        {
            "author_association": "NONE",
            "body": "finally found it! though i wonder why it wasnt done before? btw do you have any plans to improve support like chests? i was looking for mcedit on mobile and couldnt find absolutely anything on the web,, also any plans for it?",
            "created_at": "2023-09-08T13:23:53Z",
            "html_url": "https://github.com/PrismarineJS/prismarine-web-client/issues/47#issuecomment-1711667724",
            "id": 1711667724,
            "issue_url": "https://api.github.com/repos/PrismarineJS/prismarine-web-client/issues/47",
            "node_id": "IC_kwDOFHEu6c5mBfoM",
            "performed_via_github_app": null,
            "reactions": {
                "+1": 0,
                "-1": 0,
                "confused": 0,
                "eyes": 0,
                "heart": 0,
                "hooray": 0,
                "laugh": 0,
                "rocket": 0,
                "total_count": 0,
                "url": "https://api.github.com/repos/PrismarineJS/prismarine-web-client/issues/comments/1711667724/reactions"
            },
            "updated_at": "2023-09-08T13:23:53Z",
            "url": "https://api.github.com/repos/PrismarineJS/prismarine-web-client/issues/comments/1711667724",
            "user": {
                "avatar_url": "https://avatars.githubusercontent.com/u/114952572?v=4",
                "events_url": "https://api.github.com/users/dimaxiton-max/events{/privacy}",
                "followers_url": "https://api.github.com/users/dimaxiton-max/followers",
                "following_url": "https://api.github.com/users/dimaxiton-max/following{/other_user}",
                "gists_url": "https://api.github.com/users/dimaxiton-max/gists{/gist_id}",
                "gravatar_id": "",
                "html_url": "https://github.com/dimaxiton-max",
                "id": 114952572,
                "login": "dimaxiton-max",
                "node_id": "U_kgDOBtoJfA",
                "organizations_url": "https://api.github.com/users/dimaxiton-max/orgs",
                "received_events_url": "https://api.github.com/users/dimaxiton-max/received_events",
                "repos_url": "https://api.github.com/users/dimaxiton-max/repos",
                "site_admin": false,
                "starred_url": "https://api.github.com/users/dimaxiton-max/starred{/owner}{/repo}",
                "subscriptions_url": "https://api.github.com/users/dimaxiton-max/subscriptions",
                "type": "User",
                "url": "https://api.github.com/users/dimaxiton-max"
            }
        },
        {
            "author_association": "CONTRIBUTOR",
            "body": "> though i wonder why it wasnt done before?\r\n\r\nIMO it's weird to ask why something wasn't done before, however I can actually explain why I had to do it now. I've been using pojav to play mc on ios (I don't really like bedrock version, also had to load java worlds, mods etc) on jb idevice, without jb it requires JIT on the air (to be connected to anything), and I don't think jb it's coming to new devices.\r\n\r\n> btw do you have any plans to improve support like chests? \r\n\r\nI think this is off-topic to ask here what is planned and what is not, but yes this will be done eventually (will first try to resolve rendering issues when have time). The current priority is command blocks to make adventure maps playable, only then survival things...\r\n\r\n> mcedit...\r\n\r\nI'm really not sure about this one. I don't really need it, but still would be great to have! If I don't come up with any ideas in other projects, I think world **edit mode** will be added here eventually (I was thinking about it a week ago)...",
            "created_at": "2023-09-08T14:28:50Z",
            "html_url": "https://github.com/PrismarineJS/prismarine-web-client/issues/47#issuecomment-1711764813",
            "id": 1711764813,
            "issue_url": "https://api.github.com/repos/PrismarineJS/prismarine-web-client/issues/47",
            "node_id": "IC_kwDOFHEu6c5mB3VN",
            "performed_via_github_app": null,
            "reactions": {
                "+1": 0,
                "-1": 0,
                "confused": 0,
                "eyes": 0,
                "heart": 0,
                "hooray": 0,
                "laugh": 0,
                "rocket": 0,
                "total_count": 0,
                "url": "https://api.github.com/repos/PrismarineJS/prismarine-web-client/issues/comments/1711764813/reactions"
            },
            "updated_at": "2023-09-08T14:28:50Z",
            "url": "https://api.github.com/repos/PrismarineJS/prismarine-web-client/issues/comments/1711764813",
            "user": {
                "avatar_url": "https://avatars.githubusercontent.com/u/46503702?v=4",
                "events_url": "https://api.github.com/users/zardoy/events{/privacy}",
                "followers_url": "https://api.github.com/users/zardoy/followers",
                "following_url": "https://api.github.com/users/zardoy/following{/other_user}",
                "gists_url": "https://api.github.com/users/zardoy/gists{/gist_id}",
                "gravatar_id": "",
                "html_url": "https://github.com/zardoy",
                "id": 46503702,
                "login": "zardoy",
                "node_id": "MDQ6VXNlcjQ2NTAzNzAy",
                "organizations_url": "https://api.github.com/users/zardoy/orgs",
                "received_events_url": "https://api.github.com/users/zardoy/received_events",
                "repos_url": "https://api.github.com/users/zardoy/repos",
                "site_admin": false,
                "starred_url": "https://api.github.com/users/zardoy/starred{/owner}{/repo}",
                "subscriptions_url": "https://api.github.com/users/zardoy/subscriptions",
                "type": "User",
                "url": "https://api.github.com/users/zardoy"
            }
        },
        {
            "author_association": "CONTRIBUTOR",
            "body": "> Great you're working on this!\r\n\r\nhey! added peerjs (p2p wan) multiplayer support (feels more like actual flying-squid server in the browser). I thought it would be harder to do, though it was fun. However, I noticed a few issues with minecraft-protocol package (there are definitely issues with handling disconnect and keepAlive packages)",
            "created_at": "2023-09-16T04:07:18Z",
            "html_url": "https://github.com/PrismarineJS/prismarine-web-client/issues/47#issuecomment-1722127212",
            "id": 1722127212,
            "issue_url": "https://api.github.com/repos/PrismarineJS/prismarine-web-client/issues/47",
            "node_id": "IC_kwDOFHEu6c5mpZNs",
            "performed_via_github_app": null,
            "reactions": {
                "+1": 0,
                "-1": 0,
                "confused": 0,
                "eyes": 0,
                "heart": 0,
                "hooray": 0,
                "laugh": 0,
                "rocket": 0,
                "total_count": 0,
                "url": "https://api.github.com/repos/PrismarineJS/prismarine-web-client/issues/comments/1722127212/reactions"
            },
            "updated_at": "2023-09-16T04:07:18Z",
            "url": "https://api.github.com/repos/PrismarineJS/prismarine-web-client/issues/comments/1722127212",
            "user": {
                "avatar_url": "https://avatars.githubusercontent.com/u/46503702?v=4",
                "events_url": "https://api.github.com/users/zardoy/events{/privacy}",
                "followers_url": "https://api.github.com/users/zardoy/followers",
                "following_url": "https://api.github.com/users/zardoy/following{/other_user}",
                "gists_url": "https://api.github.com/users/zardoy/gists{/gist_id}",
                "gravatar_id": "",
                "html_url": "https://github.com/zardoy",
                "id": 46503702,
                "login": "zardoy",
                "node_id": "MDQ6VXNlcjQ2NTAzNzAy",
                "organizations_url": "https://api.github.com/users/zardoy/orgs",
                "received_events_url": "https://api.github.com/users/zardoy/received_events",
                "repos_url": "https://api.github.com/users/zardoy/repos",
                "site_admin": false,
                "starred_url": "https://api.github.com/users/zardoy/starred{/owner}{/repo}",
                "subscriptions_url": "https://api.github.com/users/zardoy/subscriptions",
                "type": "User",
                "url": "https://api.github.com/users/zardoy"
            }
        },
        {
            "author_association": "MEMBER",
            "body": "@zardoy could you please open pull requests to add features from your fork here ?",
            "created_at": "2023-09-16T05:32:32Z",
            "html_url": "https://github.com/PrismarineJS/prismarine-web-client/issues/47#issuecomment-1722142097",
            "id": 1722142097,
            "issue_url": "https://api.github.com/repos/PrismarineJS/prismarine-web-client/issues/47",
            "node_id": "IC_kwDOFHEu6c5mpc2R",
            "performed_via_github_app": null,
            "reactions": {
                "+1": 1,
                "-1": 0,
                "confused": 0,
                "eyes": 0,
                "heart": 0,
                "hooray": 0,
                "laugh": 0,
                "rocket": 0,
                "total_count": 1,
                "url": "https://api.github.com/repos/PrismarineJS/prismarine-web-client/issues/comments/1722142097/reactions"
            },
            "updated_at": "2023-09-16T05:32:32Z",
            "url": "https://api.github.com/repos/PrismarineJS/prismarine-web-client/issues/comments/1722142097",
            "user": {
                "avatar_url": "https://avatars.githubusercontent.com/u/2346494?v=4",
                "events_url": "https://api.github.com/users/rom1504/events{/privacy}",
                "followers_url": "https://api.github.com/users/rom1504/followers",
                "following_url": "https://api.github.com/users/rom1504/following{/other_user}",
                "gists_url": "https://api.github.com/users/rom1504/gists{/gist_id}",
                "gravatar_id": "",
                "html_url": "https://github.com/rom1504",
                "id": 2346494,
                "login": "rom1504",
                "node_id": "MDQ6VXNlcjIzNDY0OTQ=",
                "organizations_url": "https://api.github.com/users/rom1504/orgs",
                "received_events_url": "https://api.github.com/users/rom1504/received_events",
                "repos_url": "https://api.github.com/users/rom1504/repos",
                "site_admin": false,
                "starred_url": "https://api.github.com/users/rom1504/starred{/owner}{/repo}",
                "subscriptions_url": "https://api.github.com/users/rom1504/subscriptions",
                "type": "User",
                "url": "https://api.github.com/users/rom1504"
            }
        },
        {
            "author_association": "NONE",
            "body": "> > Great you're working on this!\r\n> \r\n> hey! added pee \r\n![Usdollar100front](https://github.com/PrismarineJS/prismarine-web-client/assets/71288640/eb83193f-2b89-429c-9d0f-9b5896f65f22)\r\nrjs (p2p wan) multiplayer support (feels more like actual flying-squid server in the browser). I thought it would be harder to do, though it was fun. However, I noticed a few issues with minecraft-protocol package (there are definitely issues with handling disconnect and keepAlive packages)\r\n\r\n who asked bobby? its your yearly salary",
            "created_at": "2023-09-29T13:00:11Z",
            "html_url": "https://github.com/PrismarineJS/prismarine-web-client/issues/47#issuecomment-1740861360",
            "id": 1740861360,
            "issue_url": "https://api.github.com/repos/PrismarineJS/prismarine-web-client/issues/47",
            "node_id": "IC_kwDOFHEu6c5nw2-w",
            "performed_via_github_app": null,
            "reactions": {
                "+1": 1,
                "-1": 0,
                "confused": 0,
                "eyes": 0,
                "heart": 0,
                "hooray": 2,
                "laugh": 0,
                "rocket": 0,
                "total_count": 3,
                "url": "https://api.github.com/repos/PrismarineJS/prismarine-web-client/issues/comments/1740861360/reactions"
            },
            "updated_at": "2023-09-29T13:02:23Z",
            "url": "https://api.github.com/repos/PrismarineJS/prismarine-web-client/issues/comments/1740861360",
            "user": {
                "avatar_url": "https://avatars.githubusercontent.com/u/71288640?v=4",
                "events_url": "https://api.github.com/users/K1FFDAME/events{/privacy}",
                "followers_url": "https://api.github.com/users/K1FFDAME/followers",
                "following_url": "https://api.github.com/users/K1FFDAME/following{/other_user}",
                "gists_url": "https://api.github.com/users/K1FFDAME/gists{/gist_id}",
                "gravatar_id": "",
                "html_url": "https://github.com/K1FFDAME",
                "id": 71288640,
                "login": "K1FFDAME",
                "node_id": "MDQ6VXNlcjcxMjg4NjQw",
                "organizations_url": "https://api.github.com/users/K1FFDAME/orgs",
                "received_events_url": "https://api.github.com/users/K1FFDAME/received_events",
                "repos_url": "https://api.github.com/users/K1FFDAME/repos",
                "site_admin": false,
                "starred_url": "https://api.github.com/users/K1FFDAME/starred{/owner}{/repo}",
                "subscriptions_url": "https://api.github.com/users/K1FFDAME/subscriptions",
                "type": "User",
                "url": "https://api.github.com/users/K1FFDAME"
            }
        }
    ],
    "comments": 13,
    "comments_url": "https://api.github.com/repos/PrismarineJS/prismarine-web-client/issues/47/comments",
    "created_at": "2021-03-02T23:46:42Z",
    "event_data": [
        {
            "actor": {
                "avatar_url": "https://avatars.githubusercontent.com/u/2346494?v=4",
                "events_url": "https://api.github.com/users/rom1504/events{/privacy}",
                "followers_url": "https://api.github.com/users/rom1504/followers",
                "following_url": "https://api.github.com/users/rom1504/following{/other_user}",
                "gists_url": "https://api.github.com/users/rom1504/gists{/gist_id}",
                "gravatar_id": "",
                "html_url": "https://github.com/rom1504",
                "id": 2346494,
                "login": "rom1504",
                "node_id": "MDQ6VXNlcjIzNDY0OTQ=",
                "organizations_url": "https://api.github.com/users/rom1504/orgs",
                "received_events_url": "https://api.github.com/users/rom1504/received_events",
                "repos_url": "https://api.github.com/users/rom1504/repos",
                "site_admin": false,
                "starred_url": "https://api.github.com/users/rom1504/starred{/owner}{/repo}",
                "subscriptions_url": "https://api.github.com/users/rom1504/subscriptions",
                "type": "User",
                "url": "https://api.github.com/users/rom1504"
            },
            "commit_id": null,
            "commit_url": null,
            "created_at": "2021-03-07T22:48:39Z",
            "event": "labeled",
            "id": 4418590030,
            "label": {
                "color": "8E7CE1",
                "name": "minecraft-commons"
            },
            "node_id": "MDEyOkxhYmVsZWRFdmVudDQ0MTg1OTAwMzA=",
            "performed_via_github_app": null,
            "url": "https://api.github.com/repos/PrismarineJS/prismarine-web-client/issues/events/4418590030"
        },
        {
            "actor": {
                "avatar_url": "https://avatars.githubusercontent.com/u/2346494?v=4",
                "events_url": "https://api.github.com/users/rom1504/events{/privacy}",
                "followers_url": "https://api.github.com/users/rom1504/followers",
                "following_url": "https://api.github.com/users/rom1504/following{/other_user}",
                "gists_url": "https://api.github.com/users/rom1504/gists{/gist_id}",
                "gravatar_id": "",
                "html_url": "https://github.com/rom1504",
                "id": 2346494,
                "login": "rom1504",
                "node_id": "MDQ6VXNlcjIzNDY0OTQ=",
                "organizations_url": "https://api.github.com/users/rom1504/orgs",
                "received_events_url": "https://api.github.com/users/rom1504/received_events",
                "repos_url": "https://api.github.com/users/rom1504/repos",
                "site_admin": false,
                "starred_url": "https://api.github.com/users/rom1504/starred{/owner}{/repo}",
                "subscriptions_url": "https://api.github.com/users/rom1504/subscriptions",
                "type": "User",
                "url": "https://api.github.com/users/rom1504"
            },
            "commit_id": null,
            "commit_url": null,
            "created_at": "2021-03-07T22:50:15Z",
            "event": "added_to_project",
            "id": 4418591571,
            "node_id": "MDE5OkFkZGVkVG9Qcm9qZWN0RXZlbnQ0NDE4NTkxNTcx",
            "performed_via_github_app": null,
            "project_card": {
                "column_name": "To do",
                "id": 56376135,
                "project_id": 11899233,
                "project_url": "https://api.github.com/projects/11899233",
                "url": "https://api.github.com/projects/columns/cards/56376135"
            },
            "url": "https://api.github.com/repos/PrismarineJS/prismarine-web-client/issues/events/4418591571"
        },
        {
            "actor": {
                "avatar_url": "https://avatars.githubusercontent.com/u/46503702?v=4",
                "events_url": "https://api.github.com/users/zardoy/events{/privacy}",
                "followers_url": "https://api.github.com/users/zardoy/followers",
                "following_url": "https://api.github.com/users/zardoy/following{/other_user}",
                "gists_url": "https://api.github.com/users/zardoy/gists{/gist_id}",
                "gravatar_id": "",
                "html_url": "https://github.com/zardoy",
                "id": 46503702,
                "login": "zardoy",
                "node_id": "MDQ6VXNlcjQ2NTAzNzAy",
                "organizations_url": "https://api.github.com/users/zardoy/orgs",
                "received_events_url": "https://api.github.com/users/zardoy/received_events",
                "repos_url": "https://api.github.com/users/zardoy/repos",
                "site_admin": false,
                "starred_url": "https://api.github.com/users/zardoy/starred{/owner}{/repo}",
                "subscriptions_url": "https://api.github.com/users/zardoy/subscriptions",
                "type": "User",
                "url": "https://api.github.com/users/zardoy"
            },
            "commit_id": null,
            "commit_url": null,
            "created_at": "2023-09-16T05:32:32Z",
            "event": "mentioned",
            "id": 10389036796,
            "node_id": "MEE_lADOFHEu6c4w55wNzwAAAAJrPB78",
            "performed_via_github_app": null,
            "url": "https://api.github.com/repos/PrismarineJS/prismarine-web-client/issues/events/10389036796"
        },
        {
            "actor": {
                "avatar_url": "https://avatars.githubusercontent.com/u/46503702?v=4",
                "events_url": "https://api.github.com/users/zardoy/events{/privacy}",
                "followers_url": "https://api.github.com/users/zardoy/followers",
                "following_url": "https://api.github.com/users/zardoy/following{/other_user}",
                "gists_url": "https://api.github.com/users/zardoy/gists{/gist_id}",
                "gravatar_id": "",
                "html_url": "https://github.com/zardoy",
                "id": 46503702,
                "login": "zardoy",
                "node_id": "MDQ6VXNlcjQ2NTAzNzAy",
                "organizations_url": "https://api.github.com/users/zardoy/orgs",
                "received_events_url": "https://api.github.com/users/zardoy/received_events",
                "repos_url": "https://api.github.com/users/zardoy/repos",
                "site_admin": false,
                "starred_url": "https://api.github.com/users/zardoy/starred{/owner}{/repo}",
                "subscriptions_url": "https://api.github.com/users/zardoy/subscriptions",
                "type": "User",
                "url": "https://api.github.com/users/zardoy"
            },
            "commit_id": null,
            "commit_url": null,
            "created_at": "2023-09-16T05:32:32Z",
            "event": "subscribed",
            "id": 10389036797,
            "node_id": "SE_lADOFHEu6c4w55wNzwAAAAJrPB79",
            "performed_via_github_app": null,
            "url": "https://api.github.com/repos/PrismarineJS/prismarine-web-client/issues/events/10389036797"
        }
    ],
    "events_url": "https://api.github.com/repos/PrismarineJS/prismarine-web-client/issues/47/events",
    "html_url": "https://github.com/PrismarineJS/prismarine-web-client/issues/47",
    "id": 820485133,
    "labels": [
        {
            "color": "8E7CE1",
            "default": false,
            "description": "",
            "id": 2801131386,
            "name": "minecraft-commons",
            "node_id": "MDU6TGFiZWwyODAxMTMxMzg2",
            "url": "https://api.github.com/repos/PrismarineJS/prismarine-web-client/labels/minecraft-commons"
        }
    ],
    "labels_url": "https://api.github.com/repos/PrismarineJS/prismarine-web-client/issues/47/labels{/name}",
    "locked": false,
    "milestone": null,
    "node_id": "MDU6SXNzdWU4MjA0ODUxMzM=",
    "number": 47,
    "performed_via_github_app": null,
    "reactions": {
        "+1": 0,
        "-1": 0,
        "confused": 0,
        "eyes": 0,
        "heart": 0,
        "hooray": 0,
        "laugh": 0,
        "rocket": 0,
        "total_count": 0,
        "url": "https://api.github.com/repos/PrismarineJS/prismarine-web-client/issues/47/reactions"
    },
    "repository_url": "https://api.github.com/repos/PrismarineJS/prismarine-web-client",
    "state": "open",
    "state_reason": null,
    "timeline_url": "https://api.github.com/repos/PrismarineJS/prismarine-web-client/issues/47/timeline",
    "title": "Singleplayer Mode",
    "updated_at": "2023-09-29T13:02:23Z",
    "url": "https://api.github.com/repos/PrismarineJS/prismarine-web-client/issues/47",
    "user": {
        "avatar_url": "https://avatars.githubusercontent.com/u/53128754?v=4",
        "events_url": "https://api.github.com/users/AwesomestCode/events{/privacy}",
        "followers_url": "https://api.github.com/users/AwesomestCode/followers",
        "following_url": "https://api.github.com/users/AwesomestCode/following{/other_user}",
        "gists_url": "https://api.github.com/users/AwesomestCode/gists{/gist_id}",
        "gravatar_id": "",
        "html_url": "https://github.com/AwesomestCode",
        "id": 53128754,
        "login": "AwesomestCode",
        "node_id": "MDQ6VXNlcjUzMTI4NzU0",
        "organizations_url": "https://api.github.com/users/AwesomestCode/orgs",
        "received_events_url": "https://api.github.com/users/AwesomestCode/received_events",
        "repos_url": "https://api.github.com/users/AwesomestCode/repos",
        "site_admin": false,
        "starred_url": "https://api.github.com/users/AwesomestCode/starred{/owner}{/repo}",
        "subscriptions_url": "https://api.github.com/users/AwesomestCode/subscriptions",
        "type": "User",
        "url": "https://api.github.com/users/AwesomestCode"
    }
}