{
    "_links": {
        "comments": {
            "href": "https://api.github.com/repos/PrismarineJS/node-minecraft-assets/issues/13/comments"
        },
        "commits": {
            "href": "https://api.github.com/repos/PrismarineJS/node-minecraft-assets/pulls/13/commits"
        },
        "html": {
            "href": "https://github.com/PrismarineJS/node-minecraft-assets/pull/13"
        },
        "issue": {
            "href": "https://api.github.com/repos/PrismarineJS/node-minecraft-assets/issues/13"
        },
        "review_comment": {
            "href": "https://api.github.com/repos/PrismarineJS/node-minecraft-assets/pulls/comments{/number}"
        },
        "review_comments": {
            "href": "https://api.github.com/repos/PrismarineJS/node-minecraft-assets/pulls/13/comments"
        },
        "self": {
            "href": "https://api.github.com/repos/PrismarineJS/node-minecraft-assets/pulls/13"
        },
        "statuses": {
            "href": "https://api.github.com/repos/PrismarineJS/node-minecraft-assets/statuses/be62e08328c172fba87c6950bd27c69d69e5fdad"
        }
    },
    "active_lock_reason": null,
    "additions": 7,
    "assignee": null,
    "assignees": [],
    "author_association": "CONTRIBUTOR",
    "auto_merge": null,
    "base": {
        "label": "PrismarineJS:master",
        "ref": "master",
        "repo": {
            "allow_forking": true,
            "archive_url": "https://api.github.com/repos/PrismarineJS/node-minecraft-assets/{archive_format}{/ref}",
            "archived": false,
            "assignees_url": "https://api.github.com/repos/PrismarineJS/node-minecraft-assets/assignees{/user}",
            "blobs_url": "https://api.github.com/repos/PrismarineJS/node-minecraft-assets/git/blobs{/sha}",
            "branches_url": "https://api.github.com/repos/PrismarineJS/node-minecraft-assets/branches{/branch}",
            "clone_url": "https://github.com/PrismarineJS/node-minecraft-assets.git",
            "collaborators_url": "https://api.github.com/repos/PrismarineJS/node-minecraft-assets/collaborators{/collaborator}",
            "comments_url": "https://api.github.com/repos/PrismarineJS/node-minecraft-assets/comments{/number}",
            "commits_url": "https://api.github.com/repos/PrismarineJS/node-minecraft-assets/commits{/sha}",
            "compare_url": "https://api.github.com/repos/PrismarineJS/node-minecraft-assets/compare/{base}...{head}",
            "contents_url": "https://api.github.com/repos/PrismarineJS/node-minecraft-assets/contents/{+path}",
            "contributors_url": "https://api.github.com/repos/PrismarineJS/node-minecraft-assets/contributors",
            "created_at": "2016-03-18T17:56:46Z",
            "default_branch": "master",
            "deployments_url": "https://api.github.com/repos/PrismarineJS/node-minecraft-assets/deployments",
            "description": "Provide minecraft assets in node.js",
            "disabled": false,
            "downloads_url": "https://api.github.com/repos/PrismarineJS/node-minecraft-assets/downloads",
            "events_url": "https://api.github.com/repos/PrismarineJS/node-minecraft-assets/events",
            "fork": false,
            "forks": 10,
            "forks_count": 10,
            "forks_url": "https://api.github.com/repos/PrismarineJS/node-minecraft-assets/forks",
            "full_name": "PrismarineJS/node-minecraft-assets",
            "git_commits_url": "https://api.github.com/repos/PrismarineJS/node-minecraft-assets/git/commits{/sha}",
            "git_refs_url": "https://api.github.com/repos/PrismarineJS/node-minecraft-assets/git/refs{/sha}",
            "git_tags_url": "https://api.github.com/repos/PrismarineJS/node-minecraft-assets/git/tags{/sha}",
            "git_url": "git://github.com/PrismarineJS/node-minecraft-assets.git",
            "has_discussions": false,
            "has_downloads": true,
            "has_issues": true,
            "has_pages": false,
            "has_projects": true,
            "has_wiki": true,
            "homepage": null,
            "hooks_url": "https://api.github.com/repos/PrismarineJS/node-minecraft-assets/hooks",
            "html_url": "https://github.com/PrismarineJS/node-minecraft-assets",
            "id": 54221312,
            "is_template": false,
            "issue_comment_url": "https://api.github.com/repos/PrismarineJS/node-minecraft-assets/issues/comments{/number}",
            "issue_events_url": "https://api.github.com/repos/PrismarineJS/node-minecraft-assets/issues/events{/number}",
            "issues_url": "https://api.github.com/repos/PrismarineJS/node-minecraft-assets/issues{/number}",
            "keys_url": "https://api.github.com/repos/PrismarineJS/node-minecraft-assets/keys{/key_id}",
            "labels_url": "https://api.github.com/repos/PrismarineJS/node-minecraft-assets/labels{/name}",
            "language": "JavaScript",
            "languages_url": "https://api.github.com/repos/PrismarineJS/node-minecraft-assets/languages",
            "license": null,
            "merges_url": "https://api.github.com/repos/PrismarineJS/node-minecraft-assets/merges",
            "milestones_url": "https://api.github.com/repos/PrismarineJS/node-minecraft-assets/milestones{/number}",
            "mirror_url": null,
            "name": "node-minecraft-assets",
            "node_id": "MDEwOlJlcG9zaXRvcnk1NDIyMTMxMg==",
            "notifications_url": "https://api.github.com/repos/PrismarineJS/node-minecraft-assets/notifications{?since,all,participating}",
            "open_issues": 4,
            "open_issues_count": 4,
            "owner": {
                "avatar_url": "https://avatars.githubusercontent.com/u/11053411?v=4",
                "events_url": "https://api.github.com/users/PrismarineJS/events{/privacy}",
                "followers_url": "https://api.github.com/users/PrismarineJS/followers",
                "following_url": "https://api.github.com/users/PrismarineJS/following{/other_user}",
                "gists_url": "https://api.github.com/users/PrismarineJS/gists{/gist_id}",
                "gravatar_id": "",
                "html_url": "https://github.com/PrismarineJS",
                "id": 11053411,
                "login": "PrismarineJS",
                "node_id": "MDEyOk9yZ2FuaXphdGlvbjExMDUzNDEx",
                "organizations_url": "https://api.github.com/users/PrismarineJS/orgs",
                "received_events_url": "https://api.github.com/users/PrismarineJS/received_events",
                "repos_url": "https://api.github.com/users/PrismarineJS/repos",
                "site_admin": false,
                "starred_url": "https://api.github.com/users/PrismarineJS/starred{/owner}{/repo}",
                "subscriptions_url": "https://api.github.com/users/PrismarineJS/subscriptions",
                "type": "Organization",
                "url": "https://api.github.com/users/PrismarineJS"
            },
            "private": false,
            "pulls_url": "https://api.github.com/repos/PrismarineJS/node-minecraft-assets/pulls{/number}",
            "pushed_at": "2023-03-26T08:42:26Z",
            "releases_url": "https://api.github.com/repos/PrismarineJS/node-minecraft-assets/releases{/id}",
            "size": 42,
            "ssh_url": "git@github.com:PrismarineJS/node-minecraft-assets.git",
            "stargazers_count": 12,
            "stargazers_url": "https://api.github.com/repos/PrismarineJS/node-minecraft-assets/stargazers",
            "statuses_url": "https://api.github.com/repos/PrismarineJS/node-minecraft-assets/statuses/{sha}",
            "subscribers_url": "https://api.github.com/repos/PrismarineJS/node-minecraft-assets/subscribers",
            "subscription_url": "https://api.github.com/repos/PrismarineJS/node-minecraft-assets/subscription",
            "svn_url": "https://github.com/PrismarineJS/node-minecraft-assets",
            "tags_url": "https://api.github.com/repos/PrismarineJS/node-minecraft-assets/tags",
            "teams_url": "https://api.github.com/repos/PrismarineJS/node-minecraft-assets/teams",
            "topics": [],
            "trees_url": "https://api.github.com/repos/PrismarineJS/node-minecraft-assets/git/trees{/sha}",
            "updated_at": "2023-04-05T20:45:53Z",
            "url": "https://api.github.com/repos/PrismarineJS/node-minecraft-assets",
            "visibility": "public",
            "watchers": 12,
            "watchers_count": 12,
            "web_commit_signoff_required": false
        },
        "sha": "f9dd9530b8b4282348fe7a282c465534828edb3f",
        "user": {
            "avatar_url": "https://avatars.githubusercontent.com/u/11053411?v=4",
            "events_url": "https://api.github.com/users/PrismarineJS/events{/privacy}",
            "followers_url": "https://api.github.com/users/PrismarineJS/followers",
            "following_url": "https://api.github.com/users/PrismarineJS/following{/other_user}",
            "gists_url": "https://api.github.com/users/PrismarineJS/gists{/gist_id}",
            "gravatar_id": "",
            "html_url": "https://github.com/PrismarineJS",
            "id": 11053411,
            "login": "PrismarineJS",
            "node_id": "MDEyOk9yZ2FuaXphdGlvbjExMDUzNDEx",
            "organizations_url": "https://api.github.com/users/PrismarineJS/orgs",
            "received_events_url": "https://api.github.com/users/PrismarineJS/received_events",
            "repos_url": "https://api.github.com/users/PrismarineJS/repos",
            "site_admin": false,
            "starred_url": "https://api.github.com/users/PrismarineJS/starred{/owner}{/repo}",
            "subscriptions_url": "https://api.github.com/users/PrismarineJS/subscriptions",
            "type": "Organization",
            "url": "https://api.github.com/users/PrismarineJS"
        }
    },
    "body": "_Dependabot Preview will be shut down on August 3rd, 2021. In order to keep getting Dependabot updates, please merge this PR and migrate to GitHub-native Dependabot before then._\n\nDependabot has been fully integrated into GitHub, so you no longer have to install and manage a separate app. This pull request migrates your configuration from Dependabot.com to a config file, using the [new syntax][new_syntax]. When merged, we'll swap out `dependabot-preview` (me) for a new `dependabot` app, and you'll be all set!\n\nWith this change, you'll now use the [Dependabot page in GitHub][dependabot_page], rather than the [Dependabot dashboard][dashboard], to monitor your version updates, and you'll configure Dependabot through the new config file rather than a UI.\n\n\n\n\n\n\n\nIf you've got any questions or feedback for us, please let us know by creating an issue in the [dependabot/dependabot-core][issues] repository.\n\n[Learn more about migrating to GitHub-native Dependabot][learn]\n\nPlease note that regular `@dependabot` commands do not work on this pull request.\n\n[dashboard]: https://app.dependabot.com/\n[dependabot_page]: https://github.com/PrismarineJS/node-minecraft-assets/network/updates\n[issues]: https://github.com/dependabot/dependabot-core/issues/new?assignees=%40dependabot%2Fpreview-migration-reviewers&labels=E%3A+preview-migration&template=migration-issue.md\n[learn]: http://docs.github.com/code-security/supply-chain-security/upgrading-from-dependabotcom-to-github-native-dependabot\n[new_syntax]: https://help.github.com/en/github/administering-a-repository/configuration-options-for-dependency-updates\n[org_secrets_url]: https://github.com/organizations/PrismarineJS/settings/secrets/dependabot\n[repo_secrets_url]: https://github.com/PrismarineJS/node-minecraft-assets/settings/secrets/dependabot\n",
    "changed_files": 1,
    "closed_at": "2021-05-01T23:02:14Z",
    "comment_data": [],
    "comment_regular_data": [],
    "comments": 0,
    "comments_url": "https://api.github.com/repos/PrismarineJS/node-minecraft-assets/issues/13/comments",
    "commit_data": [
        {
            "author": {
                "avatar_url": "https://avatars.githubusercontent.com/in/2141?v=4",
                "events_url": "https://api.github.com/users/dependabot-preview%5Bbot%5D/events{/privacy}",
                "followers_url": "https://api.github.com/users/dependabot-preview%5Bbot%5D/followers",
                "following_url": "https://api.github.com/users/dependabot-preview%5Bbot%5D/following{/other_user}",
                "gists_url": "https://api.github.com/users/dependabot-preview%5Bbot%5D/gists{/gist_id}",
                "gravatar_id": "",
                "html_url": "https://github.com/apps/dependabot-preview",
                "id": 27856297,
                "login": "dependabot-preview[bot]",
                "node_id": "MDM6Qm90Mjc4NTYyOTc=",
                "organizations_url": "https://api.github.com/users/dependabot-preview%5Bbot%5D/orgs",
                "received_events_url": "https://api.github.com/users/dependabot-preview%5Bbot%5D/received_events",
                "repos_url": "https://api.github.com/users/dependabot-preview%5Bbot%5D/repos",
                "site_admin": false,
                "starred_url": "https://api.github.com/users/dependabot-preview%5Bbot%5D/starred{/owner}{/repo}",
                "subscriptions_url": "https://api.github.com/users/dependabot-preview%5Bbot%5D/subscriptions",
                "type": "Bot",
                "url": "https://api.github.com/users/dependabot-preview%5Bbot%5D"
            },
            "comments_url": "https://api.github.com/repos/PrismarineJS/node-minecraft-assets/commits/be62e08328c172fba87c6950bd27c69d69e5fdad/comments",
            "commit": {
                "author": {
                    "date": "2021-04-29T21:35:51Z",
                    "email": "27856297+dependabot-preview[bot]@users.noreply.github.com",
                    "name": "dependabot-preview[bot]"
                },
                "comment_count": 0,
                "committer": {
                    "date": "2021-04-29T21:35:51Z",
                    "email": "noreply@github.com",
                    "name": "GitHub"
                },
                "message": "Upgrade to GitHub-native Dependabot",
                "tree": {
                    "sha": "b18892771ed8cc36ef6b226eb6c880be19e23675",
                    "url": "https://api.github.com/repos/PrismarineJS/node-minecraft-assets/git/trees/b18892771ed8cc36ef6b226eb6c880be19e23675"
                },
                "url": "https://api.github.com/repos/PrismarineJS/node-minecraft-assets/git/commits/be62e08328c172fba87c6950bd27c69d69e5fdad",
                "verification": {
                    "payload": "tree b18892771ed8cc36ef6b226eb6c880be19e23675\nparent f9dd9530b8b4282348fe7a282c465534828edb3f\nauthor dependabot-preview[bot] <27856297+dependabot-preview[bot]@users.noreply.github.com> 1619732151 +0000\ncommitter GitHub <noreply@github.com> 1619732151 +0000\n\nUpgrade to GitHub-native Dependabot",
                    "reason": "valid",
                    "signature": "-----BEGIN PGP SIGNATURE-----\n\nwsBcBAABCAAQBQJgiya3CRBK7hj4Ov3rIwAArvYIADpIVlmwA9dfCY0XHYLD2RYj\ntqIEQMQ+gI/VlWmhzce96nE6qez/1d5UpBboTY/nCqzf3b8JbTCg4J7EhmVmoF9B\nSgCnJMyWrxR+M3BquLUaAaBD8Uz4jeaJM+INommS1zsp0Cvk4+fYtzrrvuM7iAML\nMYblwgz2o5a6MOoUqrgkfXgkQFB8XA5EmW7n8vjxl7qf9qAKW9cLRJgtReSu+Gm6\noigPgTz8c6zSINqkl80kbloSEeSCwsv6vR+2dAoXdAPNoQKP5usLarEKWIUP6NP5\nq3M3sw1YC27g+8sUltZIdWi0LokHUf4YbpBimpwltiStkC/vQSo0KdnVD6XvjmM=\n=/B7P\n-----END PGP SIGNATURE-----\n",
                    "verified": true
                }
            },
            "committer": {
                "avatar_url": "https://avatars.githubusercontent.com/u/19864447?v=4",
                "events_url": "https://api.github.com/users/web-flow/events{/privacy}",
                "followers_url": "https://api.github.com/users/web-flow/followers",
                "following_url": "https://api.github.com/users/web-flow/following{/other_user}",
                "gists_url": "https://api.github.com/users/web-flow/gists{/gist_id}",
                "gravatar_id": "",
                "html_url": "https://github.com/web-flow",
                "id": 19864447,
                "login": "web-flow",
                "node_id": "MDQ6VXNlcjE5ODY0NDQ3",
                "organizations_url": "https://api.github.com/users/web-flow/orgs",
                "received_events_url": "https://api.github.com/users/web-flow/received_events",
                "repos_url": "https://api.github.com/users/web-flow/repos",
                "site_admin": false,
                "starred_url": "https://api.github.com/users/web-flow/starred{/owner}{/repo}",
                "subscriptions_url": "https://api.github.com/users/web-flow/subscriptions",
                "type": "User",
                "url": "https://api.github.com/users/web-flow"
            },
            "html_url": "https://github.com/PrismarineJS/node-minecraft-assets/commit/be62e08328c172fba87c6950bd27c69d69e5fdad",
            "node_id": "MDY6Q29tbWl0NTQyMjEzMTI6YmU2MmUwODMyOGMxNzJmYmE4N2M2OTUwYmQyN2M2OWQ2OWU1ZmRhZA==",
            "parents": [
                {
                    "html_url": "https://github.com/PrismarineJS/node-minecraft-assets/commit/f9dd9530b8b4282348fe7a282c465534828edb3f",
                    "sha": "f9dd9530b8b4282348fe7a282c465534828edb3f",
                    "url": "https://api.github.com/repos/PrismarineJS/node-minecraft-assets/commits/f9dd9530b8b4282348fe7a282c465534828edb3f"
                }
            ],
            "sha": "be62e08328c172fba87c6950bd27c69d69e5fdad",
            "url": "https://api.github.com/repos/PrismarineJS/node-minecraft-assets/commits/be62e08328c172fba87c6950bd27c69d69e5fdad"
        }
    ],
    "commits": 1,
    "commits_url": "https://api.github.com/repos/PrismarineJS/node-minecraft-assets/pulls/13/commits",
    "created_at": "2021-04-29T21:35:52Z",
    "deletions": 0,
    "diff_url": "https://github.com/PrismarineJS/node-minecraft-assets/pull/13.diff",
    "draft": false,
    "head": {
        "label": "PrismarineJS:dependabot/add-v2-config-file",
        "ref": "dependabot/add-v2-config-file",
        "repo": {
            "allow_forking": true,
            "archive_url": "https://api.github.com/repos/PrismarineJS/node-minecraft-assets/{archive_format}{/ref}",
            "archived": false,
            "assignees_url": "https://api.github.com/repos/PrismarineJS/node-minecraft-assets/assignees{/user}",
            "blobs_url": "https://api.github.com/repos/PrismarineJS/node-minecraft-assets/git/blobs{/sha}",
            "branches_url": "https://api.github.com/repos/PrismarineJS/node-minecraft-assets/branches{/branch}",
            "clone_url": "https://github.com/PrismarineJS/node-minecraft-assets.git",
            "collaborators_url": "https://api.github.com/repos/PrismarineJS/node-minecraft-assets/collaborators{/collaborator}",
            "comments_url": "https://api.github.com/repos/PrismarineJS/node-minecraft-assets/comments{/number}",
            "commits_url": "https://api.github.com/repos/PrismarineJS/node-minecraft-assets/commits{/sha}",
            "compare_url": "https://api.github.com/repos/PrismarineJS/node-minecraft-assets/compare/{base}...{head}",
            "contents_url": "https://api.github.com/repos/PrismarineJS/node-minecraft-assets/contents/{+path}",
            "contributors_url": "https://api.github.com/repos/PrismarineJS/node-minecraft-assets/contributors",
            "created_at": "2016-03-18T17:56:46Z",
            "default_branch": "master",
            "deployments_url": "https://api.github.com/repos/PrismarineJS/node-minecraft-assets/deployments",
            "description": "Provide minecraft assets in node.js",
            "disabled": false,
            "downloads_url": "https://api.github.com/repos/PrismarineJS/node-minecraft-assets/downloads",
            "events_url": "https://api.github.com/repos/PrismarineJS/node-minecraft-assets/events",
            "fork": false,
            "forks": 10,
            "forks_count": 10,
            "forks_url": "https://api.github.com/repos/PrismarineJS/node-minecraft-assets/forks",
            "full_name": "PrismarineJS/node-minecraft-assets",
            "git_commits_url": "https://api.github.com/repos/PrismarineJS/node-minecraft-assets/git/commits{/sha}",
            "git_refs_url": "https://api.github.com/repos/PrismarineJS/node-minecraft-assets/git/refs{/sha}",
            "git_tags_url": "https://api.github.com/repos/PrismarineJS/node-minecraft-assets/git/tags{/sha}",
            "git_url": "git://github.com/PrismarineJS/node-minecraft-assets.git",
            "has_discussions": false,
            "has_downloads": true,
            "has_issues": true,
            "has_pages": false,
            "has_projects": true,
            "has_wiki": true,
            "homepage": null,
            "hooks_url": "https://api.github.com/repos/PrismarineJS/node-minecraft-assets/hooks",
            "html_url": "https://github.com/PrismarineJS/node-minecraft-assets",
            "id": 54221312,
            "is_template": false,
            "issue_comment_url": "https://api.github.com/repos/PrismarineJS/node-minecraft-assets/issues/comments{/number}",
            "issue_events_url": "https://api.github.com/repos/PrismarineJS/node-minecraft-assets/issues/events{/number}",
            "issues_url": "https://api.github.com/repos/PrismarineJS/node-minecraft-assets/issues{/number}",
            "keys_url": "https://api.github.com/repos/PrismarineJS/node-minecraft-assets/keys{/key_id}",
            "labels_url": "https://api.github.com/repos/PrismarineJS/node-minecraft-assets/labels{/name}",
            "language": "JavaScript",
            "languages_url": "https://api.github.com/repos/PrismarineJS/node-minecraft-assets/languages",
            "license": null,
            "merges_url": "https://api.github.com/repos/PrismarineJS/node-minecraft-assets/merges",
            "milestones_url": "https://api.github.com/repos/PrismarineJS/node-minecraft-assets/milestones{/number}",
            "mirror_url": null,
            "name": "node-minecraft-assets",
            "node_id": "MDEwOlJlcG9zaXRvcnk1NDIyMTMxMg==",
            "notifications_url": "https://api.github.com/repos/PrismarineJS/node-minecraft-assets/notifications{?since,all,participating}",
            "open_issues": 4,
            "open_issues_count": 4,
            "owner": {
                "avatar_url": "https://avatars.githubusercontent.com/u/11053411?v=4",
                "events_url": "https://api.github.com/users/PrismarineJS/events{/privacy}",
                "followers_url": "https://api.github.com/users/PrismarineJS/followers",
                "following_url": "https://api.github.com/users/PrismarineJS/following{/other_user}",
                "gists_url": "https://api.github.com/users/PrismarineJS/gists{/gist_id}",
                "gravatar_id": "",
                "html_url": "https://github.com/PrismarineJS",
                "id": 11053411,
                "login": "PrismarineJS",
                "node_id": "MDEyOk9yZ2FuaXphdGlvbjExMDUzNDEx",
                "organizations_url": "https://api.github.com/users/PrismarineJS/orgs",
                "received_events_url": "https://api.github.com/users/PrismarineJS/received_events",
                "repos_url": "https://api.github.com/users/PrismarineJS/repos",
                "site_admin": false,
                "starred_url": "https://api.github.com/users/PrismarineJS/starred{/owner}{/repo}",
                "subscriptions_url": "https://api.github.com/users/PrismarineJS/subscriptions",
                "type": "Organization",
                "url": "https://api.github.com/users/PrismarineJS"
            },
            "private": false,
            "pulls_url": "https://api.github.com/repos/PrismarineJS/node-minecraft-assets/pulls{/number}",
            "pushed_at": "2023-03-26T08:42:26Z",
            "releases_url": "https://api.github.com/repos/PrismarineJS/node-minecraft-assets/releases{/id}",
            "size": 42,
            "ssh_url": "git@github.com:PrismarineJS/node-minecraft-assets.git",
            "stargazers_count": 12,
            "stargazers_url": "https://api.github.com/repos/PrismarineJS/node-minecraft-assets/stargazers",
            "statuses_url": "https://api.github.com/repos/PrismarineJS/node-minecraft-assets/statuses/{sha}",
            "subscribers_url": "https://api.github.com/repos/PrismarineJS/node-minecraft-assets/subscribers",
            "subscription_url": "https://api.github.com/repos/PrismarineJS/node-minecraft-assets/subscription",
            "svn_url": "https://github.com/PrismarineJS/node-minecraft-assets",
            "tags_url": "https://api.github.com/repos/PrismarineJS/node-minecraft-assets/tags",
            "teams_url": "https://api.github.com/repos/PrismarineJS/node-minecraft-assets/teams",
            "topics": [],
            "trees_url": "https://api.github.com/repos/PrismarineJS/node-minecraft-assets/git/trees{/sha}",
            "updated_at": "2023-04-05T20:45:53Z",
            "url": "https://api.github.com/repos/PrismarineJS/node-minecraft-assets",
            "visibility": "public",
            "watchers": 12,
            "watchers_count": 12,
            "web_commit_signoff_required": false
        },
        "sha": "be62e08328c172fba87c6950bd27c69d69e5fdad",
        "user": {
            "avatar_url": "https://avatars.githubusercontent.com/u/11053411?v=4",
            "events_url": "https://api.github.com/users/PrismarineJS/events{/privacy}",
            "followers_url": "https://api.github.com/users/PrismarineJS/followers",
            "following_url": "https://api.github.com/users/PrismarineJS/following{/other_user}",
            "gists_url": "https://api.github.com/users/PrismarineJS/gists{/gist_id}",
            "gravatar_id": "",
            "html_url": "https://github.com/PrismarineJS",
            "id": 11053411,
            "login": "PrismarineJS",
            "node_id": "MDEyOk9yZ2FuaXphdGlvbjExMDUzNDEx",
            "organizations_url": "https://api.github.com/users/PrismarineJS/orgs",
            "received_events_url": "https://api.github.com/users/PrismarineJS/received_events",
            "repos_url": "https://api.github.com/users/PrismarineJS/repos",
            "site_admin": false,
            "starred_url": "https://api.github.com/users/PrismarineJS/starred{/owner}{/repo}",
            "subscriptions_url": "https://api.github.com/users/PrismarineJS/subscriptions",
            "type": "Organization",
            "url": "https://api.github.com/users/PrismarineJS"
        }
    },
    "html_url": "https://github.com/PrismarineJS/node-minecraft-assets/pull/13",
    "id": 626568193,
    "issue_url": "https://api.github.com/repos/PrismarineJS/node-minecraft-assets/issues/13",
    "labels": [
        {
            "color": "0366d6",
            "default": false,
            "description": "Pull requests that update a dependency file",
            "id": 2067070338,
            "name": "dependencies",
            "node_id": "MDU6TGFiZWwyMDY3MDcwMzM4",
            "url": "https://api.github.com/repos/PrismarineJS/node-minecraft-assets/labels/dependencies"
        }
    ],
    "locked": false,
    "maintainer_can_modify": false,
    "merge_commit_sha": "5020bf1169053690202bea2649d48a7c3f74eecb",
    "mergeable": null,
    "mergeable_state": "unknown",
    "merged": true,
    "merged_at": "2021-05-01T23:02:14Z",
    "merged_by": {
        "avatar_url": "https://avatars.githubusercontent.com/u/2346494?v=4",
        "events_url": "https://api.github.com/users/rom1504/events{/privacy}",
        "followers_url": "https://api.github.com/users/rom1504/followers",
        "following_url": "https://api.github.com/users/rom1504/following{/other_user}",
        "gists_url": "https://api.github.com/users/rom1504/gists{/gist_id}",
        "gravatar_id": "",
        "html_url": "https://github.com/rom1504",
        "id": 2346494,
        "login": "rom1504",
        "node_id": "MDQ6VXNlcjIzNDY0OTQ=",
        "organizations_url": "https://api.github.com/users/rom1504/orgs",
        "received_events_url": "https://api.github.com/users/rom1504/received_events",
        "repos_url": "https://api.github.com/users/rom1504/repos",
        "site_admin": false,
        "starred_url": "https://api.github.com/users/rom1504/starred{/owner}{/repo}",
        "subscriptions_url": "https://api.github.com/users/rom1504/subscriptions",
        "type": "User",
        "url": "https://api.github.com/users/rom1504"
    },
    "milestone": null,
    "node_id": "MDExOlB1bGxSZXF1ZXN0NjI2NTY4MTkz",
    "number": 13,
    "patch_url": "https://github.com/PrismarineJS/node-minecraft-assets/pull/13.patch",
    "rebaseable": null,
    "requested_reviewers": [],
    "requested_teams": [],
    "review_comment_url": "https://api.github.com/repos/PrismarineJS/node-minecraft-assets/pulls/comments{/number}",
    "review_comments": 0,
    "review_comments_url": "https://api.github.com/repos/PrismarineJS/node-minecraft-assets/pulls/13/comments",
    "state": "closed",
    "statuses_url": "https://api.github.com/repos/PrismarineJS/node-minecraft-assets/statuses/be62e08328c172fba87c6950bd27c69d69e5fdad",
    "title": "Upgrade to GitHub-native Dependabot",
    "updated_at": "2021-05-01T23:02:15Z",
    "url": "https://api.github.com/repos/PrismarineJS/node-minecraft-assets/pulls/13",
    "user": {
        "avatar_url": "https://avatars.githubusercontent.com/in/2141?v=4",
        "events_url": "https://api.github.com/users/dependabot-preview%5Bbot%5D/events{/privacy}",
        "followers_url": "https://api.github.com/users/dependabot-preview%5Bbot%5D/followers",
        "following_url": "https://api.github.com/users/dependabot-preview%5Bbot%5D/following{/other_user}",
        "gists_url": "https://api.github.com/users/dependabot-preview%5Bbot%5D/gists{/gist_id}",
        "gravatar_id": "",
        "html_url": "https://github.com/apps/dependabot-preview",
        "id": 27856297,
        "login": "dependabot-preview[bot]",
        "node_id": "MDM6Qm90Mjc4NTYyOTc=",
        "organizations_url": "https://api.github.com/users/dependabot-preview%5Bbot%5D/orgs",
        "received_events_url": "https://api.github.com/users/dependabot-preview%5Bbot%5D/received_events",
        "repos_url": "https://api.github.com/users/dependabot-preview%5Bbot%5D/repos",
        "site_admin": false,
        "starred_url": "https://api.github.com/users/dependabot-preview%5Bbot%5D/starred{/owner}{/repo}",
        "subscriptions_url": "https://api.github.com/users/dependabot-preview%5Bbot%5D/subscriptions",
        "type": "Bot",
        "url": "https://api.github.com/users/dependabot-preview%5Bbot%5D"
    }
}