{
    "_links": {
        "comments": {
            "href": "https://api.github.com/repos/PrismarineJS/prismarine-provider-raw/issues/34/comments"
        },
        "commits": {
            "href": "https://api.github.com/repos/PrismarineJS/prismarine-provider-raw/pulls/34/commits"
        },
        "html": {
            "href": "https://github.com/PrismarineJS/prismarine-provider-raw/pull/34"
        },
        "issue": {
            "href": "https://api.github.com/repos/PrismarineJS/prismarine-provider-raw/issues/34"
        },
        "review_comment": {
            "href": "https://api.github.com/repos/PrismarineJS/prismarine-provider-raw/pulls/comments{/number}"
        },
        "review_comments": {
            "href": "https://api.github.com/repos/PrismarineJS/prismarine-provider-raw/pulls/34/comments"
        },
        "self": {
            "href": "https://api.github.com/repos/PrismarineJS/prismarine-provider-raw/pulls/34"
        },
        "statuses": {
            "href": "https://api.github.com/repos/PrismarineJS/prismarine-provider-raw/statuses/92cb25f2ccf868d74059bbe8b44a38b5891fbab5"
        }
    },
    "active_lock_reason": null,
    "additions": 1,
    "assignee": null,
    "assignees": [],
    "author_association": "CONTRIBUTOR",
    "auto_merge": null,
    "base": {
        "label": "PrismarineJS:master",
        "ref": "master",
        "repo": {
            "allow_forking": true,
            "archive_url": "https://api.github.com/repos/PrismarineJS/prismarine-provider-raw/{archive_format}{/ref}",
            "archived": false,
            "assignees_url": "https://api.github.com/repos/PrismarineJS/prismarine-provider-raw/assignees{/user}",
            "blobs_url": "https://api.github.com/repos/PrismarineJS/prismarine-provider-raw/git/blobs{/sha}",
            "branches_url": "https://api.github.com/repos/PrismarineJS/prismarine-provider-raw/branches{/branch}",
            "clone_url": "https://github.com/PrismarineJS/prismarine-provider-raw.git",
            "collaborators_url": "https://api.github.com/repos/PrismarineJS/prismarine-provider-raw/collaborators{/collaborator}",
            "comments_url": "https://api.github.com/repos/PrismarineJS/prismarine-provider-raw/comments{/number}",
            "commits_url": "https://api.github.com/repos/PrismarineJS/prismarine-provider-raw/commits{/sha}",
            "compare_url": "https://api.github.com/repos/PrismarineJS/prismarine-provider-raw/compare/{base}...{head}",
            "contents_url": "https://api.github.com/repos/PrismarineJS/prismarine-provider-raw/contents/{+path}",
            "contributors_url": "https://api.github.com/repos/PrismarineJS/prismarine-provider-raw/contributors",
            "created_at": "2020-08-08T14:58:39Z",
            "default_branch": "master",
            "deployments_url": "https://api.github.com/repos/PrismarineJS/prismarine-provider-raw/deployments",
            "description": "Raw (prismarine-chunk based) Storage Provider implementation. ",
            "disabled": false,
            "downloads_url": "https://api.github.com/repos/PrismarineJS/prismarine-provider-raw/downloads",
            "events_url": "https://api.github.com/repos/PrismarineJS/prismarine-provider-raw/events",
            "fork": false,
            "forks": 2,
            "forks_count": 2,
            "forks_url": "https://api.github.com/repos/PrismarineJS/prismarine-provider-raw/forks",
            "full_name": "PrismarineJS/prismarine-provider-raw",
            "git_commits_url": "https://api.github.com/repos/PrismarineJS/prismarine-provider-raw/git/commits{/sha}",
            "git_refs_url": "https://api.github.com/repos/PrismarineJS/prismarine-provider-raw/git/refs{/sha}",
            "git_tags_url": "https://api.github.com/repos/PrismarineJS/prismarine-provider-raw/git/tags{/sha}",
            "git_url": "git://github.com/PrismarineJS/prismarine-provider-raw.git",
            "has_discussions": false,
            "has_downloads": true,
            "has_issues": true,
            "has_pages": false,
            "has_projects": true,
            "has_wiki": true,
            "homepage": "",
            "hooks_url": "https://api.github.com/repos/PrismarineJS/prismarine-provider-raw/hooks",
            "html_url": "https://github.com/PrismarineJS/prismarine-provider-raw",
            "id": 286063949,
            "is_template": false,
            "issue_comment_url": "https://api.github.com/repos/PrismarineJS/prismarine-provider-raw/issues/comments{/number}",
            "issue_events_url": "https://api.github.com/repos/PrismarineJS/prismarine-provider-raw/issues/events{/number}",
            "issues_url": "https://api.github.com/repos/PrismarineJS/prismarine-provider-raw/issues{/number}",
            "keys_url": "https://api.github.com/repos/PrismarineJS/prismarine-provider-raw/keys{/key_id}",
            "labels_url": "https://api.github.com/repos/PrismarineJS/prismarine-provider-raw/labels{/name}",
            "language": "JavaScript",
            "languages_url": "https://api.github.com/repos/PrismarineJS/prismarine-provider-raw/languages",
            "license": {
                "key": "mit",
                "name": "MIT License",
                "node_id": "MDc6TGljZW5zZTEz",
                "spdx_id": "MIT",
                "url": "https://api.github.com/licenses/mit"
            },
            "merges_url": "https://api.github.com/repos/PrismarineJS/prismarine-provider-raw/merges",
            "milestones_url": "https://api.github.com/repos/PrismarineJS/prismarine-provider-raw/milestones{/number}",
            "mirror_url": null,
            "name": "prismarine-provider-raw",
            "node_id": "MDEwOlJlcG9zaXRvcnkyODYwNjM5NDk=",
            "notifications_url": "https://api.github.com/repos/PrismarineJS/prismarine-provider-raw/notifications{?since,all,participating}",
            "open_issues": 4,
            "open_issues_count": 4,
            "owner": {
                "avatar_url": "https://avatars.githubusercontent.com/u/11053411?v=4",
                "events_url": "https://api.github.com/users/PrismarineJS/events{/privacy}",
                "followers_url": "https://api.github.com/users/PrismarineJS/followers",
                "following_url": "https://api.github.com/users/PrismarineJS/following{/other_user}",
                "gists_url": "https://api.github.com/users/PrismarineJS/gists{/gist_id}",
                "gravatar_id": "",
                "html_url": "https://github.com/PrismarineJS",
                "id": 11053411,
                "login": "PrismarineJS",
                "node_id": "MDEyOk9yZ2FuaXphdGlvbjExMDUzNDEx",
                "organizations_url": "https://api.github.com/users/PrismarineJS/orgs",
                "received_events_url": "https://api.github.com/users/PrismarineJS/received_events",
                "repos_url": "https://api.github.com/users/PrismarineJS/repos",
                "site_admin": false,
                "starred_url": "https://api.github.com/users/PrismarineJS/starred{/owner}{/repo}",
                "subscriptions_url": "https://api.github.com/users/PrismarineJS/subscriptions",
                "type": "Organization",
                "url": "https://api.github.com/users/PrismarineJS"
            },
            "private": false,
            "pulls_url": "https://api.github.com/repos/PrismarineJS/prismarine-provider-raw/pulls{/number}",
            "pushed_at": "2023-04-10T11:59:11Z",
            "releases_url": "https://api.github.com/repos/PrismarineJS/prismarine-provider-raw/releases{/id}",
            "size": 25,
            "ssh_url": "git@github.com:PrismarineJS/prismarine-provider-raw.git",
            "stargazers_count": 1,
            "stargazers_url": "https://api.github.com/repos/PrismarineJS/prismarine-provider-raw/stargazers",
            "statuses_url": "https://api.github.com/repos/PrismarineJS/prismarine-provider-raw/statuses/{sha}",
            "subscribers_url": "https://api.github.com/repos/PrismarineJS/prismarine-provider-raw/subscribers",
            "subscription_url": "https://api.github.com/repos/PrismarineJS/prismarine-provider-raw/subscription",
            "svn_url": "https://github.com/PrismarineJS/prismarine-provider-raw",
            "tags_url": "https://api.github.com/repos/PrismarineJS/prismarine-provider-raw/tags",
            "teams_url": "https://api.github.com/repos/PrismarineJS/prismarine-provider-raw/teams",
            "topics": [],
            "trees_url": "https://api.github.com/repos/PrismarineJS/prismarine-provider-raw/git/trees{/sha}",
            "updated_at": "2021-06-16T21:05:09Z",
            "url": "https://api.github.com/repos/PrismarineJS/prismarine-provider-raw",
            "visibility": "public",
            "watchers": 1,
            "watchers_count": 1,
            "web_commit_signoff_required": false
        },
        "sha": "7e0de88373b4f5875bf9d249b1ddb69390dea4f8",
        "user": {
            "avatar_url": "https://avatars.githubusercontent.com/u/11053411?v=4",
            "events_url": "https://api.github.com/users/PrismarineJS/events{/privacy}",
            "followers_url": "https://api.github.com/users/PrismarineJS/followers",
            "following_url": "https://api.github.com/users/PrismarineJS/following{/other_user}",
            "gists_url": "https://api.github.com/users/PrismarineJS/gists{/gist_id}",
            "gravatar_id": "",
            "html_url": "https://github.com/PrismarineJS",
            "id": 11053411,
            "login": "PrismarineJS",
            "node_id": "MDEyOk9yZ2FuaXphdGlvbjExMDUzNDEx",
            "organizations_url": "https://api.github.com/users/PrismarineJS/orgs",
            "received_events_url": "https://api.github.com/users/PrismarineJS/received_events",
            "repos_url": "https://api.github.com/users/PrismarineJS/repos",
            "site_admin": false,
            "starred_url": "https://api.github.com/users/PrismarineJS/starred{/owner}{/repo}",
            "subscriptions_url": "https://api.github.com/users/PrismarineJS/subscriptions",
            "type": "Organization",
            "url": "https://api.github.com/users/PrismarineJS"
        }
    },
    "body": "Bumps [minecraft-data](https://github.com/PrismarineJS/node-minecraft-data) from 2.221.0 to 3.13.0.\n<details>\n<summary>Release notes</summary>\n<p><em>Sourced from <a href=\"https://github.com/PrismarineJS/node-minecraft-data/releases\">minecraft-data's releases</a>.</em></p>\n<blockquote>\n<h2>Release 3.13.0</h2>\n<p>3.13.0</p>\n<h2>Release 3.12.0</h2>\n<p>3.12.0</p>\n<h2>Release 3.11.0</h2>\n<p>3.11.0</p>\n<h2>Release 3.10.2</h2>\n<p>3.10.2</p>\n<h2>Release 3.10.1</h2>\n<p>3.10.1</p>\n<h2>Release 3.9.1</h2>\n<p>3.9.1</p>\n<h2>Release 3.9.0</h2>\n<p>3.9.0</p>\n<h2>Release 3.8.0</h2>\n<p>3.8.0</p>\n<h2>Release 3.7.3</h2>\n<p>3.7.3</p>\n<h2>Release 3.7.2</h2>\n<p>3.7.2</p>\n<h2>Release 3.7.1</h2>\n<p>3.7.1</p>\n<h2>Release 3.7.0</h2>\n<p>3.7.0</p>\n<h2>Release 3.6.0</h2>\n<p>3.6.0</p>\n<h2>Release 3.5.1</h2>\n<p>3.5.1</p>\n<h2>Release 3.5.0</h2>\n<p>3.5.0</p>\n<h2>Release 3.4.0</h2>\n<p>3.4.0</p>\n<h2>Release 3.3.0</h2>\n<p>3.3.0</p>\n<!-- raw HTML omitted -->\n</blockquote>\n<p>... (truncated)</p>\n</details>\n<details>\n<summary>Changelog</summary>\n<p><em>Sourced from <a href=\"https://github.com/PrismarineJS/node-minecraft-data/blob/master/doc/history.md\">minecraft-data's changelog</a>.</em></p>\n<blockquote>\n<h2>3.13.0</h2>\n<ul>\n<li>update <code>minecraft-data</code></li>\n</ul>\n<h2>3.12.0</h2>\n<ul>\n<li>update <code>minecraft-data</code></li>\n</ul>\n<h2>3.11.0</h2>\n<ul>\n<li>update <code>minecraft-data</code></li>\n</ul>\n<h2>3.10.2</h2>\n<ul>\n<li>update <code>minecraft-data</code></li>\n</ul>\n<h2>3.10.1</h2>\n<ul>\n<li>update <code>minecraft-data</code></li>\n</ul>\n<h2>3.9.1</h2>\n<ul>\n<li>update <code>minecraft-data</code></li>\n</ul>\n<h2>3.9.0</h2>\n<ul>\n<li>update <code>minecraft-data</code></li>\n</ul>\n<h2>3.8.0</h2>\n<ul>\n<li>update <code>minecraft-data</code></li>\n</ul>\n<h2>3.7.3</h2>\n<ul>\n<li>update <code>minecraft-data</code></li>\n</ul>\n<h2>3.7.2</h2>\n<ul>\n<li>update <code>minecraft-data</code></li>\n</ul>\n<h2>3.7.1</h2>\n<ul>\n<li>update <code>minecraft-data</code></li>\n</ul>\n<h2>3.7.0</h2>\n<ul>\n<li>update <code>minecraft-data</code></li>\n</ul>\n<h2>3.6.0</h2>\n<!-- raw HTML omitted -->\n</blockquote>\n<p>... (truncated)</p>\n</details>\n<details>\n<summary>Commits</summary>\n<ul>\n<li><a href=\"https://github.com/PrismarineJS/node-minecraft-data/commit/ef50834f26969c4f27f859da00b61f58a8a0944e\"><code>ef50834</code></a> Release 3.13.0 (<a href=\"https://github-redirect.dependabot.com/PrismarineJS/node-minecraft-data/issues/234\">#234</a>)</li>\n<li><a href=\"https://github.com/PrismarineJS/node-minecraft-data/commit/3ca18d2629067b8f5be048f08398b5e7708d8171\"><code>3ca18d2</code></a> Release 3.12.0 (<a href=\"https://github-redirect.dependabot.com/PrismarineJS/node-minecraft-data/issues/232\">#232</a>)</li>\n<li><a href=\"https://github.com/PrismarineJS/node-minecraft-data/commit/ef2e200767cdc69a958a60568a7b89c2d2611de9\"><code>ef2e200</code></a> Release 3.11.0 (<a href=\"https://github-redirect.dependabot.com/PrismarineJS/node-minecraft-data/issues/231\">#231</a>)</li>\n<li><a href=\"https://github.com/PrismarineJS/node-minecraft-data/commit/403b99d5ee66728a3ebe3827915e9f82623eaf77\"><code>403b99d</code></a> Release 3.10.2 (<a href=\"https://github-redirect.dependabot.com/PrismarineJS/node-minecraft-data/issues/230\">#230</a>)</li>\n<li><a href=\"https://github.com/PrismarineJS/node-minecraft-data/commit/cd3fa5c7c0ef099a7f08fb114a347a9d9d5ed36d\"><code>cd3fa5c</code></a> Release 3.10.1 (<a href=\"https://github-redirect.dependabot.com/PrismarineJS/node-minecraft-data/issues/229\">#229</a>)</li>\n<li><a href=\"https://github.com/PrismarineJS/node-minecraft-data/commit/c603658c03b227dfd6073853e541fe4325380d74\"><code>c603658</code></a> Fix md-release.yml action (<a href=\"https://github-redirect.dependabot.com/PrismarineJS/node-minecraft-data/issues/228\">#228</a>)</li>\n<li><a href=\"https://github.com/PrismarineJS/node-minecraft-data/commit/4aced68f40738f4570646af8f1ddb4f9d0516b2f\"><code>4aced68</code></a> Fix <code>README</code> example (<a href=\"https://github-redirect.dependabot.com/PrismarineJS/node-minecraft-data/issues/226\">#226</a>)</li>\n<li><a href=\"https://github.com/PrismarineJS/node-minecraft-data/commit/7a7cb4384cd5651aff75bc490a9b4e82a03c5352\"><code>7a7cb43</code></a> Remove <code>foodsByFoodPoints</code> and <code>foodsBySaturation</code> (<a href=\"https://github-redirect.dependabot.com/PrismarineJS/node-minecraft-data/issues/225\">#225</a>)</li>\n<li><a href=\"https://github.com/PrismarineJS/node-minecraft-data/commit/471c9991242430a61ef7c342b7da37b82bb5b2ed\"><code>471c999</code></a> Add <code>entities</code> data (<a href=\"https://github-redirect.dependabot.com/PrismarineJS/node-minecraft-data/issues/208\">#208</a>)</li>\n<li><a href=\"https://github.com/PrismarineJS/node-minecraft-data/commit/b6ec1d4a87dcd5b36f71900f03432bc22c4d4149\"><code>b6ec1d4</code></a> Rework docs (<a href=\"https://github-redirect.dependabot.com/PrismarineJS/node-minecraft-data/issues/209\">#209</a>)</li>\n<li>Additional commits viewable in <a href=\"https://github.com/PrismarineJS/node-minecraft-data/compare/2.221.0...3.13.0\">compare view</a></li>\n</ul>\n</details>\n<br />\n\n\n[![Dependabot compatibility score](https://dependabot-badges.githubapp.com/badges/compatibility_score?dependency-name=minecraft-data&package-manager=npm_and_yarn&previous-version=2.221.0&new-version=3.13.0)](https://docs.github.com/en/github/managing-security-vulnerabilities/about-dependabot-security-updates#about-compatibility-scores)\n\nDependabot will resolve any conflicts with this PR as long as you don't alter it yourself. You can also trigger a rebase manually by commenting `@dependabot rebase`.\n\n[//]: # (dependabot-automerge-start)\n[//]: # (dependabot-automerge-end)\n\n---\n\n<details>\n<summary>Dependabot commands and options</summary>\n<br />\n\nYou can trigger Dependabot actions by commenting on this PR:\n- `@dependabot rebase` will rebase this PR\n- `@dependabot recreate` will recreate this PR, overwriting any edits that have been made to it\n- `@dependabot merge` will merge this PR after your CI passes on it\n- `@dependabot squash and merge` will squash and merge this PR after your CI passes on it\n- `@dependabot cancel merge` will cancel a previously requested merge and block automerging\n- `@dependabot reopen` will reopen this PR if it is closed\n- `@dependabot close` will close this PR and stop Dependabot recreating it. You can achieve the same result by closing it manually\n- `@dependabot ignore this major version` will close this PR and stop Dependabot creating any more for this major version (unless you reopen the PR or upgrade to it yourself)\n- `@dependabot ignore this minor version` will close this PR and stop Dependabot creating any more for this minor version (unless you reopen the PR or upgrade to it yourself)\n- `@dependabot ignore this dependency` will close this PR and stop Dependabot creating any more for this dependency (unless you reopen the PR or upgrade to it yourself)\n\n\n</details>",
    "changed_files": 1,
    "closed_at": "2022-10-03T11:17:31Z",
    "comment_data": [],
    "comment_regular_data": [
        {
            "author_association": "CONTRIBUTOR",
            "body": "Superseded by #37.",
            "created_at": "2022-10-03T11:17:30Z",
            "html_url": "https://github.com/PrismarineJS/prismarine-provider-raw/pull/34#issuecomment-1265291492",
            "id": 1265291492,
            "issue_url": "https://api.github.com/repos/PrismarineJS/prismarine-provider-raw/issues/34",
            "node_id": "IC_kwDOEQz9Tc5LatDk",
            "performed_via_github_app": null,
            "reactions": {
                "+1": 0,
                "-1": 0,
                "confused": 0,
                "eyes": 0,
                "heart": 0,
                "hooray": 0,
                "laugh": 0,
                "rocket": 0,
                "total_count": 0,
                "url": "https://api.github.com/repos/PrismarineJS/prismarine-provider-raw/issues/comments/1265291492/reactions"
            },
            "updated_at": "2022-10-03T11:17:30Z",
            "url": "https://api.github.com/repos/PrismarineJS/prismarine-provider-raw/issues/comments/1265291492",
            "user": {
                "avatar_url": "https://avatars.githubusercontent.com/in/29110?v=4",
                "events_url": "https://api.github.com/users/dependabot%5Bbot%5D/events{/privacy}",
                "followers_url": "https://api.github.com/users/dependabot%5Bbot%5D/followers",
                "following_url": "https://api.github.com/users/dependabot%5Bbot%5D/following{/other_user}",
                "gists_url": "https://api.github.com/users/dependabot%5Bbot%5D/gists{/gist_id}",
                "gravatar_id": "",
                "html_url": "https://github.com/apps/dependabot",
                "id": 49699333,
                "login": "dependabot[bot]",
                "node_id": "MDM6Qm90NDk2OTkzMzM=",
                "organizations_url": "https://api.github.com/users/dependabot%5Bbot%5D/orgs",
                "received_events_url": "https://api.github.com/users/dependabot%5Bbot%5D/received_events",
                "repos_url": "https://api.github.com/users/dependabot%5Bbot%5D/repos",
                "site_admin": false,
                "starred_url": "https://api.github.com/users/dependabot%5Bbot%5D/starred{/owner}{/repo}",
                "subscriptions_url": "https://api.github.com/users/dependabot%5Bbot%5D/subscriptions",
                "type": "Bot",
                "url": "https://api.github.com/users/dependabot%5Bbot%5D"
            }
        }
    ],
    "comments": 1,
    "comments_url": "https://api.github.com/repos/PrismarineJS/prismarine-provider-raw/issues/34/comments",
    "commit_data": [
        {
            "author": {
                "avatar_url": "https://avatars.githubusercontent.com/in/29110?v=4",
                "events_url": "https://api.github.com/users/dependabot%5Bbot%5D/events{/privacy}",
                "followers_url": "https://api.github.com/users/dependabot%5Bbot%5D/followers",
                "following_url": "https://api.github.com/users/dependabot%5Bbot%5D/following{/other_user}",
                "gists_url": "https://api.github.com/users/dependabot%5Bbot%5D/gists{/gist_id}",
                "gravatar_id": "",
                "html_url": "https://github.com/apps/dependabot",
                "id": 49699333,
                "login": "dependabot[bot]",
                "node_id": "MDM6Qm90NDk2OTkzMzM=",
                "organizations_url": "https://api.github.com/users/dependabot%5Bbot%5D/orgs",
                "received_events_url": "https://api.github.com/users/dependabot%5Bbot%5D/received_events",
                "repos_url": "https://api.github.com/users/dependabot%5Bbot%5D/repos",
                "site_admin": false,
                "starred_url": "https://api.github.com/users/dependabot%5Bbot%5D/starred{/owner}{/repo}",
                "subscriptions_url": "https://api.github.com/users/dependabot%5Bbot%5D/subscriptions",
                "type": "Bot",
                "url": "https://api.github.com/users/dependabot%5Bbot%5D"
            },
            "comments_url": "https://api.github.com/repos/PrismarineJS/prismarine-provider-raw/commits/92cb25f2ccf868d74059bbe8b44a38b5891fbab5/comments",
            "commit": {
                "author": {
                    "date": "2022-09-26T11:14:11Z",
                    "email": "49699333+dependabot[bot]@users.noreply.github.com",
                    "name": "dependabot[bot]"
                },
                "comment_count": 0,
                "committer": {
                    "date": "2022-09-26T11:14:11Z",
                    "email": "noreply@github.com",
                    "name": "GitHub"
                },
                "message": "Bump minecraft-data from 2.221.0 to 3.13.0\n\nBumps [minecraft-data](https://github.com/PrismarineJS/node-minecraft-data) from 2.221.0 to 3.13.0.\n- [Release notes](https://github.com/PrismarineJS/node-minecraft-data/releases)\n- [Changelog](https://github.com/PrismarineJS/node-minecraft-data/blob/master/doc/history.md)\n- [Commits](https://github.com/PrismarineJS/node-minecraft-data/compare/2.221.0...3.13.0)\n\n---\nupdated-dependencies:\n- dependency-name: minecraft-data\n  dependency-type: direct:production\n  update-type: version-update:semver-major\n...\n\nSigned-off-by: dependabot[bot] <support@github.com>",
                "tree": {
                    "sha": "ed94605ac1a9bfce5d2adda8bc2657c1e4c8bbf2",
                    "url": "https://api.github.com/repos/PrismarineJS/prismarine-provider-raw/git/trees/ed94605ac1a9bfce5d2adda8bc2657c1e4c8bbf2"
                },
                "url": "https://api.github.com/repos/PrismarineJS/prismarine-provider-raw/git/commits/92cb25f2ccf868d74059bbe8b44a38b5891fbab5",
                "verification": {
                    "payload": "tree ed94605ac1a9bfce5d2adda8bc2657c1e4c8bbf2\nparent 7e0de88373b4f5875bf9d249b1ddb69390dea4f8\nauthor dependabot[bot] <49699333+dependabot[bot]@users.noreply.github.com> 1664190851 +0000\ncommitter GitHub <noreply@github.com> 1664190851 +0000\n\nBump minecraft-data from 2.221.0 to 3.13.0\n\nBumps [minecraft-data](https://github.com/PrismarineJS/node-minecraft-data) from 2.221.0 to 3.13.0.\n- [Release notes](https://github.com/PrismarineJS/node-minecraft-data/releases)\n- [Changelog](https://github.com/PrismarineJS/node-minecraft-data/blob/master/doc/history.md)\n- [Commits](https://github.com/PrismarineJS/node-minecraft-data/compare/2.221.0...3.13.0)\n\n---\nupdated-dependencies:\n- dependency-name: minecraft-data\n  dependency-type: direct:production\n  update-type: version-update:semver-major\n...\n\nSigned-off-by: dependabot[bot] <support@github.com>",
                    "reason": "valid",
                    "signature": "-----BEGIN PGP SIGNATURE-----\n\nwsBcBAABCAAQBQJjMYmDCRBK7hj4Ov3rIwAAhlgIACGyqdufbOsWn98WLQfPXb7p\nanJlInVGX9eLudMXsivINahlfV9ibhggRkEer4P3j3kdWG1BA/ONhrnYMWXUJR2H\nmmHrNnAqlLP1GIuRj4N0nC/LPxNdhcUGg5gRZ94NGOJjZR+ABxS6p19k05rPywkl\nq4auckZSUeV8rYKvuiu4rAyj+DR4j7h2qe/at8eHHSLhooGdatptDeNaANtOXSu/\nH287Rf3t+4aVBn4MPlb5tc/HVSp2QDFkOoCoCcJ2kSkaohRxt8bu0KeC8hOu/P4E\ndAOUMCNTxwOKfd+o0QBo41Bzrr/eCF2uyEBov8jnmCB1QAo73I0eCYp4zp32C+s=\n=cc3Z\n-----END PGP SIGNATURE-----\n",
                    "verified": true
                }
            },
            "committer": {
                "avatar_url": "https://avatars.githubusercontent.com/u/19864447?v=4",
                "events_url": "https://api.github.com/users/web-flow/events{/privacy}",
                "followers_url": "https://api.github.com/users/web-flow/followers",
                "following_url": "https://api.github.com/users/web-flow/following{/other_user}",
                "gists_url": "https://api.github.com/users/web-flow/gists{/gist_id}",
                "gravatar_id": "",
                "html_url": "https://github.com/web-flow",
                "id": 19864447,
                "login": "web-flow",
                "node_id": "MDQ6VXNlcjE5ODY0NDQ3",
                "organizations_url": "https://api.github.com/users/web-flow/orgs",
                "received_events_url": "https://api.github.com/users/web-flow/received_events",
                "repos_url": "https://api.github.com/users/web-flow/repos",
                "site_admin": false,
                "starred_url": "https://api.github.com/users/web-flow/starred{/owner}{/repo}",
                "subscriptions_url": "https://api.github.com/users/web-flow/subscriptions",
                "type": "User",
                "url": "https://api.github.com/users/web-flow"
            },
            "html_url": "https://github.com/PrismarineJS/prismarine-provider-raw/commit/92cb25f2ccf868d74059bbe8b44a38b5891fbab5",
            "node_id": "C_kwDOEQz9TdoAKDkyY2IyNWYyY2NmODY4ZDc0MDU5YmJlOGI0NGEzOGI1ODkxZmJhYjU",
            "parents": [
                {
                    "html_url": "https://github.com/PrismarineJS/prismarine-provider-raw/commit/7e0de88373b4f5875bf9d249b1ddb69390dea4f8",
                    "sha": "7e0de88373b4f5875bf9d249b1ddb69390dea4f8",
                    "url": "https://api.github.com/repos/PrismarineJS/prismarine-provider-raw/commits/7e0de88373b4f5875bf9d249b1ddb69390dea4f8"
                }
            ],
            "sha": "92cb25f2ccf868d74059bbe8b44a38b5891fbab5",
            "url": "https://api.github.com/repos/PrismarineJS/prismarine-provider-raw/commits/92cb25f2ccf868d74059bbe8b44a38b5891fbab5"
        }
    ],
    "commits": 1,
    "commits_url": "https://api.github.com/repos/PrismarineJS/prismarine-provider-raw/pulls/34/commits",
    "created_at": "2022-09-26T11:14:12Z",
    "deletions": 1,
    "diff_url": "https://github.com/PrismarineJS/prismarine-provider-raw/pull/34.diff",
    "draft": false,
    "head": {
        "label": "PrismarineJS:dependabot/npm_and_yarn/minecraft-data-3.13.0",
        "ref": "dependabot/npm_and_yarn/minecraft-data-3.13.0",
        "repo": {
            "allow_forking": true,
            "archive_url": "https://api.github.com/repos/PrismarineJS/prismarine-provider-raw/{archive_format}{/ref}",
            "archived": false,
            "assignees_url": "https://api.github.com/repos/PrismarineJS/prismarine-provider-raw/assignees{/user}",
            "blobs_url": "https://api.github.com/repos/PrismarineJS/prismarine-provider-raw/git/blobs{/sha}",
            "branches_url": "https://api.github.com/repos/PrismarineJS/prismarine-provider-raw/branches{/branch}",
            "clone_url": "https://github.com/PrismarineJS/prismarine-provider-raw.git",
            "collaborators_url": "https://api.github.com/repos/PrismarineJS/prismarine-provider-raw/collaborators{/collaborator}",
            "comments_url": "https://api.github.com/repos/PrismarineJS/prismarine-provider-raw/comments{/number}",
            "commits_url": "https://api.github.com/repos/PrismarineJS/prismarine-provider-raw/commits{/sha}",
            "compare_url": "https://api.github.com/repos/PrismarineJS/prismarine-provider-raw/compare/{base}...{head}",
            "contents_url": "https://api.github.com/repos/PrismarineJS/prismarine-provider-raw/contents/{+path}",
            "contributors_url": "https://api.github.com/repos/PrismarineJS/prismarine-provider-raw/contributors",
            "created_at": "2020-08-08T14:58:39Z",
            "default_branch": "master",
            "deployments_url": "https://api.github.com/repos/PrismarineJS/prismarine-provider-raw/deployments",
            "description": "Raw (prismarine-chunk based) Storage Provider implementation. ",
            "disabled": false,
            "downloads_url": "https://api.github.com/repos/PrismarineJS/prismarine-provider-raw/downloads",
            "events_url": "https://api.github.com/repos/PrismarineJS/prismarine-provider-raw/events",
            "fork": false,
            "forks": 2,
            "forks_count": 2,
            "forks_url": "https://api.github.com/repos/PrismarineJS/prismarine-provider-raw/forks",
            "full_name": "PrismarineJS/prismarine-provider-raw",
            "git_commits_url": "https://api.github.com/repos/PrismarineJS/prismarine-provider-raw/git/commits{/sha}",
            "git_refs_url": "https://api.github.com/repos/PrismarineJS/prismarine-provider-raw/git/refs{/sha}",
            "git_tags_url": "https://api.github.com/repos/PrismarineJS/prismarine-provider-raw/git/tags{/sha}",
            "git_url": "git://github.com/PrismarineJS/prismarine-provider-raw.git",
            "has_discussions": false,
            "has_downloads": true,
            "has_issues": true,
            "has_pages": false,
            "has_projects": true,
            "has_wiki": true,
            "homepage": "",
            "hooks_url": "https://api.github.com/repos/PrismarineJS/prismarine-provider-raw/hooks",
            "html_url": "https://github.com/PrismarineJS/prismarine-provider-raw",
            "id": 286063949,
            "is_template": false,
            "issue_comment_url": "https://api.github.com/repos/PrismarineJS/prismarine-provider-raw/issues/comments{/number}",
            "issue_events_url": "https://api.github.com/repos/PrismarineJS/prismarine-provider-raw/issues/events{/number}",
            "issues_url": "https://api.github.com/repos/PrismarineJS/prismarine-provider-raw/issues{/number}",
            "keys_url": "https://api.github.com/repos/PrismarineJS/prismarine-provider-raw/keys{/key_id}",
            "labels_url": "https://api.github.com/repos/PrismarineJS/prismarine-provider-raw/labels{/name}",
            "language": "JavaScript",
            "languages_url": "https://api.github.com/repos/PrismarineJS/prismarine-provider-raw/languages",
            "license": {
                "key": "mit",
                "name": "MIT License",
                "node_id": "MDc6TGljZW5zZTEz",
                "spdx_id": "MIT",
                "url": "https://api.github.com/licenses/mit"
            },
            "merges_url": "https://api.github.com/repos/PrismarineJS/prismarine-provider-raw/merges",
            "milestones_url": "https://api.github.com/repos/PrismarineJS/prismarine-provider-raw/milestones{/number}",
            "mirror_url": null,
            "name": "prismarine-provider-raw",
            "node_id": "MDEwOlJlcG9zaXRvcnkyODYwNjM5NDk=",
            "notifications_url": "https://api.github.com/repos/PrismarineJS/prismarine-provider-raw/notifications{?since,all,participating}",
            "open_issues": 4,
            "open_issues_count": 4,
            "owner": {
                "avatar_url": "https://avatars.githubusercontent.com/u/11053411?v=4",
                "events_url": "https://api.github.com/users/PrismarineJS/events{/privacy}",
                "followers_url": "https://api.github.com/users/PrismarineJS/followers",
                "following_url": "https://api.github.com/users/PrismarineJS/following{/other_user}",
                "gists_url": "https://api.github.com/users/PrismarineJS/gists{/gist_id}",
                "gravatar_id": "",
                "html_url": "https://github.com/PrismarineJS",
                "id": 11053411,
                "login": "PrismarineJS",
                "node_id": "MDEyOk9yZ2FuaXphdGlvbjExMDUzNDEx",
                "organizations_url": "https://api.github.com/users/PrismarineJS/orgs",
                "received_events_url": "https://api.github.com/users/PrismarineJS/received_events",
                "repos_url": "https://api.github.com/users/PrismarineJS/repos",
                "site_admin": false,
                "starred_url": "https://api.github.com/users/PrismarineJS/starred{/owner}{/repo}",
                "subscriptions_url": "https://api.github.com/users/PrismarineJS/subscriptions",
                "type": "Organization",
                "url": "https://api.github.com/users/PrismarineJS"
            },
            "private": false,
            "pulls_url": "https://api.github.com/repos/PrismarineJS/prismarine-provider-raw/pulls{/number}",
            "pushed_at": "2023-04-10T11:59:11Z",
            "releases_url": "https://api.github.com/repos/PrismarineJS/prismarine-provider-raw/releases{/id}",
            "size": 25,
            "ssh_url": "git@github.com:PrismarineJS/prismarine-provider-raw.git",
            "stargazers_count": 1,
            "stargazers_url": "https://api.github.com/repos/PrismarineJS/prismarine-provider-raw/stargazers",
            "statuses_url": "https://api.github.com/repos/PrismarineJS/prismarine-provider-raw/statuses/{sha}",
            "subscribers_url": "https://api.github.com/repos/PrismarineJS/prismarine-provider-raw/subscribers",
            "subscription_url": "https://api.github.com/repos/PrismarineJS/prismarine-provider-raw/subscription",
            "svn_url": "https://github.com/PrismarineJS/prismarine-provider-raw",
            "tags_url": "https://api.github.com/repos/PrismarineJS/prismarine-provider-raw/tags",
            "teams_url": "https://api.github.com/repos/PrismarineJS/prismarine-provider-raw/teams",
            "topics": [],
            "trees_url": "https://api.github.com/repos/PrismarineJS/prismarine-provider-raw/git/trees{/sha}",
            "updated_at": "2021-06-16T21:05:09Z",
            "url": "https://api.github.com/repos/PrismarineJS/prismarine-provider-raw",
            "visibility": "public",
            "watchers": 1,
            "watchers_count": 1,
            "web_commit_signoff_required": false
        },
        "sha": "92cb25f2ccf868d74059bbe8b44a38b5891fbab5",
        "user": {
            "avatar_url": "https://avatars.githubusercontent.com/u/11053411?v=4",
            "events_url": "https://api.github.com/users/PrismarineJS/events{/privacy}",
            "followers_url": "https://api.github.com/users/PrismarineJS/followers",
            "following_url": "https://api.github.com/users/PrismarineJS/following{/other_user}",
            "gists_url": "https://api.github.com/users/PrismarineJS/gists{/gist_id}",
            "gravatar_id": "",
            "html_url": "https://github.com/PrismarineJS",
            "id": 11053411,
            "login": "PrismarineJS",
            "node_id": "MDEyOk9yZ2FuaXphdGlvbjExMDUzNDEx",
            "organizations_url": "https://api.github.com/users/PrismarineJS/orgs",
            "received_events_url": "https://api.github.com/users/PrismarineJS/received_events",
            "repos_url": "https://api.github.com/users/PrismarineJS/repos",
            "site_admin": false,
            "starred_url": "https://api.github.com/users/PrismarineJS/starred{/owner}{/repo}",
            "subscriptions_url": "https://api.github.com/users/PrismarineJS/subscriptions",
            "type": "Organization",
            "url": "https://api.github.com/users/PrismarineJS"
        }
    },
    "html_url": "https://github.com/PrismarineJS/prismarine-provider-raw/pull/34",
    "id": 1066978905,
    "issue_url": "https://api.github.com/repos/PrismarineJS/prismarine-provider-raw/issues/34",
    "labels": [
        {
            "color": "0366d6",
            "default": false,
            "description": "Pull requests that update a dependency file",
            "id": 2474648974,
            "name": "dependencies",
            "node_id": "MDU6TGFiZWwyNDc0NjQ4OTc0",
            "url": "https://api.github.com/repos/PrismarineJS/prismarine-provider-raw/labels/dependencies"
        }
    ],
    "locked": false,
    "maintainer_can_modify": false,
    "merge_commit_sha": "61edce8727e790627904c180514ac44b5b793828",
    "mergeable": true,
    "mergeable_state": "unstable",
    "merged": false,
    "merged_at": null,
    "merged_by": null,
    "milestone": null,
    "node_id": "PR_kwDOEQz9Tc4_mM5Z",
    "number": 34,
    "patch_url": "https://github.com/PrismarineJS/prismarine-provider-raw/pull/34.patch",
    "rebaseable": false,
    "requested_reviewers": [],
    "requested_teams": [],
    "review_comment_url": "https://api.github.com/repos/PrismarineJS/prismarine-provider-raw/pulls/comments{/number}",
    "review_comments": 0,
    "review_comments_url": "https://api.github.com/repos/PrismarineJS/prismarine-provider-raw/pulls/34/comments",
    "state": "closed",
    "statuses_url": "https://api.github.com/repos/PrismarineJS/prismarine-provider-raw/statuses/92cb25f2ccf868d74059bbe8b44a38b5891fbab5",
    "title": "Bump minecraft-data from 2.221.0 to 3.13.0",
    "updated_at": "2022-10-03T11:17:32Z",
    "url": "https://api.github.com/repos/PrismarineJS/prismarine-provider-raw/pulls/34",
    "user": {
        "avatar_url": "https://avatars.githubusercontent.com/in/29110?v=4",
        "events_url": "https://api.github.com/users/dependabot%5Bbot%5D/events{/privacy}",
        "followers_url": "https://api.github.com/users/dependabot%5Bbot%5D/followers",
        "following_url": "https://api.github.com/users/dependabot%5Bbot%5D/following{/other_user}",
        "gists_url": "https://api.github.com/users/dependabot%5Bbot%5D/gists{/gist_id}",
        "gravatar_id": "",
        "html_url": "https://github.com/apps/dependabot",
        "id": 49699333,
        "login": "dependabot[bot]",
        "node_id": "MDM6Qm90NDk2OTkzMzM=",
        "organizations_url": "https://api.github.com/users/dependabot%5Bbot%5D/orgs",
        "received_events_url": "https://api.github.com/users/dependabot%5Bbot%5D/received_events",
        "repos_url": "https://api.github.com/users/dependabot%5Bbot%5D/repos",
        "site_admin": false,
        "starred_url": "https://api.github.com/users/dependabot%5Bbot%5D/starred{/owner}{/repo}",
        "subscriptions_url": "https://api.github.com/users/dependabot%5Bbot%5D/subscriptions",
        "type": "Bot",
        "url": "https://api.github.com/users/dependabot%5Bbot%5D"
    }
}