{
    "_links": {
        "comments": {
            "href": "https://api.github.com/repos/PrismarineJS/node-vec3/issues/9/comments"
        },
        "commits": {
            "href": "https://api.github.com/repos/PrismarineJS/node-vec3/pulls/9/commits"
        },
        "html": {
            "href": "https://github.com/PrismarineJS/node-vec3/pull/9"
        },
        "issue": {
            "href": "https://api.github.com/repos/PrismarineJS/node-vec3/issues/9"
        },
        "review_comment": {
            "href": "https://api.github.com/repos/PrismarineJS/node-vec3/pulls/comments{/number}"
        },
        "review_comments": {
            "href": "https://api.github.com/repos/PrismarineJS/node-vec3/pulls/9/comments"
        },
        "self": {
            "href": "https://api.github.com/repos/PrismarineJS/node-vec3/pulls/9"
        },
        "statuses": {
            "href": "https://api.github.com/repos/PrismarineJS/node-vec3/statuses/bc0d87553cc4cecb4cd04e4ca6633692a028e514"
        }
    },
    "active_lock_reason": null,
    "additions": 7,
    "assignee": null,
    "assignees": [],
    "author_association": "CONTRIBUTOR",
    "auto_merge": null,
    "base": {
        "label": "PrismarineJS:master",
        "ref": "master",
        "repo": {
            "allow_forking": true,
            "archive_url": "https://api.github.com/repos/PrismarineJS/node-vec3/{archive_format}{/ref}",
            "archived": false,
            "assignees_url": "https://api.github.com/repos/PrismarineJS/node-vec3/assignees{/user}",
            "blobs_url": "https://api.github.com/repos/PrismarineJS/node-vec3/git/blobs{/sha}",
            "branches_url": "https://api.github.com/repos/PrismarineJS/node-vec3/branches{/branch}",
            "clone_url": "https://github.com/PrismarineJS/node-vec3.git",
            "collaborators_url": "https://api.github.com/repos/PrismarineJS/node-vec3/collaborators{/collaborator}",
            "comments_url": "https://api.github.com/repos/PrismarineJS/node-vec3/comments{/number}",
            "commits_url": "https://api.github.com/repos/PrismarineJS/node-vec3/commits{/sha}",
            "compare_url": "https://api.github.com/repos/PrismarineJS/node-vec3/compare/{base}...{head}",
            "contents_url": "https://api.github.com/repos/PrismarineJS/node-vec3/contents/{+path}",
            "contributors_url": "https://api.github.com/repos/PrismarineJS/node-vec3/contributors",
            "created_at": "2013-01-02T21:18:24Z",
            "default_branch": "master",
            "deployments_url": "https://api.github.com/repos/PrismarineJS/node-vec3/deployments",
            "description": "3d vector math with robust unit tests",
            "disabled": false,
            "downloads_url": "https://api.github.com/repos/PrismarineJS/node-vec3/downloads",
            "events_url": "https://api.github.com/repos/PrismarineJS/node-vec3/events",
            "fork": false,
            "forks": 13,
            "forks_count": 13,
            "forks_url": "https://api.github.com/repos/PrismarineJS/node-vec3/forks",
            "full_name": "PrismarineJS/node-vec3",
            "git_commits_url": "https://api.github.com/repos/PrismarineJS/node-vec3/git/commits{/sha}",
            "git_refs_url": "https://api.github.com/repos/PrismarineJS/node-vec3/git/refs{/sha}",
            "git_tags_url": "https://api.github.com/repos/PrismarineJS/node-vec3/git/tags{/sha}",
            "git_url": "git://github.com/PrismarineJS/node-vec3.git",
            "has_discussions": false,
            "has_downloads": true,
            "has_issues": true,
            "has_pages": false,
            "has_projects": true,
            "has_wiki": true,
            "homepage": "",
            "hooks_url": "https://api.github.com/repos/PrismarineJS/node-vec3/hooks",
            "html_url": "https://github.com/PrismarineJS/node-vec3",
            "id": 7413496,
            "is_template": false,
            "issue_comment_url": "https://api.github.com/repos/PrismarineJS/node-vec3/issues/comments{/number}",
            "issue_events_url": "https://api.github.com/repos/PrismarineJS/node-vec3/issues/events{/number}",
            "issues_url": "https://api.github.com/repos/PrismarineJS/node-vec3/issues{/number}",
            "keys_url": "https://api.github.com/repos/PrismarineJS/node-vec3/keys{/key_id}",
            "labels_url": "https://api.github.com/repos/PrismarineJS/node-vec3/labels{/name}",
            "language": "JavaScript",
            "languages_url": "https://api.github.com/repos/PrismarineJS/node-vec3/languages",
            "license": null,
            "merges_url": "https://api.github.com/repos/PrismarineJS/node-vec3/merges",
            "milestones_url": "https://api.github.com/repos/PrismarineJS/node-vec3/milestones{/number}",
            "mirror_url": null,
            "name": "node-vec3",
            "node_id": "MDEwOlJlcG9zaXRvcnk3NDEzNDk2",
            "notifications_url": "https://api.github.com/repos/PrismarineJS/node-vec3/notifications{?since,all,participating}",
            "open_issues": 1,
            "open_issues_count": 1,
            "owner": {
                "avatar_url": "https://avatars.githubusercontent.com/u/11053411?v=4",
                "events_url": "https://api.github.com/users/PrismarineJS/events{/privacy}",
                "followers_url": "https://api.github.com/users/PrismarineJS/followers",
                "following_url": "https://api.github.com/users/PrismarineJS/following{/other_user}",
                "gists_url": "https://api.github.com/users/PrismarineJS/gists{/gist_id}",
                "gravatar_id": "",
                "html_url": "https://github.com/PrismarineJS",
                "id": 11053411,
                "login": "PrismarineJS",
                "node_id": "MDEyOk9yZ2FuaXphdGlvbjExMDUzNDEx",
                "organizations_url": "https://api.github.com/users/PrismarineJS/orgs",
                "received_events_url": "https://api.github.com/users/PrismarineJS/received_events",
                "repos_url": "https://api.github.com/users/PrismarineJS/repos",
                "site_admin": false,
                "starred_url": "https://api.github.com/users/PrismarineJS/starred{/owner}{/repo}",
                "subscriptions_url": "https://api.github.com/users/PrismarineJS/subscriptions",
                "type": "Organization",
                "url": "https://api.github.com/users/PrismarineJS"
            },
            "private": false,
            "pulls_url": "https://api.github.com/repos/PrismarineJS/node-vec3/pulls{/number}",
            "pushed_at": "2023-03-28T08:58:41Z",
            "releases_url": "https://api.github.com/repos/PrismarineJS/node-vec3/releases{/id}",
            "size": 59,
            "ssh_url": "git@github.com:PrismarineJS/node-vec3.git",
            "stargazers_count": 34,
            "stargazers_url": "https://api.github.com/repos/PrismarineJS/node-vec3/stargazers",
            "statuses_url": "https://api.github.com/repos/PrismarineJS/node-vec3/statuses/{sha}",
            "subscribers_url": "https://api.github.com/repos/PrismarineJS/node-vec3/subscribers",
            "subscription_url": "https://api.github.com/repos/PrismarineJS/node-vec3/subscription",
            "svn_url": "https://github.com/PrismarineJS/node-vec3",
            "tags_url": "https://api.github.com/repos/PrismarineJS/node-vec3/tags",
            "teams_url": "https://api.github.com/repos/PrismarineJS/node-vec3/teams",
            "topics": [],
            "trees_url": "https://api.github.com/repos/PrismarineJS/node-vec3/git/trees{/sha}",
            "updated_at": "2022-12-07T10:27:21Z",
            "url": "https://api.github.com/repos/PrismarineJS/node-vec3",
            "visibility": "public",
            "watchers": 34,
            "watchers_count": 34,
            "web_commit_signoff_required": false
        },
        "sha": "c691d274d385bfbe7c2aa05c21d5570d55e07daf",
        "user": {
            "avatar_url": "https://avatars.githubusercontent.com/u/11053411?v=4",
            "events_url": "https://api.github.com/users/PrismarineJS/events{/privacy}",
            "followers_url": "https://api.github.com/users/PrismarineJS/followers",
            "following_url": "https://api.github.com/users/PrismarineJS/following{/other_user}",
            "gists_url": "https://api.github.com/users/PrismarineJS/gists{/gist_id}",
            "gravatar_id": "",
            "html_url": "https://github.com/PrismarineJS",
            "id": 11053411,
            "login": "PrismarineJS",
            "node_id": "MDEyOk9yZ2FuaXphdGlvbjExMDUzNDEx",
            "organizations_url": "https://api.github.com/users/PrismarineJS/orgs",
            "received_events_url": "https://api.github.com/users/PrismarineJS/received_events",
            "repos_url": "https://api.github.com/users/PrismarineJS/repos",
            "site_admin": false,
            "starred_url": "https://api.github.com/users/PrismarineJS/starred{/owner}{/repo}",
            "subscriptions_url": "https://api.github.com/users/PrismarineJS/subscriptions",
            "type": "Organization",
            "url": "https://api.github.com/users/PrismarineJS"
        }
    },
    "body": "The previously included typings did not export the `Vec3` class directly, but instead exported the `Vec3` constructor. This made it impossible to declare variables in typescript with the type:\r\n```ts\r\nimport { Vec3 } from 'vec3';\r\nlet v: Vec3;\r\nv = new Vec3(0, 0, 0);\r\n// ^ Property 'prototype' is missing in type 'Vec3' but required in type 'typeof Vec3'.\r\n```",
    "changed_files": 1,
    "closed_at": "2020-07-11T21:04:45Z",
    "comment_data": [],
    "comment_regular_data": [],
    "comments": 0,
    "comments_url": "https://api.github.com/repos/PrismarineJS/node-vec3/issues/9/comments",
    "commit_data": [
        {
            "author": {
                "avatar_url": "https://avatars.githubusercontent.com/u/10750302?v=4",
                "events_url": "https://api.github.com/users/iczero/events{/privacy}",
                "followers_url": "https://api.github.com/users/iczero/followers",
                "following_url": "https://api.github.com/users/iczero/following{/other_user}",
                "gists_url": "https://api.github.com/users/iczero/gists{/gist_id}",
                "gravatar_id": "",
                "html_url": "https://github.com/iczero",
                "id": 10750302,
                "login": "iczero",
                "node_id": "MDQ6VXNlcjEwNzUwMzAy",
                "organizations_url": "https://api.github.com/users/iczero/orgs",
                "received_events_url": "https://api.github.com/users/iczero/received_events",
                "repos_url": "https://api.github.com/users/iczero/repos",
                "site_admin": false,
                "starred_url": "https://api.github.com/users/iczero/starred{/owner}{/repo}",
                "subscriptions_url": "https://api.github.com/users/iczero/subscriptions",
                "type": "User",
                "url": "https://api.github.com/users/iczero"
            },
            "comments_url": "https://api.github.com/repos/PrismarineJS/node-vec3/commits/bc0d87553cc4cecb4cd04e4ca6633692a028e514/comments",
            "commit": {
                "author": {
                    "date": "2020-07-11T20:55:02Z",
                    "email": "iczero4@gmail.com",
                    "name": "iczero"
                },
                "comment_count": 0,
                "committer": {
                    "date": "2020-07-11T20:55:02Z",
                    "email": "iczero4@gmail.com",
                    "name": "iczero"
                },
                "message": "Export Vec3 class properly in typings",
                "tree": {
                    "sha": "a004780d27660e91e99d1c7ca3fb41d50ef8428f",
                    "url": "https://api.github.com/repos/PrismarineJS/node-vec3/git/trees/a004780d27660e91e99d1c7ca3fb41d50ef8428f"
                },
                "url": "https://api.github.com/repos/PrismarineJS/node-vec3/git/commits/bc0d87553cc4cecb4cd04e4ca6633692a028e514",
                "verification": {
                    "payload": "tree a004780d27660e91e99d1c7ca3fb41d50ef8428f\nparent c691d274d385bfbe7c2aa05c21d5570d55e07daf\nauthor iczero <iczero4@gmail.com> 1594500902 -0700\ncommitter iczero <iczero4@gmail.com> 1594500902 -0700\n\nExport Vec3 class properly in typings\n",
                    "reason": "valid",
                    "signature": "-----BEGIN PGP SIGNATURE-----\n\niIgEABYIADAWIQQFvjqkBhgCei48uSN001Nw8grooAUCXwonJhIcaWN6ZXJvNEBn\nbWFpbC5jb20ACgkQdNNTcPIK6KBoXwEAytBpeV9rKIY/Pv54QCIChHf/6m/x9CAI\nmT6lARtlNaQA/3z2h6YDFw9hLN/00hkddWyQvUoTiy4HPacjokUpRR4O\n=Nlof\n-----END PGP SIGNATURE-----",
                    "verified": true
                }
            },
            "committer": {
                "avatar_url": "https://avatars.githubusercontent.com/u/10750302?v=4",
                "events_url": "https://api.github.com/users/iczero/events{/privacy}",
                "followers_url": "https://api.github.com/users/iczero/followers",
                "following_url": "https://api.github.com/users/iczero/following{/other_user}",
                "gists_url": "https://api.github.com/users/iczero/gists{/gist_id}",
                "gravatar_id": "",
                "html_url": "https://github.com/iczero",
                "id": 10750302,
                "login": "iczero",
                "node_id": "MDQ6VXNlcjEwNzUwMzAy",
                "organizations_url": "https://api.github.com/users/iczero/orgs",
                "received_events_url": "https://api.github.com/users/iczero/received_events",
                "repos_url": "https://api.github.com/users/iczero/repos",
                "site_admin": false,
                "starred_url": "https://api.github.com/users/iczero/starred{/owner}{/repo}",
                "subscriptions_url": "https://api.github.com/users/iczero/subscriptions",
                "type": "User",
                "url": "https://api.github.com/users/iczero"
            },
            "html_url": "https://github.com/PrismarineJS/node-vec3/commit/bc0d87553cc4cecb4cd04e4ca6633692a028e514",
            "node_id": "MDY6Q29tbWl0Mjc4OTQwMjIyOmJjMGQ4NzU1M2NjNGNlY2I0Y2QwNGU0Y2E2NjMzNjkyYTAyOGU1MTQ=",
            "parents": [
                {
                    "html_url": "https://github.com/PrismarineJS/node-vec3/commit/c691d274d385bfbe7c2aa05c21d5570d55e07daf",
                    "sha": "c691d274d385bfbe7c2aa05c21d5570d55e07daf",
                    "url": "https://api.github.com/repos/PrismarineJS/node-vec3/commits/c691d274d385bfbe7c2aa05c21d5570d55e07daf"
                }
            ],
            "sha": "bc0d87553cc4cecb4cd04e4ca6633692a028e514",
            "url": "https://api.github.com/repos/PrismarineJS/node-vec3/commits/bc0d87553cc4cecb4cd04e4ca6633692a028e514"
        }
    ],
    "commits": 1,
    "commits_url": "https://api.github.com/repos/PrismarineJS/node-vec3/pulls/9/commits",
    "created_at": "2020-07-11T21:00:19Z",
    "deletions": 8,
    "diff_url": "https://github.com/PrismarineJS/node-vec3/pull/9.diff",
    "draft": false,
    "head": {
        "label": "iczero:typings-fix",
        "ref": "typings-fix",
        "repo": {
            "allow_forking": true,
            "archive_url": "https://api.github.com/repos/iczero/node-vec3/{archive_format}{/ref}",
            "archived": false,
            "assignees_url": "https://api.github.com/repos/iczero/node-vec3/assignees{/user}",
            "blobs_url": "https://api.github.com/repos/iczero/node-vec3/git/blobs{/sha}",
            "branches_url": "https://api.github.com/repos/iczero/node-vec3/branches{/branch}",
            "clone_url": "https://github.com/iczero/node-vec3.git",
            "collaborators_url": "https://api.github.com/repos/iczero/node-vec3/collaborators{/collaborator}",
            "comments_url": "https://api.github.com/repos/iczero/node-vec3/comments{/number}",
            "commits_url": "https://api.github.com/repos/iczero/node-vec3/commits{/sha}",
            "compare_url": "https://api.github.com/repos/iczero/node-vec3/compare/{base}...{head}",
            "contents_url": "https://api.github.com/repos/iczero/node-vec3/contents/{+path}",
            "contributors_url": "https://api.github.com/repos/iczero/node-vec3/contributors",
            "created_at": "2020-07-11T20:54:25Z",
            "default_branch": "master",
            "deployments_url": "https://api.github.com/repos/iczero/node-vec3/deployments",
            "description": "3d vector math with robust unit tests",
            "disabled": false,
            "downloads_url": "https://api.github.com/repos/iczero/node-vec3/downloads",
            "events_url": "https://api.github.com/repos/iczero/node-vec3/events",
            "fork": true,
            "forks": 0,
            "forks_count": 0,
            "forks_url": "https://api.github.com/repos/iczero/node-vec3/forks",
            "full_name": "iczero/node-vec3",
            "git_commits_url": "https://api.github.com/repos/iczero/node-vec3/git/commits{/sha}",
            "git_refs_url": "https://api.github.com/repos/iczero/node-vec3/git/refs{/sha}",
            "git_tags_url": "https://api.github.com/repos/iczero/node-vec3/git/tags{/sha}",
            "git_url": "git://github.com/iczero/node-vec3.git",
            "has_discussions": false,
            "has_downloads": true,
            "has_issues": false,
            "has_pages": false,
            "has_projects": true,
            "has_wiki": true,
            "homepage": "",
            "hooks_url": "https://api.github.com/repos/iczero/node-vec3/hooks",
            "html_url": "https://github.com/iczero/node-vec3",
            "id": 278940222,
            "is_template": false,
            "issue_comment_url": "https://api.github.com/repos/iczero/node-vec3/issues/comments{/number}",
            "issue_events_url": "https://api.github.com/repos/iczero/node-vec3/issues/events{/number}",
            "issues_url": "https://api.github.com/repos/iczero/node-vec3/issues{/number}",
            "keys_url": "https://api.github.com/repos/iczero/node-vec3/keys{/key_id}",
            "labels_url": "https://api.github.com/repos/iczero/node-vec3/labels{/name}",
            "language": null,
            "languages_url": "https://api.github.com/repos/iczero/node-vec3/languages",
            "license": null,
            "merges_url": "https://api.github.com/repos/iczero/node-vec3/merges",
            "milestones_url": "https://api.github.com/repos/iczero/node-vec3/milestones{/number}",
            "mirror_url": null,
            "name": "node-vec3",
            "node_id": "MDEwOlJlcG9zaXRvcnkyNzg5NDAyMjI=",
            "notifications_url": "https://api.github.com/repos/iczero/node-vec3/notifications{?since,all,participating}",
            "open_issues": 0,
            "open_issues_count": 0,
            "owner": {
                "avatar_url": "https://avatars.githubusercontent.com/u/10750302?v=4",
                "events_url": "https://api.github.com/users/iczero/events{/privacy}",
                "followers_url": "https://api.github.com/users/iczero/followers",
                "following_url": "https://api.github.com/users/iczero/following{/other_user}",
                "gists_url": "https://api.github.com/users/iczero/gists{/gist_id}",
                "gravatar_id": "",
                "html_url": "https://github.com/iczero",
                "id": 10750302,
                "login": "iczero",
                "node_id": "MDQ6VXNlcjEwNzUwMzAy",
                "organizations_url": "https://api.github.com/users/iczero/orgs",
                "received_events_url": "https://api.github.com/users/iczero/received_events",
                "repos_url": "https://api.github.com/users/iczero/repos",
                "site_admin": false,
                "starred_url": "https://api.github.com/users/iczero/starred{/owner}{/repo}",
                "subscriptions_url": "https://api.github.com/users/iczero/subscriptions",
                "type": "User",
                "url": "https://api.github.com/users/iczero"
            },
            "private": false,
            "pulls_url": "https://api.github.com/repos/iczero/node-vec3/pulls{/number}",
            "pushed_at": "2020-07-11T20:55:17Z",
            "releases_url": "https://api.github.com/repos/iczero/node-vec3/releases{/id}",
            "size": 29,
            "ssh_url": "git@github.com:iczero/node-vec3.git",
            "stargazers_count": 0,
            "stargazers_url": "https://api.github.com/repos/iczero/node-vec3/stargazers",
            "statuses_url": "https://api.github.com/repos/iczero/node-vec3/statuses/{sha}",
            "subscribers_url": "https://api.github.com/repos/iczero/node-vec3/subscribers",
            "subscription_url": "https://api.github.com/repos/iczero/node-vec3/subscription",
            "svn_url": "https://github.com/iczero/node-vec3",
            "tags_url": "https://api.github.com/repos/iczero/node-vec3/tags",
            "teams_url": "https://api.github.com/repos/iczero/node-vec3/teams",
            "topics": [],
            "trees_url": "https://api.github.com/repos/iczero/node-vec3/git/trees{/sha}",
            "updated_at": "2020-07-14T23:59:11Z",
            "url": "https://api.github.com/repos/iczero/node-vec3",
            "visibility": "public",
            "watchers": 0,
            "watchers_count": 0,
            "web_commit_signoff_required": false
        },
        "sha": "bc0d87553cc4cecb4cd04e4ca6633692a028e514",
        "user": {
            "avatar_url": "https://avatars.githubusercontent.com/u/10750302?v=4",
            "events_url": "https://api.github.com/users/iczero/events{/privacy}",
            "followers_url": "https://api.github.com/users/iczero/followers",
            "following_url": "https://api.github.com/users/iczero/following{/other_user}",
            "gists_url": "https://api.github.com/users/iczero/gists{/gist_id}",
            "gravatar_id": "",
            "html_url": "https://github.com/iczero",
            "id": 10750302,
            "login": "iczero",
            "node_id": "MDQ6VXNlcjEwNzUwMzAy",
            "organizations_url": "https://api.github.com/users/iczero/orgs",
            "received_events_url": "https://api.github.com/users/iczero/received_events",
            "repos_url": "https://api.github.com/users/iczero/repos",
            "site_admin": false,
            "starred_url": "https://api.github.com/users/iczero/starred{/owner}{/repo}",
            "subscriptions_url": "https://api.github.com/users/iczero/subscriptions",
            "type": "User",
            "url": "https://api.github.com/users/iczero"
        }
    },
    "html_url": "https://github.com/PrismarineJS/node-vec3/pull/9",
    "id": 447816619,
    "issue_url": "https://api.github.com/repos/PrismarineJS/node-vec3/issues/9",
    "labels": [],
    "locked": false,
    "maintainer_can_modify": false,
    "merge_commit_sha": "0a410e1b52d5a93cbf7c6636fc5f22c00bdacdea",
    "mergeable": null,
    "mergeable_state": "unknown",
    "merged": true,
    "merged_at": "2020-07-11T21:04:45Z",
    "merged_by": {
        "avatar_url": "https://avatars.githubusercontent.com/u/2346494?v=4",
        "events_url": "https://api.github.com/users/rom1504/events{/privacy}",
        "followers_url": "https://api.github.com/users/rom1504/followers",
        "following_url": "https://api.github.com/users/rom1504/following{/other_user}",
        "gists_url": "https://api.github.com/users/rom1504/gists{/gist_id}",
        "gravatar_id": "",
        "html_url": "https://github.com/rom1504",
        "id": 2346494,
        "login": "rom1504",
        "node_id": "MDQ6VXNlcjIzNDY0OTQ=",
        "organizations_url": "https://api.github.com/users/rom1504/orgs",
        "received_events_url": "https://api.github.com/users/rom1504/received_events",
        "repos_url": "https://api.github.com/users/rom1504/repos",
        "site_admin": false,
        "starred_url": "https://api.github.com/users/rom1504/starred{/owner}{/repo}",
        "subscriptions_url": "https://api.github.com/users/rom1504/subscriptions",
        "type": "User",
        "url": "https://api.github.com/users/rom1504"
    },
    "milestone": null,
    "node_id": "MDExOlB1bGxSZXF1ZXN0NDQ3ODE2NjE5",
    "number": 9,
    "patch_url": "https://github.com/PrismarineJS/node-vec3/pull/9.patch",
    "rebaseable": null,
    "requested_reviewers": [],
    "requested_teams": [],
    "review_comment_url": "https://api.github.com/repos/PrismarineJS/node-vec3/pulls/comments{/number}",
    "review_comments": 0,
    "review_comments_url": "https://api.github.com/repos/PrismarineJS/node-vec3/pulls/9/comments",
    "state": "closed",
    "statuses_url": "https://api.github.com/repos/PrismarineJS/node-vec3/statuses/bc0d87553cc4cecb4cd04e4ca6633692a028e514",
    "title": "Export Vec3 class properly in typings",
    "updated_at": "2020-07-11T21:04:45Z",
    "url": "https://api.github.com/repos/PrismarineJS/node-vec3/pulls/9",
    "user": {
        "avatar_url": "https://avatars.githubusercontent.com/u/10750302?v=4",
        "events_url": "https://api.github.com/users/iczero/events{/privacy}",
        "followers_url": "https://api.github.com/users/iczero/followers",
        "following_url": "https://api.github.com/users/iczero/following{/other_user}",
        "gists_url": "https://api.github.com/users/iczero/gists{/gist_id}",
        "gravatar_id": "",
        "html_url": "https://github.com/iczero",
        "id": 10750302,
        "login": "iczero",
        "node_id": "MDQ6VXNlcjEwNzUwMzAy",
        "organizations_url": "https://api.github.com/users/iczero/orgs",
        "received_events_url": "https://api.github.com/users/iczero/received_events",
        "repos_url": "https://api.github.com/users/iczero/repos",
        "site_admin": false,
        "starred_url": "https://api.github.com/users/iczero/starred{/owner}{/repo}",
        "subscriptions_url": "https://api.github.com/users/iczero/subscriptions",
        "type": "User",
        "url": "https://api.github.com/users/iczero"
    }
}