{
    "active_lock_reason": null,
    "assignee": null,
    "assignees": [],
    "author_association": "CONTRIBUTOR",
    "body": "The latest version published on npm is 1.2.0. The latest version is 1.4.0\r\n\r\nCC @rom1504 ",
    "closed_at": "2024-01-12T00:45:40Z",
    "comment_data": [
        {
            "author_association": "MEMBER",
            "body": "/makerelease",
            "created_at": "2024-01-12T00:44:16Z",
            "html_url": "https://github.com/PrismarineJS/diamond-square/issues/17#issuecomment-1888210641",
            "id": 1888210641,
            "issue_url": "https://api.github.com/repos/PrismarineJS/diamond-square/issues/17",
            "node_id": "IC_kwDOAvpJec5wi87R",
            "performed_via_github_app": null,
            "reactions": {
                "+1": 0,
                "-1": 0,
                "confused": 0,
                "eyes": 1,
                "heart": 0,
                "hooray": 0,
                "laugh": 0,
                "rocket": 0,
                "total_count": 1,
                "url": "https://api.github.com/repos/PrismarineJS/diamond-square/issues/comments/1888210641/reactions"
            },
            "updated_at": "2024-01-12T00:44:16Z",
            "url": "https://api.github.com/repos/PrismarineJS/diamond-square/issues/comments/1888210641",
            "user": {
                "avatar_url": "https://avatars.githubusercontent.com/u/2346494?v=4",
                "events_url": "https://api.github.com/users/rom1504/events{/privacy}",
                "followers_url": "https://api.github.com/users/rom1504/followers",
                "following_url": "https://api.github.com/users/rom1504/following{/other_user}",
                "gists_url": "https://api.github.com/users/rom1504/gists{/gist_id}",
                "gravatar_id": "",
                "html_url": "https://github.com/rom1504",
                "id": 2346494,
                "login": "rom1504",
                "node_id": "MDQ6VXNlcjIzNDY0OTQ=",
                "organizations_url": "https://api.github.com/users/rom1504/orgs",
                "received_events_url": "https://api.github.com/users/rom1504/received_events",
                "repos_url": "https://api.github.com/users/rom1504/repos",
                "site_admin": false,
                "starred_url": "https://api.github.com/users/rom1504/starred{/owner}{/repo}",
                "subscriptions_url": "https://api.github.com/users/rom1504/subscriptions",
                "type": "User",
                "url": "https://api.github.com/users/rom1504"
            }
        },
        {
            "author_association": "MEMBER",
            "body": "Fixed ",
            "created_at": "2024-01-12T00:45:40Z",
            "html_url": "https://github.com/PrismarineJS/diamond-square/issues/17#issuecomment-1888211638",
            "id": 1888211638,
            "issue_url": "https://api.github.com/repos/PrismarineJS/diamond-square/issues/17",
            "node_id": "IC_kwDOAvpJec5wi9K2",
            "performed_via_github_app": null,
            "reactions": {
                "+1": 0,
                "-1": 0,
                "confused": 0,
                "eyes": 0,
                "heart": 0,
                "hooray": 0,
                "laugh": 0,
                "rocket": 0,
                "total_count": 0,
                "url": "https://api.github.com/repos/PrismarineJS/diamond-square/issues/comments/1888211638/reactions"
            },
            "updated_at": "2024-01-12T00:45:40Z",
            "url": "https://api.github.com/repos/PrismarineJS/diamond-square/issues/comments/1888211638",
            "user": {
                "avatar_url": "https://avatars.githubusercontent.com/u/2346494?v=4",
                "events_url": "https://api.github.com/users/rom1504/events{/privacy}",
                "followers_url": "https://api.github.com/users/rom1504/followers",
                "following_url": "https://api.github.com/users/rom1504/following{/other_user}",
                "gists_url": "https://api.github.com/users/rom1504/gists{/gist_id}",
                "gravatar_id": "",
                "html_url": "https://github.com/rom1504",
                "id": 2346494,
                "login": "rom1504",
                "node_id": "MDQ6VXNlcjIzNDY0OTQ=",
                "organizations_url": "https://api.github.com/users/rom1504/orgs",
                "received_events_url": "https://api.github.com/users/rom1504/received_events",
                "repos_url": "https://api.github.com/users/rom1504/repos",
                "site_admin": false,
                "starred_url": "https://api.github.com/users/rom1504/starred{/owner}{/repo}",
                "subscriptions_url": "https://api.github.com/users/rom1504/subscriptions",
                "type": "User",
                "url": "https://api.github.com/users/rom1504"
            }
        }
    ],
    "comments": 2,
    "comments_url": "https://api.github.com/repos/PrismarineJS/diamond-square/issues/17/comments",
    "created_at": "2024-01-11T22:27:50Z",
    "event_data": [
        {
            "actor": {
                "avatar_url": "https://avatars.githubusercontent.com/u/2346494?v=4",
                "events_url": "https://api.github.com/users/rom1504/events{/privacy}",
                "followers_url": "https://api.github.com/users/rom1504/followers",
                "following_url": "https://api.github.com/users/rom1504/following{/other_user}",
                "gists_url": "https://api.github.com/users/rom1504/gists{/gist_id}",
                "gravatar_id": "",
                "html_url": "https://github.com/rom1504",
                "id": 2346494,
                "login": "rom1504",
                "node_id": "MDQ6VXNlcjIzNDY0OTQ=",
                "organizations_url": "https://api.github.com/users/rom1504/orgs",
                "received_events_url": "https://api.github.com/users/rom1504/received_events",
                "repos_url": "https://api.github.com/users/rom1504/repos",
                "site_admin": false,
                "starred_url": "https://api.github.com/users/rom1504/starred{/owner}{/repo}",
                "subscriptions_url": "https://api.github.com/users/rom1504/subscriptions",
                "type": "User",
                "url": "https://api.github.com/users/rom1504"
            },
            "commit_id": null,
            "commit_url": null,
            "created_at": "2024-01-11T22:27:51Z",
            "event": "mentioned",
            "id": 11462295259,
            "node_id": "MEE_lADOAvpJec5711fWzwAAAAKrNL7b",
            "performed_via_github_app": null,
            "url": "https://api.github.com/repos/PrismarineJS/diamond-square/issues/events/11462295259"
        },
        {
            "actor": {
                "avatar_url": "https://avatars.githubusercontent.com/u/2346494?v=4",
                "events_url": "https://api.github.com/users/rom1504/events{/privacy}",
                "followers_url": "https://api.github.com/users/rom1504/followers",
                "following_url": "https://api.github.com/users/rom1504/following{/other_user}",
                "gists_url": "https://api.github.com/users/rom1504/gists{/gist_id}",
                "gravatar_id": "",
                "html_url": "https://github.com/rom1504",
                "id": 2346494,
                "login": "rom1504",
                "node_id": "MDQ6VXNlcjIzNDY0OTQ=",
                "organizations_url": "https://api.github.com/users/rom1504/orgs",
                "received_events_url": "https://api.github.com/users/rom1504/received_events",
                "repos_url": "https://api.github.com/users/rom1504/repos",
                "site_admin": false,
                "starred_url": "https://api.github.com/users/rom1504/starred{/owner}{/repo}",
                "subscriptions_url": "https://api.github.com/users/rom1504/subscriptions",
                "type": "User",
                "url": "https://api.github.com/users/rom1504"
            },
            "commit_id": null,
            "commit_url": null,
            "created_at": "2024-01-11T22:27:51Z",
            "event": "subscribed",
            "id": 11462295269,
            "node_id": "SE_lADOAvpJec5711fWzwAAAAKrNL7l",
            "performed_via_github_app": null,
            "url": "https://api.github.com/repos/PrismarineJS/diamond-square/issues/events/11462295269"
        },
        {
            "actor": {
                "avatar_url": "https://avatars.githubusercontent.com/u/2346494?v=4",
                "events_url": "https://api.github.com/users/rom1504/events{/privacy}",
                "followers_url": "https://api.github.com/users/rom1504/followers",
                "following_url": "https://api.github.com/users/rom1504/following{/other_user}",
                "gists_url": "https://api.github.com/users/rom1504/gists{/gist_id}",
                "gravatar_id": "",
                "html_url": "https://github.com/rom1504",
                "id": 2346494,
                "login": "rom1504",
                "node_id": "MDQ6VXNlcjIzNDY0OTQ=",
                "organizations_url": "https://api.github.com/users/rom1504/orgs",
                "received_events_url": "https://api.github.com/users/rom1504/received_events",
                "repos_url": "https://api.github.com/users/rom1504/repos",
                "site_admin": false,
                "starred_url": "https://api.github.com/users/rom1504/starred{/owner}{/repo}",
                "subscriptions_url": "https://api.github.com/users/rom1504/subscriptions",
                "type": "User",
                "url": "https://api.github.com/users/rom1504"
            },
            "commit_id": null,
            "commit_url": null,
            "created_at": "2024-01-12T00:45:40Z",
            "event": "closed",
            "id": 11463089582,
            "node_id": "CE_lADOAvpJec5711fWzwAAAAKrQN2u",
            "performed_via_github_app": null,
            "state_reason": null,
            "url": "https://api.github.com/repos/PrismarineJS/diamond-square/issues/events/11463089582"
        }
    ],
    "events_url": "https://api.github.com/repos/PrismarineJS/diamond-square/issues/17/events",
    "html_url": "https://github.com/PrismarineJS/diamond-square/issues/17",
    "id": 2077710294,
    "labels": [],
    "labels_url": "https://api.github.com/repos/PrismarineJS/diamond-square/issues/17/labels{/name}",
    "locked": false,
    "milestone": null,
    "node_id": "I_kwDOAvpJec5711fW",
    "number": 17,
    "performed_via_github_app": null,
    "reactions": {
        "+1": 0,
        "-1": 0,
        "confused": 0,
        "eyes": 0,
        "heart": 0,
        "hooray": 0,
        "laugh": 0,
        "rocket": 0,
        "total_count": 0,
        "url": "https://api.github.com/repos/PrismarineJS/diamond-square/issues/17/reactions"
    },
    "repository_url": "https://api.github.com/repos/PrismarineJS/diamond-square",
    "state": "closed",
    "state_reason": "completed",
    "timeline_url": "https://api.github.com/repos/PrismarineJS/diamond-square/issues/17/timeline",
    "title": "NPM version and Github version don't match",
    "updated_at": "2024-01-12T00:45:40Z",
    "url": "https://api.github.com/repos/PrismarineJS/diamond-square/issues/17",
    "user": {
        "avatar_url": "https://avatars.githubusercontent.com/u/45835846?v=4",
        "events_url": "https://api.github.com/users/Pandapip1/events{/privacy}",
        "followers_url": "https://api.github.com/users/Pandapip1/followers",
        "following_url": "https://api.github.com/users/Pandapip1/following{/other_user}",
        "gists_url": "https://api.github.com/users/Pandapip1/gists{/gist_id}",
        "gravatar_id": "",
        "html_url": "https://github.com/Pandapip1",
        "id": 45835846,
        "login": "Pandapip1",
        "node_id": "MDQ6VXNlcjQ1ODM1ODQ2",
        "organizations_url": "https://api.github.com/users/Pandapip1/orgs",
        "received_events_url": "https://api.github.com/users/Pandapip1/received_events",
        "repos_url": "https://api.github.com/users/Pandapip1/repos",
        "site_admin": false,
        "starred_url": "https://api.github.com/users/Pandapip1/starred{/owner}{/repo}",
        "subscriptions_url": "https://api.github.com/users/Pandapip1/subscriptions",
        "type": "User",
        "url": "https://api.github.com/users/Pandapip1"
    }
}