{
    "active_lock_reason": null,
    "assignee": null,
    "assignees": [],
    "author_association": "NONE",
    "body": "Hi, these are relevant code snippets:\r\nBasically the normal following works great, but (default behaviour) when the target disconnects the bot just stays where it was.\r\nSo, I tried this by setting a new goal after the target joins again.\r\nAfter 3 seconds (delay) the bot runs for half a sec towards the target BUT then stops, stays in place and says:\r\n\"I can get there in 1 moves. Computation took 2115.72 ms\"\r\nwith increasing ms up to around 5000.\r\n\r\nWhat is going on? Also, the bot just stays there after the target died, even if it respawns right next to him. Is there some callback to catch for the entity going missing instead of manually tracking who joined or died?\r\n\r\nMy code:\r\n```js\r\n//Follow command, works everytime after being called:\r\ngoal_memory = [new goals.GoalFollow(target, 2), (cmd[2] ? (isYes(cmd[2]) ? true : false) : true)]\r\n                bot.pathfinder.setGoal(goal_memory[0], goal_memory[1])\r\n```\r\n```js\r\n//Event, doesnt work at all in very strage way.\r\n//Note that the getPlayer function is somewhat a bot.players[username]\r\n//The log of the entity returns the valid entity as json\r\n//goal_memory[1] stores if its dynamic (which it is everytime in this scenario)\r\nbot.on(\"playerJoined\", (player) => {\r\n        if(goal_memory && goal_memory[0] instanceof goals.GoalFollow && goal_memory[0].entity.username.trim() === player.username.trim()) {\r\n            setTimeout(() => {  //Non blocking while(!p.entity)) would be better\r\n                if(getPlayer(player.username) && getPlayer(player.username).entity) {\r\n                    log(JSON.stringify(getPlayer(player.username).entity, null, 2))\r\n                    //log(getPlayer(player.username).entity.username)\r\n                    //bot.pathfinder.setGoal(null)\r\n                    bot.pathfinder.setGoal(null)\r\n                    bot.pathfinder.setGoal(new goals.GoalFollow(getPlayer(player.username).entity), goal_memory[1])\r\n                    //let walk_pos = bot.spawnPoint\r\n                    //bot.pathfinder.setGoal(new goals.GoalXZ(walk_pos.x, walk_pos.z, 0))\r\n                    log(\"[Pathfinder] Set goal to last memory.\")\r\n                } else {\r\n                    log(\"[Memory] Error, could not get entity of \" + player.username + \".\")\r\n                }\r\n            }, 3000);\r\n        }\r\n    })\r\n```\r\n\r\n\r\n",
    "closed_at": "2022-07-02T12:32:11Z",
    "comment_data": [
        {
            "author_association": "NONE",
            "body": "Here, it thinks it arrived but when I move away it stays there and this happens:\r\n```\r\n[Pathfinder] I can get there in 2 moves. Computation took 40.44 ms.\r\n[Pathfinder] I can get there in 2 moves. Computation took 94.30 ms.\r\n[Pathfinder] I can get there in 2 moves. Computation took 161.60 ms.\r\n[Pathfinder] I can get there in 2 moves. Computation took 203.47 ms.\r\n[Pathfinder] I can get there in 1 moves. Computation took 249.68 ms.\r\n[Pathfinder] I can get there in 1 moves. Computation took 311.29 ms.\r\n[Pathfinder] I can get there in 1 moves. Computation took 352.61 ms.\r\n[Pathfinder] I can get there in 1 moves. Computation took 393.60 ms.\r\n[Pathfinder] I can get there in 1 moves. Computation took 449.94 ms.\r\n[Pathfinder] I can get there in 1 moves. Computation took 512.24 ms.\r\n[Pathfinder] I can get there in 1 moves. Computation took 553.87 ms.\r\n[Pathfinder] I can get there in 1 moves. Computation took 595.18 ms.\r\n[Pathfinder] I can get there in 1 moves. Computation took 652.28 ms.\r\n[Pathfinder] I can get there in 1 moves. Computation took 715.80 ms.\r\n[Pathfinder] I can get there in 1 moves. Computation took 757.57 ms.\r\n[Pathfinder] I can get there in 1 moves. Computation took 799.94 ms.\r\n[Pathfinder] I can get there in 1 moves. Computation took 853.86 ms.\r\n[Pathfinder] I can get there in 1 moves. Computation took 915.52 ms.\r\n[Pathfinder] I can get there in 1 moves. Computation took 957.69 ms.\r\n[Pathfinder] I can get there in 1 moves. Computation took 998.88 ms.\r\n[Pathfinder] I can get there in 0 moves. Computation took 40.43 ms.\r\n[Pathfinder] I can get there in 0 moves. Computation took 41.09 ms.\r\n[Pathfinder] I can get there in 0 moves. Computation took 40.09 ms.\r\n[Pathfinder] I can get there in 0 moves. Computation took 40.66 ms.\r\n[Pathfinder] I can get there in 0 moves. Computation took 81.38 ms.\r\n[Pathfinder] I can get there in 0 moves. Computation took 128.63 ms.\r\n[Pathfinder] I can get there in 0 moves. Computation took 40.29 ms.\r\n[Pathfinder] I can get there in 0 moves. Computation took 107.02 ms.\r\n[Pathfinder] I can get there in 0 moves. Computation took 148.00 ms.\r\n[Pathfinder] I can get there in 0 moves. Computation took 188.93 ms.\r\n[Pathfinder] I can get there in 0 moves. Computation took 243.91 ms.\r\n[Pathfinder] I can get there in 0 moves. Computation took 304.13 ms.\r\n[Pathfinder] I can get there in 0 moves. Computation took 345.77 ms.\r\n[Pathfinder] I can get there in 0 moves. Computation took 387.00 ms.\r\n[Pathfinder] I can get there in 0 moves. Computation took 436.55 ms.\r\n[Pathfinder] I can get there in 0 moves. Computation took 494.13 ms.\r\n[Pathfinder] I can get there in 0 moves. Computation took 556.67 ms.\r\n[Pathfinder] I can get there in 0 moves. Computation took 598.19 ms.\r\n[Pathfinder] I can get there in 0 moves. Computation took 638.71 ms.\r\n[Pathfinder] I can get there in 0 moves. Computation took 698.44 ms.\r\n[Pathfinder] I can get there in 0 moves. Computation took 739.00 ms.\r\n[Pathfinder] I can get there in 0 moves. Computation took 780.43 ms.\r\n[Pathfinder] I can get there in 0 moves. Computation took 837.93 ms.\r\n[Pathfinder] I can get there in 0 moves. Computation took 899.68 ms.\r\n[Pathfinder] I can get there in 0 moves. Computation took 940.65 ms.\r\n[Pathfinder] I can get there in 0 moves. Computation took 981.95 ms.\r\n[Pathfinder] I can get there in 0 moves. Computation took 1042.17 ms.\r\n[Pathfinder] I can get there in 0 moves. Computation took 1103.71 ms.\r\n[Pathfinder] I can get there in 0 moves. Computation took 1145.34 ms.\r\n[Pathfinder] I can get there in 0 moves. Computation took 1186.64 ms.\r\n[Pathfinder] I can get there in 0 moves. Computation took 1241.06 ms.\r\n[Pathfinder] I can get there in 0 moves. Computation took 1303.01 ms.\r\n[Pathfinder] I can get there in 0 moves. Computation took 1344.68 ms.\r\n[Pathfinder] I can get there in 0 moves. Computation took 1385.92 ms.\r\n[Pathfinder] I can get there in 0 moves. Computation took 1445.09 ms.\r\n[Pathfinder] I can get there in 0 moves. Computation took 1506.72 ms.\r\n[Pathfinder] I can get there in 0 moves. Computation took 1547.71 ms.\r\n[Pathfinder] I can get there in 0 moves. Computation took 1588.29 ms.\r\n[Pathfinder] I can get there in 0 moves. Computation took 1648.49 ms.\r\n[Pathfinder] I can get there in 0 moves. Computation took 1710.68 ms.\r\n[Pathfinder] I can get there in 0 moves. Computation took 1752.28 ms.\r\n[Pathfinder] I can get there in 0 moves. Computation took 1793.35 ms.\r\n[Pathfinder] I can get there in 0 moves. Computation took 1851.09 ms.\r\n[Pathfinder] I can get there in 0 moves. Computation took 1892.45 ms.\r\n[Pathfinder] I can get there in 0 moves. Computation took 1933.16 ms.\r\n[Pathfinder] I can get there in 0 moves. Computation took 1989.95 ms.\r\n[Pathfinder] I can get there in 0 moves. Computation took 2054.47 ms.\r\n[Pathfinder] I can get there in 0 moves. Computation took 2096.29 ms.\r\n[Pathfinder] I can get there in 0 moves. Computation took 2137.81 ms.\r\n[Pathfinder] I can get there in 0 moves. Computation took 2192.01 ms.\r\n[Pathfinder] I can get there in 0 moves. Computation took 2255.52 ms.\r\n[Pathfinder] I can get there in 0 moves. Computation took 2296.03 ms.\r\n[Pathfinder] I can get there in 0 moves. Computation took 2336.80 ms.\r\n[Pathfinder] I can get there in 0 moves. Computation took 2397.22 ms.\r\n[Pathfinder] I can get there in 0 moves. Computation took 2461.22 ms.\r\n[Pathfinder] I can get there in 0 moves. Computation took 2502.55 ms.\r\n[Pathfinder] I can get there in 0 moves. Computation took 2545.64 ms.\r\n[Pathfinder] I can get there in 0 moves. Computation took 2602.93 ms.\r\n[Pathfinder] I can get there in 0 moves. Computation took 2643.72 ms.\r\n[Pathfinder] I can get there in 0 moves. Computation took 2684.44 ms.\r\n[Pathfinder] I can get there in 0 moves. Computation took 2740.14 ms.\r\n[Pathfinder] I can get there in 0 moves. Computation took 2804.34 ms.\r\n[Pathfinder] I can get there in 0 moves. Computation took 2844.98 ms.\r\n[Pathfinder] I can get there in 0 moves. Computation took 2887.05 ms.\r\n[Pathfinder] I can get there in 0 moves. Computation took 2942.66 ms.\r\n[Pathfinder] I can get there in 0 moves. Computation took 3004.59 ms.\r\n[Pathfinder] I can get there in 0 moves. Computation took 3045.04 ms.\r\n[Pathfinder] I can get there in 0 moves. Computation took 3086.52 ms.\r\n[Pathfinder] I can get there in 0 moves. Computation took 3143.37 ms.\r\n[Pathfinder] I can get there in 0 moves. Computation took 3205.62 ms.\r\n[Pathfinder] I can get there in 0 moves. Computation took 3247.10 ms.\r\n[Pathfinder] I can get there in 0 moves. Computation took 3288.34 ms.\r\n[Pathfinder] I can get there in 0 moves. Computation took 3347.08 ms.\r\n[Pathfinder] I can get there in 0 moves. Computation took 3408.05 ms.\r\n[Pathfinder] I can get there in 0 moves. Computation took 3450.61 ms.\r\n[Pathfinder] I can get there in 0 moves. Computation took 3491.12 ms.\r\n[Pathfinder] I can get there in 0 moves. Computation took 3549.59 ms.\r\n[Pathfinder] I can get there in 0 moves. Computation took 3590.37 ms.\r\n[Pathfinder] I can get there in 0 moves. Computation took 3632.21 ms.\r\n[Pathfinder] I can get there in 0 moves. Computation took 3682.59 ms.\r\n[Pathfinder] I can get there in 0 moves. Computation took 3733.64 ms.\r\n[Pathfinder] I can get there in 0 moves. Computation took 3796.29 ms.\r\n[Pathfinder] I can get there in 0 moves. Computation took 3860.76 ms.\r\n[Pathfinder] I can get there in 0 moves. Computation took 3902.05 ms.\r\n[Pathfinder] I can get there in 0 moves. Computation took 3942.99 ms.\r\n[Pathfinder] I can get there in 0 moves. Computation took 3995.64 ms.\r\n[Pathfinder] I can get there in 0 moves. Computation took 4061.45 ms.\r\n[Pathfinder] I can get there in 0 moves. Computation took 4102.83 ms.\r\n[Pathfinder] I can get there in 0 moves. Computation took 4143.82 ms.\r\n[Pathfinder] I can get there in 0 moves. Computation took 4197.15 ms.\r\n[Pathfinder] I can get there in 0 moves. Computation took 4259.91 ms.\r\n[Pathfinder] I can get there in 0 moves. Computation took 4301.08 ms.\r\n[Pathfinder] I can get there in 0 moves. Computation took 4341.87 ms.\r\n[Pathfinder] I can get there in 0 moves. Computation took 4401.95 ms.\r\n[Pathfinder] I can get there in 0 moves. Computation took 4443.10 ms.\r\n[Pathfinder] I can get there in 0 moves. Computation took 4484.13 ms.\r\n[Pathfinder] I can get there in 0 moves. Computation took 4536.47 ms.\r\n[Pathfinder] I can get there in 0 moves. Computation took 4589.41 ms.\r\n[Pathfinder] I can get there in 0 moves. Computation took 4650.02 ms.\r\n[Pathfinder] I can get there in 0 moves. Computation took 4690.99 ms.\r\n[Pathfinder] I can get there in 0 moves. Computation took 4732.09 ms.\r\n[Pathfinder] I can get there in 0 moves. Computation took 4789.39 ms.\r\n[Pathfinder] I can get there in 0 moves. Computation took 4851.83 ms.\r\n[Pathfinder] I can get there in 0 moves. Computation took 4892.89 ms.\r\n[Pathfinder] I can get there in 0 moves. Computation took 4934.01 ms.\r\n[Pathfinder] I can get there in 0 moves. Computation took 4985.22 ms.\r\n[Pathfinder] I can get there in 0 moves. Computation took 5000.15 ms.\r\n```",
            "created_at": "2021-03-05T15:59:21Z",
            "html_url": "https://github.com/PrismarineJS/mineflayer-pathfinder/issues/128#issuecomment-791511048",
            "id": 791511048,
            "issue_url": "https://api.github.com/repos/PrismarineJS/mineflayer-pathfinder/issues/128",
            "node_id": "MDEyOklzc3VlQ29tbWVudDc5MTUxMTA0OA==",
            "performed_via_github_app": null,
            "reactions": {
                "+1": 0,
                "-1": 0,
                "confused": 0,
                "eyes": 0,
                "heart": 0,
                "hooray": 0,
                "laugh": 0,
                "rocket": 0,
                "total_count": 0,
                "url": "https://api.github.com/repos/PrismarineJS/mineflayer-pathfinder/issues/comments/791511048/reactions"
            },
            "updated_at": "2021-03-05T15:59:21Z",
            "url": "https://api.github.com/repos/PrismarineJS/mineflayer-pathfinder/issues/comments/791511048",
            "user": {
                "avatar_url": "https://avatars.githubusercontent.com/u/43215895?v=4",
                "events_url": "https://api.github.com/users/SinanAkkoyun/events{/privacy}",
                "followers_url": "https://api.github.com/users/SinanAkkoyun/followers",
                "following_url": "https://api.github.com/users/SinanAkkoyun/following{/other_user}",
                "gists_url": "https://api.github.com/users/SinanAkkoyun/gists{/gist_id}",
                "gravatar_id": "",
                "html_url": "https://github.com/SinanAkkoyun",
                "id": 43215895,
                "login": "SinanAkkoyun",
                "node_id": "MDQ6VXNlcjQzMjE1ODk1",
                "organizations_url": "https://api.github.com/users/SinanAkkoyun/orgs",
                "received_events_url": "https://api.github.com/users/SinanAkkoyun/received_events",
                "repos_url": "https://api.github.com/users/SinanAkkoyun/repos",
                "site_admin": false,
                "starred_url": "https://api.github.com/users/SinanAkkoyun/starred{/owner}{/repo}",
                "subscriptions_url": "https://api.github.com/users/SinanAkkoyun/subscriptions",
                "type": "User",
                "url": "https://api.github.com/users/SinanAkkoyun"
            }
        },
        {
            "author_association": "NONE",
            "body": "ok, strangely I fixed the respawn target issue with this:\r\n```js\r\nlet target = getPlayer(player.username).entity\r\n                    \r\n                    goal_memory[0] = new goals.GoalFollow(target, 2)\r\n                    bot.pathfinder.setGoal(goal_memory[0], goal_memory[1])\r\n```\r\nIf somebody knows why it fixed it please tell me\r\n\r\n\r\n\r\nAnd the running to the last spot (when target dies) is due to that the bot saves the last copy of the entity when the entity is null, right? I would change that to eiter make the goal finish or let it abrupt. But this way you cant have an event when this happens.",
            "created_at": "2021-03-05T16:11:45Z",
            "html_url": "https://github.com/PrismarineJS/mineflayer-pathfinder/issues/128#issuecomment-791519006",
            "id": 791519006,
            "issue_url": "https://api.github.com/repos/PrismarineJS/mineflayer-pathfinder/issues/128",
            "node_id": "MDEyOklzc3VlQ29tbWVudDc5MTUxOTAwNg==",
            "performed_via_github_app": null,
            "reactions": {
                "+1": 0,
                "-1": 0,
                "confused": 0,
                "eyes": 0,
                "heart": 0,
                "hooray": 0,
                "laugh": 0,
                "rocket": 0,
                "total_count": 0,
                "url": "https://api.github.com/repos/PrismarineJS/mineflayer-pathfinder/issues/comments/791519006/reactions"
            },
            "updated_at": "2021-03-05T16:11:45Z",
            "url": "https://api.github.com/repos/PrismarineJS/mineflayer-pathfinder/issues/comments/791519006",
            "user": {
                "avatar_url": "https://avatars.githubusercontent.com/u/43215895?v=4",
                "events_url": "https://api.github.com/users/SinanAkkoyun/events{/privacy}",
                "followers_url": "https://api.github.com/users/SinanAkkoyun/followers",
                "following_url": "https://api.github.com/users/SinanAkkoyun/following{/other_user}",
                "gists_url": "https://api.github.com/users/SinanAkkoyun/gists{/gist_id}",
                "gravatar_id": "",
                "html_url": "https://github.com/SinanAkkoyun",
                "id": 43215895,
                "login": "SinanAkkoyun",
                "node_id": "MDQ6VXNlcjQzMjE1ODk1",
                "organizations_url": "https://api.github.com/users/SinanAkkoyun/orgs",
                "received_events_url": "https://api.github.com/users/SinanAkkoyun/received_events",
                "repos_url": "https://api.github.com/users/SinanAkkoyun/repos",
                "site_admin": false,
                "starred_url": "https://api.github.com/users/SinanAkkoyun/starred{/owner}{/repo}",
                "subscriptions_url": "https://api.github.com/users/SinanAkkoyun/subscriptions",
                "type": "User",
                "url": "https://api.github.com/users/SinanAkkoyun"
            }
        },
        {
            "author_association": "MEMBER",
            "body": "Invalid follow goals on entity should be fixed. Reopen or make a new issue if you find issues about this on the latest version.",
            "created_at": "2022-07-02T12:32:11Z",
            "html_url": "https://github.com/PrismarineJS/mineflayer-pathfinder/issues/128#issuecomment-1172891035",
            "id": 1172891035,
            "issue_url": "https://api.github.com/repos/PrismarineJS/mineflayer-pathfinder/issues/128",
            "node_id": "IC_kwDOD1iHmM5F6OWb",
            "performed_via_github_app": null,
            "reactions": {
                "+1": 0,
                "-1": 0,
                "confused": 0,
                "eyes": 0,
                "heart": 0,
                "hooray": 0,
                "laugh": 0,
                "rocket": 0,
                "total_count": 0,
                "url": "https://api.github.com/repos/PrismarineJS/mineflayer-pathfinder/issues/comments/1172891035/reactions"
            },
            "updated_at": "2022-07-02T12:32:11Z",
            "url": "https://api.github.com/repos/PrismarineJS/mineflayer-pathfinder/issues/comments/1172891035",
            "user": {
                "avatar_url": "https://avatars.githubusercontent.com/u/61137113?v=4",
                "events_url": "https://api.github.com/users/IceTank/events{/privacy}",
                "followers_url": "https://api.github.com/users/IceTank/followers",
                "following_url": "https://api.github.com/users/IceTank/following{/other_user}",
                "gists_url": "https://api.github.com/users/IceTank/gists{/gist_id}",
                "gravatar_id": "",
                "html_url": "https://github.com/IceTank",
                "id": 61137113,
                "login": "IceTank",
                "node_id": "MDQ6VXNlcjYxMTM3MTEz",
                "organizations_url": "https://api.github.com/users/IceTank/orgs",
                "received_events_url": "https://api.github.com/users/IceTank/received_events",
                "repos_url": "https://api.github.com/users/IceTank/repos",
                "site_admin": false,
                "starred_url": "https://api.github.com/users/IceTank/starred{/owner}{/repo}",
                "subscriptions_url": "https://api.github.com/users/IceTank/subscriptions",
                "type": "User",
                "url": "https://api.github.com/users/IceTank"
            }
        }
    ],
    "comments": 3,
    "comments_url": "https://api.github.com/repos/PrismarineJS/mineflayer-pathfinder/issues/128/comments",
    "created_at": "2021-03-05T15:57:23Z",
    "event_data": [
        {
            "actor": {
                "avatar_url": "https://avatars.githubusercontent.com/u/61137113?v=4",
                "events_url": "https://api.github.com/users/IceTank/events{/privacy}",
                "followers_url": "https://api.github.com/users/IceTank/followers",
                "following_url": "https://api.github.com/users/IceTank/following{/other_user}",
                "gists_url": "https://api.github.com/users/IceTank/gists{/gist_id}",
                "gravatar_id": "",
                "html_url": "https://github.com/IceTank",
                "id": 61137113,
                "login": "IceTank",
                "node_id": "MDQ6VXNlcjYxMTM3MTEz",
                "organizations_url": "https://api.github.com/users/IceTank/orgs",
                "received_events_url": "https://api.github.com/users/IceTank/received_events",
                "repos_url": "https://api.github.com/users/IceTank/repos",
                "site_admin": false,
                "starred_url": "https://api.github.com/users/IceTank/starred{/owner}{/repo}",
                "subscriptions_url": "https://api.github.com/users/IceTank/subscriptions",
                "type": "User",
                "url": "https://api.github.com/users/IceTank"
            },
            "commit_id": null,
            "commit_url": null,
            "created_at": "2022-07-02T12:32:11Z",
            "event": "closed",
            "id": 6922124116,
            "node_id": "CE_lADOD1iHmM4xEUFbzwAAAAGclztU",
            "performed_via_github_app": null,
            "state_reason": null,
            "url": "https://api.github.com/repos/PrismarineJS/mineflayer-pathfinder/issues/events/6922124116"
        }
    ],
    "events_url": "https://api.github.com/repos/PrismarineJS/mineflayer-pathfinder/issues/128/events",
    "html_url": "https://github.com/PrismarineJS/mineflayer-pathfinder/issues/128",
    "id": 823214427,
    "labels": [],
    "labels_url": "https://api.github.com/repos/PrismarineJS/mineflayer-pathfinder/issues/128/labels{/name}",
    "locked": false,
    "milestone": null,
    "node_id": "MDU6SXNzdWU4MjMyMTQ0Mjc=",
    "number": 128,
    "performed_via_github_app": null,
    "reactions": {
        "+1": 0,
        "-1": 0,
        "confused": 0,
        "eyes": 0,
        "heart": 0,
        "hooray": 0,
        "laugh": 0,
        "rocket": 0,
        "total_count": 0,
        "url": "https://api.github.com/repos/PrismarineJS/mineflayer-pathfinder/issues/128/reactions"
    },
    "repository_url": "https://api.github.com/repos/PrismarineJS/mineflayer-pathfinder",
    "state": "closed",
    "state_reason": "completed",
    "timeline_url": "https://api.github.com/repos/PrismarineJS/mineflayer-pathfinder/issues/128/timeline",
    "title": "Pathfinder goes to last death position of target instead to new positions",
    "updated_at": "2022-07-02T12:32:11Z",
    "url": "https://api.github.com/repos/PrismarineJS/mineflayer-pathfinder/issues/128",
    "user": {
        "avatar_url": "https://avatars.githubusercontent.com/u/43215895?v=4",
        "events_url": "https://api.github.com/users/SinanAkkoyun/events{/privacy}",
        "followers_url": "https://api.github.com/users/SinanAkkoyun/followers",
        "following_url": "https://api.github.com/users/SinanAkkoyun/following{/other_user}",
        "gists_url": "https://api.github.com/users/SinanAkkoyun/gists{/gist_id}",
        "gravatar_id": "",
        "html_url": "https://github.com/SinanAkkoyun",
        "id": 43215895,
        "login": "SinanAkkoyun",
        "node_id": "MDQ6VXNlcjQzMjE1ODk1",
        "organizations_url": "https://api.github.com/users/SinanAkkoyun/orgs",
        "received_events_url": "https://api.github.com/users/SinanAkkoyun/received_events",
        "repos_url": "https://api.github.com/users/SinanAkkoyun/repos",
        "site_admin": false,
        "starred_url": "https://api.github.com/users/SinanAkkoyun/starred{/owner}{/repo}",
        "subscriptions_url": "https://api.github.com/users/SinanAkkoyun/subscriptions",
        "type": "User",
        "url": "https://api.github.com/users/SinanAkkoyun"
    }
}