{
    "active_lock_reason": null,
    "assignee": null,
    "assignees": [],
    "author_association": "NONE",
    "body": "There is a possible typo [here](https://github.com/PrismarineJS/mineflayer-pathfinder/blob/8f5e1a59332266db7fed8aa81410b80996fd0c96/readme.md?plain=1#L114).",
    "closed_at": "2023-07-01T16:07:02Z",
    "comment_data": [
        {
            "author_association": "MEMBER",
            "body": "I am not sure what you mean. You can always open a pull request to fix what you think is wrong.",
            "created_at": "2022-12-20T12:36:02Z",
            "html_url": "https://github.com/PrismarineJS/mineflayer-pathfinder/issues/307#issuecomment-1359293804",
            "id": 1359293804,
            "issue_url": "https://api.github.com/repos/PrismarineJS/mineflayer-pathfinder/issues/307",
            "node_id": "IC_kwDOD1iHmM5RBS1s",
            "performed_via_github_app": null,
            "reactions": {
                "+1": 0,
                "-1": 0,
                "confused": 0,
                "eyes": 0,
                "heart": 0,
                "hooray": 0,
                "laugh": 0,
                "rocket": 0,
                "total_count": 0,
                "url": "https://api.github.com/repos/PrismarineJS/mineflayer-pathfinder/issues/comments/1359293804/reactions"
            },
            "updated_at": "2022-12-20T12:36:02Z",
            "url": "https://api.github.com/repos/PrismarineJS/mineflayer-pathfinder/issues/comments/1359293804",
            "user": {
                "avatar_url": "https://avatars.githubusercontent.com/u/61137113?v=4",
                "events_url": "https://api.github.com/users/IceTank/events{/privacy}",
                "followers_url": "https://api.github.com/users/IceTank/followers",
                "following_url": "https://api.github.com/users/IceTank/following{/other_user}",
                "gists_url": "https://api.github.com/users/IceTank/gists{/gist_id}",
                "gravatar_id": "",
                "html_url": "https://github.com/IceTank",
                "id": 61137113,
                "login": "IceTank",
                "node_id": "MDQ6VXNlcjYxMTM3MTEz",
                "organizations_url": "https://api.github.com/users/IceTank/orgs",
                "received_events_url": "https://api.github.com/users/IceTank/received_events",
                "repos_url": "https://api.github.com/users/IceTank/repos",
                "site_admin": false,
                "starred_url": "https://api.github.com/users/IceTank/starred{/owner}{/repo}",
                "subscriptions_url": "https://api.github.com/users/IceTank/subscriptions",
                "type": "User",
                "url": "https://api.github.com/users/IceTank"
            }
        },
        {
            "author_association": "CONTRIBUTOR",
            "body": "I think OP means that the wording of the description is unclear. \r\n\r\ncurrently, it's this:\r\n\r\nStops path finding when its save to stop or after the bot encountered an error while path finding. To force stop use bot.pathfinder.setGoal(null). Emits `path_stop` when stopped.\r\n\r\n\r\nthat's difficult to read, and it's not clear what 'safe to stop' means.\r\n\r\nperhaps something like this would be better:\r\n\r\nStops pathfinding as soon as the bot has reached a safe location (i.e. standing on solid ground?). Emits `path_stop` when called. \r\nNote: to force stop immediately, use `bot.pathfinder.setGoal(null)`\r\n\r\n\r\nalso, what does \"or after the bot encountered an error while path finding\" mean? the `path_stop` event may be emitted then, but don't all errors stop the bot anyway?",
            "created_at": "2023-06-28T17:15:03Z",
            "html_url": "https://github.com/PrismarineJS/mineflayer-pathfinder/issues/307#issuecomment-1611799193",
            "id": 1611799193,
            "issue_url": "https://api.github.com/repos/PrismarineJS/mineflayer-pathfinder/issues/307",
            "node_id": "IC_kwDOD1iHmM5gEhqZ",
            "performed_via_github_app": null,
            "reactions": {
                "+1": 0,
                "-1": 0,
                "confused": 0,
                "eyes": 0,
                "heart": 0,
                "hooray": 0,
                "laugh": 0,
                "rocket": 0,
                "total_count": 0,
                "url": "https://api.github.com/repos/PrismarineJS/mineflayer-pathfinder/issues/comments/1611799193/reactions"
            },
            "updated_at": "2023-06-28T17:15:03Z",
            "url": "https://api.github.com/repos/PrismarineJS/mineflayer-pathfinder/issues/comments/1611799193",
            "user": {
                "avatar_url": "https://avatars.githubusercontent.com/u/112601020?v=4",
                "events_url": "https://api.github.com/users/Jovan-04/events{/privacy}",
                "followers_url": "https://api.github.com/users/Jovan-04/followers",
                "following_url": "https://api.github.com/users/Jovan-04/following{/other_user}",
                "gists_url": "https://api.github.com/users/Jovan-04/gists{/gist_id}",
                "gravatar_id": "",
                "html_url": "https://github.com/Jovan-04",
                "id": 112601020,
                "login": "Jovan-04",
                "node_id": "U_kgDOBrYnvA",
                "organizations_url": "https://api.github.com/users/Jovan-04/orgs",
                "received_events_url": "https://api.github.com/users/Jovan-04/received_events",
                "repos_url": "https://api.github.com/users/Jovan-04/repos",
                "site_admin": false,
                "starred_url": "https://api.github.com/users/Jovan-04/starred{/owner}{/repo}",
                "subscriptions_url": "https://api.github.com/users/Jovan-04/subscriptions",
                "type": "User",
                "url": "https://api.github.com/users/Jovan-04"
            }
        },
        {
            "author_association": "MEMBER",
            "body": "Yeah when there is an error it will always stop. It will probably emit the event that corresponds with the error the bot encountered and not the path_stop event. The stop function is designed to stop the bot when it reached the next path node in the current path. So basically it will avoid stopping mid air. This is especially useful as currently when the bot stops path finding it cancels all velocity and could drop like a rock mid jump when not using pathfinder.stop().",
            "created_at": "2023-06-29T00:55:13Z",
            "html_url": "https://github.com/PrismarineJS/mineflayer-pathfinder/issues/307#issuecomment-1612286316",
            "id": 1612286316,
            "issue_url": "https://api.github.com/repos/PrismarineJS/mineflayer-pathfinder/issues/307",
            "node_id": "IC_kwDOD1iHmM5gGYls",
            "performed_via_github_app": null,
            "reactions": {
                "+1": 0,
                "-1": 0,
                "confused": 0,
                "eyes": 0,
                "heart": 0,
                "hooray": 0,
                "laugh": 0,
                "rocket": 0,
                "total_count": 0,
                "url": "https://api.github.com/repos/PrismarineJS/mineflayer-pathfinder/issues/comments/1612286316/reactions"
            },
            "updated_at": "2023-06-29T00:55:13Z",
            "url": "https://api.github.com/repos/PrismarineJS/mineflayer-pathfinder/issues/comments/1612286316",
            "user": {
                "avatar_url": "https://avatars.githubusercontent.com/u/61137113?v=4",
                "events_url": "https://api.github.com/users/IceTank/events{/privacy}",
                "followers_url": "https://api.github.com/users/IceTank/followers",
                "following_url": "https://api.github.com/users/IceTank/following{/other_user}",
                "gists_url": "https://api.github.com/users/IceTank/gists{/gist_id}",
                "gravatar_id": "",
                "html_url": "https://github.com/IceTank",
                "id": 61137113,
                "login": "IceTank",
                "node_id": "MDQ6VXNlcjYxMTM3MTEz",
                "organizations_url": "https://api.github.com/users/IceTank/orgs",
                "received_events_url": "https://api.github.com/users/IceTank/received_events",
                "repos_url": "https://api.github.com/users/IceTank/repos",
                "site_admin": false,
                "starred_url": "https://api.github.com/users/IceTank/starred{/owner}{/repo}",
                "subscriptions_url": "https://api.github.com/users/IceTank/subscriptions",
                "type": "User",
                "url": "https://api.github.com/users/IceTank"
            }
        },
        {
            "author_association": "CONTRIBUTOR",
            "body": "okay. In that case, I don't think it's necessary to include the error part; I don't see how it's relevant to `bot.pathfinder.stop()`. perhaps we can just rephrase that section of the docs to something like:\r\n\r\nStops pathfinding as soon as the bot has reached the next node in the path (this prevents the bot from stopping mid-air). Emits `path_stop` when called.\r\nNote: to force stop immediately, use `bot.pathfinder.setGoal(null)`",
            "created_at": "2023-06-29T01:21:17Z",
            "html_url": "https://github.com/PrismarineJS/mineflayer-pathfinder/issues/307#issuecomment-1612300664",
            "id": 1612300664,
            "issue_url": "https://api.github.com/repos/PrismarineJS/mineflayer-pathfinder/issues/307",
            "node_id": "IC_kwDOD1iHmM5gGcF4",
            "performed_via_github_app": null,
            "reactions": {
                "+1": 0,
                "-1": 0,
                "confused": 0,
                "eyes": 0,
                "heart": 0,
                "hooray": 0,
                "laugh": 0,
                "rocket": 0,
                "total_count": 0,
                "url": "https://api.github.com/repos/PrismarineJS/mineflayer-pathfinder/issues/comments/1612300664/reactions"
            },
            "updated_at": "2023-06-29T01:21:17Z",
            "url": "https://api.github.com/repos/PrismarineJS/mineflayer-pathfinder/issues/comments/1612300664",
            "user": {
                "avatar_url": "https://avatars.githubusercontent.com/u/112601020?v=4",
                "events_url": "https://api.github.com/users/Jovan-04/events{/privacy}",
                "followers_url": "https://api.github.com/users/Jovan-04/followers",
                "following_url": "https://api.github.com/users/Jovan-04/following{/other_user}",
                "gists_url": "https://api.github.com/users/Jovan-04/gists{/gist_id}",
                "gravatar_id": "",
                "html_url": "https://github.com/Jovan-04",
                "id": 112601020,
                "login": "Jovan-04",
                "node_id": "U_kgDOBrYnvA",
                "organizations_url": "https://api.github.com/users/Jovan-04/orgs",
                "received_events_url": "https://api.github.com/users/Jovan-04/received_events",
                "repos_url": "https://api.github.com/users/Jovan-04/repos",
                "site_admin": false,
                "starred_url": "https://api.github.com/users/Jovan-04/starred{/owner}{/repo}",
                "subscriptions_url": "https://api.github.com/users/Jovan-04/subscriptions",
                "type": "User",
                "url": "https://api.github.com/users/Jovan-04"
            }
        },
        {
            "author_association": "NONE",
            "body": "What I meant is that it is written as \"... its **save** to stop ...\" instead of \"... its **safe** to stop ...\" but I guess that also works.",
            "created_at": "2023-06-29T23:43:21Z",
            "html_url": "https://github.com/PrismarineJS/mineflayer-pathfinder/issues/307#issuecomment-1613925716",
            "id": 1613925716,
            "issue_url": "https://api.github.com/repos/PrismarineJS/mineflayer-pathfinder/issues/307",
            "node_id": "IC_kwDOD1iHmM5gMo1U",
            "performed_via_github_app": null,
            "reactions": {
                "+1": 0,
                "-1": 0,
                "confused": 0,
                "eyes": 0,
                "heart": 0,
                "hooray": 0,
                "laugh": 0,
                "rocket": 0,
                "total_count": 0,
                "url": "https://api.github.com/repos/PrismarineJS/mineflayer-pathfinder/issues/comments/1613925716/reactions"
            },
            "updated_at": "2023-06-29T23:43:31Z",
            "url": "https://api.github.com/repos/PrismarineJS/mineflayer-pathfinder/issues/comments/1613925716",
            "user": {
                "avatar_url": "https://avatars.githubusercontent.com/u/78858626?v=4",
                "events_url": "https://api.github.com/users/Dinhero21/events{/privacy}",
                "followers_url": "https://api.github.com/users/Dinhero21/followers",
                "following_url": "https://api.github.com/users/Dinhero21/following{/other_user}",
                "gists_url": "https://api.github.com/users/Dinhero21/gists{/gist_id}",
                "gravatar_id": "",
                "html_url": "https://github.com/Dinhero21",
                "id": 78858626,
                "login": "Dinhero21",
                "node_id": "MDQ6VXNlcjc4ODU4NjI2",
                "organizations_url": "https://api.github.com/users/Dinhero21/orgs",
                "received_events_url": "https://api.github.com/users/Dinhero21/received_events",
                "repos_url": "https://api.github.com/users/Dinhero21/repos",
                "site_admin": false,
                "starred_url": "https://api.github.com/users/Dinhero21/starred{/owner}{/repo}",
                "subscriptions_url": "https://api.github.com/users/Dinhero21/subscriptions",
                "type": "User",
                "url": "https://api.github.com/users/Dinhero21"
            }
        },
        {
            "author_association": "MEMBER",
            "body": "@Jovan-04 do you have time to make a pr? If not I can make one at some point.",
            "created_at": "2023-06-30T11:45:49Z",
            "html_url": "https://github.com/PrismarineJS/mineflayer-pathfinder/issues/307#issuecomment-1614537784",
            "id": 1614537784,
            "issue_url": "https://api.github.com/repos/PrismarineJS/mineflayer-pathfinder/issues/307",
            "node_id": "IC_kwDOD1iHmM5gO-Q4",
            "performed_via_github_app": null,
            "reactions": {
                "+1": 0,
                "-1": 0,
                "confused": 0,
                "eyes": 0,
                "heart": 0,
                "hooray": 0,
                "laugh": 0,
                "rocket": 0,
                "total_count": 0,
                "url": "https://api.github.com/repos/PrismarineJS/mineflayer-pathfinder/issues/comments/1614537784/reactions"
            },
            "updated_at": "2023-06-30T11:45:49Z",
            "url": "https://api.github.com/repos/PrismarineJS/mineflayer-pathfinder/issues/comments/1614537784",
            "user": {
                "avatar_url": "https://avatars.githubusercontent.com/u/61137113?v=4",
                "events_url": "https://api.github.com/users/IceTank/events{/privacy}",
                "followers_url": "https://api.github.com/users/IceTank/followers",
                "following_url": "https://api.github.com/users/IceTank/following{/other_user}",
                "gists_url": "https://api.github.com/users/IceTank/gists{/gist_id}",
                "gravatar_id": "",
                "html_url": "https://github.com/IceTank",
                "id": 61137113,
                "login": "IceTank",
                "node_id": "MDQ6VXNlcjYxMTM3MTEz",
                "organizations_url": "https://api.github.com/users/IceTank/orgs",
                "received_events_url": "https://api.github.com/users/IceTank/received_events",
                "repos_url": "https://api.github.com/users/IceTank/repos",
                "site_admin": false,
                "starred_url": "https://api.github.com/users/IceTank/starred{/owner}{/repo}",
                "subscriptions_url": "https://api.github.com/users/IceTank/subscriptions",
                "type": "User",
                "url": "https://api.github.com/users/IceTank"
            }
        },
        {
            "author_association": "MEMBER",
            "body": "Or someone else is also free to make a pr to fix it",
            "created_at": "2023-06-30T11:46:30Z",
            "html_url": "https://github.com/PrismarineJS/mineflayer-pathfinder/issues/307#issuecomment-1614538495",
            "id": 1614538495,
            "issue_url": "https://api.github.com/repos/PrismarineJS/mineflayer-pathfinder/issues/307",
            "node_id": "IC_kwDOD1iHmM5gO-b_",
            "performed_via_github_app": null,
            "reactions": {
                "+1": 0,
                "-1": 0,
                "confused": 0,
                "eyes": 0,
                "heart": 0,
                "hooray": 0,
                "laugh": 0,
                "rocket": 0,
                "total_count": 0,
                "url": "https://api.github.com/repos/PrismarineJS/mineflayer-pathfinder/issues/comments/1614538495/reactions"
            },
            "updated_at": "2023-06-30T11:46:30Z",
            "url": "https://api.github.com/repos/PrismarineJS/mineflayer-pathfinder/issues/comments/1614538495",
            "user": {
                "avatar_url": "https://avatars.githubusercontent.com/u/61137113?v=4",
                "events_url": "https://api.github.com/users/IceTank/events{/privacy}",
                "followers_url": "https://api.github.com/users/IceTank/followers",
                "following_url": "https://api.github.com/users/IceTank/following{/other_user}",
                "gists_url": "https://api.github.com/users/IceTank/gists{/gist_id}",
                "gravatar_id": "",
                "html_url": "https://github.com/IceTank",
                "id": 61137113,
                "login": "IceTank",
                "node_id": "MDQ6VXNlcjYxMTM3MTEz",
                "organizations_url": "https://api.github.com/users/IceTank/orgs",
                "received_events_url": "https://api.github.com/users/IceTank/received_events",
                "repos_url": "https://api.github.com/users/IceTank/repos",
                "site_admin": false,
                "starred_url": "https://api.github.com/users/IceTank/starred{/owner}{/repo}",
                "subscriptions_url": "https://api.github.com/users/IceTank/subscriptions",
                "type": "User",
                "url": "https://api.github.com/users/IceTank"
            }
        },
        {
            "author_association": "CONTRIBUTOR",
            "body": "> What I meant is that it is written as \"... its **save** to stop ...\" instead of \"... its **safe** to stop ...\" but I guess that also works.\r\n\r\nyeah, I figured. but if I'm fixing a typo, I may as well make the docs more clear too \r\n**it looks like the typo you mentioned was on a different branch, that doesn't look like it's being used or updated. @IceTank do you know what's happening with that branch?\r\n\r\n> @Jovan-04 do you have time to make a pr? If not I can make one at some point.\r\n\r\nredid the wording for master branch in #327 ",
            "created_at": "2023-06-30T13:20:52Z",
            "html_url": "https://github.com/PrismarineJS/mineflayer-pathfinder/issues/307#issuecomment-1614644324",
            "id": 1614644324,
            "issue_url": "https://api.github.com/repos/PrismarineJS/mineflayer-pathfinder/issues/307",
            "node_id": "IC_kwDOD1iHmM5gPYRk",
            "performed_via_github_app": null,
            "reactions": {
                "+1": 0,
                "-1": 0,
                "confused": 0,
                "eyes": 0,
                "heart": 0,
                "hooray": 0,
                "laugh": 0,
                "rocket": 0,
                "total_count": 0,
                "url": "https://api.github.com/repos/PrismarineJS/mineflayer-pathfinder/issues/comments/1614644324/reactions"
            },
            "updated_at": "2023-06-30T14:12:09Z",
            "url": "https://api.github.com/repos/PrismarineJS/mineflayer-pathfinder/issues/comments/1614644324",
            "user": {
                "avatar_url": "https://avatars.githubusercontent.com/u/112601020?v=4",
                "events_url": "https://api.github.com/users/Jovan-04/events{/privacy}",
                "followers_url": "https://api.github.com/users/Jovan-04/followers",
                "following_url": "https://api.github.com/users/Jovan-04/following{/other_user}",
                "gists_url": "https://api.github.com/users/Jovan-04/gists{/gist_id}",
                "gravatar_id": "",
                "html_url": "https://github.com/Jovan-04",
                "id": 112601020,
                "login": "Jovan-04",
                "node_id": "U_kgDOBrYnvA",
                "organizations_url": "https://api.github.com/users/Jovan-04/orgs",
                "received_events_url": "https://api.github.com/users/Jovan-04/received_events",
                "repos_url": "https://api.github.com/users/Jovan-04/repos",
                "site_admin": false,
                "starred_url": "https://api.github.com/users/Jovan-04/starred{/owner}{/repo}",
                "subscriptions_url": "https://api.github.com/users/Jovan-04/subscriptions",
                "type": "User",
                "url": "https://api.github.com/users/Jovan-04"
            }
        }
    ],
    "comments": 8,
    "comments_url": "https://api.github.com/repos/PrismarineJS/mineflayer-pathfinder/issues/307/comments",
    "created_at": "2022-12-18T05:03:25Z",
    "event_data": [
        {
            "actor": {
                "avatar_url": "https://avatars.githubusercontent.com/u/112601020?v=4",
                "events_url": "https://api.github.com/users/Jovan-04/events{/privacy}",
                "followers_url": "https://api.github.com/users/Jovan-04/followers",
                "following_url": "https://api.github.com/users/Jovan-04/following{/other_user}",
                "gists_url": "https://api.github.com/users/Jovan-04/gists{/gist_id}",
                "gravatar_id": "",
                "html_url": "https://github.com/Jovan-04",
                "id": 112601020,
                "login": "Jovan-04",
                "node_id": "U_kgDOBrYnvA",
                "organizations_url": "https://api.github.com/users/Jovan-04/orgs",
                "received_events_url": "https://api.github.com/users/Jovan-04/received_events",
                "repos_url": "https://api.github.com/users/Jovan-04/repos",
                "site_admin": false,
                "starred_url": "https://api.github.com/users/Jovan-04/starred{/owner}{/repo}",
                "subscriptions_url": "https://api.github.com/users/Jovan-04/subscriptions",
                "type": "User",
                "url": "https://api.github.com/users/Jovan-04"
            },
            "commit_id": null,
            "commit_url": null,
            "created_at": "2023-06-30T11:45:50Z",
            "event": "mentioned",
            "id": 9687035887,
            "node_id": "MEE_lADOD1iHmM5Zgt_ZzwAAAAJBZG_v",
            "performed_via_github_app": null,
            "url": "https://api.github.com/repos/PrismarineJS/mineflayer-pathfinder/issues/events/9687035887"
        },
        {
            "actor": {
                "avatar_url": "https://avatars.githubusercontent.com/u/112601020?v=4",
                "events_url": "https://api.github.com/users/Jovan-04/events{/privacy}",
                "followers_url": "https://api.github.com/users/Jovan-04/followers",
                "following_url": "https://api.github.com/users/Jovan-04/following{/other_user}",
                "gists_url": "https://api.github.com/users/Jovan-04/gists{/gist_id}",
                "gravatar_id": "",
                "html_url": "https://github.com/Jovan-04",
                "id": 112601020,
                "login": "Jovan-04",
                "node_id": "U_kgDOBrYnvA",
                "organizations_url": "https://api.github.com/users/Jovan-04/orgs",
                "received_events_url": "https://api.github.com/users/Jovan-04/received_events",
                "repos_url": "https://api.github.com/users/Jovan-04/repos",
                "site_admin": false,
                "starred_url": "https://api.github.com/users/Jovan-04/starred{/owner}{/repo}",
                "subscriptions_url": "https://api.github.com/users/Jovan-04/subscriptions",
                "type": "User",
                "url": "https://api.github.com/users/Jovan-04"
            },
            "commit_id": null,
            "commit_url": null,
            "created_at": "2023-06-30T11:45:50Z",
            "event": "subscribed",
            "id": 9687035896,
            "node_id": "SE_lADOD1iHmM5Zgt_ZzwAAAAJBZG_4",
            "performed_via_github_app": null,
            "url": "https://api.github.com/repos/PrismarineJS/mineflayer-pathfinder/issues/events/9687035896"
        },
        {
            "actor": {
                "avatar_url": "https://avatars.githubusercontent.com/u/61137113?v=4",
                "events_url": "https://api.github.com/users/IceTank/events{/privacy}",
                "followers_url": "https://api.github.com/users/IceTank/followers",
                "following_url": "https://api.github.com/users/IceTank/following{/other_user}",
                "gists_url": "https://api.github.com/users/IceTank/gists{/gist_id}",
                "gravatar_id": "",
                "html_url": "https://github.com/IceTank",
                "id": 61137113,
                "login": "IceTank",
                "node_id": "MDQ6VXNlcjYxMTM3MTEz",
                "organizations_url": "https://api.github.com/users/IceTank/orgs",
                "received_events_url": "https://api.github.com/users/IceTank/received_events",
                "repos_url": "https://api.github.com/users/IceTank/repos",
                "site_admin": false,
                "starred_url": "https://api.github.com/users/IceTank/starred{/owner}{/repo}",
                "subscriptions_url": "https://api.github.com/users/IceTank/subscriptions",
                "type": "User",
                "url": "https://api.github.com/users/IceTank"
            },
            "commit_id": null,
            "commit_url": null,
            "created_at": "2023-06-30T13:20:53Z",
            "event": "mentioned",
            "id": 9687837281,
            "node_id": "MEE_lADOD1iHmM5Zgt_ZzwAAAAJBcKph",
            "performed_via_github_app": null,
            "url": "https://api.github.com/repos/PrismarineJS/mineflayer-pathfinder/issues/events/9687837281"
        },
        {
            "actor": {
                "avatar_url": "https://avatars.githubusercontent.com/u/61137113?v=4",
                "events_url": "https://api.github.com/users/IceTank/events{/privacy}",
                "followers_url": "https://api.github.com/users/IceTank/followers",
                "following_url": "https://api.github.com/users/IceTank/following{/other_user}",
                "gists_url": "https://api.github.com/users/IceTank/gists{/gist_id}",
                "gravatar_id": "",
                "html_url": "https://github.com/IceTank",
                "id": 61137113,
                "login": "IceTank",
                "node_id": "MDQ6VXNlcjYxMTM3MTEz",
                "organizations_url": "https://api.github.com/users/IceTank/orgs",
                "received_events_url": "https://api.github.com/users/IceTank/received_events",
                "repos_url": "https://api.github.com/users/IceTank/repos",
                "site_admin": false,
                "starred_url": "https://api.github.com/users/IceTank/starred{/owner}{/repo}",
                "subscriptions_url": "https://api.github.com/users/IceTank/subscriptions",
                "type": "User",
                "url": "https://api.github.com/users/IceTank"
            },
            "commit_id": null,
            "commit_url": null,
            "created_at": "2023-06-30T13:20:53Z",
            "event": "subscribed",
            "id": 9687837309,
            "node_id": "SE_lADOD1iHmM5Zgt_ZzwAAAAJBcKp9",
            "performed_via_github_app": null,
            "url": "https://api.github.com/repos/PrismarineJS/mineflayer-pathfinder/issues/events/9687837309"
        },
        {
            "actor": {
                "avatar_url": "https://avatars.githubusercontent.com/u/112601020?v=4",
                "events_url": "https://api.github.com/users/Jovan-04/events{/privacy}",
                "followers_url": "https://api.github.com/users/Jovan-04/followers",
                "following_url": "https://api.github.com/users/Jovan-04/following{/other_user}",
                "gists_url": "https://api.github.com/users/Jovan-04/gists{/gist_id}",
                "gravatar_id": "",
                "html_url": "https://github.com/Jovan-04",
                "id": 112601020,
                "login": "Jovan-04",
                "node_id": "U_kgDOBrYnvA",
                "organizations_url": "https://api.github.com/users/Jovan-04/orgs",
                "received_events_url": "https://api.github.com/users/Jovan-04/received_events",
                "repos_url": "https://api.github.com/users/Jovan-04/repos",
                "site_admin": false,
                "starred_url": "https://api.github.com/users/Jovan-04/starred{/owner}{/repo}",
                "subscriptions_url": "https://api.github.com/users/Jovan-04/subscriptions",
                "type": "User",
                "url": "https://api.github.com/users/Jovan-04"
            },
            "commit_id": null,
            "commit_url": null,
            "created_at": "2023-06-30T13:20:53Z",
            "event": "mentioned",
            "id": 9687837348,
            "node_id": "MEE_lADOD1iHmM5Zgt_ZzwAAAAJBcKqk",
            "performed_via_github_app": null,
            "url": "https://api.github.com/repos/PrismarineJS/mineflayer-pathfinder/issues/events/9687837348"
        },
        {
            "actor": {
                "avatar_url": "https://avatars.githubusercontent.com/u/112601020?v=4",
                "events_url": "https://api.github.com/users/Jovan-04/events{/privacy}",
                "followers_url": "https://api.github.com/users/Jovan-04/followers",
                "following_url": "https://api.github.com/users/Jovan-04/following{/other_user}",
                "gists_url": "https://api.github.com/users/Jovan-04/gists{/gist_id}",
                "gravatar_id": "",
                "html_url": "https://github.com/Jovan-04",
                "id": 112601020,
                "login": "Jovan-04",
                "node_id": "U_kgDOBrYnvA",
                "organizations_url": "https://api.github.com/users/Jovan-04/orgs",
                "received_events_url": "https://api.github.com/users/Jovan-04/received_events",
                "repos_url": "https://api.github.com/users/Jovan-04/repos",
                "site_admin": false,
                "starred_url": "https://api.github.com/users/Jovan-04/starred{/owner}{/repo}",
                "subscriptions_url": "https://api.github.com/users/Jovan-04/subscriptions",
                "type": "User",
                "url": "https://api.github.com/users/Jovan-04"
            },
            "commit_id": null,
            "commit_url": null,
            "created_at": "2023-06-30T13:20:53Z",
            "event": "subscribed",
            "id": 9687837368,
            "node_id": "SE_lADOD1iHmM5Zgt_ZzwAAAAJBcKq4",
            "performed_via_github_app": null,
            "url": "https://api.github.com/repos/PrismarineJS/mineflayer-pathfinder/issues/events/9687837368"
        },
        {
            "actor": {
                "avatar_url": "https://avatars.githubusercontent.com/u/61137113?v=4",
                "events_url": "https://api.github.com/users/IceTank/events{/privacy}",
                "followers_url": "https://api.github.com/users/IceTank/followers",
                "following_url": "https://api.github.com/users/IceTank/following{/other_user}",
                "gists_url": "https://api.github.com/users/IceTank/gists{/gist_id}",
                "gravatar_id": "",
                "html_url": "https://github.com/IceTank",
                "id": 61137113,
                "login": "IceTank",
                "node_id": "MDQ6VXNlcjYxMTM3MTEz",
                "organizations_url": "https://api.github.com/users/IceTank/orgs",
                "received_events_url": "https://api.github.com/users/IceTank/received_events",
                "repos_url": "https://api.github.com/users/IceTank/repos",
                "site_admin": false,
                "starred_url": "https://api.github.com/users/IceTank/starred{/owner}{/repo}",
                "subscriptions_url": "https://api.github.com/users/IceTank/subscriptions",
                "type": "User",
                "url": "https://api.github.com/users/IceTank"
            },
            "commit_id": null,
            "commit_url": null,
            "created_at": "2023-07-01T16:07:02Z",
            "event": "closed",
            "id": 9696831623,
            "node_id": "CE_lADOD1iHmM5Zgt_ZzwAAAAJB-eiH",
            "performed_via_github_app": null,
            "state_reason": null,
            "url": "https://api.github.com/repos/PrismarineJS/mineflayer-pathfinder/issues/events/9696831623"
        }
    ],
    "events_url": "https://api.github.com/repos/PrismarineJS/mineflayer-pathfinder/issues/307/events",
    "html_url": "https://github.com/PrismarineJS/mineflayer-pathfinder/issues/307",
    "id": 1501749209,
    "labels": [],
    "labels_url": "https://api.github.com/repos/PrismarineJS/mineflayer-pathfinder/issues/307/labels{/name}",
    "locked": false,
    "milestone": null,
    "node_id": "I_kwDOD1iHmM5Zgt_Z",
    "number": 307,
    "performed_via_github_app": null,
    "reactions": {
        "+1": 0,
        "-1": 0,
        "confused": 0,
        "eyes": 0,
        "heart": 0,
        "hooray": 0,
        "laugh": 0,
        "rocket": 0,
        "total_count": 0,
        "url": "https://api.github.com/repos/PrismarineJS/mineflayer-pathfinder/issues/307/reactions"
    },
    "repository_url": "https://api.github.com/repos/PrismarineJS/mineflayer-pathfinder",
    "state": "closed",
    "state_reason": "completed",
    "timeline_url": "https://api.github.com/repos/PrismarineJS/mineflayer-pathfinder/issues/307/timeline",
    "title": "Typo",
    "updated_at": "2023-07-01T16:07:02Z",
    "url": "https://api.github.com/repos/PrismarineJS/mineflayer-pathfinder/issues/307",
    "user": {
        "avatar_url": "https://avatars.githubusercontent.com/u/78858626?v=4",
        "events_url": "https://api.github.com/users/Dinhero21/events{/privacy}",
        "followers_url": "https://api.github.com/users/Dinhero21/followers",
        "following_url": "https://api.github.com/users/Dinhero21/following{/other_user}",
        "gists_url": "https://api.github.com/users/Dinhero21/gists{/gist_id}",
        "gravatar_id": "",
        "html_url": "https://github.com/Dinhero21",
        "id": 78858626,
        "login": "Dinhero21",
        "node_id": "MDQ6VXNlcjc4ODU4NjI2",
        "organizations_url": "https://api.github.com/users/Dinhero21/orgs",
        "received_events_url": "https://api.github.com/users/Dinhero21/received_events",
        "repos_url": "https://api.github.com/users/Dinhero21/repos",
        "site_admin": false,
        "starred_url": "https://api.github.com/users/Dinhero21/starred{/owner}{/repo}",
        "subscriptions_url": "https://api.github.com/users/Dinhero21/subscriptions",
        "type": "User",
        "url": "https://api.github.com/users/Dinhero21"
    }
}