{
    "active_lock_reason": null,
    "assignee": null,
    "assignees": [],
    "author_association": "NONE",
    "body": "I'm trying to make a command to make the bot get as close as possible without placing blocks but it ends up placing blocks whenever it can.",
    "closed_at": "2020-08-27T16:34:47Z",
    "comment_data": [
        {
            "author_association": "MEMBER",
            "body": "use `movements.scafoldingBlocks = []`",
            "created_at": "2020-08-09T00:24:36Z",
            "html_url": "https://github.com/PrismarineJS/mineflayer-pathfinder/issues/40#issuecomment-670988290",
            "id": 670988290,
            "issue_url": "https://api.github.com/repos/PrismarineJS/mineflayer-pathfinder/issues/40",
            "node_id": "MDEyOklzc3VlQ29tbWVudDY3MDk4ODI5MA==",
            "performed_via_github_app": null,
            "reactions": {
                "+1": 0,
                "-1": 0,
                "confused": 0,
                "eyes": 0,
                "heart": 0,
                "hooray": 0,
                "laugh": 0,
                "rocket": 0,
                "total_count": 0,
                "url": "https://api.github.com/repos/PrismarineJS/mineflayer-pathfinder/issues/comments/670988290/reactions"
            },
            "updated_at": "2020-08-09T00:24:36Z",
            "url": "https://api.github.com/repos/PrismarineJS/mineflayer-pathfinder/issues/comments/670988290",
            "user": {
                "avatar_url": "https://avatars.githubusercontent.com/u/3118172?v=4",
                "events_url": "https://api.github.com/users/TheDudeFromCI/events{/privacy}",
                "followers_url": "https://api.github.com/users/TheDudeFromCI/followers",
                "following_url": "https://api.github.com/users/TheDudeFromCI/following{/other_user}",
                "gists_url": "https://api.github.com/users/TheDudeFromCI/gists{/gist_id}",
                "gravatar_id": "",
                "html_url": "https://github.com/TheDudeFromCI",
                "id": 3118172,
                "login": "TheDudeFromCI",
                "node_id": "MDQ6VXNlcjMxMTgxNzI=",
                "organizations_url": "https://api.github.com/users/TheDudeFromCI/orgs",
                "received_events_url": "https://api.github.com/users/TheDudeFromCI/received_events",
                "repos_url": "https://api.github.com/users/TheDudeFromCI/repos",
                "site_admin": false,
                "starred_url": "https://api.github.com/users/TheDudeFromCI/starred{/owner}{/repo}",
                "subscriptions_url": "https://api.github.com/users/TheDudeFromCI/subscriptions",
                "type": "User",
                "url": "https://api.github.com/users/TheDudeFromCI"
            }
        }
    ],
    "comments": 1,
    "comments_url": "https://api.github.com/repos/PrismarineJS/mineflayer-pathfinder/issues/40/comments",
    "created_at": "2020-08-08T20:24:31Z",
    "event_data": [
        {
            "actor": {
                "avatar_url": "https://avatars.githubusercontent.com/u/1977472?v=4",
                "events_url": "https://api.github.com/users/Karang/events{/privacy}",
                "followers_url": "https://api.github.com/users/Karang/followers",
                "following_url": "https://api.github.com/users/Karang/following{/other_user}",
                "gists_url": "https://api.github.com/users/Karang/gists{/gist_id}",
                "gravatar_id": "",
                "html_url": "https://github.com/Karang",
                "id": 1977472,
                "login": "Karang",
                "node_id": "MDQ6VXNlcjE5Nzc0NzI=",
                "organizations_url": "https://api.github.com/users/Karang/orgs",
                "received_events_url": "https://api.github.com/users/Karang/received_events",
                "repos_url": "https://api.github.com/users/Karang/repos",
                "site_admin": false,
                "starred_url": "https://api.github.com/users/Karang/starred{/owner}{/repo}",
                "subscriptions_url": "https://api.github.com/users/Karang/subscriptions",
                "type": "User",
                "url": "https://api.github.com/users/Karang"
            },
            "commit_id": null,
            "commit_url": null,
            "created_at": "2020-08-27T16:34:47Z",
            "event": "closed",
            "id": 3700488380,
            "node_id": "MDExOkNsb3NlZEV2ZW50MzcwMDQ4ODM4MA==",
            "performed_via_github_app": null,
            "state_reason": null,
            "url": "https://api.github.com/repos/PrismarineJS/mineflayer-pathfinder/issues/events/3700488380"
        }
    ],
    "events_url": "https://api.github.com/repos/PrismarineJS/mineflayer-pathfinder/issues/40/events",
    "html_url": "https://github.com/PrismarineJS/mineflayer-pathfinder/issues/40",
    "id": 675583410,
    "labels": [],
    "labels_url": "https://api.github.com/repos/PrismarineJS/mineflayer-pathfinder/issues/40/labels{/name}",
    "locked": false,
    "milestone": null,
    "node_id": "MDU6SXNzdWU2NzU1ODM0MTA=",
    "number": 40,
    "performed_via_github_app": null,
    "reactions": {
        "+1": 0,
        "-1": 0,
        "confused": 0,
        "eyes": 0,
        "heart": 0,
        "hooray": 0,
        "laugh": 0,
        "rocket": 0,
        "total_count": 0,
        "url": "https://api.github.com/repos/PrismarineJS/mineflayer-pathfinder/issues/40/reactions"
    },
    "repository_url": "https://api.github.com/repos/PrismarineJS/mineflayer-pathfinder",
    "state": "closed",
    "state_reason": "completed",
    "timeline_url": "https://api.github.com/repos/PrismarineJS/mineflayer-pathfinder/issues/40/timeline",
    "title": "Option to disable placing blocks",
    "updated_at": "2020-08-27T16:34:47Z",
    "url": "https://api.github.com/repos/PrismarineJS/mineflayer-pathfinder/issues/40",
    "user": {
        "avatar_url": "https://avatars.githubusercontent.com/u/23510999?v=4",
        "events_url": "https://api.github.com/users/GRAnimated/events{/privacy}",
        "followers_url": "https://api.github.com/users/GRAnimated/followers",
        "following_url": "https://api.github.com/users/GRAnimated/following{/other_user}",
        "gists_url": "https://api.github.com/users/GRAnimated/gists{/gist_id}",
        "gravatar_id": "",
        "html_url": "https://github.com/GRAnimated",
        "id": 23510999,
        "login": "GRAnimated",
        "node_id": "MDQ6VXNlcjIzNTEwOTk5",
        "organizations_url": "https://api.github.com/users/GRAnimated/orgs",
        "received_events_url": "https://api.github.com/users/GRAnimated/received_events",
        "repos_url": "https://api.github.com/users/GRAnimated/repos",
        "site_admin": false,
        "starred_url": "https://api.github.com/users/GRAnimated/starred{/owner}{/repo}",
        "subscriptions_url": "https://api.github.com/users/GRAnimated/subscriptions",
        "type": "User",
        "url": "https://api.github.com/users/GRAnimated"
    }
}