{
    "_links": {
        "comments": {
            "href": "https://api.github.com/repos/PrismarineJS/prismarine-chunk/issues/123/comments"
        },
        "commits": {
            "href": "https://api.github.com/repos/PrismarineJS/prismarine-chunk/pulls/123/commits"
        },
        "html": {
            "href": "https://github.com/PrismarineJS/prismarine-chunk/pull/123"
        },
        "issue": {
            "href": "https://api.github.com/repos/PrismarineJS/prismarine-chunk/issues/123"
        },
        "review_comment": {
            "href": "https://api.github.com/repos/PrismarineJS/prismarine-chunk/pulls/comments{/number}"
        },
        "review_comments": {
            "href": "https://api.github.com/repos/PrismarineJS/prismarine-chunk/pulls/123/comments"
        },
        "self": {
            "href": "https://api.github.com/repos/PrismarineJS/prismarine-chunk/pulls/123"
        },
        "statuses": {
            "href": "https://api.github.com/repos/PrismarineJS/prismarine-chunk/statuses/c206797f04afb96ffa551d7fa78a6960af5a125f"
        }
    },
    "active_lock_reason": null,
    "additions": 1,
    "assignee": null,
    "assignees": [],
    "author_association": "CONTRIBUTOR",
    "auto_merge": null,
    "base": {
        "label": "PrismarineJS:master",
        "ref": "master",
        "repo": {
            "allow_forking": true,
            "archive_url": "https://api.github.com/repos/PrismarineJS/prismarine-chunk/{archive_format}{/ref}",
            "archived": false,
            "assignees_url": "https://api.github.com/repos/PrismarineJS/prismarine-chunk/assignees{/user}",
            "blobs_url": "https://api.github.com/repos/PrismarineJS/prismarine-chunk/git/blobs{/sha}",
            "branches_url": "https://api.github.com/repos/PrismarineJS/prismarine-chunk/branches{/branch}",
            "clone_url": "https://github.com/PrismarineJS/prismarine-chunk.git",
            "collaborators_url": "https://api.github.com/repos/PrismarineJS/prismarine-chunk/collaborators{/collaborator}",
            "comments_url": "https://api.github.com/repos/PrismarineJS/prismarine-chunk/comments{/number}",
            "commits_url": "https://api.github.com/repos/PrismarineJS/prismarine-chunk/commits{/sha}",
            "compare_url": "https://api.github.com/repos/PrismarineJS/prismarine-chunk/compare/{base}...{head}",
            "contents_url": "https://api.github.com/repos/PrismarineJS/prismarine-chunk/contents/{+path}",
            "contributors_url": "https://api.github.com/repos/PrismarineJS/prismarine-chunk/contributors",
            "created_at": "2015-03-03T19:28:14Z",
            "default_branch": "master",
            "deployments_url": "https://api.github.com/repos/PrismarineJS/prismarine-chunk/deployments",
            "description": "A class to hold chunk data for Minecraft",
            "disabled": false,
            "downloads_url": "https://api.github.com/repos/PrismarineJS/prismarine-chunk/downloads",
            "events_url": "https://api.github.com/repos/PrismarineJS/prismarine-chunk/events",
            "fork": false,
            "forks": 47,
            "forks_count": 47,
            "forks_url": "https://api.github.com/repos/PrismarineJS/prismarine-chunk/forks",
            "full_name": "PrismarineJS/prismarine-chunk",
            "git_commits_url": "https://api.github.com/repos/PrismarineJS/prismarine-chunk/git/commits{/sha}",
            "git_refs_url": "https://api.github.com/repos/PrismarineJS/prismarine-chunk/git/refs{/sha}",
            "git_tags_url": "https://api.github.com/repos/PrismarineJS/prismarine-chunk/git/tags{/sha}",
            "git_url": "git://github.com/PrismarineJS/prismarine-chunk.git",
            "has_discussions": false,
            "has_downloads": true,
            "has_issues": true,
            "has_pages": false,
            "has_projects": true,
            "has_wiki": true,
            "homepage": "",
            "hooks_url": "https://api.github.com/repos/PrismarineJS/prismarine-chunk/hooks",
            "html_url": "https://github.com/PrismarineJS/prismarine-chunk",
            "id": 31616891,
            "is_template": false,
            "issue_comment_url": "https://api.github.com/repos/PrismarineJS/prismarine-chunk/issues/comments{/number}",
            "issue_events_url": "https://api.github.com/repos/PrismarineJS/prismarine-chunk/issues/events{/number}",
            "issues_url": "https://api.github.com/repos/PrismarineJS/prismarine-chunk/issues{/number}",
            "keys_url": "https://api.github.com/repos/PrismarineJS/prismarine-chunk/keys{/key_id}",
            "labels_url": "https://api.github.com/repos/PrismarineJS/prismarine-chunk/labels{/name}",
            "language": "JavaScript",
            "languages_url": "https://api.github.com/repos/PrismarineJS/prismarine-chunk/languages",
            "license": {
                "key": "mit",
                "name": "MIT License",
                "node_id": "MDc6TGljZW5zZTEz",
                "spdx_id": "MIT",
                "url": "https://api.github.com/licenses/mit"
            },
            "merges_url": "https://api.github.com/repos/PrismarineJS/prismarine-chunk/merges",
            "milestones_url": "https://api.github.com/repos/PrismarineJS/prismarine-chunk/milestones{/number}",
            "mirror_url": null,
            "name": "prismarine-chunk",
            "node_id": "MDEwOlJlcG9zaXRvcnkzMTYxNjg5MQ==",
            "notifications_url": "https://api.github.com/repos/PrismarineJS/prismarine-chunk/notifications{?since,all,participating}",
            "open_issues": 14,
            "open_issues_count": 14,
            "owner": {
                "avatar_url": "https://avatars.githubusercontent.com/u/11053411?v=4",
                "events_url": "https://api.github.com/users/PrismarineJS/events{/privacy}",
                "followers_url": "https://api.github.com/users/PrismarineJS/followers",
                "following_url": "https://api.github.com/users/PrismarineJS/following{/other_user}",
                "gists_url": "https://api.github.com/users/PrismarineJS/gists{/gist_id}",
                "gravatar_id": "",
                "html_url": "https://github.com/PrismarineJS",
                "id": 11053411,
                "login": "PrismarineJS",
                "node_id": "MDEyOk9yZ2FuaXphdGlvbjExMDUzNDEx",
                "organizations_url": "https://api.github.com/users/PrismarineJS/orgs",
                "received_events_url": "https://api.github.com/users/PrismarineJS/received_events",
                "repos_url": "https://api.github.com/users/PrismarineJS/repos",
                "site_admin": false,
                "starred_url": "https://api.github.com/users/PrismarineJS/starred{/owner}{/repo}",
                "subscriptions_url": "https://api.github.com/users/PrismarineJS/subscriptions",
                "type": "Organization",
                "url": "https://api.github.com/users/PrismarineJS"
            },
            "private": false,
            "pulls_url": "https://api.github.com/repos/PrismarineJS/prismarine-chunk/pulls{/number}",
            "pushed_at": "2023-04-10T14:10:02Z",
            "releases_url": "https://api.github.com/repos/PrismarineJS/prismarine-chunk/releases{/id}",
            "size": 5254,
            "ssh_url": "git@github.com:PrismarineJS/prismarine-chunk.git",
            "stargazers_count": 57,
            "stargazers_url": "https://api.github.com/repos/PrismarineJS/prismarine-chunk/stargazers",
            "statuses_url": "https://api.github.com/repos/PrismarineJS/prismarine-chunk/statuses/{sha}",
            "subscribers_url": "https://api.github.com/repos/PrismarineJS/prismarine-chunk/subscribers",
            "subscription_url": "https://api.github.com/repos/PrismarineJS/prismarine-chunk/subscription",
            "svn_url": "https://github.com/PrismarineJS/prismarine-chunk",
            "tags_url": "https://api.github.com/repos/PrismarineJS/prismarine-chunk/tags",
            "teams_url": "https://api.github.com/repos/PrismarineJS/prismarine-chunk/teams",
            "topics": [],
            "trees_url": "https://api.github.com/repos/PrismarineJS/prismarine-chunk/git/trees{/sha}",
            "updated_at": "2023-03-10T11:34:57Z",
            "url": "https://api.github.com/repos/PrismarineJS/prismarine-chunk",
            "visibility": "public",
            "watchers": 57,
            "watchers_count": 57,
            "web_commit_signoff_required": false
        },
        "sha": "6a84e82949e892f582dfeba1847a2b2b67ffb381",
        "user": {
            "avatar_url": "https://avatars.githubusercontent.com/u/11053411?v=4",
            "events_url": "https://api.github.com/users/PrismarineJS/events{/privacy}",
            "followers_url": "https://api.github.com/users/PrismarineJS/followers",
            "following_url": "https://api.github.com/users/PrismarineJS/following{/other_user}",
            "gists_url": "https://api.github.com/users/PrismarineJS/gists{/gist_id}",
            "gravatar_id": "",
            "html_url": "https://github.com/PrismarineJS",
            "id": 11053411,
            "login": "PrismarineJS",
            "node_id": "MDEyOk9yZ2FuaXphdGlvbjExMDUzNDEx",
            "organizations_url": "https://api.github.com/users/PrismarineJS/orgs",
            "received_events_url": "https://api.github.com/users/PrismarineJS/received_events",
            "repos_url": "https://api.github.com/users/PrismarineJS/repos",
            "site_admin": false,
            "starred_url": "https://api.github.com/users/PrismarineJS/starred{/owner}{/repo}",
            "subscriptions_url": "https://api.github.com/users/PrismarineJS/subscriptions",
            "type": "Organization",
            "url": "https://api.github.com/users/PrismarineJS"
        }
    },
    "body": "Bumps [jest](https://github.com/facebook/jest) from 26.6.3 to 27.0.3.\n<details>\n<summary>Release notes</summary>\n<p><em>Sourced from <a href=\"https://github.com/facebook/jest/releases\">jest's releases</a>.</em></p>\n<blockquote>\n<h2>27.0.3</h2>\n<h3>Fixes</h3>\n<ul>\n<li><code>[jest-config]</code> <code>require.resolve</code> on default test sequencer and test environment (<a href=\"https://github-redirect.dependabot.com/facebook/jest/pull/11482\">#11482</a>)</li>\n<li><code>[jest-mock]</code> Fixed <code>fn</code> and <code>spyOn</code> exports (<a href=\"https://github-redirect.dependabot.com/facebook/jest/pull/11480\">#11480</a>)</li>\n</ul>\n<h2>27.0.2</h2>\n<h3>Features</h3>\n<ul>\n<li><code>[jest-circus]</code> Add some APIs to make it easier to build your own test runner</li>\n<li><code>[jest-reporters]</code> Expose the <code>getResultHeader</code> util (<a href=\"https://github-redirect.dependabot.com/facebook/jest/pull/11460\">#11460</a>)</li>\n<li><code>[jest-resolver]</code> Export <code>resolve*</code> utils for different Jest modules (<a href=\"https://github-redirect.dependabot.com/facebook/jest/pull/11466\">#11466</a>)</li>\n<li><code>[@jest/test-result]</code> Export <code>Test</code>, <code>TestEvents</code> and <code>TestFileEvent</code> (<a href=\"https://github-redirect.dependabot.com/facebook/jest/pull/11466\">#11466</a>)</li>\n</ul>\n<h3>Fixes</h3>\n<ul>\n<li><code>[jest-circus]</code> Add missing <code>slash</code> dependency (<a href=\"https://github-redirect.dependabot.com/facebook/jest/pull/11465\">#11465</a>)</li>\n<li><code>[jest-circus, @jest/test-sequencer]</code> Remove dependency on <code>jest-runner</code> (<a href=\"https://github-redirect.dependabot.com/facebook/jest/pull/11466\">#11466</a>)</li>\n<li><code>[jest-config]</code> Resolve <code>config.runner</code> to absolute path (<a href=\"https://github-redirect.dependabot.com/facebook/jest/pull/11465\">#11465</a>)</li>\n<li><code>[jest-config]</code> Make sure to support functions as config (<a href=\"https://github-redirect.dependabot.com/facebook/jest/pull/11475\">#11475</a>)</li>\n<li><code>[jest-core]</code> Do not warn about <code>DNSCHANNEL</code> handles when using the <code>--detectOpenHandles</code> option (<a href=\"https://github-redirect.dependabot.com/facebook/jest/pull/11470\">#11470</a>)</li>\n<li><code>[jest-runner]</code> Remove dependency on <code>jest-config</code> (<a href=\"https://github-redirect.dependabot.com/facebook/jest/pull/11466\">#11466</a>)</li>\n<li><code>[jest-worker]</code> Loosen engine requirement to <code>&gt;= 10.13.0</code> (<a href=\"https://github-redirect.dependabot.com/facebook/jest/pull/11451\">#11451</a>)</li>\n</ul>\n<h2>27.0.1</h2>\n<h3>Fixes</h3>\n<ul>\n<li><code>[jest-environment-jsdom]</code> Bump version of JSDOM to avoid deprecated <code>request</code> package (<a href=\"https://github-redirect.dependabot.com/facebook/jest/pull/11442\">#11442</a>)</li>\n</ul>\n<h2>27.0.0</h2>\n<p><a href=\"https://jestjs.io/blog/2021/03/09/jest-website-upgrade\">Blog post</a></p>\n<h3>Features</h3>\n<ul>\n<li><code>[babel-jest]</code> Add async transformation (<a href=\"https://github-redirect.dependabot.com/facebook/jest/pull/11192\">#11192</a>)</li>\n<li><code>[jest-changed-files]</code> Use '--' to separate paths from revisions (<a href=\"https://github-redirect.dependabot.com/facebook/jest/pull/11160\">#11160</a>)</li>\n<li><code>[jest-circus]</code> [<strong>BREAKING</strong>] Fail tests when multiple <code>done()</code> calls are made (<a href=\"https://github-redirect.dependabot.com/facebook/jest/pull/10624\">#10624</a>)</li>\n<li><code>[jest-circus, jest-jasmine2]</code> [<strong>BREAKING</strong>] Fail the test instead of just warning when describe returns a value (<a href=\"https://github-redirect.dependabot.com/facebook/jest/pull/10947\">#10947</a>)</li>\n<li><code>[jest-config]</code> [<strong>BREAKING</strong>] Default to Node testing environment instead of browser (JSDOM) (<a href=\"https://github-redirect.dependabot.com/facebook/jest/pull/9874\">#9874</a>)</li>\n<li><code>[jest-config]</code> [<strong>BREAKING</strong>] Use <code>jest-circus</code> as default test runner (<a href=\"https://github-redirect.dependabot.com/facebook/jest/pull/10686\">#10686</a>)</li>\n<li><code>[jest-config]</code> Add support for <code>preset</code> written in ESM (<a href=\"https://github-redirect.dependabot.com/facebook/jest/pull/11200\">#11200</a>)</li>\n<li><code>[jest-config, jest-runtime]</code> Support ESM for files other than <code>.js</code> and <code>.mjs</code> (<a href=\"https://github-redirect.dependabot.com/facebook/jest/pull/10823\">#10823</a>)</li>\n<li><code>[jest-config, jest-runtime]</code> [<strong>BREAKING</strong>] Use &quot;modern&quot; implementation as default for fake timers (<a href=\"https://github-redirect.dependabot.com/facebook/jest/pull/10874\">#10874</a> &amp; <a href=\"https://github-redirect.dependabot.com/facebook/jest/pull/11197\">#11197</a>)</li>\n<li><code>[jest-config</code> Allow passing <code>forceNodeFilesystemAPI</code> through to <code>jest-haste-map</code> (<a href=\"https://github-redirect.dependabot.com/facebook/jest/pull/11264\">#11264</a>)</li>\n<li><code>[jest-config, jest-haste-map, jest-resolve, jest-runner, jest-runtime, jest-test-sequencer, jest-transform, jest-types]</code> [<strong>BREAKING</strong>] Add custom HasteMap class implementation config option (<a href=\"https://github-redirect.dependabot.com/facebook/jest/pull/11107\">#11107</a>)</li>\n<li><code>[jest-core]</code> make <code>TestWatcher</code> extend <code>emittery</code> (<a href=\"https://github-redirect.dependabot.com/facebook/jest/pull/10324\">#10324</a>)</li>\n<li><code>[jest-core]</code> Run failed tests interactively the same way we do with snapshots (<a href=\"https://github-redirect.dependabot.com/facebook/jest/pull/10858\">#10858</a>)</li>\n<li><code>[jest-core]</code> more <code>TestSequencer</code> methods can be async (<a href=\"https://github-redirect.dependabot.com/facebook/jest/pull/10980\">#10980</a>)</li>\n<li><code>[jest-core]</code> Add support for <code>testSequencer</code> written in ESM (<a href=\"https://github-redirect.dependabot.com/facebook/jest/pull/11207\">#11207</a>)</li>\n<li><code>[jest-core]</code> Add support for <code>globalSetup</code> and <code>globalTeardown</code> written in ESM (<a href=\"https://github-redirect.dependabot.com/facebook/jest/pull/11267\">#11267</a>)</li>\n</ul>\n<!-- raw HTML omitted -->\n</blockquote>\n<p>... (truncated)</p>\n</details>\n<details>\n<summary>Changelog</summary>\n<p><em>Sourced from <a href=\"https://github.com/facebook/jest/blob/master/CHANGELOG.md\">jest's changelog</a>.</em></p>\n<blockquote>\n<h2>27.0.3</h2>\n<h3>Fixes</h3>\n<ul>\n<li><code>[jest-config]</code> <code>require.resolve</code> on default test sequencer and test environment (<a href=\"https://github-redirect.dependabot.com/facebook/jest/pull/11482\">#11482</a>)</li>\n<li><code>[jest-mock]</code> Fixed <code>fn</code> and <code>spyOn</code> exports (<a href=\"https://github-redirect.dependabot.com/facebook/jest/pull/11480\">#11480</a>)</li>\n</ul>\n<h2>27.0.2</h2>\n<h3>Features</h3>\n<ul>\n<li><code>[jest-circus]</code> Add some APIs to make it easier to build your own test runner</li>\n<li><code>[jest-reporters]</code> Expose the <code>getResultHeader</code> util (<a href=\"https://github-redirect.dependabot.com/facebook/jest/pull/11460\">#11460</a>)</li>\n<li><code>[jest-resolver]</code> Export <code>resolve*</code> utils for different Jest modules (<a href=\"https://github-redirect.dependabot.com/facebook/jest/pull/11466\">#11466</a>)</li>\n<li><code>[@jest/test-result]</code> Export <code>Test</code>, <code>TestEvents</code> and <code>TestFileEvent</code> (<a href=\"https://github-redirect.dependabot.com/facebook/jest/pull/11466\">#11466</a>)</li>\n</ul>\n<h3>Fixes</h3>\n<ul>\n<li><code>[jest-circus]</code> Add missing <code>slash</code> dependency (<a href=\"https://github-redirect.dependabot.com/facebook/jest/pull/11465\">#11465</a>)</li>\n<li><code>[jest-circus, @jest/test-sequencer]</code> Remove dependency on <code>jest-runner</code> (<a href=\"https://github-redirect.dependabot.com/facebook/jest/pull/11466\">#11466</a>)</li>\n<li><code>[jest-config]</code> Resolve <code>config.runner</code> to absolute path (<a href=\"https://github-redirect.dependabot.com/facebook/jest/pull/11465\">#11465</a>)</li>\n<li><code>[jest-config]</code> Make sure to support functions as config (<a href=\"https://github-redirect.dependabot.com/facebook/jest/pull/11475\">#11475</a>)</li>\n<li><code>[jest-core]</code> Do not warn about <code>DNSCHANNEL</code> handles when using the <code>--detectOpenHandles</code> option (<a href=\"https://github-redirect.dependabot.com/facebook/jest/pull/11470\">#11470</a>)</li>\n<li><code>[jest-runner]</code> Remove dependency on <code>jest-config</code> (<a href=\"https://github-redirect.dependabot.com/facebook/jest/pull/11466\">#11466</a>)</li>\n<li><code>[jest-worker]</code> Loosen engine requirement to <code>&gt;= 10.13.0</code> (<a href=\"https://github-redirect.dependabot.com/facebook/jest/pull/11451\">#11451</a>)</li>\n</ul>\n<h2>27.0.1</h2>\n<h3>Fixes</h3>\n<ul>\n<li><code>[jest-environment-jsdom]</code> Bump version of JSDOM to avoid deprecated <code>request</code> package (<a href=\"https://github-redirect.dependabot.com/facebook/jest/pull/11442\">#11442</a>)</li>\n</ul>\n<h2>27.0.0</h2>\n<h3>Features</h3>\n<ul>\n<li><code>[babel-jest]</code> Add async transformation (<a href=\"https://github-redirect.dependabot.com/facebook/jest/pull/11192\">#11192</a>)</li>\n<li><code>[jest-changed-files]</code> Use '--' to separate paths from revisions (<a href=\"https://github-redirect.dependabot.com/facebook/jest/pull/11160\">#11160</a>)</li>\n<li><code>[jest-circus]</code> [<strong>BREAKING</strong>] Fail tests when multiple <code>done()</code> calls are made (<a href=\"https://github-redirect.dependabot.com/facebook/jest/pull/10624\">#10624</a>)</li>\n<li><code>[jest-circus, jest-jasmine2]</code> [<strong>BREAKING</strong>] Fail the test instead of just warning when describe returns a value (<a href=\"https://github-redirect.dependabot.com/facebook/jest/pull/10947\">#10947</a>)</li>\n<li><code>[jest-config]</code> [<strong>BREAKING</strong>] Default to Node testing environment instead of browser (JSDOM) (<a href=\"https://github-redirect.dependabot.com/facebook/jest/pull/9874\">#9874</a>)</li>\n<li><code>[jest-config]</code> [<strong>BREAKING</strong>] Use <code>jest-circus</code> as default test runner (<a href=\"https://github-redirect.dependabot.com/facebook/jest/pull/10686\">#10686</a>)</li>\n<li><code>[jest-config]</code> Add support for <code>preset</code> written in ESM (<a href=\"https://github-redirect.dependabot.com/facebook/jest/pull/11200\">#11200</a>)</li>\n<li><code>[jest-config, jest-runtime]</code> Support ESM for files other than <code>.js</code> and <code>.mjs</code> (<a href=\"https://github-redirect.dependabot.com/facebook/jest/pull/10823\">#10823</a>)</li>\n<li><code>[jest-config, jest-runtime]</code> [<strong>BREAKING</strong>] Use &quot;modern&quot; implementation as default for fake timers (<a href=\"https://github-redirect.dependabot.com/facebook/jest/pull/10874\">#10874</a> &amp; <a href=\"https://github-redirect.dependabot.com/facebook/jest/pull/11197\">#11197</a>)</li>\n<li><code>[jest-config</code> Allow passing <code>forceNodeFilesystemAPI</code> through to <code>jest-haste-map</code> (<a href=\"https://github-redirect.dependabot.com/facebook/jest/pull/11264\">#11264</a>)</li>\n<li><code>[jest-config, jest-haste-map, jest-resolve, jest-runner, jest-runtime, jest-test-sequencer, jest-transform, jest-types]</code> [<strong>BREAKING</strong>] Add custom HasteMap class implementation config option (<a href=\"https://github-redirect.dependabot.com/facebook/jest/pull/11107\">#11107</a>)</li>\n<li><code>[jest-core]</code> make <code>TestWatcher</code> extend <code>emittery</code> (<a href=\"https://github-redirect.dependabot.com/facebook/jest/pull/10324\">#10324</a>)</li>\n<li><code>[jest-core]</code> Run failed tests interactively the same way we do with snapshots (<a href=\"https://github-redirect.dependabot.com/facebook/jest/pull/10858\">#10858</a>)</li>\n<li><code>[jest-core]</code> more <code>TestSequencer</code> methods can be async (<a href=\"https://github-redirect.dependabot.com/facebook/jest/pull/10980\">#10980</a>)</li>\n</ul>\n<!-- raw HTML omitted -->\n</blockquote>\n<p>... (truncated)</p>\n</details>\n<details>\n<summary>Commits</summary>\n<ul>\n<li><a href=\"https://github.com/facebook/jest/commit/d10f645b04ba9febb7308392e635c0351d0f027c\"><code>d10f645</code></a> v27.0.3</li>\n<li><a href=\"https://github.com/facebook/jest/commit/56a60c6e20dc6655ffbc39f2a1c28d16fd545f3a\"><code>56a60c6</code></a> fix: <code>require.resolve</code> on default test sequencer and test environment (<a href=\"https://github-redirect.dependabot.com/facebook/jest/issues/11482\">#11482</a>)</li>\n<li><a href=\"https://github.com/facebook/jest/commit/50d590a5cb7619cc4416a44212d5b6005edb7bcf\"><code>50d590a</code></a> fix: Fix <code>jest-mock</code> <code>fn</code> and <code>spyOn</code>. (<a href=\"https://github-redirect.dependabot.com/facebook/jest/issues/11480\">#11480</a>)</li>\n<li><a href=\"https://github.com/facebook/jest/commit/e9802d34192852bf67d9765a3e3fef4f0474ce57\"><code>e9802d3</code></a> chore: update lockfile after publish</li>\n<li><a href=\"https://github.com/facebook/jest/commit/7ca8a22b8453e95c63842ee6aa4d8d8d8b4f9612\"><code>7ca8a22</code></a> v27.0.2</li>\n<li><a href=\"https://github.com/facebook/jest/commit/1d34bb194be355405fad7b4d2f671cb7239ed19f\"><code>1d34bb1</code></a> chore: update changelog for release</li>\n<li><a href=\"https://github.com/facebook/jest/commit/c05521f23c89cb6af4337512510af6ab66b6453f\"><code>c05521f</code></a> Add useful APIs to <code>jest-circus</code>.</li>\n<li><a href=\"https://github.com/facebook/jest/commit/7109b8ccea2e0f70b6ad8eae02cd36b6c2841604\"><code>7109b8c</code></a> fix: call exported config function (<a href=\"https://github-redirect.dependabot.com/facebook/jest/issues/11475\">#11475</a>)</li>\n<li><a href=\"https://github.com/facebook/jest/commit/09278348b355c0450ddd6d40d074e69e4add688e\"><code>0927834</code></a> fix dependency issues (<a href=\"https://github-redirect.dependabot.com/facebook/jest/issues/11465\">#11465</a>)</li>\n<li><a href=\"https://github.com/facebook/jest/commit/4cae680039e13c873848ac5076c8c8a91c6720f0\"><code>4cae680</code></a> Ignore DNSCHANNEL when using --detectOpenHandles (<a href=\"https://github-redirect.dependabot.com/facebook/jest/issues/11470\">#11470</a>)</li>\n<li>Additional commits viewable in <a href=\"https://github.com/facebook/jest/compare/v26.6.3...v27.0.3\">compare view</a></li>\n</ul>\n</details>\n<br />\n\n\n[![Dependabot compatibility score](https://dependabot-badges.githubapp.com/badges/compatibility_score?dependency-name=jest&package-manager=npm_and_yarn&previous-version=26.6.3&new-version=27.0.3)](https://docs.github.com/en/github/managing-security-vulnerabilities/about-dependabot-security-updates#about-compatibility-scores)\n\nDependabot will resolve any conflicts with this PR as long as you don't alter it yourself. You can also trigger a rebase manually by commenting `@dependabot rebase`.\n\n[//]: # (dependabot-automerge-start)\n[//]: # (dependabot-automerge-end)\n\n---\n\n<details>\n<summary>Dependabot commands and options</summary>\n<br />\n\nYou can trigger Dependabot actions by commenting on this PR:\n- `@dependabot rebase` will rebase this PR\n- `@dependabot recreate` will recreate this PR, overwriting any edits that have been made to it\n- `@dependabot merge` will merge this PR after your CI passes on it\n- `@dependabot squash and merge` will squash and merge this PR after your CI passes on it\n- `@dependabot cancel merge` will cancel a previously requested merge and block automerging\n- `@dependabot reopen` will reopen this PR if it is closed\n- `@dependabot close` will close this PR and stop Dependabot recreating it. You can achieve the same result by closing it manually\n- `@dependabot ignore this major version` will close this PR and stop Dependabot creating any more for this major version (unless you reopen the PR or upgrade to it yourself)\n- `@dependabot ignore this minor version` will close this PR and stop Dependabot creating any more for this minor version (unless you reopen the PR or upgrade to it yourself)\n- `@dependabot ignore this dependency` will close this PR and stop Dependabot creating any more for this dependency (unless you reopen the PR or upgrade to it yourself)\n\n\n</details>",
    "changed_files": 1,
    "closed_at": "2021-06-04T07:31:50Z",
    "comment_data": [],
    "comment_regular_data": [
        {
            "author_association": "CONTRIBUTOR",
            "body": "Superseded by #124.",
            "created_at": "2021-06-04T07:31:50Z",
            "html_url": "https://github.com/PrismarineJS/prismarine-chunk/pull/123#issuecomment-854440848",
            "id": 854440848,
            "issue_url": "https://api.github.com/repos/PrismarineJS/prismarine-chunk/issues/123",
            "node_id": "MDEyOklzc3VlQ29tbWVudDg1NDQ0MDg0OA==",
            "performed_via_github_app": null,
            "reactions": {
                "+1": 0,
                "-1": 0,
                "confused": 0,
                "eyes": 0,
                "heart": 0,
                "hooray": 0,
                "laugh": 0,
                "rocket": 0,
                "total_count": 0,
                "url": "https://api.github.com/repos/PrismarineJS/prismarine-chunk/issues/comments/854440848/reactions"
            },
            "updated_at": "2021-06-04T07:31:50Z",
            "url": "https://api.github.com/repos/PrismarineJS/prismarine-chunk/issues/comments/854440848",
            "user": {
                "avatar_url": "https://avatars.githubusercontent.com/in/29110?v=4",
                "events_url": "https://api.github.com/users/dependabot%5Bbot%5D/events{/privacy}",
                "followers_url": "https://api.github.com/users/dependabot%5Bbot%5D/followers",
                "following_url": "https://api.github.com/users/dependabot%5Bbot%5D/following{/other_user}",
                "gists_url": "https://api.github.com/users/dependabot%5Bbot%5D/gists{/gist_id}",
                "gravatar_id": "",
                "html_url": "https://github.com/apps/dependabot",
                "id": 49699333,
                "login": "dependabot[bot]",
                "node_id": "MDM6Qm90NDk2OTkzMzM=",
                "organizations_url": "https://api.github.com/users/dependabot%5Bbot%5D/orgs",
                "received_events_url": "https://api.github.com/users/dependabot%5Bbot%5D/received_events",
                "repos_url": "https://api.github.com/users/dependabot%5Bbot%5D/repos",
                "site_admin": false,
                "starred_url": "https://api.github.com/users/dependabot%5Bbot%5D/starred{/owner}{/repo}",
                "subscriptions_url": "https://api.github.com/users/dependabot%5Bbot%5D/subscriptions",
                "type": "Bot",
                "url": "https://api.github.com/users/dependabot%5Bbot%5D"
            }
        }
    ],
    "comments": 1,
    "comments_url": "https://api.github.com/repos/PrismarineJS/prismarine-chunk/issues/123/comments",
    "commit_data": [
        {
            "author": {
                "avatar_url": "https://avatars.githubusercontent.com/in/29110?v=4",
                "events_url": "https://api.github.com/users/dependabot%5Bbot%5D/events{/privacy}",
                "followers_url": "https://api.github.com/users/dependabot%5Bbot%5D/followers",
                "following_url": "https://api.github.com/users/dependabot%5Bbot%5D/following{/other_user}",
                "gists_url": "https://api.github.com/users/dependabot%5Bbot%5D/gists{/gist_id}",
                "gravatar_id": "",
                "html_url": "https://github.com/apps/dependabot",
                "id": 49699333,
                "login": "dependabot[bot]",
                "node_id": "MDM6Qm90NDk2OTkzMzM=",
                "organizations_url": "https://api.github.com/users/dependabot%5Bbot%5D/orgs",
                "received_events_url": "https://api.github.com/users/dependabot%5Bbot%5D/received_events",
                "repos_url": "https://api.github.com/users/dependabot%5Bbot%5D/repos",
                "site_admin": false,
                "starred_url": "https://api.github.com/users/dependabot%5Bbot%5D/starred{/owner}{/repo}",
                "subscriptions_url": "https://api.github.com/users/dependabot%5Bbot%5D/subscriptions",
                "type": "Bot",
                "url": "https://api.github.com/users/dependabot%5Bbot%5D"
            },
            "comments_url": "https://api.github.com/repos/PrismarineJS/prismarine-chunk/commits/c206797f04afb96ffa551d7fa78a6960af5a125f/comments",
            "commit": {
                "author": {
                    "date": "2021-05-31T08:00:15Z",
                    "email": "49699333+dependabot[bot]@users.noreply.github.com",
                    "name": "dependabot[bot]"
                },
                "comment_count": 0,
                "committer": {
                    "date": "2021-05-31T08:00:15Z",
                    "email": "noreply@github.com",
                    "name": "GitHub"
                },
                "message": "Bump jest from 26.6.3 to 27.0.3\n\nBumps [jest](https://github.com/facebook/jest) from 26.6.3 to 27.0.3.\n- [Release notes](https://github.com/facebook/jest/releases)\n- [Changelog](https://github.com/facebook/jest/blob/master/CHANGELOG.md)\n- [Commits](https://github.com/facebook/jest/compare/v26.6.3...v27.0.3)\n\nSigned-off-by: dependabot[bot] <support@github.com>",
                "tree": {
                    "sha": "27f422d669edc00f02f14a6b18726707dbad5563",
                    "url": "https://api.github.com/repos/PrismarineJS/prismarine-chunk/git/trees/27f422d669edc00f02f14a6b18726707dbad5563"
                },
                "url": "https://api.github.com/repos/PrismarineJS/prismarine-chunk/git/commits/c206797f04afb96ffa551d7fa78a6960af5a125f",
                "verification": {
                    "payload": "tree 27f422d669edc00f02f14a6b18726707dbad5563\nparent 6a84e82949e892f582dfeba1847a2b2b67ffb381\nauthor dependabot[bot] <49699333+dependabot[bot]@users.noreply.github.com> 1622448015 +0000\ncommitter GitHub <noreply@github.com> 1622448015 +0000\n\nBump jest from 26.6.3 to 27.0.3\n\nBumps [jest](https://github.com/facebook/jest) from 26.6.3 to 27.0.3.\n- [Release notes](https://github.com/facebook/jest/releases)\n- [Changelog](https://github.com/facebook/jest/blob/master/CHANGELOG.md)\n- [Commits](https://github.com/facebook/jest/compare/v26.6.3...v27.0.3)\n\nSigned-off-by: dependabot[bot] <support@github.com>",
                    "reason": "valid",
                    "signature": "-----BEGIN PGP SIGNATURE-----\n\nwsBcBAABCAAQBQJgtJePCRBK7hj4Ov3rIwAAiaUIAIIVhUXl/EW7nokZJXwhgz9q\nMqJSRfduRjA+TOKRrIxU18uNkOcI7NVR65Cv78e9t1i1es6euflxeZPTwEv7J8Yg\ntDiJRsO2d4zAdr51/PPz9tSAUwTQdMw0lTvPT7a6yFdzaFZ19cRH2/k7PCxfDZ5f\nwjLjlwQZvtYQOpaEnce5+gmad0OumG6eGhyNNMXn1BWMw4lwVY04FD9/JMQV9OaP\nikUWrzCepbNomUjESgHw+rRxvHvfJFwLNhgoRznXI9u0CykwHmmjGzICi3ADBbdL\nCtqqvSKhF+pUzP9MFm2BDQMa3cN/NoJwE5ObRAilY5xYvwM09WkQ/lKgHYN0bYQ=\n=7abP\n-----END PGP SIGNATURE-----\n",
                    "verified": true
                }
            },
            "committer": {
                "avatar_url": "https://avatars.githubusercontent.com/u/19864447?v=4",
                "events_url": "https://api.github.com/users/web-flow/events{/privacy}",
                "followers_url": "https://api.github.com/users/web-flow/followers",
                "following_url": "https://api.github.com/users/web-flow/following{/other_user}",
                "gists_url": "https://api.github.com/users/web-flow/gists{/gist_id}",
                "gravatar_id": "",
                "html_url": "https://github.com/web-flow",
                "id": 19864447,
                "login": "web-flow",
                "node_id": "MDQ6VXNlcjE5ODY0NDQ3",
                "organizations_url": "https://api.github.com/users/web-flow/orgs",
                "received_events_url": "https://api.github.com/users/web-flow/received_events",
                "repos_url": "https://api.github.com/users/web-flow/repos",
                "site_admin": false,
                "starred_url": "https://api.github.com/users/web-flow/starred{/owner}{/repo}",
                "subscriptions_url": "https://api.github.com/users/web-flow/subscriptions",
                "type": "User",
                "url": "https://api.github.com/users/web-flow"
            },
            "html_url": "https://github.com/PrismarineJS/prismarine-chunk/commit/c206797f04afb96ffa551d7fa78a6960af5a125f",
            "node_id": "MDY6Q29tbWl0MzE2MTY4OTE6YzIwNjc5N2YwNGFmYjk2ZmZhNTUxZDdmYTc4YTY5NjBhZjVhMTI1Zg==",
            "parents": [
                {
                    "html_url": "https://github.com/PrismarineJS/prismarine-chunk/commit/6a84e82949e892f582dfeba1847a2b2b67ffb381",
                    "sha": "6a84e82949e892f582dfeba1847a2b2b67ffb381",
                    "url": "https://api.github.com/repos/PrismarineJS/prismarine-chunk/commits/6a84e82949e892f582dfeba1847a2b2b67ffb381"
                }
            ],
            "sha": "c206797f04afb96ffa551d7fa78a6960af5a125f",
            "url": "https://api.github.com/repos/PrismarineJS/prismarine-chunk/commits/c206797f04afb96ffa551d7fa78a6960af5a125f"
        }
    ],
    "commits": 1,
    "commits_url": "https://api.github.com/repos/PrismarineJS/prismarine-chunk/pulls/123/commits",
    "created_at": "2021-05-31T08:00:16Z",
    "deletions": 1,
    "diff_url": "https://github.com/PrismarineJS/prismarine-chunk/pull/123.diff",
    "draft": false,
    "head": {
        "label": "PrismarineJS:dependabot/npm_and_yarn/jest-27.0.3",
        "ref": "dependabot/npm_and_yarn/jest-27.0.3",
        "repo": {
            "allow_forking": true,
            "archive_url": "https://api.github.com/repos/PrismarineJS/prismarine-chunk/{archive_format}{/ref}",
            "archived": false,
            "assignees_url": "https://api.github.com/repos/PrismarineJS/prismarine-chunk/assignees{/user}",
            "blobs_url": "https://api.github.com/repos/PrismarineJS/prismarine-chunk/git/blobs{/sha}",
            "branches_url": "https://api.github.com/repos/PrismarineJS/prismarine-chunk/branches{/branch}",
            "clone_url": "https://github.com/PrismarineJS/prismarine-chunk.git",
            "collaborators_url": "https://api.github.com/repos/PrismarineJS/prismarine-chunk/collaborators{/collaborator}",
            "comments_url": "https://api.github.com/repos/PrismarineJS/prismarine-chunk/comments{/number}",
            "commits_url": "https://api.github.com/repos/PrismarineJS/prismarine-chunk/commits{/sha}",
            "compare_url": "https://api.github.com/repos/PrismarineJS/prismarine-chunk/compare/{base}...{head}",
            "contents_url": "https://api.github.com/repos/PrismarineJS/prismarine-chunk/contents/{+path}",
            "contributors_url": "https://api.github.com/repos/PrismarineJS/prismarine-chunk/contributors",
            "created_at": "2015-03-03T19:28:14Z",
            "default_branch": "master",
            "deployments_url": "https://api.github.com/repos/PrismarineJS/prismarine-chunk/deployments",
            "description": "A class to hold chunk data for Minecraft",
            "disabled": false,
            "downloads_url": "https://api.github.com/repos/PrismarineJS/prismarine-chunk/downloads",
            "events_url": "https://api.github.com/repos/PrismarineJS/prismarine-chunk/events",
            "fork": false,
            "forks": 47,
            "forks_count": 47,
            "forks_url": "https://api.github.com/repos/PrismarineJS/prismarine-chunk/forks",
            "full_name": "PrismarineJS/prismarine-chunk",
            "git_commits_url": "https://api.github.com/repos/PrismarineJS/prismarine-chunk/git/commits{/sha}",
            "git_refs_url": "https://api.github.com/repos/PrismarineJS/prismarine-chunk/git/refs{/sha}",
            "git_tags_url": "https://api.github.com/repos/PrismarineJS/prismarine-chunk/git/tags{/sha}",
            "git_url": "git://github.com/PrismarineJS/prismarine-chunk.git",
            "has_discussions": false,
            "has_downloads": true,
            "has_issues": true,
            "has_pages": false,
            "has_projects": true,
            "has_wiki": true,
            "homepage": "",
            "hooks_url": "https://api.github.com/repos/PrismarineJS/prismarine-chunk/hooks",
            "html_url": "https://github.com/PrismarineJS/prismarine-chunk",
            "id": 31616891,
            "is_template": false,
            "issue_comment_url": "https://api.github.com/repos/PrismarineJS/prismarine-chunk/issues/comments{/number}",
            "issue_events_url": "https://api.github.com/repos/PrismarineJS/prismarine-chunk/issues/events{/number}",
            "issues_url": "https://api.github.com/repos/PrismarineJS/prismarine-chunk/issues{/number}",
            "keys_url": "https://api.github.com/repos/PrismarineJS/prismarine-chunk/keys{/key_id}",
            "labels_url": "https://api.github.com/repos/PrismarineJS/prismarine-chunk/labels{/name}",
            "language": "JavaScript",
            "languages_url": "https://api.github.com/repos/PrismarineJS/prismarine-chunk/languages",
            "license": {
                "key": "mit",
                "name": "MIT License",
                "node_id": "MDc6TGljZW5zZTEz",
                "spdx_id": "MIT",
                "url": "https://api.github.com/licenses/mit"
            },
            "merges_url": "https://api.github.com/repos/PrismarineJS/prismarine-chunk/merges",
            "milestones_url": "https://api.github.com/repos/PrismarineJS/prismarine-chunk/milestones{/number}",
            "mirror_url": null,
            "name": "prismarine-chunk",
            "node_id": "MDEwOlJlcG9zaXRvcnkzMTYxNjg5MQ==",
            "notifications_url": "https://api.github.com/repos/PrismarineJS/prismarine-chunk/notifications{?since,all,participating}",
            "open_issues": 14,
            "open_issues_count": 14,
            "owner": {
                "avatar_url": "https://avatars.githubusercontent.com/u/11053411?v=4",
                "events_url": "https://api.github.com/users/PrismarineJS/events{/privacy}",
                "followers_url": "https://api.github.com/users/PrismarineJS/followers",
                "following_url": "https://api.github.com/users/PrismarineJS/following{/other_user}",
                "gists_url": "https://api.github.com/users/PrismarineJS/gists{/gist_id}",
                "gravatar_id": "",
                "html_url": "https://github.com/PrismarineJS",
                "id": 11053411,
                "login": "PrismarineJS",
                "node_id": "MDEyOk9yZ2FuaXphdGlvbjExMDUzNDEx",
                "organizations_url": "https://api.github.com/users/PrismarineJS/orgs",
                "received_events_url": "https://api.github.com/users/PrismarineJS/received_events",
                "repos_url": "https://api.github.com/users/PrismarineJS/repos",
                "site_admin": false,
                "starred_url": "https://api.github.com/users/PrismarineJS/starred{/owner}{/repo}",
                "subscriptions_url": "https://api.github.com/users/PrismarineJS/subscriptions",
                "type": "Organization",
                "url": "https://api.github.com/users/PrismarineJS"
            },
            "private": false,
            "pulls_url": "https://api.github.com/repos/PrismarineJS/prismarine-chunk/pulls{/number}",
            "pushed_at": "2023-04-10T14:10:02Z",
            "releases_url": "https://api.github.com/repos/PrismarineJS/prismarine-chunk/releases{/id}",
            "size": 5254,
            "ssh_url": "git@github.com:PrismarineJS/prismarine-chunk.git",
            "stargazers_count": 57,
            "stargazers_url": "https://api.github.com/repos/PrismarineJS/prismarine-chunk/stargazers",
            "statuses_url": "https://api.github.com/repos/PrismarineJS/prismarine-chunk/statuses/{sha}",
            "subscribers_url": "https://api.github.com/repos/PrismarineJS/prismarine-chunk/subscribers",
            "subscription_url": "https://api.github.com/repos/PrismarineJS/prismarine-chunk/subscription",
            "svn_url": "https://github.com/PrismarineJS/prismarine-chunk",
            "tags_url": "https://api.github.com/repos/PrismarineJS/prismarine-chunk/tags",
            "teams_url": "https://api.github.com/repos/PrismarineJS/prismarine-chunk/teams",
            "topics": [],
            "trees_url": "https://api.github.com/repos/PrismarineJS/prismarine-chunk/git/trees{/sha}",
            "updated_at": "2023-03-10T11:34:57Z",
            "url": "https://api.github.com/repos/PrismarineJS/prismarine-chunk",
            "visibility": "public",
            "watchers": 57,
            "watchers_count": 57,
            "web_commit_signoff_required": false
        },
        "sha": "c206797f04afb96ffa551d7fa78a6960af5a125f",
        "user": {
            "avatar_url": "https://avatars.githubusercontent.com/u/11053411?v=4",
            "events_url": "https://api.github.com/users/PrismarineJS/events{/privacy}",
            "followers_url": "https://api.github.com/users/PrismarineJS/followers",
            "following_url": "https://api.github.com/users/PrismarineJS/following{/other_user}",
            "gists_url": "https://api.github.com/users/PrismarineJS/gists{/gist_id}",
            "gravatar_id": "",
            "html_url": "https://github.com/PrismarineJS",
            "id": 11053411,
            "login": "PrismarineJS",
            "node_id": "MDEyOk9yZ2FuaXphdGlvbjExMDUzNDEx",
            "organizations_url": "https://api.github.com/users/PrismarineJS/orgs",
            "received_events_url": "https://api.github.com/users/PrismarineJS/received_events",
            "repos_url": "https://api.github.com/users/PrismarineJS/repos",
            "site_admin": false,
            "starred_url": "https://api.github.com/users/PrismarineJS/starred{/owner}{/repo}",
            "subscriptions_url": "https://api.github.com/users/PrismarineJS/subscriptions",
            "type": "Organization",
            "url": "https://api.github.com/users/PrismarineJS"
        }
    },
    "html_url": "https://github.com/PrismarineJS/prismarine-chunk/pull/123",
    "id": 658088747,
    "issue_url": "https://api.github.com/repos/PrismarineJS/prismarine-chunk/issues/123",
    "labels": [
        {
            "color": "0366d6",
            "default": false,
            "description": "Pull requests that update a dependency file",
            "id": 2067071434,
            "name": "dependencies",
            "node_id": "MDU6TGFiZWwyMDY3MDcxNDM0",
            "url": "https://api.github.com/repos/PrismarineJS/prismarine-chunk/labels/dependencies"
        }
    ],
    "locked": false,
    "maintainer_can_modify": false,
    "merge_commit_sha": "bcd6ccb3199c4746dbd100fb19240cf5d78618f5",
    "mergeable": null,
    "mergeable_state": "unknown",
    "merged": false,
    "merged_at": null,
    "merged_by": null,
    "milestone": null,
    "node_id": "MDExOlB1bGxSZXF1ZXN0NjU4MDg4NzQ3",
    "number": 123,
    "patch_url": "https://github.com/PrismarineJS/prismarine-chunk/pull/123.patch",
    "rebaseable": null,
    "requested_reviewers": [],
    "requested_teams": [],
    "review_comment_url": "https://api.github.com/repos/PrismarineJS/prismarine-chunk/pulls/comments{/number}",
    "review_comments": 0,
    "review_comments_url": "https://api.github.com/repos/PrismarineJS/prismarine-chunk/pulls/123/comments",
    "state": "closed",
    "statuses_url": "https://api.github.com/repos/PrismarineJS/prismarine-chunk/statuses/c206797f04afb96ffa551d7fa78a6960af5a125f",
    "title": "Bump jest from 26.6.3 to 27.0.3",
    "updated_at": "2021-06-04T07:31:51Z",
    "url": "https://api.github.com/repos/PrismarineJS/prismarine-chunk/pulls/123",
    "user": {
        "avatar_url": "https://avatars.githubusercontent.com/in/29110?v=4",
        "events_url": "https://api.github.com/users/dependabot%5Bbot%5D/events{/privacy}",
        "followers_url": "https://api.github.com/users/dependabot%5Bbot%5D/followers",
        "following_url": "https://api.github.com/users/dependabot%5Bbot%5D/following{/other_user}",
        "gists_url": "https://api.github.com/users/dependabot%5Bbot%5D/gists{/gist_id}",
        "gravatar_id": "",
        "html_url": "https://github.com/apps/dependabot",
        "id": 49699333,
        "login": "dependabot[bot]",
        "node_id": "MDM6Qm90NDk2OTkzMzM=",
        "organizations_url": "https://api.github.com/users/dependabot%5Bbot%5D/orgs",
        "received_events_url": "https://api.github.com/users/dependabot%5Bbot%5D/received_events",
        "repos_url": "https://api.github.com/users/dependabot%5Bbot%5D/repos",
        "site_admin": false,
        "starred_url": "https://api.github.com/users/dependabot%5Bbot%5D/starred{/owner}{/repo}",
        "subscriptions_url": "https://api.github.com/users/dependabot%5Bbot%5D/subscriptions",
        "type": "Bot",
        "url": "https://api.github.com/users/dependabot%5Bbot%5D"
    }
}