{
    "_links": {
        "comments": {
            "href": "https://api.github.com/repos/PrismarineJS/burger-extractor/issues/19/comments"
        },
        "commits": {
            "href": "https://api.github.com/repos/PrismarineJS/burger-extractor/pulls/19/commits"
        },
        "html": {
            "href": "https://github.com/PrismarineJS/burger-extractor/pull/19"
        },
        "issue": {
            "href": "https://api.github.com/repos/PrismarineJS/burger-extractor/issues/19"
        },
        "review_comment": {
            "href": "https://api.github.com/repos/PrismarineJS/burger-extractor/pulls/comments{/number}"
        },
        "review_comments": {
            "href": "https://api.github.com/repos/PrismarineJS/burger-extractor/pulls/19/comments"
        },
        "self": {
            "href": "https://api.github.com/repos/PrismarineJS/burger-extractor/pulls/19"
        },
        "statuses": {
            "href": "https://api.github.com/repos/PrismarineJS/burger-extractor/statuses/e1fb99e340cb8fb5a0e5592c65d6bed128c14d93"
        }
    },
    "active_lock_reason": null,
    "additions": 49,
    "assignee": null,
    "assignees": [],
    "author_association": "MEMBER",
    "auto_merge": null,
    "base": {
        "label": "PrismarineJS:master",
        "ref": "master",
        "repo": {
            "allow_forking": true,
            "archive_url": "https://api.github.com/repos/PrismarineJS/burger-extractor/{archive_format}{/ref}",
            "archived": false,
            "assignees_url": "https://api.github.com/repos/PrismarineJS/burger-extractor/assignees{/user}",
            "blobs_url": "https://api.github.com/repos/PrismarineJS/burger-extractor/git/blobs{/sha}",
            "branches_url": "https://api.github.com/repos/PrismarineJS/burger-extractor/branches{/branch}",
            "clone_url": "https://github.com/PrismarineJS/burger-extractor.git",
            "collaborators_url": "https://api.github.com/repos/PrismarineJS/burger-extractor/collaborators{/collaborator}",
            "comments_url": "https://api.github.com/repos/PrismarineJS/burger-extractor/comments{/number}",
            "commits_url": "https://api.github.com/repos/PrismarineJS/burger-extractor/commits{/sha}",
            "compare_url": "https://api.github.com/repos/PrismarineJS/burger-extractor/compare/{base}...{head}",
            "contents_url": "https://api.github.com/repos/PrismarineJS/burger-extractor/contents/{+path}",
            "contributors_url": "https://api.github.com/repos/PrismarineJS/burger-extractor/contributors",
            "created_at": "2016-03-22T19:48:44Z",
            "default_branch": "master",
            "deployments_url": "https://api.github.com/repos/PrismarineJS/burger-extractor/deployments",
            "description": "Convert burger to minecraft-data",
            "disabled": false,
            "downloads_url": "https://api.github.com/repos/PrismarineJS/burger-extractor/downloads",
            "events_url": "https://api.github.com/repos/PrismarineJS/burger-extractor/events",
            "fork": false,
            "forks": 7,
            "forks_count": 7,
            "forks_url": "https://api.github.com/repos/PrismarineJS/burger-extractor/forks",
            "full_name": "PrismarineJS/burger-extractor",
            "git_commits_url": "https://api.github.com/repos/PrismarineJS/burger-extractor/git/commits{/sha}",
            "git_refs_url": "https://api.github.com/repos/PrismarineJS/burger-extractor/git/refs{/sha}",
            "git_tags_url": "https://api.github.com/repos/PrismarineJS/burger-extractor/git/tags{/sha}",
            "git_url": "git://github.com/PrismarineJS/burger-extractor.git",
            "has_discussions": false,
            "has_downloads": true,
            "has_issues": true,
            "has_pages": false,
            "has_projects": true,
            "has_wiki": true,
            "homepage": null,
            "hooks_url": "https://api.github.com/repos/PrismarineJS/burger-extractor/hooks",
            "html_url": "https://github.com/PrismarineJS/burger-extractor",
            "id": 54504249,
            "is_template": false,
            "issue_comment_url": "https://api.github.com/repos/PrismarineJS/burger-extractor/issues/comments{/number}",
            "issue_events_url": "https://api.github.com/repos/PrismarineJS/burger-extractor/issues/events{/number}",
            "issues_url": "https://api.github.com/repos/PrismarineJS/burger-extractor/issues{/number}",
            "keys_url": "https://api.github.com/repos/PrismarineJS/burger-extractor/keys{/key_id}",
            "labels_url": "https://api.github.com/repos/PrismarineJS/burger-extractor/labels{/name}",
            "language": "JavaScript",
            "languages_url": "https://api.github.com/repos/PrismarineJS/burger-extractor/languages",
            "license": null,
            "merges_url": "https://api.github.com/repos/PrismarineJS/burger-extractor/merges",
            "milestones_url": "https://api.github.com/repos/PrismarineJS/burger-extractor/milestones{/number}",
            "mirror_url": null,
            "name": "burger-extractor",
            "node_id": "MDEwOlJlcG9zaXRvcnk1NDUwNDI0OQ==",
            "notifications_url": "https://api.github.com/repos/PrismarineJS/burger-extractor/notifications{?since,all,participating}",
            "open_issues": 1,
            "open_issues_count": 1,
            "owner": {
                "avatar_url": "https://avatars.githubusercontent.com/u/11053411?v=4",
                "events_url": "https://api.github.com/users/PrismarineJS/events{/privacy}",
                "followers_url": "https://api.github.com/users/PrismarineJS/followers",
                "following_url": "https://api.github.com/users/PrismarineJS/following{/other_user}",
                "gists_url": "https://api.github.com/users/PrismarineJS/gists{/gist_id}",
                "gravatar_id": "",
                "html_url": "https://github.com/PrismarineJS",
                "id": 11053411,
                "login": "PrismarineJS",
                "node_id": "MDEyOk9yZ2FuaXphdGlvbjExMDUzNDEx",
                "organizations_url": "https://api.github.com/users/PrismarineJS/orgs",
                "received_events_url": "https://api.github.com/users/PrismarineJS/received_events",
                "repos_url": "https://api.github.com/users/PrismarineJS/repos",
                "site_admin": false,
                "starred_url": "https://api.github.com/users/PrismarineJS/starred{/owner}{/repo}",
                "subscriptions_url": "https://api.github.com/users/PrismarineJS/subscriptions",
                "type": "Organization",
                "url": "https://api.github.com/users/PrismarineJS"
            },
            "private": false,
            "pulls_url": "https://api.github.com/repos/PrismarineJS/burger-extractor/pulls{/number}",
            "pushed_at": "2022-08-07T14:24:24Z",
            "releases_url": "https://api.github.com/repos/PrismarineJS/burger-extractor/releases{/id}",
            "size": 60,
            "ssh_url": "git@github.com:PrismarineJS/burger-extractor.git",
            "stargazers_count": 3,
            "stargazers_url": "https://api.github.com/repos/PrismarineJS/burger-extractor/stargazers",
            "statuses_url": "https://api.github.com/repos/PrismarineJS/burger-extractor/statuses/{sha}",
            "subscribers_url": "https://api.github.com/repos/PrismarineJS/burger-extractor/subscribers",
            "subscription_url": "https://api.github.com/repos/PrismarineJS/burger-extractor/subscription",
            "svn_url": "https://github.com/PrismarineJS/burger-extractor",
            "tags_url": "https://api.github.com/repos/PrismarineJS/burger-extractor/tags",
            "teams_url": "https://api.github.com/repos/PrismarineJS/burger-extractor/teams",
            "topics": [],
            "trees_url": "https://api.github.com/repos/PrismarineJS/burger-extractor/git/trees{/sha}",
            "updated_at": "2022-06-17T01:07:42Z",
            "url": "https://api.github.com/repos/PrismarineJS/burger-extractor",
            "visibility": "public",
            "watchers": 3,
            "watchers_count": 3,
            "web_commit_signoff_required": false
        },
        "sha": "5209b02333cd22385c6df92f76108ba7e645b6e2",
        "user": {
            "avatar_url": "https://avatars.githubusercontent.com/u/11053411?v=4",
            "events_url": "https://api.github.com/users/PrismarineJS/events{/privacy}",
            "followers_url": "https://api.github.com/users/PrismarineJS/followers",
            "following_url": "https://api.github.com/users/PrismarineJS/following{/other_user}",
            "gists_url": "https://api.github.com/users/PrismarineJS/gists{/gist_id}",
            "gravatar_id": "",
            "html_url": "https://github.com/PrismarineJS",
            "id": 11053411,
            "login": "PrismarineJS",
            "node_id": "MDEyOk9yZ2FuaXphdGlvbjExMDUzNDEx",
            "organizations_url": "https://api.github.com/users/PrismarineJS/orgs",
            "received_events_url": "https://api.github.com/users/PrismarineJS/received_events",
            "repos_url": "https://api.github.com/users/PrismarineJS/repos",
            "site_admin": false,
            "starred_url": "https://api.github.com/users/PrismarineJS/starred{/owner}{/repo}",
            "subscriptions_url": "https://api.github.com/users/PrismarineJS/subscriptions",
            "type": "Organization",
            "url": "https://api.github.com/users/PrismarineJS"
        }
    },
    "body": "Pre-flattening items with variations (think `stone` and friends) don't have useful default display names, here we generate them from their `text_id`. Also included are some manual overrides for items with crap display names in the default minecraft jar.\r\n\r\nAlso `air` isn't an item so stop putting it in items.json\r\n\r\nFinally this is my first PR ever that involved actually writing JS :tada: ",
    "changed_files": 2,
    "closed_at": "2021-07-29T11:12:13Z",
    "comment_data": [],
    "comment_regular_data": [],
    "comments": 0,
    "comments_url": "https://api.github.com/repos/PrismarineJS/burger-extractor/issues/19/comments",
    "commit_data": [
        {
            "author": {
                "avatar_url": "https://avatars.githubusercontent.com/u/1032552?v=4",
                "events_url": "https://api.github.com/users/nickelpro/events{/privacy}",
                "followers_url": "https://api.github.com/users/nickelpro/followers",
                "following_url": "https://api.github.com/users/nickelpro/following{/other_user}",
                "gists_url": "https://api.github.com/users/nickelpro/gists{/gist_id}",
                "gravatar_id": "",
                "html_url": "https://github.com/nickelpro",
                "id": 1032552,
                "login": "nickelpro",
                "node_id": "MDQ6VXNlcjEwMzI1NTI=",
                "organizations_url": "https://api.github.com/users/nickelpro/orgs",
                "received_events_url": "https://api.github.com/users/nickelpro/received_events",
                "repos_url": "https://api.github.com/users/nickelpro/repos",
                "site_admin": false,
                "starred_url": "https://api.github.com/users/nickelpro/starred{/owner}{/repo}",
                "subscriptions_url": "https://api.github.com/users/nickelpro/subscriptions",
                "type": "User",
                "url": "https://api.github.com/users/nickelpro"
            },
            "comments_url": "https://api.github.com/repos/PrismarineJS/burger-extractor/commits/e1fb99e340cb8fb5a0e5592c65d6bed128c14d93/comments",
            "commit": {
                "author": {
                    "date": "2021-07-29T09:36:45Z",
                    "email": "vito@gamberini.email",
                    "name": "Vito Gamberini"
                },
                "comment_count": 0,
                "committer": {
                    "date": "2021-07-29T09:38:40Z",
                    "email": "vito@gamberini.email",
                    "name": "Vito Gamberini"
                },
                "message": "Better display names for pre-flattening items\n\nAlso air is not an item",
                "tree": {
                    "sha": "515520584553d8f4e277f484279609910af65739",
                    "url": "https://api.github.com/repos/PrismarineJS/burger-extractor/git/trees/515520584553d8f4e277f484279609910af65739"
                },
                "url": "https://api.github.com/repos/PrismarineJS/burger-extractor/git/commits/e1fb99e340cb8fb5a0e5592c65d6bed128c14d93",
                "verification": {
                    "payload": "tree 515520584553d8f4e277f484279609910af65739\nparent 5209b02333cd22385c6df92f76108ba7e645b6e2\nauthor Vito Gamberini <vito@gamberini.email> 1627551405 -0400\ncommitter Vito Gamberini <vito@gamberini.email> 1627551520 -0400\n\nBetter display names for pre-flattening items\n\nAlso air is not an item\n",
                    "reason": "valid",
                    "signature": "-----BEGIN PGP SIGNATURE-----\n\niQIzBAABCAAdFiEE4IBGI4LySzDSIkJwiyRRJA02e98FAmECdyUACgkQiyRRJA02\ne99knBAArjJ8r+XprHYxQahaTjSNQgXzwBdCyqkEwmbiYW/LTsZ2JOfjpVQTDje9\n5gjC+5HjRifeELtWWWIjZiElCrESQ3l++ElistHDgJc1dtWi3ji/qmk1Sczc9CIw\noLpZc05XftWsXzCaggKyy0JoSfXje9/NdM1x0RNOPRyahRQhEFnV5D8VXWrgX5uX\nKVFOlC1UESUDBHc4nszGpJ8DteWuD6xvTdkw8FDLQ0mcdgQJHh9pTUjhkqlVMjfv\n0NaRxo+s+bMsOzlGKFxfWDD6VGmexTazNc/2nOl3isBAjPc4paV+c6Y3lIr1jZaI\nWCjIuQ+0n9j+VHgZFQrn/mN285SZMaogrPF0tt5KaHAW8FPyS98AUN5T5mVXWxEO\nTakVDtdcWVnCUnuSZiPzEBQyzSmBiZl/oue3LSntywVSS76kWQSHv40bnWyapgU/\nlFjrqU1bqlap3FkTFAiu/DlweNqKsU5K611RxvYztZl+f+jSusXFjKIT5FUwy4Lk\nX84f+2EtAMn87zLb0v4Tl5uZzPfPSrVTdX3CfzFD05jqX5NE4Wru1KOoSbG/57J6\npWmNBZjUIt/Pw0aeUetldKlxVUkzsGRtTNc7MRJlxvNPY3pkQS0oAe19vED2dW0b\n6/hJMZB4d2K52TBAOU9PxRYD2s+wOULv3mjRYFCgAP8Ae4W9Br0=\n=1oBr\n-----END PGP SIGNATURE-----",
                    "verified": true
                }
            },
            "committer": {
                "avatar_url": "https://avatars.githubusercontent.com/u/1032552?v=4",
                "events_url": "https://api.github.com/users/nickelpro/events{/privacy}",
                "followers_url": "https://api.github.com/users/nickelpro/followers",
                "following_url": "https://api.github.com/users/nickelpro/following{/other_user}",
                "gists_url": "https://api.github.com/users/nickelpro/gists{/gist_id}",
                "gravatar_id": "",
                "html_url": "https://github.com/nickelpro",
                "id": 1032552,
                "login": "nickelpro",
                "node_id": "MDQ6VXNlcjEwMzI1NTI=",
                "organizations_url": "https://api.github.com/users/nickelpro/orgs",
                "received_events_url": "https://api.github.com/users/nickelpro/received_events",
                "repos_url": "https://api.github.com/users/nickelpro/repos",
                "site_admin": false,
                "starred_url": "https://api.github.com/users/nickelpro/starred{/owner}{/repo}",
                "subscriptions_url": "https://api.github.com/users/nickelpro/subscriptions",
                "type": "User",
                "url": "https://api.github.com/users/nickelpro"
            },
            "html_url": "https://github.com/PrismarineJS/burger-extractor/commit/e1fb99e340cb8fb5a0e5592c65d6bed128c14d93",
            "node_id": "MDY6Q29tbWl0MzY4OTcyMzMxOmUxZmI5OWUzNDBjYjhmYjVhMGU1NTkyYzY1ZDZiZWQxMjhjMTRkOTM=",
            "parents": [
                {
                    "html_url": "https://github.com/PrismarineJS/burger-extractor/commit/5209b02333cd22385c6df92f76108ba7e645b6e2",
                    "sha": "5209b02333cd22385c6df92f76108ba7e645b6e2",
                    "url": "https://api.github.com/repos/PrismarineJS/burger-extractor/commits/5209b02333cd22385c6df92f76108ba7e645b6e2"
                }
            ],
            "sha": "e1fb99e340cb8fb5a0e5592c65d6bed128c14d93",
            "url": "https://api.github.com/repos/PrismarineJS/burger-extractor/commits/e1fb99e340cb8fb5a0e5592c65d6bed128c14d93"
        }
    ],
    "commits": 1,
    "commits_url": "https://api.github.com/repos/PrismarineJS/burger-extractor/pulls/19/commits",
    "created_at": "2021-07-29T09:42:21Z",
    "deletions": 5,
    "diff_url": "https://github.com/PrismarineJS/burger-extractor/pull/19.diff",
    "draft": false,
    "head": {
        "label": "nickelpro:master",
        "ref": "master",
        "repo": {
            "allow_forking": true,
            "archive_url": "https://api.github.com/repos/nickelpro/burger-extractor/{archive_format}{/ref}",
            "archived": false,
            "assignees_url": "https://api.github.com/repos/nickelpro/burger-extractor/assignees{/user}",
            "blobs_url": "https://api.github.com/repos/nickelpro/burger-extractor/git/blobs{/sha}",
            "branches_url": "https://api.github.com/repos/nickelpro/burger-extractor/branches{/branch}",
            "clone_url": "https://github.com/nickelpro/burger-extractor.git",
            "collaborators_url": "https://api.github.com/repos/nickelpro/burger-extractor/collaborators{/collaborator}",
            "comments_url": "https://api.github.com/repos/nickelpro/burger-extractor/comments{/number}",
            "commits_url": "https://api.github.com/repos/nickelpro/burger-extractor/commits{/sha}",
            "compare_url": "https://api.github.com/repos/nickelpro/burger-extractor/compare/{base}...{head}",
            "contents_url": "https://api.github.com/repos/nickelpro/burger-extractor/contents/{+path}",
            "contributors_url": "https://api.github.com/repos/nickelpro/burger-extractor/contributors",
            "created_at": "2021-05-19T18:54:45Z",
            "default_branch": "master",
            "deployments_url": "https://api.github.com/repos/nickelpro/burger-extractor/deployments",
            "description": "Convert burger to minecraft-data",
            "disabled": false,
            "downloads_url": "https://api.github.com/repos/nickelpro/burger-extractor/downloads",
            "events_url": "https://api.github.com/repos/nickelpro/burger-extractor/events",
            "fork": true,
            "forks": 0,
            "forks_count": 0,
            "forks_url": "https://api.github.com/repos/nickelpro/burger-extractor/forks",
            "full_name": "nickelpro/burger-extractor",
            "git_commits_url": "https://api.github.com/repos/nickelpro/burger-extractor/git/commits{/sha}",
            "git_refs_url": "https://api.github.com/repos/nickelpro/burger-extractor/git/refs{/sha}",
            "git_tags_url": "https://api.github.com/repos/nickelpro/burger-extractor/git/tags{/sha}",
            "git_url": "git://github.com/nickelpro/burger-extractor.git",
            "has_discussions": false,
            "has_downloads": true,
            "has_issues": false,
            "has_pages": false,
            "has_projects": true,
            "has_wiki": true,
            "homepage": null,
            "hooks_url": "https://api.github.com/repos/nickelpro/burger-extractor/hooks",
            "html_url": "https://github.com/nickelpro/burger-extractor",
            "id": 368972331,
            "is_template": false,
            "issue_comment_url": "https://api.github.com/repos/nickelpro/burger-extractor/issues/comments{/number}",
            "issue_events_url": "https://api.github.com/repos/nickelpro/burger-extractor/issues/events{/number}",
            "issues_url": "https://api.github.com/repos/nickelpro/burger-extractor/issues{/number}",
            "keys_url": "https://api.github.com/repos/nickelpro/burger-extractor/keys{/key_id}",
            "labels_url": "https://api.github.com/repos/nickelpro/burger-extractor/labels{/name}",
            "language": "JavaScript",
            "languages_url": "https://api.github.com/repos/nickelpro/burger-extractor/languages",
            "license": null,
            "merges_url": "https://api.github.com/repos/nickelpro/burger-extractor/merges",
            "milestones_url": "https://api.github.com/repos/nickelpro/burger-extractor/milestones{/number}",
            "mirror_url": null,
            "name": "burger-extractor",
            "node_id": "MDEwOlJlcG9zaXRvcnkzNjg5NzIzMzE=",
            "notifications_url": "https://api.github.com/repos/nickelpro/burger-extractor/notifications{?since,all,participating}",
            "open_issues": 0,
            "open_issues_count": 0,
            "owner": {
                "avatar_url": "https://avatars.githubusercontent.com/u/1032552?v=4",
                "events_url": "https://api.github.com/users/nickelpro/events{/privacy}",
                "followers_url": "https://api.github.com/users/nickelpro/followers",
                "following_url": "https://api.github.com/users/nickelpro/following{/other_user}",
                "gists_url": "https://api.github.com/users/nickelpro/gists{/gist_id}",
                "gravatar_id": "",
                "html_url": "https://github.com/nickelpro",
                "id": 1032552,
                "login": "nickelpro",
                "node_id": "MDQ6VXNlcjEwMzI1NTI=",
                "organizations_url": "https://api.github.com/users/nickelpro/orgs",
                "received_events_url": "https://api.github.com/users/nickelpro/received_events",
                "repos_url": "https://api.github.com/users/nickelpro/repos",
                "site_admin": false,
                "starred_url": "https://api.github.com/users/nickelpro/starred{/owner}{/repo}",
                "subscriptions_url": "https://api.github.com/users/nickelpro/subscriptions",
                "type": "User",
                "url": "https://api.github.com/users/nickelpro"
            },
            "private": false,
            "pulls_url": "https://api.github.com/repos/nickelpro/burger-extractor/pulls{/number}",
            "pushed_at": "2021-07-29T09:39:10Z",
            "releases_url": "https://api.github.com/repos/nickelpro/burger-extractor/releases{/id}",
            "size": 70,
            "ssh_url": "git@github.com:nickelpro/burger-extractor.git",
            "stargazers_count": 0,
            "stargazers_url": "https://api.github.com/repos/nickelpro/burger-extractor/stargazers",
            "statuses_url": "https://api.github.com/repos/nickelpro/burger-extractor/statuses/{sha}",
            "subscribers_url": "https://api.github.com/repos/nickelpro/burger-extractor/subscribers",
            "subscription_url": "https://api.github.com/repos/nickelpro/burger-extractor/subscription",
            "svn_url": "https://github.com/nickelpro/burger-extractor",
            "tags_url": "https://api.github.com/repos/nickelpro/burger-extractor/tags",
            "teams_url": "https://api.github.com/repos/nickelpro/burger-extractor/teams",
            "topics": [],
            "trees_url": "https://api.github.com/repos/nickelpro/burger-extractor/git/trees{/sha}",
            "updated_at": "2021-07-29T09:39:13Z",
            "url": "https://api.github.com/repos/nickelpro/burger-extractor",
            "visibility": "public",
            "watchers": 0,
            "watchers_count": 0,
            "web_commit_signoff_required": false
        },
        "sha": "e1fb99e340cb8fb5a0e5592c65d6bed128c14d93",
        "user": {
            "avatar_url": "https://avatars.githubusercontent.com/u/1032552?v=4",
            "events_url": "https://api.github.com/users/nickelpro/events{/privacy}",
            "followers_url": "https://api.github.com/users/nickelpro/followers",
            "following_url": "https://api.github.com/users/nickelpro/following{/other_user}",
            "gists_url": "https://api.github.com/users/nickelpro/gists{/gist_id}",
            "gravatar_id": "",
            "html_url": "https://github.com/nickelpro",
            "id": 1032552,
            "login": "nickelpro",
            "node_id": "MDQ6VXNlcjEwMzI1NTI=",
            "organizations_url": "https://api.github.com/users/nickelpro/orgs",
            "received_events_url": "https://api.github.com/users/nickelpro/received_events",
            "repos_url": "https://api.github.com/users/nickelpro/repos",
            "site_admin": false,
            "starred_url": "https://api.github.com/users/nickelpro/starred{/owner}{/repo}",
            "subscriptions_url": "https://api.github.com/users/nickelpro/subscriptions",
            "type": "User",
            "url": "https://api.github.com/users/nickelpro"
        }
    },
    "html_url": "https://github.com/PrismarineJS/burger-extractor/pull/19",
    "id": 699374163,
    "issue_url": "https://api.github.com/repos/PrismarineJS/burger-extractor/issues/19",
    "labels": [],
    "locked": false,
    "maintainer_can_modify": false,
    "merge_commit_sha": "759be29c593a1b3404a8c2f54f3c7ba977bf0190",
    "mergeable": null,
    "mergeable_state": "unknown",
    "merged": true,
    "merged_at": "2021-07-29T11:12:12Z",
    "merged_by": {
        "avatar_url": "https://avatars.githubusercontent.com/u/2346494?v=4",
        "events_url": "https://api.github.com/users/rom1504/events{/privacy}",
        "followers_url": "https://api.github.com/users/rom1504/followers",
        "following_url": "https://api.github.com/users/rom1504/following{/other_user}",
        "gists_url": "https://api.github.com/users/rom1504/gists{/gist_id}",
        "gravatar_id": "",
        "html_url": "https://github.com/rom1504",
        "id": 2346494,
        "login": "rom1504",
        "node_id": "MDQ6VXNlcjIzNDY0OTQ=",
        "organizations_url": "https://api.github.com/users/rom1504/orgs",
        "received_events_url": "https://api.github.com/users/rom1504/received_events",
        "repos_url": "https://api.github.com/users/rom1504/repos",
        "site_admin": false,
        "starred_url": "https://api.github.com/users/rom1504/starred{/owner}{/repo}",
        "subscriptions_url": "https://api.github.com/users/rom1504/subscriptions",
        "type": "User",
        "url": "https://api.github.com/users/rom1504"
    },
    "milestone": null,
    "node_id": "MDExOlB1bGxSZXF1ZXN0Njk5Mzc0MTYz",
    "number": 19,
    "patch_url": "https://github.com/PrismarineJS/burger-extractor/pull/19.patch",
    "rebaseable": null,
    "requested_reviewers": [],
    "requested_teams": [],
    "review_comment_url": "https://api.github.com/repos/PrismarineJS/burger-extractor/pulls/comments{/number}",
    "review_comments": 0,
    "review_comments_url": "https://api.github.com/repos/PrismarineJS/burger-extractor/pulls/19/comments",
    "state": "closed",
    "statuses_url": "https://api.github.com/repos/PrismarineJS/burger-extractor/statuses/e1fb99e340cb8fb5a0e5592c65d6bed128c14d93",
    "title": "Better display names for pre-flattening items",
    "updated_at": "2021-07-29T11:12:13Z",
    "url": "https://api.github.com/repos/PrismarineJS/burger-extractor/pulls/19",
    "user": {
        "avatar_url": "https://avatars.githubusercontent.com/u/1032552?v=4",
        "events_url": "https://api.github.com/users/nickelpro/events{/privacy}",
        "followers_url": "https://api.github.com/users/nickelpro/followers",
        "following_url": "https://api.github.com/users/nickelpro/following{/other_user}",
        "gists_url": "https://api.github.com/users/nickelpro/gists{/gist_id}",
        "gravatar_id": "",
        "html_url": "https://github.com/nickelpro",
        "id": 1032552,
        "login": "nickelpro",
        "node_id": "MDQ6VXNlcjEwMzI1NTI=",
        "organizations_url": "https://api.github.com/users/nickelpro/orgs",
        "received_events_url": "https://api.github.com/users/nickelpro/received_events",
        "repos_url": "https://api.github.com/users/nickelpro/repos",
        "site_admin": false,
        "starred_url": "https://api.github.com/users/nickelpro/starred{/owner}{/repo}",
        "subscriptions_url": "https://api.github.com/users/nickelpro/subscriptions",
        "type": "User",
        "url": "https://api.github.com/users/nickelpro"
    }
}