{
    "_links": {
        "comments": {
            "href": "https://api.github.com/repos/PrismarineJS/mineflayer-statemachine/issues/158/comments"
        },
        "commits": {
            "href": "https://api.github.com/repos/PrismarineJS/mineflayer-statemachine/pulls/158/commits"
        },
        "html": {
            "href": "https://github.com/PrismarineJS/mineflayer-statemachine/pull/158"
        },
        "issue": {
            "href": "https://api.github.com/repos/PrismarineJS/mineflayer-statemachine/issues/158"
        },
        "review_comment": {
            "href": "https://api.github.com/repos/PrismarineJS/mineflayer-statemachine/pulls/comments{/number}"
        },
        "review_comments": {
            "href": "https://api.github.com/repos/PrismarineJS/mineflayer-statemachine/pulls/158/comments"
        },
        "self": {
            "href": "https://api.github.com/repos/PrismarineJS/mineflayer-statemachine/pulls/158"
        },
        "statuses": {
            "href": "https://api.github.com/repos/PrismarineJS/mineflayer-statemachine/statuses/9c11d78fb792b0ec62feaa62eb0e5e3263b8ed62"
        }
    },
    "active_lock_reason": null,
    "additions": 1,
    "assignee": null,
    "assignees": [],
    "author_association": "CONTRIBUTOR",
    "auto_merge": null,
    "base": {
        "label": "PrismarineJS:master",
        "ref": "master",
        "repo": {
            "allow_forking": true,
            "archive_url": "https://api.github.com/repos/PrismarineJS/mineflayer-statemachine/{archive_format}{/ref}",
            "archived": false,
            "assignees_url": "https://api.github.com/repos/PrismarineJS/mineflayer-statemachine/assignees{/user}",
            "blobs_url": "https://api.github.com/repos/PrismarineJS/mineflayer-statemachine/git/blobs{/sha}",
            "branches_url": "https://api.github.com/repos/PrismarineJS/mineflayer-statemachine/branches{/branch}",
            "clone_url": "https://github.com/PrismarineJS/mineflayer-statemachine.git",
            "collaborators_url": "https://api.github.com/repos/PrismarineJS/mineflayer-statemachine/collaborators{/collaborator}",
            "comments_url": "https://api.github.com/repos/PrismarineJS/mineflayer-statemachine/comments{/number}",
            "commits_url": "https://api.github.com/repos/PrismarineJS/mineflayer-statemachine/commits{/sha}",
            "compare_url": "https://api.github.com/repos/PrismarineJS/mineflayer-statemachine/compare/{base}...{head}",
            "contents_url": "https://api.github.com/repos/PrismarineJS/mineflayer-statemachine/contents/{+path}",
            "contributors_url": "https://api.github.com/repos/PrismarineJS/mineflayer-statemachine/contributors",
            "created_at": "2020-06-14T09:15:31Z",
            "default_branch": "master",
            "deployments_url": "https://api.github.com/repos/PrismarineJS/mineflayer-statemachine/deployments",
            "description": "A state machine plugin for Mineflayer to aid in designing more complex behavior trees.",
            "disabled": false,
            "downloads_url": "https://api.github.com/repos/PrismarineJS/mineflayer-statemachine/downloads",
            "events_url": "https://api.github.com/repos/PrismarineJS/mineflayer-statemachine/events",
            "fork": false,
            "forks": 22,
            "forks_count": 22,
            "forks_url": "https://api.github.com/repos/PrismarineJS/mineflayer-statemachine/forks",
            "full_name": "PrismarineJS/mineflayer-statemachine",
            "git_commits_url": "https://api.github.com/repos/PrismarineJS/mineflayer-statemachine/git/commits{/sha}",
            "git_refs_url": "https://api.github.com/repos/PrismarineJS/mineflayer-statemachine/git/refs{/sha}",
            "git_tags_url": "https://api.github.com/repos/PrismarineJS/mineflayer-statemachine/git/tags{/sha}",
            "git_url": "git://github.com/PrismarineJS/mineflayer-statemachine.git",
            "has_discussions": false,
            "has_downloads": true,
            "has_issues": true,
            "has_pages": true,
            "has_projects": false,
            "has_wiki": false,
            "homepage": "https://thedudefromci.github.io/mineflayer-statemachine/",
            "hooks_url": "https://api.github.com/repos/PrismarineJS/mineflayer-statemachine/hooks",
            "html_url": "https://github.com/PrismarineJS/mineflayer-statemachine",
            "id": 272168779,
            "is_template": false,
            "issue_comment_url": "https://api.github.com/repos/PrismarineJS/mineflayer-statemachine/issues/comments{/number}",
            "issue_events_url": "https://api.github.com/repos/PrismarineJS/mineflayer-statemachine/issues/events{/number}",
            "issues_url": "https://api.github.com/repos/PrismarineJS/mineflayer-statemachine/issues{/number}",
            "keys_url": "https://api.github.com/repos/PrismarineJS/mineflayer-statemachine/keys{/key_id}",
            "labels_url": "https://api.github.com/repos/PrismarineJS/mineflayer-statemachine/labels{/name}",
            "language": "TypeScript",
            "languages_url": "https://api.github.com/repos/PrismarineJS/mineflayer-statemachine/languages",
            "license": {
                "key": "mit",
                "name": "MIT License",
                "node_id": "MDc6TGljZW5zZTEz",
                "spdx_id": "MIT",
                "url": "https://api.github.com/licenses/mit"
            },
            "merges_url": "https://api.github.com/repos/PrismarineJS/mineflayer-statemachine/merges",
            "milestones_url": "https://api.github.com/repos/PrismarineJS/mineflayer-statemachine/milestones{/number}",
            "mirror_url": null,
            "name": "mineflayer-statemachine",
            "node_id": "MDEwOlJlcG9zaXRvcnkyNzIxNjg3Nzk=",
            "notifications_url": "https://api.github.com/repos/PrismarineJS/mineflayer-statemachine/notifications{?since,all,participating}",
            "open_issues": 19,
            "open_issues_count": 19,
            "owner": {
                "avatar_url": "https://avatars.githubusercontent.com/u/11053411?v=4",
                "events_url": "https://api.github.com/users/PrismarineJS/events{/privacy}",
                "followers_url": "https://api.github.com/users/PrismarineJS/followers",
                "following_url": "https://api.github.com/users/PrismarineJS/following{/other_user}",
                "gists_url": "https://api.github.com/users/PrismarineJS/gists{/gist_id}",
                "gravatar_id": "",
                "html_url": "https://github.com/PrismarineJS",
                "id": 11053411,
                "login": "PrismarineJS",
                "node_id": "MDEyOk9yZ2FuaXphdGlvbjExMDUzNDEx",
                "organizations_url": "https://api.github.com/users/PrismarineJS/orgs",
                "received_events_url": "https://api.github.com/users/PrismarineJS/received_events",
                "repos_url": "https://api.github.com/users/PrismarineJS/repos",
                "site_admin": false,
                "starred_url": "https://api.github.com/users/PrismarineJS/starred{/owner}{/repo}",
                "subscriptions_url": "https://api.github.com/users/PrismarineJS/subscriptions",
                "type": "Organization",
                "url": "https://api.github.com/users/PrismarineJS"
            },
            "private": false,
            "pulls_url": "https://api.github.com/repos/PrismarineJS/mineflayer-statemachine/pulls{/number}",
            "pushed_at": "2023-04-10T16:58:45Z",
            "releases_url": "https://api.github.com/repos/PrismarineJS/mineflayer-statemachine/releases{/id}",
            "size": 652,
            "ssh_url": "git@github.com:PrismarineJS/mineflayer-statemachine.git",
            "stargazers_count": 74,
            "stargazers_url": "https://api.github.com/repos/PrismarineJS/mineflayer-statemachine/stargazers",
            "statuses_url": "https://api.github.com/repos/PrismarineJS/mineflayer-statemachine/statuses/{sha}",
            "subscribers_url": "https://api.github.com/repos/PrismarineJS/mineflayer-statemachine/subscribers",
            "subscription_url": "https://api.github.com/repos/PrismarineJS/mineflayer-statemachine/subscription",
            "svn_url": "https://github.com/PrismarineJS/mineflayer-statemachine",
            "tags_url": "https://api.github.com/repos/PrismarineJS/mineflayer-statemachine/tags",
            "teams_url": "https://api.github.com/repos/PrismarineJS/mineflayer-statemachine/teams",
            "topics": [
                "ai",
                "bot",
                "minecraft",
                "mineflayer",
                "state-machine"
            ],
            "trees_url": "https://api.github.com/repos/PrismarineJS/mineflayer-statemachine/git/trees{/sha}",
            "updated_at": "2023-04-24T19:33:38Z",
            "url": "https://api.github.com/repos/PrismarineJS/mineflayer-statemachine",
            "visibility": "public",
            "watchers": 74,
            "watchers_count": 74,
            "web_commit_signoff_required": false
        },
        "sha": "4e68f27e8ae2e145323aec06af82729703e34fa3",
        "user": {
            "avatar_url": "https://avatars.githubusercontent.com/u/11053411?v=4",
            "events_url": "https://api.github.com/users/PrismarineJS/events{/privacy}",
            "followers_url": "https://api.github.com/users/PrismarineJS/followers",
            "following_url": "https://api.github.com/users/PrismarineJS/following{/other_user}",
            "gists_url": "https://api.github.com/users/PrismarineJS/gists{/gist_id}",
            "gravatar_id": "",
            "html_url": "https://github.com/PrismarineJS",
            "id": 11053411,
            "login": "PrismarineJS",
            "node_id": "MDEyOk9yZ2FuaXphdGlvbjExMDUzNDEx",
            "organizations_url": "https://api.github.com/users/PrismarineJS/orgs",
            "received_events_url": "https://api.github.com/users/PrismarineJS/received_events",
            "repos_url": "https://api.github.com/users/PrismarineJS/repos",
            "site_admin": false,
            "starred_url": "https://api.github.com/users/PrismarineJS/starred{/owner}{/repo}",
            "subscriptions_url": "https://api.github.com/users/PrismarineJS/subscriptions",
            "type": "Organization",
            "url": "https://api.github.com/users/PrismarineJS"
        }
    },
    "body": "Bumps [node](https://github.com/aredridel/node-bin-gen) from 16.17.0 to 18.9.0.\n<details>\n<summary>Commits</summary>\n<ul>\n<li>See full diff in <a href=\"https://github.com/aredridel/node-bin-gen/commits\">compare view</a></li>\n</ul>\n</details>\n<br />\n\n\n[![Dependabot compatibility score](https://dependabot-badges.githubapp.com/badges/compatibility_score?dependency-name=node&package-manager=npm_and_yarn&previous-version=16.17.0&new-version=18.9.0)](https://docs.github.com/en/github/managing-security-vulnerabilities/about-dependabot-security-updates#about-compatibility-scores)\n\nDependabot will resolve any conflicts with this PR as long as you don't alter it yourself. You can also trigger a rebase manually by commenting `@dependabot rebase`.\n\n[//]: # (dependabot-automerge-start)\n[//]: # (dependabot-automerge-end)\n\n---\n\n<details>\n<summary>Dependabot commands and options</summary>\n<br />\n\nYou can trigger Dependabot actions by commenting on this PR:\n- `@dependabot rebase` will rebase this PR\n- `@dependabot recreate` will recreate this PR, overwriting any edits that have been made to it\n- `@dependabot merge` will merge this PR after your CI passes on it\n- `@dependabot squash and merge` will squash and merge this PR after your CI passes on it\n- `@dependabot cancel merge` will cancel a previously requested merge and block automerging\n- `@dependabot reopen` will reopen this PR if it is closed\n- `@dependabot close` will close this PR and stop Dependabot recreating it. You can achieve the same result by closing it manually\n- `@dependabot ignore this major version` will close this PR and stop Dependabot creating any more for this major version (unless you reopen the PR or upgrade to it yourself)\n- `@dependabot ignore this minor version` will close this PR and stop Dependabot creating any more for this minor version (unless you reopen the PR or upgrade to it yourself)\n- `@dependabot ignore this dependency` will close this PR and stop Dependabot creating any more for this dependency (unless you reopen the PR or upgrade to it yourself)\n\n\n</details>",
    "changed_files": 1,
    "closed_at": "2022-09-26T16:14:35Z",
    "comment_data": [],
    "comment_regular_data": [
        {
            "author_association": "CONTRIBUTOR",
            "body": "Superseded by #159.",
            "created_at": "2022-09-26T16:14:34Z",
            "html_url": "https://github.com/PrismarineJS/mineflayer-statemachine/pull/158#issuecomment-1258288082",
            "id": 1258288082,
            "issue_url": "https://api.github.com/repos/PrismarineJS/mineflayer-statemachine/issues/158",
            "node_id": "IC_kwDOEDj3S85K__PS",
            "performed_via_github_app": null,
            "reactions": {
                "+1": 0,
                "-1": 0,
                "confused": 0,
                "eyes": 0,
                "heart": 0,
                "hooray": 0,
                "laugh": 0,
                "rocket": 0,
                "total_count": 0,
                "url": "https://api.github.com/repos/PrismarineJS/mineflayer-statemachine/issues/comments/1258288082/reactions"
            },
            "updated_at": "2022-09-26T16:14:34Z",
            "url": "https://api.github.com/repos/PrismarineJS/mineflayer-statemachine/issues/comments/1258288082",
            "user": {
                "avatar_url": "https://avatars.githubusercontent.com/in/29110?v=4",
                "events_url": "https://api.github.com/users/dependabot%5Bbot%5D/events{/privacy}",
                "followers_url": "https://api.github.com/users/dependabot%5Bbot%5D/followers",
                "following_url": "https://api.github.com/users/dependabot%5Bbot%5D/following{/other_user}",
                "gists_url": "https://api.github.com/users/dependabot%5Bbot%5D/gists{/gist_id}",
                "gravatar_id": "",
                "html_url": "https://github.com/apps/dependabot",
                "id": 49699333,
                "login": "dependabot[bot]",
                "node_id": "MDM6Qm90NDk2OTkzMzM=",
                "organizations_url": "https://api.github.com/users/dependabot%5Bbot%5D/orgs",
                "received_events_url": "https://api.github.com/users/dependabot%5Bbot%5D/received_events",
                "repos_url": "https://api.github.com/users/dependabot%5Bbot%5D/repos",
                "site_admin": false,
                "starred_url": "https://api.github.com/users/dependabot%5Bbot%5D/starred{/owner}{/repo}",
                "subscriptions_url": "https://api.github.com/users/dependabot%5Bbot%5D/subscriptions",
                "type": "Bot",
                "url": "https://api.github.com/users/dependabot%5Bbot%5D"
            }
        }
    ],
    "comments": 1,
    "comments_url": "https://api.github.com/repos/PrismarineJS/mineflayer-statemachine/issues/158/comments",
    "commit_data": [
        {
            "author": {
                "avatar_url": "https://avatars.githubusercontent.com/in/29110?v=4",
                "events_url": "https://api.github.com/users/dependabot%5Bbot%5D/events{/privacy}",
                "followers_url": "https://api.github.com/users/dependabot%5Bbot%5D/followers",
                "following_url": "https://api.github.com/users/dependabot%5Bbot%5D/following{/other_user}",
                "gists_url": "https://api.github.com/users/dependabot%5Bbot%5D/gists{/gist_id}",
                "gravatar_id": "",
                "html_url": "https://github.com/apps/dependabot",
                "id": 49699333,
                "login": "dependabot[bot]",
                "node_id": "MDM6Qm90NDk2OTkzMzM=",
                "organizations_url": "https://api.github.com/users/dependabot%5Bbot%5D/orgs",
                "received_events_url": "https://api.github.com/users/dependabot%5Bbot%5D/received_events",
                "repos_url": "https://api.github.com/users/dependabot%5Bbot%5D/repos",
                "site_admin": false,
                "starred_url": "https://api.github.com/users/dependabot%5Bbot%5D/starred{/owner}{/repo}",
                "subscriptions_url": "https://api.github.com/users/dependabot%5Bbot%5D/subscriptions",
                "type": "Bot",
                "url": "https://api.github.com/users/dependabot%5Bbot%5D"
            },
            "comments_url": "https://api.github.com/repos/PrismarineJS/mineflayer-statemachine/commits/9c11d78fb792b0ec62feaa62eb0e5e3263b8ed62/comments",
            "commit": {
                "author": {
                    "date": "2022-09-09T16:14:05Z",
                    "email": "49699333+dependabot[bot]@users.noreply.github.com",
                    "name": "dependabot[bot]"
                },
                "comment_count": 0,
                "committer": {
                    "date": "2022-09-09T16:14:05Z",
                    "email": "noreply@github.com",
                    "name": "GitHub"
                },
                "message": "Bump node from 16.17.0 to 18.9.0\n\nBumps [node](https://github.com/aredridel/node-bin-gen) from 16.17.0 to 18.9.0.\n- [Release notes](https://github.com/aredridel/node-bin-gen/releases)\n- [Commits](https://github.com/aredridel/node-bin-gen/commits)\n\n---\nupdated-dependencies:\n- dependency-name: node\n  dependency-type: direct:production\n  update-type: version-update:semver-major\n...\n\nSigned-off-by: dependabot[bot] <support@github.com>",
                "tree": {
                    "sha": "c3a77f8500a4ac317bbfb0edc5f36db9a395066a",
                    "url": "https://api.github.com/repos/PrismarineJS/mineflayer-statemachine/git/trees/c3a77f8500a4ac317bbfb0edc5f36db9a395066a"
                },
                "url": "https://api.github.com/repos/PrismarineJS/mineflayer-statemachine/git/commits/9c11d78fb792b0ec62feaa62eb0e5e3263b8ed62",
                "verification": {
                    "payload": "tree c3a77f8500a4ac317bbfb0edc5f36db9a395066a\nparent 4e68f27e8ae2e145323aec06af82729703e34fa3\nauthor dependabot[bot] <49699333+dependabot[bot]@users.noreply.github.com> 1662740045 +0000\ncommitter GitHub <noreply@github.com> 1662740045 +0000\n\nBump node from 16.17.0 to 18.9.0\n\nBumps [node](https://github.com/aredridel/node-bin-gen) from 16.17.0 to 18.9.0.\n- [Release notes](https://github.com/aredridel/node-bin-gen/releases)\n- [Commits](https://github.com/aredridel/node-bin-gen/commits)\n\n---\nupdated-dependencies:\n- dependency-name: node\n  dependency-type: direct:production\n  update-type: version-update:semver-major\n...\n\nSigned-off-by: dependabot[bot] <support@github.com>",
                    "reason": "valid",
                    "signature": "-----BEGIN PGP SIGNATURE-----\n\nwsBcBAABCAAQBQJjG2ZNCRBK7hj4Ov3rIwAARCIIAFvdjklLBJbVYxJtQJ4R8UtY\npkOpiBbDhJ9GvvVNAVps/VJ0kUWFFg7d/hP9bjhfwlMAoeddG12LS5HSZAckXzLV\nRQK4jM/YOU1adbKFGXXHJKzBCUPwC2udm2YTxlEq33tKe5rgAFbywzielbYreqN9\nBPxIMJ2Nay0PdsjpqeGCbqPXY/P1ojItLbiiQ7gFxorqmGHePE3Kq2fK7XhzT1Kp\n7rcVUM/wLZEhwvNn+eH2Q+pkWgMYzmpBOnUR8mLo3jRHBZ46Z80ZMFyj2TtZrr93\na3+6bQX+eVjEU9djiIOxuNJ42VBQA4Dzbo+rSGh8s+wXJwIRc26MAjUJzSxkWhI=\n=qaFN\n-----END PGP SIGNATURE-----\n",
                    "verified": true
                }
            },
            "committer": {
                "avatar_url": "https://avatars.githubusercontent.com/u/19864447?v=4",
                "events_url": "https://api.github.com/users/web-flow/events{/privacy}",
                "followers_url": "https://api.github.com/users/web-flow/followers",
                "following_url": "https://api.github.com/users/web-flow/following{/other_user}",
                "gists_url": "https://api.github.com/users/web-flow/gists{/gist_id}",
                "gravatar_id": "",
                "html_url": "https://github.com/web-flow",
                "id": 19864447,
                "login": "web-flow",
                "node_id": "MDQ6VXNlcjE5ODY0NDQ3",
                "organizations_url": "https://api.github.com/users/web-flow/orgs",
                "received_events_url": "https://api.github.com/users/web-flow/received_events",
                "repos_url": "https://api.github.com/users/web-flow/repos",
                "site_admin": false,
                "starred_url": "https://api.github.com/users/web-flow/starred{/owner}{/repo}",
                "subscriptions_url": "https://api.github.com/users/web-flow/subscriptions",
                "type": "User",
                "url": "https://api.github.com/users/web-flow"
            },
            "html_url": "https://github.com/PrismarineJS/mineflayer-statemachine/commit/9c11d78fb792b0ec62feaa62eb0e5e3263b8ed62",
            "node_id": "C_kwDOEDj3S9oAKDljMTFkNzhmYjc5MmIwZWM2MmZlYWE2MmViMGU1ZTMyNjNiOGVkNjI",
            "parents": [
                {
                    "html_url": "https://github.com/PrismarineJS/mineflayer-statemachine/commit/4e68f27e8ae2e145323aec06af82729703e34fa3",
                    "sha": "4e68f27e8ae2e145323aec06af82729703e34fa3",
                    "url": "https://api.github.com/repos/PrismarineJS/mineflayer-statemachine/commits/4e68f27e8ae2e145323aec06af82729703e34fa3"
                }
            ],
            "sha": "9c11d78fb792b0ec62feaa62eb0e5e3263b8ed62",
            "url": "https://api.github.com/repos/PrismarineJS/mineflayer-statemachine/commits/9c11d78fb792b0ec62feaa62eb0e5e3263b8ed62"
        }
    ],
    "commits": 1,
    "commits_url": "https://api.github.com/repos/PrismarineJS/mineflayer-statemachine/pulls/158/commits",
    "created_at": "2022-09-09T16:14:06Z",
    "deletions": 1,
    "diff_url": "https://github.com/PrismarineJS/mineflayer-statemachine/pull/158.diff",
    "draft": false,
    "head": {
        "label": "PrismarineJS:dependabot/npm_and_yarn/node-18.9.0",
        "ref": "dependabot/npm_and_yarn/node-18.9.0",
        "repo": {
            "allow_forking": true,
            "archive_url": "https://api.github.com/repos/PrismarineJS/mineflayer-statemachine/{archive_format}{/ref}",
            "archived": false,
            "assignees_url": "https://api.github.com/repos/PrismarineJS/mineflayer-statemachine/assignees{/user}",
            "blobs_url": "https://api.github.com/repos/PrismarineJS/mineflayer-statemachine/git/blobs{/sha}",
            "branches_url": "https://api.github.com/repos/PrismarineJS/mineflayer-statemachine/branches{/branch}",
            "clone_url": "https://github.com/PrismarineJS/mineflayer-statemachine.git",
            "collaborators_url": "https://api.github.com/repos/PrismarineJS/mineflayer-statemachine/collaborators{/collaborator}",
            "comments_url": "https://api.github.com/repos/PrismarineJS/mineflayer-statemachine/comments{/number}",
            "commits_url": "https://api.github.com/repos/PrismarineJS/mineflayer-statemachine/commits{/sha}",
            "compare_url": "https://api.github.com/repos/PrismarineJS/mineflayer-statemachine/compare/{base}...{head}",
            "contents_url": "https://api.github.com/repos/PrismarineJS/mineflayer-statemachine/contents/{+path}",
            "contributors_url": "https://api.github.com/repos/PrismarineJS/mineflayer-statemachine/contributors",
            "created_at": "2020-06-14T09:15:31Z",
            "default_branch": "master",
            "deployments_url": "https://api.github.com/repos/PrismarineJS/mineflayer-statemachine/deployments",
            "description": "A state machine plugin for Mineflayer to aid in designing more complex behavior trees.",
            "disabled": false,
            "downloads_url": "https://api.github.com/repos/PrismarineJS/mineflayer-statemachine/downloads",
            "events_url": "https://api.github.com/repos/PrismarineJS/mineflayer-statemachine/events",
            "fork": false,
            "forks": 22,
            "forks_count": 22,
            "forks_url": "https://api.github.com/repos/PrismarineJS/mineflayer-statemachine/forks",
            "full_name": "PrismarineJS/mineflayer-statemachine",
            "git_commits_url": "https://api.github.com/repos/PrismarineJS/mineflayer-statemachine/git/commits{/sha}",
            "git_refs_url": "https://api.github.com/repos/PrismarineJS/mineflayer-statemachine/git/refs{/sha}",
            "git_tags_url": "https://api.github.com/repos/PrismarineJS/mineflayer-statemachine/git/tags{/sha}",
            "git_url": "git://github.com/PrismarineJS/mineflayer-statemachine.git",
            "has_discussions": false,
            "has_downloads": true,
            "has_issues": true,
            "has_pages": true,
            "has_projects": false,
            "has_wiki": false,
            "homepage": "https://thedudefromci.github.io/mineflayer-statemachine/",
            "hooks_url": "https://api.github.com/repos/PrismarineJS/mineflayer-statemachine/hooks",
            "html_url": "https://github.com/PrismarineJS/mineflayer-statemachine",
            "id": 272168779,
            "is_template": false,
            "issue_comment_url": "https://api.github.com/repos/PrismarineJS/mineflayer-statemachine/issues/comments{/number}",
            "issue_events_url": "https://api.github.com/repos/PrismarineJS/mineflayer-statemachine/issues/events{/number}",
            "issues_url": "https://api.github.com/repos/PrismarineJS/mineflayer-statemachine/issues{/number}",
            "keys_url": "https://api.github.com/repos/PrismarineJS/mineflayer-statemachine/keys{/key_id}",
            "labels_url": "https://api.github.com/repos/PrismarineJS/mineflayer-statemachine/labels{/name}",
            "language": "TypeScript",
            "languages_url": "https://api.github.com/repos/PrismarineJS/mineflayer-statemachine/languages",
            "license": {
                "key": "mit",
                "name": "MIT License",
                "node_id": "MDc6TGljZW5zZTEz",
                "spdx_id": "MIT",
                "url": "https://api.github.com/licenses/mit"
            },
            "merges_url": "https://api.github.com/repos/PrismarineJS/mineflayer-statemachine/merges",
            "milestones_url": "https://api.github.com/repos/PrismarineJS/mineflayer-statemachine/milestones{/number}",
            "mirror_url": null,
            "name": "mineflayer-statemachine",
            "node_id": "MDEwOlJlcG9zaXRvcnkyNzIxNjg3Nzk=",
            "notifications_url": "https://api.github.com/repos/PrismarineJS/mineflayer-statemachine/notifications{?since,all,participating}",
            "open_issues": 19,
            "open_issues_count": 19,
            "owner": {
                "avatar_url": "https://avatars.githubusercontent.com/u/11053411?v=4",
                "events_url": "https://api.github.com/users/PrismarineJS/events{/privacy}",
                "followers_url": "https://api.github.com/users/PrismarineJS/followers",
                "following_url": "https://api.github.com/users/PrismarineJS/following{/other_user}",
                "gists_url": "https://api.github.com/users/PrismarineJS/gists{/gist_id}",
                "gravatar_id": "",
                "html_url": "https://github.com/PrismarineJS",
                "id": 11053411,
                "login": "PrismarineJS",
                "node_id": "MDEyOk9yZ2FuaXphdGlvbjExMDUzNDEx",
                "organizations_url": "https://api.github.com/users/PrismarineJS/orgs",
                "received_events_url": "https://api.github.com/users/PrismarineJS/received_events",
                "repos_url": "https://api.github.com/users/PrismarineJS/repos",
                "site_admin": false,
                "starred_url": "https://api.github.com/users/PrismarineJS/starred{/owner}{/repo}",
                "subscriptions_url": "https://api.github.com/users/PrismarineJS/subscriptions",
                "type": "Organization",
                "url": "https://api.github.com/users/PrismarineJS"
            },
            "private": false,
            "pulls_url": "https://api.github.com/repos/PrismarineJS/mineflayer-statemachine/pulls{/number}",
            "pushed_at": "2023-04-10T16:58:45Z",
            "releases_url": "https://api.github.com/repos/PrismarineJS/mineflayer-statemachine/releases{/id}",
            "size": 652,
            "ssh_url": "git@github.com:PrismarineJS/mineflayer-statemachine.git",
            "stargazers_count": 74,
            "stargazers_url": "https://api.github.com/repos/PrismarineJS/mineflayer-statemachine/stargazers",
            "statuses_url": "https://api.github.com/repos/PrismarineJS/mineflayer-statemachine/statuses/{sha}",
            "subscribers_url": "https://api.github.com/repos/PrismarineJS/mineflayer-statemachine/subscribers",
            "subscription_url": "https://api.github.com/repos/PrismarineJS/mineflayer-statemachine/subscription",
            "svn_url": "https://github.com/PrismarineJS/mineflayer-statemachine",
            "tags_url": "https://api.github.com/repos/PrismarineJS/mineflayer-statemachine/tags",
            "teams_url": "https://api.github.com/repos/PrismarineJS/mineflayer-statemachine/teams",
            "topics": [
                "ai",
                "bot",
                "minecraft",
                "mineflayer",
                "state-machine"
            ],
            "trees_url": "https://api.github.com/repos/PrismarineJS/mineflayer-statemachine/git/trees{/sha}",
            "updated_at": "2023-04-24T19:33:38Z",
            "url": "https://api.github.com/repos/PrismarineJS/mineflayer-statemachine",
            "visibility": "public",
            "watchers": 74,
            "watchers_count": 74,
            "web_commit_signoff_required": false
        },
        "sha": "9c11d78fb792b0ec62feaa62eb0e5e3263b8ed62",
        "user": {
            "avatar_url": "https://avatars.githubusercontent.com/u/11053411?v=4",
            "events_url": "https://api.github.com/users/PrismarineJS/events{/privacy}",
            "followers_url": "https://api.github.com/users/PrismarineJS/followers",
            "following_url": "https://api.github.com/users/PrismarineJS/following{/other_user}",
            "gists_url": "https://api.github.com/users/PrismarineJS/gists{/gist_id}",
            "gravatar_id": "",
            "html_url": "https://github.com/PrismarineJS",
            "id": 11053411,
            "login": "PrismarineJS",
            "node_id": "MDEyOk9yZ2FuaXphdGlvbjExMDUzNDEx",
            "organizations_url": "https://api.github.com/users/PrismarineJS/orgs",
            "received_events_url": "https://api.github.com/users/PrismarineJS/received_events",
            "repos_url": "https://api.github.com/users/PrismarineJS/repos",
            "site_admin": false,
            "starred_url": "https://api.github.com/users/PrismarineJS/starred{/owner}{/repo}",
            "subscriptions_url": "https://api.github.com/users/PrismarineJS/subscriptions",
            "type": "Organization",
            "url": "https://api.github.com/users/PrismarineJS"
        }
    },
    "html_url": "https://github.com/PrismarineJS/mineflayer-statemachine/pull/158",
    "id": 1051765874,
    "issue_url": "https://api.github.com/repos/PrismarineJS/mineflayer-statemachine/issues/158",
    "labels": [
        {
            "color": "0366d6",
            "default": false,
            "description": "Pull requests that update a dependency file",
            "id": 2474648259,
            "name": "dependencies",
            "node_id": "MDU6TGFiZWwyNDc0NjQ4MjU5",
            "url": "https://api.github.com/repos/PrismarineJS/mineflayer-statemachine/labels/dependencies"
        }
    ],
    "locked": false,
    "maintainer_can_modify": false,
    "merge_commit_sha": "5f80b2b307ef4ad53c71a174d740f3d09c541896",
    "mergeable": null,
    "mergeable_state": "unknown",
    "merged": false,
    "merged_at": null,
    "merged_by": null,
    "milestone": null,
    "node_id": "PR_kwDOEDj3S84-sKxy",
    "number": 158,
    "patch_url": "https://github.com/PrismarineJS/mineflayer-statemachine/pull/158.patch",
    "rebaseable": null,
    "requested_reviewers": [],
    "requested_teams": [],
    "review_comment_url": "https://api.github.com/repos/PrismarineJS/mineflayer-statemachine/pulls/comments{/number}",
    "review_comments": 0,
    "review_comments_url": "https://api.github.com/repos/PrismarineJS/mineflayer-statemachine/pulls/158/comments",
    "state": "closed",
    "statuses_url": "https://api.github.com/repos/PrismarineJS/mineflayer-statemachine/statuses/9c11d78fb792b0ec62feaa62eb0e5e3263b8ed62",
    "title": "Bump node from 16.17.0 to 18.9.0",
    "updated_at": "2022-09-26T16:14:36Z",
    "url": "https://api.github.com/repos/PrismarineJS/mineflayer-statemachine/pulls/158",
    "user": {
        "avatar_url": "https://avatars.githubusercontent.com/in/29110?v=4",
        "events_url": "https://api.github.com/users/dependabot%5Bbot%5D/events{/privacy}",
        "followers_url": "https://api.github.com/users/dependabot%5Bbot%5D/followers",
        "following_url": "https://api.github.com/users/dependabot%5Bbot%5D/following{/other_user}",
        "gists_url": "https://api.github.com/users/dependabot%5Bbot%5D/gists{/gist_id}",
        "gravatar_id": "",
        "html_url": "https://github.com/apps/dependabot",
        "id": 49699333,
        "login": "dependabot[bot]",
        "node_id": "MDM6Qm90NDk2OTkzMzM=",
        "organizations_url": "https://api.github.com/users/dependabot%5Bbot%5D/orgs",
        "received_events_url": "https://api.github.com/users/dependabot%5Bbot%5D/received_events",
        "repos_url": "https://api.github.com/users/dependabot%5Bbot%5D/repos",
        "site_admin": false,
        "starred_url": "https://api.github.com/users/dependabot%5Bbot%5D/starred{/owner}{/repo}",
        "subscriptions_url": "https://api.github.com/users/dependabot%5Bbot%5D/subscriptions",
        "type": "Bot",
        "url": "https://api.github.com/users/dependabot%5Bbot%5D"
    }
}