{
    "_links": {
        "comments": {
            "href": "https://api.github.com/repos/PrismarineJS/mineflayer-statemachine/issues/180/comments"
        },
        "commits": {
            "href": "https://api.github.com/repos/PrismarineJS/mineflayer-statemachine/pulls/180/commits"
        },
        "html": {
            "href": "https://github.com/PrismarineJS/mineflayer-statemachine/pull/180"
        },
        "issue": {
            "href": "https://api.github.com/repos/PrismarineJS/mineflayer-statemachine/issues/180"
        },
        "review_comment": {
            "href": "https://api.github.com/repos/PrismarineJS/mineflayer-statemachine/pulls/comments{/number}"
        },
        "review_comments": {
            "href": "https://api.github.com/repos/PrismarineJS/mineflayer-statemachine/pulls/180/comments"
        },
        "self": {
            "href": "https://api.github.com/repos/PrismarineJS/mineflayer-statemachine/pulls/180"
        },
        "statuses": {
            "href": "https://api.github.com/repos/PrismarineJS/mineflayer-statemachine/statuses/a2762da8c48b6ea36f3b113bcfdf70cb2f02484e"
        }
    },
    "active_lock_reason": null,
    "additions": 1,
    "assignee": null,
    "assignees": [],
    "author_association": "CONTRIBUTOR",
    "auto_merge": null,
    "base": {
        "label": "PrismarineJS:master",
        "ref": "master",
        "repo": {
            "allow_forking": true,
            "archive_url": "https://api.github.com/repos/PrismarineJS/mineflayer-statemachine/{archive_format}{/ref}",
            "archived": false,
            "assignees_url": "https://api.github.com/repos/PrismarineJS/mineflayer-statemachine/assignees{/user}",
            "blobs_url": "https://api.github.com/repos/PrismarineJS/mineflayer-statemachine/git/blobs{/sha}",
            "branches_url": "https://api.github.com/repos/PrismarineJS/mineflayer-statemachine/branches{/branch}",
            "clone_url": "https://github.com/PrismarineJS/mineflayer-statemachine.git",
            "collaborators_url": "https://api.github.com/repos/PrismarineJS/mineflayer-statemachine/collaborators{/collaborator}",
            "comments_url": "https://api.github.com/repos/PrismarineJS/mineflayer-statemachine/comments{/number}",
            "commits_url": "https://api.github.com/repos/PrismarineJS/mineflayer-statemachine/commits{/sha}",
            "compare_url": "https://api.github.com/repos/PrismarineJS/mineflayer-statemachine/compare/{base}...{head}",
            "contents_url": "https://api.github.com/repos/PrismarineJS/mineflayer-statemachine/contents/{+path}",
            "contributors_url": "https://api.github.com/repos/PrismarineJS/mineflayer-statemachine/contributors",
            "created_at": "2020-06-14T09:15:31Z",
            "default_branch": "master",
            "deployments_url": "https://api.github.com/repos/PrismarineJS/mineflayer-statemachine/deployments",
            "description": "A state machine plugin for Mineflayer to aid in designing more complex behavior trees.",
            "disabled": false,
            "downloads_url": "https://api.github.com/repos/PrismarineJS/mineflayer-statemachine/downloads",
            "events_url": "https://api.github.com/repos/PrismarineJS/mineflayer-statemachine/events",
            "fork": false,
            "forks": 22,
            "forks_count": 22,
            "forks_url": "https://api.github.com/repos/PrismarineJS/mineflayer-statemachine/forks",
            "full_name": "PrismarineJS/mineflayer-statemachine",
            "git_commits_url": "https://api.github.com/repos/PrismarineJS/mineflayer-statemachine/git/commits{/sha}",
            "git_refs_url": "https://api.github.com/repos/PrismarineJS/mineflayer-statemachine/git/refs{/sha}",
            "git_tags_url": "https://api.github.com/repos/PrismarineJS/mineflayer-statemachine/git/tags{/sha}",
            "git_url": "git://github.com/PrismarineJS/mineflayer-statemachine.git",
            "has_discussions": false,
            "has_downloads": true,
            "has_issues": true,
            "has_pages": true,
            "has_projects": false,
            "has_wiki": false,
            "homepage": "https://thedudefromci.github.io/mineflayer-statemachine/",
            "hooks_url": "https://api.github.com/repos/PrismarineJS/mineflayer-statemachine/hooks",
            "html_url": "https://github.com/PrismarineJS/mineflayer-statemachine",
            "id": 272168779,
            "is_template": false,
            "issue_comment_url": "https://api.github.com/repos/PrismarineJS/mineflayer-statemachine/issues/comments{/number}",
            "issue_events_url": "https://api.github.com/repos/PrismarineJS/mineflayer-statemachine/issues/events{/number}",
            "issues_url": "https://api.github.com/repos/PrismarineJS/mineflayer-statemachine/issues{/number}",
            "keys_url": "https://api.github.com/repos/PrismarineJS/mineflayer-statemachine/keys{/key_id}",
            "labels_url": "https://api.github.com/repos/PrismarineJS/mineflayer-statemachine/labels{/name}",
            "language": "TypeScript",
            "languages_url": "https://api.github.com/repos/PrismarineJS/mineflayer-statemachine/languages",
            "license": {
                "key": "mit",
                "name": "MIT License",
                "node_id": "MDc6TGljZW5zZTEz",
                "spdx_id": "MIT",
                "url": "https://api.github.com/licenses/mit"
            },
            "merges_url": "https://api.github.com/repos/PrismarineJS/mineflayer-statemachine/merges",
            "milestones_url": "https://api.github.com/repos/PrismarineJS/mineflayer-statemachine/milestones{/number}",
            "mirror_url": null,
            "name": "mineflayer-statemachine",
            "node_id": "MDEwOlJlcG9zaXRvcnkyNzIxNjg3Nzk=",
            "notifications_url": "https://api.github.com/repos/PrismarineJS/mineflayer-statemachine/notifications{?since,all,participating}",
            "open_issues": 20,
            "open_issues_count": 20,
            "owner": {
                "avatar_url": "https://avatars.githubusercontent.com/u/11053411?v=4",
                "events_url": "https://api.github.com/users/PrismarineJS/events{/privacy}",
                "followers_url": "https://api.github.com/users/PrismarineJS/followers",
                "following_url": "https://api.github.com/users/PrismarineJS/following{/other_user}",
                "gists_url": "https://api.github.com/users/PrismarineJS/gists{/gist_id}",
                "gravatar_id": "",
                "html_url": "https://github.com/PrismarineJS",
                "id": 11053411,
                "login": "PrismarineJS",
                "node_id": "MDEyOk9yZ2FuaXphdGlvbjExMDUzNDEx",
                "organizations_url": "https://api.github.com/users/PrismarineJS/orgs",
                "received_events_url": "https://api.github.com/users/PrismarineJS/received_events",
                "repos_url": "https://api.github.com/users/PrismarineJS/repos",
                "site_admin": false,
                "starred_url": "https://api.github.com/users/PrismarineJS/starred{/owner}{/repo}",
                "subscriptions_url": "https://api.github.com/users/PrismarineJS/subscriptions",
                "type": "Organization",
                "url": "https://api.github.com/users/PrismarineJS"
            },
            "private": false,
            "pulls_url": "https://api.github.com/repos/PrismarineJS/mineflayer-statemachine/pulls{/number}",
            "pushed_at": "2023-05-04T16:58:04Z",
            "releases_url": "https://api.github.com/repos/PrismarineJS/mineflayer-statemachine/releases{/id}",
            "size": 654,
            "ssh_url": "git@github.com:PrismarineJS/mineflayer-statemachine.git",
            "stargazers_count": 76,
            "stargazers_url": "https://api.github.com/repos/PrismarineJS/mineflayer-statemachine/stargazers",
            "statuses_url": "https://api.github.com/repos/PrismarineJS/mineflayer-statemachine/statuses/{sha}",
            "subscribers_url": "https://api.github.com/repos/PrismarineJS/mineflayer-statemachine/subscribers",
            "subscription_url": "https://api.github.com/repos/PrismarineJS/mineflayer-statemachine/subscription",
            "svn_url": "https://github.com/PrismarineJS/mineflayer-statemachine",
            "tags_url": "https://api.github.com/repos/PrismarineJS/mineflayer-statemachine/tags",
            "teams_url": "https://api.github.com/repos/PrismarineJS/mineflayer-statemachine/teams",
            "topics": [
                "ai",
                "bot",
                "minecraft",
                "mineflayer",
                "state-machine"
            ],
            "trees_url": "https://api.github.com/repos/PrismarineJS/mineflayer-statemachine/git/trees{/sha}",
            "updated_at": "2023-05-03T06:59:38Z",
            "url": "https://api.github.com/repos/PrismarineJS/mineflayer-statemachine",
            "visibility": "public",
            "watchers": 76,
            "watchers_count": 76,
            "web_commit_signoff_required": false
        },
        "sha": "836c8693d9bf9ba66d5c07046b08debe416a0789",
        "user": {
            "avatar_url": "https://avatars.githubusercontent.com/u/11053411?v=4",
            "events_url": "https://api.github.com/users/PrismarineJS/events{/privacy}",
            "followers_url": "https://api.github.com/users/PrismarineJS/followers",
            "following_url": "https://api.github.com/users/PrismarineJS/following{/other_user}",
            "gists_url": "https://api.github.com/users/PrismarineJS/gists{/gist_id}",
            "gravatar_id": "",
            "html_url": "https://github.com/PrismarineJS",
            "id": 11053411,
            "login": "PrismarineJS",
            "node_id": "MDEyOk9yZ2FuaXphdGlvbjExMDUzNDEx",
            "organizations_url": "https://api.github.com/users/PrismarineJS/orgs",
            "received_events_url": "https://api.github.com/users/PrismarineJS/received_events",
            "repos_url": "https://api.github.com/users/PrismarineJS/repos",
            "site_admin": false,
            "starred_url": "https://api.github.com/users/PrismarineJS/starred{/owner}{/repo}",
            "subscriptions_url": "https://api.github.com/users/PrismarineJS/subscriptions",
            "type": "Organization",
            "url": "https://api.github.com/users/PrismarineJS"
        }
    },
    "body": "Bumps [node](https://github.com/aredridel/node-bin-gen) from 19.8.1 to 20.0.0.\n<details>\n<summary>Commits</summary>\n<ul>\n<li>See full diff in <a href=\"https://github.com/aredridel/node-bin-gen/commits\">compare view</a></li>\n</ul>\n</details>\n<br />\n\n\n[![Dependabot compatibility score](https://dependabot-badges.githubapp.com/badges/compatibility_score?dependency-name=node&package-manager=npm_and_yarn&previous-version=19.8.1&new-version=20.0.0)](https://docs.github.com/en/github/managing-security-vulnerabilities/about-dependabot-security-updates#about-compatibility-scores)\n\nDependabot will resolve any conflicts with this PR as long as you don't alter it yourself. You can also trigger a rebase manually by commenting `@dependabot rebase`.\n\n[//]: # (dependabot-automerge-start)\n[//]: # (dependabot-automerge-end)\n\n---\n\n<details>\n<summary>Dependabot commands and options</summary>\n<br />\n\nYou can trigger Dependabot actions by commenting on this PR:\n- `@dependabot rebase` will rebase this PR\n- `@dependabot recreate` will recreate this PR, overwriting any edits that have been made to it\n- `@dependabot merge` will merge this PR after your CI passes on it\n- `@dependabot squash and merge` will squash and merge this PR after your CI passes on it\n- `@dependabot cancel merge` will cancel a previously requested merge and block automerging\n- `@dependabot reopen` will reopen this PR if it is closed\n- `@dependabot close` will close this PR and stop Dependabot recreating it. You can achieve the same result by closing it manually\n- `@dependabot ignore this major version` will close this PR and stop Dependabot creating any more for this major version (unless you reopen the PR or upgrade to it yourself)\n- `@dependabot ignore this minor version` will close this PR and stop Dependabot creating any more for this minor version (unless you reopen the PR or upgrade to it yourself)\n- `@dependabot ignore this dependency` will close this PR and stop Dependabot creating any more for this dependency (unless you reopen the PR or upgrade to it yourself)\n\n\n</details>",
    "changed_files": 1,
    "closed_at": "2023-05-04T16:58:03Z",
    "comment_data": [],
    "comment_regular_data": [
        {
            "author_association": "NONE",
            "body": "**New dependency changes detected.** Learn more about [Socket for GitHub ↗︎](https://socket.dev)\n\n***\n👍 No new dependency issues detected in pull request\n\n<details>\n<summary>\n<strong>Bot Commands</strong>\n</summary>\n<p>To ignore an alert, reply with a comment starting with <code>@SocketSecurity ignore</code> followed by a space separated list of <code>package-name@version</code> specifiers. e.g. <code>@SocketSecurity ignore foo@1.0.0 bar@*</code> or ignore all packages with <code>@SocketSecurity ignore-all</code></p>\n<ul>\n</ul>\n\n\n<p>⚠️ Please accept the latest app permissions to ensure bot commands work properly. Accept the new permissions <a href=\"https://github.com/organizations/PrismarineJS/settings/installations/24271767/permissions/update\">here</a>.</p>\n</details>\n<details>\n<summary>\n<strong>Pull request alert summary</strong>\n</summary>\n<table>\n<thead>\n<tr>\n<th>Issue</th>\n<th>Status</th>\n</tr>\n</thead>\n<tbody>\n<tr>\n<td><a href='https://socket.dev/npm/issue/installScripts'>Install scripts</a></td>\n<td>✅ 0 issues</td>\n</tr>\n<tr>\n<td><a href='https://socket.dev/npm/issue/hasNativeCode'>Native code</a></td>\n<td>✅ 0 issues</td>\n</tr>\n<tr>\n<td><a href='https://socket.dev/npm/issue/shellScriptOverride'>Bin script shell injection</a></td>\n<td>✅ 0 issues</td>\n</tr>\n<tr>\n<td><a href='https://socket.dev/npm/issue/unresolvedRequire'>Unresolved require</a></td>\n<td>✅ 0 issues</td>\n</tr>\n<tr>\n<td><a href='https://socket.dev/npm/issue/invalidPackageJSON'>Invalid package.json</a></td>\n<td>✅ 0 issues</td>\n</tr>\n<tr>\n<td><a href='https://socket.dev/npm/issue/httpDependency'>HTTP dependency</a></td>\n<td>✅ 0 issues</td>\n</tr>\n<tr>\n<td><a href='https://socket.dev/npm/issue/gitDependency'>Git dependency</a></td>\n<td>✅ 0 issues</td>\n</tr>\n<tr>\n<td><a href='https://socket.dev/npm/issue/didYouMean'>Potential typo squat</a></td>\n<td>✅ 0 issues</td>\n</tr>\n<tr>\n<td><a href='https://socket.dev/npm/issue/malware'>Known Malware</a></td>\n<td>✅ 0 issues</td>\n</tr>\n<tr>\n<td><a href='https://socket.dev/npm/issue/telemetry'>Telemetry</a></td>\n<td>✅ 0 issues</td>\n</tr>\n<tr>\n<td><a href='https://socket.dev/npm/issue/troll'>Protestware/Troll package</a></td>\n<td>✅ 0 issues</td>\n</tr>\n</tbody>\n</table>\n</details>\n\n\n\n***\n\n\n**📊 Modified Dependency Overview:**\n\n\n\n| ⬆️ Updated Package | Version Diff | Added Capability Access | `+/-` Transitive Count | Publisher |\n| --- | --- | --- | --- | --- |\n| [node@20.0.0](https://socket.dev/npm/package/node/overview/20.0.0) | [19.8.1...20.0.0](https://socket.dev/npm/package/node/diff/20.0.0?from=19.8.1) | None | `+0/-0` | [aredridel](https://socket.dev/npm/user/aredridel) |",
            "created_at": "2023-05-01T17:00:59Z",
            "html_url": "https://github.com/PrismarineJS/mineflayer-statemachine/pull/180#issuecomment-1529952525",
            "id": 1529952525,
            "issue_url": "https://api.github.com/repos/PrismarineJS/mineflayer-statemachine/issues/180",
            "node_id": "IC_kwDOEDj3S85bMTkN",
            "performed_via_github_app": null,
            "reactions": {
                "+1": 0,
                "-1": 0,
                "confused": 0,
                "eyes": 0,
                "heart": 0,
                "hooray": 0,
                "laugh": 0,
                "rocket": 0,
                "total_count": 0,
                "url": "https://api.github.com/repos/PrismarineJS/mineflayer-statemachine/issues/comments/1529952525/reactions"
            },
            "updated_at": "2023-05-01T17:00:59Z",
            "url": "https://api.github.com/repos/PrismarineJS/mineflayer-statemachine/issues/comments/1529952525",
            "user": {
                "avatar_url": "https://avatars.githubusercontent.com/in/156372?v=4",
                "events_url": "https://api.github.com/users/socket-security%5Bbot%5D/events{/privacy}",
                "followers_url": "https://api.github.com/users/socket-security%5Bbot%5D/followers",
                "following_url": "https://api.github.com/users/socket-security%5Bbot%5D/following{/other_user}",
                "gists_url": "https://api.github.com/users/socket-security%5Bbot%5D/gists{/gist_id}",
                "gravatar_id": "",
                "html_url": "https://github.com/apps/socket-security",
                "id": 95510084,
                "login": "socket-security[bot]",
                "node_id": "BOT_kgDOBbFeRA",
                "organizations_url": "https://api.github.com/users/socket-security%5Bbot%5D/orgs",
                "received_events_url": "https://api.github.com/users/socket-security%5Bbot%5D/received_events",
                "repos_url": "https://api.github.com/users/socket-security%5Bbot%5D/repos",
                "site_admin": false,
                "starred_url": "https://api.github.com/users/socket-security%5Bbot%5D/starred{/owner}{/repo}",
                "subscriptions_url": "https://api.github.com/users/socket-security%5Bbot%5D/subscriptions",
                "type": "Bot",
                "url": "https://api.github.com/users/socket-security%5Bbot%5D"
            }
        },
        {
            "author_association": "CONTRIBUTOR",
            "body": "Superseded by #181.",
            "created_at": "2023-05-04T16:58:02Z",
            "html_url": "https://github.com/PrismarineJS/mineflayer-statemachine/pull/180#issuecomment-1535085873",
            "id": 1535085873,
            "issue_url": "https://api.github.com/repos/PrismarineJS/mineflayer-statemachine/issues/180",
            "node_id": "IC_kwDOEDj3S85bf40x",
            "performed_via_github_app": null,
            "reactions": {
                "+1": 0,
                "-1": 0,
                "confused": 0,
                "eyes": 0,
                "heart": 0,
                "hooray": 0,
                "laugh": 0,
                "rocket": 0,
                "total_count": 0,
                "url": "https://api.github.com/repos/PrismarineJS/mineflayer-statemachine/issues/comments/1535085873/reactions"
            },
            "updated_at": "2023-05-04T16:58:02Z",
            "url": "https://api.github.com/repos/PrismarineJS/mineflayer-statemachine/issues/comments/1535085873",
            "user": {
                "avatar_url": "https://avatars.githubusercontent.com/in/29110?v=4",
                "events_url": "https://api.github.com/users/dependabot%5Bbot%5D/events{/privacy}",
                "followers_url": "https://api.github.com/users/dependabot%5Bbot%5D/followers",
                "following_url": "https://api.github.com/users/dependabot%5Bbot%5D/following{/other_user}",
                "gists_url": "https://api.github.com/users/dependabot%5Bbot%5D/gists{/gist_id}",
                "gravatar_id": "",
                "html_url": "https://github.com/apps/dependabot",
                "id": 49699333,
                "login": "dependabot[bot]",
                "node_id": "MDM6Qm90NDk2OTkzMzM=",
                "organizations_url": "https://api.github.com/users/dependabot%5Bbot%5D/orgs",
                "received_events_url": "https://api.github.com/users/dependabot%5Bbot%5D/received_events",
                "repos_url": "https://api.github.com/users/dependabot%5Bbot%5D/repos",
                "site_admin": false,
                "starred_url": "https://api.github.com/users/dependabot%5Bbot%5D/starred{/owner}{/repo}",
                "subscriptions_url": "https://api.github.com/users/dependabot%5Bbot%5D/subscriptions",
                "type": "Bot",
                "url": "https://api.github.com/users/dependabot%5Bbot%5D"
            }
        }
    ],
    "comments": 2,
    "comments_url": "https://api.github.com/repos/PrismarineJS/mineflayer-statemachine/issues/180/comments",
    "commit_data": [
        {
            "author": {
                "avatar_url": "https://avatars.githubusercontent.com/in/29110?v=4",
                "events_url": "https://api.github.com/users/dependabot%5Bbot%5D/events{/privacy}",
                "followers_url": "https://api.github.com/users/dependabot%5Bbot%5D/followers",
                "following_url": "https://api.github.com/users/dependabot%5Bbot%5D/following{/other_user}",
                "gists_url": "https://api.github.com/users/dependabot%5Bbot%5D/gists{/gist_id}",
                "gravatar_id": "",
                "html_url": "https://github.com/apps/dependabot",
                "id": 49699333,
                "login": "dependabot[bot]",
                "node_id": "MDM6Qm90NDk2OTkzMzM=",
                "organizations_url": "https://api.github.com/users/dependabot%5Bbot%5D/orgs",
                "received_events_url": "https://api.github.com/users/dependabot%5Bbot%5D/received_events",
                "repos_url": "https://api.github.com/users/dependabot%5Bbot%5D/repos",
                "site_admin": false,
                "starred_url": "https://api.github.com/users/dependabot%5Bbot%5D/starred{/owner}{/repo}",
                "subscriptions_url": "https://api.github.com/users/dependabot%5Bbot%5D/subscriptions",
                "type": "Bot",
                "url": "https://api.github.com/users/dependabot%5Bbot%5D"
            },
            "comments_url": "https://api.github.com/repos/PrismarineJS/mineflayer-statemachine/commits/a2762da8c48b6ea36f3b113bcfdf70cb2f02484e/comments",
            "commit": {
                "author": {
                    "date": "2023-05-01T16:59:39Z",
                    "email": "49699333+dependabot[bot]@users.noreply.github.com",
                    "name": "dependabot[bot]"
                },
                "comment_count": 0,
                "committer": {
                    "date": "2023-05-01T16:59:39Z",
                    "email": "noreply@github.com",
                    "name": "GitHub"
                },
                "message": "Bump node from 19.8.1 to 20.0.0\n\nBumps [node](https://github.com/aredridel/node-bin-gen) from 19.8.1 to 20.0.0.\n- [Release notes](https://github.com/aredridel/node-bin-gen/releases)\n- [Commits](https://github.com/aredridel/node-bin-gen/commits)\n\n---\nupdated-dependencies:\n- dependency-name: node\n  dependency-type: direct:production\n  update-type: version-update:semver-major\n...\n\nSigned-off-by: dependabot[bot] <support@github.com>",
                "tree": {
                    "sha": "ed4794a2ed27f5dd6f087e1230a2b758d7495f58",
                    "url": "https://api.github.com/repos/PrismarineJS/mineflayer-statemachine/git/trees/ed4794a2ed27f5dd6f087e1230a2b758d7495f58"
                },
                "url": "https://api.github.com/repos/PrismarineJS/mineflayer-statemachine/git/commits/a2762da8c48b6ea36f3b113bcfdf70cb2f02484e",
                "verification": {
                    "payload": "tree ed4794a2ed27f5dd6f087e1230a2b758d7495f58\nparent 836c8693d9bf9ba66d5c07046b08debe416a0789\nauthor dependabot[bot] <49699333+dependabot[bot]@users.noreply.github.com> 1682960379 +0000\ncommitter GitHub <noreply@github.com> 1682960379 +0000\n\nBump node from 19.8.1 to 20.0.0\n\nBumps [node](https://github.com/aredridel/node-bin-gen) from 19.8.1 to 20.0.0.\n- [Release notes](https://github.com/aredridel/node-bin-gen/releases)\n- [Commits](https://github.com/aredridel/node-bin-gen/commits)\n\n---\nupdated-dependencies:\n- dependency-name: node\n  dependency-type: direct:production\n  update-type: version-update:semver-major\n...\n\nSigned-off-by: dependabot[bot] <support@github.com>",
                    "reason": "valid",
                    "signature": "-----BEGIN PGP SIGNATURE-----\n\nwsBcBAABCAAQBQJkT+/7CRBK7hj4Ov3rIwAAwGQIAFXFf0AQZLGAt+PwIBsoG7po\nszoxgf/v0q8PbNGV/efnSSJqlGW+EAtN1/KF9TEdnTn706nnVG1ffwrZVHxq7MqY\nxjioLa3K+WrFvvxf3PkS2KZzSIZMboyzK3iQf9DhK2MHwi0xcNSFCRPRZnLMpRlm\n/CvuMIlSkeWU1tK6DDC6EkyvlXKrVqJZwHuXPUjDwKbFj4vUvCZvFquEsEeSbtjy\n5s6umh7q1fZERkn49DhTpeZE6Hcp7GaCGuSbCByqCgrENyKatNV28/USKcKxamRF\nf0cIGzDuaJv3zFhOqBKzn3A2WYuwIzGgExFxskRAKO8YKx5Rkm5PJsyp5scw11Q=\n=pizi\n-----END PGP SIGNATURE-----\n",
                    "verified": true
                }
            },
            "committer": {
                "avatar_url": "https://avatars.githubusercontent.com/u/19864447?v=4",
                "events_url": "https://api.github.com/users/web-flow/events{/privacy}",
                "followers_url": "https://api.github.com/users/web-flow/followers",
                "following_url": "https://api.github.com/users/web-flow/following{/other_user}",
                "gists_url": "https://api.github.com/users/web-flow/gists{/gist_id}",
                "gravatar_id": "",
                "html_url": "https://github.com/web-flow",
                "id": 19864447,
                "login": "web-flow",
                "node_id": "MDQ6VXNlcjE5ODY0NDQ3",
                "organizations_url": "https://api.github.com/users/web-flow/orgs",
                "received_events_url": "https://api.github.com/users/web-flow/received_events",
                "repos_url": "https://api.github.com/users/web-flow/repos",
                "site_admin": false,
                "starred_url": "https://api.github.com/users/web-flow/starred{/owner}{/repo}",
                "subscriptions_url": "https://api.github.com/users/web-flow/subscriptions",
                "type": "User",
                "url": "https://api.github.com/users/web-flow"
            },
            "html_url": "https://github.com/PrismarineJS/mineflayer-statemachine/commit/a2762da8c48b6ea36f3b113bcfdf70cb2f02484e",
            "node_id": "C_kwDOEDj3S9oAKGEyNzYyZGE4YzQ4YjZlYTM2ZjNiMTEzYmNmZGY3MGNiMmYwMjQ4NGU",
            "parents": [
                {
                    "html_url": "https://github.com/PrismarineJS/mineflayer-statemachine/commit/836c8693d9bf9ba66d5c07046b08debe416a0789",
                    "sha": "836c8693d9bf9ba66d5c07046b08debe416a0789",
                    "url": "https://api.github.com/repos/PrismarineJS/mineflayer-statemachine/commits/836c8693d9bf9ba66d5c07046b08debe416a0789"
                }
            ],
            "sha": "a2762da8c48b6ea36f3b113bcfdf70cb2f02484e",
            "url": "https://api.github.com/repos/PrismarineJS/mineflayer-statemachine/commits/a2762da8c48b6ea36f3b113bcfdf70cb2f02484e"
        }
    ],
    "commits": 1,
    "commits_url": "https://api.github.com/repos/PrismarineJS/mineflayer-statemachine/pulls/180/commits",
    "created_at": "2023-05-01T16:59:39Z",
    "deletions": 1,
    "diff_url": "https://github.com/PrismarineJS/mineflayer-statemachine/pull/180.diff",
    "draft": false,
    "head": {
        "label": "PrismarineJS:dependabot/npm_and_yarn/node-20.0.0",
        "ref": "dependabot/npm_and_yarn/node-20.0.0",
        "repo": {
            "allow_forking": true,
            "archive_url": "https://api.github.com/repos/PrismarineJS/mineflayer-statemachine/{archive_format}{/ref}",
            "archived": false,
            "assignees_url": "https://api.github.com/repos/PrismarineJS/mineflayer-statemachine/assignees{/user}",
            "blobs_url": "https://api.github.com/repos/PrismarineJS/mineflayer-statemachine/git/blobs{/sha}",
            "branches_url": "https://api.github.com/repos/PrismarineJS/mineflayer-statemachine/branches{/branch}",
            "clone_url": "https://github.com/PrismarineJS/mineflayer-statemachine.git",
            "collaborators_url": "https://api.github.com/repos/PrismarineJS/mineflayer-statemachine/collaborators{/collaborator}",
            "comments_url": "https://api.github.com/repos/PrismarineJS/mineflayer-statemachine/comments{/number}",
            "commits_url": "https://api.github.com/repos/PrismarineJS/mineflayer-statemachine/commits{/sha}",
            "compare_url": "https://api.github.com/repos/PrismarineJS/mineflayer-statemachine/compare/{base}...{head}",
            "contents_url": "https://api.github.com/repos/PrismarineJS/mineflayer-statemachine/contents/{+path}",
            "contributors_url": "https://api.github.com/repos/PrismarineJS/mineflayer-statemachine/contributors",
            "created_at": "2020-06-14T09:15:31Z",
            "default_branch": "master",
            "deployments_url": "https://api.github.com/repos/PrismarineJS/mineflayer-statemachine/deployments",
            "description": "A state machine plugin for Mineflayer to aid in designing more complex behavior trees.",
            "disabled": false,
            "downloads_url": "https://api.github.com/repos/PrismarineJS/mineflayer-statemachine/downloads",
            "events_url": "https://api.github.com/repos/PrismarineJS/mineflayer-statemachine/events",
            "fork": false,
            "forks": 22,
            "forks_count": 22,
            "forks_url": "https://api.github.com/repos/PrismarineJS/mineflayer-statemachine/forks",
            "full_name": "PrismarineJS/mineflayer-statemachine",
            "git_commits_url": "https://api.github.com/repos/PrismarineJS/mineflayer-statemachine/git/commits{/sha}",
            "git_refs_url": "https://api.github.com/repos/PrismarineJS/mineflayer-statemachine/git/refs{/sha}",
            "git_tags_url": "https://api.github.com/repos/PrismarineJS/mineflayer-statemachine/git/tags{/sha}",
            "git_url": "git://github.com/PrismarineJS/mineflayer-statemachine.git",
            "has_discussions": false,
            "has_downloads": true,
            "has_issues": true,
            "has_pages": true,
            "has_projects": false,
            "has_wiki": false,
            "homepage": "https://thedudefromci.github.io/mineflayer-statemachine/",
            "hooks_url": "https://api.github.com/repos/PrismarineJS/mineflayer-statemachine/hooks",
            "html_url": "https://github.com/PrismarineJS/mineflayer-statemachine",
            "id": 272168779,
            "is_template": false,
            "issue_comment_url": "https://api.github.com/repos/PrismarineJS/mineflayer-statemachine/issues/comments{/number}",
            "issue_events_url": "https://api.github.com/repos/PrismarineJS/mineflayer-statemachine/issues/events{/number}",
            "issues_url": "https://api.github.com/repos/PrismarineJS/mineflayer-statemachine/issues{/number}",
            "keys_url": "https://api.github.com/repos/PrismarineJS/mineflayer-statemachine/keys{/key_id}",
            "labels_url": "https://api.github.com/repos/PrismarineJS/mineflayer-statemachine/labels{/name}",
            "language": "TypeScript",
            "languages_url": "https://api.github.com/repos/PrismarineJS/mineflayer-statemachine/languages",
            "license": {
                "key": "mit",
                "name": "MIT License",
                "node_id": "MDc6TGljZW5zZTEz",
                "spdx_id": "MIT",
                "url": "https://api.github.com/licenses/mit"
            },
            "merges_url": "https://api.github.com/repos/PrismarineJS/mineflayer-statemachine/merges",
            "milestones_url": "https://api.github.com/repos/PrismarineJS/mineflayer-statemachine/milestones{/number}",
            "mirror_url": null,
            "name": "mineflayer-statemachine",
            "node_id": "MDEwOlJlcG9zaXRvcnkyNzIxNjg3Nzk=",
            "notifications_url": "https://api.github.com/repos/PrismarineJS/mineflayer-statemachine/notifications{?since,all,participating}",
            "open_issues": 20,
            "open_issues_count": 20,
            "owner": {
                "avatar_url": "https://avatars.githubusercontent.com/u/11053411?v=4",
                "events_url": "https://api.github.com/users/PrismarineJS/events{/privacy}",
                "followers_url": "https://api.github.com/users/PrismarineJS/followers",
                "following_url": "https://api.github.com/users/PrismarineJS/following{/other_user}",
                "gists_url": "https://api.github.com/users/PrismarineJS/gists{/gist_id}",
                "gravatar_id": "",
                "html_url": "https://github.com/PrismarineJS",
                "id": 11053411,
                "login": "PrismarineJS",
                "node_id": "MDEyOk9yZ2FuaXphdGlvbjExMDUzNDEx",
                "organizations_url": "https://api.github.com/users/PrismarineJS/orgs",
                "received_events_url": "https://api.github.com/users/PrismarineJS/received_events",
                "repos_url": "https://api.github.com/users/PrismarineJS/repos",
                "site_admin": false,
                "starred_url": "https://api.github.com/users/PrismarineJS/starred{/owner}{/repo}",
                "subscriptions_url": "https://api.github.com/users/PrismarineJS/subscriptions",
                "type": "Organization",
                "url": "https://api.github.com/users/PrismarineJS"
            },
            "private": false,
            "pulls_url": "https://api.github.com/repos/PrismarineJS/mineflayer-statemachine/pulls{/number}",
            "pushed_at": "2023-05-04T16:58:04Z",
            "releases_url": "https://api.github.com/repos/PrismarineJS/mineflayer-statemachine/releases{/id}",
            "size": 654,
            "ssh_url": "git@github.com:PrismarineJS/mineflayer-statemachine.git",
            "stargazers_count": 76,
            "stargazers_url": "https://api.github.com/repos/PrismarineJS/mineflayer-statemachine/stargazers",
            "statuses_url": "https://api.github.com/repos/PrismarineJS/mineflayer-statemachine/statuses/{sha}",
            "subscribers_url": "https://api.github.com/repos/PrismarineJS/mineflayer-statemachine/subscribers",
            "subscription_url": "https://api.github.com/repos/PrismarineJS/mineflayer-statemachine/subscription",
            "svn_url": "https://github.com/PrismarineJS/mineflayer-statemachine",
            "tags_url": "https://api.github.com/repos/PrismarineJS/mineflayer-statemachine/tags",
            "teams_url": "https://api.github.com/repos/PrismarineJS/mineflayer-statemachine/teams",
            "topics": [
                "ai",
                "bot",
                "minecraft",
                "mineflayer",
                "state-machine"
            ],
            "trees_url": "https://api.github.com/repos/PrismarineJS/mineflayer-statemachine/git/trees{/sha}",
            "updated_at": "2023-05-03T06:59:38Z",
            "url": "https://api.github.com/repos/PrismarineJS/mineflayer-statemachine",
            "visibility": "public",
            "watchers": 76,
            "watchers_count": 76,
            "web_commit_signoff_required": false
        },
        "sha": "a2762da8c48b6ea36f3b113bcfdf70cb2f02484e",
        "user": {
            "avatar_url": "https://avatars.githubusercontent.com/u/11053411?v=4",
            "events_url": "https://api.github.com/users/PrismarineJS/events{/privacy}",
            "followers_url": "https://api.github.com/users/PrismarineJS/followers",
            "following_url": "https://api.github.com/users/PrismarineJS/following{/other_user}",
            "gists_url": "https://api.github.com/users/PrismarineJS/gists{/gist_id}",
            "gravatar_id": "",
            "html_url": "https://github.com/PrismarineJS",
            "id": 11053411,
            "login": "PrismarineJS",
            "node_id": "MDEyOk9yZ2FuaXphdGlvbjExMDUzNDEx",
            "organizations_url": "https://api.github.com/users/PrismarineJS/orgs",
            "received_events_url": "https://api.github.com/users/PrismarineJS/received_events",
            "repos_url": "https://api.github.com/users/PrismarineJS/repos",
            "site_admin": false,
            "starred_url": "https://api.github.com/users/PrismarineJS/starred{/owner}{/repo}",
            "subscriptions_url": "https://api.github.com/users/PrismarineJS/subscriptions",
            "type": "Organization",
            "url": "https://api.github.com/users/PrismarineJS"
        }
    },
    "html_url": "https://github.com/PrismarineJS/mineflayer-statemachine/pull/180",
    "id": 1334036170,
    "issue_url": "https://api.github.com/repos/PrismarineJS/mineflayer-statemachine/issues/180",
    "labels": [
        {
            "color": "0366d6",
            "default": false,
            "description": "Pull requests that update a dependency file",
            "id": 2474648259,
            "name": "dependencies",
            "node_id": "MDU6TGFiZWwyNDc0NjQ4MjU5",
            "url": "https://api.github.com/repos/PrismarineJS/mineflayer-statemachine/labels/dependencies"
        }
    ],
    "locked": false,
    "maintainer_can_modify": false,
    "merge_commit_sha": "1d56c4c0f6e8fd0330dab0553cec3b8d10e9df43",
    "mergeable": true,
    "mergeable_state": "clean",
    "merged": false,
    "merged_at": null,
    "merged_by": null,
    "milestone": null,
    "node_id": "PR_kwDOEDj3S85Pg8bK",
    "number": 180,
    "patch_url": "https://github.com/PrismarineJS/mineflayer-statemachine/pull/180.patch",
    "rebaseable": false,
    "requested_reviewers": [],
    "requested_teams": [],
    "review_comment_url": "https://api.github.com/repos/PrismarineJS/mineflayer-statemachine/pulls/comments{/number}",
    "review_comments": 0,
    "review_comments_url": "https://api.github.com/repos/PrismarineJS/mineflayer-statemachine/pulls/180/comments",
    "state": "closed",
    "statuses_url": "https://api.github.com/repos/PrismarineJS/mineflayer-statemachine/statuses/a2762da8c48b6ea36f3b113bcfdf70cb2f02484e",
    "title": "Bump node from 19.8.1 to 20.0.0",
    "updated_at": "2023-05-04T16:58:05Z",
    "url": "https://api.github.com/repos/PrismarineJS/mineflayer-statemachine/pulls/180",
    "user": {
        "avatar_url": "https://avatars.githubusercontent.com/in/29110?v=4",
        "events_url": "https://api.github.com/users/dependabot%5Bbot%5D/events{/privacy}",
        "followers_url": "https://api.github.com/users/dependabot%5Bbot%5D/followers",
        "following_url": "https://api.github.com/users/dependabot%5Bbot%5D/following{/other_user}",
        "gists_url": "https://api.github.com/users/dependabot%5Bbot%5D/gists{/gist_id}",
        "gravatar_id": "",
        "html_url": "https://github.com/apps/dependabot",
        "id": 49699333,
        "login": "dependabot[bot]",
        "node_id": "MDM6Qm90NDk2OTkzMzM=",
        "organizations_url": "https://api.github.com/users/dependabot%5Bbot%5D/orgs",
        "received_events_url": "https://api.github.com/users/dependabot%5Bbot%5D/received_events",
        "repos_url": "https://api.github.com/users/dependabot%5Bbot%5D/repos",
        "site_admin": false,
        "starred_url": "https://api.github.com/users/dependabot%5Bbot%5D/starred{/owner}{/repo}",
        "subscriptions_url": "https://api.github.com/users/dependabot%5Bbot%5D/subscriptions",
        "type": "Bot",
        "url": "https://api.github.com/users/dependabot%5Bbot%5D"
    }
}