{
    "_links": {
        "comments": {
            "href": "https://api.github.com/repos/PrismarineJS/mineflayer-radar/issues/13/comments"
        },
        "commits": {
            "href": "https://api.github.com/repos/PrismarineJS/mineflayer-radar/pulls/13/commits"
        },
        "html": {
            "href": "https://github.com/PrismarineJS/mineflayer-radar/pull/13"
        },
        "issue": {
            "href": "https://api.github.com/repos/PrismarineJS/mineflayer-radar/issues/13"
        },
        "review_comment": {
            "href": "https://api.github.com/repos/PrismarineJS/mineflayer-radar/pulls/comments{/number}"
        },
        "review_comments": {
            "href": "https://api.github.com/repos/PrismarineJS/mineflayer-radar/pulls/13/comments"
        },
        "self": {
            "href": "https://api.github.com/repos/PrismarineJS/mineflayer-radar/pulls/13"
        },
        "statuses": {
            "href": "https://api.github.com/repos/PrismarineJS/mineflayer-radar/statuses/1802fe61155b0bed8513fe19ea58c8932e279471"
        }
    },
    "active_lock_reason": null,
    "additions": 1,
    "assignee": null,
    "assignees": [],
    "author_association": "CONTRIBUTOR",
    "auto_merge": null,
    "base": {
        "label": "PrismarineJS:master",
        "ref": "master",
        "repo": {
            "allow_forking": true,
            "archive_url": "https://api.github.com/repos/PrismarineJS/mineflayer-radar/{archive_format}{/ref}",
            "archived": false,
            "assignees_url": "https://api.github.com/repos/PrismarineJS/mineflayer-radar/assignees{/user}",
            "blobs_url": "https://api.github.com/repos/PrismarineJS/mineflayer-radar/git/blobs{/sha}",
            "branches_url": "https://api.github.com/repos/PrismarineJS/mineflayer-radar/branches{/branch}",
            "clone_url": "https://github.com/PrismarineJS/mineflayer-radar.git",
            "collaborators_url": "https://api.github.com/repos/PrismarineJS/mineflayer-radar/collaborators{/collaborator}",
            "comments_url": "https://api.github.com/repos/PrismarineJS/mineflayer-radar/comments{/number}",
            "commits_url": "https://api.github.com/repos/PrismarineJS/mineflayer-radar/commits{/sha}",
            "compare_url": "https://api.github.com/repos/PrismarineJS/mineflayer-radar/compare/{base}...{head}",
            "contents_url": "https://api.github.com/repos/PrismarineJS/mineflayer-radar/contents/{+path}",
            "contributors_url": "https://api.github.com/repos/PrismarineJS/mineflayer-radar/contributors",
            "created_at": "2013-01-22T15:38:30Z",
            "default_branch": "master",
            "deployments_url": "https://api.github.com/repos/PrismarineJS/mineflayer-radar/deployments",
            "description": "(unmaintained) A plugin to give you a web-based radar interface to your mineflayer bot.",
            "disabled": false,
            "downloads_url": "https://api.github.com/repos/PrismarineJS/mineflayer-radar/downloads",
            "events_url": "https://api.github.com/repos/PrismarineJS/mineflayer-radar/events",
            "fork": false,
            "forks": 4,
            "forks_count": 4,
            "forks_url": "https://api.github.com/repos/PrismarineJS/mineflayer-radar/forks",
            "full_name": "PrismarineJS/mineflayer-radar",
            "git_commits_url": "https://api.github.com/repos/PrismarineJS/mineflayer-radar/git/commits{/sha}",
            "git_refs_url": "https://api.github.com/repos/PrismarineJS/mineflayer-radar/git/refs{/sha}",
            "git_tags_url": "https://api.github.com/repos/PrismarineJS/mineflayer-radar/git/tags{/sha}",
            "git_url": "git://github.com/PrismarineJS/mineflayer-radar.git",
            "has_discussions": false,
            "has_downloads": true,
            "has_issues": true,
            "has_pages": false,
            "has_projects": true,
            "has_wiki": true,
            "homepage": "",
            "hooks_url": "https://api.github.com/repos/PrismarineJS/mineflayer-radar/hooks",
            "html_url": "https://github.com/PrismarineJS/mineflayer-radar",
            "id": 7755140,
            "is_template": false,
            "issue_comment_url": "https://api.github.com/repos/PrismarineJS/mineflayer-radar/issues/comments{/number}",
            "issue_events_url": "https://api.github.com/repos/PrismarineJS/mineflayer-radar/issues/events{/number}",
            "issues_url": "https://api.github.com/repos/PrismarineJS/mineflayer-radar/issues{/number}",
            "keys_url": "https://api.github.com/repos/PrismarineJS/mineflayer-radar/keys{/key_id}",
            "labels_url": "https://api.github.com/repos/PrismarineJS/mineflayer-radar/labels{/name}",
            "language": "JavaScript",
            "languages_url": "https://api.github.com/repos/PrismarineJS/mineflayer-radar/languages",
            "license": null,
            "merges_url": "https://api.github.com/repos/PrismarineJS/mineflayer-radar/merges",
            "milestones_url": "https://api.github.com/repos/PrismarineJS/mineflayer-radar/milestones{/number}",
            "mirror_url": null,
            "name": "mineflayer-radar",
            "node_id": "MDEwOlJlcG9zaXRvcnk3NzU1MTQw",
            "notifications_url": "https://api.github.com/repos/PrismarineJS/mineflayer-radar/notifications{?since,all,participating}",
            "open_issues": 3,
            "open_issues_count": 3,
            "owner": {
                "avatar_url": "https://avatars.githubusercontent.com/u/11053411?v=4",
                "events_url": "https://api.github.com/users/PrismarineJS/events{/privacy}",
                "followers_url": "https://api.github.com/users/PrismarineJS/followers",
                "following_url": "https://api.github.com/users/PrismarineJS/following{/other_user}",
                "gists_url": "https://api.github.com/users/PrismarineJS/gists{/gist_id}",
                "gravatar_id": "",
                "html_url": "https://github.com/PrismarineJS",
                "id": 11053411,
                "login": "PrismarineJS",
                "node_id": "MDEyOk9yZ2FuaXphdGlvbjExMDUzNDEx",
                "organizations_url": "https://api.github.com/users/PrismarineJS/orgs",
                "received_events_url": "https://api.github.com/users/PrismarineJS/received_events",
                "repos_url": "https://api.github.com/users/PrismarineJS/repos",
                "site_admin": false,
                "starred_url": "https://api.github.com/users/PrismarineJS/starred{/owner}{/repo}",
                "subscriptions_url": "https://api.github.com/users/PrismarineJS/subscriptions",
                "type": "Organization",
                "url": "https://api.github.com/users/PrismarineJS"
            },
            "private": false,
            "pulls_url": "https://api.github.com/repos/PrismarineJS/mineflayer-radar/pulls{/number}",
            "pushed_at": "2021-05-01T23:03:42Z",
            "releases_url": "https://api.github.com/repos/PrismarineJS/mineflayer-radar/releases{/id}",
            "size": 10,
            "ssh_url": "git@github.com:PrismarineJS/mineflayer-radar.git",
            "stargazers_count": 34,
            "stargazers_url": "https://api.github.com/repos/PrismarineJS/mineflayer-radar/stargazers",
            "statuses_url": "https://api.github.com/repos/PrismarineJS/mineflayer-radar/statuses/{sha}",
            "subscribers_url": "https://api.github.com/repos/PrismarineJS/mineflayer-radar/subscribers",
            "subscription_url": "https://api.github.com/repos/PrismarineJS/mineflayer-radar/subscription",
            "svn_url": "https://github.com/PrismarineJS/mineflayer-radar",
            "tags_url": "https://api.github.com/repos/PrismarineJS/mineflayer-radar/tags",
            "teams_url": "https://api.github.com/repos/PrismarineJS/mineflayer-radar/teams",
            "topics": [],
            "trees_url": "https://api.github.com/repos/PrismarineJS/mineflayer-radar/git/trees{/sha}",
            "updated_at": "2022-11-29T18:15:08Z",
            "url": "https://api.github.com/repos/PrismarineJS/mineflayer-radar",
            "visibility": "public",
            "watchers": 34,
            "watchers_count": 34,
            "web_commit_signoff_required": false
        },
        "sha": "44433fc262b54874882c52d101a460027f4f179e",
        "user": {
            "avatar_url": "https://avatars.githubusercontent.com/u/11053411?v=4",
            "events_url": "https://api.github.com/users/PrismarineJS/events{/privacy}",
            "followers_url": "https://api.github.com/users/PrismarineJS/followers",
            "following_url": "https://api.github.com/users/PrismarineJS/following{/other_user}",
            "gists_url": "https://api.github.com/users/PrismarineJS/gists{/gist_id}",
            "gravatar_id": "",
            "html_url": "https://github.com/PrismarineJS",
            "id": 11053411,
            "login": "PrismarineJS",
            "node_id": "MDEyOk9yZ2FuaXphdGlvbjExMDUzNDEx",
            "organizations_url": "https://api.github.com/users/PrismarineJS/orgs",
            "received_events_url": "https://api.github.com/users/PrismarineJS/received_events",
            "repos_url": "https://api.github.com/users/PrismarineJS/repos",
            "site_admin": false,
            "starred_url": "https://api.github.com/users/PrismarineJS/starred{/owner}{/repo}",
            "subscriptions_url": "https://api.github.com/users/PrismarineJS/subscriptions",
            "type": "Organization",
            "url": "https://api.github.com/users/PrismarineJS"
        }
    },
    "body": "Bumps [mineflayer](https://github.com/PrismarineJS/mineflayer) from 0.0.13 to 0.1.1.\n<details>\n<summary>Changelog</summary>\n<p><em>Sourced from <a href=\"https://github.com/PrismarineJS/mineflayer/blob/master/docs/history.md\">mineflayer's changelog</a>.</em></p>\n<blockquote>\n<h2>0.1.1</h2>\n<ul>\n<li>updated minecraft protocol to 0.10 (Minecraft 1.5.2 support).</li>\n</ul>\n<h2>0.1.0</h2>\n<p>Huge thanks to <a href=\"https://github.com/zuazo\">zuazo</a> for debugging and\neliminating the problems with 1.5.1 protocol update and node 0.10 update!</p>\n<ul>\n<li>update minecraft-protocol to 0.9.0 - includes many fixes</li>\n<li>blocks: fix buffer length assertion error (thanks zuazo)</li>\n<li>physics: fix assertion error (thanks zuazo)</li>\n</ul>\n<h2>0.0.35</h2>\n<ul>\n<li>inventory: window clicking waits a bit if you have just dug\nfixes a rejected transaction race condition.</li>\n</ul>\n<h2>0.0.34</h2>\n<ul>\n<li>inventory: equipping makes the quick bar a basic LRU cache.\nThis can alleviate some race conditions when trying to equip a\ndifferent tool immediately after digging.</li>\n</ul>\n<h2>0.0.33</h2>\n<ul>\n<li>crafting: fix shapeless recipe support</li>\n<li>inventory: fix several instances which could cause transaction rejected</li>\n<li>add missing recipes (thanks rom1504)</li>\n<li><code>recipe.delta</code> data structure changed.</li>\n</ul>\n<h2>0.0.32</h2>\n<ul>\n<li>digging: fix crash when not holding a tool</li>\n</ul>\n<h2>0.0.31</h2>\n<ul>\n<li>only stationary water has a negative effect on digging</li>\n<li>digging: if you dig while already digging, instead of crashing,\nmineflayer will cancel the in progress dig and start the new one.</li>\n<li>digging: in creative mode dig time is 0</li>\n<li>digging interruption error has a code so you can check for it</li>\n</ul>\n<h2>0.0.30</h2>\n<ul>\n<li>expose the materials enum as <code>mineflayer.materials</code></li>\n</ul>\n<h2>0.0.29</h2>\n<ul>\n<li>digging is faster and has less bugs</li>\n</ul>\n<!-- raw HTML omitted -->\n</blockquote>\n</details>\n<details>\n<summary>Commits</summary>\n<ul>\n<li><a href=\"https://github.com/PrismarineJS/mineflayer/commit/8b39a06fdc35aefabcb5ee57cd307dbf51a016fb\"><code>8b39a06</code></a> Release 0.1.1</li>\n<li><a href=\"https://github.com/PrismarineJS/mineflayer/commit/02319966149e7b163fe16823f7f67d3ceb807c76\"><code>0231996</code></a> Merge pull request <a href=\"https://github-redirect.dependabot.com/PrismarineJS/mineflayer/issues/150\">#150</a> from onddo/mc-proto-click-mode</li>\n<li><a href=\"https://github.com/PrismarineJS/mineflayer/commit/7f071f80beab8dd0ccde27e9a7ea04b85bdc5317\"><code>7f071f8</code></a> minecraft-protocol 0.10.0: click &quot;shift&quot; renamed to &quot;mode&quot;</li>\n<li><a href=\"https://github.com/PrismarineJS/mineflayer/commit/5df354ba480d283e436777232a9c73ee3083a7da\"><code>5df354b</code></a> Release 0.1.0</li>\n<li><a href=\"https://github.com/PrismarineJS/mineflayer/commit/2c4f79818c83d8050add0ef206c446e16b4bf90b\"><code>2c4f798</code></a> update README</li>\n<li><a href=\"https://github.com/PrismarineJS/mineflayer/commit/e6342955ad4a090197fe98965610b15364198436\"><code>e634295</code></a> update minecraft-protocol version to 0.9.0</li>\n<li><a href=\"https://github.com/PrismarineJS/mineflayer/commit/17a97c3b829d7b814f34bc8f14856d28301c00b8\"><code>17a97c3</code></a> Merge pull request <a href=\"https://github-redirect.dependabot.com/PrismarineJS/mineflayer/issues/148\">#148</a> from onddo/some-exceptions-fix</li>\n<li><a href=\"https://github.com/PrismarineJS/mineflayer/commit/cc3eae10f622da24c9051268e9fc8ec3fe01ed7e\"><code>cc3eae1</code></a> Exception fix: Trying to access beyond buffer length at blocks.js:132:31</li>\n<li><a href=\"https://github.com/PrismarineJS/mineflayer/commit/2b5487f5a5107095ee617e827886ea75e069772d\"><code>2b5487f</code></a> Exception fix: AssertionError at physics.js:246:12</li>\n<li><a href=\"https://github.com/PrismarineJS/mineflayer/commit/278444404fdcf74c070fadebdaf6b0d641000df8\"><code>2784444</code></a> Release 0.0.35</li>\n<li>Additional commits viewable in <a href=\"https://github.com/PrismarineJS/mineflayer/compare/0.0.13...0.1.1\">compare view</a></li>\n</ul>\n</details>\n<details>\n<summary>Maintainer changes</summary>\n<p>This version was pushed to npm by <a href=\"https://www.npmjs.com/~zuazo\">zuazo</a>, a new releaser for mineflayer since your current version.</p>\n</details>\n<br />\n\n\n[![Dependabot compatibility score](https://api.dependabot.com/badges/compatibility_score?dependency-name=mineflayer&package-manager=npm_and_yarn&previous-version=0.0.13&new-version=0.1.1)](https://dependabot.com/compatibility-score/?dependency-name=mineflayer&package-manager=npm_and_yarn&previous-version=0.0.13&new-version=0.1.1)\n\nDependabot will resolve any conflicts with this PR as long as you don't alter it yourself. You can also trigger a rebase manually by commenting `@dependabot rebase`.\n\n[//]: # (dependabot-automerge-start)\n[//]: # (dependabot-automerge-end)\n\n---\n\n<details>\n<summary>Dependabot commands and options</summary>\n<br />\n\nYou can trigger Dependabot actions by commenting on this PR:\n- `@dependabot rebase` will rebase this PR\n- `@dependabot recreate` will recreate this PR, overwriting any edits that have been made to it\n- `@dependabot merge` will merge this PR after your CI passes on it\n- `@dependabot squash and merge` will squash and merge this PR after your CI passes on it\n- `@dependabot cancel merge` will cancel a previously requested merge and block automerging\n- `@dependabot reopen` will reopen this PR if it is closed\n- `@dependabot close` will close this PR and stop Dependabot recreating it. You can achieve the same result by closing it manually\n- `@dependabot ignore this major version` will close this PR and stop Dependabot creating any more for this major version (unless you reopen the PR or upgrade to it yourself)\n- `@dependabot ignore this minor version` will close this PR and stop Dependabot creating any more for this minor version (unless you reopen the PR or upgrade to it yourself)\n- `@dependabot ignore this dependency` will close this PR and stop Dependabot creating any more for this dependency (unless you reopen the PR or upgrade to it yourself)\n- `@dependabot use these labels` will set the current labels as the default for future PRs for this repo and language\n- `@dependabot use these reviewers` will set the current reviewers as the default for future PRs for this repo and language\n- `@dependabot use these assignees` will set the current assignees as the default for future PRs for this repo and language\n- `@dependabot use this milestone` will set the current milestone as the default for future PRs for this repo and language\n- `@dependabot badge me` will comment on this PR with code to add a \"Dependabot enabled\" badge to your readme\n\nAdditionally, you can set the following in your Dependabot [dashboard](https://app.dependabot.com):\n- Update frequency (including time of day and day of week)\n- Pull request limits (per update run and/or open at any time)\n- Out-of-range updates (receive only lockfile updates, if desired)\n- Security updates (receive only security updates, if desired)\n\n\n\n</details>",
    "changed_files": 1,
    "closed_at": "2020-07-04T14:38:27Z",
    "comment_data": [],
    "comment_regular_data": [
        {
            "author_association": "MEMBER",
            "body": "no",
            "created_at": "2020-07-04T14:38:27Z",
            "html_url": "https://github.com/PrismarineJS/mineflayer-radar/pull/13#issuecomment-653773777",
            "id": 653773777,
            "issue_url": "https://api.github.com/repos/PrismarineJS/mineflayer-radar/issues/13",
            "node_id": "MDEyOklzc3VlQ29tbWVudDY1Mzc3Mzc3Nw==",
            "performed_via_github_app": null,
            "reactions": {
                "+1": 0,
                "-1": 0,
                "confused": 0,
                "eyes": 0,
                "heart": 0,
                "hooray": 0,
                "laugh": 0,
                "rocket": 0,
                "total_count": 0,
                "url": "https://api.github.com/repos/PrismarineJS/mineflayer-radar/issues/comments/653773777/reactions"
            },
            "updated_at": "2020-07-04T14:38:27Z",
            "url": "https://api.github.com/repos/PrismarineJS/mineflayer-radar/issues/comments/653773777",
            "user": {
                "avatar_url": "https://avatars.githubusercontent.com/u/2346494?v=4",
                "events_url": "https://api.github.com/users/rom1504/events{/privacy}",
                "followers_url": "https://api.github.com/users/rom1504/followers",
                "following_url": "https://api.github.com/users/rom1504/following{/other_user}",
                "gists_url": "https://api.github.com/users/rom1504/gists{/gist_id}",
                "gravatar_id": "",
                "html_url": "https://github.com/rom1504",
                "id": 2346494,
                "login": "rom1504",
                "node_id": "MDQ6VXNlcjIzNDY0OTQ=",
                "organizations_url": "https://api.github.com/users/rom1504/orgs",
                "received_events_url": "https://api.github.com/users/rom1504/received_events",
                "repos_url": "https://api.github.com/users/rom1504/repos",
                "site_admin": false,
                "starred_url": "https://api.github.com/users/rom1504/starred{/owner}{/repo}",
                "subscriptions_url": "https://api.github.com/users/rom1504/subscriptions",
                "type": "User",
                "url": "https://api.github.com/users/rom1504"
            }
        },
        {
            "author_association": "CONTRIBUTOR",
            "body": "OK, I won't notify you again about this release, but will get in touch when a new version is available. If you'd rather skip all updates until the next major or minor version, let me know by commenting `@dependabot ignore this major version` or `@dependabot ignore this minor version`.\n\nIf you change your mind, just re-open this PR and I'll resolve any conflicts on it.",
            "created_at": "2020-07-04T14:38:29Z",
            "html_url": "https://github.com/PrismarineJS/mineflayer-radar/pull/13#issuecomment-653773781",
            "id": 653773781,
            "issue_url": "https://api.github.com/repos/PrismarineJS/mineflayer-radar/issues/13",
            "node_id": "MDEyOklzc3VlQ29tbWVudDY1Mzc3Mzc4MQ==",
            "performed_via_github_app": null,
            "reactions": {
                "+1": 0,
                "-1": 0,
                "confused": 0,
                "eyes": 0,
                "heart": 0,
                "hooray": 0,
                "laugh": 0,
                "rocket": 0,
                "total_count": 0,
                "url": "https://api.github.com/repos/PrismarineJS/mineflayer-radar/issues/comments/653773781/reactions"
            },
            "updated_at": "2020-07-04T14:38:29Z",
            "url": "https://api.github.com/repos/PrismarineJS/mineflayer-radar/issues/comments/653773781",
            "user": {
                "avatar_url": "https://avatars.githubusercontent.com/in/2141?v=4",
                "events_url": "https://api.github.com/users/dependabot-preview%5Bbot%5D/events{/privacy}",
                "followers_url": "https://api.github.com/users/dependabot-preview%5Bbot%5D/followers",
                "following_url": "https://api.github.com/users/dependabot-preview%5Bbot%5D/following{/other_user}",
                "gists_url": "https://api.github.com/users/dependabot-preview%5Bbot%5D/gists{/gist_id}",
                "gravatar_id": "",
                "html_url": "https://github.com/apps/dependabot-preview",
                "id": 27856297,
                "login": "dependabot-preview[bot]",
                "node_id": "MDM6Qm90Mjc4NTYyOTc=",
                "organizations_url": "https://api.github.com/users/dependabot-preview%5Bbot%5D/orgs",
                "received_events_url": "https://api.github.com/users/dependabot-preview%5Bbot%5D/received_events",
                "repos_url": "https://api.github.com/users/dependabot-preview%5Bbot%5D/repos",
                "site_admin": false,
                "starred_url": "https://api.github.com/users/dependabot-preview%5Bbot%5D/starred{/owner}{/repo}",
                "subscriptions_url": "https://api.github.com/users/dependabot-preview%5Bbot%5D/subscriptions",
                "type": "Bot",
                "url": "https://api.github.com/users/dependabot-preview%5Bbot%5D"
            }
        },
        {
            "author_association": "MEMBER",
            "body": "@dependabot ignore this major version",
            "created_at": "2020-07-04T14:38:35Z",
            "html_url": "https://github.com/PrismarineJS/mineflayer-radar/pull/13#issuecomment-653773789",
            "id": 653773789,
            "issue_url": "https://api.github.com/repos/PrismarineJS/mineflayer-radar/issues/13",
            "node_id": "MDEyOklzc3VlQ29tbWVudDY1Mzc3Mzc4OQ==",
            "performed_via_github_app": null,
            "reactions": {
                "+1": 0,
                "-1": 0,
                "confused": 0,
                "eyes": 0,
                "heart": 0,
                "hooray": 0,
                "laugh": 0,
                "rocket": 0,
                "total_count": 0,
                "url": "https://api.github.com/repos/PrismarineJS/mineflayer-radar/issues/comments/653773789/reactions"
            },
            "updated_at": "2020-07-04T14:38:35Z",
            "url": "https://api.github.com/repos/PrismarineJS/mineflayer-radar/issues/comments/653773789",
            "user": {
                "avatar_url": "https://avatars.githubusercontent.com/u/2346494?v=4",
                "events_url": "https://api.github.com/users/rom1504/events{/privacy}",
                "followers_url": "https://api.github.com/users/rom1504/followers",
                "following_url": "https://api.github.com/users/rom1504/following{/other_user}",
                "gists_url": "https://api.github.com/users/rom1504/gists{/gist_id}",
                "gravatar_id": "",
                "html_url": "https://github.com/rom1504",
                "id": 2346494,
                "login": "rom1504",
                "node_id": "MDQ6VXNlcjIzNDY0OTQ=",
                "organizations_url": "https://api.github.com/users/rom1504/orgs",
                "received_events_url": "https://api.github.com/users/rom1504/received_events",
                "repos_url": "https://api.github.com/users/rom1504/repos",
                "site_admin": false,
                "starred_url": "https://api.github.com/users/rom1504/starred{/owner}{/repo}",
                "subscriptions_url": "https://api.github.com/users/rom1504/subscriptions",
                "type": "User",
                "url": "https://api.github.com/users/rom1504"
            }
        },
        {
            "author_association": "CONTRIBUTOR",
            "body": "OK, I won't notify you about version 0.x.x again, unless you re-open this PR or update to a 0.x.x release yourself.",
            "created_at": "2020-07-04T14:38:36Z",
            "html_url": "https://github.com/PrismarineJS/mineflayer-radar/pull/13#issuecomment-653773792",
            "id": 653773792,
            "issue_url": "https://api.github.com/repos/PrismarineJS/mineflayer-radar/issues/13",
            "node_id": "MDEyOklzc3VlQ29tbWVudDY1Mzc3Mzc5Mg==",
            "performed_via_github_app": null,
            "reactions": {
                "+1": 0,
                "-1": 0,
                "confused": 0,
                "eyes": 0,
                "heart": 0,
                "hooray": 0,
                "laugh": 0,
                "rocket": 0,
                "total_count": 0,
                "url": "https://api.github.com/repos/PrismarineJS/mineflayer-radar/issues/comments/653773792/reactions"
            },
            "updated_at": "2020-07-04T14:38:36Z",
            "url": "https://api.github.com/repos/PrismarineJS/mineflayer-radar/issues/comments/653773792",
            "user": {
                "avatar_url": "https://avatars.githubusercontent.com/in/2141?v=4",
                "events_url": "https://api.github.com/users/dependabot-preview%5Bbot%5D/events{/privacy}",
                "followers_url": "https://api.github.com/users/dependabot-preview%5Bbot%5D/followers",
                "following_url": "https://api.github.com/users/dependabot-preview%5Bbot%5D/following{/other_user}",
                "gists_url": "https://api.github.com/users/dependabot-preview%5Bbot%5D/gists{/gist_id}",
                "gravatar_id": "",
                "html_url": "https://github.com/apps/dependabot-preview",
                "id": 27856297,
                "login": "dependabot-preview[bot]",
                "node_id": "MDM6Qm90Mjc4NTYyOTc=",
                "organizations_url": "https://api.github.com/users/dependabot-preview%5Bbot%5D/orgs",
                "received_events_url": "https://api.github.com/users/dependabot-preview%5Bbot%5D/received_events",
                "repos_url": "https://api.github.com/users/dependabot-preview%5Bbot%5D/repos",
                "site_admin": false,
                "starred_url": "https://api.github.com/users/dependabot-preview%5Bbot%5D/starred{/owner}{/repo}",
                "subscriptions_url": "https://api.github.com/users/dependabot-preview%5Bbot%5D/subscriptions",
                "type": "Bot",
                "url": "https://api.github.com/users/dependabot-preview%5Bbot%5D"
            }
        }
    ],
    "comments": 4,
    "comments_url": "https://api.github.com/repos/PrismarineJS/mineflayer-radar/issues/13/comments",
    "commit_data": [
        {
            "author": {
                "avatar_url": "https://avatars.githubusercontent.com/in/2141?v=4",
                "events_url": "https://api.github.com/users/dependabot-preview%5Bbot%5D/events{/privacy}",
                "followers_url": "https://api.github.com/users/dependabot-preview%5Bbot%5D/followers",
                "following_url": "https://api.github.com/users/dependabot-preview%5Bbot%5D/following{/other_user}",
                "gists_url": "https://api.github.com/users/dependabot-preview%5Bbot%5D/gists{/gist_id}",
                "gravatar_id": "",
                "html_url": "https://github.com/apps/dependabot-preview",
                "id": 27856297,
                "login": "dependabot-preview[bot]",
                "node_id": "MDM6Qm90Mjc4NTYyOTc=",
                "organizations_url": "https://api.github.com/users/dependabot-preview%5Bbot%5D/orgs",
                "received_events_url": "https://api.github.com/users/dependabot-preview%5Bbot%5D/received_events",
                "repos_url": "https://api.github.com/users/dependabot-preview%5Bbot%5D/repos",
                "site_admin": false,
                "starred_url": "https://api.github.com/users/dependabot-preview%5Bbot%5D/starred{/owner}{/repo}",
                "subscriptions_url": "https://api.github.com/users/dependabot-preview%5Bbot%5D/subscriptions",
                "type": "Bot",
                "url": "https://api.github.com/users/dependabot-preview%5Bbot%5D"
            },
            "comments_url": "https://api.github.com/repos/PrismarineJS/mineflayer-radar/commits/1802fe61155b0bed8513fe19ea58c8932e279471/comments",
            "commit": {
                "author": {
                    "date": "2020-06-29T08:35:04Z",
                    "email": "27856297+dependabot-preview[bot]@users.noreply.github.com",
                    "name": "dependabot-preview[bot]"
                },
                "comment_count": 0,
                "committer": {
                    "date": "2020-06-29T08:35:04Z",
                    "email": "noreply@github.com",
                    "name": "GitHub"
                },
                "message": "Bump mineflayer from 0.0.13 to 0.1.1\n\nBumps [mineflayer](https://github.com/PrismarineJS/mineflayer) from 0.0.13 to 0.1.1.\n- [Release notes](https://github.com/PrismarineJS/mineflayer/releases)\n- [Changelog](https://github.com/PrismarineJS/mineflayer/blob/master/docs/history.md)\n- [Commits](https://github.com/PrismarineJS/mineflayer/compare/0.0.13...0.1.1)\n\nSigned-off-by: dependabot-preview[bot] <support@dependabot.com>",
                "tree": {
                    "sha": "883fa61266b1b1861ac847885491b69238d47932",
                    "url": "https://api.github.com/repos/PrismarineJS/mineflayer-radar/git/trees/883fa61266b1b1861ac847885491b69238d47932"
                },
                "url": "https://api.github.com/repos/PrismarineJS/mineflayer-radar/git/commits/1802fe61155b0bed8513fe19ea58c8932e279471",
                "verification": {
                    "payload": "tree 883fa61266b1b1861ac847885491b69238d47932\nparent 44433fc262b54874882c52d101a460027f4f179e\nauthor dependabot-preview[bot] <27856297+dependabot-preview[bot]@users.noreply.github.com> 1593419704 +0000\ncommitter GitHub <noreply@github.com> 1593419704 +0000\n\nBump mineflayer from 0.0.13 to 0.1.1\n\nBumps [mineflayer](https://github.com/PrismarineJS/mineflayer) from 0.0.13 to 0.1.1.\n- [Release notes](https://github.com/PrismarineJS/mineflayer/releases)\n- [Changelog](https://github.com/PrismarineJS/mineflayer/blob/master/docs/history.md)\n- [Commits](https://github.com/PrismarineJS/mineflayer/compare/0.0.13...0.1.1)\n\nSigned-off-by: dependabot-preview[bot] <support@dependabot.com>",
                    "reason": "valid",
                    "signature": "-----BEGIN PGP SIGNATURE-----\n\nwsBcBAABCAAQBQJe+ae4CRBK7hj4Ov3rIwAAdHIIAAGDuOZKJgdlG40n0jLYH37V\ncj98wwKy3BG1OTDS7W6GQpA6FEgW9LZCpI0xJIw9weO7uOCEtejSZ5yHITerFGpp\nOShLR8VV3wX+B3+Ta3Rrrx3/lSH4jOVm+XTVBDEj+Nk3/e7SpoxA7hOsZEie9SOl\nbSwtjlCZvr3/a+hV74WZXCBy0n2ORt358sQiIDAUfDEo3drh3q4BqYIfwfliTNhO\nVbngFD6cbKl3MuAMaGICx1Se/LpWDc1xN9Qy4++qrLRKVYgBLp7me6zaaBKo7DDL\nRiqAMO+3kURzFlZ70Lvc6aZOT6355WwcYkUxlWzpZQKROYucqDYbk0jG954svjA=\n=HQDz\n-----END PGP SIGNATURE-----\n",
                    "verified": true
                }
            },
            "committer": {
                "avatar_url": "https://avatars.githubusercontent.com/u/19864447?v=4",
                "events_url": "https://api.github.com/users/web-flow/events{/privacy}",
                "followers_url": "https://api.github.com/users/web-flow/followers",
                "following_url": "https://api.github.com/users/web-flow/following{/other_user}",
                "gists_url": "https://api.github.com/users/web-flow/gists{/gist_id}",
                "gravatar_id": "",
                "html_url": "https://github.com/web-flow",
                "id": 19864447,
                "login": "web-flow",
                "node_id": "MDQ6VXNlcjE5ODY0NDQ3",
                "organizations_url": "https://api.github.com/users/web-flow/orgs",
                "received_events_url": "https://api.github.com/users/web-flow/received_events",
                "repos_url": "https://api.github.com/users/web-flow/repos",
                "site_admin": false,
                "starred_url": "https://api.github.com/users/web-flow/starred{/owner}{/repo}",
                "subscriptions_url": "https://api.github.com/users/web-flow/subscriptions",
                "type": "User",
                "url": "https://api.github.com/users/web-flow"
            },
            "html_url": "https://github.com/PrismarineJS/mineflayer-radar/commit/1802fe61155b0bed8513fe19ea58c8932e279471",
            "node_id": "MDY6Q29tbWl0Nzc1NTE0MDoxODAyZmU2MTE1NWIwYmVkODUxM2ZlMTllYTU4Yzg5MzJlMjc5NDcx",
            "parents": [
                {
                    "html_url": "https://github.com/PrismarineJS/mineflayer-radar/commit/44433fc262b54874882c52d101a460027f4f179e",
                    "sha": "44433fc262b54874882c52d101a460027f4f179e",
                    "url": "https://api.github.com/repos/PrismarineJS/mineflayer-radar/commits/44433fc262b54874882c52d101a460027f4f179e"
                }
            ],
            "sha": "1802fe61155b0bed8513fe19ea58c8932e279471",
            "url": "https://api.github.com/repos/PrismarineJS/mineflayer-radar/commits/1802fe61155b0bed8513fe19ea58c8932e279471"
        }
    ],
    "commits": 1,
    "commits_url": "https://api.github.com/repos/PrismarineJS/mineflayer-radar/pulls/13/commits",
    "created_at": "2020-06-29T08:35:05Z",
    "deletions": 1,
    "diff_url": "https://github.com/PrismarineJS/mineflayer-radar/pull/13.diff",
    "draft": false,
    "head": {
        "label": "PrismarineJS:dependabot/npm_and_yarn/mineflayer-0.1.1",
        "ref": "dependabot/npm_and_yarn/mineflayer-0.1.1",
        "repo": {
            "allow_forking": true,
            "archive_url": "https://api.github.com/repos/PrismarineJS/mineflayer-radar/{archive_format}{/ref}",
            "archived": false,
            "assignees_url": "https://api.github.com/repos/PrismarineJS/mineflayer-radar/assignees{/user}",
            "blobs_url": "https://api.github.com/repos/PrismarineJS/mineflayer-radar/git/blobs{/sha}",
            "branches_url": "https://api.github.com/repos/PrismarineJS/mineflayer-radar/branches{/branch}",
            "clone_url": "https://github.com/PrismarineJS/mineflayer-radar.git",
            "collaborators_url": "https://api.github.com/repos/PrismarineJS/mineflayer-radar/collaborators{/collaborator}",
            "comments_url": "https://api.github.com/repos/PrismarineJS/mineflayer-radar/comments{/number}",
            "commits_url": "https://api.github.com/repos/PrismarineJS/mineflayer-radar/commits{/sha}",
            "compare_url": "https://api.github.com/repos/PrismarineJS/mineflayer-radar/compare/{base}...{head}",
            "contents_url": "https://api.github.com/repos/PrismarineJS/mineflayer-radar/contents/{+path}",
            "contributors_url": "https://api.github.com/repos/PrismarineJS/mineflayer-radar/contributors",
            "created_at": "2013-01-22T15:38:30Z",
            "default_branch": "master",
            "deployments_url": "https://api.github.com/repos/PrismarineJS/mineflayer-radar/deployments",
            "description": "(unmaintained) A plugin to give you a web-based radar interface to your mineflayer bot.",
            "disabled": false,
            "downloads_url": "https://api.github.com/repos/PrismarineJS/mineflayer-radar/downloads",
            "events_url": "https://api.github.com/repos/PrismarineJS/mineflayer-radar/events",
            "fork": false,
            "forks": 4,
            "forks_count": 4,
            "forks_url": "https://api.github.com/repos/PrismarineJS/mineflayer-radar/forks",
            "full_name": "PrismarineJS/mineflayer-radar",
            "git_commits_url": "https://api.github.com/repos/PrismarineJS/mineflayer-radar/git/commits{/sha}",
            "git_refs_url": "https://api.github.com/repos/PrismarineJS/mineflayer-radar/git/refs{/sha}",
            "git_tags_url": "https://api.github.com/repos/PrismarineJS/mineflayer-radar/git/tags{/sha}",
            "git_url": "git://github.com/PrismarineJS/mineflayer-radar.git",
            "has_discussions": false,
            "has_downloads": true,
            "has_issues": true,
            "has_pages": false,
            "has_projects": true,
            "has_wiki": true,
            "homepage": "",
            "hooks_url": "https://api.github.com/repos/PrismarineJS/mineflayer-radar/hooks",
            "html_url": "https://github.com/PrismarineJS/mineflayer-radar",
            "id": 7755140,
            "is_template": false,
            "issue_comment_url": "https://api.github.com/repos/PrismarineJS/mineflayer-radar/issues/comments{/number}",
            "issue_events_url": "https://api.github.com/repos/PrismarineJS/mineflayer-radar/issues/events{/number}",
            "issues_url": "https://api.github.com/repos/PrismarineJS/mineflayer-radar/issues{/number}",
            "keys_url": "https://api.github.com/repos/PrismarineJS/mineflayer-radar/keys{/key_id}",
            "labels_url": "https://api.github.com/repos/PrismarineJS/mineflayer-radar/labels{/name}",
            "language": "JavaScript",
            "languages_url": "https://api.github.com/repos/PrismarineJS/mineflayer-radar/languages",
            "license": null,
            "merges_url": "https://api.github.com/repos/PrismarineJS/mineflayer-radar/merges",
            "milestones_url": "https://api.github.com/repos/PrismarineJS/mineflayer-radar/milestones{/number}",
            "mirror_url": null,
            "name": "mineflayer-radar",
            "node_id": "MDEwOlJlcG9zaXRvcnk3NzU1MTQw",
            "notifications_url": "https://api.github.com/repos/PrismarineJS/mineflayer-radar/notifications{?since,all,participating}",
            "open_issues": 3,
            "open_issues_count": 3,
            "owner": {
                "avatar_url": "https://avatars.githubusercontent.com/u/11053411?v=4",
                "events_url": "https://api.github.com/users/PrismarineJS/events{/privacy}",
                "followers_url": "https://api.github.com/users/PrismarineJS/followers",
                "following_url": "https://api.github.com/users/PrismarineJS/following{/other_user}",
                "gists_url": "https://api.github.com/users/PrismarineJS/gists{/gist_id}",
                "gravatar_id": "",
                "html_url": "https://github.com/PrismarineJS",
                "id": 11053411,
                "login": "PrismarineJS",
                "node_id": "MDEyOk9yZ2FuaXphdGlvbjExMDUzNDEx",
                "organizations_url": "https://api.github.com/users/PrismarineJS/orgs",
                "received_events_url": "https://api.github.com/users/PrismarineJS/received_events",
                "repos_url": "https://api.github.com/users/PrismarineJS/repos",
                "site_admin": false,
                "starred_url": "https://api.github.com/users/PrismarineJS/starred{/owner}{/repo}",
                "subscriptions_url": "https://api.github.com/users/PrismarineJS/subscriptions",
                "type": "Organization",
                "url": "https://api.github.com/users/PrismarineJS"
            },
            "private": false,
            "pulls_url": "https://api.github.com/repos/PrismarineJS/mineflayer-radar/pulls{/number}",
            "pushed_at": "2021-05-01T23:03:42Z",
            "releases_url": "https://api.github.com/repos/PrismarineJS/mineflayer-radar/releases{/id}",
            "size": 10,
            "ssh_url": "git@github.com:PrismarineJS/mineflayer-radar.git",
            "stargazers_count": 34,
            "stargazers_url": "https://api.github.com/repos/PrismarineJS/mineflayer-radar/stargazers",
            "statuses_url": "https://api.github.com/repos/PrismarineJS/mineflayer-radar/statuses/{sha}",
            "subscribers_url": "https://api.github.com/repos/PrismarineJS/mineflayer-radar/subscribers",
            "subscription_url": "https://api.github.com/repos/PrismarineJS/mineflayer-radar/subscription",
            "svn_url": "https://github.com/PrismarineJS/mineflayer-radar",
            "tags_url": "https://api.github.com/repos/PrismarineJS/mineflayer-radar/tags",
            "teams_url": "https://api.github.com/repos/PrismarineJS/mineflayer-radar/teams",
            "topics": [],
            "trees_url": "https://api.github.com/repos/PrismarineJS/mineflayer-radar/git/trees{/sha}",
            "updated_at": "2022-11-29T18:15:08Z",
            "url": "https://api.github.com/repos/PrismarineJS/mineflayer-radar",
            "visibility": "public",
            "watchers": 34,
            "watchers_count": 34,
            "web_commit_signoff_required": false
        },
        "sha": "1802fe61155b0bed8513fe19ea58c8932e279471",
        "user": {
            "avatar_url": "https://avatars.githubusercontent.com/u/11053411?v=4",
            "events_url": "https://api.github.com/users/PrismarineJS/events{/privacy}",
            "followers_url": "https://api.github.com/users/PrismarineJS/followers",
            "following_url": "https://api.github.com/users/PrismarineJS/following{/other_user}",
            "gists_url": "https://api.github.com/users/PrismarineJS/gists{/gist_id}",
            "gravatar_id": "",
            "html_url": "https://github.com/PrismarineJS",
            "id": 11053411,
            "login": "PrismarineJS",
            "node_id": "MDEyOk9yZ2FuaXphdGlvbjExMDUzNDEx",
            "organizations_url": "https://api.github.com/users/PrismarineJS/orgs",
            "received_events_url": "https://api.github.com/users/PrismarineJS/received_events",
            "repos_url": "https://api.github.com/users/PrismarineJS/repos",
            "site_admin": false,
            "starred_url": "https://api.github.com/users/PrismarineJS/starred{/owner}{/repo}",
            "subscriptions_url": "https://api.github.com/users/PrismarineJS/subscriptions",
            "type": "Organization",
            "url": "https://api.github.com/users/PrismarineJS"
        }
    },
    "html_url": "https://github.com/PrismarineJS/mineflayer-radar/pull/13",
    "id": 441285927,
    "issue_url": "https://api.github.com/repos/PrismarineJS/mineflayer-radar/issues/13",
    "labels": [
        {
            "color": "0366d6",
            "default": false,
            "description": "Pull requests that update a dependency file",
            "id": 2067069974,
            "name": "dependencies",
            "node_id": "MDU6TGFiZWwyMDY3MDY5OTc0",
            "url": "https://api.github.com/repos/PrismarineJS/mineflayer-radar/labels/dependencies"
        }
    ],
    "locked": false,
    "maintainer_can_modify": false,
    "merge_commit_sha": "9f565b334c218282035c15ff21e0f0a3311e93ce",
    "mergeable": null,
    "mergeable_state": "unknown",
    "merged": false,
    "merged_at": null,
    "merged_by": null,
    "milestone": null,
    "node_id": "MDExOlB1bGxSZXF1ZXN0NDQxMjg1OTI3",
    "number": 13,
    "patch_url": "https://github.com/PrismarineJS/mineflayer-radar/pull/13.patch",
    "rebaseable": null,
    "requested_reviewers": [],
    "requested_teams": [],
    "review_comment_url": "https://api.github.com/repos/PrismarineJS/mineflayer-radar/pulls/comments{/number}",
    "review_comments": 0,
    "review_comments_url": "https://api.github.com/repos/PrismarineJS/mineflayer-radar/pulls/13/comments",
    "state": "closed",
    "statuses_url": "https://api.github.com/repos/PrismarineJS/mineflayer-radar/statuses/1802fe61155b0bed8513fe19ea58c8932e279471",
    "title": "Bump mineflayer from 0.0.13 to 0.1.1",
    "updated_at": "2020-07-04T14:38:36Z",
    "url": "https://api.github.com/repos/PrismarineJS/mineflayer-radar/pulls/13",
    "user": {
        "avatar_url": "https://avatars.githubusercontent.com/in/2141?v=4",
        "events_url": "https://api.github.com/users/dependabot-preview%5Bbot%5D/events{/privacy}",
        "followers_url": "https://api.github.com/users/dependabot-preview%5Bbot%5D/followers",
        "following_url": "https://api.github.com/users/dependabot-preview%5Bbot%5D/following{/other_user}",
        "gists_url": "https://api.github.com/users/dependabot-preview%5Bbot%5D/gists{/gist_id}",
        "gravatar_id": "",
        "html_url": "https://github.com/apps/dependabot-preview",
        "id": 27856297,
        "login": "dependabot-preview[bot]",
        "node_id": "MDM6Qm90Mjc4NTYyOTc=",
        "organizations_url": "https://api.github.com/users/dependabot-preview%5Bbot%5D/orgs",
        "received_events_url": "https://api.github.com/users/dependabot-preview%5Bbot%5D/received_events",
        "repos_url": "https://api.github.com/users/dependabot-preview%5Bbot%5D/repos",
        "site_admin": false,
        "starred_url": "https://api.github.com/users/dependabot-preview%5Bbot%5D/starred{/owner}{/repo}",
        "subscriptions_url": "https://api.github.com/users/dependabot-preview%5Bbot%5D/subscriptions",
        "type": "Bot",
        "url": "https://api.github.com/users/dependabot-preview%5Bbot%5D"
    }
}