{
    "active_lock_reason": null,
    "assignee": null,
    "assignees": [],
    "author_association": "MEMBER",
    "body": "It might be interesting to have variations of name/displayName of blocks/items, that might be useful to parse what an user is saying.\nIt could look like that : \n\n``` json\n{\n   \"variation\":\"unique_identifier\",\n}\n```\n\nThat could be extracted from : \n- redirect pages in the wiki\n- links labels in the wiki\n",
    "closed_at": null,
    "comment_data": [
        {
            "author_association": "MEMBER",
            "body": "This might better be put into a separate repository, as it is not directly Minecraft related.\n",
            "created_at": "2015-05-03T22:59:24Z",
            "html_url": "https://github.com/PrismarineJS/minecraft-data/issues/20#issuecomment-98554432",
            "id": 98554432,
            "issue_url": "https://api.github.com/repos/PrismarineJS/minecraft-data/issues/20",
            "node_id": "MDEyOklzc3VlQ29tbWVudDk4NTU0NDMy",
            "performed_via_github_app": null,
            "reactions": {
                "+1": 0,
                "-1": 0,
                "confused": 0,
                "eyes": 0,
                "heart": 0,
                "hooray": 0,
                "laugh": 0,
                "rocket": 0,
                "total_count": 0,
                "url": "https://api.github.com/repos/PrismarineJS/minecraft-data/issues/comments/98554432/reactions"
            },
            "updated_at": "2015-05-03T22:59:24Z",
            "url": "https://api.github.com/repos/PrismarineJS/minecraft-data/issues/comments/98554432",
            "user": {
                "avatar_url": "https://avatars.githubusercontent.com/u/2612164?v=4",
                "events_url": "https://api.github.com/users/Gjum/events{/privacy}",
                "followers_url": "https://api.github.com/users/Gjum/followers",
                "following_url": "https://api.github.com/users/Gjum/following{/other_user}",
                "gists_url": "https://api.github.com/users/Gjum/gists{/gist_id}",
                "gravatar_id": "",
                "html_url": "https://github.com/Gjum",
                "id": 2612164,
                "login": "Gjum",
                "node_id": "MDQ6VXNlcjI2MTIxNjQ=",
                "organizations_url": "https://api.github.com/users/Gjum/orgs",
                "received_events_url": "https://api.github.com/users/Gjum/received_events",
                "repos_url": "https://api.github.com/users/Gjum/repos",
                "site_admin": false,
                "starred_url": "https://api.github.com/users/Gjum/starred{/owner}{/repo}",
                "subscriptions_url": "https://api.github.com/users/Gjum/subscriptions",
                "type": "User",
                "url": "https://api.github.com/users/Gjum"
            }
        },
        {
            "author_association": "MEMBER",
            "body": "Well this would be data useful for minecraft bots, but not data _of_ minecraft yeah.\n",
            "created_at": "2015-05-03T23:04:59Z",
            "html_url": "https://github.com/PrismarineJS/minecraft-data/issues/20#issuecomment-98554628",
            "id": 98554628,
            "issue_url": "https://api.github.com/repos/PrismarineJS/minecraft-data/issues/20",
            "node_id": "MDEyOklzc3VlQ29tbWVudDk4NTU0NjI4",
            "performed_via_github_app": null,
            "reactions": {
                "+1": 0,
                "-1": 0,
                "confused": 0,
                "eyes": 0,
                "heart": 0,
                "hooray": 0,
                "laugh": 0,
                "rocket": 0,
                "total_count": 0,
                "url": "https://api.github.com/repos/PrismarineJS/minecraft-data/issues/comments/98554628/reactions"
            },
            "updated_at": "2015-05-03T23:04:59Z",
            "url": "https://api.github.com/repos/PrismarineJS/minecraft-data/issues/comments/98554628",
            "user": {
                "avatar_url": "https://avatars.githubusercontent.com/u/2346494?v=4",
                "events_url": "https://api.github.com/users/rom1504/events{/privacy}",
                "followers_url": "https://api.github.com/users/rom1504/followers",
                "following_url": "https://api.github.com/users/rom1504/following{/other_user}",
                "gists_url": "https://api.github.com/users/rom1504/gists{/gist_id}",
                "gravatar_id": "",
                "html_url": "https://github.com/rom1504",
                "id": 2346494,
                "login": "rom1504",
                "node_id": "MDQ6VXNlcjIzNDY0OTQ=",
                "organizations_url": "https://api.github.com/users/rom1504/orgs",
                "received_events_url": "https://api.github.com/users/rom1504/received_events",
                "repos_url": "https://api.github.com/users/rom1504/repos",
                "site_admin": false,
                "starred_url": "https://api.github.com/users/rom1504/starred{/owner}{/repo}",
                "subscriptions_url": "https://api.github.com/users/rom1504/subscriptions",
                "type": "User",
                "url": "https://api.github.com/users/rom1504"
            }
        }
    ],
    "comments": 2,
    "comments_url": "https://api.github.com/repos/PrismarineJS/minecraft-data/issues/20/comments",
    "created_at": "2015-05-03T22:57:30Z",
    "event_data": [
        {
            "actor": {
                "avatar_url": "https://avatars.githubusercontent.com/u/2346494?v=4",
                "events_url": "https://api.github.com/users/rom1504/events{/privacy}",
                "followers_url": "https://api.github.com/users/rom1504/followers",
                "following_url": "https://api.github.com/users/rom1504/following{/other_user}",
                "gists_url": "https://api.github.com/users/rom1504/gists{/gist_id}",
                "gravatar_id": "",
                "html_url": "https://github.com/rom1504",
                "id": 2346494,
                "login": "rom1504",
                "node_id": "MDQ6VXNlcjIzNDY0OTQ=",
                "organizations_url": "https://api.github.com/users/rom1504/orgs",
                "received_events_url": "https://api.github.com/users/rom1504/received_events",
                "repos_url": "https://api.github.com/users/rom1504/repos",
                "site_admin": false,
                "starred_url": "https://api.github.com/users/rom1504/starred{/owner}{/repo}",
                "subscriptions_url": "https://api.github.com/users/rom1504/subscriptions",
                "type": "User",
                "url": "https://api.github.com/users/rom1504"
            },
            "commit_id": null,
            "commit_url": null,
            "created_at": "2015-05-03T23:22:20Z",
            "event": "labeled",
            "id": 295866238,
            "label": {
                "color": "bfd4f2",
                "name": "new data"
            },
            "node_id": "MDEyOkxhYmVsZWRFdmVudDI5NTg2NjIzOA==",
            "performed_via_github_app": null,
            "url": "https://api.github.com/repos/PrismarineJS/minecraft-data/issues/events/295866238"
        },
        {
            "actor": {
                "avatar_url": "https://avatars.githubusercontent.com/u/2346494?v=4",
                "events_url": "https://api.github.com/users/rom1504/events{/privacy}",
                "followers_url": "https://api.github.com/users/rom1504/followers",
                "following_url": "https://api.github.com/users/rom1504/following{/other_user}",
                "gists_url": "https://api.github.com/users/rom1504/gists{/gist_id}",
                "gravatar_id": "",
                "html_url": "https://github.com/rom1504",
                "id": 2346494,
                "login": "rom1504",
                "node_id": "MDQ6VXNlcjIzNDY0OTQ=",
                "organizations_url": "https://api.github.com/users/rom1504/orgs",
                "received_events_url": "https://api.github.com/users/rom1504/received_events",
                "repos_url": "https://api.github.com/users/rom1504/repos",
                "site_admin": false,
                "starred_url": "https://api.github.com/users/rom1504/starred{/owner}{/repo}",
                "subscriptions_url": "https://api.github.com/users/rom1504/subscriptions",
                "type": "User",
                "url": "https://api.github.com/users/rom1504"
            },
            "commit_id": null,
            "commit_url": null,
            "created_at": "2015-05-03T23:22:28Z",
            "event": "labeled",
            "id": 295866251,
            "label": {
                "color": "0052cc",
                "name": "long term"
            },
            "node_id": "MDEyOkxhYmVsZWRFdmVudDI5NTg2NjI1MQ==",
            "performed_via_github_app": null,
            "url": "https://api.github.com/repos/PrismarineJS/minecraft-data/issues/events/295866251"
        }
    ],
    "events_url": "https://api.github.com/repos/PrismarineJS/minecraft-data/issues/20/events",
    "html_url": "https://github.com/PrismarineJS/minecraft-data/issues/20",
    "id": 72879057,
    "labels": [
        {
            "color": "0052cc",
            "default": false,
            "description": null,
            "id": 204581020,
            "name": "long term",
            "node_id": "MDU6TGFiZWwyMDQ1ODEwMjA=",
            "url": "https://api.github.com/repos/PrismarineJS/minecraft-data/labels/long%20term"
        },
        {
            "color": "bfd4f2",
            "default": false,
            "description": null,
            "id": 204581120,
            "name": "new data",
            "node_id": "MDU6TGFiZWwyMDQ1ODExMjA=",
            "url": "https://api.github.com/repos/PrismarineJS/minecraft-data/labels/new%20data"
        }
    ],
    "labels_url": "https://api.github.com/repos/PrismarineJS/minecraft-data/issues/20/labels{/name}",
    "locked": false,
    "milestone": null,
    "node_id": "MDU6SXNzdWU3Mjg3OTA1Nw==",
    "number": 20,
    "performed_via_github_app": null,
    "reactions": {
        "+1": 0,
        "-1": 0,
        "confused": 0,
        "eyes": 0,
        "heart": 0,
        "hooray": 0,
        "laugh": 0,
        "rocket": 0,
        "total_count": 0,
        "url": "https://api.github.com/repos/PrismarineJS/minecraft-data/issues/20/reactions"
    },
    "repository_url": "https://api.github.com/repos/PrismarineJS/minecraft-data",
    "state": "open",
    "state_reason": null,
    "timeline_url": "https://api.github.com/repos/PrismarineJS/minecraft-data/issues/20/timeline",
    "title": "A variations.json file ?",
    "updated_at": "2015-05-03T23:22:28Z",
    "url": "https://api.github.com/repos/PrismarineJS/minecraft-data/issues/20",
    "user": {
        "avatar_url": "https://avatars.githubusercontent.com/u/2346494?v=4",
        "events_url": "https://api.github.com/users/rom1504/events{/privacy}",
        "followers_url": "https://api.github.com/users/rom1504/followers",
        "following_url": "https://api.github.com/users/rom1504/following{/other_user}",
        "gists_url": "https://api.github.com/users/rom1504/gists{/gist_id}",
        "gravatar_id": "",
        "html_url": "https://github.com/rom1504",
        "id": 2346494,
        "login": "rom1504",
        "node_id": "MDQ6VXNlcjIzNDY0OTQ=",
        "organizations_url": "https://api.github.com/users/rom1504/orgs",
        "received_events_url": "https://api.github.com/users/rom1504/received_events",
        "repos_url": "https://api.github.com/users/rom1504/repos",
        "site_admin": false,
        "starred_url": "https://api.github.com/users/rom1504/starred{/owner}{/repo}",
        "subscriptions_url": "https://api.github.com/users/rom1504/subscriptions",
        "type": "User",
        "url": "https://api.github.com/users/rom1504"
    }
}