{
    "active_lock_reason": null,
    "assignee": null,
    "assignees": [],
    "author_association": "MEMBER",
    "body": "From https://github.com/PrismarineJS/minecraft-data/pull/734#discussion_r1261347563,\r\n\r\nEntity metadata enum may be wrongly numbered on 1.19.40+,\r\n> However, there are inconsistencies between numbering in [PocketMine](https://github.com/pmmp/BedrockProtocol/blame/7fe653370a2729850d2ccaf07f7dadd964ce2927/src/types/entity/EntityMetadataProperties.php) and [Gophertunnel](https://github.com/Sandertv/gophertunnel/blob/40c672b1bfdb4dc18728149d552f9fd5dfdcaa63/minecraft/protocol/entity_metadata.go) here, so this will need to be investigated later. (PocketMine doesn't list `update_properties` ; and `BASE_RUNTIME_ID` is in a different index). But we can address this later on since there is no clear path to resolution at the moment.\r\n\r\n",
    "closed_at": null,
    "comment_data": [],
    "comments": 0,
    "comments_url": "https://api.github.com/repos/PrismarineJS/minecraft-data/issues/735/comments",
    "created_at": "2023-07-12T17:28:56Z",
    "event_data": [],
    "events_url": "https://api.github.com/repos/PrismarineJS/minecraft-data/issues/735/events",
    "html_url": "https://github.com/PrismarineJS/minecraft-data/issues/735",
    "id": 1801435158,
    "labels": [],
    "labels_url": "https://api.github.com/repos/PrismarineJS/minecraft-data/issues/735/labels{/name}",
    "locked": false,
    "milestone": null,
    "node_id": "I_kwDOAfOYes5rX7gW",
    "number": 735,
    "performed_via_github_app": null,
    "reactions": {
        "+1": 0,
        "-1": 0,
        "confused": 0,
        "eyes": 0,
        "heart": 0,
        "hooray": 0,
        "laugh": 0,
        "rocket": 0,
        "total_count": 0,
        "url": "https://api.github.com/repos/PrismarineJS/minecraft-data/issues/735/reactions"
    },
    "repository_url": "https://api.github.com/repos/PrismarineJS/minecraft-data",
    "state": "open",
    "state_reason": null,
    "timeline_url": "https://api.github.com/repos/PrismarineJS/minecraft-data/issues/735/timeline",
    "title": "Fix bedrock protocol entity metadata",
    "updated_at": "2023-07-12T17:29:14Z",
    "url": "https://api.github.com/repos/PrismarineJS/minecraft-data/issues/735",
    "user": {
        "avatar_url": "https://avatars.githubusercontent.com/u/13713600?v=4",
        "events_url": "https://api.github.com/users/extremeheat/events{/privacy}",
        "followers_url": "https://api.github.com/users/extremeheat/followers",
        "following_url": "https://api.github.com/users/extremeheat/following{/other_user}",
        "gists_url": "https://api.github.com/users/extremeheat/gists{/gist_id}",
        "gravatar_id": "",
        "html_url": "https://github.com/extremeheat",
        "id": 13713600,
        "login": "extremeheat",
        "node_id": "MDQ6VXNlcjEzNzEzNjAw",
        "organizations_url": "https://api.github.com/users/extremeheat/orgs",
        "received_events_url": "https://api.github.com/users/extremeheat/received_events",
        "repos_url": "https://api.github.com/users/extremeheat/repos",
        "site_admin": false,
        "starred_url": "https://api.github.com/users/extremeheat/starred{/owner}{/repo}",
        "subscriptions_url": "https://api.github.com/users/extremeheat/subscriptions",
        "type": "User",
        "url": "https://api.github.com/users/extremeheat"
    }
}