{
    "active_lock_reason": null,
    "assignee": null,
    "assignees": [],
    "author_association": "MEMBER",
    "body": "this is one way to achieve it https://stackoverflow.com/a/60607788",
    "closed_at": null,
    "comment_data": [
        {
            "author_association": "MEMBER",
            "body": "/makerelease",
            "created_at": "2023-12-29T22:00:36Z",
            "html_url": "https://github.com/PrismarineJS/minecraft-data/issues/814#issuecomment-1872362016",
            "id": 1872362016,
            "issue_url": "https://api.github.com/repos/PrismarineJS/minecraft-data/issues/814",
            "node_id": "IC_kwDOAfOYes5vmfog",
            "performed_via_github_app": null,
            "reactions": {
                "+1": 0,
                "-1": 0,
                "confused": 0,
                "eyes": 1,
                "heart": 0,
                "hooray": 0,
                "laugh": 0,
                "rocket": 0,
                "total_count": 1,
                "url": "https://api.github.com/repos/PrismarineJS/minecraft-data/issues/comments/1872362016/reactions"
            },
            "updated_at": "2023-12-29T22:00:36Z",
            "url": "https://api.github.com/repos/PrismarineJS/minecraft-data/issues/comments/1872362016",
            "user": {
                "avatar_url": "https://avatars.githubusercontent.com/u/2346494?v=4",
                "events_url": "https://api.github.com/users/rom1504/events{/privacy}",
                "followers_url": "https://api.github.com/users/rom1504/followers",
                "following_url": "https://api.github.com/users/rom1504/following{/other_user}",
                "gists_url": "https://api.github.com/users/rom1504/gists{/gist_id}",
                "gravatar_id": "",
                "html_url": "https://github.com/rom1504",
                "id": 2346494,
                "login": "rom1504",
                "node_id": "MDQ6VXNlcjIzNDY0OTQ=",
                "organizations_url": "https://api.github.com/users/rom1504/orgs",
                "received_events_url": "https://api.github.com/users/rom1504/received_events",
                "repos_url": "https://api.github.com/users/rom1504/repos",
                "site_admin": false,
                "starred_url": "https://api.github.com/users/rom1504/starred{/owner}{/repo}",
                "subscriptions_url": "https://api.github.com/users/rom1504/subscriptions",
                "type": "User",
                "url": "https://api.github.com/users/rom1504"
            }
        }
    ],
    "comments": 1,
    "comments_url": "https://api.github.com/repos/PrismarineJS/minecraft-data/issues/814/comments",
    "created_at": "2023-12-29T09:56:33Z",
    "event_data": [],
    "events_url": "https://api.github.com/repos/PrismarineJS/minecraft-data/issues/814/events",
    "html_url": "https://github.com/PrismarineJS/minecraft-data/issues/814",
    "id": 2059260726,
    "labels": [],
    "labels_url": "https://api.github.com/repos/PrismarineJS/minecraft-data/issues/814/labels{/name}",
    "locked": false,
    "milestone": null,
    "node_id": "I_kwDOAfOYes56vdM2",
    "number": 814,
    "performed_via_github_app": null,
    "reactions": {
        "+1": 0,
        "-1": 0,
        "confused": 0,
        "eyes": 0,
        "heart": 0,
        "hooray": 0,
        "laugh": 0,
        "rocket": 0,
        "total_count": 0,
        "url": "https://api.github.com/repos/PrismarineJS/minecraft-data/issues/814/reactions"
    },
    "repository_url": "https://api.github.com/repos/PrismarineJS/minecraft-data",
    "state": "open",
    "state_reason": null,
    "timeline_url": "https://api.github.com/repos/PrismarineJS/minecraft-data/issues/814/timeline",
    "title": "Create gh action bot to diff protocol files",
    "updated_at": "2023-12-29T22:00:37Z",
    "url": "https://api.github.com/repos/PrismarineJS/minecraft-data/issues/814",
    "user": {
        "avatar_url": "https://avatars.githubusercontent.com/u/2346494?v=4",
        "events_url": "https://api.github.com/users/rom1504/events{/privacy}",
        "followers_url": "https://api.github.com/users/rom1504/followers",
        "following_url": "https://api.github.com/users/rom1504/following{/other_user}",
        "gists_url": "https://api.github.com/users/rom1504/gists{/gist_id}",
        "gravatar_id": "",
        "html_url": "https://github.com/rom1504",
        "id": 2346494,
        "login": "rom1504",
        "node_id": "MDQ6VXNlcjIzNDY0OTQ=",
        "organizations_url": "https://api.github.com/users/rom1504/orgs",
        "received_events_url": "https://api.github.com/users/rom1504/received_events",
        "repos_url": "https://api.github.com/users/rom1504/repos",
        "site_admin": false,
        "starred_url": "https://api.github.com/users/rom1504/starred{/owner}{/repo}",
        "subscriptions_url": "https://api.github.com/users/rom1504/subscriptions",
        "type": "User",
        "url": "https://api.github.com/users/rom1504"
    }
}