{
    "_links": {
        "comments": {
            "href": "https://api.github.com/repos/PrismarineJS/minecraft-jar-extractor/issues/14/comments"
        },
        "commits": {
            "href": "https://api.github.com/repos/PrismarineJS/minecraft-jar-extractor/pulls/14/commits"
        },
        "html": {
            "href": "https://github.com/PrismarineJS/minecraft-jar-extractor/pull/14"
        },
        "issue": {
            "href": "https://api.github.com/repos/PrismarineJS/minecraft-jar-extractor/issues/14"
        },
        "review_comment": {
            "href": "https://api.github.com/repos/PrismarineJS/minecraft-jar-extractor/pulls/comments{/number}"
        },
        "review_comments": {
            "href": "https://api.github.com/repos/PrismarineJS/minecraft-jar-extractor/pulls/14/comments"
        },
        "self": {
            "href": "https://api.github.com/repos/PrismarineJS/minecraft-jar-extractor/pulls/14"
        },
        "statuses": {
            "href": "https://api.github.com/repos/PrismarineJS/minecraft-jar-extractor/statuses/e9e5cad742ac62257de80688e5bb3e4dbbb761cc"
        }
    },
    "active_lock_reason": null,
    "additions": 1,
    "assignee": null,
    "assignees": [],
    "author_association": "CONTRIBUTOR",
    "auto_merge": null,
    "base": {
        "label": "PrismarineJS:master",
        "ref": "master",
        "repo": {
            "allow_forking": true,
            "archive_url": "https://api.github.com/repos/PrismarineJS/minecraft-jar-extractor/{archive_format}{/ref}",
            "archived": false,
            "assignees_url": "https://api.github.com/repos/PrismarineJS/minecraft-jar-extractor/assignees{/user}",
            "blobs_url": "https://api.github.com/repos/PrismarineJS/minecraft-jar-extractor/git/blobs{/sha}",
            "branches_url": "https://api.github.com/repos/PrismarineJS/minecraft-jar-extractor/branches{/branch}",
            "clone_url": "https://github.com/PrismarineJS/minecraft-jar-extractor.git",
            "collaborators_url": "https://api.github.com/repos/PrismarineJS/minecraft-jar-extractor/collaborators{/collaborator}",
            "comments_url": "https://api.github.com/repos/PrismarineJS/minecraft-jar-extractor/comments{/number}",
            "commits_url": "https://api.github.com/repos/PrismarineJS/minecraft-jar-extractor/commits{/sha}",
            "compare_url": "https://api.github.com/repos/PrismarineJS/minecraft-jar-extractor/compare/{base}...{head}",
            "contents_url": "https://api.github.com/repos/PrismarineJS/minecraft-jar-extractor/contents/{+path}",
            "contributors_url": "https://api.github.com/repos/PrismarineJS/minecraft-jar-extractor/contributors",
            "created_at": "2015-10-14T18:40:48Z",
            "default_branch": "master",
            "deployments_url": "https://api.github.com/repos/PrismarineJS/minecraft-jar-extractor/deployments",
            "description": "Extract structured data from the minecraft jar",
            "disabled": false,
            "downloads_url": "https://api.github.com/repos/PrismarineJS/minecraft-jar-extractor/downloads",
            "events_url": "https://api.github.com/repos/PrismarineJS/minecraft-jar-extractor/events",
            "fork": false,
            "forks": 8,
            "forks_count": 8,
            "forks_url": "https://api.github.com/repos/PrismarineJS/minecraft-jar-extractor/forks",
            "full_name": "PrismarineJS/minecraft-jar-extractor",
            "git_commits_url": "https://api.github.com/repos/PrismarineJS/minecraft-jar-extractor/git/commits{/sha}",
            "git_refs_url": "https://api.github.com/repos/PrismarineJS/minecraft-jar-extractor/git/refs{/sha}",
            "git_tags_url": "https://api.github.com/repos/PrismarineJS/minecraft-jar-extractor/git/tags{/sha}",
            "git_url": "git://github.com/PrismarineJS/minecraft-jar-extractor.git",
            "has_discussions": false,
            "has_downloads": true,
            "has_issues": true,
            "has_pages": false,
            "has_projects": true,
            "has_wiki": true,
            "homepage": null,
            "hooks_url": "https://api.github.com/repos/PrismarineJS/minecraft-jar-extractor/hooks",
            "html_url": "https://github.com/PrismarineJS/minecraft-jar-extractor",
            "id": 44268611,
            "is_template": false,
            "issue_comment_url": "https://api.github.com/repos/PrismarineJS/minecraft-jar-extractor/issues/comments{/number}",
            "issue_events_url": "https://api.github.com/repos/PrismarineJS/minecraft-jar-extractor/issues/events{/number}",
            "issues_url": "https://api.github.com/repos/PrismarineJS/minecraft-jar-extractor/issues{/number}",
            "keys_url": "https://api.github.com/repos/PrismarineJS/minecraft-jar-extractor/keys{/key_id}",
            "labels_url": "https://api.github.com/repos/PrismarineJS/minecraft-jar-extractor/labels{/name}",
            "language": "JavaScript",
            "languages_url": "https://api.github.com/repos/PrismarineJS/minecraft-jar-extractor/languages",
            "license": null,
            "merges_url": "https://api.github.com/repos/PrismarineJS/minecraft-jar-extractor/merges",
            "milestones_url": "https://api.github.com/repos/PrismarineJS/minecraft-jar-extractor/milestones{/number}",
            "mirror_url": null,
            "name": "minecraft-jar-extractor",
            "node_id": "MDEwOlJlcG9zaXRvcnk0NDI2ODYxMQ==",
            "notifications_url": "https://api.github.com/repos/PrismarineJS/minecraft-jar-extractor/notifications{?since,all,participating}",
            "open_issues": 6,
            "open_issues_count": 6,
            "owner": {
                "avatar_url": "https://avatars.githubusercontent.com/u/11053411?v=4",
                "events_url": "https://api.github.com/users/PrismarineJS/events{/privacy}",
                "followers_url": "https://api.github.com/users/PrismarineJS/followers",
                "following_url": "https://api.github.com/users/PrismarineJS/following{/other_user}",
                "gists_url": "https://api.github.com/users/PrismarineJS/gists{/gist_id}",
                "gravatar_id": "",
                "html_url": "https://github.com/PrismarineJS",
                "id": 11053411,
                "login": "PrismarineJS",
                "node_id": "MDEyOk9yZ2FuaXphdGlvbjExMDUzNDEx",
                "organizations_url": "https://api.github.com/users/PrismarineJS/orgs",
                "received_events_url": "https://api.github.com/users/PrismarineJS/received_events",
                "repos_url": "https://api.github.com/users/PrismarineJS/repos",
                "site_admin": false,
                "starred_url": "https://api.github.com/users/PrismarineJS/starred{/owner}{/repo}",
                "subscriptions_url": "https://api.github.com/users/PrismarineJS/subscriptions",
                "type": "Organization",
                "url": "https://api.github.com/users/PrismarineJS"
            },
            "private": false,
            "pulls_url": "https://api.github.com/repos/PrismarineJS/minecraft-jar-extractor/pulls{/number}",
            "pushed_at": "2023-04-10T14:58:32Z",
            "releases_url": "https://api.github.com/repos/PrismarineJS/minecraft-jar-extractor/releases{/id}",
            "size": 64,
            "ssh_url": "git@github.com:PrismarineJS/minecraft-jar-extractor.git",
            "stargazers_count": 8,
            "stargazers_url": "https://api.github.com/repos/PrismarineJS/minecraft-jar-extractor/stargazers",
            "statuses_url": "https://api.github.com/repos/PrismarineJS/minecraft-jar-extractor/statuses/{sha}",
            "subscribers_url": "https://api.github.com/repos/PrismarineJS/minecraft-jar-extractor/subscribers",
            "subscription_url": "https://api.github.com/repos/PrismarineJS/minecraft-jar-extractor/subscription",
            "svn_url": "https://github.com/PrismarineJS/minecraft-jar-extractor",
            "tags_url": "https://api.github.com/repos/PrismarineJS/minecraft-jar-extractor/tags",
            "teams_url": "https://api.github.com/repos/PrismarineJS/minecraft-jar-extractor/teams",
            "topics": [],
            "trees_url": "https://api.github.com/repos/PrismarineJS/minecraft-jar-extractor/git/trees{/sha}",
            "updated_at": "2022-06-15T00:56:15Z",
            "url": "https://api.github.com/repos/PrismarineJS/minecraft-jar-extractor",
            "visibility": "public",
            "watchers": 8,
            "watchers_count": 8,
            "web_commit_signoff_required": false
        },
        "sha": "628e062a10d135681f64357f60751d76655d762a",
        "user": {
            "avatar_url": "https://avatars.githubusercontent.com/u/11053411?v=4",
            "events_url": "https://api.github.com/users/PrismarineJS/events{/privacy}",
            "followers_url": "https://api.github.com/users/PrismarineJS/followers",
            "following_url": "https://api.github.com/users/PrismarineJS/following{/other_user}",
            "gists_url": "https://api.github.com/users/PrismarineJS/gists{/gist_id}",
            "gravatar_id": "",
            "html_url": "https://github.com/PrismarineJS",
            "id": 11053411,
            "login": "PrismarineJS",
            "node_id": "MDEyOk9yZ2FuaXphdGlvbjExMDUzNDEx",
            "organizations_url": "https://api.github.com/users/PrismarineJS/orgs",
            "received_events_url": "https://api.github.com/users/PrismarineJS/received_events",
            "repos_url": "https://api.github.com/users/PrismarineJS/repos",
            "site_admin": false,
            "starred_url": "https://api.github.com/users/PrismarineJS/starred{/owner}{/repo}",
            "subscriptions_url": "https://api.github.com/users/PrismarineJS/subscriptions",
            "type": "Organization",
            "url": "https://api.github.com/users/PrismarineJS"
        }
    },
    "body": "Bumps [mkdirp](https://github.com/isaacs/node-mkdirp) from 0.5.5 to 1.0.4.\n<details>\n<summary>Changelog</summary>\n<p><em>Sourced from <a href=\"https://github.com/isaacs/node-mkdirp/blob/master/CHANGELOG.md\">mkdirp's changelog</a>.</em></p>\n<blockquote>\n<h1>Changers Lorgs!</h1>\n<h2>1.0</h2>\n<p>Full rewrite.  Essentially a brand new module.</p>\n<ul>\n<li>Return a promise instead of taking a callback.</li>\n<li>Use native <code>fs.mkdir(path, { recursive: true })</code> when available.</li>\n<li>Drop support for outdated Node.js versions.  (Technically still works on\nNode.js v8, but only 10 and above are officially supported.)</li>\n</ul>\n<h2>0.x</h2>\n<p>Original and most widely used recursive directory creation implementation\nin JavaScript, dating back to 2010.</p>\n</blockquote>\n</details>\n<details>\n<summary>Commits</summary>\n<ul>\n<li><a href=\"https://github.com/isaacs/node-mkdirp/commit/b694079b54a0a59ef150c54b29c7c24e90d642f5\"><code>b694079</code></a> 1.0.4</li>\n<li><a href=\"https://github.com/isaacs/node-mkdirp/commit/2d42170b9ff33d24c4381a30635705bca1a7f503\"><code>2d42170</code></a> Remove unnecessary process.umask()</li>\n<li><a href=\"https://github.com/isaacs/node-mkdirp/commit/4d59b810edfc3c200ccfcb520949b896e30294a1\"><code>4d59b81</code></a> update tap</li>\n<li><a href=\"https://github.com/isaacs/node-mkdirp/commit/117328b7139118ccb78ca7a0d3610e7686f35b94\"><code>117328b</code></a> remove outdated example</li>\n<li><a href=\"https://github.com/isaacs/node-mkdirp/commit/7cd4e9eb9a4376b551414a154b26697cf21d9b93\"><code>7cd4e9e</code></a> correct gitignore</li>\n<li><a href=\"https://github.com/isaacs/node-mkdirp/commit/9f29fc8c09b806cdb88e1f6699b31d7969b510dc\"><code>9f29fc8</code></a> 1.0.3</li>\n<li><a href=\"https://github.com/isaacs/node-mkdirp/commit/e84d327e38d275846b84c0bde353bd2921bfae51\"><code>e84d327</code></a> Handle EROFS errors</li>\n<li><a href=\"https://github.com/isaacs/node-mkdirp/commit/6b2632d8cedebac3ba7892f0436684962546653f\"><code>6b2632d</code></a> add sponsorship button</li>\n<li><a href=\"https://github.com/isaacs/node-mkdirp/commit/6a061db3ded59fb867557116e6c5070e6916e557\"><code>6a061db</code></a> 1.0.2</li>\n<li><a href=\"https://github.com/isaacs/node-mkdirp/commit/11d2b2afce0cd448835eebbf1529dfbb13d68945\"><code>11d2b2a</code></a> readme typo</li>\n<li>Additional commits viewable in <a href=\"https://github.com/isaacs/node-mkdirp/compare/v0.5.5...v1.0.4\">compare view</a></li>\n</ul>\n</details>\n<br />\n\n\n[![Dependabot compatibility score](https://api.dependabot.com/badges/compatibility_score?dependency-name=mkdirp&package-manager=npm_and_yarn&previous-version=0.5.5&new-version=1.0.4)](https://dependabot.com/compatibility-score/?dependency-name=mkdirp&package-manager=npm_and_yarn&previous-version=0.5.5&new-version=1.0.4)\n\nDependabot will resolve any conflicts with this PR as long as you don't alter it yourself. You can also trigger a rebase manually by commenting `@dependabot rebase`.\n\n[//]: # (dependabot-automerge-start)\n[//]: # (dependabot-automerge-end)\n\n---\n\n**Note:** This repo was added to Dependabot recently, so you'll receive a maximum of 5 PRs for your first few update runs. Once an update run creates fewer than 5 PRs we'll remove that limit.\n\nYou can always request more updates by clicking `Bump now` in your [Dependabot dashboard](https://app.dependabot.com).\n\n<details>\n<summary>Dependabot commands and options</summary>\n<br />\n\nYou can trigger Dependabot actions by commenting on this PR:\n- `@dependabot rebase` will rebase this PR\n- `@dependabot recreate` will recreate this PR, overwriting any edits that have been made to it\n- `@dependabot merge` will merge this PR after your CI passes on it\n- `@dependabot squash and merge` will squash and merge this PR after your CI passes on it\n- `@dependabot cancel merge` will cancel a previously requested merge and block automerging\n- `@dependabot reopen` will reopen this PR if it is closed\n- `@dependabot close` will close this PR and stop Dependabot recreating it. You can achieve the same result by closing it manually\n- `@dependabot ignore this major version` will close this PR and stop Dependabot creating any more for this major version (unless you reopen the PR or upgrade to it yourself)\n- `@dependabot ignore this minor version` will close this PR and stop Dependabot creating any more for this minor version (unless you reopen the PR or upgrade to it yourself)\n- `@dependabot ignore this dependency` will close this PR and stop Dependabot creating any more for this dependency (unless you reopen the PR or upgrade to it yourself)\n- `@dependabot use these labels` will set the current labels as the default for future PRs for this repo and language\n- `@dependabot use these reviewers` will set the current reviewers as the default for future PRs for this repo and language\n- `@dependabot use these assignees` will set the current assignees as the default for future PRs for this repo and language\n- `@dependabot use this milestone` will set the current milestone as the default for future PRs for this repo and language\n- `@dependabot badge me` will comment on this PR with code to add a \"Dependabot enabled\" badge to your readme\n\nAdditionally, you can set the following in your Dependabot [dashboard](https://app.dependabot.com):\n- Update frequency (including time of day and day of week)\n- Pull request limits (per update run and/or open at any time)\n- Out-of-range updates (receive only lockfile updates, if desired)\n- Security updates (receive only security updates, if desired)\n\n\n\n</details>",
    "changed_files": 1,
    "closed_at": "2020-06-28T22:10:59Z",
    "comment_data": [],
    "comment_regular_data": [
        {
            "author_association": "MEMBER",
            "body": "not sure if compatible",
            "created_at": "2020-05-17T10:49:32Z",
            "html_url": "https://github.com/PrismarineJS/minecraft-jar-extractor/pull/14#issuecomment-629777808",
            "id": 629777808,
            "issue_url": "https://api.github.com/repos/PrismarineJS/minecraft-jar-extractor/issues/14",
            "node_id": "MDEyOklzc3VlQ29tbWVudDYyOTc3NzgwOA==",
            "performed_via_github_app": null,
            "reactions": {
                "+1": 0,
                "-1": 0,
                "confused": 0,
                "eyes": 0,
                "heart": 0,
                "hooray": 0,
                "laugh": 0,
                "rocket": 0,
                "total_count": 0,
                "url": "https://api.github.com/repos/PrismarineJS/minecraft-jar-extractor/issues/comments/629777808/reactions"
            },
            "updated_at": "2020-05-17T10:49:32Z",
            "url": "https://api.github.com/repos/PrismarineJS/minecraft-jar-extractor/issues/comments/629777808",
            "user": {
                "avatar_url": "https://avatars.githubusercontent.com/u/2346494?v=4",
                "events_url": "https://api.github.com/users/rom1504/events{/privacy}",
                "followers_url": "https://api.github.com/users/rom1504/followers",
                "following_url": "https://api.github.com/users/rom1504/following{/other_user}",
                "gists_url": "https://api.github.com/users/rom1504/gists{/gist_id}",
                "gravatar_id": "",
                "html_url": "https://github.com/rom1504",
                "id": 2346494,
                "login": "rom1504",
                "node_id": "MDQ6VXNlcjIzNDY0OTQ=",
                "organizations_url": "https://api.github.com/users/rom1504/orgs",
                "received_events_url": "https://api.github.com/users/rom1504/received_events",
                "repos_url": "https://api.github.com/users/rom1504/repos",
                "site_admin": false,
                "starred_url": "https://api.github.com/users/rom1504/starred{/owner}{/repo}",
                "subscriptions_url": "https://api.github.com/users/rom1504/subscriptions",
                "type": "User",
                "url": "https://api.github.com/users/rom1504"
            }
        },
        {
            "author_association": "CONTRIBUTOR",
            "body": "Dependabot tried to update this pull request, but something went wrong. We're looking into it, but in the meantime you can retry the update by commenting `@dependabot rebase`.",
            "created_at": "2020-05-17T11:17:08Z",
            "html_url": "https://github.com/PrismarineJS/minecraft-jar-extractor/pull/14#issuecomment-629780867",
            "id": 629780867,
            "issue_url": "https://api.github.com/repos/PrismarineJS/minecraft-jar-extractor/issues/14",
            "node_id": "MDEyOklzc3VlQ29tbWVudDYyOTc4MDg2Nw==",
            "performed_via_github_app": null,
            "reactions": {
                "+1": 0,
                "-1": 0,
                "confused": 0,
                "eyes": 0,
                "heart": 0,
                "hooray": 0,
                "laugh": 0,
                "rocket": 0,
                "total_count": 0,
                "url": "https://api.github.com/repos/PrismarineJS/minecraft-jar-extractor/issues/comments/629780867/reactions"
            },
            "updated_at": "2020-05-17T11:17:08Z",
            "url": "https://api.github.com/repos/PrismarineJS/minecraft-jar-extractor/issues/comments/629780867",
            "user": {
                "avatar_url": "https://avatars.githubusercontent.com/in/2141?v=4",
                "events_url": "https://api.github.com/users/dependabot-preview%5Bbot%5D/events{/privacy}",
                "followers_url": "https://api.github.com/users/dependabot-preview%5Bbot%5D/followers",
                "following_url": "https://api.github.com/users/dependabot-preview%5Bbot%5D/following{/other_user}",
                "gists_url": "https://api.github.com/users/dependabot-preview%5Bbot%5D/gists{/gist_id}",
                "gravatar_id": "",
                "html_url": "https://github.com/apps/dependabot-preview",
                "id": 27856297,
                "login": "dependabot-preview[bot]",
                "node_id": "MDM6Qm90Mjc4NTYyOTc=",
                "organizations_url": "https://api.github.com/users/dependabot-preview%5Bbot%5D/orgs",
                "received_events_url": "https://api.github.com/users/dependabot-preview%5Bbot%5D/received_events",
                "repos_url": "https://api.github.com/users/dependabot-preview%5Bbot%5D/repos",
                "site_admin": false,
                "starred_url": "https://api.github.com/users/dependabot-preview%5Bbot%5D/starred{/owner}{/repo}",
                "subscriptions_url": "https://api.github.com/users/dependabot-preview%5Bbot%5D/subscriptions",
                "type": "Bot",
                "url": "https://api.github.com/users/dependabot-preview%5Bbot%5D"
            }
        },
        {
            "author_association": "MEMBER",
            "body": "no",
            "created_at": "2020-06-28T22:10:59Z",
            "html_url": "https://github.com/PrismarineJS/minecraft-jar-extractor/pull/14#issuecomment-650828851",
            "id": 650828851,
            "issue_url": "https://api.github.com/repos/PrismarineJS/minecraft-jar-extractor/issues/14",
            "node_id": "MDEyOklzc3VlQ29tbWVudDY1MDgyODg1MQ==",
            "performed_via_github_app": null,
            "reactions": {
                "+1": 0,
                "-1": 0,
                "confused": 0,
                "eyes": 0,
                "heart": 0,
                "hooray": 0,
                "laugh": 0,
                "rocket": 0,
                "total_count": 0,
                "url": "https://api.github.com/repos/PrismarineJS/minecraft-jar-extractor/issues/comments/650828851/reactions"
            },
            "updated_at": "2020-06-28T22:10:59Z",
            "url": "https://api.github.com/repos/PrismarineJS/minecraft-jar-extractor/issues/comments/650828851",
            "user": {
                "avatar_url": "https://avatars.githubusercontent.com/u/2346494?v=4",
                "events_url": "https://api.github.com/users/rom1504/events{/privacy}",
                "followers_url": "https://api.github.com/users/rom1504/followers",
                "following_url": "https://api.github.com/users/rom1504/following{/other_user}",
                "gists_url": "https://api.github.com/users/rom1504/gists{/gist_id}",
                "gravatar_id": "",
                "html_url": "https://github.com/rom1504",
                "id": 2346494,
                "login": "rom1504",
                "node_id": "MDQ6VXNlcjIzNDY0OTQ=",
                "organizations_url": "https://api.github.com/users/rom1504/orgs",
                "received_events_url": "https://api.github.com/users/rom1504/received_events",
                "repos_url": "https://api.github.com/users/rom1504/repos",
                "site_admin": false,
                "starred_url": "https://api.github.com/users/rom1504/starred{/owner}{/repo}",
                "subscriptions_url": "https://api.github.com/users/rom1504/subscriptions",
                "type": "User",
                "url": "https://api.github.com/users/rom1504"
            }
        },
        {
            "author_association": "CONTRIBUTOR",
            "body": "OK, I won't notify you again about this release, but will get in touch when a new version is available. If you'd rather skip all updates until the next major or minor version, let me know by commenting `@dependabot ignore this major version` or `@dependabot ignore this minor version`.\n\nIf you change your mind, just re-open this PR and I'll resolve any conflicts on it.",
            "created_at": "2020-06-28T22:11:01Z",
            "html_url": "https://github.com/PrismarineJS/minecraft-jar-extractor/pull/14#issuecomment-650828854",
            "id": 650828854,
            "issue_url": "https://api.github.com/repos/PrismarineJS/minecraft-jar-extractor/issues/14",
            "node_id": "MDEyOklzc3VlQ29tbWVudDY1MDgyODg1NA==",
            "performed_via_github_app": null,
            "reactions": {
                "+1": 0,
                "-1": 0,
                "confused": 0,
                "eyes": 0,
                "heart": 0,
                "hooray": 0,
                "laugh": 0,
                "rocket": 0,
                "total_count": 0,
                "url": "https://api.github.com/repos/PrismarineJS/minecraft-jar-extractor/issues/comments/650828854/reactions"
            },
            "updated_at": "2020-06-28T22:11:01Z",
            "url": "https://api.github.com/repos/PrismarineJS/minecraft-jar-extractor/issues/comments/650828854",
            "user": {
                "avatar_url": "https://avatars.githubusercontent.com/in/2141?v=4",
                "events_url": "https://api.github.com/users/dependabot-preview%5Bbot%5D/events{/privacy}",
                "followers_url": "https://api.github.com/users/dependabot-preview%5Bbot%5D/followers",
                "following_url": "https://api.github.com/users/dependabot-preview%5Bbot%5D/following{/other_user}",
                "gists_url": "https://api.github.com/users/dependabot-preview%5Bbot%5D/gists{/gist_id}",
                "gravatar_id": "",
                "html_url": "https://github.com/apps/dependabot-preview",
                "id": 27856297,
                "login": "dependabot-preview[bot]",
                "node_id": "MDM6Qm90Mjc4NTYyOTc=",
                "organizations_url": "https://api.github.com/users/dependabot-preview%5Bbot%5D/orgs",
                "received_events_url": "https://api.github.com/users/dependabot-preview%5Bbot%5D/received_events",
                "repos_url": "https://api.github.com/users/dependabot-preview%5Bbot%5D/repos",
                "site_admin": false,
                "starred_url": "https://api.github.com/users/dependabot-preview%5Bbot%5D/starred{/owner}{/repo}",
                "subscriptions_url": "https://api.github.com/users/dependabot-preview%5Bbot%5D/subscriptions",
                "type": "Bot",
                "url": "https://api.github.com/users/dependabot-preview%5Bbot%5D"
            }
        },
        {
            "author_association": "MEMBER",
            "body": "@dependabot ignore this major version",
            "created_at": "2020-06-28T22:11:08Z",
            "html_url": "https://github.com/PrismarineJS/minecraft-jar-extractor/pull/14#issuecomment-650828863",
            "id": 650828863,
            "issue_url": "https://api.github.com/repos/PrismarineJS/minecraft-jar-extractor/issues/14",
            "node_id": "MDEyOklzc3VlQ29tbWVudDY1MDgyODg2Mw==",
            "performed_via_github_app": null,
            "reactions": {
                "+1": 0,
                "-1": 0,
                "confused": 0,
                "eyes": 0,
                "heart": 0,
                "hooray": 0,
                "laugh": 0,
                "rocket": 0,
                "total_count": 0,
                "url": "https://api.github.com/repos/PrismarineJS/minecraft-jar-extractor/issues/comments/650828863/reactions"
            },
            "updated_at": "2020-06-28T22:11:08Z",
            "url": "https://api.github.com/repos/PrismarineJS/minecraft-jar-extractor/issues/comments/650828863",
            "user": {
                "avatar_url": "https://avatars.githubusercontent.com/u/2346494?v=4",
                "events_url": "https://api.github.com/users/rom1504/events{/privacy}",
                "followers_url": "https://api.github.com/users/rom1504/followers",
                "following_url": "https://api.github.com/users/rom1504/following{/other_user}",
                "gists_url": "https://api.github.com/users/rom1504/gists{/gist_id}",
                "gravatar_id": "",
                "html_url": "https://github.com/rom1504",
                "id": 2346494,
                "login": "rom1504",
                "node_id": "MDQ6VXNlcjIzNDY0OTQ=",
                "organizations_url": "https://api.github.com/users/rom1504/orgs",
                "received_events_url": "https://api.github.com/users/rom1504/received_events",
                "repos_url": "https://api.github.com/users/rom1504/repos",
                "site_admin": false,
                "starred_url": "https://api.github.com/users/rom1504/starred{/owner}{/repo}",
                "subscriptions_url": "https://api.github.com/users/rom1504/subscriptions",
                "type": "User",
                "url": "https://api.github.com/users/rom1504"
            }
        },
        {
            "author_association": "CONTRIBUTOR",
            "body": "OK, I won't notify you about version 1.x.x again, unless you re-open this PR or update to a 1.x.x release yourself.",
            "created_at": "2020-06-28T22:11:10Z",
            "html_url": "https://github.com/PrismarineJS/minecraft-jar-extractor/pull/14#issuecomment-650828869",
            "id": 650828869,
            "issue_url": "https://api.github.com/repos/PrismarineJS/minecraft-jar-extractor/issues/14",
            "node_id": "MDEyOklzc3VlQ29tbWVudDY1MDgyODg2OQ==",
            "performed_via_github_app": null,
            "reactions": {
                "+1": 0,
                "-1": 0,
                "confused": 0,
                "eyes": 0,
                "heart": 0,
                "hooray": 0,
                "laugh": 0,
                "rocket": 0,
                "total_count": 0,
                "url": "https://api.github.com/repos/PrismarineJS/minecraft-jar-extractor/issues/comments/650828869/reactions"
            },
            "updated_at": "2020-06-28T22:11:10Z",
            "url": "https://api.github.com/repos/PrismarineJS/minecraft-jar-extractor/issues/comments/650828869",
            "user": {
                "avatar_url": "https://avatars.githubusercontent.com/in/2141?v=4",
                "events_url": "https://api.github.com/users/dependabot-preview%5Bbot%5D/events{/privacy}",
                "followers_url": "https://api.github.com/users/dependabot-preview%5Bbot%5D/followers",
                "following_url": "https://api.github.com/users/dependabot-preview%5Bbot%5D/following{/other_user}",
                "gists_url": "https://api.github.com/users/dependabot-preview%5Bbot%5D/gists{/gist_id}",
                "gravatar_id": "",
                "html_url": "https://github.com/apps/dependabot-preview",
                "id": 27856297,
                "login": "dependabot-preview[bot]",
                "node_id": "MDM6Qm90Mjc4NTYyOTc=",
                "organizations_url": "https://api.github.com/users/dependabot-preview%5Bbot%5D/orgs",
                "received_events_url": "https://api.github.com/users/dependabot-preview%5Bbot%5D/received_events",
                "repos_url": "https://api.github.com/users/dependabot-preview%5Bbot%5D/repos",
                "site_admin": false,
                "starred_url": "https://api.github.com/users/dependabot-preview%5Bbot%5D/starred{/owner}{/repo}",
                "subscriptions_url": "https://api.github.com/users/dependabot-preview%5Bbot%5D/subscriptions",
                "type": "Bot",
                "url": "https://api.github.com/users/dependabot-preview%5Bbot%5D"
            }
        }
    ],
    "comments": 6,
    "comments_url": "https://api.github.com/repos/PrismarineJS/minecraft-jar-extractor/issues/14/comments",
    "commit_data": [
        {
            "author": {
                "avatar_url": "https://avatars.githubusercontent.com/in/2141?v=4",
                "events_url": "https://api.github.com/users/dependabot-preview%5Bbot%5D/events{/privacy}",
                "followers_url": "https://api.github.com/users/dependabot-preview%5Bbot%5D/followers",
                "following_url": "https://api.github.com/users/dependabot-preview%5Bbot%5D/following{/other_user}",
                "gists_url": "https://api.github.com/users/dependabot-preview%5Bbot%5D/gists{/gist_id}",
                "gravatar_id": "",
                "html_url": "https://github.com/apps/dependabot-preview",
                "id": 27856297,
                "login": "dependabot-preview[bot]",
                "node_id": "MDM6Qm90Mjc4NTYyOTc=",
                "organizations_url": "https://api.github.com/users/dependabot-preview%5Bbot%5D/orgs",
                "received_events_url": "https://api.github.com/users/dependabot-preview%5Bbot%5D/received_events",
                "repos_url": "https://api.github.com/users/dependabot-preview%5Bbot%5D/repos",
                "site_admin": false,
                "starred_url": "https://api.github.com/users/dependabot-preview%5Bbot%5D/starred{/owner}{/repo}",
                "subscriptions_url": "https://api.github.com/users/dependabot-preview%5Bbot%5D/subscriptions",
                "type": "Bot",
                "url": "https://api.github.com/users/dependabot-preview%5Bbot%5D"
            },
            "comments_url": "https://api.github.com/repos/PrismarineJS/minecraft-jar-extractor/commits/e9e5cad742ac62257de80688e5bb3e4dbbb761cc/comments",
            "commit": {
                "author": {
                    "date": "2020-06-28T21:58:01Z",
                    "email": "27856297+dependabot-preview[bot]@users.noreply.github.com",
                    "name": "dependabot-preview[bot]"
                },
                "comment_count": 0,
                "committer": {
                    "date": "2020-06-28T21:58:01Z",
                    "email": "noreply@github.com",
                    "name": "GitHub"
                },
                "message": "Bump mkdirp from 0.5.5 to 1.0.4\n\nBumps [mkdirp](https://github.com/isaacs/node-mkdirp) from 0.5.5 to 1.0.4.\n- [Release notes](https://github.com/isaacs/node-mkdirp/releases)\n- [Changelog](https://github.com/isaacs/node-mkdirp/blob/master/CHANGELOG.md)\n- [Commits](https://github.com/isaacs/node-mkdirp/compare/v0.5.5...v1.0.4)\n\nSigned-off-by: dependabot-preview[bot] <support@dependabot.com>",
                "tree": {
                    "sha": "b4b2f69922f671faa6a5dee126197b5e0bbec22c",
                    "url": "https://api.github.com/repos/PrismarineJS/minecraft-jar-extractor/git/trees/b4b2f69922f671faa6a5dee126197b5e0bbec22c"
                },
                "url": "https://api.github.com/repos/PrismarineJS/minecraft-jar-extractor/git/commits/e9e5cad742ac62257de80688e5bb3e4dbbb761cc",
                "verification": {
                    "payload": "tree b4b2f69922f671faa6a5dee126197b5e0bbec22c\nparent 628e062a10d135681f64357f60751d76655d762a\nauthor dependabot-preview[bot] <27856297+dependabot-preview[bot]@users.noreply.github.com> 1593381481 +0000\ncommitter GitHub <noreply@github.com> 1593381481 +0000\n\nBump mkdirp from 0.5.5 to 1.0.4\n\nBumps [mkdirp](https://github.com/isaacs/node-mkdirp) from 0.5.5 to 1.0.4.\n- [Release notes](https://github.com/isaacs/node-mkdirp/releases)\n- [Changelog](https://github.com/isaacs/node-mkdirp/blob/master/CHANGELOG.md)\n- [Commits](https://github.com/isaacs/node-mkdirp/compare/v0.5.5...v1.0.4)\n\nSigned-off-by: dependabot-preview[bot] <support@dependabot.com>",
                    "reason": "valid",
                    "signature": "-----BEGIN PGP SIGNATURE-----\n\nwsBcBAABCAAQBQJe+RJpCRBK7hj4Ov3rIwAAdHIIAFaf/BOjKVr6fQS3/tA/hXR0\nXhSFJUSSEzquRZxiqeR/DRfELxLPXmKw4ZRKe1ML5fFu4q/nrY65uzQIrZMF7IRo\nnT4FOUo0/qbIWwP317Q7Wnuc8HVbgxzk4hjXe/MDAQ4iOZOZf0vw0nOSvh+vOu8o\n38Mj8SyQ/XBAl43BIcLf2Tbo1mtpifI+iz24XnrFTKyroHAznQWnYXQGScDA7gN9\nOwKL0l/WsTd3wJ6qCd5OYx6UVIQiVc+hcwWVX9fmYgmgnNHpapFb7GZg6uUFrxYK\niNI64Gwrv65+tslZepfQPs/gC65HWgCjxsyQNSbJu63Ff9XsElPq9BLrLFotqQk=\n=Qach\n-----END PGP SIGNATURE-----\n",
                    "verified": true
                }
            },
            "committer": {
                "avatar_url": "https://avatars.githubusercontent.com/u/19864447?v=4",
                "events_url": "https://api.github.com/users/web-flow/events{/privacy}",
                "followers_url": "https://api.github.com/users/web-flow/followers",
                "following_url": "https://api.github.com/users/web-flow/following{/other_user}",
                "gists_url": "https://api.github.com/users/web-flow/gists{/gist_id}",
                "gravatar_id": "",
                "html_url": "https://github.com/web-flow",
                "id": 19864447,
                "login": "web-flow",
                "node_id": "MDQ6VXNlcjE5ODY0NDQ3",
                "organizations_url": "https://api.github.com/users/web-flow/orgs",
                "received_events_url": "https://api.github.com/users/web-flow/received_events",
                "repos_url": "https://api.github.com/users/web-flow/repos",
                "site_admin": false,
                "starred_url": "https://api.github.com/users/web-flow/starred{/owner}{/repo}",
                "subscriptions_url": "https://api.github.com/users/web-flow/subscriptions",
                "type": "User",
                "url": "https://api.github.com/users/web-flow"
            },
            "html_url": "https://github.com/PrismarineJS/minecraft-jar-extractor/commit/e9e5cad742ac62257de80688e5bb3e4dbbb761cc",
            "node_id": "MDY6Q29tbWl0NDQyNjg2MTE6ZTllNWNhZDc0MmFjNjIyNTdkZTgwNjg4ZTViYjNlNGRiYmI3NjFjYw==",
            "parents": [
                {
                    "html_url": "https://github.com/PrismarineJS/minecraft-jar-extractor/commit/628e062a10d135681f64357f60751d76655d762a",
                    "sha": "628e062a10d135681f64357f60751d76655d762a",
                    "url": "https://api.github.com/repos/PrismarineJS/minecraft-jar-extractor/commits/628e062a10d135681f64357f60751d76655d762a"
                }
            ],
            "sha": "e9e5cad742ac62257de80688e5bb3e4dbbb761cc",
            "url": "https://api.github.com/repos/PrismarineJS/minecraft-jar-extractor/commits/e9e5cad742ac62257de80688e5bb3e4dbbb761cc"
        }
    ],
    "commits": 1,
    "commits_url": "https://api.github.com/repos/PrismarineJS/minecraft-jar-extractor/pulls/14/commits",
    "created_at": "2020-05-17T09:58:06Z",
    "deletions": 1,
    "diff_url": "https://github.com/PrismarineJS/minecraft-jar-extractor/pull/14.diff",
    "draft": false,
    "head": {
        "label": "PrismarineJS:dependabot/npm_and_yarn/mkdirp-1.0.4",
        "ref": "dependabot/npm_and_yarn/mkdirp-1.0.4",
        "repo": {
            "allow_forking": true,
            "archive_url": "https://api.github.com/repos/PrismarineJS/minecraft-jar-extractor/{archive_format}{/ref}",
            "archived": false,
            "assignees_url": "https://api.github.com/repos/PrismarineJS/minecraft-jar-extractor/assignees{/user}",
            "blobs_url": "https://api.github.com/repos/PrismarineJS/minecraft-jar-extractor/git/blobs{/sha}",
            "branches_url": "https://api.github.com/repos/PrismarineJS/minecraft-jar-extractor/branches{/branch}",
            "clone_url": "https://github.com/PrismarineJS/minecraft-jar-extractor.git",
            "collaborators_url": "https://api.github.com/repos/PrismarineJS/minecraft-jar-extractor/collaborators{/collaborator}",
            "comments_url": "https://api.github.com/repos/PrismarineJS/minecraft-jar-extractor/comments{/number}",
            "commits_url": "https://api.github.com/repos/PrismarineJS/minecraft-jar-extractor/commits{/sha}",
            "compare_url": "https://api.github.com/repos/PrismarineJS/minecraft-jar-extractor/compare/{base}...{head}",
            "contents_url": "https://api.github.com/repos/PrismarineJS/minecraft-jar-extractor/contents/{+path}",
            "contributors_url": "https://api.github.com/repos/PrismarineJS/minecraft-jar-extractor/contributors",
            "created_at": "2015-10-14T18:40:48Z",
            "default_branch": "master",
            "deployments_url": "https://api.github.com/repos/PrismarineJS/minecraft-jar-extractor/deployments",
            "description": "Extract structured data from the minecraft jar",
            "disabled": false,
            "downloads_url": "https://api.github.com/repos/PrismarineJS/minecraft-jar-extractor/downloads",
            "events_url": "https://api.github.com/repos/PrismarineJS/minecraft-jar-extractor/events",
            "fork": false,
            "forks": 8,
            "forks_count": 8,
            "forks_url": "https://api.github.com/repos/PrismarineJS/minecraft-jar-extractor/forks",
            "full_name": "PrismarineJS/minecraft-jar-extractor",
            "git_commits_url": "https://api.github.com/repos/PrismarineJS/minecraft-jar-extractor/git/commits{/sha}",
            "git_refs_url": "https://api.github.com/repos/PrismarineJS/minecraft-jar-extractor/git/refs{/sha}",
            "git_tags_url": "https://api.github.com/repos/PrismarineJS/minecraft-jar-extractor/git/tags{/sha}",
            "git_url": "git://github.com/PrismarineJS/minecraft-jar-extractor.git",
            "has_discussions": false,
            "has_downloads": true,
            "has_issues": true,
            "has_pages": false,
            "has_projects": true,
            "has_wiki": true,
            "homepage": null,
            "hooks_url": "https://api.github.com/repos/PrismarineJS/minecraft-jar-extractor/hooks",
            "html_url": "https://github.com/PrismarineJS/minecraft-jar-extractor",
            "id": 44268611,
            "is_template": false,
            "issue_comment_url": "https://api.github.com/repos/PrismarineJS/minecraft-jar-extractor/issues/comments{/number}",
            "issue_events_url": "https://api.github.com/repos/PrismarineJS/minecraft-jar-extractor/issues/events{/number}",
            "issues_url": "https://api.github.com/repos/PrismarineJS/minecraft-jar-extractor/issues{/number}",
            "keys_url": "https://api.github.com/repos/PrismarineJS/minecraft-jar-extractor/keys{/key_id}",
            "labels_url": "https://api.github.com/repos/PrismarineJS/minecraft-jar-extractor/labels{/name}",
            "language": "JavaScript",
            "languages_url": "https://api.github.com/repos/PrismarineJS/minecraft-jar-extractor/languages",
            "license": null,
            "merges_url": "https://api.github.com/repos/PrismarineJS/minecraft-jar-extractor/merges",
            "milestones_url": "https://api.github.com/repos/PrismarineJS/minecraft-jar-extractor/milestones{/number}",
            "mirror_url": null,
            "name": "minecraft-jar-extractor",
            "node_id": "MDEwOlJlcG9zaXRvcnk0NDI2ODYxMQ==",
            "notifications_url": "https://api.github.com/repos/PrismarineJS/minecraft-jar-extractor/notifications{?since,all,participating}",
            "open_issues": 6,
            "open_issues_count": 6,
            "owner": {
                "avatar_url": "https://avatars.githubusercontent.com/u/11053411?v=4",
                "events_url": "https://api.github.com/users/PrismarineJS/events{/privacy}",
                "followers_url": "https://api.github.com/users/PrismarineJS/followers",
                "following_url": "https://api.github.com/users/PrismarineJS/following{/other_user}",
                "gists_url": "https://api.github.com/users/PrismarineJS/gists{/gist_id}",
                "gravatar_id": "",
                "html_url": "https://github.com/PrismarineJS",
                "id": 11053411,
                "login": "PrismarineJS",
                "node_id": "MDEyOk9yZ2FuaXphdGlvbjExMDUzNDEx",
                "organizations_url": "https://api.github.com/users/PrismarineJS/orgs",
                "received_events_url": "https://api.github.com/users/PrismarineJS/received_events",
                "repos_url": "https://api.github.com/users/PrismarineJS/repos",
                "site_admin": false,
                "starred_url": "https://api.github.com/users/PrismarineJS/starred{/owner}{/repo}",
                "subscriptions_url": "https://api.github.com/users/PrismarineJS/subscriptions",
                "type": "Organization",
                "url": "https://api.github.com/users/PrismarineJS"
            },
            "private": false,
            "pulls_url": "https://api.github.com/repos/PrismarineJS/minecraft-jar-extractor/pulls{/number}",
            "pushed_at": "2023-04-10T14:58:32Z",
            "releases_url": "https://api.github.com/repos/PrismarineJS/minecraft-jar-extractor/releases{/id}",
            "size": 64,
            "ssh_url": "git@github.com:PrismarineJS/minecraft-jar-extractor.git",
            "stargazers_count": 8,
            "stargazers_url": "https://api.github.com/repos/PrismarineJS/minecraft-jar-extractor/stargazers",
            "statuses_url": "https://api.github.com/repos/PrismarineJS/minecraft-jar-extractor/statuses/{sha}",
            "subscribers_url": "https://api.github.com/repos/PrismarineJS/minecraft-jar-extractor/subscribers",
            "subscription_url": "https://api.github.com/repos/PrismarineJS/minecraft-jar-extractor/subscription",
            "svn_url": "https://github.com/PrismarineJS/minecraft-jar-extractor",
            "tags_url": "https://api.github.com/repos/PrismarineJS/minecraft-jar-extractor/tags",
            "teams_url": "https://api.github.com/repos/PrismarineJS/minecraft-jar-extractor/teams",
            "topics": [],
            "trees_url": "https://api.github.com/repos/PrismarineJS/minecraft-jar-extractor/git/trees{/sha}",
            "updated_at": "2022-06-15T00:56:15Z",
            "url": "https://api.github.com/repos/PrismarineJS/minecraft-jar-extractor",
            "visibility": "public",
            "watchers": 8,
            "watchers_count": 8,
            "web_commit_signoff_required": false
        },
        "sha": "e9e5cad742ac62257de80688e5bb3e4dbbb761cc",
        "user": {
            "avatar_url": "https://avatars.githubusercontent.com/u/11053411?v=4",
            "events_url": "https://api.github.com/users/PrismarineJS/events{/privacy}",
            "followers_url": "https://api.github.com/users/PrismarineJS/followers",
            "following_url": "https://api.github.com/users/PrismarineJS/following{/other_user}",
            "gists_url": "https://api.github.com/users/PrismarineJS/gists{/gist_id}",
            "gravatar_id": "",
            "html_url": "https://github.com/PrismarineJS",
            "id": 11053411,
            "login": "PrismarineJS",
            "node_id": "MDEyOk9yZ2FuaXphdGlvbjExMDUzNDEx",
            "organizations_url": "https://api.github.com/users/PrismarineJS/orgs",
            "received_events_url": "https://api.github.com/users/PrismarineJS/received_events",
            "repos_url": "https://api.github.com/users/PrismarineJS/repos",
            "site_admin": false,
            "starred_url": "https://api.github.com/users/PrismarineJS/starred{/owner}{/repo}",
            "subscriptions_url": "https://api.github.com/users/PrismarineJS/subscriptions",
            "type": "Organization",
            "url": "https://api.github.com/users/PrismarineJS"
        }
    },
    "html_url": "https://github.com/PrismarineJS/minecraft-jar-extractor/pull/14",
    "id": 419089130,
    "issue_url": "https://api.github.com/repos/PrismarineJS/minecraft-jar-extractor/issues/14",
    "labels": [
        {
            "color": "0366d6",
            "default": false,
            "description": "Pull requests that update a dependency file",
            "id": 2067070497,
            "name": "dependencies",
            "node_id": "MDU6TGFiZWwyMDY3MDcwNDk3",
            "url": "https://api.github.com/repos/PrismarineJS/minecraft-jar-extractor/labels/dependencies"
        }
    ],
    "locked": false,
    "maintainer_can_modify": false,
    "merge_commit_sha": "a26a431c24df388d16447a0ae59b4da85781893c",
    "mergeable": null,
    "mergeable_state": "unknown",
    "merged": false,
    "merged_at": null,
    "merged_by": null,
    "milestone": null,
    "node_id": "MDExOlB1bGxSZXF1ZXN0NDE5MDg5MTMw",
    "number": 14,
    "patch_url": "https://github.com/PrismarineJS/minecraft-jar-extractor/pull/14.patch",
    "rebaseable": null,
    "requested_reviewers": [],
    "requested_teams": [],
    "review_comment_url": "https://api.github.com/repos/PrismarineJS/minecraft-jar-extractor/pulls/comments{/number}",
    "review_comments": 0,
    "review_comments_url": "https://api.github.com/repos/PrismarineJS/minecraft-jar-extractor/pulls/14/comments",
    "state": "closed",
    "statuses_url": "https://api.github.com/repos/PrismarineJS/minecraft-jar-extractor/statuses/e9e5cad742ac62257de80688e5bb3e4dbbb761cc",
    "title": "Bump mkdirp from 0.5.5 to 1.0.4",
    "updated_at": "2020-06-28T22:11:10Z",
    "url": "https://api.github.com/repos/PrismarineJS/minecraft-jar-extractor/pulls/14",
    "user": {
        "avatar_url": "https://avatars.githubusercontent.com/in/2141?v=4",
        "events_url": "https://api.github.com/users/dependabot-preview%5Bbot%5D/events{/privacy}",
        "followers_url": "https://api.github.com/users/dependabot-preview%5Bbot%5D/followers",
        "following_url": "https://api.github.com/users/dependabot-preview%5Bbot%5D/following{/other_user}",
        "gists_url": "https://api.github.com/users/dependabot-preview%5Bbot%5D/gists{/gist_id}",
        "gravatar_id": "",
        "html_url": "https://github.com/apps/dependabot-preview",
        "id": 27856297,
        "login": "dependabot-preview[bot]",
        "node_id": "MDM6Qm90Mjc4NTYyOTc=",
        "organizations_url": "https://api.github.com/users/dependabot-preview%5Bbot%5D/orgs",
        "received_events_url": "https://api.github.com/users/dependabot-preview%5Bbot%5D/received_events",
        "repos_url": "https://api.github.com/users/dependabot-preview%5Bbot%5D/repos",
        "site_admin": false,
        "starred_url": "https://api.github.com/users/dependabot-preview%5Bbot%5D/starred{/owner}{/repo}",
        "subscriptions_url": "https://api.github.com/users/dependabot-preview%5Bbot%5D/subscriptions",
        "type": "Bot",
        "url": "https://api.github.com/users/dependabot-preview%5Bbot%5D"
    }
}