{
    "_links": {
        "comments": {
            "href": "https://api.github.com/repos/PrismarineJS/prismarine-physics/issues/110/comments"
        },
        "commits": {
            "href": "https://api.github.com/repos/PrismarineJS/prismarine-physics/pulls/110/commits"
        },
        "html": {
            "href": "https://github.com/PrismarineJS/prismarine-physics/pull/110"
        },
        "issue": {
            "href": "https://api.github.com/repos/PrismarineJS/prismarine-physics/issues/110"
        },
        "review_comment": {
            "href": "https://api.github.com/repos/PrismarineJS/prismarine-physics/pulls/comments{/number}"
        },
        "review_comments": {
            "href": "https://api.github.com/repos/PrismarineJS/prismarine-physics/pulls/110/comments"
        },
        "self": {
            "href": "https://api.github.com/repos/PrismarineJS/prismarine-physics/pulls/110"
        },
        "statuses": {
            "href": "https://api.github.com/repos/PrismarineJS/prismarine-physics/statuses/c524a9b0e655c472e1ecbb4f2193cb26360e8313"
        }
    },
    "active_lock_reason": null,
    "additions": 135,
    "assignee": null,
    "assignees": [],
    "author_association": "FIRST_TIME_CONTRIBUTOR",
    "auto_merge": null,
    "base": {
        "label": "PrismarineJS:master",
        "ref": "master",
        "repo": {
            "allow_forking": true,
            "archive_url": "https://api.github.com/repos/PrismarineJS/prismarine-physics/{archive_format}{/ref}",
            "archived": false,
            "assignees_url": "https://api.github.com/repos/PrismarineJS/prismarine-physics/assignees{/user}",
            "blobs_url": "https://api.github.com/repos/PrismarineJS/prismarine-physics/git/blobs{/sha}",
            "branches_url": "https://api.github.com/repos/PrismarineJS/prismarine-physics/branches{/branch}",
            "clone_url": "https://github.com/PrismarineJS/prismarine-physics.git",
            "collaborators_url": "https://api.github.com/repos/PrismarineJS/prismarine-physics/collaborators{/collaborator}",
            "comments_url": "https://api.github.com/repos/PrismarineJS/prismarine-physics/comments{/number}",
            "commits_url": "https://api.github.com/repos/PrismarineJS/prismarine-physics/commits{/sha}",
            "compare_url": "https://api.github.com/repos/PrismarineJS/prismarine-physics/compare/{base}...{head}",
            "contents_url": "https://api.github.com/repos/PrismarineJS/prismarine-physics/contents/{+path}",
            "contributors_url": "https://api.github.com/repos/PrismarineJS/prismarine-physics/contributors",
            "created_at": "2020-07-05T15:58:38Z",
            "default_branch": "master",
            "deployments_url": "https://api.github.com/repos/PrismarineJS/prismarine-physics/deployments",
            "description": "Provide the physics engine for minecraft entities",
            "disabled": false,
            "downloads_url": "https://api.github.com/repos/PrismarineJS/prismarine-physics/downloads",
            "events_url": "https://api.github.com/repos/PrismarineJS/prismarine-physics/events",
            "fork": false,
            "forks": 36,
            "forks_count": 36,
            "forks_url": "https://api.github.com/repos/PrismarineJS/prismarine-physics/forks",
            "full_name": "PrismarineJS/prismarine-physics",
            "git_commits_url": "https://api.github.com/repos/PrismarineJS/prismarine-physics/git/commits{/sha}",
            "git_refs_url": "https://api.github.com/repos/PrismarineJS/prismarine-physics/git/refs{/sha}",
            "git_tags_url": "https://api.github.com/repos/PrismarineJS/prismarine-physics/git/tags{/sha}",
            "git_url": "git://github.com/PrismarineJS/prismarine-physics.git",
            "has_discussions": false,
            "has_downloads": true,
            "has_issues": true,
            "has_pages": false,
            "has_projects": true,
            "has_wiki": true,
            "homepage": "",
            "hooks_url": "https://api.github.com/repos/PrismarineJS/prismarine-physics/hooks",
            "html_url": "https://github.com/PrismarineJS/prismarine-physics",
            "id": 277335496,
            "is_template": false,
            "issue_comment_url": "https://api.github.com/repos/PrismarineJS/prismarine-physics/issues/comments{/number}",
            "issue_events_url": "https://api.github.com/repos/PrismarineJS/prismarine-physics/issues/events{/number}",
            "issues_url": "https://api.github.com/repos/PrismarineJS/prismarine-physics/issues{/number}",
            "keys_url": "https://api.github.com/repos/PrismarineJS/prismarine-physics/keys{/key_id}",
            "labels_url": "https://api.github.com/repos/PrismarineJS/prismarine-physics/labels{/name}",
            "language": "JavaScript",
            "languages_url": "https://api.github.com/repos/PrismarineJS/prismarine-physics/languages",
            "license": {
                "key": "mit",
                "name": "MIT License",
                "node_id": "MDc6TGljZW5zZTEz",
                "spdx_id": "MIT",
                "url": "https://api.github.com/licenses/mit"
            },
            "merges_url": "https://api.github.com/repos/PrismarineJS/prismarine-physics/merges",
            "milestones_url": "https://api.github.com/repos/PrismarineJS/prismarine-physics/milestones{/number}",
            "mirror_url": null,
            "name": "prismarine-physics",
            "node_id": "MDEwOlJlcG9zaXRvcnkyNzczMzU0OTY=",
            "notifications_url": "https://api.github.com/repos/PrismarineJS/prismarine-physics/notifications{?since,all,participating}",
            "open_issues": 18,
            "open_issues_count": 18,
            "owner": {
                "avatar_url": "https://avatars.githubusercontent.com/u/11053411?v=4",
                "events_url": "https://api.github.com/users/PrismarineJS/events{/privacy}",
                "followers_url": "https://api.github.com/users/PrismarineJS/followers",
                "following_url": "https://api.github.com/users/PrismarineJS/following{/other_user}",
                "gists_url": "https://api.github.com/users/PrismarineJS/gists{/gist_id}",
                "gravatar_id": "",
                "html_url": "https://github.com/PrismarineJS",
                "id": 11053411,
                "login": "PrismarineJS",
                "node_id": "MDEyOk9yZ2FuaXphdGlvbjExMDUzNDEx",
                "organizations_url": "https://api.github.com/users/PrismarineJS/orgs",
                "received_events_url": "https://api.github.com/users/PrismarineJS/received_events",
                "repos_url": "https://api.github.com/users/PrismarineJS/repos",
                "site_admin": false,
                "starred_url": "https://api.github.com/users/PrismarineJS/starred{/owner}{/repo}",
                "subscriptions_url": "https://api.github.com/users/PrismarineJS/subscriptions",
                "type": "Organization",
                "url": "https://api.github.com/users/PrismarineJS"
            },
            "private": false,
            "pulls_url": "https://api.github.com/repos/PrismarineJS/prismarine-physics/pulls{/number}",
            "pushed_at": "2023-11-28T08:50:07Z",
            "releases_url": "https://api.github.com/repos/PrismarineJS/prismarine-physics/releases{/id}",
            "size": 65,
            "ssh_url": "git@github.com:PrismarineJS/prismarine-physics.git",
            "stargazers_count": 31,
            "stargazers_url": "https://api.github.com/repos/PrismarineJS/prismarine-physics/stargazers",
            "statuses_url": "https://api.github.com/repos/PrismarineJS/prismarine-physics/statuses/{sha}",
            "subscribers_url": "https://api.github.com/repos/PrismarineJS/prismarine-physics/subscribers",
            "subscription_url": "https://api.github.com/repos/PrismarineJS/prismarine-physics/subscription",
            "svn_url": "https://github.com/PrismarineJS/prismarine-physics",
            "tags_url": "https://api.github.com/repos/PrismarineJS/prismarine-physics/tags",
            "teams_url": "https://api.github.com/repos/PrismarineJS/prismarine-physics/teams",
            "topics": [
                "minecraft",
                "physics-engine",
                "prismarinejs"
            ],
            "trees_url": "https://api.github.com/repos/PrismarineJS/prismarine-physics/git/trees{/sha}",
            "updated_at": "2023-10-22T21:54:29Z",
            "url": "https://api.github.com/repos/PrismarineJS/prismarine-physics",
            "visibility": "public",
            "watchers": 31,
            "watchers_count": 31,
            "web_commit_signoff_required": false
        },
        "sha": "88444cdfbfaf6f099d8431b4a158eb5006f7ae9c",
        "user": {
            "avatar_url": "https://avatars.githubusercontent.com/u/11053411?v=4",
            "events_url": "https://api.github.com/users/PrismarineJS/events{/privacy}",
            "followers_url": "https://api.github.com/users/PrismarineJS/followers",
            "following_url": "https://api.github.com/users/PrismarineJS/following{/other_user}",
            "gists_url": "https://api.github.com/users/PrismarineJS/gists{/gist_id}",
            "gravatar_id": "",
            "html_url": "https://github.com/PrismarineJS",
            "id": 11053411,
            "login": "PrismarineJS",
            "node_id": "MDEyOk9yZ2FuaXphdGlvbjExMDUzNDEx",
            "organizations_url": "https://api.github.com/users/PrismarineJS/orgs",
            "received_events_url": "https://api.github.com/users/PrismarineJS/received_events",
            "repos_url": "https://api.github.com/users/PrismarineJS/repos",
            "site_admin": false,
            "starred_url": "https://api.github.com/users/PrismarineJS/starred{/owner}{/repo}",
            "subscriptions_url": "https://api.github.com/users/PrismarineJS/subscriptions",
            "type": "Organization",
            "url": "https://api.github.com/users/PrismarineJS"
        }
    },
    "body": "The problem: I have noticed the bot cannot climb trapdoors that is directly above ladders (#109). I have also noticed that in 1.20.1 the bot cannot jump to climb ladders (#108).\r\n\r\nIn this pull request:\r\n- I've added a new feature `climableTrapdoor` to indicate whether the trapdoors is climbable. [Reference: Trapdoor History - Minecraft Wiki](https://minecraft.wiki/w/Trapdoor#History)\r\n- I've added code in function `isOnLadder` to handdle trapdoors.\r\n- I've re-designed the format of `versions` field in `featires.json` (the new format is fully compatible with the old format).\r\n- I've added a new class called `FeatureList` that can parse the new format.\r\n- I've added testcases to test if `FeatureList` is working.\r\n\r\nThe new version format is described in the comments beside `FeatureList` source:\r\n\r\nhttps://github.com/szdytom/prismarine-physics/blob/c524a9b0e655c472e1ecbb4f2193cb26360e8313/index.js#L7-L21\r\n\r\nFixes #108\r\nFixes #109",
    "changed_files": 3,
    "closed_at": "2023-11-01T23:44:02Z",
    "comment_data": [],
    "comment_regular_data": [
        {
            "author_association": "MEMBER",
            "body": "There is already a feature file inside minecraft-data. It would make more sense to move the features there and use them inside prismarine-physics. There are some features that have disconnected version ranges. This was discussed earlier in another PR, it could instead be implemented with two features.",
            "created_at": "2023-11-01T03:23:20Z",
            "html_url": "https://github.com/PrismarineJS/prismarine-physics/pull/110#issuecomment-1788347148",
            "id": 1788347148,
            "issue_url": "https://api.github.com/repos/PrismarineJS/prismarine-physics/issues/110",
            "node_id": "IC_kwDOEIfNyM5qmAMM",
            "performed_via_github_app": null,
            "reactions": {
                "+1": 0,
                "-1": 0,
                "confused": 0,
                "eyes": 0,
                "heart": 0,
                "hooray": 0,
                "laugh": 0,
                "rocket": 0,
                "total_count": 0,
                "url": "https://api.github.com/repos/PrismarineJS/prismarine-physics/issues/comments/1788347148/reactions"
            },
            "updated_at": "2023-11-01T03:23:20Z",
            "url": "https://api.github.com/repos/PrismarineJS/prismarine-physics/issues/comments/1788347148",
            "user": {
                "avatar_url": "https://avatars.githubusercontent.com/u/13713600?v=4",
                "events_url": "https://api.github.com/users/extremeheat/events{/privacy}",
                "followers_url": "https://api.github.com/users/extremeheat/followers",
                "following_url": "https://api.github.com/users/extremeheat/following{/other_user}",
                "gists_url": "https://api.github.com/users/extremeheat/gists{/gist_id}",
                "gravatar_id": "",
                "html_url": "https://github.com/extremeheat",
                "id": 13713600,
                "login": "extremeheat",
                "node_id": "MDQ6VXNlcjEzNzEzNjAw",
                "organizations_url": "https://api.github.com/users/extremeheat/orgs",
                "received_events_url": "https://api.github.com/users/extremeheat/received_events",
                "repos_url": "https://api.github.com/users/extremeheat/repos",
                "site_admin": false,
                "starred_url": "https://api.github.com/users/extremeheat/starred{/owner}{/repo}",
                "subscriptions_url": "https://api.github.com/users/extremeheat/subscriptions",
                "type": "User",
                "url": "https://api.github.com/users/extremeheat"
            }
        },
        {
            "author_association": "NONE",
            "body": "It seems that minecraft-data uses a array of 2 elements representing a range.\r\n\r\nI am proposing a more complex yet powerful format of that. A range in this format can be: `[[\">= 1.12\", \"<= 1.14\"]]`, with disconnected version ranges, it can be: `[[\">= 1.12\", \"<= 1.14\"], [\">= 1.16\"]]`.",
            "created_at": "2023-11-01T03:32:21Z",
            "html_url": "https://github.com/PrismarineJS/prismarine-physics/pull/110#issuecomment-1788353284",
            "id": 1788353284,
            "issue_url": "https://api.github.com/repos/PrismarineJS/prismarine-physics/issues/110",
            "node_id": "IC_kwDOEIfNyM5qmBsE",
            "performed_via_github_app": null,
            "reactions": {
                "+1": 0,
                "-1": 0,
                "confused": 0,
                "eyes": 0,
                "heart": 0,
                "hooray": 0,
                "laugh": 0,
                "rocket": 0,
                "total_count": 0,
                "url": "https://api.github.com/repos/PrismarineJS/prismarine-physics/issues/comments/1788353284/reactions"
            },
            "updated_at": "2023-11-01T03:32:21Z",
            "url": "https://api.github.com/repos/PrismarineJS/prismarine-physics/issues/comments/1788353284",
            "user": {
                "avatar_url": "https://avatars.githubusercontent.com/u/33175397?v=4",
                "events_url": "https://api.github.com/users/szdytom/events{/privacy}",
                "followers_url": "https://api.github.com/users/szdytom/followers",
                "following_url": "https://api.github.com/users/szdytom/following{/other_user}",
                "gists_url": "https://api.github.com/users/szdytom/gists{/gist_id}",
                "gravatar_id": "",
                "html_url": "https://github.com/szdytom",
                "id": 33175397,
                "login": "szdytom",
                "node_id": "MDQ6VXNlcjMzMTc1Mzk3",
                "organizations_url": "https://api.github.com/users/szdytom/orgs",
                "received_events_url": "https://api.github.com/users/szdytom/received_events",
                "repos_url": "https://api.github.com/users/szdytom/repos",
                "site_admin": false,
                "starred_url": "https://api.github.com/users/szdytom/starred{/owner}{/repo}",
                "subscriptions_url": "https://api.github.com/users/szdytom/subscriptions",
                "type": "User",
                "url": "https://api.github.com/users/szdytom"
            }
        },
        {
            "author_association": "NONE",
            "body": "Anyway, I think whether to move the list to `minecraft-data` can be discussed later, maybe we can have the ladder behavior fixed for now? ",
            "created_at": "2023-11-01T03:39:55Z",
            "html_url": "https://github.com/PrismarineJS/prismarine-physics/pull/110#issuecomment-1788358375",
            "id": 1788358375,
            "issue_url": "https://api.github.com/repos/PrismarineJS/prismarine-physics/issues/110",
            "node_id": "IC_kwDOEIfNyM5qmC7n",
            "performed_via_github_app": null,
            "reactions": {
                "+1": 0,
                "-1": 0,
                "confused": 0,
                "eyes": 0,
                "heart": 0,
                "hooray": 0,
                "laugh": 0,
                "rocket": 0,
                "total_count": 0,
                "url": "https://api.github.com/repos/PrismarineJS/prismarine-physics/issues/comments/1788358375/reactions"
            },
            "updated_at": "2023-11-01T03:39:55Z",
            "url": "https://api.github.com/repos/PrismarineJS/prismarine-physics/issues/comments/1788358375",
            "user": {
                "avatar_url": "https://avatars.githubusercontent.com/u/33175397?v=4",
                "events_url": "https://api.github.com/users/szdytom/events{/privacy}",
                "followers_url": "https://api.github.com/users/szdytom/followers",
                "following_url": "https://api.github.com/users/szdytom/following{/other_user}",
                "gists_url": "https://api.github.com/users/szdytom/gists{/gist_id}",
                "gravatar_id": "",
                "html_url": "https://github.com/szdytom",
                "id": 33175397,
                "login": "szdytom",
                "node_id": "MDQ6VXNlcjMzMTc1Mzk3",
                "organizations_url": "https://api.github.com/users/szdytom/orgs",
                "received_events_url": "https://api.github.com/users/szdytom/received_events",
                "repos_url": "https://api.github.com/users/szdytom/repos",
                "site_admin": false,
                "starred_url": "https://api.github.com/users/szdytom/starred{/owner}{/repo}",
                "subscriptions_url": "https://api.github.com/users/szdytom/subscriptions",
                "type": "User",
                "url": "https://api.github.com/users/szdytom"
            }
        },
        {
            "author_association": "MEMBER",
            "body": "> I am proposing a more complex yet powerful format of that\r\n\r\nYes, this change, if any, should not be done here, but rather in node-minecraft-data. We already are going to remove this, and I believe a previous PR to do this here went stale. So it should definitely not be updated further here.",
            "created_at": "2023-11-01T16:01:26Z",
            "html_url": "https://github.com/PrismarineJS/prismarine-physics/pull/110#issuecomment-1789220821",
            "id": 1789220821,
            "issue_url": "https://api.github.com/repos/PrismarineJS/prismarine-physics/issues/110",
            "node_id": "IC_kwDOEIfNyM5qpVfV",
            "performed_via_github_app": null,
            "reactions": {
                "+1": 0,
                "-1": 0,
                "confused": 0,
                "eyes": 0,
                "heart": 0,
                "hooray": 0,
                "laugh": 0,
                "rocket": 0,
                "total_count": 0,
                "url": "https://api.github.com/repos/PrismarineJS/prismarine-physics/issues/comments/1789220821/reactions"
            },
            "updated_at": "2023-11-01T16:01:26Z",
            "url": "https://api.github.com/repos/PrismarineJS/prismarine-physics/issues/comments/1789220821",
            "user": {
                "avatar_url": "https://avatars.githubusercontent.com/u/13713600?v=4",
                "events_url": "https://api.github.com/users/extremeheat/events{/privacy}",
                "followers_url": "https://api.github.com/users/extremeheat/followers",
                "following_url": "https://api.github.com/users/extremeheat/following{/other_user}",
                "gists_url": "https://api.github.com/users/extremeheat/gists{/gist_id}",
                "gravatar_id": "",
                "html_url": "https://github.com/extremeheat",
                "id": 13713600,
                "login": "extremeheat",
                "node_id": "MDQ6VXNlcjEzNzEzNjAw",
                "organizations_url": "https://api.github.com/users/extremeheat/orgs",
                "received_events_url": "https://api.github.com/users/extremeheat/received_events",
                "repos_url": "https://api.github.com/users/extremeheat/repos",
                "site_admin": false,
                "starred_url": "https://api.github.com/users/extremeheat/starred{/owner}{/repo}",
                "subscriptions_url": "https://api.github.com/users/extremeheat/subscriptions",
                "type": "User",
                "url": "https://api.github.com/users/extremeheat"
            }
        },
        {
            "author_association": "NONE",
            "body": "Alright, I've just opened a pull request #111 on fixing ladders.",
            "created_at": "2023-11-01T23:44:02Z",
            "html_url": "https://github.com/PrismarineJS/prismarine-physics/pull/110#issuecomment-1789840830",
            "id": 1789840830,
            "issue_url": "https://api.github.com/repos/PrismarineJS/prismarine-physics/issues/110",
            "node_id": "IC_kwDOEIfNyM5qrs2-",
            "performed_via_github_app": null,
            "reactions": {
                "+1": 0,
                "-1": 0,
                "confused": 0,
                "eyes": 0,
                "heart": 0,
                "hooray": 0,
                "laugh": 0,
                "rocket": 0,
                "total_count": 0,
                "url": "https://api.github.com/repos/PrismarineJS/prismarine-physics/issues/comments/1789840830/reactions"
            },
            "updated_at": "2023-11-01T23:44:02Z",
            "url": "https://api.github.com/repos/PrismarineJS/prismarine-physics/issues/comments/1789840830",
            "user": {
                "avatar_url": "https://avatars.githubusercontent.com/u/33175397?v=4",
                "events_url": "https://api.github.com/users/szdytom/events{/privacy}",
                "followers_url": "https://api.github.com/users/szdytom/followers",
                "following_url": "https://api.github.com/users/szdytom/following{/other_user}",
                "gists_url": "https://api.github.com/users/szdytom/gists{/gist_id}",
                "gravatar_id": "",
                "html_url": "https://github.com/szdytom",
                "id": 33175397,
                "login": "szdytom",
                "node_id": "MDQ6VXNlcjMzMTc1Mzk3",
                "organizations_url": "https://api.github.com/users/szdytom/orgs",
                "received_events_url": "https://api.github.com/users/szdytom/received_events",
                "repos_url": "https://api.github.com/users/szdytom/repos",
                "site_admin": false,
                "starred_url": "https://api.github.com/users/szdytom/starred{/owner}{/repo}",
                "subscriptions_url": "https://api.github.com/users/szdytom/subscriptions",
                "type": "User",
                "url": "https://api.github.com/users/szdytom"
            }
        }
    ],
    "comments": 5,
    "comments_url": "https://api.github.com/repos/PrismarineJS/prismarine-physics/issues/110/comments",
    "commit_data": [
        {
            "author": {
                "avatar_url": "https://avatars.githubusercontent.com/u/33175397?v=4",
                "events_url": "https://api.github.com/users/szdytom/events{/privacy}",
                "followers_url": "https://api.github.com/users/szdytom/followers",
                "following_url": "https://api.github.com/users/szdytom/following{/other_user}",
                "gists_url": "https://api.github.com/users/szdytom/gists{/gist_id}",
                "gravatar_id": "",
                "html_url": "https://github.com/szdytom",
                "id": 33175397,
                "login": "szdytom",
                "node_id": "MDQ6VXNlcjMzMTc1Mzk3",
                "organizations_url": "https://api.github.com/users/szdytom/orgs",
                "received_events_url": "https://api.github.com/users/szdytom/received_events",
                "repos_url": "https://api.github.com/users/szdytom/repos",
                "site_admin": false,
                "starred_url": "https://api.github.com/users/szdytom/starred{/owner}{/repo}",
                "subscriptions_url": "https://api.github.com/users/szdytom/subscriptions",
                "type": "User",
                "url": "https://api.github.com/users/szdytom"
            },
            "comments_url": "https://api.github.com/repos/PrismarineJS/prismarine-physics/commits/0cb974ea7092df9f84a8920790e082836b11129d/comments",
            "commit": {
                "author": {
                    "date": "2023-11-01T02:48:47Z",
                    "email": "szdytom@qq.com",
                    "name": "szdytom"
                },
                "comment_count": 0,
                "committer": {
                    "date": "2023-11-01T02:48:47Z",
                    "email": "szdytom@qq.com",
                    "name": "szdytom"
                },
                "message": "improve feature list, fix `isOnLadder`",
                "tree": {
                    "sha": "cba276f0632e682756663a92b84355e982041888",
                    "url": "https://api.github.com/repos/PrismarineJS/prismarine-physics/git/trees/cba276f0632e682756663a92b84355e982041888"
                },
                "url": "https://api.github.com/repos/PrismarineJS/prismarine-physics/git/commits/0cb974ea7092df9f84a8920790e082836b11129d",
                "verification": {
                    "payload": "tree cba276f0632e682756663a92b84355e982041888\nparent 88444cdfbfaf6f099d8431b4a158eb5006f7ae9c\nauthor szdytom <szdytom@qq.com> 1698806927 +0800\ncommitter szdytom <szdytom@qq.com> 1698806927 +0800\n\nimprove feature list, fix `isOnLadder`\n",
                    "reason": "valid",
                    "signature": "-----BEGIN PGP SIGNATURE-----\n\niQGzBAABCAAdFiEENjJQ1hUHiE0yY/axBy2ZnWDGRzwFAmVBvI8ACgkQBy2ZnWDG\nRzxwPwwAl8UXUyF27ZeZGCQelFO0/JxZJT4R6UGb0S89ofhn+j1Wgeti839q8Xf2\nAQwcq1YuYkIRDb82J1b3CN5DxVoTrgeK9I20ADVwMgRbpDDbMkvNYosfuHRRqV2S\nNsZL+4LfPbHacAxerovnMZjue1G07ztp8z9stFk3w8rN0uHalQh+eNi9yafTgMru\nEMzWl5xU1PJ6+tjR9XcNQ/2ViZlZbWoUwek2s0g69d10Q85irWXzbfHgrUn+TFqT\nz1bg54CbRbozd9laNHAw3lhsBlEBYe17lngLFuk5Ewcz431HtXpZEuLGE2d7tGo6\n/VGQCmpCMZR/S4haUvpIyg98c09cQcHp+eyae9qJCg55ct18bzacI1w8TOzhpsGF\nafeihDlGWIf5ppC9XjgjaG3xO2ACBDoiURRbXkV0KwoU4IueUBErnS9hG9QUOycV\nhIJt1WtdLJ/LDvT9Zy4Gcsgt/LuNRTjbLQBLZcBiOW8Z1CbXznZ+QHxIkDL0fl+4\njj5aKSIB\n=1cvA\n-----END PGP SIGNATURE-----",
                    "verified": true
                }
            },
            "committer": {
                "avatar_url": "https://avatars.githubusercontent.com/u/33175397?v=4",
                "events_url": "https://api.github.com/users/szdytom/events{/privacy}",
                "followers_url": "https://api.github.com/users/szdytom/followers",
                "following_url": "https://api.github.com/users/szdytom/following{/other_user}",
                "gists_url": "https://api.github.com/users/szdytom/gists{/gist_id}",
                "gravatar_id": "",
                "html_url": "https://github.com/szdytom",
                "id": 33175397,
                "login": "szdytom",
                "node_id": "MDQ6VXNlcjMzMTc1Mzk3",
                "organizations_url": "https://api.github.com/users/szdytom/orgs",
                "received_events_url": "https://api.github.com/users/szdytom/received_events",
                "repos_url": "https://api.github.com/users/szdytom/repos",
                "site_admin": false,
                "starred_url": "https://api.github.com/users/szdytom/starred{/owner}{/repo}",
                "subscriptions_url": "https://api.github.com/users/szdytom/subscriptions",
                "type": "User",
                "url": "https://api.github.com/users/szdytom"
            },
            "html_url": "https://github.com/PrismarineJS/prismarine-physics/commit/0cb974ea7092df9f84a8920790e082836b11129d",
            "node_id": "C_kwDOKnr0UdoAKDBjYjk3NGVhNzA5MmRmOWY4NGE4OTIwNzkwZTA4MjgzNmIxMTEyOWQ",
            "parents": [
                {
                    "html_url": "https://github.com/PrismarineJS/prismarine-physics/commit/88444cdfbfaf6f099d8431b4a158eb5006f7ae9c",
                    "sha": "88444cdfbfaf6f099d8431b4a158eb5006f7ae9c",
                    "url": "https://api.github.com/repos/PrismarineJS/prismarine-physics/commits/88444cdfbfaf6f099d8431b4a158eb5006f7ae9c"
                }
            ],
            "sha": "0cb974ea7092df9f84a8920790e082836b11129d",
            "url": "https://api.github.com/repos/PrismarineJS/prismarine-physics/commits/0cb974ea7092df9f84a8920790e082836b11129d"
        },
        {
            "author": {
                "avatar_url": "https://avatars.githubusercontent.com/u/33175397?v=4",
                "events_url": "https://api.github.com/users/szdytom/events{/privacy}",
                "followers_url": "https://api.github.com/users/szdytom/followers",
                "following_url": "https://api.github.com/users/szdytom/following{/other_user}",
                "gists_url": "https://api.github.com/users/szdytom/gists{/gist_id}",
                "gravatar_id": "",
                "html_url": "https://github.com/szdytom",
                "id": 33175397,
                "login": "szdytom",
                "node_id": "MDQ6VXNlcjMzMTc1Mzk3",
                "organizations_url": "https://api.github.com/users/szdytom/orgs",
                "received_events_url": "https://api.github.com/users/szdytom/received_events",
                "repos_url": "https://api.github.com/users/szdytom/repos",
                "site_admin": false,
                "starred_url": "https://api.github.com/users/szdytom/starred{/owner}{/repo}",
                "subscriptions_url": "https://api.github.com/users/szdytom/subscriptions",
                "type": "User",
                "url": "https://api.github.com/users/szdytom"
            },
            "comments_url": "https://api.github.com/repos/PrismarineJS/prismarine-physics/commits/c524a9b0e655c472e1ecbb4f2193cb26360e8313/comments",
            "commit": {
                "author": {
                    "date": "2023-11-01T02:58:07Z",
                    "email": "szdytom@qq.com",
                    "name": "szdytom"
                },
                "comment_count": 0,
                "committer": {
                    "date": "2023-11-01T02:58:07Z",
                    "email": "szdytom@qq.com",
                    "name": "szdytom"
                },
                "message": "Add comments on version format",
                "tree": {
                    "sha": "0b623d60b392f626ac62a892229ea77c1261ce51",
                    "url": "https://api.github.com/repos/PrismarineJS/prismarine-physics/git/trees/0b623d60b392f626ac62a892229ea77c1261ce51"
                },
                "url": "https://api.github.com/repos/PrismarineJS/prismarine-physics/git/commits/c524a9b0e655c472e1ecbb4f2193cb26360e8313",
                "verification": {
                    "payload": "tree 0b623d60b392f626ac62a892229ea77c1261ce51\nparent 0cb974ea7092df9f84a8920790e082836b11129d\nauthor szdytom <szdytom@qq.com> 1698807487 +0800\ncommitter szdytom <szdytom@qq.com> 1698807487 +0800\n\nAdd comments on version format\n",
                    "reason": "valid",
                    "signature": "-----BEGIN PGP SIGNATURE-----\n\niQGzBAABCAAdFiEENjJQ1hUHiE0yY/axBy2ZnWDGRzwFAmVBvr8ACgkQBy2ZnWDG\nRzwgAQwAuCX0QRQVnuX7MzZHWVeJiwINo3ZXt5sSGWMp+CUNA8b1IoAzoYGObHmO\nlKQnPkVmM73H/i1AWOAdHm57i0YL5yU6VUykWm137cWdjl3JxFTBCkcDQMpfC70c\neAMNnlm4NNDmtL7Ok13FXDTncFctkTDfSGL1NAQES6y2AQDmsASEDGHPfxBTBPzd\nK1aFlgnRfY6642rwjIB1VOu4UO+BL85BRpwQPbfLwaATRJzY4cbRS/4BIExfhA5r\nhTae19AEIkkvb/IPoGHjTrodeT6aHdaRzN5y70A+xFZUUUQ9AlJGlo/GvWhHXwEr\nBnX0RwvlVXJAKK06rx+dhkY6/7NYyX0rjqdK/tgDr9U3n50WboaTAEBoP4p0giw/\nlWZCYbHfbQ26A4BAUHuX6vym5uJudt5GNv+b9ewwiMJ3I5P1qvQqMZKa7ixbAhZl\n8wTuf+ATtJSTcaSgHs81pg5opl8wNkxQ4AVxEn0Q/6I0m8iBqgYVhdwuw7GJDKww\nfmjM6bI9\n=RkEo\n-----END PGP SIGNATURE-----",
                    "verified": true
                }
            },
            "committer": {
                "avatar_url": "https://avatars.githubusercontent.com/u/33175397?v=4",
                "events_url": "https://api.github.com/users/szdytom/events{/privacy}",
                "followers_url": "https://api.github.com/users/szdytom/followers",
                "following_url": "https://api.github.com/users/szdytom/following{/other_user}",
                "gists_url": "https://api.github.com/users/szdytom/gists{/gist_id}",
                "gravatar_id": "",
                "html_url": "https://github.com/szdytom",
                "id": 33175397,
                "login": "szdytom",
                "node_id": "MDQ6VXNlcjMzMTc1Mzk3",
                "organizations_url": "https://api.github.com/users/szdytom/orgs",
                "received_events_url": "https://api.github.com/users/szdytom/received_events",
                "repos_url": "https://api.github.com/users/szdytom/repos",
                "site_admin": false,
                "starred_url": "https://api.github.com/users/szdytom/starred{/owner}{/repo}",
                "subscriptions_url": "https://api.github.com/users/szdytom/subscriptions",
                "type": "User",
                "url": "https://api.github.com/users/szdytom"
            },
            "html_url": "https://github.com/PrismarineJS/prismarine-physics/commit/c524a9b0e655c472e1ecbb4f2193cb26360e8313",
            "node_id": "C_kwDOKnr0UdoAKGM1MjRhOWIwZTY1NWM0NzJlMWVjYmI0ZjIxOTNjYjI2MzYwZTgzMTM",
            "parents": [
                {
                    "html_url": "https://github.com/PrismarineJS/prismarine-physics/commit/0cb974ea7092df9f84a8920790e082836b11129d",
                    "sha": "0cb974ea7092df9f84a8920790e082836b11129d",
                    "url": "https://api.github.com/repos/PrismarineJS/prismarine-physics/commits/0cb974ea7092df9f84a8920790e082836b11129d"
                }
            ],
            "sha": "c524a9b0e655c472e1ecbb4f2193cb26360e8313",
            "url": "https://api.github.com/repos/PrismarineJS/prismarine-physics/commits/c524a9b0e655c472e1ecbb4f2193cb26360e8313"
        }
    ],
    "commits": 2,
    "commits_url": "https://api.github.com/repos/PrismarineJS/prismarine-physics/pulls/110/commits",
    "created_at": "2023-11-01T03:11:25Z",
    "deletions": 11,
    "diff_url": "https://github.com/PrismarineJS/prismarine-physics/pull/110.diff",
    "draft": false,
    "head": {
        "label": "szdytom:master",
        "ref": "master",
        "repo": {
            "allow_forking": true,
            "archive_url": "https://api.github.com/repos/szdytom/prismarine-physics/{archive_format}{/ref}",
            "archived": false,
            "assignees_url": "https://api.github.com/repos/szdytom/prismarine-physics/assignees{/user}",
            "blobs_url": "https://api.github.com/repos/szdytom/prismarine-physics/git/blobs{/sha}",
            "branches_url": "https://api.github.com/repos/szdytom/prismarine-physics/branches{/branch}",
            "clone_url": "https://github.com/szdytom/prismarine-physics.git",
            "collaborators_url": "https://api.github.com/repos/szdytom/prismarine-physics/collaborators{/collaborator}",
            "comments_url": "https://api.github.com/repos/szdytom/prismarine-physics/comments{/number}",
            "commits_url": "https://api.github.com/repos/szdytom/prismarine-physics/commits{/sha}",
            "compare_url": "https://api.github.com/repos/szdytom/prismarine-physics/compare/{base}...{head}",
            "contents_url": "https://api.github.com/repos/szdytom/prismarine-physics/contents/{+path}",
            "contributors_url": "https://api.github.com/repos/szdytom/prismarine-physics/contributors",
            "created_at": "2023-11-01T02:22:15Z",
            "default_branch": "master",
            "deployments_url": "https://api.github.com/repos/szdytom/prismarine-physics/deployments",
            "description": "Provide the physics engine for minecraft entities",
            "disabled": false,
            "downloads_url": "https://api.github.com/repos/szdytom/prismarine-physics/downloads",
            "events_url": "https://api.github.com/repos/szdytom/prismarine-physics/events",
            "fork": true,
            "forks": 0,
            "forks_count": 0,
            "forks_url": "https://api.github.com/repos/szdytom/prismarine-physics/forks",
            "full_name": "szdytom/prismarine-physics",
            "git_commits_url": "https://api.github.com/repos/szdytom/prismarine-physics/git/commits{/sha}",
            "git_refs_url": "https://api.github.com/repos/szdytom/prismarine-physics/git/refs{/sha}",
            "git_tags_url": "https://api.github.com/repos/szdytom/prismarine-physics/git/tags{/sha}",
            "git_url": "git://github.com/szdytom/prismarine-physics.git",
            "has_discussions": false,
            "has_downloads": true,
            "has_issues": false,
            "has_pages": false,
            "has_projects": true,
            "has_wiki": true,
            "homepage": "",
            "hooks_url": "https://api.github.com/repos/szdytom/prismarine-physics/hooks",
            "html_url": "https://github.com/szdytom/prismarine-physics",
            "id": 712701009,
            "is_template": false,
            "issue_comment_url": "https://api.github.com/repos/szdytom/prismarine-physics/issues/comments{/number}",
            "issue_events_url": "https://api.github.com/repos/szdytom/prismarine-physics/issues/events{/number}",
            "issues_url": "https://api.github.com/repos/szdytom/prismarine-physics/issues{/number}",
            "keys_url": "https://api.github.com/repos/szdytom/prismarine-physics/keys{/key_id}",
            "labels_url": "https://api.github.com/repos/szdytom/prismarine-physics/labels{/name}",
            "language": "JavaScript",
            "languages_url": "https://api.github.com/repos/szdytom/prismarine-physics/languages",
            "license": {
                "key": "mit",
                "name": "MIT License",
                "node_id": "MDc6TGljZW5zZTEz",
                "spdx_id": "MIT",
                "url": "https://api.github.com/licenses/mit"
            },
            "merges_url": "https://api.github.com/repos/szdytom/prismarine-physics/merges",
            "milestones_url": "https://api.github.com/repos/szdytom/prismarine-physics/milestones{/number}",
            "mirror_url": null,
            "name": "prismarine-physics",
            "node_id": "R_kgDOKnr0UQ",
            "notifications_url": "https://api.github.com/repos/szdytom/prismarine-physics/notifications{?since,all,participating}",
            "open_issues": 0,
            "open_issues_count": 0,
            "owner": {
                "avatar_url": "https://avatars.githubusercontent.com/u/33175397?v=4",
                "events_url": "https://api.github.com/users/szdytom/events{/privacy}",
                "followers_url": "https://api.github.com/users/szdytom/followers",
                "following_url": "https://api.github.com/users/szdytom/following{/other_user}",
                "gists_url": "https://api.github.com/users/szdytom/gists{/gist_id}",
                "gravatar_id": "",
                "html_url": "https://github.com/szdytom",
                "id": 33175397,
                "login": "szdytom",
                "node_id": "MDQ6VXNlcjMzMTc1Mzk3",
                "organizations_url": "https://api.github.com/users/szdytom/orgs",
                "received_events_url": "https://api.github.com/users/szdytom/received_events",
                "repos_url": "https://api.github.com/users/szdytom/repos",
                "site_admin": false,
                "starred_url": "https://api.github.com/users/szdytom/starred{/owner}{/repo}",
                "subscriptions_url": "https://api.github.com/users/szdytom/subscriptions",
                "type": "User",
                "url": "https://api.github.com/users/szdytom"
            },
            "private": false,
            "pulls_url": "https://api.github.com/repos/szdytom/prismarine-physics/pulls{/number}",
            "pushed_at": "2023-11-04T05:01:48Z",
            "releases_url": "https://api.github.com/repos/szdytom/prismarine-physics/releases{/id}",
            "size": 76,
            "ssh_url": "git@github.com:szdytom/prismarine-physics.git",
            "stargazers_count": 0,
            "stargazers_url": "https://api.github.com/repos/szdytom/prismarine-physics/stargazers",
            "statuses_url": "https://api.github.com/repos/szdytom/prismarine-physics/statuses/{sha}",
            "subscribers_url": "https://api.github.com/repos/szdytom/prismarine-physics/subscribers",
            "subscription_url": "https://api.github.com/repos/szdytom/prismarine-physics/subscription",
            "svn_url": "https://github.com/szdytom/prismarine-physics",
            "tags_url": "https://api.github.com/repos/szdytom/prismarine-physics/tags",
            "teams_url": "https://api.github.com/repos/szdytom/prismarine-physics/teams",
            "topics": [],
            "trees_url": "https://api.github.com/repos/szdytom/prismarine-physics/git/trees{/sha}",
            "updated_at": "2023-11-01T02:58:22Z",
            "url": "https://api.github.com/repos/szdytom/prismarine-physics",
            "visibility": "public",
            "watchers": 0,
            "watchers_count": 0,
            "web_commit_signoff_required": false
        },
        "sha": "c524a9b0e655c472e1ecbb4f2193cb26360e8313",
        "user": {
            "avatar_url": "https://avatars.githubusercontent.com/u/33175397?v=4",
            "events_url": "https://api.github.com/users/szdytom/events{/privacy}",
            "followers_url": "https://api.github.com/users/szdytom/followers",
            "following_url": "https://api.github.com/users/szdytom/following{/other_user}",
            "gists_url": "https://api.github.com/users/szdytom/gists{/gist_id}",
            "gravatar_id": "",
            "html_url": "https://github.com/szdytom",
            "id": 33175397,
            "login": "szdytom",
            "node_id": "MDQ6VXNlcjMzMTc1Mzk3",
            "organizations_url": "https://api.github.com/users/szdytom/orgs",
            "received_events_url": "https://api.github.com/users/szdytom/received_events",
            "repos_url": "https://api.github.com/users/szdytom/repos",
            "site_admin": false,
            "starred_url": "https://api.github.com/users/szdytom/starred{/owner}{/repo}",
            "subscriptions_url": "https://api.github.com/users/szdytom/subscriptions",
            "type": "User",
            "url": "https://api.github.com/users/szdytom"
        }
    },
    "html_url": "https://github.com/PrismarineJS/prismarine-physics/pull/110",
    "id": 1581988374,
    "issue_url": "https://api.github.com/repos/PrismarineJS/prismarine-physics/issues/110",
    "labels": [],
    "locked": false,
    "maintainer_can_modify": false,
    "merge_commit_sha": "2d08a9d0e5d7bd029a24ca5f682c306d239046a7",
    "mergeable": true,
    "mergeable_state": "blocked",
    "merged": false,
    "merged_at": null,
    "merged_by": null,
    "milestone": null,
    "node_id": "PR_kwDOEIfNyM5eSzoW",
    "number": 110,
    "patch_url": "https://github.com/PrismarineJS/prismarine-physics/pull/110.patch",
    "rebaseable": false,
    "requested_reviewers": [],
    "requested_teams": [],
    "review_comment_url": "https://api.github.com/repos/PrismarineJS/prismarine-physics/pulls/comments{/number}",
    "review_comments": 0,
    "review_comments_url": "https://api.github.com/repos/PrismarineJS/prismarine-physics/pulls/110/comments",
    "state": "closed",
    "statuses_url": "https://api.github.com/repos/PrismarineJS/prismarine-physics/statuses/c524a9b0e655c472e1ecbb4f2193cb26360e8313",
    "title": "Fix incorrect behavior in 1.19+. Improve feature list version condition.",
    "updated_at": "2023-11-01T23:44:02Z",
    "url": "https://api.github.com/repos/PrismarineJS/prismarine-physics/pulls/110",
    "user": {
        "avatar_url": "https://avatars.githubusercontent.com/u/33175397?v=4",
        "events_url": "https://api.github.com/users/szdytom/events{/privacy}",
        "followers_url": "https://api.github.com/users/szdytom/followers",
        "following_url": "https://api.github.com/users/szdytom/following{/other_user}",
        "gists_url": "https://api.github.com/users/szdytom/gists{/gist_id}",
        "gravatar_id": "",
        "html_url": "https://github.com/szdytom",
        "id": 33175397,
        "login": "szdytom",
        "node_id": "MDQ6VXNlcjMzMTc1Mzk3",
        "organizations_url": "https://api.github.com/users/szdytom/orgs",
        "received_events_url": "https://api.github.com/users/szdytom/received_events",
        "repos_url": "https://api.github.com/users/szdytom/repos",
        "site_admin": false,
        "starred_url": "https://api.github.com/users/szdytom/starred{/owner}{/repo}",
        "subscriptions_url": "https://api.github.com/users/szdytom/subscriptions",
        "type": "User",
        "url": "https://api.github.com/users/szdytom"
    }
}