{
    "_links": {
        "comments": {
            "href": "https://api.github.com/repos/PrismarineJS/prismarine-schematic/issues/49/comments"
        },
        "commits": {
            "href": "https://api.github.com/repos/PrismarineJS/prismarine-schematic/pulls/49/commits"
        },
        "html": {
            "href": "https://github.com/PrismarineJS/prismarine-schematic/pull/49"
        },
        "issue": {
            "href": "https://api.github.com/repos/PrismarineJS/prismarine-schematic/issues/49"
        },
        "review_comment": {
            "href": "https://api.github.com/repos/PrismarineJS/prismarine-schematic/pulls/comments{/number}"
        },
        "review_comments": {
            "href": "https://api.github.com/repos/PrismarineJS/prismarine-schematic/pulls/49/comments"
        },
        "self": {
            "href": "https://api.github.com/repos/PrismarineJS/prismarine-schematic/pulls/49"
        },
        "statuses": {
            "href": "https://api.github.com/repos/PrismarineJS/prismarine-schematic/statuses/79dd360a765f29288bfe6cb985becf7b53b9dbfe"
        }
    },
    "active_lock_reason": null,
    "additions": 1,
    "assignee": null,
    "assignees": [],
    "author_association": "CONTRIBUTOR",
    "auto_merge": null,
    "base": {
        "label": "PrismarineJS:master",
        "ref": "master",
        "repo": {
            "allow_forking": true,
            "archive_url": "https://api.github.com/repos/PrismarineJS/prismarine-schematic/{archive_format}{/ref}",
            "archived": false,
            "assignees_url": "https://api.github.com/repos/PrismarineJS/prismarine-schematic/assignees{/user}",
            "blobs_url": "https://api.github.com/repos/PrismarineJS/prismarine-schematic/git/blobs{/sha}",
            "branches_url": "https://api.github.com/repos/PrismarineJS/prismarine-schematic/branches{/branch}",
            "clone_url": "https://github.com/PrismarineJS/prismarine-schematic.git",
            "collaborators_url": "https://api.github.com/repos/PrismarineJS/prismarine-schematic/collaborators{/collaborator}",
            "comments_url": "https://api.github.com/repos/PrismarineJS/prismarine-schematic/comments{/number}",
            "commits_url": "https://api.github.com/repos/PrismarineJS/prismarine-schematic/commits{/sha}",
            "compare_url": "https://api.github.com/repos/PrismarineJS/prismarine-schematic/compare/{base}...{head}",
            "contents_url": "https://api.github.com/repos/PrismarineJS/prismarine-schematic/contents/{+path}",
            "contributors_url": "https://api.github.com/repos/PrismarineJS/prismarine-schematic/contributors",
            "created_at": "2020-12-12T00:42:27Z",
            "default_branch": "master",
            "deployments_url": "https://api.github.com/repos/PrismarineJS/prismarine-schematic/deployments",
            "description": "Read and write schematic of any minecraft version, provide them in a convenient and stable API",
            "disabled": false,
            "downloads_url": "https://api.github.com/repos/PrismarineJS/prismarine-schematic/downloads",
            "events_url": "https://api.github.com/repos/PrismarineJS/prismarine-schematic/events",
            "fork": false,
            "forks": 6,
            "forks_count": 6,
            "forks_url": "https://api.github.com/repos/PrismarineJS/prismarine-schematic/forks",
            "full_name": "PrismarineJS/prismarine-schematic",
            "git_commits_url": "https://api.github.com/repos/PrismarineJS/prismarine-schematic/git/commits{/sha}",
            "git_refs_url": "https://api.github.com/repos/PrismarineJS/prismarine-schematic/git/refs{/sha}",
            "git_tags_url": "https://api.github.com/repos/PrismarineJS/prismarine-schematic/git/tags{/sha}",
            "git_url": "git://github.com/PrismarineJS/prismarine-schematic.git",
            "has_discussions": false,
            "has_downloads": true,
            "has_issues": true,
            "has_pages": true,
            "has_projects": true,
            "has_wiki": true,
            "homepage": "https://prismarine.js.org/prismarine-schematic/",
            "hooks_url": "https://api.github.com/repos/PrismarineJS/prismarine-schematic/hooks",
            "html_url": "https://github.com/PrismarineJS/prismarine-schematic",
            "id": 320716793,
            "is_template": false,
            "issue_comment_url": "https://api.github.com/repos/PrismarineJS/prismarine-schematic/issues/comments{/number}",
            "issue_events_url": "https://api.github.com/repos/PrismarineJS/prismarine-schematic/issues/events{/number}",
            "issues_url": "https://api.github.com/repos/PrismarineJS/prismarine-schematic/issues{/number}",
            "keys_url": "https://api.github.com/repos/PrismarineJS/prismarine-schematic/keys{/key_id}",
            "labels_url": "https://api.github.com/repos/PrismarineJS/prismarine-schematic/labels{/name}",
            "language": "JavaScript",
            "languages_url": "https://api.github.com/repos/PrismarineJS/prismarine-schematic/languages",
            "license": {
                "key": "mit",
                "name": "MIT License",
                "node_id": "MDc6TGljZW5zZTEz",
                "spdx_id": "MIT",
                "url": "https://api.github.com/licenses/mit"
            },
            "merges_url": "https://api.github.com/repos/PrismarineJS/prismarine-schematic/merges",
            "milestones_url": "https://api.github.com/repos/PrismarineJS/prismarine-schematic/milestones{/number}",
            "mirror_url": null,
            "name": "prismarine-schematic",
            "node_id": "MDEwOlJlcG9zaXRvcnkzMjA3MTY3OTM=",
            "notifications_url": "https://api.github.com/repos/PrismarineJS/prismarine-schematic/notifications{?since,all,participating}",
            "open_issues": 8,
            "open_issues_count": 8,
            "owner": {
                "avatar_url": "https://avatars.githubusercontent.com/u/11053411?v=4",
                "events_url": "https://api.github.com/users/PrismarineJS/events{/privacy}",
                "followers_url": "https://api.github.com/users/PrismarineJS/followers",
                "following_url": "https://api.github.com/users/PrismarineJS/following{/other_user}",
                "gists_url": "https://api.github.com/users/PrismarineJS/gists{/gist_id}",
                "gravatar_id": "",
                "html_url": "https://github.com/PrismarineJS",
                "id": 11053411,
                "login": "PrismarineJS",
                "node_id": "MDEyOk9yZ2FuaXphdGlvbjExMDUzNDEx",
                "organizations_url": "https://api.github.com/users/PrismarineJS/orgs",
                "received_events_url": "https://api.github.com/users/PrismarineJS/received_events",
                "repos_url": "https://api.github.com/users/PrismarineJS/repos",
                "site_admin": false,
                "starred_url": "https://api.github.com/users/PrismarineJS/starred{/owner}{/repo}",
                "subscriptions_url": "https://api.github.com/users/PrismarineJS/subscriptions",
                "type": "Organization",
                "url": "https://api.github.com/users/PrismarineJS"
            },
            "private": false,
            "pulls_url": "https://api.github.com/repos/PrismarineJS/prismarine-schematic/pulls{/number}",
            "pushed_at": "2023-04-10T12:27:35Z",
            "releases_url": "https://api.github.com/repos/PrismarineJS/prismarine-schematic/releases{/id}",
            "size": 8855,
            "ssh_url": "git@github.com:PrismarineJS/prismarine-schematic.git",
            "stargazers_count": 16,
            "stargazers_url": "https://api.github.com/repos/PrismarineJS/prismarine-schematic/stargazers",
            "statuses_url": "https://api.github.com/repos/PrismarineJS/prismarine-schematic/statuses/{sha}",
            "subscribers_url": "https://api.github.com/repos/PrismarineJS/prismarine-schematic/subscribers",
            "subscription_url": "https://api.github.com/repos/PrismarineJS/prismarine-schematic/subscription",
            "svn_url": "https://github.com/PrismarineJS/prismarine-schematic",
            "tags_url": "https://api.github.com/repos/PrismarineJS/prismarine-schematic/tags",
            "teams_url": "https://api.github.com/repos/PrismarineJS/prismarine-schematic/teams",
            "topics": [
                "3d",
                "minecraft",
                "schematics"
            ],
            "trees_url": "https://api.github.com/repos/PrismarineJS/prismarine-schematic/git/trees{/sha}",
            "updated_at": "2023-02-04T17:04:35Z",
            "url": "https://api.github.com/repos/PrismarineJS/prismarine-schematic",
            "visibility": "public",
            "watchers": 16,
            "watchers_count": 16,
            "web_commit_signoff_required": false
        },
        "sha": "07537056d7e9cbcd9116186f664925c8865eee8c",
        "user": {
            "avatar_url": "https://avatars.githubusercontent.com/u/11053411?v=4",
            "events_url": "https://api.github.com/users/PrismarineJS/events{/privacy}",
            "followers_url": "https://api.github.com/users/PrismarineJS/followers",
            "following_url": "https://api.github.com/users/PrismarineJS/following{/other_user}",
            "gists_url": "https://api.github.com/users/PrismarineJS/gists{/gist_id}",
            "gravatar_id": "",
            "html_url": "https://github.com/PrismarineJS",
            "id": 11053411,
            "login": "PrismarineJS",
            "node_id": "MDEyOk9yZ2FuaXphdGlvbjExMDUzNDEx",
            "organizations_url": "https://api.github.com/users/PrismarineJS/orgs",
            "received_events_url": "https://api.github.com/users/PrismarineJS/received_events",
            "repos_url": "https://api.github.com/users/PrismarineJS/repos",
            "site_admin": false,
            "starred_url": "https://api.github.com/users/PrismarineJS/starred{/owner}{/repo}",
            "subscriptions_url": "https://api.github.com/users/PrismarineJS/subscriptions",
            "type": "Organization",
            "url": "https://api.github.com/users/PrismarineJS"
        }
    },
    "body": "Bumps [jest](https://github.com/facebook/jest/tree/HEAD/packages/jest) from 27.5.1 to 28.1.0.\n<details>\n<summary>Release notes</summary>\n<p><em>Sourced from <a href=\"https://github.com/facebook/jest/releases\">jest's releases</a>.</em></p>\n<blockquote>\n<h2>v28.1.0</h2>\n<h2>Features</h2>\n<ul>\n<li><code>[jest-circus]</code> Add <code>failing</code> test modifier that inverts the behaviour of tests (<a href=\"https://github-redirect.dependabot.com/facebook/jest/pull/12610\">#12610</a>)</li>\n<li><code>[jest-environment-node, jest-environment-jsdom]</code> Allow specifying <code>customExportConditions</code> (<a href=\"https://github-redirect.dependabot.com/facebook/jest/pull/12774\">#12774</a>)</li>\n</ul>\n<h2>Fixes</h2>\n<ul>\n<li><code>[expect]</code> Adjust typings of <code>lastCalledWith</code>, <code>nthCalledWith</code>, <code>toBeCalledWith</code> matchers to allow a case there a mock was called with no arguments (<a href=\"https://github-redirect.dependabot.com/facebook/jest/pull/12807\">#12807</a>)</li>\n<li><code>[@jest/expect-utils]</code> Fix deep equality of ImmutableJS Lists (<a href=\"https://github-redirect.dependabot.com/facebook/jest/pull/12763\">#12763</a>)</li>\n<li><code>[jest-core]</code> Do not collect <code>SIGNREQUEST</code> as open handles (<a href=\"https://github-redirect.dependabot.com/facebook/jest/pull/12789\">#12789</a>)</li>\n</ul>\n<h2>Chore &amp; Maintenance</h2>\n<ul>\n<li><code>[docs]</code> Specified documentation about <code>--filter</code> CLI docs (<a href=\"https://github-redirect.dependabot.com/facebook/jest/pull/12799\">#12799</a>)</li>\n<li><code>[@jest-reporters]</code> Move helper functions from <code>utils.ts</code> into separate files (<a href=\"https://github-redirect.dependabot.com/facebook/jest/pull/12782\">#12782</a>)</li>\n<li><code>[jest-resolve]</code> Replace <code>process.versions.pnp</code> type declaration with <code>@types/pnpapi</code> devDependency (<a href=\"https://github-redirect.dependabot.com/facebook/jest/pull/12783\">#12783</a>)</li>\n</ul>\n<h2>New Contributors</h2>\n<ul>\n<li><a href=\"https://github.com/romellem\"><code>@​romellem</code></a> made their first contribution in <a href=\"https://github-redirect.dependabot.com/facebook/jest/pull/12763\">facebook/jest#12763</a></li>\n<li><a href=\"https://github.com/cristianrgreco\"><code>@​cristianrgreco</code></a> made their first contribution in <a href=\"https://github-redirect.dependabot.com/facebook/jest/pull/12789\">facebook/jest#12789</a></li>\n<li><a href=\"https://github.com/rethab\"><code>@​rethab</code></a> made their first contribution in <a href=\"https://github-redirect.dependabot.com/facebook/jest/pull/12791\">facebook/jest#12791</a></li>\n<li><a href=\"https://github.com/gramsco\"><code>@​gramsco</code></a> made their first contribution in <a href=\"https://github-redirect.dependabot.com/facebook/jest/pull/12799\">facebook/jest#12799</a></li>\n<li><a href=\"https://github.com/michalwarda\"><code>@​michalwarda</code></a> made their first contribution in <a href=\"https://github-redirect.dependabot.com/facebook/jest/pull/12610\">facebook/jest#12610</a></li>\n<li><a href=\"https://github.com/mikemaccana\"><code>@​mikemaccana</code></a> made their first contribution in <a href=\"https://github-redirect.dependabot.com/facebook/jest/pull/12809\">facebook/jest#12809</a></li>\n</ul>\n<p><strong>Full Changelog</strong>: <a href=\"https://github.com/facebook/jest/compare/v28.0.3...v28.1.0\">https://github.com/facebook/jest/compare/v28.0.3...v28.1.0</a></p>\n<h2>v28.0.3</h2>\n<h2>Fixes</h2>\n<ul>\n<li><code>[jest-config]</code> Normalize <code>reporters</code> option defined in presets (<a href=\"https://github-redirect.dependabot.com/facebook/jest/pull/12769\">#12769</a>)</li>\n<li><code>[@jest/reporters]</code> Fix trailing slash in matching <code>coverageThreshold</code> key (<a href=\"https://github-redirect.dependabot.com/facebook/jest/pull/12714\">#12714</a>)</li>\n<li><code>[jest-resolve]</code> Fix (experimental) ESM module mocking for re-exports (<a href=\"https://github-redirect.dependabot.com/facebook/jest/pull/12766\">#12766</a>)</li>\n<li><code>[@jest/transform]</code> Throw better error if an invalid return value if encountered (<a href=\"https://github-redirect.dependabot.com/facebook/jest/pull/12764\">#12764</a>)</li>\n</ul>\n<h2>Chore &amp; Maintenance</h2>\n<ul>\n<li><code>[docs]</code> Fix typo in <code>--shard</code> CLI docs (<a href=\"https://github-redirect.dependabot.com/facebook/jest/pull/12761\">#12761</a>)</li>\n</ul>\n<h2>New Contributors</h2>\n<ul>\n<li><a href=\"https://github.com/wespickett\"><code>@​wespickett</code></a> made their first contribution in <a href=\"https://github-redirect.dependabot.com/facebook/jest/pull/12714\">facebook/jest#12714</a></li>\n<li><a href=\"https://github.com/helloitsjoe\"><code>@​helloitsjoe</code></a> made their first contribution in <a href=\"https://github-redirect.dependabot.com/facebook/jest/pull/12761\">facebook/jest#12761</a></li>\n<li><a href=\"https://github.com/maxdavidson\"><code>@​maxdavidson</code></a> made their first contribution in <a href=\"https://github-redirect.dependabot.com/facebook/jest/pull/12766\">facebook/jest#12766</a></li>\n</ul>\n<p><strong>Full Changelog</strong>: <a href=\"https://github.com/facebook/jest/compare/v28.0.2...v28.0.3\">https://github.com/facebook/jest/compare/v28.0.2...v28.0.3</a></p>\n<h2>v28.0.2</h2>\n<h2>Features</h2>\n<!-- raw HTML omitted -->\n</blockquote>\n<p>... (truncated)</p>\n</details>\n<details>\n<summary>Changelog</summary>\n<p><em>Sourced from <a href=\"https://github.com/facebook/jest/blob/main/CHANGELOG.md\">jest's changelog</a>.</em></p>\n<blockquote>\n<h2>28.1.0</h2>\n<h3>Features</h3>\n<ul>\n<li><code>[jest-circus]</code> Add <code>failing</code> test modifier that inverts the behaviour of tests (<a href=\"https://github-redirect.dependabot.com/facebook/jest/pull/12610\">#12610</a>)</li>\n<li><code>[jest-environment-node, jest-environment-jsdom]</code> Allow specifying <code>customExportConditions</code> (<a href=\"https://github-redirect.dependabot.com/facebook/jest/pull/12774\">#12774</a>)</li>\n</ul>\n<h3>Fixes</h3>\n<ul>\n<li><code>[expect]</code> Adjust typings of <code>lastCalledWith</code>, <code>nthCalledWith</code>, <code>toBeCalledWith</code> matchers to allow a case there a mock was called with no arguments (<a href=\"https://github-redirect.dependabot.com/facebook/jest/pull/12807\">#12807</a>)</li>\n<li><code>[@jest/expect-utils]</code> Fix deep equality of ImmutableJS Lists (<a href=\"https://github-redirect.dependabot.com/facebook/jest/pull/12763\">#12763</a>)</li>\n<li><code>[jest-core]</code> Do not collect <code>SIGNREQUEST</code> as open handles (<a href=\"https://github-redirect.dependabot.com/facebook/jest/pull/12789\">#12789</a>)</li>\n</ul>\n<h3>Chore &amp; Maintenance</h3>\n<ul>\n<li><code>[docs]</code> Specified documentation about <code>--filter</code> CLI docs (<a href=\"https://github-redirect.dependabot.com/facebook/jest/pull/12799\">#12799</a>)</li>\n<li><code>[@jest-reporters]</code> Move helper functions from <code>utils.ts</code> into separate files (<a href=\"https://github-redirect.dependabot.com/facebook/jest/pull/12782\">#12782</a>)</li>\n<li><code>[jest-resolve]</code> Replace <code>process.versions.pnp</code> type declaration with <code>@types/pnpapi</code> devDependency (<a href=\"https://github-redirect.dependabot.com/facebook/jest/pull/12783\">#12783</a>)</li>\n</ul>\n<h2>28.0.3</h2>\n<h3>Fixes</h3>\n<ul>\n<li><code>[jest-config]</code> Normalize <code>reporters</code> option defined in presets (<a href=\"https://github-redirect.dependabot.com/facebook/jest/pull/12769\">#12769</a>)</li>\n<li><code>[@jest/reporters]</code> Fix trailing slash in matching <code>coverageThreshold</code> key (<a href=\"https://github-redirect.dependabot.com/facebook/jest/pull/12714\">#12714</a>)</li>\n<li><code>[jest-resolve]</code> Fix (experimental) ESM module mocking for re-exports (<a href=\"https://github-redirect.dependabot.com/facebook/jest/pull/12766\">#12766</a>)</li>\n<li><code>[@jest/transform]</code> Throw better error if an invalid return value if encountered (<a href=\"https://github-redirect.dependabot.com/facebook/jest/pull/12764\">#12764</a>)</li>\n</ul>\n<h3>Chore &amp; Maintenance</h3>\n<ul>\n<li><code>[docs]</code> Fix typo in <code>--shard</code> CLI docs (<a href=\"https://github-redirect.dependabot.com/facebook/jest/pull/12761\">#12761</a>)</li>\n</ul>\n<h2>28.0.2</h2>\n<h3>Features</h3>\n<ul>\n<li><code>[jest-worker]</code> Add <code>JestWorkerFarm</code> helper type (<a href=\"https://github-redirect.dependabot.com/facebook/jest/pull/12753\">#12753</a>)</li>\n</ul>\n<h3>Fixes</h3>\n<ul>\n<li><code>[*]</code> Lower Node 16 requirement to 16.10 from 16.13 due to a <a href=\"https://github-redirect.dependabot.com/nodejs/node/issues/40014\">Node bug</a> that causes memory and performance issues (<a href=\"https://github-redirect.dependabot.com/facebook/jest/pull/12754\">#12754</a>)</li>\n</ul>\n<h2>28.0.1</h2>\n<h3>Features</h3>\n<ul>\n<li><code>[jest-resolve]</code> Expose <code>ResolverOptions</code> type (<a href=\"https://github-redirect.dependabot.com/facebook/jest/pull/12736\">#12736</a>)</li>\n</ul>\n<h3>Fixes</h3>\n<!-- raw HTML omitted -->\n</blockquote>\n<p>... (truncated)</p>\n</details>\n<details>\n<summary>Commits</summary>\n<ul>\n<li><a href=\"https://github.com/facebook/jest/commit/f5db241312f46528389e55c38221e6b6968622cf\"><code>f5db241</code></a> v28.1.0</li>\n<li><a href=\"https://github.com/facebook/jest/commit/1bea778422dc049b0fb3d7da809ffec39be549ff\"><code>1bea778</code></a> v28.0.3</li>\n<li><a href=\"https://github.com/facebook/jest/commit/279ee6658d763f024d51f340fab6a37c17d94502\"><code>279ee66</code></a> v28.0.2</li>\n<li><a href=\"https://github.com/facebook/jest/commit/924132163cf7f54148bd78a8e6007ffc1a9c1f00\"><code>9241321</code></a> fix(*): Lower Node requirement to 16.10 (<a href=\"https://github.com/facebook/jest/tree/HEAD/packages/jest/issues/12754\">#12754</a>)</li>\n<li><a href=\"https://github.com/facebook/jest/commit/0a08639e4299f07becf1020a761adfec83536018\"><code>0a08639</code></a> v28.0.1</li>\n<li><a href=\"https://github.com/facebook/jest/commit/8f9b812faf8e4d241d560a8574f0c6ed20a89365\"><code>8f9b812</code></a> v28.0.0</li>\n<li><a href=\"https://github.com/facebook/jest/commit/8b4b78759d255746f11e396efe7d06ac93dbd05b\"><code>8b4b787</code></a> v28.0.0-alpha.11</li>\n<li><a href=\"https://github.com/facebook/jest/commit/d5eda7f23571081cea24760261d209ff3e01a084\"><code>d5eda7f</code></a> v28.0.0-alpha.10</li>\n<li><a href=\"https://github.com/facebook/jest/commit/7c63f5981eb20d4b89a4c04f3675e0050d8d7887\"><code>7c63f59</code></a> v28.0.0-alpha.9</li>\n<li><a href=\"https://github.com/facebook/jest/commit/ccecdaeaaebd0057067ec06a8ed699fb6270b38e\"><code>ccecdae</code></a> Enforce same version of a dependency (<a href=\"https://github.com/facebook/jest/tree/HEAD/packages/jest/issues/12668\">#12668</a>)</li>\n<li>Additional commits viewable in <a href=\"https://github.com/facebook/jest/commits/v28.1.0/packages/jest\">compare view</a></li>\n</ul>\n</details>\n<br />\n\n\n[![Dependabot compatibility score](https://dependabot-badges.githubapp.com/badges/compatibility_score?dependency-name=jest&package-manager=npm_and_yarn&previous-version=27.5.1&new-version=28.1.0)](https://docs.github.com/en/github/managing-security-vulnerabilities/about-dependabot-security-updates#about-compatibility-scores)\n\nDependabot will resolve any conflicts with this PR as long as you don't alter it yourself. You can also trigger a rebase manually by commenting `@dependabot rebase`.\n\n[//]: # (dependabot-automerge-start)\n[//]: # (dependabot-automerge-end)\n\n---\n\n<details>\n<summary>Dependabot commands and options</summary>\n<br />\n\nYou can trigger Dependabot actions by commenting on this PR:\n- `@dependabot rebase` will rebase this PR\n- `@dependabot recreate` will recreate this PR, overwriting any edits that have been made to it\n- `@dependabot merge` will merge this PR after your CI passes on it\n- `@dependabot squash and merge` will squash and merge this PR after your CI passes on it\n- `@dependabot cancel merge` will cancel a previously requested merge and block automerging\n- `@dependabot reopen` will reopen this PR if it is closed\n- `@dependabot close` will close this PR and stop Dependabot recreating it. You can achieve the same result by closing it manually\n- `@dependabot ignore this major version` will close this PR and stop Dependabot creating any more for this major version (unless you reopen the PR or upgrade to it yourself)\n- `@dependabot ignore this minor version` will close this PR and stop Dependabot creating any more for this minor version (unless you reopen the PR or upgrade to it yourself)\n- `@dependabot ignore this dependency` will close this PR and stop Dependabot creating any more for this dependency (unless you reopen the PR or upgrade to it yourself)\n\n\n</details>",
    "changed_files": 1,
    "closed_at": "2022-05-09T22:03:38Z",
    "comment_data": [],
    "comment_regular_data": [],
    "comments": 0,
    "comments_url": "https://api.github.com/repos/PrismarineJS/prismarine-schematic/issues/49/comments",
    "commit_data": [
        {
            "author": {
                "avatar_url": "https://avatars.githubusercontent.com/in/29110?v=4",
                "events_url": "https://api.github.com/users/dependabot%5Bbot%5D/events{/privacy}",
                "followers_url": "https://api.github.com/users/dependabot%5Bbot%5D/followers",
                "following_url": "https://api.github.com/users/dependabot%5Bbot%5D/following{/other_user}",
                "gists_url": "https://api.github.com/users/dependabot%5Bbot%5D/gists{/gist_id}",
                "gravatar_id": "",
                "html_url": "https://github.com/apps/dependabot",
                "id": 49699333,
                "login": "dependabot[bot]",
                "node_id": "MDM6Qm90NDk2OTkzMzM=",
                "organizations_url": "https://api.github.com/users/dependabot%5Bbot%5D/orgs",
                "received_events_url": "https://api.github.com/users/dependabot%5Bbot%5D/received_events",
                "repos_url": "https://api.github.com/users/dependabot%5Bbot%5D/repos",
                "site_admin": false,
                "starred_url": "https://api.github.com/users/dependabot%5Bbot%5D/starred{/owner}{/repo}",
                "subscriptions_url": "https://api.github.com/users/dependabot%5Bbot%5D/subscriptions",
                "type": "Bot",
                "url": "https://api.github.com/users/dependabot%5Bbot%5D"
            },
            "comments_url": "https://api.github.com/repos/PrismarineJS/prismarine-schematic/commits/79dd360a765f29288bfe6cb985becf7b53b9dbfe/comments",
            "commit": {
                "author": {
                    "date": "2022-05-09T06:11:27Z",
                    "email": "49699333+dependabot[bot]@users.noreply.github.com",
                    "name": "dependabot[bot]"
                },
                "comment_count": 0,
                "committer": {
                    "date": "2022-05-09T06:11:27Z",
                    "email": "noreply@github.com",
                    "name": "GitHub"
                },
                "message": "Bump jest from 27.5.1 to 28.1.0\n\nBumps [jest](https://github.com/facebook/jest/tree/HEAD/packages/jest) from 27.5.1 to 28.1.0.\n- [Release notes](https://github.com/facebook/jest/releases)\n- [Changelog](https://github.com/facebook/jest/blob/main/CHANGELOG.md)\n- [Commits](https://github.com/facebook/jest/commits/v28.1.0/packages/jest)\n\n---\nupdated-dependencies:\n- dependency-name: jest\n  dependency-type: direct:development\n  update-type: version-update:semver-major\n...\n\nSigned-off-by: dependabot[bot] <support@github.com>",
                "tree": {
                    "sha": "9d3ea938f997ac463aaed4cd89c2b7d0d6d9c91b",
                    "url": "https://api.github.com/repos/PrismarineJS/prismarine-schematic/git/trees/9d3ea938f997ac463aaed4cd89c2b7d0d6d9c91b"
                },
                "url": "https://api.github.com/repos/PrismarineJS/prismarine-schematic/git/commits/79dd360a765f29288bfe6cb985becf7b53b9dbfe",
                "verification": {
                    "payload": "tree 9d3ea938f997ac463aaed4cd89c2b7d0d6d9c91b\nparent 07537056d7e9cbcd9116186f664925c8865eee8c\nauthor dependabot[bot] <49699333+dependabot[bot]@users.noreply.github.com> 1652076687 +0000\ncommitter GitHub <noreply@github.com> 1652076687 +0000\n\nBump jest from 27.5.1 to 28.1.0\n\nBumps [jest](https://github.com/facebook/jest/tree/HEAD/packages/jest) from 27.5.1 to 28.1.0.\n- [Release notes](https://github.com/facebook/jest/releases)\n- [Changelog](https://github.com/facebook/jest/blob/main/CHANGELOG.md)\n- [Commits](https://github.com/facebook/jest/commits/v28.1.0/packages/jest)\n\n---\nupdated-dependencies:\n- dependency-name: jest\n  dependency-type: direct:development\n  update-type: version-update:semver-major\n...\n\nSigned-off-by: dependabot[bot] <support@github.com>",
                    "reason": "valid",
                    "signature": "-----BEGIN PGP SIGNATURE-----\n\nwsBcBAABCAAQBQJieLCPCRBK7hj4Ov3rIwAAYo0IAFkoy+eR8GBdEgagF5IUwX9p\nCCGCV79FnpTLb1kzlqhu2v0KgObE11peH+wBPmbJFsjd2ZumO6/HWSsCtg3PVcxE\nzkDAxUaXu4tgd+7HkPWDZlgAWJM9GEiQofwIqtS5wnaUktAgE4SgzvhlPquLcmY6\nxwkoAUhUEfY+WSh5XEUM8ODSST5bkv1pihvwFqMuc9YNDwxVnt6+2sl5rVnHmrrw\nqDkNaoQMcX8XhRggNWPmxQmAvnh3eKoOOYtsG26UeeE/cSiVZszS3PvwqWm9F0cf\nBFv3N4NdWzt/bXkGDWiF62yUBIeY8rklJS+pwR/eY7t2spaOpb2kfUvAmDfgwko=\n=i7T4\n-----END PGP SIGNATURE-----\n",
                    "verified": true
                }
            },
            "committer": {
                "avatar_url": "https://avatars.githubusercontent.com/u/19864447?v=4",
                "events_url": "https://api.github.com/users/web-flow/events{/privacy}",
                "followers_url": "https://api.github.com/users/web-flow/followers",
                "following_url": "https://api.github.com/users/web-flow/following{/other_user}",
                "gists_url": "https://api.github.com/users/web-flow/gists{/gist_id}",
                "gravatar_id": "",
                "html_url": "https://github.com/web-flow",
                "id": 19864447,
                "login": "web-flow",
                "node_id": "MDQ6VXNlcjE5ODY0NDQ3",
                "organizations_url": "https://api.github.com/users/web-flow/orgs",
                "received_events_url": "https://api.github.com/users/web-flow/received_events",
                "repos_url": "https://api.github.com/users/web-flow/repos",
                "site_admin": false,
                "starred_url": "https://api.github.com/users/web-flow/starred{/owner}{/repo}",
                "subscriptions_url": "https://api.github.com/users/web-flow/subscriptions",
                "type": "User",
                "url": "https://api.github.com/users/web-flow"
            },
            "html_url": "https://github.com/PrismarineJS/prismarine-schematic/commit/79dd360a765f29288bfe6cb985becf7b53b9dbfe",
            "node_id": "C_kwDOEx2_-doAKDc5ZGQzNjBhNzY1ZjI5Mjg4YmZlNmNiOTg1YmVjZjdiNTNiOWRiZmU",
            "parents": [
                {
                    "html_url": "https://github.com/PrismarineJS/prismarine-schematic/commit/07537056d7e9cbcd9116186f664925c8865eee8c",
                    "sha": "07537056d7e9cbcd9116186f664925c8865eee8c",
                    "url": "https://api.github.com/repos/PrismarineJS/prismarine-schematic/commits/07537056d7e9cbcd9116186f664925c8865eee8c"
                }
            ],
            "sha": "79dd360a765f29288bfe6cb985becf7b53b9dbfe",
            "url": "https://api.github.com/repos/PrismarineJS/prismarine-schematic/commits/79dd360a765f29288bfe6cb985becf7b53b9dbfe"
        }
    ],
    "commits": 1,
    "commits_url": "https://api.github.com/repos/PrismarineJS/prismarine-schematic/pulls/49/commits",
    "created_at": "2022-05-09T06:11:28Z",
    "deletions": 1,
    "diff_url": "https://github.com/PrismarineJS/prismarine-schematic/pull/49.diff",
    "draft": false,
    "head": {
        "label": "PrismarineJS:dependabot/npm_and_yarn/jest-28.1.0",
        "ref": "dependabot/npm_and_yarn/jest-28.1.0",
        "repo": {
            "allow_forking": true,
            "archive_url": "https://api.github.com/repos/PrismarineJS/prismarine-schematic/{archive_format}{/ref}",
            "archived": false,
            "assignees_url": "https://api.github.com/repos/PrismarineJS/prismarine-schematic/assignees{/user}",
            "blobs_url": "https://api.github.com/repos/PrismarineJS/prismarine-schematic/git/blobs{/sha}",
            "branches_url": "https://api.github.com/repos/PrismarineJS/prismarine-schematic/branches{/branch}",
            "clone_url": "https://github.com/PrismarineJS/prismarine-schematic.git",
            "collaborators_url": "https://api.github.com/repos/PrismarineJS/prismarine-schematic/collaborators{/collaborator}",
            "comments_url": "https://api.github.com/repos/PrismarineJS/prismarine-schematic/comments{/number}",
            "commits_url": "https://api.github.com/repos/PrismarineJS/prismarine-schematic/commits{/sha}",
            "compare_url": "https://api.github.com/repos/PrismarineJS/prismarine-schematic/compare/{base}...{head}",
            "contents_url": "https://api.github.com/repos/PrismarineJS/prismarine-schematic/contents/{+path}",
            "contributors_url": "https://api.github.com/repos/PrismarineJS/prismarine-schematic/contributors",
            "created_at": "2020-12-12T00:42:27Z",
            "default_branch": "master",
            "deployments_url": "https://api.github.com/repos/PrismarineJS/prismarine-schematic/deployments",
            "description": "Read and write schematic of any minecraft version, provide them in a convenient and stable API",
            "disabled": false,
            "downloads_url": "https://api.github.com/repos/PrismarineJS/prismarine-schematic/downloads",
            "events_url": "https://api.github.com/repos/PrismarineJS/prismarine-schematic/events",
            "fork": false,
            "forks": 6,
            "forks_count": 6,
            "forks_url": "https://api.github.com/repos/PrismarineJS/prismarine-schematic/forks",
            "full_name": "PrismarineJS/prismarine-schematic",
            "git_commits_url": "https://api.github.com/repos/PrismarineJS/prismarine-schematic/git/commits{/sha}",
            "git_refs_url": "https://api.github.com/repos/PrismarineJS/prismarine-schematic/git/refs{/sha}",
            "git_tags_url": "https://api.github.com/repos/PrismarineJS/prismarine-schematic/git/tags{/sha}",
            "git_url": "git://github.com/PrismarineJS/prismarine-schematic.git",
            "has_discussions": false,
            "has_downloads": true,
            "has_issues": true,
            "has_pages": true,
            "has_projects": true,
            "has_wiki": true,
            "homepage": "https://prismarine.js.org/prismarine-schematic/",
            "hooks_url": "https://api.github.com/repos/PrismarineJS/prismarine-schematic/hooks",
            "html_url": "https://github.com/PrismarineJS/prismarine-schematic",
            "id": 320716793,
            "is_template": false,
            "issue_comment_url": "https://api.github.com/repos/PrismarineJS/prismarine-schematic/issues/comments{/number}",
            "issue_events_url": "https://api.github.com/repos/PrismarineJS/prismarine-schematic/issues/events{/number}",
            "issues_url": "https://api.github.com/repos/PrismarineJS/prismarine-schematic/issues{/number}",
            "keys_url": "https://api.github.com/repos/PrismarineJS/prismarine-schematic/keys{/key_id}",
            "labels_url": "https://api.github.com/repos/PrismarineJS/prismarine-schematic/labels{/name}",
            "language": "JavaScript",
            "languages_url": "https://api.github.com/repos/PrismarineJS/prismarine-schematic/languages",
            "license": {
                "key": "mit",
                "name": "MIT License",
                "node_id": "MDc6TGljZW5zZTEz",
                "spdx_id": "MIT",
                "url": "https://api.github.com/licenses/mit"
            },
            "merges_url": "https://api.github.com/repos/PrismarineJS/prismarine-schematic/merges",
            "milestones_url": "https://api.github.com/repos/PrismarineJS/prismarine-schematic/milestones{/number}",
            "mirror_url": null,
            "name": "prismarine-schematic",
            "node_id": "MDEwOlJlcG9zaXRvcnkzMjA3MTY3OTM=",
            "notifications_url": "https://api.github.com/repos/PrismarineJS/prismarine-schematic/notifications{?since,all,participating}",
            "open_issues": 8,
            "open_issues_count": 8,
            "owner": {
                "avatar_url": "https://avatars.githubusercontent.com/u/11053411?v=4",
                "events_url": "https://api.github.com/users/PrismarineJS/events{/privacy}",
                "followers_url": "https://api.github.com/users/PrismarineJS/followers",
                "following_url": "https://api.github.com/users/PrismarineJS/following{/other_user}",
                "gists_url": "https://api.github.com/users/PrismarineJS/gists{/gist_id}",
                "gravatar_id": "",
                "html_url": "https://github.com/PrismarineJS",
                "id": 11053411,
                "login": "PrismarineJS",
                "node_id": "MDEyOk9yZ2FuaXphdGlvbjExMDUzNDEx",
                "organizations_url": "https://api.github.com/users/PrismarineJS/orgs",
                "received_events_url": "https://api.github.com/users/PrismarineJS/received_events",
                "repos_url": "https://api.github.com/users/PrismarineJS/repos",
                "site_admin": false,
                "starred_url": "https://api.github.com/users/PrismarineJS/starred{/owner}{/repo}",
                "subscriptions_url": "https://api.github.com/users/PrismarineJS/subscriptions",
                "type": "Organization",
                "url": "https://api.github.com/users/PrismarineJS"
            },
            "private": false,
            "pulls_url": "https://api.github.com/repos/PrismarineJS/prismarine-schematic/pulls{/number}",
            "pushed_at": "2023-04-10T12:27:35Z",
            "releases_url": "https://api.github.com/repos/PrismarineJS/prismarine-schematic/releases{/id}",
            "size": 8855,
            "ssh_url": "git@github.com:PrismarineJS/prismarine-schematic.git",
            "stargazers_count": 16,
            "stargazers_url": "https://api.github.com/repos/PrismarineJS/prismarine-schematic/stargazers",
            "statuses_url": "https://api.github.com/repos/PrismarineJS/prismarine-schematic/statuses/{sha}",
            "subscribers_url": "https://api.github.com/repos/PrismarineJS/prismarine-schematic/subscribers",
            "subscription_url": "https://api.github.com/repos/PrismarineJS/prismarine-schematic/subscription",
            "svn_url": "https://github.com/PrismarineJS/prismarine-schematic",
            "tags_url": "https://api.github.com/repos/PrismarineJS/prismarine-schematic/tags",
            "teams_url": "https://api.github.com/repos/PrismarineJS/prismarine-schematic/teams",
            "topics": [
                "3d",
                "minecraft",
                "schematics"
            ],
            "trees_url": "https://api.github.com/repos/PrismarineJS/prismarine-schematic/git/trees{/sha}",
            "updated_at": "2023-02-04T17:04:35Z",
            "url": "https://api.github.com/repos/PrismarineJS/prismarine-schematic",
            "visibility": "public",
            "watchers": 16,
            "watchers_count": 16,
            "web_commit_signoff_required": false
        },
        "sha": "79dd360a765f29288bfe6cb985becf7b53b9dbfe",
        "user": {
            "avatar_url": "https://avatars.githubusercontent.com/u/11053411?v=4",
            "events_url": "https://api.github.com/users/PrismarineJS/events{/privacy}",
            "followers_url": "https://api.github.com/users/PrismarineJS/followers",
            "following_url": "https://api.github.com/users/PrismarineJS/following{/other_user}",
            "gists_url": "https://api.github.com/users/PrismarineJS/gists{/gist_id}",
            "gravatar_id": "",
            "html_url": "https://github.com/PrismarineJS",
            "id": 11053411,
            "login": "PrismarineJS",
            "node_id": "MDEyOk9yZ2FuaXphdGlvbjExMDUzNDEx",
            "organizations_url": "https://api.github.com/users/PrismarineJS/orgs",
            "received_events_url": "https://api.github.com/users/PrismarineJS/received_events",
            "repos_url": "https://api.github.com/users/PrismarineJS/repos",
            "site_admin": false,
            "starred_url": "https://api.github.com/users/PrismarineJS/starred{/owner}{/repo}",
            "subscriptions_url": "https://api.github.com/users/PrismarineJS/subscriptions",
            "type": "Organization",
            "url": "https://api.github.com/users/PrismarineJS"
        }
    },
    "html_url": "https://github.com/PrismarineJS/prismarine-schematic/pull/49",
    "id": 930756397,
    "issue_url": "https://api.github.com/repos/PrismarineJS/prismarine-schematic/issues/49",
    "labels": [
        {
            "color": "0366d6",
            "default": false,
            "description": "Pull requests that update a dependency file",
            "id": 2959714469,
            "name": "dependencies",
            "node_id": "MDU6TGFiZWwyOTU5NzE0NDY5",
            "url": "https://api.github.com/repos/PrismarineJS/prismarine-schematic/labels/dependencies"
        }
    ],
    "locked": false,
    "maintainer_can_modify": false,
    "merge_commit_sha": "3803445d202543b3edfc8ae03bddacade4e0db77",
    "mergeable": null,
    "mergeable_state": "unknown",
    "merged": true,
    "merged_at": "2022-05-09T22:03:38Z",
    "merged_by": {
        "avatar_url": "https://avatars.githubusercontent.com/u/43508353?v=4",
        "events_url": "https://api.github.com/users/u9g/events{/privacy}",
        "followers_url": "https://api.github.com/users/u9g/followers",
        "following_url": "https://api.github.com/users/u9g/following{/other_user}",
        "gists_url": "https://api.github.com/users/u9g/gists{/gist_id}",
        "gravatar_id": "",
        "html_url": "https://github.com/u9g",
        "id": 43508353,
        "login": "u9g",
        "node_id": "MDQ6VXNlcjQzNTA4MzUz",
        "organizations_url": "https://api.github.com/users/u9g/orgs",
        "received_events_url": "https://api.github.com/users/u9g/received_events",
        "repos_url": "https://api.github.com/users/u9g/repos",
        "site_admin": false,
        "starred_url": "https://api.github.com/users/u9g/starred{/owner}{/repo}",
        "subscriptions_url": "https://api.github.com/users/u9g/subscriptions",
        "type": "User",
        "url": "https://api.github.com/users/u9g"
    },
    "milestone": null,
    "node_id": "PR_kwDOEx2_-c43ejct",
    "number": 49,
    "patch_url": "https://github.com/PrismarineJS/prismarine-schematic/pull/49.patch",
    "rebaseable": null,
    "requested_reviewers": [],
    "requested_teams": [],
    "review_comment_url": "https://api.github.com/repos/PrismarineJS/prismarine-schematic/pulls/comments{/number}",
    "review_comments": 0,
    "review_comments_url": "https://api.github.com/repos/PrismarineJS/prismarine-schematic/pulls/49/comments",
    "state": "closed",
    "statuses_url": "https://api.github.com/repos/PrismarineJS/prismarine-schematic/statuses/79dd360a765f29288bfe6cb985becf7b53b9dbfe",
    "title": "Bump jest from 27.5.1 to 28.1.0",
    "updated_at": "2022-05-09T22:03:48Z",
    "url": "https://api.github.com/repos/PrismarineJS/prismarine-schematic/pulls/49",
    "user": {
        "avatar_url": "https://avatars.githubusercontent.com/in/29110?v=4",
        "events_url": "https://api.github.com/users/dependabot%5Bbot%5D/events{/privacy}",
        "followers_url": "https://api.github.com/users/dependabot%5Bbot%5D/followers",
        "following_url": "https://api.github.com/users/dependabot%5Bbot%5D/following{/other_user}",
        "gists_url": "https://api.github.com/users/dependabot%5Bbot%5D/gists{/gist_id}",
        "gravatar_id": "",
        "html_url": "https://github.com/apps/dependabot",
        "id": 49699333,
        "login": "dependabot[bot]",
        "node_id": "MDM6Qm90NDk2OTkzMzM=",
        "organizations_url": "https://api.github.com/users/dependabot%5Bbot%5D/orgs",
        "received_events_url": "https://api.github.com/users/dependabot%5Bbot%5D/received_events",
        "repos_url": "https://api.github.com/users/dependabot%5Bbot%5D/repos",
        "site_admin": false,
        "starred_url": "https://api.github.com/users/dependabot%5Bbot%5D/starred{/owner}{/repo}",
        "subscriptions_url": "https://api.github.com/users/dependabot%5Bbot%5D/subscriptions",
        "type": "Bot",
        "url": "https://api.github.com/users/dependabot%5Bbot%5D"
    }
}