{
    "_links": {
        "comments": {
            "href": "https://api.github.com/repos/PrismarineJS/prismarine-entity/issues/70/comments"
        },
        "commits": {
            "href": "https://api.github.com/repos/PrismarineJS/prismarine-entity/pulls/70/commits"
        },
        "html": {
            "href": "https://github.com/PrismarineJS/prismarine-entity/pull/70"
        },
        "issue": {
            "href": "https://api.github.com/repos/PrismarineJS/prismarine-entity/issues/70"
        },
        "review_comment": {
            "href": "https://api.github.com/repos/PrismarineJS/prismarine-entity/pulls/comments{/number}"
        },
        "review_comments": {
            "href": "https://api.github.com/repos/PrismarineJS/prismarine-entity/pulls/70/comments"
        },
        "self": {
            "href": "https://api.github.com/repos/PrismarineJS/prismarine-entity/pulls/70"
        },
        "statuses": {
            "href": "https://api.github.com/repos/PrismarineJS/prismarine-entity/statuses/1d0e9015e4255f8a2f3189fab851db1dbcb64c87"
        }
    },
    "active_lock_reason": null,
    "additions": 11,
    "assignee": null,
    "assignees": [],
    "author_association": "MEMBER",
    "auto_merge": null,
    "base": {
        "label": "PrismarineJS:master",
        "ref": "master",
        "repo": {
            "allow_forking": true,
            "archive_url": "https://api.github.com/repos/PrismarineJS/prismarine-entity/{archive_format}{/ref}",
            "archived": false,
            "assignees_url": "https://api.github.com/repos/PrismarineJS/prismarine-entity/assignees{/user}",
            "blobs_url": "https://api.github.com/repos/PrismarineJS/prismarine-entity/git/blobs{/sha}",
            "branches_url": "https://api.github.com/repos/PrismarineJS/prismarine-entity/branches{/branch}",
            "clone_url": "https://github.com/PrismarineJS/prismarine-entity.git",
            "collaborators_url": "https://api.github.com/repos/PrismarineJS/prismarine-entity/collaborators{/collaborator}",
            "comments_url": "https://api.github.com/repos/PrismarineJS/prismarine-entity/comments{/number}",
            "commits_url": "https://api.github.com/repos/PrismarineJS/prismarine-entity/commits{/sha}",
            "compare_url": "https://api.github.com/repos/PrismarineJS/prismarine-entity/compare/{base}...{head}",
            "contents_url": "https://api.github.com/repos/PrismarineJS/prismarine-entity/contents/{+path}",
            "contributors_url": "https://api.github.com/repos/PrismarineJS/prismarine-entity/contributors",
            "created_at": "2015-08-30T18:35:47Z",
            "default_branch": "master",
            "deployments_url": "https://api.github.com/repos/PrismarineJS/prismarine-entity/deployments",
            "description": "Represent a minecraft entity",
            "disabled": false,
            "downloads_url": "https://api.github.com/repos/PrismarineJS/prismarine-entity/downloads",
            "events_url": "https://api.github.com/repos/PrismarineJS/prismarine-entity/events",
            "fork": false,
            "forks": 17,
            "forks_count": 17,
            "forks_url": "https://api.github.com/repos/PrismarineJS/prismarine-entity/forks",
            "full_name": "PrismarineJS/prismarine-entity",
            "git_commits_url": "https://api.github.com/repos/PrismarineJS/prismarine-entity/git/commits{/sha}",
            "git_refs_url": "https://api.github.com/repos/PrismarineJS/prismarine-entity/git/refs{/sha}",
            "git_tags_url": "https://api.github.com/repos/PrismarineJS/prismarine-entity/git/tags{/sha}",
            "git_url": "git://github.com/PrismarineJS/prismarine-entity.git",
            "has_discussions": false,
            "has_downloads": true,
            "has_issues": true,
            "has_pages": false,
            "has_projects": true,
            "has_wiki": true,
            "homepage": null,
            "hooks_url": "https://api.github.com/repos/PrismarineJS/prismarine-entity/hooks",
            "html_url": "https://github.com/PrismarineJS/prismarine-entity",
            "id": 41638901,
            "is_template": false,
            "issue_comment_url": "https://api.github.com/repos/PrismarineJS/prismarine-entity/issues/comments{/number}",
            "issue_events_url": "https://api.github.com/repos/PrismarineJS/prismarine-entity/issues/events{/number}",
            "issues_url": "https://api.github.com/repos/PrismarineJS/prismarine-entity/issues{/number}",
            "keys_url": "https://api.github.com/repos/PrismarineJS/prismarine-entity/keys{/key_id}",
            "labels_url": "https://api.github.com/repos/PrismarineJS/prismarine-entity/labels{/name}",
            "language": "JavaScript",
            "languages_url": "https://api.github.com/repos/PrismarineJS/prismarine-entity/languages",
            "license": null,
            "merges_url": "https://api.github.com/repos/PrismarineJS/prismarine-entity/merges",
            "milestones_url": "https://api.github.com/repos/PrismarineJS/prismarine-entity/milestones{/number}",
            "mirror_url": null,
            "name": "prismarine-entity",
            "node_id": "MDEwOlJlcG9zaXRvcnk0MTYzODkwMQ==",
            "notifications_url": "https://api.github.com/repos/PrismarineJS/prismarine-entity/notifications{?since,all,participating}",
            "open_issues": 8,
            "open_issues_count": 8,
            "owner": {
                "avatar_url": "https://avatars.githubusercontent.com/u/11053411?v=4",
                "events_url": "https://api.github.com/users/PrismarineJS/events{/privacy}",
                "followers_url": "https://api.github.com/users/PrismarineJS/followers",
                "following_url": "https://api.github.com/users/PrismarineJS/following{/other_user}",
                "gists_url": "https://api.github.com/users/PrismarineJS/gists{/gist_id}",
                "gravatar_id": "",
                "html_url": "https://github.com/PrismarineJS",
                "id": 11053411,
                "login": "PrismarineJS",
                "node_id": "MDEyOk9yZ2FuaXphdGlvbjExMDUzNDEx",
                "organizations_url": "https://api.github.com/users/PrismarineJS/orgs",
                "received_events_url": "https://api.github.com/users/PrismarineJS/received_events",
                "repos_url": "https://api.github.com/users/PrismarineJS/repos",
                "site_admin": false,
                "starred_url": "https://api.github.com/users/PrismarineJS/starred{/owner}{/repo}",
                "subscriptions_url": "https://api.github.com/users/PrismarineJS/subscriptions",
                "type": "Organization",
                "url": "https://api.github.com/users/PrismarineJS"
            },
            "private": false,
            "pulls_url": "https://api.github.com/repos/PrismarineJS/prismarine-entity/pulls{/number}",
            "pushed_at": "2023-11-01T13:50:02Z",
            "releases_url": "https://api.github.com/repos/PrismarineJS/prismarine-entity/releases{/id}",
            "size": 48,
            "ssh_url": "git@github.com:PrismarineJS/prismarine-entity.git",
            "stargazers_count": 20,
            "stargazers_url": "https://api.github.com/repos/PrismarineJS/prismarine-entity/stargazers",
            "statuses_url": "https://api.github.com/repos/PrismarineJS/prismarine-entity/statuses/{sha}",
            "subscribers_url": "https://api.github.com/repos/PrismarineJS/prismarine-entity/subscribers",
            "subscription_url": "https://api.github.com/repos/PrismarineJS/prismarine-entity/subscription",
            "svn_url": "https://github.com/PrismarineJS/prismarine-entity",
            "tags_url": "https://api.github.com/repos/PrismarineJS/prismarine-entity/tags",
            "teams_url": "https://api.github.com/repos/PrismarineJS/prismarine-entity/teams",
            "topics": [],
            "trees_url": "https://api.github.com/repos/PrismarineJS/prismarine-entity/git/trees{/sha}",
            "updated_at": "2023-10-22T21:17:51Z",
            "url": "https://api.github.com/repos/PrismarineJS/prismarine-entity",
            "visibility": "public",
            "watchers": 20,
            "watchers_count": 20,
            "web_commit_signoff_required": false
        },
        "sha": "f124abd47b42a908a676b91b0fcb55b1fd1a77b9",
        "user": {
            "avatar_url": "https://avatars.githubusercontent.com/u/11053411?v=4",
            "events_url": "https://api.github.com/users/PrismarineJS/events{/privacy}",
            "followers_url": "https://api.github.com/users/PrismarineJS/followers",
            "following_url": "https://api.github.com/users/PrismarineJS/following{/other_user}",
            "gists_url": "https://api.github.com/users/PrismarineJS/gists{/gist_id}",
            "gravatar_id": "",
            "html_url": "https://github.com/PrismarineJS",
            "id": 11053411,
            "login": "PrismarineJS",
            "node_id": "MDEyOk9yZ2FuaXphdGlvbjExMDUzNDEx",
            "organizations_url": "https://api.github.com/users/PrismarineJS/orgs",
            "received_events_url": "https://api.github.com/users/PrismarineJS/received_events",
            "repos_url": "https://api.github.com/users/PrismarineJS/repos",
            "site_admin": false,
            "starred_url": "https://api.github.com/users/PrismarineJS/starred{/owner}{/repo}",
            "subscriptions_url": "https://api.github.com/users/PrismarineJS/subscriptions",
            "type": "Organization",
            "url": "https://api.github.com/users/PrismarineJS"
        }
    },
    "body": "Triggered on behalf of rom1504 in <a href=\"https://github.com/PrismarineJS/prismarine-entity/pull/69#issuecomment-1693895391\">this comment</a>.\n\n<em>Note: Changes to the PR maybe needed to remove commits unrelated to library usage.</em>\n<hr/>🤖 I'm a bot. You can rename this PR or run <code>/makerelease [version]</code> again to change the version.",
    "changed_files": 2,
    "closed_at": "2023-08-25T20:30:50Z",
    "comment_data": [],
    "comment_regular_data": [],
    "comments": 0,
    "comments_url": "https://api.github.com/repos/PrismarineJS/prismarine-entity/issues/70/comments",
    "commit_data": [
        {
            "author": {
                "avatar_url": "https://avatars.githubusercontent.com/in/15368?v=4",
                "events_url": "https://api.github.com/users/github-actions%5Bbot%5D/events{/privacy}",
                "followers_url": "https://api.github.com/users/github-actions%5Bbot%5D/followers",
                "following_url": "https://api.github.com/users/github-actions%5Bbot%5D/following{/other_user}",
                "gists_url": "https://api.github.com/users/github-actions%5Bbot%5D/gists{/gist_id}",
                "gravatar_id": "",
                "html_url": "https://github.com/apps/github-actions",
                "id": 41898282,
                "login": "github-actions[bot]",
                "node_id": "MDM6Qm90NDE4OTgyODI=",
                "organizations_url": "https://api.github.com/users/github-actions%5Bbot%5D/orgs",
                "received_events_url": "https://api.github.com/users/github-actions%5Bbot%5D/received_events",
                "repos_url": "https://api.github.com/users/github-actions%5Bbot%5D/repos",
                "site_admin": false,
                "starred_url": "https://api.github.com/users/github-actions%5Bbot%5D/starred{/owner}{/repo}",
                "subscriptions_url": "https://api.github.com/users/github-actions%5Bbot%5D/subscriptions",
                "type": "Bot",
                "url": "https://api.github.com/users/github-actions%5Bbot%5D"
            },
            "comments_url": "https://api.github.com/repos/PrismarineJS/prismarine-entity/commits/1d0e9015e4255f8a2f3189fab851db1dbcb64c87/comments",
            "commit": {
                "author": {
                    "date": "2023-08-25T20:29:58Z",
                    "email": "41898282+github-actions[bot]@users.noreply.github.com",
                    "name": "github-actions[bot]"
                },
                "comment_count": 0,
                "committer": {
                    "date": "2023-08-25T20:29:58Z",
                    "email": "41898282+github-actions[bot]@users.noreply.github.com",
                    "name": "github-actions[bot]"
                },
                "message": "Release 2.3.0",
                "tree": {
                    "sha": "3de72ea0f97dd58e10fea795cfcb2eb561332753",
                    "url": "https://api.github.com/repos/PrismarineJS/prismarine-entity/git/trees/3de72ea0f97dd58e10fea795cfcb2eb561332753"
                },
                "url": "https://api.github.com/repos/PrismarineJS/prismarine-entity/git/commits/1d0e9015e4255f8a2f3189fab851db1dbcb64c87",
                "verification": {
                    "payload": null,
                    "reason": "unsigned",
                    "signature": null,
                    "verified": false
                }
            },
            "committer": {
                "avatar_url": "https://avatars.githubusercontent.com/in/15368?v=4",
                "events_url": "https://api.github.com/users/github-actions%5Bbot%5D/events{/privacy}",
                "followers_url": "https://api.github.com/users/github-actions%5Bbot%5D/followers",
                "following_url": "https://api.github.com/users/github-actions%5Bbot%5D/following{/other_user}",
                "gists_url": "https://api.github.com/users/github-actions%5Bbot%5D/gists{/gist_id}",
                "gravatar_id": "",
                "html_url": "https://github.com/apps/github-actions",
                "id": 41898282,
                "login": "github-actions[bot]",
                "node_id": "MDM6Qm90NDE4OTgyODI=",
                "organizations_url": "https://api.github.com/users/github-actions%5Bbot%5D/orgs",
                "received_events_url": "https://api.github.com/users/github-actions%5Bbot%5D/received_events",
                "repos_url": "https://api.github.com/users/github-actions%5Bbot%5D/repos",
                "site_admin": false,
                "starred_url": "https://api.github.com/users/github-actions%5Bbot%5D/starred{/owner}{/repo}",
                "subscriptions_url": "https://api.github.com/users/github-actions%5Bbot%5D/subscriptions",
                "type": "Bot",
                "url": "https://api.github.com/users/github-actions%5Bbot%5D"
            },
            "html_url": "https://github.com/PrismarineJS/prismarine-entity/commit/1d0e9015e4255f8a2f3189fab851db1dbcb64c87",
            "node_id": "C_kwDOAntb9doAKDFkMGU5MDE1ZTQyNTVmOGEyZjMxODlmYWI4NTFkYjFkYmNiNjRjODc",
            "parents": [
                {
                    "html_url": "https://github.com/PrismarineJS/prismarine-entity/commit/f124abd47b42a908a676b91b0fcb55b1fd1a77b9",
                    "sha": "f124abd47b42a908a676b91b0fcb55b1fd1a77b9",
                    "url": "https://api.github.com/repos/PrismarineJS/prismarine-entity/commits/f124abd47b42a908a676b91b0fcb55b1fd1a77b9"
                }
            ],
            "sha": "1d0e9015e4255f8a2f3189fab851db1dbcb64c87",
            "url": "https://api.github.com/repos/PrismarineJS/prismarine-entity/commits/1d0e9015e4255f8a2f3189fab851db1dbcb64c87"
        }
    ],
    "commits": 1,
    "commits_url": "https://api.github.com/repos/PrismarineJS/prismarine-entity/pulls/70/commits",
    "created_at": "2023-08-25T20:29:59Z",
    "deletions": 1,
    "diff_url": "https://github.com/PrismarineJS/prismarine-entity/pull/70.diff",
    "draft": false,
    "head": {
        "label": "PrismarineJS:rel-actions-bot",
        "ref": "rel-actions-bot",
        "repo": {
            "allow_forking": true,
            "archive_url": "https://api.github.com/repos/PrismarineJS/prismarine-entity/{archive_format}{/ref}",
            "archived": false,
            "assignees_url": "https://api.github.com/repos/PrismarineJS/prismarine-entity/assignees{/user}",
            "blobs_url": "https://api.github.com/repos/PrismarineJS/prismarine-entity/git/blobs{/sha}",
            "branches_url": "https://api.github.com/repos/PrismarineJS/prismarine-entity/branches{/branch}",
            "clone_url": "https://github.com/PrismarineJS/prismarine-entity.git",
            "collaborators_url": "https://api.github.com/repos/PrismarineJS/prismarine-entity/collaborators{/collaborator}",
            "comments_url": "https://api.github.com/repos/PrismarineJS/prismarine-entity/comments{/number}",
            "commits_url": "https://api.github.com/repos/PrismarineJS/prismarine-entity/commits{/sha}",
            "compare_url": "https://api.github.com/repos/PrismarineJS/prismarine-entity/compare/{base}...{head}",
            "contents_url": "https://api.github.com/repos/PrismarineJS/prismarine-entity/contents/{+path}",
            "contributors_url": "https://api.github.com/repos/PrismarineJS/prismarine-entity/contributors",
            "created_at": "2015-08-30T18:35:47Z",
            "default_branch": "master",
            "deployments_url": "https://api.github.com/repos/PrismarineJS/prismarine-entity/deployments",
            "description": "Represent a minecraft entity",
            "disabled": false,
            "downloads_url": "https://api.github.com/repos/PrismarineJS/prismarine-entity/downloads",
            "events_url": "https://api.github.com/repos/PrismarineJS/prismarine-entity/events",
            "fork": false,
            "forks": 17,
            "forks_count": 17,
            "forks_url": "https://api.github.com/repos/PrismarineJS/prismarine-entity/forks",
            "full_name": "PrismarineJS/prismarine-entity",
            "git_commits_url": "https://api.github.com/repos/PrismarineJS/prismarine-entity/git/commits{/sha}",
            "git_refs_url": "https://api.github.com/repos/PrismarineJS/prismarine-entity/git/refs{/sha}",
            "git_tags_url": "https://api.github.com/repos/PrismarineJS/prismarine-entity/git/tags{/sha}",
            "git_url": "git://github.com/PrismarineJS/prismarine-entity.git",
            "has_discussions": false,
            "has_downloads": true,
            "has_issues": true,
            "has_pages": false,
            "has_projects": true,
            "has_wiki": true,
            "homepage": null,
            "hooks_url": "https://api.github.com/repos/PrismarineJS/prismarine-entity/hooks",
            "html_url": "https://github.com/PrismarineJS/prismarine-entity",
            "id": 41638901,
            "is_template": false,
            "issue_comment_url": "https://api.github.com/repos/PrismarineJS/prismarine-entity/issues/comments{/number}",
            "issue_events_url": "https://api.github.com/repos/PrismarineJS/prismarine-entity/issues/events{/number}",
            "issues_url": "https://api.github.com/repos/PrismarineJS/prismarine-entity/issues{/number}",
            "keys_url": "https://api.github.com/repos/PrismarineJS/prismarine-entity/keys{/key_id}",
            "labels_url": "https://api.github.com/repos/PrismarineJS/prismarine-entity/labels{/name}",
            "language": "JavaScript",
            "languages_url": "https://api.github.com/repos/PrismarineJS/prismarine-entity/languages",
            "license": null,
            "merges_url": "https://api.github.com/repos/PrismarineJS/prismarine-entity/merges",
            "milestones_url": "https://api.github.com/repos/PrismarineJS/prismarine-entity/milestones{/number}",
            "mirror_url": null,
            "name": "prismarine-entity",
            "node_id": "MDEwOlJlcG9zaXRvcnk0MTYzODkwMQ==",
            "notifications_url": "https://api.github.com/repos/PrismarineJS/prismarine-entity/notifications{?since,all,participating}",
            "open_issues": 8,
            "open_issues_count": 8,
            "owner": {
                "avatar_url": "https://avatars.githubusercontent.com/u/11053411?v=4",
                "events_url": "https://api.github.com/users/PrismarineJS/events{/privacy}",
                "followers_url": "https://api.github.com/users/PrismarineJS/followers",
                "following_url": "https://api.github.com/users/PrismarineJS/following{/other_user}",
                "gists_url": "https://api.github.com/users/PrismarineJS/gists{/gist_id}",
                "gravatar_id": "",
                "html_url": "https://github.com/PrismarineJS",
                "id": 11053411,
                "login": "PrismarineJS",
                "node_id": "MDEyOk9yZ2FuaXphdGlvbjExMDUzNDEx",
                "organizations_url": "https://api.github.com/users/PrismarineJS/orgs",
                "received_events_url": "https://api.github.com/users/PrismarineJS/received_events",
                "repos_url": "https://api.github.com/users/PrismarineJS/repos",
                "site_admin": false,
                "starred_url": "https://api.github.com/users/PrismarineJS/starred{/owner}{/repo}",
                "subscriptions_url": "https://api.github.com/users/PrismarineJS/subscriptions",
                "type": "Organization",
                "url": "https://api.github.com/users/PrismarineJS"
            },
            "private": false,
            "pulls_url": "https://api.github.com/repos/PrismarineJS/prismarine-entity/pulls{/number}",
            "pushed_at": "2023-11-01T13:50:02Z",
            "releases_url": "https://api.github.com/repos/PrismarineJS/prismarine-entity/releases{/id}",
            "size": 48,
            "ssh_url": "git@github.com:PrismarineJS/prismarine-entity.git",
            "stargazers_count": 20,
            "stargazers_url": "https://api.github.com/repos/PrismarineJS/prismarine-entity/stargazers",
            "statuses_url": "https://api.github.com/repos/PrismarineJS/prismarine-entity/statuses/{sha}",
            "subscribers_url": "https://api.github.com/repos/PrismarineJS/prismarine-entity/subscribers",
            "subscription_url": "https://api.github.com/repos/PrismarineJS/prismarine-entity/subscription",
            "svn_url": "https://github.com/PrismarineJS/prismarine-entity",
            "tags_url": "https://api.github.com/repos/PrismarineJS/prismarine-entity/tags",
            "teams_url": "https://api.github.com/repos/PrismarineJS/prismarine-entity/teams",
            "topics": [],
            "trees_url": "https://api.github.com/repos/PrismarineJS/prismarine-entity/git/trees{/sha}",
            "updated_at": "2023-10-22T21:17:51Z",
            "url": "https://api.github.com/repos/PrismarineJS/prismarine-entity",
            "visibility": "public",
            "watchers": 20,
            "watchers_count": 20,
            "web_commit_signoff_required": false
        },
        "sha": "1d0e9015e4255f8a2f3189fab851db1dbcb64c87",
        "user": {
            "avatar_url": "https://avatars.githubusercontent.com/u/11053411?v=4",
            "events_url": "https://api.github.com/users/PrismarineJS/events{/privacy}",
            "followers_url": "https://api.github.com/users/PrismarineJS/followers",
            "following_url": "https://api.github.com/users/PrismarineJS/following{/other_user}",
            "gists_url": "https://api.github.com/users/PrismarineJS/gists{/gist_id}",
            "gravatar_id": "",
            "html_url": "https://github.com/PrismarineJS",
            "id": 11053411,
            "login": "PrismarineJS",
            "node_id": "MDEyOk9yZ2FuaXphdGlvbjExMDUzNDEx",
            "organizations_url": "https://api.github.com/users/PrismarineJS/orgs",
            "received_events_url": "https://api.github.com/users/PrismarineJS/received_events",
            "repos_url": "https://api.github.com/users/PrismarineJS/repos",
            "site_admin": false,
            "starred_url": "https://api.github.com/users/PrismarineJS/starred{/owner}{/repo}",
            "subscriptions_url": "https://api.github.com/users/PrismarineJS/subscriptions",
            "type": "Organization",
            "url": "https://api.github.com/users/PrismarineJS"
        }
    },
    "html_url": "https://github.com/PrismarineJS/prismarine-entity/pull/70",
    "id": 1490272198,
    "issue_url": "https://api.github.com/repos/PrismarineJS/prismarine-entity/issues/70",
    "labels": [],
    "locked": false,
    "maintainer_can_modify": false,
    "merge_commit_sha": "b695c8733fa526ecedc8c125cd39d21a09818d23",
    "mergeable": null,
    "mergeable_state": "unknown",
    "merged": true,
    "merged_at": "2023-08-25T20:30:50Z",
    "merged_by": {
        "avatar_url": "https://avatars.githubusercontent.com/u/2346494?v=4",
        "events_url": "https://api.github.com/users/rom1504/events{/privacy}",
        "followers_url": "https://api.github.com/users/rom1504/followers",
        "following_url": "https://api.github.com/users/rom1504/following{/other_user}",
        "gists_url": "https://api.github.com/users/rom1504/gists{/gist_id}",
        "gravatar_id": "",
        "html_url": "https://github.com/rom1504",
        "id": 2346494,
        "login": "rom1504",
        "node_id": "MDQ6VXNlcjIzNDY0OTQ=",
        "organizations_url": "https://api.github.com/users/rom1504/orgs",
        "received_events_url": "https://api.github.com/users/rom1504/received_events",
        "repos_url": "https://api.github.com/users/rom1504/repos",
        "site_admin": false,
        "starred_url": "https://api.github.com/users/rom1504/starred{/owner}{/repo}",
        "subscriptions_url": "https://api.github.com/users/rom1504/subscriptions",
        "type": "User",
        "url": "https://api.github.com/users/rom1504"
    },
    "milestone": null,
    "node_id": "PR_kwDOAntb9c5Y07_G",
    "number": 70,
    "patch_url": "https://github.com/PrismarineJS/prismarine-entity/pull/70.patch",
    "rebaseable": null,
    "requested_reviewers": [],
    "requested_teams": [],
    "review_comment_url": "https://api.github.com/repos/PrismarineJS/prismarine-entity/pulls/comments{/number}",
    "review_comments": 0,
    "review_comments_url": "https://api.github.com/repos/PrismarineJS/prismarine-entity/pulls/70/comments",
    "state": "closed",
    "statuses_url": "https://api.github.com/repos/PrismarineJS/prismarine-entity/statuses/1d0e9015e4255f8a2f3189fab851db1dbcb64c87",
    "title": "Release 2.3.0",
    "updated_at": "2023-08-25T20:30:51Z",
    "url": "https://api.github.com/repos/PrismarineJS/prismarine-entity/pulls/70",
    "user": {
        "avatar_url": "https://avatars.githubusercontent.com/u/15970751?v=4",
        "events_url": "https://api.github.com/users/rom1504bot/events{/privacy}",
        "followers_url": "https://api.github.com/users/rom1504bot/followers",
        "following_url": "https://api.github.com/users/rom1504bot/following{/other_user}",
        "gists_url": "https://api.github.com/users/rom1504bot/gists{/gist_id}",
        "gravatar_id": "",
        "html_url": "https://github.com/rom1504bot",
        "id": 15970751,
        "login": "rom1504bot",
        "node_id": "MDQ6VXNlcjE1OTcwNzUx",
        "organizations_url": "https://api.github.com/users/rom1504bot/orgs",
        "received_events_url": "https://api.github.com/users/rom1504bot/received_events",
        "repos_url": "https://api.github.com/users/rom1504bot/repos",
        "site_admin": false,
        "starred_url": "https://api.github.com/users/rom1504bot/starred{/owner}{/repo}",
        "subscriptions_url": "https://api.github.com/users/rom1504bot/subscriptions",
        "type": "User",
        "url": "https://api.github.com/users/rom1504bot"
    }
}