{
    "active_lock_reason": null,
    "assignee": null,
    "assignees": [],
    "author_association": "NONE",
    "body": "Getting this error every time I try to authenicate until cloudflare protection kicks in and blocks me.\r\nTried with `yggdrasil@1.0.0`, `1.3.0`, `1.4.0`. All have the same issue. This does not happen in `mineflayer`. I don't know what triggers it but sometimes it starts happening in `mineflayer` too.\r\n```js\r\nygg.auth({ username: u.username, password: u.password }, console.log);\r\n```",
    "closed_at": null,
    "comment_data": [],
    "comments": 0,
    "comments_url": "https://api.github.com/repos/PrismarineJS/node-yggdrasil/issues/56/comments",
    "created_at": "2021-01-24T12:53:18Z",
    "event_data": [],
    "events_url": "https://api.github.com/repos/PrismarineJS/node-yggdrasil/issues/56/events",
    "html_url": "https://github.com/PrismarineJS/node-yggdrasil/issues/56",
    "id": 792789810,
    "labels": [],
    "labels_url": "https://api.github.com/repos/PrismarineJS/node-yggdrasil/issues/56/labels{/name}",
    "locked": false,
    "milestone": null,
    "node_id": "MDU6SXNzdWU3OTI3ODk4MTA=",
    "number": 56,
    "performed_via_github_app": null,
    "reactions": {
        "+1": 0,
        "-1": 0,
        "confused": 0,
        "eyes": 0,
        "heart": 0,
        "hooray": 0,
        "laugh": 0,
        "rocket": 0,
        "total_count": 0,
        "url": "https://api.github.com/repos/PrismarineJS/node-yggdrasil/issues/56/reactions"
    },
    "repository_url": "https://api.github.com/repos/PrismarineJS/node-yggdrasil",
    "state": "open",
    "state_reason": null,
    "timeline_url": "https://api.github.com/repos/PrismarineJS/node-yggdrasil/issues/56/timeline",
    "title": "Error: Forbidden",
    "updated_at": "2021-01-24T12:53:18Z",
    "url": "https://api.github.com/repos/PrismarineJS/node-yggdrasil/issues/56",
    "user": {
        "avatar_url": "https://avatars.githubusercontent.com/u/57134217?v=4",
        "events_url": "https://api.github.com/users/uAliFurkanY/events{/privacy}",
        "followers_url": "https://api.github.com/users/uAliFurkanY/followers",
        "following_url": "https://api.github.com/users/uAliFurkanY/following{/other_user}",
        "gists_url": "https://api.github.com/users/uAliFurkanY/gists{/gist_id}",
        "gravatar_id": "",
        "html_url": "https://github.com/uAliFurkanY",
        "id": 57134217,
        "login": "uAliFurkanY",
        "node_id": "MDQ6VXNlcjU3MTM0MjE3",
        "organizations_url": "https://api.github.com/users/uAliFurkanY/orgs",
        "received_events_url": "https://api.github.com/users/uAliFurkanY/received_events",
        "repos_url": "https://api.github.com/users/uAliFurkanY/repos",
        "site_admin": false,
        "starred_url": "https://api.github.com/users/uAliFurkanY/starred{/owner}{/repo}",
        "subscriptions_url": "https://api.github.com/users/uAliFurkanY/subscriptions",
        "type": "User",
        "url": "https://api.github.com/users/uAliFurkanY"
    }
}