{
    "comments": 0,
    "comments_enabled": true,
    "comments_url": "https://api.github.com/gists/e8422538a4eefcc99aa92d91b147be12/comments",
    "commits_url": "https://api.github.com/gists/e8422538a4eefcc99aa92d91b147be12/commits",
    "created_at": "2021-10-29T21:19:00Z",
    "description": null,
    "files": {
        "App.js": {
            "filename": "App.js",
            "language": "JavaScript",
            "raw_url": "https://gist.githubusercontent.com/dorianmariecom/e8422538a4eefcc99aa92d91b147be12/raw/deee5f34099dc72ebee57473f6326e2cebbaa46e/App.js",
            "size": 5043,
            "type": "text/javascript"
        }
    },
    "forks_url": "https://api.github.com/gists/e8422538a4eefcc99aa92d91b147be12/forks",
    "git_pull_url": "https://gist.github.com/e8422538a4eefcc99aa92d91b147be12.git",
    "git_push_url": "https://gist.github.com/e8422538a4eefcc99aa92d91b147be12.git",
    "html_url": "https://gist.github.com/dorianmariecom/e8422538a4eefcc99aa92d91b147be12",
    "id": "e8422538a4eefcc99aa92d91b147be12",
    "is_gist": true,
    "is_starred": true,
    "node_id": "G_kwDOA4Eh99oAIGU4NDIyNTM4YTRlZWZjYzk5YWE5MmQ5MWIxNDdiZTEy",
    "owner": {
        "avatar_url": "https://avatars.githubusercontent.com/u/58794487?v=4",
        "events_url": "https://api.github.com/users/dorianmariecom/events{/privacy}",
        "followers_url": "https://api.github.com/users/dorianmariecom/followers",
        "following_url": "https://api.github.com/users/dorianmariecom/following{/other_user}",
        "gists_url": "https://api.github.com/users/dorianmariecom/gists{/gist_id}",
        "gravatar_id": "",
        "html_url": "https://github.com/dorianmariecom",
        "id": 58794487,
        "login": "dorianmariecom",
        "node_id": "MDQ6VXNlcjU4Nzk0NDg3",
        "organizations_url": "https://api.github.com/users/dorianmariecom/orgs",
        "received_events_url": "https://api.github.com/users/dorianmariecom/received_events",
        "repos_url": "https://api.github.com/users/dorianmariecom/repos",
        "site_admin": false,
        "starred_url": "https://api.github.com/users/dorianmariecom/starred{/owner}{/repo}",
        "subscriptions_url": "https://api.github.com/users/dorianmariecom/subscriptions",
        "type": "User",
        "url": "https://api.github.com/users/dorianmariecom",
        "user_view_type": "public"
    },
    "public": true,
    "truncated": false,
    "updated_at": "2022-12-15T03:30:34Z",
    "url": "https://api.github.com/gists/e8422538a4eefcc99aa92d91b147be12",
    "user": null
}