{
    "_links": {
        "comments": {
            "href": "https://api.github.com/repos/PrismarineJS/mineflayer-tool/issues/42/comments"
        },
        "commits": {
            "href": "https://api.github.com/repos/PrismarineJS/mineflayer-tool/pulls/42/commits"
        },
        "html": {
            "href": "https://github.com/PrismarineJS/mineflayer-tool/pull/42"
        },
        "issue": {
            "href": "https://api.github.com/repos/PrismarineJS/mineflayer-tool/issues/42"
        },
        "review_comment": {
            "href": "https://api.github.com/repos/PrismarineJS/mineflayer-tool/pulls/comments{/number}"
        },
        "review_comments": {
            "href": "https://api.github.com/repos/PrismarineJS/mineflayer-tool/pulls/42/comments"
        },
        "self": {
            "href": "https://api.github.com/repos/PrismarineJS/mineflayer-tool/pulls/42"
        },
        "statuses": {
            "href": "https://api.github.com/repos/PrismarineJS/mineflayer-tool/statuses/81a5ce1a0c5d027666460d9f6680dac4cce831ee"
        }
    },
    "active_lock_reason": null,
    "additions": 1,
    "assignee": null,
    "assignees": [],
    "author_association": "MEMBER",
    "auto_merge": null,
    "base": {
        "label": "PrismarineJS:master",
        "ref": "master",
        "repo": {
            "allow_forking": true,
            "archive_url": "https://api.github.com/repos/PrismarineJS/mineflayer-tool/{archive_format}{/ref}",
            "archived": false,
            "assignees_url": "https://api.github.com/repos/PrismarineJS/mineflayer-tool/assignees{/user}",
            "blobs_url": "https://api.github.com/repos/PrismarineJS/mineflayer-tool/git/blobs{/sha}",
            "branches_url": "https://api.github.com/repos/PrismarineJS/mineflayer-tool/branches{/branch}",
            "clone_url": "https://github.com/PrismarineJS/mineflayer-tool.git",
            "collaborators_url": "https://api.github.com/repos/PrismarineJS/mineflayer-tool/collaborators{/collaborator}",
            "comments_url": "https://api.github.com/repos/PrismarineJS/mineflayer-tool/comments{/number}",
            "commits_url": "https://api.github.com/repos/PrismarineJS/mineflayer-tool/commits{/sha}",
            "compare_url": "https://api.github.com/repos/PrismarineJS/mineflayer-tool/compare/{base}...{head}",
            "contents_url": "https://api.github.com/repos/PrismarineJS/mineflayer-tool/contents/{+path}",
            "contributors_url": "https://api.github.com/repos/PrismarineJS/mineflayer-tool/contributors",
            "created_at": "2020-10-29T07:49:24Z",
            "default_branch": "master",
            "deployments_url": "https://api.github.com/repos/PrismarineJS/mineflayer-tool/deployments",
            "description": "A tool/weapon selection Mineflayer plugin for automatically selecting the best tool to use for a specific task.",
            "disabled": false,
            "downloads_url": "https://api.github.com/repos/PrismarineJS/mineflayer-tool/downloads",
            "events_url": "https://api.github.com/repos/PrismarineJS/mineflayer-tool/events",
            "fork": false,
            "forks": 8,
            "forks_count": 8,
            "forks_url": "https://api.github.com/repos/PrismarineJS/mineflayer-tool/forks",
            "full_name": "PrismarineJS/mineflayer-tool",
            "git_commits_url": "https://api.github.com/repos/PrismarineJS/mineflayer-tool/git/commits{/sha}",
            "git_refs_url": "https://api.github.com/repos/PrismarineJS/mineflayer-tool/git/refs{/sha}",
            "git_tags_url": "https://api.github.com/repos/PrismarineJS/mineflayer-tool/git/tags{/sha}",
            "git_url": "git://github.com/PrismarineJS/mineflayer-tool.git",
            "has_discussions": false,
            "has_downloads": true,
            "has_issues": true,
            "has_pages": false,
            "has_projects": true,
            "has_wiki": true,
            "homepage": null,
            "hooks_url": "https://api.github.com/repos/PrismarineJS/mineflayer-tool/hooks",
            "html_url": "https://github.com/PrismarineJS/mineflayer-tool",
            "id": 308254698,
            "is_template": false,
            "issue_comment_url": "https://api.github.com/repos/PrismarineJS/mineflayer-tool/issues/comments{/number}",
            "issue_events_url": "https://api.github.com/repos/PrismarineJS/mineflayer-tool/issues/events{/number}",
            "issues_url": "https://api.github.com/repos/PrismarineJS/mineflayer-tool/issues{/number}",
            "keys_url": "https://api.github.com/repos/PrismarineJS/mineflayer-tool/keys{/key_id}",
            "labels_url": "https://api.github.com/repos/PrismarineJS/mineflayer-tool/labels{/name}",
            "language": "TypeScript",
            "languages_url": "https://api.github.com/repos/PrismarineJS/mineflayer-tool/languages",
            "license": {
                "key": "mit",
                "name": "MIT License",
                "node_id": "MDc6TGljZW5zZTEz",
                "spdx_id": "MIT",
                "url": "https://api.github.com/licenses/mit"
            },
            "merges_url": "https://api.github.com/repos/PrismarineJS/mineflayer-tool/merges",
            "milestones_url": "https://api.github.com/repos/PrismarineJS/mineflayer-tool/milestones{/number}",
            "mirror_url": null,
            "name": "mineflayer-tool",
            "node_id": "MDEwOlJlcG9zaXRvcnkzMDgyNTQ2OTg=",
            "notifications_url": "https://api.github.com/repos/PrismarineJS/mineflayer-tool/notifications{?since,all,participating}",
            "open_issues": 8,
            "open_issues_count": 8,
            "owner": {
                "avatar_url": "https://avatars.githubusercontent.com/u/11053411?v=4",
                "events_url": "https://api.github.com/users/PrismarineJS/events{/privacy}",
                "followers_url": "https://api.github.com/users/PrismarineJS/followers",
                "following_url": "https://api.github.com/users/PrismarineJS/following{/other_user}",
                "gists_url": "https://api.github.com/users/PrismarineJS/gists{/gist_id}",
                "gravatar_id": "",
                "html_url": "https://github.com/PrismarineJS",
                "id": 11053411,
                "login": "PrismarineJS",
                "node_id": "MDEyOk9yZ2FuaXphdGlvbjExMDUzNDEx",
                "organizations_url": "https://api.github.com/users/PrismarineJS/orgs",
                "received_events_url": "https://api.github.com/users/PrismarineJS/received_events",
                "repos_url": "https://api.github.com/users/PrismarineJS/repos",
                "site_admin": false,
                "starred_url": "https://api.github.com/users/PrismarineJS/starred{/owner}{/repo}",
                "subscriptions_url": "https://api.github.com/users/PrismarineJS/subscriptions",
                "type": "Organization",
                "url": "https://api.github.com/users/PrismarineJS"
            },
            "private": false,
            "pulls_url": "https://api.github.com/repos/PrismarineJS/mineflayer-tool/pulls{/number}",
            "pushed_at": "2023-04-07T20:57:59Z",
            "releases_url": "https://api.github.com/repos/PrismarineJS/mineflayer-tool/releases{/id}",
            "size": 48,
            "ssh_url": "git@github.com:PrismarineJS/mineflayer-tool.git",
            "stargazers_count": 14,
            "stargazers_url": "https://api.github.com/repos/PrismarineJS/mineflayer-tool/stargazers",
            "statuses_url": "https://api.github.com/repos/PrismarineJS/mineflayer-tool/statuses/{sha}",
            "subscribers_url": "https://api.github.com/repos/PrismarineJS/mineflayer-tool/subscribers",
            "subscription_url": "https://api.github.com/repos/PrismarineJS/mineflayer-tool/subscription",
            "svn_url": "https://github.com/PrismarineJS/mineflayer-tool",
            "tags_url": "https://api.github.com/repos/PrismarineJS/mineflayer-tool/tags",
            "teams_url": "https://api.github.com/repos/PrismarineJS/mineflayer-tool/teams",
            "topics": [],
            "trees_url": "https://api.github.com/repos/PrismarineJS/mineflayer-tool/git/trees{/sha}",
            "updated_at": "2022-06-18T18:04:00Z",
            "url": "https://api.github.com/repos/PrismarineJS/mineflayer-tool",
            "visibility": "public",
            "watchers": 14,
            "watchers_count": 14,
            "web_commit_signoff_required": false
        },
        "sha": "f955661f99db0c835326499c03e8821f5bba4398",
        "user": {
            "avatar_url": "https://avatars.githubusercontent.com/u/11053411?v=4",
            "events_url": "https://api.github.com/users/PrismarineJS/events{/privacy}",
            "followers_url": "https://api.github.com/users/PrismarineJS/followers",
            "following_url": "https://api.github.com/users/PrismarineJS/following{/other_user}",
            "gists_url": "https://api.github.com/users/PrismarineJS/gists{/gist_id}",
            "gravatar_id": "",
            "html_url": "https://github.com/PrismarineJS",
            "id": 11053411,
            "login": "PrismarineJS",
            "node_id": "MDEyOk9yZ2FuaXphdGlvbjExMDUzNDEx",
            "organizations_url": "https://api.github.com/users/PrismarineJS/orgs",
            "received_events_url": "https://api.github.com/users/PrismarineJS/received_events",
            "repos_url": "https://api.github.com/users/PrismarineJS/repos",
            "site_admin": false,
            "starred_url": "https://api.github.com/users/PrismarineJS/starred{/owner}{/repo}",
            "subscriptions_url": "https://api.github.com/users/PrismarineJS/subscriptions",
            "type": "Organization",
            "url": "https://api.github.com/users/PrismarineJS"
        }
    },
    "body": null,
    "changed_files": 1,
    "closed_at": "2022-05-11T10:55:10Z",
    "comment_data": [],
    "comment_regular_data": [],
    "comments": 0,
    "comments_url": "https://api.github.com/repos/PrismarineJS/mineflayer-tool/issues/42/comments",
    "commit_data": [
        {
            "author": {
                "avatar_url": "https://avatars.githubusercontent.com/u/3118172?v=4",
                "events_url": "https://api.github.com/users/TheDudeFromCI/events{/privacy}",
                "followers_url": "https://api.github.com/users/TheDudeFromCI/followers",
                "following_url": "https://api.github.com/users/TheDudeFromCI/following{/other_user}",
                "gists_url": "https://api.github.com/users/TheDudeFromCI/gists{/gist_id}",
                "gravatar_id": "",
                "html_url": "https://github.com/TheDudeFromCI",
                "id": 3118172,
                "login": "TheDudeFromCI",
                "node_id": "MDQ6VXNlcjMxMTgxNzI=",
                "organizations_url": "https://api.github.com/users/TheDudeFromCI/orgs",
                "received_events_url": "https://api.github.com/users/TheDudeFromCI/received_events",
                "repos_url": "https://api.github.com/users/TheDudeFromCI/repos",
                "site_admin": false,
                "starred_url": "https://api.github.com/users/TheDudeFromCI/starred{/owner}{/repo}",
                "subscriptions_url": "https://api.github.com/users/TheDudeFromCI/subscriptions",
                "type": "User",
                "url": "https://api.github.com/users/TheDudeFromCI"
            },
            "comments_url": "https://api.github.com/repos/PrismarineJS/mineflayer-tool/commits/81a5ce1a0c5d027666460d9f6680dac4cce831ee/comments",
            "commit": {
                "author": {
                    "date": "2022-05-11T10:52:29Z",
                    "email": "thedudefromci@gmail.com",
                    "name": "TheDudeFromCI"
                },
                "comment_count": 0,
                "committer": {
                    "date": "2022-05-11T10:52:29Z",
                    "email": "noreply@github.com",
                    "name": "GitHub"
                },
                "message": "Updated to pathfinder 2.1.1",
                "tree": {
                    "sha": "f70913e361723db8f4225669fbe38a4111507043",
                    "url": "https://api.github.com/repos/PrismarineJS/mineflayer-tool/git/trees/f70913e361723db8f4225669fbe38a4111507043"
                },
                "url": "https://api.github.com/repos/PrismarineJS/mineflayer-tool/git/commits/81a5ce1a0c5d027666460d9f6680dac4cce831ee",
                "verification": {
                    "payload": "tree f70913e361723db8f4225669fbe38a4111507043\nparent f955661f99db0c835326499c03e8821f5bba4398\nauthor TheDudeFromCI <thedudefromci@gmail.com> 1652266349 -0700\ncommitter GitHub <noreply@github.com> 1652266349 -0700\n\nUpdated to pathfinder 2.1.1",
                    "reason": "valid",
                    "signature": "-----BEGIN PGP SIGNATURE-----\n\nwsBcBAABCAAQBQJie5VtCRBK7hj4Ov3rIwAA1fEIAAgCGjHs8Jcn5xqGg3UfKqHO\n/dbbXuG1PcLdjfQxiAxJIVX9yOTtmySx6Ap+dwQhcLS9/GMa2AGw4+XVpdjQzKXk\nrIji9nZcPvzXqHzjoGHU9s4b++w/NKiCa8bVKRZSXRz7qO+XlxoD3IAKchtl1z4a\nOdcxknEiHpotsrZYi2D/JzVVaQl19zRwtAmvUXC3NSwxvaTTNcsBd70e3aoHptaa\nTRrNLH47evTdklR0E6Avm/GtT4X3WUCqxENnfDtDhaybL8W4vfYB+9ncMSG69+zX\nqBIayHUcdNGo9PWVbifKAlikTr2Szf4xUsBaOd/LVt09QFPBatB5mldRt7ZMaxY=\n=wFtw\n-----END PGP SIGNATURE-----\n",
                    "verified": true
                }
            },
            "committer": {
                "avatar_url": "https://avatars.githubusercontent.com/u/19864447?v=4",
                "events_url": "https://api.github.com/users/web-flow/events{/privacy}",
                "followers_url": "https://api.github.com/users/web-flow/followers",
                "following_url": "https://api.github.com/users/web-flow/following{/other_user}",
                "gists_url": "https://api.github.com/users/web-flow/gists{/gist_id}",
                "gravatar_id": "",
                "html_url": "https://github.com/web-flow",
                "id": 19864447,
                "login": "web-flow",
                "node_id": "MDQ6VXNlcjE5ODY0NDQ3",
                "organizations_url": "https://api.github.com/users/web-flow/orgs",
                "received_events_url": "https://api.github.com/users/web-flow/received_events",
                "repos_url": "https://api.github.com/users/web-flow/repos",
                "site_admin": false,
                "starred_url": "https://api.github.com/users/web-flow/starred{/owner}{/repo}",
                "subscriptions_url": "https://api.github.com/users/web-flow/subscriptions",
                "type": "User",
                "url": "https://api.github.com/users/web-flow"
            },
            "html_url": "https://github.com/PrismarineJS/mineflayer-tool/commit/81a5ce1a0c5d027666460d9f6680dac4cce831ee",
            "node_id": "C_kwDOEl-X6toAKDgxYTVjZTFhMGM1ZDAyNzY2NjQ2MGQ5ZjY2ODBkYWM0Y2NlODMxZWU",
            "parents": [
                {
                    "html_url": "https://github.com/PrismarineJS/mineflayer-tool/commit/f955661f99db0c835326499c03e8821f5bba4398",
                    "sha": "f955661f99db0c835326499c03e8821f5bba4398",
                    "url": "https://api.github.com/repos/PrismarineJS/mineflayer-tool/commits/f955661f99db0c835326499c03e8821f5bba4398"
                }
            ],
            "sha": "81a5ce1a0c5d027666460d9f6680dac4cce831ee",
            "url": "https://api.github.com/repos/PrismarineJS/mineflayer-tool/commits/81a5ce1a0c5d027666460d9f6680dac4cce831ee"
        }
    ],
    "commits": 1,
    "commits_url": "https://api.github.com/repos/PrismarineJS/mineflayer-tool/pulls/42/commits",
    "created_at": "2022-05-11T10:52:33Z",
    "deletions": 1,
    "diff_url": "https://github.com/PrismarineJS/mineflayer-tool/pull/42.diff",
    "draft": false,
    "head": {
        "label": "PrismarineJS:pathfinder-2.1",
        "ref": "pathfinder-2.1",
        "repo": {
            "allow_forking": true,
            "archive_url": "https://api.github.com/repos/PrismarineJS/mineflayer-tool/{archive_format}{/ref}",
            "archived": false,
            "assignees_url": "https://api.github.com/repos/PrismarineJS/mineflayer-tool/assignees{/user}",
            "blobs_url": "https://api.github.com/repos/PrismarineJS/mineflayer-tool/git/blobs{/sha}",
            "branches_url": "https://api.github.com/repos/PrismarineJS/mineflayer-tool/branches{/branch}",
            "clone_url": "https://github.com/PrismarineJS/mineflayer-tool.git",
            "collaborators_url": "https://api.github.com/repos/PrismarineJS/mineflayer-tool/collaborators{/collaborator}",
            "comments_url": "https://api.github.com/repos/PrismarineJS/mineflayer-tool/comments{/number}",
            "commits_url": "https://api.github.com/repos/PrismarineJS/mineflayer-tool/commits{/sha}",
            "compare_url": "https://api.github.com/repos/PrismarineJS/mineflayer-tool/compare/{base}...{head}",
            "contents_url": "https://api.github.com/repos/PrismarineJS/mineflayer-tool/contents/{+path}",
            "contributors_url": "https://api.github.com/repos/PrismarineJS/mineflayer-tool/contributors",
            "created_at": "2020-10-29T07:49:24Z",
            "default_branch": "master",
            "deployments_url": "https://api.github.com/repos/PrismarineJS/mineflayer-tool/deployments",
            "description": "A tool/weapon selection Mineflayer plugin for automatically selecting the best tool to use for a specific task.",
            "disabled": false,
            "downloads_url": "https://api.github.com/repos/PrismarineJS/mineflayer-tool/downloads",
            "events_url": "https://api.github.com/repos/PrismarineJS/mineflayer-tool/events",
            "fork": false,
            "forks": 8,
            "forks_count": 8,
            "forks_url": "https://api.github.com/repos/PrismarineJS/mineflayer-tool/forks",
            "full_name": "PrismarineJS/mineflayer-tool",
            "git_commits_url": "https://api.github.com/repos/PrismarineJS/mineflayer-tool/git/commits{/sha}",
            "git_refs_url": "https://api.github.com/repos/PrismarineJS/mineflayer-tool/git/refs{/sha}",
            "git_tags_url": "https://api.github.com/repos/PrismarineJS/mineflayer-tool/git/tags{/sha}",
            "git_url": "git://github.com/PrismarineJS/mineflayer-tool.git",
            "has_discussions": false,
            "has_downloads": true,
            "has_issues": true,
            "has_pages": false,
            "has_projects": true,
            "has_wiki": true,
            "homepage": null,
            "hooks_url": "https://api.github.com/repos/PrismarineJS/mineflayer-tool/hooks",
            "html_url": "https://github.com/PrismarineJS/mineflayer-tool",
            "id": 308254698,
            "is_template": false,
            "issue_comment_url": "https://api.github.com/repos/PrismarineJS/mineflayer-tool/issues/comments{/number}",
            "issue_events_url": "https://api.github.com/repos/PrismarineJS/mineflayer-tool/issues/events{/number}",
            "issues_url": "https://api.github.com/repos/PrismarineJS/mineflayer-tool/issues{/number}",
            "keys_url": "https://api.github.com/repos/PrismarineJS/mineflayer-tool/keys{/key_id}",
            "labels_url": "https://api.github.com/repos/PrismarineJS/mineflayer-tool/labels{/name}",
            "language": "TypeScript",
            "languages_url": "https://api.github.com/repos/PrismarineJS/mineflayer-tool/languages",
            "license": {
                "key": "mit",
                "name": "MIT License",
                "node_id": "MDc6TGljZW5zZTEz",
                "spdx_id": "MIT",
                "url": "https://api.github.com/licenses/mit"
            },
            "merges_url": "https://api.github.com/repos/PrismarineJS/mineflayer-tool/merges",
            "milestones_url": "https://api.github.com/repos/PrismarineJS/mineflayer-tool/milestones{/number}",
            "mirror_url": null,
            "name": "mineflayer-tool",
            "node_id": "MDEwOlJlcG9zaXRvcnkzMDgyNTQ2OTg=",
            "notifications_url": "https://api.github.com/repos/PrismarineJS/mineflayer-tool/notifications{?since,all,participating}",
            "open_issues": 8,
            "open_issues_count": 8,
            "owner": {
                "avatar_url": "https://avatars.githubusercontent.com/u/11053411?v=4",
                "events_url": "https://api.github.com/users/PrismarineJS/events{/privacy}",
                "followers_url": "https://api.github.com/users/PrismarineJS/followers",
                "following_url": "https://api.github.com/users/PrismarineJS/following{/other_user}",
                "gists_url": "https://api.github.com/users/PrismarineJS/gists{/gist_id}",
                "gravatar_id": "",
                "html_url": "https://github.com/PrismarineJS",
                "id": 11053411,
                "login": "PrismarineJS",
                "node_id": "MDEyOk9yZ2FuaXphdGlvbjExMDUzNDEx",
                "organizations_url": "https://api.github.com/users/PrismarineJS/orgs",
                "received_events_url": "https://api.github.com/users/PrismarineJS/received_events",
                "repos_url": "https://api.github.com/users/PrismarineJS/repos",
                "site_admin": false,
                "starred_url": "https://api.github.com/users/PrismarineJS/starred{/owner}{/repo}",
                "subscriptions_url": "https://api.github.com/users/PrismarineJS/subscriptions",
                "type": "Organization",
                "url": "https://api.github.com/users/PrismarineJS"
            },
            "private": false,
            "pulls_url": "https://api.github.com/repos/PrismarineJS/mineflayer-tool/pulls{/number}",
            "pushed_at": "2023-04-07T20:57:59Z",
            "releases_url": "https://api.github.com/repos/PrismarineJS/mineflayer-tool/releases{/id}",
            "size": 48,
            "ssh_url": "git@github.com:PrismarineJS/mineflayer-tool.git",
            "stargazers_count": 14,
            "stargazers_url": "https://api.github.com/repos/PrismarineJS/mineflayer-tool/stargazers",
            "statuses_url": "https://api.github.com/repos/PrismarineJS/mineflayer-tool/statuses/{sha}",
            "subscribers_url": "https://api.github.com/repos/PrismarineJS/mineflayer-tool/subscribers",
            "subscription_url": "https://api.github.com/repos/PrismarineJS/mineflayer-tool/subscription",
            "svn_url": "https://github.com/PrismarineJS/mineflayer-tool",
            "tags_url": "https://api.github.com/repos/PrismarineJS/mineflayer-tool/tags",
            "teams_url": "https://api.github.com/repos/PrismarineJS/mineflayer-tool/teams",
            "topics": [],
            "trees_url": "https://api.github.com/repos/PrismarineJS/mineflayer-tool/git/trees{/sha}",
            "updated_at": "2022-06-18T18:04:00Z",
            "url": "https://api.github.com/repos/PrismarineJS/mineflayer-tool",
            "visibility": "public",
            "watchers": 14,
            "watchers_count": 14,
            "web_commit_signoff_required": false
        },
        "sha": "81a5ce1a0c5d027666460d9f6680dac4cce831ee",
        "user": {
            "avatar_url": "https://avatars.githubusercontent.com/u/11053411?v=4",
            "events_url": "https://api.github.com/users/PrismarineJS/events{/privacy}",
            "followers_url": "https://api.github.com/users/PrismarineJS/followers",
            "following_url": "https://api.github.com/users/PrismarineJS/following{/other_user}",
            "gists_url": "https://api.github.com/users/PrismarineJS/gists{/gist_id}",
            "gravatar_id": "",
            "html_url": "https://github.com/PrismarineJS",
            "id": 11053411,
            "login": "PrismarineJS",
            "node_id": "MDEyOk9yZ2FuaXphdGlvbjExMDUzNDEx",
            "organizations_url": "https://api.github.com/users/PrismarineJS/orgs",
            "received_events_url": "https://api.github.com/users/PrismarineJS/received_events",
            "repos_url": "https://api.github.com/users/PrismarineJS/repos",
            "site_admin": false,
            "starred_url": "https://api.github.com/users/PrismarineJS/starred{/owner}{/repo}",
            "subscriptions_url": "https://api.github.com/users/PrismarineJS/subscriptions",
            "type": "Organization",
            "url": "https://api.github.com/users/PrismarineJS"
        }
    },
    "html_url": "https://github.com/PrismarineJS/mineflayer-tool/pull/42",
    "id": 933494470,
    "issue_url": "https://api.github.com/repos/PrismarineJS/mineflayer-tool/issues/42",
    "labels": [],
    "locked": false,
    "maintainer_can_modify": false,
    "merge_commit_sha": "f9351e0b540621f4919d170f0cd95e732c5e6eb3",
    "mergeable": null,
    "mergeable_state": "unknown",
    "merged": true,
    "merged_at": "2022-05-11T10:55:10Z",
    "merged_by": {
        "avatar_url": "https://avatars.githubusercontent.com/u/3118172?v=4",
        "events_url": "https://api.github.com/users/TheDudeFromCI/events{/privacy}",
        "followers_url": "https://api.github.com/users/TheDudeFromCI/followers",
        "following_url": "https://api.github.com/users/TheDudeFromCI/following{/other_user}",
        "gists_url": "https://api.github.com/users/TheDudeFromCI/gists{/gist_id}",
        "gravatar_id": "",
        "html_url": "https://github.com/TheDudeFromCI",
        "id": 3118172,
        "login": "TheDudeFromCI",
        "node_id": "MDQ6VXNlcjMxMTgxNzI=",
        "organizations_url": "https://api.github.com/users/TheDudeFromCI/orgs",
        "received_events_url": "https://api.github.com/users/TheDudeFromCI/received_events",
        "repos_url": "https://api.github.com/users/TheDudeFromCI/repos",
        "site_admin": false,
        "starred_url": "https://api.github.com/users/TheDudeFromCI/starred{/owner}{/repo}",
        "subscriptions_url": "https://api.github.com/users/TheDudeFromCI/subscriptions",
        "type": "User",
        "url": "https://api.github.com/users/TheDudeFromCI"
    },
    "milestone": null,
    "node_id": "PR_kwDOEl-X6s43o_7G",
    "number": 42,
    "patch_url": "https://github.com/PrismarineJS/mineflayer-tool/pull/42.patch",
    "rebaseable": null,
    "requested_reviewers": [],
    "requested_teams": [],
    "review_comment_url": "https://api.github.com/repos/PrismarineJS/mineflayer-tool/pulls/comments{/number}",
    "review_comments": 0,
    "review_comments_url": "https://api.github.com/repos/PrismarineJS/mineflayer-tool/pulls/42/comments",
    "state": "closed",
    "statuses_url": "https://api.github.com/repos/PrismarineJS/mineflayer-tool/statuses/81a5ce1a0c5d027666460d9f6680dac4cce831ee",
    "title": "Updated to pathfinder 2.1.1",
    "updated_at": "2022-05-11T10:55:13Z",
    "url": "https://api.github.com/repos/PrismarineJS/mineflayer-tool/pulls/42",
    "user": {
        "avatar_url": "https://avatars.githubusercontent.com/u/3118172?v=4",
        "events_url": "https://api.github.com/users/TheDudeFromCI/events{/privacy}",
        "followers_url": "https://api.github.com/users/TheDudeFromCI/followers",
        "following_url": "https://api.github.com/users/TheDudeFromCI/following{/other_user}",
        "gists_url": "https://api.github.com/users/TheDudeFromCI/gists{/gist_id}",
        "gravatar_id": "",
        "html_url": "https://github.com/TheDudeFromCI",
        "id": 3118172,
        "login": "TheDudeFromCI",
        "node_id": "MDQ6VXNlcjMxMTgxNzI=",
        "organizations_url": "https://api.github.com/users/TheDudeFromCI/orgs",
        "received_events_url": "https://api.github.com/users/TheDudeFromCI/received_events",
        "repos_url": "https://api.github.com/users/TheDudeFromCI/repos",
        "site_admin": false,
        "starred_url": "https://api.github.com/users/TheDudeFromCI/starred{/owner}{/repo}",
        "subscriptions_url": "https://api.github.com/users/TheDudeFromCI/subscriptions",
        "type": "User",
        "url": "https://api.github.com/users/TheDudeFromCI"
    }
}