{
    "_links": {
        "comments": {
            "href": "https://api.github.com/repos/PrismarineJS/node-minecraft-protocol/issues/1224/comments"
        },
        "commits": {
            "href": "https://api.github.com/repos/PrismarineJS/node-minecraft-protocol/pulls/1224/commits"
        },
        "html": {
            "href": "https://github.com/PrismarineJS/node-minecraft-protocol/pull/1224"
        },
        "issue": {
            "href": "https://api.github.com/repos/PrismarineJS/node-minecraft-protocol/issues/1224"
        },
        "review_comment": {
            "href": "https://api.github.com/repos/PrismarineJS/node-minecraft-protocol/pulls/comments{/number}"
        },
        "review_comments": {
            "href": "https://api.github.com/repos/PrismarineJS/node-minecraft-protocol/pulls/1224/comments"
        },
        "self": {
            "href": "https://api.github.com/repos/PrismarineJS/node-minecraft-protocol/pulls/1224"
        },
        "statuses": {
            "href": "https://api.github.com/repos/PrismarineJS/node-minecraft-protocol/statuses/9d5736e2a7b561afd8084890fd4f03470d002000"
        }
    },
    "active_lock_reason": null,
    "additions": 6,
    "assignee": null,
    "assignees": [],
    "author_association": "CONTRIBUTOR",
    "auto_merge": null,
    "base": {
        "label": "PrismarineJS:master",
        "ref": "master",
        "repo": {
            "allow_forking": true,
            "archive_url": "https://api.github.com/repos/PrismarineJS/node-minecraft-protocol/{archive_format}{/ref}",
            "archived": false,
            "assignees_url": "https://api.github.com/repos/PrismarineJS/node-minecraft-protocol/assignees{/user}",
            "blobs_url": "https://api.github.com/repos/PrismarineJS/node-minecraft-protocol/git/blobs{/sha}",
            "branches_url": "https://api.github.com/repos/PrismarineJS/node-minecraft-protocol/branches{/branch}",
            "clone_url": "https://github.com/PrismarineJS/node-minecraft-protocol.git",
            "collaborators_url": "https://api.github.com/repos/PrismarineJS/node-minecraft-protocol/collaborators{/collaborator}",
            "comments_url": "https://api.github.com/repos/PrismarineJS/node-minecraft-protocol/comments{/number}",
            "commits_url": "https://api.github.com/repos/PrismarineJS/node-minecraft-protocol/commits{/sha}",
            "compare_url": "https://api.github.com/repos/PrismarineJS/node-minecraft-protocol/compare/{base}...{head}",
            "contents_url": "https://api.github.com/repos/PrismarineJS/node-minecraft-protocol/contents/{+path}",
            "contributors_url": "https://api.github.com/repos/PrismarineJS/node-minecraft-protocol/contributors",
            "created_at": "2013-01-01T09:17:05Z",
            "default_branch": "master",
            "deployments_url": "https://api.github.com/repos/PrismarineJS/node-minecraft-protocol/deployments",
            "description": "Parse and serialize minecraft packets, plus authentication and encryption.",
            "disabled": false,
            "downloads_url": "https://api.github.com/repos/PrismarineJS/node-minecraft-protocol/downloads",
            "events_url": "https://api.github.com/repos/PrismarineJS/node-minecraft-protocol/events",
            "fork": false,
            "forks": 221,
            "forks_count": 221,
            "forks_url": "https://api.github.com/repos/PrismarineJS/node-minecraft-protocol/forks",
            "full_name": "PrismarineJS/node-minecraft-protocol",
            "git_commits_url": "https://api.github.com/repos/PrismarineJS/node-minecraft-protocol/git/commits{/sha}",
            "git_refs_url": "https://api.github.com/repos/PrismarineJS/node-minecraft-protocol/git/refs{/sha}",
            "git_tags_url": "https://api.github.com/repos/PrismarineJS/node-minecraft-protocol/git/tags{/sha}",
            "git_url": "git://github.com/PrismarineJS/node-minecraft-protocol.git",
            "has_discussions": false,
            "has_downloads": true,
            "has_issues": true,
            "has_pages": true,
            "has_projects": true,
            "has_wiki": true,
            "homepage": "https://prismarinejs.github.io/node-minecraft-protocol/",
            "hooks_url": "https://api.github.com/repos/PrismarineJS/node-minecraft-protocol/hooks",
            "html_url": "https://github.com/PrismarineJS/node-minecraft-protocol",
            "id": 7394347,
            "is_template": false,
            "issue_comment_url": "https://api.github.com/repos/PrismarineJS/node-minecraft-protocol/issues/comments{/number}",
            "issue_events_url": "https://api.github.com/repos/PrismarineJS/node-minecraft-protocol/issues/events{/number}",
            "issues_url": "https://api.github.com/repos/PrismarineJS/node-minecraft-protocol/issues{/number}",
            "keys_url": "https://api.github.com/repos/PrismarineJS/node-minecraft-protocol/keys{/key_id}",
            "labels_url": "https://api.github.com/repos/PrismarineJS/node-minecraft-protocol/labels{/name}",
            "language": "JavaScript",
            "languages_url": "https://api.github.com/repos/PrismarineJS/node-minecraft-protocol/languages",
            "license": {
                "key": "bsd-3-clause",
                "name": "BSD 3-Clause \"New\" or \"Revised\" License",
                "node_id": "MDc6TGljZW5zZTU=",
                "spdx_id": "BSD-3-Clause",
                "url": "https://api.github.com/licenses/bsd-3-clause"
            },
            "merges_url": "https://api.github.com/repos/PrismarineJS/node-minecraft-protocol/merges",
            "milestones_url": "https://api.github.com/repos/PrismarineJS/node-minecraft-protocol/milestones{/number}",
            "mirror_url": null,
            "name": "node-minecraft-protocol",
            "node_id": "MDEwOlJlcG9zaXRvcnk3Mzk0MzQ3",
            "notifications_url": "https://api.github.com/repos/PrismarineJS/node-minecraft-protocol/notifications{?since,all,participating}",
            "open_issues": 88,
            "open_issues_count": 88,
            "owner": {
                "avatar_url": "https://avatars.githubusercontent.com/u/11053411?v=4",
                "events_url": "https://api.github.com/users/PrismarineJS/events{/privacy}",
                "followers_url": "https://api.github.com/users/PrismarineJS/followers",
                "following_url": "https://api.github.com/users/PrismarineJS/following{/other_user}",
                "gists_url": "https://api.github.com/users/PrismarineJS/gists{/gist_id}",
                "gravatar_id": "",
                "html_url": "https://github.com/PrismarineJS",
                "id": 11053411,
                "login": "PrismarineJS",
                "node_id": "MDEyOk9yZ2FuaXphdGlvbjExMDUzNDEx",
                "organizations_url": "https://api.github.com/users/PrismarineJS/orgs",
                "received_events_url": "https://api.github.com/users/PrismarineJS/received_events",
                "repos_url": "https://api.github.com/users/PrismarineJS/repos",
                "site_admin": false,
                "starred_url": "https://api.github.com/users/PrismarineJS/starred{/owner}{/repo}",
                "subscriptions_url": "https://api.github.com/users/PrismarineJS/subscriptions",
                "type": "Organization",
                "url": "https://api.github.com/users/PrismarineJS"
            },
            "private": false,
            "pulls_url": "https://api.github.com/repos/PrismarineJS/node-minecraft-protocol/pulls{/number}",
            "pushed_at": "2023-06-03T21:19:10Z",
            "releases_url": "https://api.github.com/repos/PrismarineJS/node-minecraft-protocol/releases{/id}",
            "size": 1818,
            "ssh_url": "git@github.com:PrismarineJS/node-minecraft-protocol.git",
            "stargazers_count": 1079,
            "stargazers_url": "https://api.github.com/repos/PrismarineJS/node-minecraft-protocol/stargazers",
            "statuses_url": "https://api.github.com/repos/PrismarineJS/node-minecraft-protocol/statuses/{sha}",
            "subscribers_url": "https://api.github.com/repos/PrismarineJS/node-minecraft-protocol/subscribers",
            "subscription_url": "https://api.github.com/repos/PrismarineJS/node-minecraft-protocol/subscription",
            "svn_url": "https://github.com/PrismarineJS/node-minecraft-protocol",
            "tags_url": "https://api.github.com/repos/PrismarineJS/node-minecraft-protocol/tags",
            "teams_url": "https://api.github.com/repos/PrismarineJS/node-minecraft-protocol/teams",
            "topics": [
                "client",
                "minecraft",
                "network",
                "packets",
                "protocol",
                "proxy",
                "server"
            ],
            "trees_url": "https://api.github.com/repos/PrismarineJS/node-minecraft-protocol/git/trees{/sha}",
            "updated_at": "2023-06-02T20:28:09Z",
            "url": "https://api.github.com/repos/PrismarineJS/node-minecraft-protocol",
            "visibility": "public",
            "watchers": 1079,
            "watchers_count": 1079,
            "web_commit_signoff_required": false
        },
        "sha": "1af5a36fb042a20a07f4bf10935806d5cc471e58",
        "user": {
            "avatar_url": "https://avatars.githubusercontent.com/u/11053411?v=4",
            "events_url": "https://api.github.com/users/PrismarineJS/events{/privacy}",
            "followers_url": "https://api.github.com/users/PrismarineJS/followers",
            "following_url": "https://api.github.com/users/PrismarineJS/following{/other_user}",
            "gists_url": "https://api.github.com/users/PrismarineJS/gists{/gist_id}",
            "gravatar_id": "",
            "html_url": "https://github.com/PrismarineJS",
            "id": 11053411,
            "login": "PrismarineJS",
            "node_id": "MDEyOk9yZ2FuaXphdGlvbjExMDUzNDEx",
            "organizations_url": "https://api.github.com/users/PrismarineJS/orgs",
            "received_events_url": "https://api.github.com/users/PrismarineJS/received_events",
            "repos_url": "https://api.github.com/users/PrismarineJS/repos",
            "site_admin": false,
            "starred_url": "https://api.github.com/users/PrismarineJS/starred{/owner}{/repo}",
            "subscriptions_url": "https://api.github.com/users/PrismarineJS/subscriptions",
            "type": "Organization",
            "url": "https://api.github.com/users/PrismarineJS"
        }
    },
    "body": "V14 will become deprecated.",
    "changed_files": 3,
    "closed_at": "2023-06-03T21:17:27Z",
    "comment_data": [],
    "comment_regular_data": [
        {
            "author_association": "MEMBER",
            "body": "why node: prefixes?",
            "created_at": "2023-05-20T13:06:41Z",
            "html_url": "https://github.com/PrismarineJS/node-minecraft-protocol/pull/1224#issuecomment-1555908239",
            "id": 1555908239,
            "issue_url": "https://api.github.com/repos/PrismarineJS/node-minecraft-protocol/issues/1224",
            "node_id": "IC_kwDOAHDUK85cvUaP",
            "performed_via_github_app": null,
            "reactions": {
                "+1": 0,
                "-1": 0,
                "confused": 0,
                "eyes": 0,
                "heart": 0,
                "hooray": 0,
                "laugh": 0,
                "rocket": 0,
                "total_count": 0,
                "url": "https://api.github.com/repos/PrismarineJS/node-minecraft-protocol/issues/comments/1555908239/reactions"
            },
            "updated_at": "2023-05-20T13:06:41Z",
            "url": "https://api.github.com/repos/PrismarineJS/node-minecraft-protocol/issues/comments/1555908239",
            "user": {
                "avatar_url": "https://avatars.githubusercontent.com/u/2346494?v=4",
                "events_url": "https://api.github.com/users/rom1504/events{/privacy}",
                "followers_url": "https://api.github.com/users/rom1504/followers",
                "following_url": "https://api.github.com/users/rom1504/following{/other_user}",
                "gists_url": "https://api.github.com/users/rom1504/gists{/gist_id}",
                "gravatar_id": "",
                "html_url": "https://github.com/rom1504",
                "id": 2346494,
                "login": "rom1504",
                "node_id": "MDQ6VXNlcjIzNDY0OTQ=",
                "organizations_url": "https://api.github.com/users/rom1504/orgs",
                "received_events_url": "https://api.github.com/users/rom1504/received_events",
                "repos_url": "https://api.github.com/users/rom1504/repos",
                "site_admin": false,
                "starred_url": "https://api.github.com/users/rom1504/starred{/owner}{/repo}",
                "subscriptions_url": "https://api.github.com/users/rom1504/subscriptions",
                "type": "User",
                "url": "https://api.github.com/users/rom1504"
            }
        },
        {
            "author_association": "CONTRIBUTOR",
            "body": "If you go on docs we use `node:`\r\n`node:` mean it's an internal module.\r\n\r\nand new internal module can only found using `node:` example `test`",
            "created_at": "2023-05-20T13:10:12Z",
            "html_url": "https://github.com/PrismarineJS/node-minecraft-protocol/pull/1224#issuecomment-1555908928",
            "id": 1555908928,
            "issue_url": "https://api.github.com/repos/PrismarineJS/node-minecraft-protocol/issues/1224",
            "node_id": "IC_kwDOAHDUK85cvUlA",
            "performed_via_github_app": null,
            "reactions": {
                "+1": 0,
                "-1": 0,
                "confused": 0,
                "eyes": 0,
                "heart": 0,
                "hooray": 0,
                "laugh": 0,
                "rocket": 0,
                "total_count": 0,
                "url": "https://api.github.com/repos/PrismarineJS/node-minecraft-protocol/issues/comments/1555908928/reactions"
            },
            "updated_at": "2023-05-20T13:10:12Z",
            "url": "https://api.github.com/repos/PrismarineJS/node-minecraft-protocol/issues/comments/1555908928",
            "user": {
                "avatar_url": "https://avatars.githubusercontent.com/u/97875033?v=4",
                "events_url": "https://api.github.com/users/AugustinMauroy/events{/privacy}",
                "followers_url": "https://api.github.com/users/AugustinMauroy/followers",
                "following_url": "https://api.github.com/users/AugustinMauroy/following{/other_user}",
                "gists_url": "https://api.github.com/users/AugustinMauroy/gists{/gist_id}",
                "gravatar_id": "",
                "html_url": "https://github.com/AugustinMauroy",
                "id": 97875033,
                "login": "AugustinMauroy",
                "node_id": "U_kgDOBdV0WQ",
                "organizations_url": "https://api.github.com/users/AugustinMauroy/orgs",
                "received_events_url": "https://api.github.com/users/AugustinMauroy/received_events",
                "repos_url": "https://api.github.com/users/AugustinMauroy/repos",
                "site_admin": false,
                "starred_url": "https://api.github.com/users/AugustinMauroy/starred{/owner}{/repo}",
                "subscriptions_url": "https://api.github.com/users/AugustinMauroy/subscriptions",
                "type": "User",
                "url": "https://api.github.com/users/AugustinMauroy"
            }
        },
        {
            "author_association": "MEMBER",
            "body": "ok, but why?\r\n\r\nwhen will nodejs reverse this?",
            "created_at": "2023-05-29T12:44:06Z",
            "html_url": "https://github.com/PrismarineJS/node-minecraft-protocol/pull/1224#issuecomment-1567092786",
            "id": 1567092786,
            "issue_url": "https://api.github.com/repos/PrismarineJS/node-minecraft-protocol/issues/1224",
            "node_id": "IC_kwDOAHDUK85dZ_Ay",
            "performed_via_github_app": null,
            "reactions": {
                "+1": 0,
                "-1": 0,
                "confused": 0,
                "eyes": 0,
                "heart": 0,
                "hooray": 0,
                "laugh": 0,
                "rocket": 0,
                "total_count": 0,
                "url": "https://api.github.com/repos/PrismarineJS/node-minecraft-protocol/issues/comments/1567092786/reactions"
            },
            "updated_at": "2023-05-29T12:44:06Z",
            "url": "https://api.github.com/repos/PrismarineJS/node-minecraft-protocol/issues/comments/1567092786",
            "user": {
                "avatar_url": "https://avatars.githubusercontent.com/u/2346494?v=4",
                "events_url": "https://api.github.com/users/rom1504/events{/privacy}",
                "followers_url": "https://api.github.com/users/rom1504/followers",
                "following_url": "https://api.github.com/users/rom1504/following{/other_user}",
                "gists_url": "https://api.github.com/users/rom1504/gists{/gist_id}",
                "gravatar_id": "",
                "html_url": "https://github.com/rom1504",
                "id": 2346494,
                "login": "rom1504",
                "node_id": "MDQ6VXNlcjIzNDY0OTQ=",
                "organizations_url": "https://api.github.com/users/rom1504/orgs",
                "received_events_url": "https://api.github.com/users/rom1504/received_events",
                "repos_url": "https://api.github.com/users/rom1504/repos",
                "site_admin": false,
                "starred_url": "https://api.github.com/users/rom1504/starred{/owner}{/repo}",
                "subscriptions_url": "https://api.github.com/users/rom1504/subscriptions",
                "type": "User",
                "url": "https://api.github.com/users/rom1504"
            }
        },
        {
            "author_association": "CONTRIBUTOR",
            "body": "Now `test` module is only available with `node:test`",
            "created_at": "2023-05-29T12:45:28Z",
            "html_url": "https://github.com/PrismarineJS/node-minecraft-protocol/pull/1224#issuecomment-1567093993",
            "id": 1567093993,
            "issue_url": "https://api.github.com/repos/PrismarineJS/node-minecraft-protocol/issues/1224",
            "node_id": "IC_kwDOAHDUK85dZ_Tp",
            "performed_via_github_app": null,
            "reactions": {
                "+1": 1,
                "-1": 0,
                "confused": 0,
                "eyes": 0,
                "heart": 0,
                "hooray": 0,
                "laugh": 0,
                "rocket": 0,
                "total_count": 1,
                "url": "https://api.github.com/repos/PrismarineJS/node-minecraft-protocol/issues/comments/1567093993/reactions"
            },
            "updated_at": "2023-05-29T12:45:28Z",
            "url": "https://api.github.com/repos/PrismarineJS/node-minecraft-protocol/issues/comments/1567093993",
            "user": {
                "avatar_url": "https://avatars.githubusercontent.com/u/97875033?v=4",
                "events_url": "https://api.github.com/users/AugustinMauroy/events{/privacy}",
                "followers_url": "https://api.github.com/users/AugustinMauroy/followers",
                "following_url": "https://api.github.com/users/AugustinMauroy/following{/other_user}",
                "gists_url": "https://api.github.com/users/AugustinMauroy/gists{/gist_id}",
                "gravatar_id": "",
                "html_url": "https://github.com/AugustinMauroy",
                "id": 97875033,
                "login": "AugustinMauroy",
                "node_id": "U_kgDOBdV0WQ",
                "organizations_url": "https://api.github.com/users/AugustinMauroy/orgs",
                "received_events_url": "https://api.github.com/users/AugustinMauroy/received_events",
                "repos_url": "https://api.github.com/users/AugustinMauroy/repos",
                "site_admin": false,
                "starred_url": "https://api.github.com/users/AugustinMauroy/starred{/owner}{/repo}",
                "subscriptions_url": "https://api.github.com/users/AugustinMauroy/subscriptions",
                "type": "User",
                "url": "https://api.github.com/users/AugustinMauroy"
            }
        },
        {
            "author_association": "MEMBER",
            "body": "yeah I read https://stateful.com/blog/node-18-prefix-only-modules\r\n\r\nI disagree, it's a bad change, it makes all future nodejs code not work with previous versions, for no strong reason.\r\n\r\nLet's not use these prefixes",
            "created_at": "2023-05-29T12:49:40Z",
            "html_url": "https://github.com/PrismarineJS/node-minecraft-protocol/pull/1224#issuecomment-1567098089",
            "id": 1567098089,
            "issue_url": "https://api.github.com/repos/PrismarineJS/node-minecraft-protocol/issues/1224",
            "node_id": "IC_kwDOAHDUK85daATp",
            "performed_via_github_app": null,
            "reactions": {
                "+1": 0,
                "-1": 0,
                "confused": 0,
                "eyes": 0,
                "heart": 0,
                "hooray": 0,
                "laugh": 0,
                "rocket": 0,
                "total_count": 0,
                "url": "https://api.github.com/repos/PrismarineJS/node-minecraft-protocol/issues/comments/1567098089/reactions"
            },
            "updated_at": "2023-05-29T12:49:40Z",
            "url": "https://api.github.com/repos/PrismarineJS/node-minecraft-protocol/issues/comments/1567098089",
            "user": {
                "avatar_url": "https://avatars.githubusercontent.com/u/2346494?v=4",
                "events_url": "https://api.github.com/users/rom1504/events{/privacy}",
                "followers_url": "https://api.github.com/users/rom1504/followers",
                "following_url": "https://api.github.com/users/rom1504/following{/other_user}",
                "gists_url": "https://api.github.com/users/rom1504/gists{/gist_id}",
                "gravatar_id": "",
                "html_url": "https://github.com/rom1504",
                "id": 2346494,
                "login": "rom1504",
                "node_id": "MDQ6VXNlcjIzNDY0OTQ=",
                "organizations_url": "https://api.github.com/users/rom1504/orgs",
                "received_events_url": "https://api.github.com/users/rom1504/received_events",
                "repos_url": "https://api.github.com/users/rom1504/repos",
                "site_admin": false,
                "starred_url": "https://api.github.com/users/rom1504/starred{/owner}{/repo}",
                "subscriptions_url": "https://api.github.com/users/rom1504/subscriptions",
                "type": "User",
                "url": "https://api.github.com/users/rom1504"
            }
        },
        {
            "author_association": "CONTRIBUTOR",
            "body": "If you want the project to remain \"healthy\" you have to stay with LTS, so in any case the anicien code will be deprecated.",
            "created_at": "2023-05-29T12:51:48Z",
            "html_url": "https://github.com/PrismarineJS/node-minecraft-protocol/pull/1224#issuecomment-1567100096",
            "id": 1567100096,
            "issue_url": "https://api.github.com/repos/PrismarineJS/node-minecraft-protocol/issues/1224",
            "node_id": "IC_kwDOAHDUK85daAzA",
            "performed_via_github_app": null,
            "reactions": {
                "+1": 0,
                "-1": 0,
                "confused": 0,
                "eyes": 0,
                "heart": 0,
                "hooray": 0,
                "laugh": 0,
                "rocket": 0,
                "total_count": 0,
                "url": "https://api.github.com/repos/PrismarineJS/node-minecraft-protocol/issues/comments/1567100096/reactions"
            },
            "updated_at": "2023-05-29T12:51:48Z",
            "url": "https://api.github.com/repos/PrismarineJS/node-minecraft-protocol/issues/comments/1567100096",
            "user": {
                "avatar_url": "https://avatars.githubusercontent.com/u/97875033?v=4",
                "events_url": "https://api.github.com/users/AugustinMauroy/events{/privacy}",
                "followers_url": "https://api.github.com/users/AugustinMauroy/followers",
                "following_url": "https://api.github.com/users/AugustinMauroy/following{/other_user}",
                "gists_url": "https://api.github.com/users/AugustinMauroy/gists{/gist_id}",
                "gravatar_id": "",
                "html_url": "https://github.com/AugustinMauroy",
                "id": 97875033,
                "login": "AugustinMauroy",
                "node_id": "U_kgDOBdV0WQ",
                "organizations_url": "https://api.github.com/users/AugustinMauroy/orgs",
                "received_events_url": "https://api.github.com/users/AugustinMauroy/received_events",
                "repos_url": "https://api.github.com/users/AugustinMauroy/repos",
                "site_admin": false,
                "starred_url": "https://api.github.com/users/AugustinMauroy/starred{/owner}{/repo}",
                "subscriptions_url": "https://api.github.com/users/AugustinMauroy/subscriptions",
                "type": "User",
                "url": "https://api.github.com/users/AugustinMauroy"
            }
        },
        {
            "author_association": "MEMBER",
            "body": "> the anicien code will be deprecated\r\n\r\nseems very unlikely to me\r\n\r\nI'd rather ask nodejs to undo this decision. I believe nobody will follow it anyway",
            "created_at": "2023-05-29T13:02:47Z",
            "html_url": "https://github.com/PrismarineJS/node-minecraft-protocol/pull/1224#issuecomment-1567112882",
            "id": 1567112882,
            "issue_url": "https://api.github.com/repos/PrismarineJS/node-minecraft-protocol/issues/1224",
            "node_id": "IC_kwDOAHDUK85daD6y",
            "performed_via_github_app": null,
            "reactions": {
                "+1": 0,
                "-1": 0,
                "confused": 0,
                "eyes": 0,
                "heart": 0,
                "hooray": 0,
                "laugh": 0,
                "rocket": 0,
                "total_count": 0,
                "url": "https://api.github.com/repos/PrismarineJS/node-minecraft-protocol/issues/comments/1567112882/reactions"
            },
            "updated_at": "2023-05-29T13:02:47Z",
            "url": "https://api.github.com/repos/PrismarineJS/node-minecraft-protocol/issues/comments/1567112882",
            "user": {
                "avatar_url": "https://avatars.githubusercontent.com/u/2346494?v=4",
                "events_url": "https://api.github.com/users/rom1504/events{/privacy}",
                "followers_url": "https://api.github.com/users/rom1504/followers",
                "following_url": "https://api.github.com/users/rom1504/following{/other_user}",
                "gists_url": "https://api.github.com/users/rom1504/gists{/gist_id}",
                "gravatar_id": "",
                "html_url": "https://github.com/rom1504",
                "id": 2346494,
                "login": "rom1504",
                "node_id": "MDQ6VXNlcjIzNDY0OTQ=",
                "organizations_url": "https://api.github.com/users/rom1504/orgs",
                "received_events_url": "https://api.github.com/users/rom1504/received_events",
                "repos_url": "https://api.github.com/users/rom1504/repos",
                "site_admin": false,
                "starred_url": "https://api.github.com/users/rom1504/starred{/owner}{/repo}",
                "subscriptions_url": "https://api.github.com/users/rom1504/subscriptions",
                "type": "User",
                "url": "https://api.github.com/users/rom1504"
            }
        },
        {
            "author_association": "MEMBER",
            "body": "refer to https://github.com/PrismarineJS/prismarine-contribute/issues/12 for why",
            "created_at": "2023-05-29T13:20:52Z",
            "html_url": "https://github.com/PrismarineJS/node-minecraft-protocol/pull/1224#issuecomment-1567134504",
            "id": 1567134504,
            "issue_url": "https://api.github.com/repos/PrismarineJS/node-minecraft-protocol/issues/1224",
            "node_id": "IC_kwDOAHDUK85daJMo",
            "performed_via_github_app": null,
            "reactions": {
                "+1": 0,
                "-1": 0,
                "confused": 0,
                "eyes": 0,
                "heart": 0,
                "hooray": 0,
                "laugh": 0,
                "rocket": 0,
                "total_count": 0,
                "url": "https://api.github.com/repos/PrismarineJS/node-minecraft-protocol/issues/comments/1567134504/reactions"
            },
            "updated_at": "2023-06-03T21:22:45Z",
            "url": "https://api.github.com/repos/PrismarineJS/node-minecraft-protocol/issues/comments/1567134504",
            "user": {
                "avatar_url": "https://avatars.githubusercontent.com/u/2346494?v=4",
                "events_url": "https://api.github.com/users/rom1504/events{/privacy}",
                "followers_url": "https://api.github.com/users/rom1504/followers",
                "following_url": "https://api.github.com/users/rom1504/following{/other_user}",
                "gists_url": "https://api.github.com/users/rom1504/gists{/gist_id}",
                "gravatar_id": "",
                "html_url": "https://github.com/rom1504",
                "id": 2346494,
                "login": "rom1504",
                "node_id": "MDQ6VXNlcjIzNDY0OTQ=",
                "organizations_url": "https://api.github.com/users/rom1504/orgs",
                "received_events_url": "https://api.github.com/users/rom1504/received_events",
                "repos_url": "https://api.github.com/users/rom1504/repos",
                "site_admin": false,
                "starred_url": "https://api.github.com/users/rom1504/starred{/owner}{/repo}",
                "subscriptions_url": "https://api.github.com/users/rom1504/subscriptions",
                "type": "User",
                "url": "https://api.github.com/users/rom1504"
            }
        }
    ],
    "comments": 8,
    "comments_url": "https://api.github.com/repos/PrismarineJS/node-minecraft-protocol/issues/1224/comments",
    "commit_data": [
        {
            "author": {
                "avatar_url": "https://avatars.githubusercontent.com/u/97875033?v=4",
                "events_url": "https://api.github.com/users/AugustinMauroy/events{/privacy}",
                "followers_url": "https://api.github.com/users/AugustinMauroy/followers",
                "following_url": "https://api.github.com/users/AugustinMauroy/following{/other_user}",
                "gists_url": "https://api.github.com/users/AugustinMauroy/gists{/gist_id}",
                "gravatar_id": "",
                "html_url": "https://github.com/AugustinMauroy",
                "id": 97875033,
                "login": "AugustinMauroy",
                "node_id": "U_kgDOBdV0WQ",
                "organizations_url": "https://api.github.com/users/AugustinMauroy/orgs",
                "received_events_url": "https://api.github.com/users/AugustinMauroy/received_events",
                "repos_url": "https://api.github.com/users/AugustinMauroy/repos",
                "site_admin": false,
                "starred_url": "https://api.github.com/users/AugustinMauroy/starred{/owner}{/repo}",
                "subscriptions_url": "https://api.github.com/users/AugustinMauroy/subscriptions",
                "type": "User",
                "url": "https://api.github.com/users/AugustinMauroy"
            },
            "comments_url": "https://api.github.com/repos/PrismarineJS/node-minecraft-protocol/commits/4d7aca2cad7a83c706dd03d84d33ccc69d8b1c4b/comments",
            "commit": {
                "author": {
                    "date": "2023-05-20T09:14:42Z",
                    "email": "augustin.mauroy@outlook.fr",
                    "name": "Augustin Mauroy"
                },
                "comment_count": 0,
                "committer": {
                    "date": "2023-05-20T09:14:42Z",
                    "email": "augustin.mauroy@outlook.fr",
                    "name": "Augustin Mauroy"
                },
                "message": "chore(runtime): use LTS V18",
                "tree": {
                    "sha": "97db9c49fcdd4bf20703bc9912aff915ce957488",
                    "url": "https://api.github.com/repos/PrismarineJS/node-minecraft-protocol/git/trees/97db9c49fcdd4bf20703bc9912aff915ce957488"
                },
                "url": "https://api.github.com/repos/PrismarineJS/node-minecraft-protocol/git/commits/4d7aca2cad7a83c706dd03d84d33ccc69d8b1c4b",
                "verification": {
                    "payload": null,
                    "reason": "unsigned",
                    "signature": null,
                    "verified": false
                }
            },
            "committer": {
                "avatar_url": "https://avatars.githubusercontent.com/u/97875033?v=4",
                "events_url": "https://api.github.com/users/AugustinMauroy/events{/privacy}",
                "followers_url": "https://api.github.com/users/AugustinMauroy/followers",
                "following_url": "https://api.github.com/users/AugustinMauroy/following{/other_user}",
                "gists_url": "https://api.github.com/users/AugustinMauroy/gists{/gist_id}",
                "gravatar_id": "",
                "html_url": "https://github.com/AugustinMauroy",
                "id": 97875033,
                "login": "AugustinMauroy",
                "node_id": "U_kgDOBdV0WQ",
                "organizations_url": "https://api.github.com/users/AugustinMauroy/orgs",
                "received_events_url": "https://api.github.com/users/AugustinMauroy/received_events",
                "repos_url": "https://api.github.com/users/AugustinMauroy/repos",
                "site_admin": false,
                "starred_url": "https://api.github.com/users/AugustinMauroy/starred{/owner}{/repo}",
                "subscriptions_url": "https://api.github.com/users/AugustinMauroy/subscriptions",
                "type": "User",
                "url": "https://api.github.com/users/AugustinMauroy"
            },
            "html_url": "https://github.com/PrismarineJS/node-minecraft-protocol/commit/4d7aca2cad7a83c706dd03d84d33ccc69d8b1c4b",
            "node_id": "C_kwDOJlXFldoAKDRkN2FjYTJjYWQ3YTgzYzcwNmRkMDNkODRkMzNjY2M2OWQ4YjFjNGI",
            "parents": [
                {
                    "html_url": "https://github.com/PrismarineJS/node-minecraft-protocol/commit/6f57eb90d5072ad3a94a8734cdc4a5b6a8dd7639",
                    "sha": "6f57eb90d5072ad3a94a8734cdc4a5b6a8dd7639",
                    "url": "https://api.github.com/repos/PrismarineJS/node-minecraft-protocol/commits/6f57eb90d5072ad3a94a8734cdc4a5b6a8dd7639"
                }
            ],
            "sha": "4d7aca2cad7a83c706dd03d84d33ccc69d8b1c4b",
            "url": "https://api.github.com/repos/PrismarineJS/node-minecraft-protocol/commits/4d7aca2cad7a83c706dd03d84d33ccc69d8b1c4b"
        },
        {
            "author": {
                "avatar_url": "https://avatars.githubusercontent.com/u/97875033?v=4",
                "events_url": "https://api.github.com/users/AugustinMauroy/events{/privacy}",
                "followers_url": "https://api.github.com/users/AugustinMauroy/followers",
                "following_url": "https://api.github.com/users/AugustinMauroy/following{/other_user}",
                "gists_url": "https://api.github.com/users/AugustinMauroy/gists{/gist_id}",
                "gravatar_id": "",
                "html_url": "https://github.com/AugustinMauroy",
                "id": 97875033,
                "login": "AugustinMauroy",
                "node_id": "U_kgDOBdV0WQ",
                "organizations_url": "https://api.github.com/users/AugustinMauroy/orgs",
                "received_events_url": "https://api.github.com/users/AugustinMauroy/received_events",
                "repos_url": "https://api.github.com/users/AugustinMauroy/repos",
                "site_admin": false,
                "starred_url": "https://api.github.com/users/AugustinMauroy/starred{/owner}{/repo}",
                "subscriptions_url": "https://api.github.com/users/AugustinMauroy/subscriptions",
                "type": "User",
                "url": "https://api.github.com/users/AugustinMauroy"
            },
            "comments_url": "https://api.github.com/repos/PrismarineJS/node-minecraft-protocol/commits/6ed695765909dee10892b16df930f440f64db129/comments",
            "commit": {
                "author": {
                    "date": "2023-05-20T10:18:45Z",
                    "email": "augustin.mauroy@outlook.fr",
                    "name": "Augustin Mauroy"
                },
                "comment_count": 0,
                "committer": {
                    "date": "2023-05-20T10:18:45Z",
                    "email": "augustin.mauroy@outlook.fr",
                    "name": "Augustin Mauroy"
                },
                "message": "chore(workflows): update",
                "tree": {
                    "sha": "15601844ef9ec8d28e4cd266b0bc32681e168591",
                    "url": "https://api.github.com/repos/PrismarineJS/node-minecraft-protocol/git/trees/15601844ef9ec8d28e4cd266b0bc32681e168591"
                },
                "url": "https://api.github.com/repos/PrismarineJS/node-minecraft-protocol/git/commits/6ed695765909dee10892b16df930f440f64db129",
                "verification": {
                    "payload": null,
                    "reason": "unsigned",
                    "signature": null,
                    "verified": false
                }
            },
            "committer": {
                "avatar_url": "https://avatars.githubusercontent.com/u/97875033?v=4",
                "events_url": "https://api.github.com/users/AugustinMauroy/events{/privacy}",
                "followers_url": "https://api.github.com/users/AugustinMauroy/followers",
                "following_url": "https://api.github.com/users/AugustinMauroy/following{/other_user}",
                "gists_url": "https://api.github.com/users/AugustinMauroy/gists{/gist_id}",
                "gravatar_id": "",
                "html_url": "https://github.com/AugustinMauroy",
                "id": 97875033,
                "login": "AugustinMauroy",
                "node_id": "U_kgDOBdV0WQ",
                "organizations_url": "https://api.github.com/users/AugustinMauroy/orgs",
                "received_events_url": "https://api.github.com/users/AugustinMauroy/received_events",
                "repos_url": "https://api.github.com/users/AugustinMauroy/repos",
                "site_admin": false,
                "starred_url": "https://api.github.com/users/AugustinMauroy/starred{/owner}{/repo}",
                "subscriptions_url": "https://api.github.com/users/AugustinMauroy/subscriptions",
                "type": "User",
                "url": "https://api.github.com/users/AugustinMauroy"
            },
            "html_url": "https://github.com/PrismarineJS/node-minecraft-protocol/commit/6ed695765909dee10892b16df930f440f64db129",
            "node_id": "C_kwDOJlXFldoAKDZlZDY5NTc2NTkwOWRlZTEwODkyYjE2ZGY5MzBmNDQwZjY0ZGIxMjk",
            "parents": [
                {
                    "html_url": "https://github.com/PrismarineJS/node-minecraft-protocol/commit/4d7aca2cad7a83c706dd03d84d33ccc69d8b1c4b",
                    "sha": "4d7aca2cad7a83c706dd03d84d33ccc69d8b1c4b",
                    "url": "https://api.github.com/repos/PrismarineJS/node-minecraft-protocol/commits/4d7aca2cad7a83c706dd03d84d33ccc69d8b1c4b"
                }
            ],
            "sha": "6ed695765909dee10892b16df930f440f64db129",
            "url": "https://api.github.com/repos/PrismarineJS/node-minecraft-protocol/commits/6ed695765909dee10892b16df930f440f64db129"
        },
        {
            "author": {
                "avatar_url": "https://avatars.githubusercontent.com/u/97875033?v=4",
                "events_url": "https://api.github.com/users/AugustinMauroy/events{/privacy}",
                "followers_url": "https://api.github.com/users/AugustinMauroy/followers",
                "following_url": "https://api.github.com/users/AugustinMauroy/following{/other_user}",
                "gists_url": "https://api.github.com/users/AugustinMauroy/gists{/gist_id}",
                "gravatar_id": "",
                "html_url": "https://github.com/AugustinMauroy",
                "id": 97875033,
                "login": "AugustinMauroy",
                "node_id": "U_kgDOBdV0WQ",
                "organizations_url": "https://api.github.com/users/AugustinMauroy/orgs",
                "received_events_url": "https://api.github.com/users/AugustinMauroy/received_events",
                "repos_url": "https://api.github.com/users/AugustinMauroy/repos",
                "site_admin": false,
                "starred_url": "https://api.github.com/users/AugustinMauroy/starred{/owner}{/repo}",
                "subscriptions_url": "https://api.github.com/users/AugustinMauroy/subscriptions",
                "type": "User",
                "url": "https://api.github.com/users/AugustinMauroy"
            },
            "comments_url": "https://api.github.com/repos/PrismarineJS/node-minecraft-protocol/commits/6daf99f876cdd5c7019b5c3b8d7157e1fc3ea26a/comments",
            "commit": {
                "author": {
                    "date": "2023-05-20T13:10:14Z",
                    "email": "augustin.mauroy@outlook.fr",
                    "name": "Augustin Mauroy"
                },
                "comment_count": 0,
                "committer": {
                    "date": "2023-05-20T13:10:14Z",
                    "email": "noreply@github.com",
                    "name": "GitHub"
                },
                "message": "Merge branch 'master' into master",
                "tree": {
                    "sha": "de2a558e820c68581303ca128ba12167f2346ff0",
                    "url": "https://api.github.com/repos/PrismarineJS/node-minecraft-protocol/git/trees/de2a558e820c68581303ca128ba12167f2346ff0"
                },
                "url": "https://api.github.com/repos/PrismarineJS/node-minecraft-protocol/git/commits/6daf99f876cdd5c7019b5c3b8d7157e1fc3ea26a",
                "verification": {
                    "payload": "tree de2a558e820c68581303ca128ba12167f2346ff0\nparent 6ed695765909dee10892b16df930f440f64db129\nparent d9e37e3d76eea47b3e9a8583135a293da47b05ce\nauthor Augustin Mauroy <augustin.mauroy@outlook.fr> 1684588214 +0200\ncommitter GitHub <noreply@github.com> 1684588214 +0200\n\nMerge branch 'master' into master",
                    "reason": "valid",
                    "signature": "-----BEGIN PGP SIGNATURE-----\n\nwsBcBAABCAAQBQJkaMa2CRBK7hj4Ov3rIwAAr30IAGFN1rmftaQ8hn6flTsGaFxk\nB1Q72rbjDzDfqOK1aO1ijLInygLt6NFT9GWn13k2GrHpVvBE84mYJsbuyfVoFpan\nD6jwtq1C1+LJyaW2mIyIMvhrXTb0aBwnusbOqhhyQnXTwJ1AUNQLRsd3/0tlxhZF\nCW8mYc82h/MiW6gjPkDhvdHBRe+7cqKmVS9kUSgWzUc84ZjaDd0npB8Tf5rD+TiZ\ni1Pv/ej7OZ3lm3rbMtV6m+8Jz2WHlc84cwR4df859B7g4orc4B4/LPEEzCScbBo/\nDZUqkSey7YkpCEwU6dv1tkITutU+4cY21JTVwVCdTkNYYFzABjSIIMMZPptZV3c=\n=TQkd\n-----END PGP SIGNATURE-----\n",
                    "verified": true
                }
            },
            "committer": {
                "avatar_url": "https://avatars.githubusercontent.com/u/19864447?v=4",
                "events_url": "https://api.github.com/users/web-flow/events{/privacy}",
                "followers_url": "https://api.github.com/users/web-flow/followers",
                "following_url": "https://api.github.com/users/web-flow/following{/other_user}",
                "gists_url": "https://api.github.com/users/web-flow/gists{/gist_id}",
                "gravatar_id": "",
                "html_url": "https://github.com/web-flow",
                "id": 19864447,
                "login": "web-flow",
                "node_id": "MDQ6VXNlcjE5ODY0NDQ3",
                "organizations_url": "https://api.github.com/users/web-flow/orgs",
                "received_events_url": "https://api.github.com/users/web-flow/received_events",
                "repos_url": "https://api.github.com/users/web-flow/repos",
                "site_admin": false,
                "starred_url": "https://api.github.com/users/web-flow/starred{/owner}{/repo}",
                "subscriptions_url": "https://api.github.com/users/web-flow/subscriptions",
                "type": "User",
                "url": "https://api.github.com/users/web-flow"
            },
            "html_url": "https://github.com/PrismarineJS/node-minecraft-protocol/commit/6daf99f876cdd5c7019b5c3b8d7157e1fc3ea26a",
            "node_id": "C_kwDOJlXFldoAKDZkYWY5OWY4NzZjZGQ1YzcwMTliNWMzYjhkNzE1N2UxZmMzZWEyNmE",
            "parents": [
                {
                    "html_url": "https://github.com/PrismarineJS/node-minecraft-protocol/commit/6ed695765909dee10892b16df930f440f64db129",
                    "sha": "6ed695765909dee10892b16df930f440f64db129",
                    "url": "https://api.github.com/repos/PrismarineJS/node-minecraft-protocol/commits/6ed695765909dee10892b16df930f440f64db129"
                },
                {
                    "html_url": "https://github.com/PrismarineJS/node-minecraft-protocol/commit/d9e37e3d76eea47b3e9a8583135a293da47b05ce",
                    "sha": "d9e37e3d76eea47b3e9a8583135a293da47b05ce",
                    "url": "https://api.github.com/repos/PrismarineJS/node-minecraft-protocol/commits/d9e37e3d76eea47b3e9a8583135a293da47b05ce"
                }
            ],
            "sha": "6daf99f876cdd5c7019b5c3b8d7157e1fc3ea26a",
            "url": "https://api.github.com/repos/PrismarineJS/node-minecraft-protocol/commits/6daf99f876cdd5c7019b5c3b8d7157e1fc3ea26a"
        },
        {
            "author": {
                "avatar_url": "https://avatars.githubusercontent.com/u/97875033?v=4",
                "events_url": "https://api.github.com/users/AugustinMauroy/events{/privacy}",
                "followers_url": "https://api.github.com/users/AugustinMauroy/followers",
                "following_url": "https://api.github.com/users/AugustinMauroy/following{/other_user}",
                "gists_url": "https://api.github.com/users/AugustinMauroy/gists{/gist_id}",
                "gravatar_id": "",
                "html_url": "https://github.com/AugustinMauroy",
                "id": 97875033,
                "login": "AugustinMauroy",
                "node_id": "U_kgDOBdV0WQ",
                "organizations_url": "https://api.github.com/users/AugustinMauroy/orgs",
                "received_events_url": "https://api.github.com/users/AugustinMauroy/received_events",
                "repos_url": "https://api.github.com/users/AugustinMauroy/repos",
                "site_admin": false,
                "starred_url": "https://api.github.com/users/AugustinMauroy/starred{/owner}{/repo}",
                "subscriptions_url": "https://api.github.com/users/AugustinMauroy/subscriptions",
                "type": "User",
                "url": "https://api.github.com/users/AugustinMauroy"
            },
            "comments_url": "https://api.github.com/repos/PrismarineJS/node-minecraft-protocol/commits/e72e7d8b131c97ca29f8227682e79b90953ce7c3/comments",
            "commit": {
                "author": {
                    "date": "2023-05-28T16:11:32Z",
                    "email": "augustin.mauroy@outlook.fr",
                    "name": "Augustin Mauroy"
                },
                "comment_count": 0,
                "committer": {
                    "date": "2023-05-28T16:11:32Z",
                    "email": "noreply@github.com",
                    "name": "GitHub"
                },
                "message": "Merge branch 'master' into master",
                "tree": {
                    "sha": "2280ba934ce589bba637cac69ba8cb4d00002215",
                    "url": "https://api.github.com/repos/PrismarineJS/node-minecraft-protocol/git/trees/2280ba934ce589bba637cac69ba8cb4d00002215"
                },
                "url": "https://api.github.com/repos/PrismarineJS/node-minecraft-protocol/git/commits/e72e7d8b131c97ca29f8227682e79b90953ce7c3",
                "verification": {
                    "payload": "tree 2280ba934ce589bba637cac69ba8cb4d00002215\nparent 6daf99f876cdd5c7019b5c3b8d7157e1fc3ea26a\nparent d643d4041546558a4a9fd16a79be8a4b82c9cff8\nauthor Augustin Mauroy <augustin.mauroy@outlook.fr> 1685290292 +0200\ncommitter GitHub <noreply@github.com> 1685290292 +0200\n\nMerge branch 'master' into master",
                    "reason": "valid",
                    "signature": "-----BEGIN PGP SIGNATURE-----\n\nwsBcBAABCAAQBQJkc300CRBK7hj4Ov3rIwAA2MYIAK2wlhsWa8P8LzL5EDUSeHZI\nCLNOVuATJUXRq/DETr50gxnKXeAY7d8xZcfcM+e47W4N1IYmg6rgMm0p3wQs6ERp\ncdguiVDqMLnB718YZjgkmPTJwUOcs8a5kSTb1tvVxhk4+9OFVRus/QcNrEUftZz9\n+87hUydWj7Z5AX0mxmPO9EM99dhKLTLTMFMLD9l/Lc+RyaOt8wTvzjE/M0orzjo7\niwQ8AbjIvnhEAhhZezdndh//sopfAW+LJc7Eze9WZ6n55PY3mvPVVCppWQLEOmZ4\nJCggcQ9zUJ91k5CKmg/6c3j4Ef/W6Uwr753dySbZT2kM9PvI/MS0VPdp9tleb6g=\n=MNR5\n-----END PGP SIGNATURE-----\n",
                    "verified": true
                }
            },
            "committer": {
                "avatar_url": "https://avatars.githubusercontent.com/u/19864447?v=4",
                "events_url": "https://api.github.com/users/web-flow/events{/privacy}",
                "followers_url": "https://api.github.com/users/web-flow/followers",
                "following_url": "https://api.github.com/users/web-flow/following{/other_user}",
                "gists_url": "https://api.github.com/users/web-flow/gists{/gist_id}",
                "gravatar_id": "",
                "html_url": "https://github.com/web-flow",
                "id": 19864447,
                "login": "web-flow",
                "node_id": "MDQ6VXNlcjE5ODY0NDQ3",
                "organizations_url": "https://api.github.com/users/web-flow/orgs",
                "received_events_url": "https://api.github.com/users/web-flow/received_events",
                "repos_url": "https://api.github.com/users/web-flow/repos",
                "site_admin": false,
                "starred_url": "https://api.github.com/users/web-flow/starred{/owner}{/repo}",
                "subscriptions_url": "https://api.github.com/users/web-flow/subscriptions",
                "type": "User",
                "url": "https://api.github.com/users/web-flow"
            },
            "html_url": "https://github.com/PrismarineJS/node-minecraft-protocol/commit/e72e7d8b131c97ca29f8227682e79b90953ce7c3",
            "node_id": "C_kwDOJlXFldoAKGU3MmU3ZDhiMTMxYzk3Y2EyOWY4MjI3NjgyZTc5YjkwOTUzY2U3YzM",
            "parents": [
                {
                    "html_url": "https://github.com/PrismarineJS/node-minecraft-protocol/commit/6daf99f876cdd5c7019b5c3b8d7157e1fc3ea26a",
                    "sha": "6daf99f876cdd5c7019b5c3b8d7157e1fc3ea26a",
                    "url": "https://api.github.com/repos/PrismarineJS/node-minecraft-protocol/commits/6daf99f876cdd5c7019b5c3b8d7157e1fc3ea26a"
                },
                {
                    "html_url": "https://github.com/PrismarineJS/node-minecraft-protocol/commit/d643d4041546558a4a9fd16a79be8a4b82c9cff8",
                    "sha": "d643d4041546558a4a9fd16a79be8a4b82c9cff8",
                    "url": "https://api.github.com/repos/PrismarineJS/node-minecraft-protocol/commits/d643d4041546558a4a9fd16a79be8a4b82c9cff8"
                }
            ],
            "sha": "e72e7d8b131c97ca29f8227682e79b90953ce7c3",
            "url": "https://api.github.com/repos/PrismarineJS/node-minecraft-protocol/commits/e72e7d8b131c97ca29f8227682e79b90953ce7c3"
        },
        {
            "author": {
                "avatar_url": "https://avatars.githubusercontent.com/u/97875033?v=4",
                "events_url": "https://api.github.com/users/AugustinMauroy/events{/privacy}",
                "followers_url": "https://api.github.com/users/AugustinMauroy/followers",
                "following_url": "https://api.github.com/users/AugustinMauroy/following{/other_user}",
                "gists_url": "https://api.github.com/users/AugustinMauroy/gists{/gist_id}",
                "gravatar_id": "",
                "html_url": "https://github.com/AugustinMauroy",
                "id": 97875033,
                "login": "AugustinMauroy",
                "node_id": "U_kgDOBdV0WQ",
                "organizations_url": "https://api.github.com/users/AugustinMauroy/orgs",
                "received_events_url": "https://api.github.com/users/AugustinMauroy/received_events",
                "repos_url": "https://api.github.com/users/AugustinMauroy/repos",
                "site_admin": false,
                "starred_url": "https://api.github.com/users/AugustinMauroy/starred{/owner}{/repo}",
                "subscriptions_url": "https://api.github.com/users/AugustinMauroy/subscriptions",
                "type": "User",
                "url": "https://api.github.com/users/AugustinMauroy"
            },
            "comments_url": "https://api.github.com/repos/PrismarineJS/node-minecraft-protocol/commits/63baf9d76e2e947fe323d956e402220b660c7687/comments",
            "commit": {
                "author": {
                    "date": "2023-05-29T15:04:10Z",
                    "email": "augustin.mauroy@outlook.fr",
                    "name": "Augustin Mauroy"
                },
                "comment_count": 0,
                "committer": {
                    "date": "2023-05-29T15:04:10Z",
                    "email": "augustin.mauroy@outlook.fr",
                    "name": "Augustin Mauroy"
                },
                "message": "remove usage `node:`",
                "tree": {
                    "sha": "dd393adb6809b8fc3a60a537b58656dd120a5e53",
                    "url": "https://api.github.com/repos/PrismarineJS/node-minecraft-protocol/git/trees/dd393adb6809b8fc3a60a537b58656dd120a5e53"
                },
                "url": "https://api.github.com/repos/PrismarineJS/node-minecraft-protocol/git/commits/63baf9d76e2e947fe323d956e402220b660c7687",
                "verification": {
                    "payload": null,
                    "reason": "unsigned",
                    "signature": null,
                    "verified": false
                }
            },
            "committer": {
                "avatar_url": "https://avatars.githubusercontent.com/u/97875033?v=4",
                "events_url": "https://api.github.com/users/AugustinMauroy/events{/privacy}",
                "followers_url": "https://api.github.com/users/AugustinMauroy/followers",
                "following_url": "https://api.github.com/users/AugustinMauroy/following{/other_user}",
                "gists_url": "https://api.github.com/users/AugustinMauroy/gists{/gist_id}",
                "gravatar_id": "",
                "html_url": "https://github.com/AugustinMauroy",
                "id": 97875033,
                "login": "AugustinMauroy",
                "node_id": "U_kgDOBdV0WQ",
                "organizations_url": "https://api.github.com/users/AugustinMauroy/orgs",
                "received_events_url": "https://api.github.com/users/AugustinMauroy/received_events",
                "repos_url": "https://api.github.com/users/AugustinMauroy/repos",
                "site_admin": false,
                "starred_url": "https://api.github.com/users/AugustinMauroy/starred{/owner}{/repo}",
                "subscriptions_url": "https://api.github.com/users/AugustinMauroy/subscriptions",
                "type": "User",
                "url": "https://api.github.com/users/AugustinMauroy"
            },
            "html_url": "https://github.com/PrismarineJS/node-minecraft-protocol/commit/63baf9d76e2e947fe323d956e402220b660c7687",
            "node_id": "C_kwDOJlXFldoAKDYzYmFmOWQ3NmUyZTk0N2ZlMzIzZDk1NmU0MDIyMjBiNjYwYzc2ODc",
            "parents": [
                {
                    "html_url": "https://github.com/PrismarineJS/node-minecraft-protocol/commit/6daf99f876cdd5c7019b5c3b8d7157e1fc3ea26a",
                    "sha": "6daf99f876cdd5c7019b5c3b8d7157e1fc3ea26a",
                    "url": "https://api.github.com/repos/PrismarineJS/node-minecraft-protocol/commits/6daf99f876cdd5c7019b5c3b8d7157e1fc3ea26a"
                }
            ],
            "sha": "63baf9d76e2e947fe323d956e402220b660c7687",
            "url": "https://api.github.com/repos/PrismarineJS/node-minecraft-protocol/commits/63baf9d76e2e947fe323d956e402220b660c7687"
        },
        {
            "author": {
                "avatar_url": "https://avatars.githubusercontent.com/u/97875033?v=4",
                "events_url": "https://api.github.com/users/AugustinMauroy/events{/privacy}",
                "followers_url": "https://api.github.com/users/AugustinMauroy/followers",
                "following_url": "https://api.github.com/users/AugustinMauroy/following{/other_user}",
                "gists_url": "https://api.github.com/users/AugustinMauroy/gists{/gist_id}",
                "gravatar_id": "",
                "html_url": "https://github.com/AugustinMauroy",
                "id": 97875033,
                "login": "AugustinMauroy",
                "node_id": "U_kgDOBdV0WQ",
                "organizations_url": "https://api.github.com/users/AugustinMauroy/orgs",
                "received_events_url": "https://api.github.com/users/AugustinMauroy/received_events",
                "repos_url": "https://api.github.com/users/AugustinMauroy/repos",
                "site_admin": false,
                "starred_url": "https://api.github.com/users/AugustinMauroy/starred{/owner}{/repo}",
                "subscriptions_url": "https://api.github.com/users/AugustinMauroy/subscriptions",
                "type": "User",
                "url": "https://api.github.com/users/AugustinMauroy"
            },
            "comments_url": "https://api.github.com/repos/PrismarineJS/node-minecraft-protocol/commits/e392453f1afb77dffc8e3906fa32f9b9dfced9de/comments",
            "commit": {
                "author": {
                    "date": "2023-05-29T15:04:12Z",
                    "email": "augustin.mauroy@outlook.fr",
                    "name": "Augustin Mauroy"
                },
                "comment_count": 0,
                "committer": {
                    "date": "2023-05-29T15:04:12Z",
                    "email": "augustin.mauroy@outlook.fr",
                    "name": "Augustin Mauroy"
                },
                "message": "Merge branch 'master' of https://github.com/AugustinMauroy/node-minecraft-protocol into pr/1224",
                "tree": {
                    "sha": "df935c94cead017d0a2839c61af1493873ed3837",
                    "url": "https://api.github.com/repos/PrismarineJS/node-minecraft-protocol/git/trees/df935c94cead017d0a2839c61af1493873ed3837"
                },
                "url": "https://api.github.com/repos/PrismarineJS/node-minecraft-protocol/git/commits/e392453f1afb77dffc8e3906fa32f9b9dfced9de",
                "verification": {
                    "payload": null,
                    "reason": "unsigned",
                    "signature": null,
                    "verified": false
                }
            },
            "committer": {
                "avatar_url": "https://avatars.githubusercontent.com/u/97875033?v=4",
                "events_url": "https://api.github.com/users/AugustinMauroy/events{/privacy}",
                "followers_url": "https://api.github.com/users/AugustinMauroy/followers",
                "following_url": "https://api.github.com/users/AugustinMauroy/following{/other_user}",
                "gists_url": "https://api.github.com/users/AugustinMauroy/gists{/gist_id}",
                "gravatar_id": "",
                "html_url": "https://github.com/AugustinMauroy",
                "id": 97875033,
                "login": "AugustinMauroy",
                "node_id": "U_kgDOBdV0WQ",
                "organizations_url": "https://api.github.com/users/AugustinMauroy/orgs",
                "received_events_url": "https://api.github.com/users/AugustinMauroy/received_events",
                "repos_url": "https://api.github.com/users/AugustinMauroy/repos",
                "site_admin": false,
                "starred_url": "https://api.github.com/users/AugustinMauroy/starred{/owner}{/repo}",
                "subscriptions_url": "https://api.github.com/users/AugustinMauroy/subscriptions",
                "type": "User",
                "url": "https://api.github.com/users/AugustinMauroy"
            },
            "html_url": "https://github.com/PrismarineJS/node-minecraft-protocol/commit/e392453f1afb77dffc8e3906fa32f9b9dfced9de",
            "node_id": "C_kwDOJlXFldoAKGUzOTI0NTNmMWFmYjc3ZGZmYzhlMzkwNmZhMzJmOWI5ZGZjZWQ5ZGU",
            "parents": [
                {
                    "html_url": "https://github.com/PrismarineJS/node-minecraft-protocol/commit/63baf9d76e2e947fe323d956e402220b660c7687",
                    "sha": "63baf9d76e2e947fe323d956e402220b660c7687",
                    "url": "https://api.github.com/repos/PrismarineJS/node-minecraft-protocol/commits/63baf9d76e2e947fe323d956e402220b660c7687"
                },
                {
                    "html_url": "https://github.com/PrismarineJS/node-minecraft-protocol/commit/e72e7d8b131c97ca29f8227682e79b90953ce7c3",
                    "sha": "e72e7d8b131c97ca29f8227682e79b90953ce7c3",
                    "url": "https://api.github.com/repos/PrismarineJS/node-minecraft-protocol/commits/e72e7d8b131c97ca29f8227682e79b90953ce7c3"
                }
            ],
            "sha": "e392453f1afb77dffc8e3906fa32f9b9dfced9de",
            "url": "https://api.github.com/repos/PrismarineJS/node-minecraft-protocol/commits/e392453f1afb77dffc8e3906fa32f9b9dfced9de"
        },
        {
            "author": {
                "avatar_url": "https://avatars.githubusercontent.com/u/2346494?v=4",
                "events_url": "https://api.github.com/users/rom1504/events{/privacy}",
                "followers_url": "https://api.github.com/users/rom1504/followers",
                "following_url": "https://api.github.com/users/rom1504/following{/other_user}",
                "gists_url": "https://api.github.com/users/rom1504/gists{/gist_id}",
                "gravatar_id": "",
                "html_url": "https://github.com/rom1504",
                "id": 2346494,
                "login": "rom1504",
                "node_id": "MDQ6VXNlcjIzNDY0OTQ=",
                "organizations_url": "https://api.github.com/users/rom1504/orgs",
                "received_events_url": "https://api.github.com/users/rom1504/received_events",
                "repos_url": "https://api.github.com/users/rom1504/repos",
                "site_admin": false,
                "starred_url": "https://api.github.com/users/rom1504/starred{/owner}{/repo}",
                "subscriptions_url": "https://api.github.com/users/rom1504/subscriptions",
                "type": "User",
                "url": "https://api.github.com/users/rom1504"
            },
            "comments_url": "https://api.github.com/repos/PrismarineJS/node-minecraft-protocol/commits/01ff884b6bb0e63e6d20e25682d1294cfd59ab1f/comments",
            "commit": {
                "author": {
                    "date": "2023-06-03T19:49:54Z",
                    "email": "romain.rom1@gmail.com",
                    "name": "Romain Beaumont"
                },
                "comment_count": 0,
                "committer": {
                    "date": "2023-06-03T19:49:54Z",
                    "email": "noreply@github.com",
                    "name": "GitHub"
                },
                "message": "Update packetTest.js",
                "tree": {
                    "sha": "02e8b43940dbedd6e23196a92c6fb928be212731",
                    "url": "https://api.github.com/repos/PrismarineJS/node-minecraft-protocol/git/trees/02e8b43940dbedd6e23196a92c6fb928be212731"
                },
                "url": "https://api.github.com/repos/PrismarineJS/node-minecraft-protocol/git/commits/01ff884b6bb0e63e6d20e25682d1294cfd59ab1f",
                "verification": {
                    "payload": "tree 02e8b43940dbedd6e23196a92c6fb928be212731\nparent e392453f1afb77dffc8e3906fa32f9b9dfced9de\nauthor Romain Beaumont <romain.rom1@gmail.com> 1685821794 +0200\ncommitter GitHub <noreply@github.com> 1685821794 +0200\n\nUpdate packetTest.js",
                    "reason": "valid",
                    "signature": "-----BEGIN PGP SIGNATURE-----\n\nwsBcBAABCAAQBQJke5liCRBK7hj4Ov3rIwAAT90IACTPypZKq284NBwkvRNn+mCf\nrYjjr9sfLUwAlbsRWlnj3iGZBN/4kNV6vKm5AT9ASOeJWUnrFl2iG+W1lUO58TOi\n8NUV6n5OhNdeJqgJXIPkO6xSAnbljnXl457k8pge3TTGwlsbBYJrJQtcn15u6fN+\nxLGqKfmzYIxB288LxJXoOdsxqQ5axdbZjkq00EE7aOhZikFnwkZToYA8ONBZ/ifa\nqhBpb86PfNObl6DREpZWsNqjYS9jn6SYJXQByXjXPQuDvtRPY1ih+klz2sBagBJY\nV9ob7wA3y/OBeTNiql6urZ07SQ7a809l+K+Yix+vX+ov+zpxENEX9OMF39dg5Ac=\n=bNgC\n-----END PGP SIGNATURE-----\n",
                    "verified": true
                }
            },
            "committer": {
                "avatar_url": "https://avatars.githubusercontent.com/u/19864447?v=4",
                "events_url": "https://api.github.com/users/web-flow/events{/privacy}",
                "followers_url": "https://api.github.com/users/web-flow/followers",
                "following_url": "https://api.github.com/users/web-flow/following{/other_user}",
                "gists_url": "https://api.github.com/users/web-flow/gists{/gist_id}",
                "gravatar_id": "",
                "html_url": "https://github.com/web-flow",
                "id": 19864447,
                "login": "web-flow",
                "node_id": "MDQ6VXNlcjE5ODY0NDQ3",
                "organizations_url": "https://api.github.com/users/web-flow/orgs",
                "received_events_url": "https://api.github.com/users/web-flow/received_events",
                "repos_url": "https://api.github.com/users/web-flow/repos",
                "site_admin": false,
                "starred_url": "https://api.github.com/users/web-flow/starred{/owner}{/repo}",
                "subscriptions_url": "https://api.github.com/users/web-flow/subscriptions",
                "type": "User",
                "url": "https://api.github.com/users/web-flow"
            },
            "html_url": "https://github.com/PrismarineJS/node-minecraft-protocol/commit/01ff884b6bb0e63e6d20e25682d1294cfd59ab1f",
            "node_id": "C_kwDOJlXFldoAKDAxZmY4ODRiNmJiMGU2M2U2ZDIwZTI1NjgyZDEyOTRjZmQ1OWFiMWY",
            "parents": [
                {
                    "html_url": "https://github.com/PrismarineJS/node-minecraft-protocol/commit/e392453f1afb77dffc8e3906fa32f9b9dfced9de",
                    "sha": "e392453f1afb77dffc8e3906fa32f9b9dfced9de",
                    "url": "https://api.github.com/repos/PrismarineJS/node-minecraft-protocol/commits/e392453f1afb77dffc8e3906fa32f9b9dfced9de"
                }
            ],
            "sha": "01ff884b6bb0e63e6d20e25682d1294cfd59ab1f",
            "url": "https://api.github.com/repos/PrismarineJS/node-minecraft-protocol/commits/01ff884b6bb0e63e6d20e25682d1294cfd59ab1f"
        },
        {
            "author": {
                "avatar_url": "https://avatars.githubusercontent.com/u/2346494?v=4",
                "events_url": "https://api.github.com/users/rom1504/events{/privacy}",
                "followers_url": "https://api.github.com/users/rom1504/followers",
                "following_url": "https://api.github.com/users/rom1504/following{/other_user}",
                "gists_url": "https://api.github.com/users/rom1504/gists{/gist_id}",
                "gravatar_id": "",
                "html_url": "https://github.com/rom1504",
                "id": 2346494,
                "login": "rom1504",
                "node_id": "MDQ6VXNlcjIzNDY0OTQ=",
                "organizations_url": "https://api.github.com/users/rom1504/orgs",
                "received_events_url": "https://api.github.com/users/rom1504/received_events",
                "repos_url": "https://api.github.com/users/rom1504/repos",
                "site_admin": false,
                "starred_url": "https://api.github.com/users/rom1504/starred{/owner}{/repo}",
                "subscriptions_url": "https://api.github.com/users/rom1504/subscriptions",
                "type": "User",
                "url": "https://api.github.com/users/rom1504"
            },
            "comments_url": "https://api.github.com/repos/PrismarineJS/node-minecraft-protocol/commits/fafe7851ad6e74f8fdbfefca73b7a5c9d9f2ded0/comments",
            "commit": {
                "author": {
                    "date": "2023-06-03T20:07:07Z",
                    "email": "romain.rom1@gmail.com",
                    "name": "Romain Beaumont"
                },
                "comment_count": 0,
                "committer": {
                    "date": "2023-06-03T20:07:07Z",
                    "email": "noreply@github.com",
                    "name": "GitHub"
                },
                "message": "Merge branch 'master' into master",
                "tree": {
                    "sha": "32b559a85ff76cef6f7dbcabe4f46559ced5c10a",
                    "url": "https://api.github.com/repos/PrismarineJS/node-minecraft-protocol/git/trees/32b559a85ff76cef6f7dbcabe4f46559ced5c10a"
                },
                "url": "https://api.github.com/repos/PrismarineJS/node-minecraft-protocol/git/commits/fafe7851ad6e74f8fdbfefca73b7a5c9d9f2ded0",
                "verification": {
                    "payload": "tree 32b559a85ff76cef6f7dbcabe4f46559ced5c10a\nparent 01ff884b6bb0e63e6d20e25682d1294cfd59ab1f\nparent 2f4485d528e92f0fae365823b5539717d0a493de\nauthor Romain Beaumont <romain.rom1@gmail.com> 1685822827 +0200\ncommitter GitHub <noreply@github.com> 1685822827 +0200\n\nMerge branch 'master' into master",
                    "reason": "valid",
                    "signature": "-----BEGIN PGP SIGNATURE-----\n\nwsBcBAABCAAQBQJke51rCRBK7hj4Ov3rIwAAON0IADvQMsRJsrWnsFa2xZOwaRfy\nWkTRL6nYpOFixSktDN+3s3FPpgIc0sqZYv+wsk3ZunSL15kiSSJB5wHpnqVW3V2T\nsvHFDv3OKQzcNwjOq8WGXUcWd7YsR/hJrxqxX5IQZWdvO3A9KnAJgO1g7xRn5YxJ\nNggE5k9am2ML4PKqUGLZmDL4iTQ6ydX9qCp1qWmntWIZHWsrwr/ObylTLqGi+Tfg\nP4CjLzUuu546I9PcxfeSvOF9cygTjlu5KNkqZ+2LxeFTTVf9YF6m1dQnx87FkVtp\nO7GPhM2lwJRegM1B1tCpAAxal1fk97RTRby924Pr19YPMPf2y8/rp9xvTaQfpI4=\n=RFme\n-----END PGP SIGNATURE-----\n",
                    "verified": true
                }
            },
            "committer": {
                "avatar_url": "https://avatars.githubusercontent.com/u/19864447?v=4",
                "events_url": "https://api.github.com/users/web-flow/events{/privacy}",
                "followers_url": "https://api.github.com/users/web-flow/followers",
                "following_url": "https://api.github.com/users/web-flow/following{/other_user}",
                "gists_url": "https://api.github.com/users/web-flow/gists{/gist_id}",
                "gravatar_id": "",
                "html_url": "https://github.com/web-flow",
                "id": 19864447,
                "login": "web-flow",
                "node_id": "MDQ6VXNlcjE5ODY0NDQ3",
                "organizations_url": "https://api.github.com/users/web-flow/orgs",
                "received_events_url": "https://api.github.com/users/web-flow/received_events",
                "repos_url": "https://api.github.com/users/web-flow/repos",
                "site_admin": false,
                "starred_url": "https://api.github.com/users/web-flow/starred{/owner}{/repo}",
                "subscriptions_url": "https://api.github.com/users/web-flow/subscriptions",
                "type": "User",
                "url": "https://api.github.com/users/web-flow"
            },
            "html_url": "https://github.com/PrismarineJS/node-minecraft-protocol/commit/fafe7851ad6e74f8fdbfefca73b7a5c9d9f2ded0",
            "node_id": "C_kwDOJlXFldoAKGZhZmU3ODUxYWQ2ZTc0ZjhmZGJmZWZjYTczYjdhNWM5ZDlmMmRlZDA",
            "parents": [
                {
                    "html_url": "https://github.com/PrismarineJS/node-minecraft-protocol/commit/01ff884b6bb0e63e6d20e25682d1294cfd59ab1f",
                    "sha": "01ff884b6bb0e63e6d20e25682d1294cfd59ab1f",
                    "url": "https://api.github.com/repos/PrismarineJS/node-minecraft-protocol/commits/01ff884b6bb0e63e6d20e25682d1294cfd59ab1f"
                },
                {
                    "html_url": "https://github.com/PrismarineJS/node-minecraft-protocol/commit/2f4485d528e92f0fae365823b5539717d0a493de",
                    "sha": "2f4485d528e92f0fae365823b5539717d0a493de",
                    "url": "https://api.github.com/repos/PrismarineJS/node-minecraft-protocol/commits/2f4485d528e92f0fae365823b5539717d0a493de"
                }
            ],
            "sha": "fafe7851ad6e74f8fdbfefca73b7a5c9d9f2ded0",
            "url": "https://api.github.com/repos/PrismarineJS/node-minecraft-protocol/commits/fafe7851ad6e74f8fdbfefca73b7a5c9d9f2ded0"
        },
        {
            "author": {
                "avatar_url": "https://avatars.githubusercontent.com/u/2346494?v=4",
                "events_url": "https://api.github.com/users/rom1504/events{/privacy}",
                "followers_url": "https://api.github.com/users/rom1504/followers",
                "following_url": "https://api.github.com/users/rom1504/following{/other_user}",
                "gists_url": "https://api.github.com/users/rom1504/gists{/gist_id}",
                "gravatar_id": "",
                "html_url": "https://github.com/rom1504",
                "id": 2346494,
                "login": "rom1504",
                "node_id": "MDQ6VXNlcjIzNDY0OTQ=",
                "organizations_url": "https://api.github.com/users/rom1504/orgs",
                "received_events_url": "https://api.github.com/users/rom1504/received_events",
                "repos_url": "https://api.github.com/users/rom1504/repos",
                "site_admin": false,
                "starred_url": "https://api.github.com/users/rom1504/starred{/owner}{/repo}",
                "subscriptions_url": "https://api.github.com/users/rom1504/subscriptions",
                "type": "User",
                "url": "https://api.github.com/users/rom1504"
            },
            "comments_url": "https://api.github.com/repos/PrismarineJS/node-minecraft-protocol/commits/a363448842e92a600c4bf89484d1b452e4eb82cc/comments",
            "commit": {
                "author": {
                    "date": "2023-06-03T20:07:27Z",
                    "email": "romain.rom1@gmail.com",
                    "name": "Romain Beaumont"
                },
                "comment_count": 0,
                "committer": {
                    "date": "2023-06-03T20:07:27Z",
                    "email": "noreply@github.com",
                    "name": "GitHub"
                },
                "message": "Update client.js",
                "tree": {
                    "sha": "8f7cf1911f18c72db50ed4350b8b696c15a940fe",
                    "url": "https://api.github.com/repos/PrismarineJS/node-minecraft-protocol/git/trees/8f7cf1911f18c72db50ed4350b8b696c15a940fe"
                },
                "url": "https://api.github.com/repos/PrismarineJS/node-minecraft-protocol/git/commits/a363448842e92a600c4bf89484d1b452e4eb82cc",
                "verification": {
                    "payload": "tree 8f7cf1911f18c72db50ed4350b8b696c15a940fe\nparent fafe7851ad6e74f8fdbfefca73b7a5c9d9f2ded0\nauthor Romain Beaumont <romain.rom1@gmail.com> 1685822847 +0200\ncommitter GitHub <noreply@github.com> 1685822847 +0200\n\nUpdate client.js",
                    "reason": "valid",
                    "signature": "-----BEGIN PGP SIGNATURE-----\n\nwsBcBAABCAAQBQJke51/CRBK7hj4Ov3rIwAAxpQIAFJTndIakDmIGgGXstF9QE54\nn5PiT6nEKiyWRgYyVX8z9SM8RK78iiz255b8ehTz5CQQ/CCWrNUTuNf8YBvdVutn\naipN/28MAccctoPC8ddzXgzolZrX1mtFOGJWZ3Bj6k/W8vcgAurOWfwhAhdpZA5d\n9DVbbWNU81F8Ny7pArvUZzcZlpnUzoB8oJQD45TvnazWmqrm0SmsPHHD4/rMGsRP\nJ5YmPq9OypkFG35lMxlbJc0B7TtQClZCXHesK6cF1HVu7FzDviLBz0Wq0GwuAG3q\nhc4sFmys5NYCyYm/nPq6rGotoLbTXZ+CqX9q4P/17/Ymgjk0xKv+3fomWZhRwMk=\n=ug+f\n-----END PGP SIGNATURE-----\n",
                    "verified": true
                }
            },
            "committer": {
                "avatar_url": "https://avatars.githubusercontent.com/u/19864447?v=4",
                "events_url": "https://api.github.com/users/web-flow/events{/privacy}",
                "followers_url": "https://api.github.com/users/web-flow/followers",
                "following_url": "https://api.github.com/users/web-flow/following{/other_user}",
                "gists_url": "https://api.github.com/users/web-flow/gists{/gist_id}",
                "gravatar_id": "",
                "html_url": "https://github.com/web-flow",
                "id": 19864447,
                "login": "web-flow",
                "node_id": "MDQ6VXNlcjE5ODY0NDQ3",
                "organizations_url": "https://api.github.com/users/web-flow/orgs",
                "received_events_url": "https://api.github.com/users/web-flow/received_events",
                "repos_url": "https://api.github.com/users/web-flow/repos",
                "site_admin": false,
                "starred_url": "https://api.github.com/users/web-flow/starred{/owner}{/repo}",
                "subscriptions_url": "https://api.github.com/users/web-flow/subscriptions",
                "type": "User",
                "url": "https://api.github.com/users/web-flow"
            },
            "html_url": "https://github.com/PrismarineJS/node-minecraft-protocol/commit/a363448842e92a600c4bf89484d1b452e4eb82cc",
            "node_id": "C_kwDOJlXFldoAKGEzNjM0NDg4NDJlOTJhNjAwYzRiZjg5NDg0ZDFiNDUyZTRlYjgyY2M",
            "parents": [
                {
                    "html_url": "https://github.com/PrismarineJS/node-minecraft-protocol/commit/fafe7851ad6e74f8fdbfefca73b7a5c9d9f2ded0",
                    "sha": "fafe7851ad6e74f8fdbfefca73b7a5c9d9f2ded0",
                    "url": "https://api.github.com/repos/PrismarineJS/node-minecraft-protocol/commits/fafe7851ad6e74f8fdbfefca73b7a5c9d9f2ded0"
                }
            ],
            "sha": "a363448842e92a600c4bf89484d1b452e4eb82cc",
            "url": "https://api.github.com/repos/PrismarineJS/node-minecraft-protocol/commits/a363448842e92a600c4bf89484d1b452e4eb82cc"
        },
        {
            "author": {
                "avatar_url": "https://avatars.githubusercontent.com/u/2346494?v=4",
                "events_url": "https://api.github.com/users/rom1504/events{/privacy}",
                "followers_url": "https://api.github.com/users/rom1504/followers",
                "following_url": "https://api.github.com/users/rom1504/following{/other_user}",
                "gists_url": "https://api.github.com/users/rom1504/gists{/gist_id}",
                "gravatar_id": "",
                "html_url": "https://github.com/rom1504",
                "id": 2346494,
                "login": "rom1504",
                "node_id": "MDQ6VXNlcjIzNDY0OTQ=",
                "organizations_url": "https://api.github.com/users/rom1504/orgs",
                "received_events_url": "https://api.github.com/users/rom1504/received_events",
                "repos_url": "https://api.github.com/users/rom1504/repos",
                "site_admin": false,
                "starred_url": "https://api.github.com/users/rom1504/starred{/owner}{/repo}",
                "subscriptions_url": "https://api.github.com/users/rom1504/subscriptions",
                "type": "User",
                "url": "https://api.github.com/users/rom1504"
            },
            "comments_url": "https://api.github.com/repos/PrismarineJS/node-minecraft-protocol/commits/9d5736e2a7b561afd8084890fd4f03470d002000/comments",
            "commit": {
                "author": {
                    "date": "2023-06-03T20:14:20Z",
                    "email": "romain.rom1@gmail.com",
                    "name": "Romain Beaumont"
                },
                "comment_count": 0,
                "committer": {
                    "date": "2023-06-03T20:14:20Z",
                    "email": "noreply@github.com",
                    "name": "GitHub"
                },
                "message": "Merge branch 'master' into master",
                "tree": {
                    "sha": "6f2b2721bb4eb8da7a16802c27f3a09cf319f87c",
                    "url": "https://api.github.com/repos/PrismarineJS/node-minecraft-protocol/git/trees/6f2b2721bb4eb8da7a16802c27f3a09cf319f87c"
                },
                "url": "https://api.github.com/repos/PrismarineJS/node-minecraft-protocol/git/commits/9d5736e2a7b561afd8084890fd4f03470d002000",
                "verification": {
                    "payload": "tree 6f2b2721bb4eb8da7a16802c27f3a09cf319f87c\nparent a363448842e92a600c4bf89484d1b452e4eb82cc\nparent 1af5a36fb042a20a07f4bf10935806d5cc471e58\nauthor Romain Beaumont <romain.rom1@gmail.com> 1685823260 +0200\ncommitter GitHub <noreply@github.com> 1685823260 +0200\n\nMerge branch 'master' into master",
                    "reason": "valid",
                    "signature": "-----BEGIN PGP SIGNATURE-----\n\nwsBcBAABCAAQBQJke58cCRBK7hj4Ov3rIwAAm+8IAIq5gDfGTCMCjMqy30OOe98G\nXtLPATQzuE1vTNLOkxpYZMXrKApdAZa+YT7vrDljnbnNo2b2Ll+eCA6ImfRlS2TB\n10lMNdbTGJnX62Cpv7nNtYYSpfURqnP8DML0ZIdp74RvTh5n5kIDOZg7ZYmPvIXl\n6zYE0pigtW03G1w8wv1VQA9QBWDsts9IHserO435WN4zmSlKLWu8hig7mBp05bgV\nNSLrOou573uii2z3iz725WxsRBBcVGmmMKu9jivrD6BBBPXHWnUtz4NYxomiESKR\nVeW8G0av+brkWzrDgnVa4tmS9nj9p3cP5CG4ESmrTHB9GI3lA+FSb8I/xKjZq2E=\n=6F2v\n-----END PGP SIGNATURE-----\n",
                    "verified": true
                }
            },
            "committer": {
                "avatar_url": "https://avatars.githubusercontent.com/u/19864447?v=4",
                "events_url": "https://api.github.com/users/web-flow/events{/privacy}",
                "followers_url": "https://api.github.com/users/web-flow/followers",
                "following_url": "https://api.github.com/users/web-flow/following{/other_user}",
                "gists_url": "https://api.github.com/users/web-flow/gists{/gist_id}",
                "gravatar_id": "",
                "html_url": "https://github.com/web-flow",
                "id": 19864447,
                "login": "web-flow",
                "node_id": "MDQ6VXNlcjE5ODY0NDQ3",
                "organizations_url": "https://api.github.com/users/web-flow/orgs",
                "received_events_url": "https://api.github.com/users/web-flow/received_events",
                "repos_url": "https://api.github.com/users/web-flow/repos",
                "site_admin": false,
                "starred_url": "https://api.github.com/users/web-flow/starred{/owner}{/repo}",
                "subscriptions_url": "https://api.github.com/users/web-flow/subscriptions",
                "type": "User",
                "url": "https://api.github.com/users/web-flow"
            },
            "html_url": "https://github.com/PrismarineJS/node-minecraft-protocol/commit/9d5736e2a7b561afd8084890fd4f03470d002000",
            "node_id": "C_kwDOJlXFldoAKDlkNTczNmUyYTdiNTYxYWZkODA4NDg5MGZkNGYwMzQ3MGQwMDIwMDA",
            "parents": [
                {
                    "html_url": "https://github.com/PrismarineJS/node-minecraft-protocol/commit/a363448842e92a600c4bf89484d1b452e4eb82cc",
                    "sha": "a363448842e92a600c4bf89484d1b452e4eb82cc",
                    "url": "https://api.github.com/repos/PrismarineJS/node-minecraft-protocol/commits/a363448842e92a600c4bf89484d1b452e4eb82cc"
                },
                {
                    "html_url": "https://github.com/PrismarineJS/node-minecraft-protocol/commit/1af5a36fb042a20a07f4bf10935806d5cc471e58",
                    "sha": "1af5a36fb042a20a07f4bf10935806d5cc471e58",
                    "url": "https://api.github.com/repos/PrismarineJS/node-minecraft-protocol/commits/1af5a36fb042a20a07f4bf10935806d5cc471e58"
                }
            ],
            "sha": "9d5736e2a7b561afd8084890fd4f03470d002000",
            "url": "https://api.github.com/repos/PrismarineJS/node-minecraft-protocol/commits/9d5736e2a7b561afd8084890fd4f03470d002000"
        }
    ],
    "commits": 10,
    "commits_url": "https://api.github.com/repos/PrismarineJS/node-minecraft-protocol/pulls/1224/commits",
    "created_at": "2023-05-20T09:15:08Z",
    "deletions": 6,
    "diff_url": "https://github.com/PrismarineJS/node-minecraft-protocol/pull/1224.diff",
    "draft": false,
    "head": {
        "label": "AugustinMauroy:master",
        "ref": "master",
        "repo": {
            "allow_forking": true,
            "archive_url": "https://api.github.com/repos/AugustinMauroy/node-minecraft-protocol/{archive_format}{/ref}",
            "archived": false,
            "assignees_url": "https://api.github.com/repos/AugustinMauroy/node-minecraft-protocol/assignees{/user}",
            "blobs_url": "https://api.github.com/repos/AugustinMauroy/node-minecraft-protocol/git/blobs{/sha}",
            "branches_url": "https://api.github.com/repos/AugustinMauroy/node-minecraft-protocol/branches{/branch}",
            "clone_url": "https://github.com/AugustinMauroy/node-minecraft-protocol.git",
            "collaborators_url": "https://api.github.com/repos/AugustinMauroy/node-minecraft-protocol/collaborators{/collaborator}",
            "comments_url": "https://api.github.com/repos/AugustinMauroy/node-minecraft-protocol/comments{/number}",
            "commits_url": "https://api.github.com/repos/AugustinMauroy/node-minecraft-protocol/commits{/sha}",
            "compare_url": "https://api.github.com/repos/AugustinMauroy/node-minecraft-protocol/compare/{base}...{head}",
            "contents_url": "https://api.github.com/repos/AugustinMauroy/node-minecraft-protocol/contents/{+path}",
            "contributors_url": "https://api.github.com/repos/AugustinMauroy/node-minecraft-protocol/contributors",
            "created_at": "2023-05-20T09:14:45Z",
            "default_branch": "master",
            "deployments_url": "https://api.github.com/repos/AugustinMauroy/node-minecraft-protocol/deployments",
            "description": "Parse and serialize minecraft packets, plus authentication and encryption.",
            "disabled": false,
            "downloads_url": "https://api.github.com/repos/AugustinMauroy/node-minecraft-protocol/downloads",
            "events_url": "https://api.github.com/repos/AugustinMauroy/node-minecraft-protocol/events",
            "fork": true,
            "forks": 0,
            "forks_count": 0,
            "forks_url": "https://api.github.com/repos/AugustinMauroy/node-minecraft-protocol/forks",
            "full_name": "AugustinMauroy/node-minecraft-protocol",
            "git_commits_url": "https://api.github.com/repos/AugustinMauroy/node-minecraft-protocol/git/commits{/sha}",
            "git_refs_url": "https://api.github.com/repos/AugustinMauroy/node-minecraft-protocol/git/refs{/sha}",
            "git_tags_url": "https://api.github.com/repos/AugustinMauroy/node-minecraft-protocol/git/tags{/sha}",
            "git_url": "git://github.com/AugustinMauroy/node-minecraft-protocol.git",
            "has_discussions": false,
            "has_downloads": true,
            "has_issues": false,
            "has_pages": false,
            "has_projects": true,
            "has_wiki": true,
            "homepage": "https://prismarinejs.github.io/node-minecraft-protocol/",
            "hooks_url": "https://api.github.com/repos/AugustinMauroy/node-minecraft-protocol/hooks",
            "html_url": "https://github.com/AugustinMauroy/node-minecraft-protocol",
            "id": 643155349,
            "is_template": false,
            "issue_comment_url": "https://api.github.com/repos/AugustinMauroy/node-minecraft-protocol/issues/comments{/number}",
            "issue_events_url": "https://api.github.com/repos/AugustinMauroy/node-minecraft-protocol/issues/events{/number}",
            "issues_url": "https://api.github.com/repos/AugustinMauroy/node-minecraft-protocol/issues{/number}",
            "keys_url": "https://api.github.com/repos/AugustinMauroy/node-minecraft-protocol/keys{/key_id}",
            "labels_url": "https://api.github.com/repos/AugustinMauroy/node-minecraft-protocol/labels{/name}",
            "language": "JavaScript",
            "languages_url": "https://api.github.com/repos/AugustinMauroy/node-minecraft-protocol/languages",
            "license": {
                "key": "bsd-3-clause",
                "name": "BSD 3-Clause \"New\" or \"Revised\" License",
                "node_id": "MDc6TGljZW5zZTU=",
                "spdx_id": "BSD-3-Clause",
                "url": "https://api.github.com/licenses/bsd-3-clause"
            },
            "merges_url": "https://api.github.com/repos/AugustinMauroy/node-minecraft-protocol/merges",
            "milestones_url": "https://api.github.com/repos/AugustinMauroy/node-minecraft-protocol/milestones{/number}",
            "mirror_url": null,
            "name": "node-minecraft-protocol",
            "node_id": "R_kgDOJlXFlQ",
            "notifications_url": "https://api.github.com/repos/AugustinMauroy/node-minecraft-protocol/notifications{?since,all,participating}",
            "open_issues": 0,
            "open_issues_count": 0,
            "owner": {
                "avatar_url": "https://avatars.githubusercontent.com/u/97875033?v=4",
                "events_url": "https://api.github.com/users/AugustinMauroy/events{/privacy}",
                "followers_url": "https://api.github.com/users/AugustinMauroy/followers",
                "following_url": "https://api.github.com/users/AugustinMauroy/following{/other_user}",
                "gists_url": "https://api.github.com/users/AugustinMauroy/gists{/gist_id}",
                "gravatar_id": "",
                "html_url": "https://github.com/AugustinMauroy",
                "id": 97875033,
                "login": "AugustinMauroy",
                "node_id": "U_kgDOBdV0WQ",
                "organizations_url": "https://api.github.com/users/AugustinMauroy/orgs",
                "received_events_url": "https://api.github.com/users/AugustinMauroy/received_events",
                "repos_url": "https://api.github.com/users/AugustinMauroy/repos",
                "site_admin": false,
                "starred_url": "https://api.github.com/users/AugustinMauroy/starred{/owner}{/repo}",
                "subscriptions_url": "https://api.github.com/users/AugustinMauroy/subscriptions",
                "type": "User",
                "url": "https://api.github.com/users/AugustinMauroy"
            },
            "private": false,
            "pulls_url": "https://api.github.com/repos/AugustinMauroy/node-minecraft-protocol/pulls{/number}",
            "pushed_at": "2023-06-03T20:14:20Z",
            "releases_url": "https://api.github.com/repos/AugustinMauroy/node-minecraft-protocol/releases{/id}",
            "size": 1838,
            "ssh_url": "git@github.com:AugustinMauroy/node-minecraft-protocol.git",
            "stargazers_count": 0,
            "stargazers_url": "https://api.github.com/repos/AugustinMauroy/node-minecraft-protocol/stargazers",
            "statuses_url": "https://api.github.com/repos/AugustinMauroy/node-minecraft-protocol/statuses/{sha}",
            "subscribers_url": "https://api.github.com/repos/AugustinMauroy/node-minecraft-protocol/subscribers",
            "subscription_url": "https://api.github.com/repos/AugustinMauroy/node-minecraft-protocol/subscription",
            "svn_url": "https://github.com/AugustinMauroy/node-minecraft-protocol",
            "tags_url": "https://api.github.com/repos/AugustinMauroy/node-minecraft-protocol/tags",
            "teams_url": "https://api.github.com/repos/AugustinMauroy/node-minecraft-protocol/teams",
            "topics": [],
            "trees_url": "https://api.github.com/repos/AugustinMauroy/node-minecraft-protocol/git/trees{/sha}",
            "updated_at": "2023-05-20T09:14:55Z",
            "url": "https://api.github.com/repos/AugustinMauroy/node-minecraft-protocol",
            "visibility": "public",
            "watchers": 0,
            "watchers_count": 0,
            "web_commit_signoff_required": false
        },
        "sha": "9d5736e2a7b561afd8084890fd4f03470d002000",
        "user": {
            "avatar_url": "https://avatars.githubusercontent.com/u/97875033?v=4",
            "events_url": "https://api.github.com/users/AugustinMauroy/events{/privacy}",
            "followers_url": "https://api.github.com/users/AugustinMauroy/followers",
            "following_url": "https://api.github.com/users/AugustinMauroy/following{/other_user}",
            "gists_url": "https://api.github.com/users/AugustinMauroy/gists{/gist_id}",
            "gravatar_id": "",
            "html_url": "https://github.com/AugustinMauroy",
            "id": 97875033,
            "login": "AugustinMauroy",
            "node_id": "U_kgDOBdV0WQ",
            "organizations_url": "https://api.github.com/users/AugustinMauroy/orgs",
            "received_events_url": "https://api.github.com/users/AugustinMauroy/received_events",
            "repos_url": "https://api.github.com/users/AugustinMauroy/repos",
            "site_admin": false,
            "starred_url": "https://api.github.com/users/AugustinMauroy/starred{/owner}{/repo}",
            "subscriptions_url": "https://api.github.com/users/AugustinMauroy/subscriptions",
            "type": "User",
            "url": "https://api.github.com/users/AugustinMauroy"
        }
    },
    "html_url": "https://github.com/PrismarineJS/node-minecraft-protocol/pull/1224",
    "id": 1357911375,
    "issue_url": "https://api.github.com/repos/PrismarineJS/node-minecraft-protocol/issues/1224",
    "labels": [],
    "locked": false,
    "maintainer_can_modify": false,
    "merge_commit_sha": "1376cf6a317d0156b188744068658ae6f7d93299",
    "mergeable": null,
    "mergeable_state": "unknown",
    "merged": true,
    "merged_at": "2023-06-03T21:17:27Z",
    "merged_by": {
        "avatar_url": "https://avatars.githubusercontent.com/u/2346494?v=4",
        "events_url": "https://api.github.com/users/rom1504/events{/privacy}",
        "followers_url": "https://api.github.com/users/rom1504/followers",
        "following_url": "https://api.github.com/users/rom1504/following{/other_user}",
        "gists_url": "https://api.github.com/users/rom1504/gists{/gist_id}",
        "gravatar_id": "",
        "html_url": "https://github.com/rom1504",
        "id": 2346494,
        "login": "rom1504",
        "node_id": "MDQ6VXNlcjIzNDY0OTQ=",
        "organizations_url": "https://api.github.com/users/rom1504/orgs",
        "received_events_url": "https://api.github.com/users/rom1504/received_events",
        "repos_url": "https://api.github.com/users/rom1504/repos",
        "site_admin": false,
        "starred_url": "https://api.github.com/users/rom1504/starred{/owner}{/repo}",
        "subscriptions_url": "https://api.github.com/users/rom1504/subscriptions",
        "type": "User",
        "url": "https://api.github.com/users/rom1504"
    },
    "milestone": null,
    "node_id": "PR_kwDOAHDUK85Q8BVP",
    "number": 1224,
    "patch_url": "https://github.com/PrismarineJS/node-minecraft-protocol/pull/1224.patch",
    "rebaseable": null,
    "requested_reviewers": [],
    "requested_teams": [],
    "review_comment_url": "https://api.github.com/repos/PrismarineJS/node-minecraft-protocol/pulls/comments{/number}",
    "review_comments": 0,
    "review_comments_url": "https://api.github.com/repos/PrismarineJS/node-minecraft-protocol/pulls/1224/comments",
    "state": "closed",
    "statuses_url": "https://api.github.com/repos/PrismarineJS/node-minecraft-protocol/statuses/9d5736e2a7b561afd8084890fd4f03470d002000",
    "title": "chore(runtime): use LTS V18",
    "updated_at": "2023-06-03T21:22:45Z",
    "url": "https://api.github.com/repos/PrismarineJS/node-minecraft-protocol/pulls/1224",
    "user": {
        "avatar_url": "https://avatars.githubusercontent.com/u/97875033?v=4",
        "events_url": "https://api.github.com/users/AugustinMauroy/events{/privacy}",
        "followers_url": "https://api.github.com/users/AugustinMauroy/followers",
        "following_url": "https://api.github.com/users/AugustinMauroy/following{/other_user}",
        "gists_url": "https://api.github.com/users/AugustinMauroy/gists{/gist_id}",
        "gravatar_id": "",
        "html_url": "https://github.com/AugustinMauroy",
        "id": 97875033,
        "login": "AugustinMauroy",
        "node_id": "U_kgDOBdV0WQ",
        "organizations_url": "https://api.github.com/users/AugustinMauroy/orgs",
        "received_events_url": "https://api.github.com/users/AugustinMauroy/received_events",
        "repos_url": "https://api.github.com/users/AugustinMauroy/repos",
        "site_admin": false,
        "starred_url": "https://api.github.com/users/AugustinMauroy/starred{/owner}{/repo}",
        "subscriptions_url": "https://api.github.com/users/AugustinMauroy/subscriptions",
        "type": "User",
        "url": "https://api.github.com/users/AugustinMauroy"
    }
}