{
    "_links": {
        "comments": {
            "href": "https://api.github.com/repos/PrismarineJS/node-minecraft-protocol/issues/124/comments"
        },
        "commits": {
            "href": "https://api.github.com/repos/PrismarineJS/node-minecraft-protocol/pulls/124/commits"
        },
        "html": {
            "href": "https://github.com/PrismarineJS/node-minecraft-protocol/pull/124"
        },
        "issue": {
            "href": "https://api.github.com/repos/PrismarineJS/node-minecraft-protocol/issues/124"
        },
        "review_comment": {
            "href": "https://api.github.com/repos/PrismarineJS/node-minecraft-protocol/pulls/comments{/number}"
        },
        "review_comments": {
            "href": "https://api.github.com/repos/PrismarineJS/node-minecraft-protocol/pulls/124/comments"
        },
        "self": {
            "href": "https://api.github.com/repos/PrismarineJS/node-minecraft-protocol/pulls/124"
        },
        "statuses": {
            "href": "https://api.github.com/repos/PrismarineJS/node-minecraft-protocol/statuses/50ad0211a535f6336506deb1784e2e63a7910d12"
        }
    },
    "active_lock_reason": null,
    "additions": 3,
    "assignee": null,
    "assignees": [],
    "author_association": "MEMBER",
    "auto_merge": null,
    "base": {
        "label": "PrismarineJS:master",
        "ref": "master",
        "repo": {
            "allow_forking": true,
            "archive_url": "https://api.github.com/repos/PrismarineJS/node-minecraft-protocol/{archive_format}{/ref}",
            "archived": false,
            "assignees_url": "https://api.github.com/repos/PrismarineJS/node-minecraft-protocol/assignees{/user}",
            "blobs_url": "https://api.github.com/repos/PrismarineJS/node-minecraft-protocol/git/blobs{/sha}",
            "branches_url": "https://api.github.com/repos/PrismarineJS/node-minecraft-protocol/branches{/branch}",
            "clone_url": "https://github.com/PrismarineJS/node-minecraft-protocol.git",
            "collaborators_url": "https://api.github.com/repos/PrismarineJS/node-minecraft-protocol/collaborators{/collaborator}",
            "comments_url": "https://api.github.com/repos/PrismarineJS/node-minecraft-protocol/comments{/number}",
            "commits_url": "https://api.github.com/repos/PrismarineJS/node-minecraft-protocol/commits{/sha}",
            "compare_url": "https://api.github.com/repos/PrismarineJS/node-minecraft-protocol/compare/{base}...{head}",
            "contents_url": "https://api.github.com/repos/PrismarineJS/node-minecraft-protocol/contents/{+path}",
            "contributors_url": "https://api.github.com/repos/PrismarineJS/node-minecraft-protocol/contributors",
            "created_at": "2013-01-01T09:17:05Z",
            "default_branch": "master",
            "deployments_url": "https://api.github.com/repos/PrismarineJS/node-minecraft-protocol/deployments",
            "description": "Parse and serialize minecraft packets, plus authentication and encryption.",
            "disabled": false,
            "downloads_url": "https://api.github.com/repos/PrismarineJS/node-minecraft-protocol/downloads",
            "events_url": "https://api.github.com/repos/PrismarineJS/node-minecraft-protocol/events",
            "fork": false,
            "forks": 222,
            "forks_count": 222,
            "forks_url": "https://api.github.com/repos/PrismarineJS/node-minecraft-protocol/forks",
            "full_name": "PrismarineJS/node-minecraft-protocol",
            "git_commits_url": "https://api.github.com/repos/PrismarineJS/node-minecraft-protocol/git/commits{/sha}",
            "git_refs_url": "https://api.github.com/repos/PrismarineJS/node-minecraft-protocol/git/refs{/sha}",
            "git_tags_url": "https://api.github.com/repos/PrismarineJS/node-minecraft-protocol/git/tags{/sha}",
            "git_url": "git://github.com/PrismarineJS/node-minecraft-protocol.git",
            "has_discussions": false,
            "has_downloads": true,
            "has_issues": true,
            "has_pages": true,
            "has_projects": true,
            "has_wiki": true,
            "homepage": "https://prismarinejs.github.io/node-minecraft-protocol/",
            "hooks_url": "https://api.github.com/repos/PrismarineJS/node-minecraft-protocol/hooks",
            "html_url": "https://github.com/PrismarineJS/node-minecraft-protocol",
            "id": 7394347,
            "is_template": false,
            "issue_comment_url": "https://api.github.com/repos/PrismarineJS/node-minecraft-protocol/issues/comments{/number}",
            "issue_events_url": "https://api.github.com/repos/PrismarineJS/node-minecraft-protocol/issues/events{/number}",
            "issues_url": "https://api.github.com/repos/PrismarineJS/node-minecraft-protocol/issues{/number}",
            "keys_url": "https://api.github.com/repos/PrismarineJS/node-minecraft-protocol/keys{/key_id}",
            "labels_url": "https://api.github.com/repos/PrismarineJS/node-minecraft-protocol/labels{/name}",
            "language": "JavaScript",
            "languages_url": "https://api.github.com/repos/PrismarineJS/node-minecraft-protocol/languages",
            "license": {
                "key": "bsd-3-clause",
                "name": "BSD 3-Clause \"New\" or \"Revised\" License",
                "node_id": "MDc6TGljZW5zZTU=",
                "spdx_id": "BSD-3-Clause",
                "url": "https://api.github.com/licenses/bsd-3-clause"
            },
            "merges_url": "https://api.github.com/repos/PrismarineJS/node-minecraft-protocol/merges",
            "milestones_url": "https://api.github.com/repos/PrismarineJS/node-minecraft-protocol/milestones{/number}",
            "mirror_url": null,
            "name": "node-minecraft-protocol",
            "node_id": "MDEwOlJlcG9zaXRvcnk3Mzk0MzQ3",
            "notifications_url": "https://api.github.com/repos/PrismarineJS/node-minecraft-protocol/notifications{?since,all,participating}",
            "open_issues": 92,
            "open_issues_count": 92,
            "owner": {
                "avatar_url": "https://avatars.githubusercontent.com/u/11053411?v=4",
                "events_url": "https://api.github.com/users/PrismarineJS/events{/privacy}",
                "followers_url": "https://api.github.com/users/PrismarineJS/followers",
                "following_url": "https://api.github.com/users/PrismarineJS/following{/other_user}",
                "gists_url": "https://api.github.com/users/PrismarineJS/gists{/gist_id}",
                "gravatar_id": "",
                "html_url": "https://github.com/PrismarineJS",
                "id": 11053411,
                "login": "PrismarineJS",
                "node_id": "MDEyOk9yZ2FuaXphdGlvbjExMDUzNDEx",
                "organizations_url": "https://api.github.com/users/PrismarineJS/orgs",
                "received_events_url": "https://api.github.com/users/PrismarineJS/received_events",
                "repos_url": "https://api.github.com/users/PrismarineJS/repos",
                "site_admin": false,
                "starred_url": "https://api.github.com/users/PrismarineJS/starred{/owner}{/repo}",
                "subscriptions_url": "https://api.github.com/users/PrismarineJS/subscriptions",
                "type": "Organization",
                "url": "https://api.github.com/users/PrismarineJS"
            },
            "private": false,
            "pulls_url": "https://api.github.com/repos/PrismarineJS/node-minecraft-protocol/pulls{/number}",
            "pushed_at": "2023-04-22T09:19:41Z",
            "releases_url": "https://api.github.com/repos/PrismarineJS/node-minecraft-protocol/releases{/id}",
            "size": 1785,
            "ssh_url": "git@github.com:PrismarineJS/node-minecraft-protocol.git",
            "stargazers_count": 1063,
            "stargazers_url": "https://api.github.com/repos/PrismarineJS/node-minecraft-protocol/stargazers",
            "statuses_url": "https://api.github.com/repos/PrismarineJS/node-minecraft-protocol/statuses/{sha}",
            "subscribers_url": "https://api.github.com/repos/PrismarineJS/node-minecraft-protocol/subscribers",
            "subscription_url": "https://api.github.com/repos/PrismarineJS/node-minecraft-protocol/subscription",
            "svn_url": "https://github.com/PrismarineJS/node-minecraft-protocol",
            "tags_url": "https://api.github.com/repos/PrismarineJS/node-minecraft-protocol/tags",
            "teams_url": "https://api.github.com/repos/PrismarineJS/node-minecraft-protocol/teams",
            "topics": [
                "client",
                "minecraft",
                "network",
                "packets",
                "protocol",
                "proxy",
                "server"
            ],
            "trees_url": "https://api.github.com/repos/PrismarineJS/node-minecraft-protocol/git/trees{/sha}",
            "updated_at": "2023-04-22T17:20:34Z",
            "url": "https://api.github.com/repos/PrismarineJS/node-minecraft-protocol",
            "visibility": "public",
            "watchers": 1063,
            "watchers_count": 1063,
            "web_commit_signoff_required": false
        },
        "sha": "b076f97627c116513229cf9f458ed84f4e2532db",
        "user": {
            "avatar_url": "https://avatars.githubusercontent.com/u/11053411?v=4",
            "events_url": "https://api.github.com/users/PrismarineJS/events{/privacy}",
            "followers_url": "https://api.github.com/users/PrismarineJS/followers",
            "following_url": "https://api.github.com/users/PrismarineJS/following{/other_user}",
            "gists_url": "https://api.github.com/users/PrismarineJS/gists{/gist_id}",
            "gravatar_id": "",
            "html_url": "https://github.com/PrismarineJS",
            "id": 11053411,
            "login": "PrismarineJS",
            "node_id": "MDEyOk9yZ2FuaXphdGlvbjExMDUzNDEx",
            "organizations_url": "https://api.github.com/users/PrismarineJS/orgs",
            "received_events_url": "https://api.github.com/users/PrismarineJS/received_events",
            "repos_url": "https://api.github.com/users/PrismarineJS/repos",
            "site_admin": false,
            "starred_url": "https://api.github.com/users/PrismarineJS/starred{/owner}{/repo}",
            "subscriptions_url": "https://api.github.com/users/PrismarineJS/subscriptions",
            "type": "Organization",
            "url": "https://api.github.com/users/PrismarineJS"
        }
    },
    "body": "ursa-purejs simply contains rsa-wrap.js, and all of URSA's original tests to make sure they return 1:1 the same.\n",
    "changed_files": 3,
    "closed_at": "2015-03-07T02:19:29Z",
    "comment_data": [],
    "comment_regular_data": [],
    "comments": 0,
    "comments_url": "https://api.github.com/repos/PrismarineJS/node-minecraft-protocol/issues/124/comments",
    "commit_data": [
        {
            "author": {
                "avatar_url": "https://avatars.githubusercontent.com/u/1069318?v=4",
                "events_url": "https://api.github.com/users/roblabla/events{/privacy}",
                "followers_url": "https://api.github.com/users/roblabla/followers",
                "following_url": "https://api.github.com/users/roblabla/following{/other_user}",
                "gists_url": "https://api.github.com/users/roblabla/gists{/gist_id}",
                "gravatar_id": "",
                "html_url": "https://github.com/roblabla",
                "id": 1069318,
                "login": "roblabla",
                "node_id": "MDQ6VXNlcjEwNjkzMTg=",
                "organizations_url": "https://api.github.com/users/roblabla/orgs",
                "received_events_url": "https://api.github.com/users/roblabla/received_events",
                "repos_url": "https://api.github.com/users/roblabla/repos",
                "site_admin": false,
                "starred_url": "https://api.github.com/users/roblabla/starred{/owner}{/repo}",
                "subscriptions_url": "https://api.github.com/users/roblabla/subscriptions",
                "type": "User",
                "url": "https://api.github.com/users/roblabla"
            },
            "comments_url": "https://api.github.com/repos/PrismarineJS/node-minecraft-protocol/commits/50ad0211a535f6336506deb1784e2e63a7910d12/comments",
            "commit": {
                "author": {
                    "date": "2015-03-07T00:36:06Z",
                    "email": "robinlambertz+dev@gmail.com",
                    "name": "roblabla"
                },
                "comment_count": 0,
                "committer": {
                    "date": "2015-03-07T00:36:06Z",
                    "email": "robinlambertz+dev@gmail.com",
                    "name": "roblabla"
                },
                "message": "Externalize rsa-wrap to a separate module",
                "tree": {
                    "sha": "4ea3c96f8019f5dab25aa67e19272db6cf17bffc",
                    "url": "https://api.github.com/repos/PrismarineJS/node-minecraft-protocol/git/trees/4ea3c96f8019f5dab25aa67e19272db6cf17bffc"
                },
                "url": "https://api.github.com/repos/PrismarineJS/node-minecraft-protocol/git/commits/50ad0211a535f6336506deb1784e2e63a7910d12",
                "verification": {
                    "payload": null,
                    "reason": "unsigned",
                    "signature": null,
                    "verified": false
                }
            },
            "committer": {
                "avatar_url": "https://avatars.githubusercontent.com/u/1069318?v=4",
                "events_url": "https://api.github.com/users/roblabla/events{/privacy}",
                "followers_url": "https://api.github.com/users/roblabla/followers",
                "following_url": "https://api.github.com/users/roblabla/following{/other_user}",
                "gists_url": "https://api.github.com/users/roblabla/gists{/gist_id}",
                "gravatar_id": "",
                "html_url": "https://github.com/roblabla",
                "id": 1069318,
                "login": "roblabla",
                "node_id": "MDQ6VXNlcjEwNjkzMTg=",
                "organizations_url": "https://api.github.com/users/roblabla/orgs",
                "received_events_url": "https://api.github.com/users/roblabla/received_events",
                "repos_url": "https://api.github.com/users/roblabla/repos",
                "site_admin": false,
                "starred_url": "https://api.github.com/users/roblabla/starred{/owner}{/repo}",
                "subscriptions_url": "https://api.github.com/users/roblabla/subscriptions",
                "type": "User",
                "url": "https://api.github.com/users/roblabla"
            },
            "html_url": "https://github.com/PrismarineJS/node-minecraft-protocol/commit/50ad0211a535f6336506deb1784e2e63a7910d12",
            "node_id": "MDY6Q29tbWl0Nzg0Mjg1MTo1MGFkMDIxMWE1MzVmNjMzNjUwNmRlYjE3ODRlMmU2M2E3OTEwZDEy",
            "parents": [
                {
                    "html_url": "https://github.com/PrismarineJS/node-minecraft-protocol/commit/b076f97627c116513229cf9f458ed84f4e2532db",
                    "sha": "b076f97627c116513229cf9f458ed84f4e2532db",
                    "url": "https://api.github.com/repos/PrismarineJS/node-minecraft-protocol/commits/b076f97627c116513229cf9f458ed84f4e2532db"
                }
            ],
            "sha": "50ad0211a535f6336506deb1784e2e63a7910d12",
            "url": "https://api.github.com/repos/PrismarineJS/node-minecraft-protocol/commits/50ad0211a535f6336506deb1784e2e63a7910d12"
        }
    ],
    "commits": 1,
    "commits_url": "https://api.github.com/repos/PrismarineJS/node-minecraft-protocol/pulls/124/commits",
    "created_at": "2015-03-07T00:37:55Z",
    "deletions": 653,
    "diff_url": "https://github.com/PrismarineJS/node-minecraft-protocol/pull/124.diff",
    "draft": false,
    "head": {
        "label": "roblabla:feature-ursa-purejs-module",
        "ref": "feature-ursa-purejs-module",
        "repo": {
            "allow_forking": true,
            "archive_url": "https://api.github.com/repos/roblabla/node-minecraft-protocol/{archive_format}{/ref}",
            "archived": false,
            "assignees_url": "https://api.github.com/repos/roblabla/node-minecraft-protocol/assignees{/user}",
            "blobs_url": "https://api.github.com/repos/roblabla/node-minecraft-protocol/git/blobs{/sha}",
            "branches_url": "https://api.github.com/repos/roblabla/node-minecraft-protocol/branches{/branch}",
            "clone_url": "https://github.com/roblabla/node-minecraft-protocol.git",
            "collaborators_url": "https://api.github.com/repos/roblabla/node-minecraft-protocol/collaborators{/collaborator}",
            "comments_url": "https://api.github.com/repos/roblabla/node-minecraft-protocol/comments{/number}",
            "commits_url": "https://api.github.com/repos/roblabla/node-minecraft-protocol/commits{/sha}",
            "compare_url": "https://api.github.com/repos/roblabla/node-minecraft-protocol/compare/{base}...{head}",
            "contents_url": "https://api.github.com/repos/roblabla/node-minecraft-protocol/contents/{+path}",
            "contributors_url": "https://api.github.com/repos/roblabla/node-minecraft-protocol/contributors",
            "created_at": "2013-01-26T19:58:42Z",
            "default_branch": "master",
            "deployments_url": "https://api.github.com/repos/roblabla/node-minecraft-protocol/deployments",
            "description": "Parse and serialize minecraft packets, plus authentication and encryption.",
            "disabled": false,
            "downloads_url": "https://api.github.com/repos/roblabla/node-minecraft-protocol/downloads",
            "events_url": "https://api.github.com/repos/roblabla/node-minecraft-protocol/events",
            "fork": true,
            "forks": 2,
            "forks_count": 2,
            "forks_url": "https://api.github.com/repos/roblabla/node-minecraft-protocol/forks",
            "full_name": "roblabla/node-minecraft-protocol",
            "git_commits_url": "https://api.github.com/repos/roblabla/node-minecraft-protocol/git/commits{/sha}",
            "git_refs_url": "https://api.github.com/repos/roblabla/node-minecraft-protocol/git/refs{/sha}",
            "git_tags_url": "https://api.github.com/repos/roblabla/node-minecraft-protocol/git/tags{/sha}",
            "git_url": "git://github.com/roblabla/node-minecraft-protocol.git",
            "has_discussions": false,
            "has_downloads": true,
            "has_issues": false,
            "has_pages": false,
            "has_projects": true,
            "has_wiki": true,
            "homepage": "",
            "hooks_url": "https://api.github.com/repos/roblabla/node-minecraft-protocol/hooks",
            "html_url": "https://github.com/roblabla/node-minecraft-protocol",
            "id": 7842851,
            "is_template": false,
            "issue_comment_url": "https://api.github.com/repos/roblabla/node-minecraft-protocol/issues/comments{/number}",
            "issue_events_url": "https://api.github.com/repos/roblabla/node-minecraft-protocol/issues/events{/number}",
            "issues_url": "https://api.github.com/repos/roblabla/node-minecraft-protocol/issues{/number}",
            "keys_url": "https://api.github.com/repos/roblabla/node-minecraft-protocol/keys{/key_id}",
            "labels_url": "https://api.github.com/repos/roblabla/node-minecraft-protocol/labels{/name}",
            "language": "JavaScript",
            "languages_url": "https://api.github.com/repos/roblabla/node-minecraft-protocol/languages",
            "license": null,
            "merges_url": "https://api.github.com/repos/roblabla/node-minecraft-protocol/merges",
            "milestones_url": "https://api.github.com/repos/roblabla/node-minecraft-protocol/milestones{/number}",
            "mirror_url": null,
            "name": "node-minecraft-protocol",
            "node_id": "MDEwOlJlcG9zaXRvcnk3ODQyODUx",
            "notifications_url": "https://api.github.com/repos/roblabla/node-minecraft-protocol/notifications{?since,all,participating}",
            "open_issues": 0,
            "open_issues_count": 0,
            "owner": {
                "avatar_url": "https://avatars.githubusercontent.com/u/1069318?v=4",
                "events_url": "https://api.github.com/users/roblabla/events{/privacy}",
                "followers_url": "https://api.github.com/users/roblabla/followers",
                "following_url": "https://api.github.com/users/roblabla/following{/other_user}",
                "gists_url": "https://api.github.com/users/roblabla/gists{/gist_id}",
                "gravatar_id": "",
                "html_url": "https://github.com/roblabla",
                "id": 1069318,
                "login": "roblabla",
                "node_id": "MDQ6VXNlcjEwNjkzMTg=",
                "organizations_url": "https://api.github.com/users/roblabla/orgs",
                "received_events_url": "https://api.github.com/users/roblabla/received_events",
                "repos_url": "https://api.github.com/users/roblabla/repos",
                "site_admin": false,
                "starred_url": "https://api.github.com/users/roblabla/starred{/owner}{/repo}",
                "subscriptions_url": "https://api.github.com/users/roblabla/subscriptions",
                "type": "User",
                "url": "https://api.github.com/users/roblabla"
            },
            "private": false,
            "pulls_url": "https://api.github.com/repos/roblabla/node-minecraft-protocol/pulls{/number}",
            "pushed_at": "2017-02-27T12:20:11Z",
            "releases_url": "https://api.github.com/repos/roblabla/node-minecraft-protocol/releases{/id}",
            "size": 1009,
            "ssh_url": "git@github.com:roblabla/node-minecraft-protocol.git",
            "stargazers_count": 3,
            "stargazers_url": "https://api.github.com/repos/roblabla/node-minecraft-protocol/stargazers",
            "statuses_url": "https://api.github.com/repos/roblabla/node-minecraft-protocol/statuses/{sha}",
            "subscribers_url": "https://api.github.com/repos/roblabla/node-minecraft-protocol/subscribers",
            "subscription_url": "https://api.github.com/repos/roblabla/node-minecraft-protocol/subscription",
            "svn_url": "https://github.com/roblabla/node-minecraft-protocol",
            "tags_url": "https://api.github.com/repos/roblabla/node-minecraft-protocol/tags",
            "teams_url": "https://api.github.com/repos/roblabla/node-minecraft-protocol/teams",
            "topics": [],
            "trees_url": "https://api.github.com/repos/roblabla/node-minecraft-protocol/git/trees{/sha}",
            "updated_at": "2015-05-04T12:50:57Z",
            "url": "https://api.github.com/repos/roblabla/node-minecraft-protocol",
            "visibility": "public",
            "watchers": 3,
            "watchers_count": 3,
            "web_commit_signoff_required": false
        },
        "sha": "50ad0211a535f6336506deb1784e2e63a7910d12",
        "user": {
            "avatar_url": "https://avatars.githubusercontent.com/u/1069318?v=4",
            "events_url": "https://api.github.com/users/roblabla/events{/privacy}",
            "followers_url": "https://api.github.com/users/roblabla/followers",
            "following_url": "https://api.github.com/users/roblabla/following{/other_user}",
            "gists_url": "https://api.github.com/users/roblabla/gists{/gist_id}",
            "gravatar_id": "",
            "html_url": "https://github.com/roblabla",
            "id": 1069318,
            "login": "roblabla",
            "node_id": "MDQ6VXNlcjEwNjkzMTg=",
            "organizations_url": "https://api.github.com/users/roblabla/orgs",
            "received_events_url": "https://api.github.com/users/roblabla/received_events",
            "repos_url": "https://api.github.com/users/roblabla/repos",
            "site_admin": false,
            "starred_url": "https://api.github.com/users/roblabla/starred{/owner}{/repo}",
            "subscriptions_url": "https://api.github.com/users/roblabla/subscriptions",
            "type": "User",
            "url": "https://api.github.com/users/roblabla"
        }
    },
    "html_url": "https://github.com/PrismarineJS/node-minecraft-protocol/pull/124",
    "id": 30692355,
    "issue_url": "https://api.github.com/repos/PrismarineJS/node-minecraft-protocol/issues/124",
    "labels": [],
    "locked": false,
    "maintainer_can_modify": false,
    "merge_commit_sha": "77fd7941592d1fccce746f3a4d47fe2a40a658fd",
    "mergeable": null,
    "mergeable_state": "unknown",
    "merged": true,
    "merged_at": "2015-03-07T02:19:29Z",
    "merged_by": {
        "avatar_url": "https://avatars.githubusercontent.com/u/1270100?v=4",
        "events_url": "https://api.github.com/users/wtfaremyinitials/events{/privacy}",
        "followers_url": "https://api.github.com/users/wtfaremyinitials/followers",
        "following_url": "https://api.github.com/users/wtfaremyinitials/following{/other_user}",
        "gists_url": "https://api.github.com/users/wtfaremyinitials/gists{/gist_id}",
        "gravatar_id": "",
        "html_url": "https://github.com/wtfaremyinitials",
        "id": 1270100,
        "login": "wtfaremyinitials",
        "node_id": "MDQ6VXNlcjEyNzAxMDA=",
        "organizations_url": "https://api.github.com/users/wtfaremyinitials/orgs",
        "received_events_url": "https://api.github.com/users/wtfaremyinitials/received_events",
        "repos_url": "https://api.github.com/users/wtfaremyinitials/repos",
        "site_admin": false,
        "starred_url": "https://api.github.com/users/wtfaremyinitials/starred{/owner}{/repo}",
        "subscriptions_url": "https://api.github.com/users/wtfaremyinitials/subscriptions",
        "type": "User",
        "url": "https://api.github.com/users/wtfaremyinitials"
    },
    "milestone": null,
    "node_id": "MDExOlB1bGxSZXF1ZXN0MzA2OTIzNTU=",
    "number": 124,
    "patch_url": "https://github.com/PrismarineJS/node-minecraft-protocol/pull/124.patch",
    "rebaseable": null,
    "requested_reviewers": [],
    "requested_teams": [],
    "review_comment_url": "https://api.github.com/repos/PrismarineJS/node-minecraft-protocol/pulls/comments{/number}",
    "review_comments": 0,
    "review_comments_url": "https://api.github.com/repos/PrismarineJS/node-minecraft-protocol/pulls/124/comments",
    "state": "closed",
    "statuses_url": "https://api.github.com/repos/PrismarineJS/node-minecraft-protocol/statuses/50ad0211a535f6336506deb1784e2e63a7910d12",
    "title": "Externalize rsa-wrap to a separate module",
    "updated_at": "2015-03-07T02:19:30Z",
    "url": "https://api.github.com/repos/PrismarineJS/node-minecraft-protocol/pulls/124",
    "user": {
        "avatar_url": "https://avatars.githubusercontent.com/u/1069318?v=4",
        "events_url": "https://api.github.com/users/roblabla/events{/privacy}",
        "followers_url": "https://api.github.com/users/roblabla/followers",
        "following_url": "https://api.github.com/users/roblabla/following{/other_user}",
        "gists_url": "https://api.github.com/users/roblabla/gists{/gist_id}",
        "gravatar_id": "",
        "html_url": "https://github.com/roblabla",
        "id": 1069318,
        "login": "roblabla",
        "node_id": "MDQ6VXNlcjEwNjkzMTg=",
        "organizations_url": "https://api.github.com/users/roblabla/orgs",
        "received_events_url": "https://api.github.com/users/roblabla/received_events",
        "repos_url": "https://api.github.com/users/roblabla/repos",
        "site_admin": false,
        "starred_url": "https://api.github.com/users/roblabla/starred{/owner}{/repo}",
        "subscriptions_url": "https://api.github.com/users/roblabla/subscriptions",
        "type": "User",
        "url": "https://api.github.com/users/roblabla"
    }
}