{
    "_links": {
        "comments": {
            "href": "https://api.github.com/repos/PrismarineJS/node-minecraft-protocol/issues/1373/comments"
        },
        "commits": {
            "href": "https://api.github.com/repos/PrismarineJS/node-minecraft-protocol/pulls/1373/commits"
        },
        "html": {
            "href": "https://github.com/PrismarineJS/node-minecraft-protocol/pull/1373"
        },
        "issue": {
            "href": "https://api.github.com/repos/PrismarineJS/node-minecraft-protocol/issues/1373"
        },
        "review_comment": {
            "href": "https://api.github.com/repos/PrismarineJS/node-minecraft-protocol/pulls/comments{/number}"
        },
        "review_comments": {
            "href": "https://api.github.com/repos/PrismarineJS/node-minecraft-protocol/pulls/1373/comments"
        },
        "self": {
            "href": "https://api.github.com/repos/PrismarineJS/node-minecraft-protocol/pulls/1373"
        },
        "statuses": {
            "href": "https://api.github.com/repos/PrismarineJS/node-minecraft-protocol/statuses/3656182d2aed884ccf79a599f0a895acd22f8862"
        }
    },
    "active_lock_reason": null,
    "additions": 6,
    "assignee": null,
    "assignees": [],
    "author_association": "FIRST_TIME_CONTRIBUTOR",
    "auto_merge": null,
    "base": {
        "label": "PrismarineJS:master",
        "ref": "master",
        "repo": {
            "allow_forking": true,
            "archive_url": "https://api.github.com/repos/PrismarineJS/node-minecraft-protocol/{archive_format}{/ref}",
            "archived": false,
            "assignees_url": "https://api.github.com/repos/PrismarineJS/node-minecraft-protocol/assignees{/user}",
            "blobs_url": "https://api.github.com/repos/PrismarineJS/node-minecraft-protocol/git/blobs{/sha}",
            "branches_url": "https://api.github.com/repos/PrismarineJS/node-minecraft-protocol/branches{/branch}",
            "clone_url": "https://github.com/PrismarineJS/node-minecraft-protocol.git",
            "collaborators_url": "https://api.github.com/repos/PrismarineJS/node-minecraft-protocol/collaborators{/collaborator}",
            "comments_url": "https://api.github.com/repos/PrismarineJS/node-minecraft-protocol/comments{/number}",
            "commits_url": "https://api.github.com/repos/PrismarineJS/node-minecraft-protocol/commits{/sha}",
            "compare_url": "https://api.github.com/repos/PrismarineJS/node-minecraft-protocol/compare/{base}...{head}",
            "contents_url": "https://api.github.com/repos/PrismarineJS/node-minecraft-protocol/contents/{+path}",
            "contributors_url": "https://api.github.com/repos/PrismarineJS/node-minecraft-protocol/contributors",
            "created_at": "2013-01-01T09:17:05Z",
            "default_branch": "master",
            "deployments_url": "https://api.github.com/repos/PrismarineJS/node-minecraft-protocol/deployments",
            "description": "Parse and serialize minecraft packets, plus authentication and encryption.",
            "disabled": false,
            "downloads_url": "https://api.github.com/repos/PrismarineJS/node-minecraft-protocol/downloads",
            "events_url": "https://api.github.com/repos/PrismarineJS/node-minecraft-protocol/events",
            "fork": false,
            "forks": 239,
            "forks_count": 239,
            "forks_url": "https://api.github.com/repos/PrismarineJS/node-minecraft-protocol/forks",
            "full_name": "PrismarineJS/node-minecraft-protocol",
            "git_commits_url": "https://api.github.com/repos/PrismarineJS/node-minecraft-protocol/git/commits{/sha}",
            "git_refs_url": "https://api.github.com/repos/PrismarineJS/node-minecraft-protocol/git/refs{/sha}",
            "git_tags_url": "https://api.github.com/repos/PrismarineJS/node-minecraft-protocol/git/tags{/sha}",
            "git_url": "git://github.com/PrismarineJS/node-minecraft-protocol.git",
            "has_discussions": false,
            "has_downloads": true,
            "has_issues": true,
            "has_pages": true,
            "has_projects": true,
            "has_wiki": true,
            "homepage": "https://prismarinejs.github.io/node-minecraft-protocol/",
            "hooks_url": "https://api.github.com/repos/PrismarineJS/node-minecraft-protocol/hooks",
            "html_url": "https://github.com/PrismarineJS/node-minecraft-protocol",
            "id": 7394347,
            "is_template": false,
            "issue_comment_url": "https://api.github.com/repos/PrismarineJS/node-minecraft-protocol/issues/comments{/number}",
            "issue_events_url": "https://api.github.com/repos/PrismarineJS/node-minecraft-protocol/issues/events{/number}",
            "issues_url": "https://api.github.com/repos/PrismarineJS/node-minecraft-protocol/issues{/number}",
            "keys_url": "https://api.github.com/repos/PrismarineJS/node-minecraft-protocol/keys{/key_id}",
            "labels_url": "https://api.github.com/repos/PrismarineJS/node-minecraft-protocol/labels{/name}",
            "language": "JavaScript",
            "languages_url": "https://api.github.com/repos/PrismarineJS/node-minecraft-protocol/languages",
            "license": {
                "key": "bsd-3-clause",
                "name": "BSD 3-Clause \"New\" or \"Revised\" License",
                "node_id": "MDc6TGljZW5zZTU=",
                "spdx_id": "BSD-3-Clause",
                "url": "https://api.github.com/licenses/bsd-3-clause"
            },
            "merges_url": "https://api.github.com/repos/PrismarineJS/node-minecraft-protocol/merges",
            "milestones_url": "https://api.github.com/repos/PrismarineJS/node-minecraft-protocol/milestones{/number}",
            "mirror_url": null,
            "name": "node-minecraft-protocol",
            "node_id": "MDEwOlJlcG9zaXRvcnk3Mzk0MzQ3",
            "notifications_url": "https://api.github.com/repos/PrismarineJS/node-minecraft-protocol/notifications{?since,all,participating}",
            "open_issues": 103,
            "open_issues_count": 103,
            "owner": {
                "avatar_url": "https://avatars.githubusercontent.com/u/11053411?v=4",
                "events_url": "https://api.github.com/users/PrismarineJS/events{/privacy}",
                "followers_url": "https://api.github.com/users/PrismarineJS/followers",
                "following_url": "https://api.github.com/users/PrismarineJS/following{/other_user}",
                "gists_url": "https://api.github.com/users/PrismarineJS/gists{/gist_id}",
                "gravatar_id": "",
                "html_url": "https://github.com/PrismarineJS",
                "id": 11053411,
                "login": "PrismarineJS",
                "node_id": "MDEyOk9yZ2FuaXphdGlvbjExMDUzNDEx",
                "organizations_url": "https://api.github.com/users/PrismarineJS/orgs",
                "received_events_url": "https://api.github.com/users/PrismarineJS/received_events",
                "repos_url": "https://api.github.com/users/PrismarineJS/repos",
                "site_admin": false,
                "starred_url": "https://api.github.com/users/PrismarineJS/starred{/owner}{/repo}",
                "subscriptions_url": "https://api.github.com/users/PrismarineJS/subscriptions",
                "type": "Organization",
                "url": "https://api.github.com/users/PrismarineJS",
                "user_view_type": "public"
            },
            "private": false,
            "pulls_url": "https://api.github.com/repos/PrismarineJS/node-minecraft-protocol/pulls{/number}",
            "pushed_at": "2025-01-26T21:57:56Z",
            "releases_url": "https://api.github.com/repos/PrismarineJS/node-minecraft-protocol/releases{/id}",
            "size": 1914,
            "ssh_url": "git@github.com:PrismarineJS/node-minecraft-protocol.git",
            "stargazers_count": 1266,
            "stargazers_url": "https://api.github.com/repos/PrismarineJS/node-minecraft-protocol/stargazers",
            "statuses_url": "https://api.github.com/repos/PrismarineJS/node-minecraft-protocol/statuses/{sha}",
            "subscribers_url": "https://api.github.com/repos/PrismarineJS/node-minecraft-protocol/subscribers",
            "subscription_url": "https://api.github.com/repos/PrismarineJS/node-minecraft-protocol/subscription",
            "svn_url": "https://github.com/PrismarineJS/node-minecraft-protocol",
            "tags_url": "https://api.github.com/repos/PrismarineJS/node-minecraft-protocol/tags",
            "teams_url": "https://api.github.com/repos/PrismarineJS/node-minecraft-protocol/teams",
            "topics": [
                "client",
                "minecraft",
                "network",
                "packets",
                "protocol",
                "proxy",
                "server"
            ],
            "trees_url": "https://api.github.com/repos/PrismarineJS/node-minecraft-protocol/git/trees{/sha}",
            "updated_at": "2025-02-12T21:36:35Z",
            "url": "https://api.github.com/repos/PrismarineJS/node-minecraft-protocol",
            "visibility": "public",
            "watchers": 1266,
            "watchers_count": 1266,
            "web_commit_signoff_required": false
        },
        "sha": "e9eb551ba30ec2e742c49e6927be6402b413bb76",
        "user": {
            "avatar_url": "https://avatars.githubusercontent.com/u/11053411?v=4",
            "events_url": "https://api.github.com/users/PrismarineJS/events{/privacy}",
            "followers_url": "https://api.github.com/users/PrismarineJS/followers",
            "following_url": "https://api.github.com/users/PrismarineJS/following{/other_user}",
            "gists_url": "https://api.github.com/users/PrismarineJS/gists{/gist_id}",
            "gravatar_id": "",
            "html_url": "https://github.com/PrismarineJS",
            "id": 11053411,
            "login": "PrismarineJS",
            "node_id": "MDEyOk9yZ2FuaXphdGlvbjExMDUzNDEx",
            "organizations_url": "https://api.github.com/users/PrismarineJS/orgs",
            "received_events_url": "https://api.github.com/users/PrismarineJS/received_events",
            "repos_url": "https://api.github.com/users/PrismarineJS/repos",
            "site_admin": false,
            "starred_url": "https://api.github.com/users/PrismarineJS/starred{/owner}{/repo}",
            "subscriptions_url": "https://api.github.com/users/PrismarineJS/subscriptions",
            "type": "Organization",
            "url": "https://api.github.com/users/PrismarineJS",
            "user_view_type": "public"
        }
    },
    "body": "follows the notchian client better as if the compressionThreshold is negative, it means that the packets are uncompressed, and it should treat them accordingly",
    "changed_files": 1,
    "closed_at": null,
    "comment_data": [],
    "comment_regular_data": [
        {
            "author_association": "MEMBER",
            "body": "Is this the case on all versions 1.8+?",
            "created_at": "2025-02-12T19:08:33Z",
            "html_url": "https://github.com/PrismarineJS/node-minecraft-protocol/pull/1373#issuecomment-2654616141",
            "id": 2654616141,
            "issue_url": "https://api.github.com/repos/PrismarineJS/node-minecraft-protocol/issues/1373",
            "node_id": "IC_kwDOAHDUK86eOjpN",
            "performed_via_github_app": null,
            "reactions": {
                "+1": 0,
                "-1": 0,
                "confused": 0,
                "eyes": 0,
                "heart": 0,
                "hooray": 0,
                "laugh": 0,
                "rocket": 0,
                "total_count": 0,
                "url": "https://api.github.com/repos/PrismarineJS/node-minecraft-protocol/issues/comments/2654616141/reactions"
            },
            "updated_at": "2025-02-12T19:08:33Z",
            "url": "https://api.github.com/repos/PrismarineJS/node-minecraft-protocol/issues/comments/2654616141",
            "user": {
                "avatar_url": "https://avatars.githubusercontent.com/u/13713600?v=4",
                "events_url": "https://api.github.com/users/extremeheat/events{/privacy}",
                "followers_url": "https://api.github.com/users/extremeheat/followers",
                "following_url": "https://api.github.com/users/extremeheat/following{/other_user}",
                "gists_url": "https://api.github.com/users/extremeheat/gists{/gist_id}",
                "gravatar_id": "",
                "html_url": "https://github.com/extremeheat",
                "id": 13713600,
                "login": "extremeheat",
                "node_id": "MDQ6VXNlcjEzNzEzNjAw",
                "organizations_url": "https://api.github.com/users/extremeheat/orgs",
                "received_events_url": "https://api.github.com/users/extremeheat/received_events",
                "repos_url": "https://api.github.com/users/extremeheat/repos",
                "site_admin": false,
                "starred_url": "https://api.github.com/users/extremeheat/starred{/owner}{/repo}",
                "subscriptions_url": "https://api.github.com/users/extremeheat/subscriptions",
                "type": "User",
                "url": "https://api.github.com/users/extremeheat",
                "user_view_type": "public"
            }
        },
        {
            "author_association": "NONE",
            "body": "yes",
            "created_at": "2025-02-12T19:16:45Z",
            "html_url": "https://github.com/PrismarineJS/node-minecraft-protocol/pull/1373#issuecomment-2654632979",
            "id": 2654632979,
            "issue_url": "https://api.github.com/repos/PrismarineJS/node-minecraft-protocol/issues/1373",
            "node_id": "IC_kwDOAHDUK86eOnwT",
            "performed_via_github_app": null,
            "reactions": {
                "+1": 0,
                "-1": 0,
                "confused": 0,
                "eyes": 0,
                "heart": 0,
                "hooray": 0,
                "laugh": 0,
                "rocket": 0,
                "total_count": 0,
                "url": "https://api.github.com/repos/PrismarineJS/node-minecraft-protocol/issues/comments/2654632979/reactions"
            },
            "updated_at": "2025-02-12T19:37:56Z",
            "url": "https://api.github.com/repos/PrismarineJS/node-minecraft-protocol/issues/comments/2654632979",
            "user": {
                "avatar_url": "https://avatars.githubusercontent.com/u/193500740?v=4",
                "events_url": "https://api.github.com/users/cxvqo/events{/privacy}",
                "followers_url": "https://api.github.com/users/cxvqo/followers",
                "following_url": "https://api.github.com/users/cxvqo/following{/other_user}",
                "gists_url": "https://api.github.com/users/cxvqo/gists{/gist_id}",
                "gravatar_id": "",
                "html_url": "https://github.com/cxvqo",
                "id": 193500740,
                "login": "cxvqo",
                "node_id": "U_kgDOC4iWRA",
                "organizations_url": "https://api.github.com/users/cxvqo/orgs",
                "received_events_url": "https://api.github.com/users/cxvqo/received_events",
                "repos_url": "https://api.github.com/users/cxvqo/repos",
                "site_admin": false,
                "starred_url": "https://api.github.com/users/cxvqo/starred{/owner}{/repo}",
                "subscriptions_url": "https://api.github.com/users/cxvqo/subscriptions",
                "type": "User",
                "url": "https://api.github.com/users/cxvqo",
                "user_view_type": "public"
            }
        }
    ],
    "comments": 2,
    "comments_url": "https://api.github.com/repos/PrismarineJS/node-minecraft-protocol/issues/1373/comments",
    "commit_data": [
        {
            "author": {
                "avatar_url": "https://avatars.githubusercontent.com/u/193500740?v=4",
                "events_url": "https://api.github.com/users/cxvqo/events{/privacy}",
                "followers_url": "https://api.github.com/users/cxvqo/followers",
                "following_url": "https://api.github.com/users/cxvqo/following{/other_user}",
                "gists_url": "https://api.github.com/users/cxvqo/gists{/gist_id}",
                "gravatar_id": "",
                "html_url": "https://github.com/cxvqo",
                "id": 193500740,
                "login": "cxvqo",
                "node_id": "U_kgDOC4iWRA",
                "organizations_url": "https://api.github.com/users/cxvqo/orgs",
                "received_events_url": "https://api.github.com/users/cxvqo/received_events",
                "repos_url": "https://api.github.com/users/cxvqo/repos",
                "site_admin": false,
                "starred_url": "https://api.github.com/users/cxvqo/starred{/owner}{/repo}",
                "subscriptions_url": "https://api.github.com/users/cxvqo/subscriptions",
                "type": "User",
                "url": "https://api.github.com/users/cxvqo",
                "user_view_type": "public"
            },
            "comments_url": "https://api.github.com/repos/PrismarineJS/node-minecraft-protocol/commits/3656182d2aed884ccf79a599f0a895acd22f8862/comments",
            "commit": {
                "author": {
                    "date": "2025-02-12T19:03:08Z",
                    "email": "cxvqo@mewo.pw",
                    "name": "cxvqo"
                },
                "comment_count": 0,
                "committer": {
                    "date": "2025-02-12T19:03:08Z",
                    "email": "noreply@github.com",
                    "name": "GitHub"
                },
                "message": "fix: don't inflate/decompress if compressionThreshold is negative\n\nIf compression is enabled, all following packets are encoded in the compressed packet format. Negative values will disable compression, meaning the packet format should remain in the uncompressed packet format. However, this packet is entirely optional, and if not sent, compression will also not be enabled (the notchian server does not send the packet when compression is disabled).",
                "tree": {
                    "sha": "60e5222808a183cc40f2ab1ee538667d448a0b35",
                    "url": "https://api.github.com/repos/PrismarineJS/node-minecraft-protocol/git/trees/60e5222808a183cc40f2ab1ee538667d448a0b35"
                },
                "url": "https://api.github.com/repos/PrismarineJS/node-minecraft-protocol/git/commits/3656182d2aed884ccf79a599f0a895acd22f8862",
                "verification": {
                    "payload": "tree 60e5222808a183cc40f2ab1ee538667d448a0b35\nparent e9eb551ba30ec2e742c49e6927be6402b413bb76\nauthor cxvqo <cxvqo@mewo.pw> 1739386988 +0200\ncommitter GitHub <noreply@github.com> 1739386988 +0200\n\nfix: don't inflate/decompress if compressionThreshold is negative\n\nIf compression is enabled, all following packets are encoded in the compressed packet format. Negative values will disable compression, meaning the packet format should remain in the uncompressed packet format. However, this packet is entirely optional, and if not sent, compression will also not be enabled (the notchian server does not send the packet when compression is disabled).",
                    "reason": "valid",
                    "signature": "-----BEGIN PGP SIGNATURE-----\n\nwsFcBAABCAAQBQJnrPBsCRC1aQ7uu5UhlAAAXFUQAEEtvc6gxYLPrP7ZeRvI+MHR\nFq8KWunvmMOCX9o1VETwcKDGxLar/wnYLbLjftBnrAryhUj1eal+BuWw24aCYEj0\nWJTfaln8aZNo/8JJ3W14h/M541HFsfVUyYcSm42tqYXBLGTzkEbQlgtSmGoBbTZJ\n1Kac61DRY47crxyl/gMB6jBz1LqtU4YbJxQIgLIg/FDhv4WCT1XJYfnoB9aLNtDy\nFVT7kxSvAyb9Jr6taezkxtS/dluqaDVR+zQSBxb4PiZTDM6XRGQgqGIHxi9Eb1n8\nMkaXie0VubU7JxgIUc2pb7NTa54ihPG9fQ7rx71j4fpED6erjfqTid7SFmwYCoLB\nSj/xgPcnRmtXNgImTlFU72CvLRDR9y7mHPIKNnYSA9YLmOOGmDQ591r2vInhtM+V\nbgaNNgARC1Xpc4cIPROeIpG2NfZj07Ld3YAyytnKj8wkPOpOkvfIsPBjGvq9oV3C\n+hHjH0b23qOoJfA0YghxZQMAb4musWqYSAGlg53yTmDYAvMzKkyOEirgtZ4n+zOz\nw44SiN6N/ksyrPYrm6hc7UxdISrM14SLhnXFKI7WvBJRdtjyopQad+7CqG7Q0W7o\nBjfxkApVa+0wloVSQEpa4hTk4C+80Dd14xrRxNQhE1G90g3fTgoL7uanO2p4Eltd\n0XzaoS65TqE45Zlz33Jg\n=TYvy\n-----END PGP SIGNATURE-----\n",
                    "verified": true,
                    "verified_at": "2025-02-12T19:03:14Z"
                }
            },
            "committer": {
                "avatar_url": "https://avatars.githubusercontent.com/u/19864447?v=4",
                "events_url": "https://api.github.com/users/web-flow/events{/privacy}",
                "followers_url": "https://api.github.com/users/web-flow/followers",
                "following_url": "https://api.github.com/users/web-flow/following{/other_user}",
                "gists_url": "https://api.github.com/users/web-flow/gists{/gist_id}",
                "gravatar_id": "",
                "html_url": "https://github.com/web-flow",
                "id": 19864447,
                "login": "web-flow",
                "node_id": "MDQ6VXNlcjE5ODY0NDQ3",
                "organizations_url": "https://api.github.com/users/web-flow/orgs",
                "received_events_url": "https://api.github.com/users/web-flow/received_events",
                "repos_url": "https://api.github.com/users/web-flow/repos",
                "site_admin": false,
                "starred_url": "https://api.github.com/users/web-flow/starred{/owner}{/repo}",
                "subscriptions_url": "https://api.github.com/users/web-flow/subscriptions",
                "type": "User",
                "url": "https://api.github.com/users/web-flow",
                "user_view_type": "public"
            },
            "html_url": "https://github.com/PrismarineJS/node-minecraft-protocol/commit/3656182d2aed884ccf79a599f0a895acd22f8862",
            "node_id": "C_kwDON4kSWNoAKDM2NTYxODJkMmFlZDg4NGNjZjc5YTU5OWYwYTg5NWFjZDIyZjg4NjI",
            "parents": [
                {
                    "html_url": "https://github.com/PrismarineJS/node-minecraft-protocol/commit/e9eb551ba30ec2e742c49e6927be6402b413bb76",
                    "sha": "e9eb551ba30ec2e742c49e6927be6402b413bb76",
                    "url": "https://api.github.com/repos/PrismarineJS/node-minecraft-protocol/commits/e9eb551ba30ec2e742c49e6927be6402b413bb76"
                }
            ],
            "sha": "3656182d2aed884ccf79a599f0a895acd22f8862",
            "url": "https://api.github.com/repos/PrismarineJS/node-minecraft-protocol/commits/3656182d2aed884ccf79a599f0a895acd22f8862"
        }
    ],
    "commits": 1,
    "commits_url": "https://api.github.com/repos/PrismarineJS/node-minecraft-protocol/pulls/1373/commits",
    "created_at": "2025-02-12T19:05:55Z",
    "deletions": 0,
    "diff_url": "https://github.com/PrismarineJS/node-minecraft-protocol/pull/1373.diff",
    "draft": false,
    "head": {
        "label": "cxvqo:master",
        "ref": "master",
        "repo": {
            "allow_forking": true,
            "archive_url": "https://api.github.com/repos/cxvqo/node-minecraft-protocol/{archive_format}{/ref}",
            "archived": false,
            "assignees_url": "https://api.github.com/repos/cxvqo/node-minecraft-protocol/assignees{/user}",
            "blobs_url": "https://api.github.com/repos/cxvqo/node-minecraft-protocol/git/blobs{/sha}",
            "branches_url": "https://api.github.com/repos/cxvqo/node-minecraft-protocol/branches{/branch}",
            "clone_url": "https://github.com/cxvqo/node-minecraft-protocol.git",
            "collaborators_url": "https://api.github.com/repos/cxvqo/node-minecraft-protocol/collaborators{/collaborator}",
            "comments_url": "https://api.github.com/repos/cxvqo/node-minecraft-protocol/comments{/number}",
            "commits_url": "https://api.github.com/repos/cxvqo/node-minecraft-protocol/commits{/sha}",
            "compare_url": "https://api.github.com/repos/cxvqo/node-minecraft-protocol/compare/{base}...{head}",
            "contents_url": "https://api.github.com/repos/cxvqo/node-minecraft-protocol/contents/{+path}",
            "contributors_url": "https://api.github.com/repos/cxvqo/node-minecraft-protocol/contributors",
            "created_at": "2025-02-12T19:00:41Z",
            "default_branch": "master",
            "deployments_url": "https://api.github.com/repos/cxvqo/node-minecraft-protocol/deployments",
            "description": "Parse and serialize minecraft packets, plus authentication and encryption.",
            "disabled": false,
            "downloads_url": "https://api.github.com/repos/cxvqo/node-minecraft-protocol/downloads",
            "events_url": "https://api.github.com/repos/cxvqo/node-minecraft-protocol/events",
            "fork": true,
            "forks": 0,
            "forks_count": 0,
            "forks_url": "https://api.github.com/repos/cxvqo/node-minecraft-protocol/forks",
            "full_name": "cxvqo/node-minecraft-protocol",
            "git_commits_url": "https://api.github.com/repos/cxvqo/node-minecraft-protocol/git/commits{/sha}",
            "git_refs_url": "https://api.github.com/repos/cxvqo/node-minecraft-protocol/git/refs{/sha}",
            "git_tags_url": "https://api.github.com/repos/cxvqo/node-minecraft-protocol/git/tags{/sha}",
            "git_url": "git://github.com/cxvqo/node-minecraft-protocol.git",
            "has_discussions": false,
            "has_downloads": true,
            "has_issues": false,
            "has_pages": false,
            "has_projects": true,
            "has_wiki": true,
            "homepage": "https://prismarinejs.github.io/node-minecraft-protocol/",
            "hooks_url": "https://api.github.com/repos/cxvqo/node-minecraft-protocol/hooks",
            "html_url": "https://github.com/cxvqo/node-minecraft-protocol",
            "id": 931730008,
            "is_template": false,
            "issue_comment_url": "https://api.github.com/repos/cxvqo/node-minecraft-protocol/issues/comments{/number}",
            "issue_events_url": "https://api.github.com/repos/cxvqo/node-minecraft-protocol/issues/events{/number}",
            "issues_url": "https://api.github.com/repos/cxvqo/node-minecraft-protocol/issues{/number}",
            "keys_url": "https://api.github.com/repos/cxvqo/node-minecraft-protocol/keys{/key_id}",
            "labels_url": "https://api.github.com/repos/cxvqo/node-minecraft-protocol/labels{/name}",
            "language": "JavaScript",
            "languages_url": "https://api.github.com/repos/cxvqo/node-minecraft-protocol/languages",
            "license": {
                "key": "bsd-3-clause",
                "name": "BSD 3-Clause \"New\" or \"Revised\" License",
                "node_id": "MDc6TGljZW5zZTU=",
                "spdx_id": "BSD-3-Clause",
                "url": "https://api.github.com/licenses/bsd-3-clause"
            },
            "merges_url": "https://api.github.com/repos/cxvqo/node-minecraft-protocol/merges",
            "milestones_url": "https://api.github.com/repos/cxvqo/node-minecraft-protocol/milestones{/number}",
            "mirror_url": null,
            "name": "node-minecraft-protocol",
            "node_id": "R_kgDON4kSWA",
            "notifications_url": "https://api.github.com/repos/cxvqo/node-minecraft-protocol/notifications{?since,all,participating}",
            "open_issues": 0,
            "open_issues_count": 0,
            "owner": {
                "avatar_url": "https://avatars.githubusercontent.com/u/193500740?v=4",
                "events_url": "https://api.github.com/users/cxvqo/events{/privacy}",
                "followers_url": "https://api.github.com/users/cxvqo/followers",
                "following_url": "https://api.github.com/users/cxvqo/following{/other_user}",
                "gists_url": "https://api.github.com/users/cxvqo/gists{/gist_id}",
                "gravatar_id": "",
                "html_url": "https://github.com/cxvqo",
                "id": 193500740,
                "login": "cxvqo",
                "node_id": "U_kgDOC4iWRA",
                "organizations_url": "https://api.github.com/users/cxvqo/orgs",
                "received_events_url": "https://api.github.com/users/cxvqo/received_events",
                "repos_url": "https://api.github.com/users/cxvqo/repos",
                "site_admin": false,
                "starred_url": "https://api.github.com/users/cxvqo/starred{/owner}{/repo}",
                "subscriptions_url": "https://api.github.com/users/cxvqo/subscriptions",
                "type": "User",
                "url": "https://api.github.com/users/cxvqo",
                "user_view_type": "public"
            },
            "private": false,
            "pulls_url": "https://api.github.com/repos/cxvqo/node-minecraft-protocol/pulls{/number}",
            "pushed_at": "2025-02-12T19:03:08Z",
            "releases_url": "https://api.github.com/repos/cxvqo/node-minecraft-protocol/releases{/id}",
            "size": 1832,
            "ssh_url": "git@github.com:cxvqo/node-minecraft-protocol.git",
            "stargazers_count": 0,
            "stargazers_url": "https://api.github.com/repos/cxvqo/node-minecraft-protocol/stargazers",
            "statuses_url": "https://api.github.com/repos/cxvqo/node-minecraft-protocol/statuses/{sha}",
            "subscribers_url": "https://api.github.com/repos/cxvqo/node-minecraft-protocol/subscribers",
            "subscription_url": "https://api.github.com/repos/cxvqo/node-minecraft-protocol/subscription",
            "svn_url": "https://github.com/cxvqo/node-minecraft-protocol",
            "tags_url": "https://api.github.com/repos/cxvqo/node-minecraft-protocol/tags",
            "teams_url": "https://api.github.com/repos/cxvqo/node-minecraft-protocol/teams",
            "topics": [],
            "trees_url": "https://api.github.com/repos/cxvqo/node-minecraft-protocol/git/trees{/sha}",
            "updated_at": "2025-02-12T19:03:12Z",
            "url": "https://api.github.com/repos/cxvqo/node-minecraft-protocol",
            "visibility": "public",
            "watchers": 0,
            "watchers_count": 0,
            "web_commit_signoff_required": false
        },
        "sha": "3656182d2aed884ccf79a599f0a895acd22f8862",
        "user": {
            "avatar_url": "https://avatars.githubusercontent.com/u/193500740?v=4",
            "events_url": "https://api.github.com/users/cxvqo/events{/privacy}",
            "followers_url": "https://api.github.com/users/cxvqo/followers",
            "following_url": "https://api.github.com/users/cxvqo/following{/other_user}",
            "gists_url": "https://api.github.com/users/cxvqo/gists{/gist_id}",
            "gravatar_id": "",
            "html_url": "https://github.com/cxvqo",
            "id": 193500740,
            "login": "cxvqo",
            "node_id": "U_kgDOC4iWRA",
            "organizations_url": "https://api.github.com/users/cxvqo/orgs",
            "received_events_url": "https://api.github.com/users/cxvqo/received_events",
            "repos_url": "https://api.github.com/users/cxvqo/repos",
            "site_admin": false,
            "starred_url": "https://api.github.com/users/cxvqo/starred{/owner}{/repo}",
            "subscriptions_url": "https://api.github.com/users/cxvqo/subscriptions",
            "type": "User",
            "url": "https://api.github.com/users/cxvqo",
            "user_view_type": "public"
        }
    },
    "html_url": "https://github.com/PrismarineJS/node-minecraft-protocol/pull/1373",
    "id": 2332095727,
    "issue_url": "https://api.github.com/repos/PrismarineJS/node-minecraft-protocol/issues/1373",
    "labels": [],
    "locked": false,
    "maintainer_can_modify": true,
    "merge_commit_sha": "b8f87f199832b8f6ed719d2ac30f03b81f05868c",
    "mergeable": true,
    "mergeable_state": "blocked",
    "merged": false,
    "merged_at": null,
    "merged_by": null,
    "milestone": null,
    "node_id": "PR_kwDOAHDUK86LAPTv",
    "number": 1373,
    "patch_url": "https://github.com/PrismarineJS/node-minecraft-protocol/pull/1373.patch",
    "rebaseable": true,
    "requested_reviewers": [],
    "requested_teams": [],
    "review_comment_url": "https://api.github.com/repos/PrismarineJS/node-minecraft-protocol/pulls/comments{/number}",
    "review_comments": 0,
    "review_comments_url": "https://api.github.com/repos/PrismarineJS/node-minecraft-protocol/pulls/1373/comments",
    "state": "open",
    "statuses_url": "https://api.github.com/repos/PrismarineJS/node-minecraft-protocol/statuses/3656182d2aed884ccf79a599f0a895acd22f8862",
    "title": "fix: don't inflate/decompress if compressionThreshold is negative",
    "updated_at": "2025-02-12T19:54:44Z",
    "url": "https://api.github.com/repos/PrismarineJS/node-minecraft-protocol/pulls/1373",
    "user": {
        "avatar_url": "https://avatars.githubusercontent.com/u/193500740?v=4",
        "events_url": "https://api.github.com/users/cxvqo/events{/privacy}",
        "followers_url": "https://api.github.com/users/cxvqo/followers",
        "following_url": "https://api.github.com/users/cxvqo/following{/other_user}",
        "gists_url": "https://api.github.com/users/cxvqo/gists{/gist_id}",
        "gravatar_id": "",
        "html_url": "https://github.com/cxvqo",
        "id": 193500740,
        "login": "cxvqo",
        "node_id": "U_kgDOC4iWRA",
        "organizations_url": "https://api.github.com/users/cxvqo/orgs",
        "received_events_url": "https://api.github.com/users/cxvqo/received_events",
        "repos_url": "https://api.github.com/users/cxvqo/repos",
        "site_admin": false,
        "starred_url": "https://api.github.com/users/cxvqo/starred{/owner}{/repo}",
        "subscriptions_url": "https://api.github.com/users/cxvqo/subscriptions",
        "type": "User",
        "url": "https://api.github.com/users/cxvqo",
        "user_view_type": "public"
    }
}