{
    "_links": {
        "comments": {
            "href": "https://api.github.com/repos/PrismarineJS/node-minecraft-protocol/issues/202/comments"
        },
        "commits": {
            "href": "https://api.github.com/repos/PrismarineJS/node-minecraft-protocol/pulls/202/commits"
        },
        "html": {
            "href": "https://github.com/PrismarineJS/node-minecraft-protocol/pull/202"
        },
        "issue": {
            "href": "https://api.github.com/repos/PrismarineJS/node-minecraft-protocol/issues/202"
        },
        "review_comment": {
            "href": "https://api.github.com/repos/PrismarineJS/node-minecraft-protocol/pulls/comments{/number}"
        },
        "review_comments": {
            "href": "https://api.github.com/repos/PrismarineJS/node-minecraft-protocol/pulls/202/comments"
        },
        "self": {
            "href": "https://api.github.com/repos/PrismarineJS/node-minecraft-protocol/pulls/202"
        },
        "statuses": {
            "href": "https://api.github.com/repos/PrismarineJS/node-minecraft-protocol/statuses/7e4a777919e3663381d20feb4fab17b2a7736f22"
        }
    },
    "active_lock_reason": null,
    "additions": 3,
    "assignee": null,
    "assignees": [],
    "author_association": "MEMBER",
    "auto_merge": null,
    "base": {
        "label": "PrismarineJS:snapshot-1.9",
        "ref": "snapshot-1.9",
        "repo": {
            "allow_forking": true,
            "archive_url": "https://api.github.com/repos/PrismarineJS/node-minecraft-protocol/{archive_format}{/ref}",
            "archived": false,
            "assignees_url": "https://api.github.com/repos/PrismarineJS/node-minecraft-protocol/assignees{/user}",
            "blobs_url": "https://api.github.com/repos/PrismarineJS/node-minecraft-protocol/git/blobs{/sha}",
            "branches_url": "https://api.github.com/repos/PrismarineJS/node-minecraft-protocol/branches{/branch}",
            "clone_url": "https://github.com/PrismarineJS/node-minecraft-protocol.git",
            "collaborators_url": "https://api.github.com/repos/PrismarineJS/node-minecraft-protocol/collaborators{/collaborator}",
            "comments_url": "https://api.github.com/repos/PrismarineJS/node-minecraft-protocol/comments{/number}",
            "commits_url": "https://api.github.com/repos/PrismarineJS/node-minecraft-protocol/commits{/sha}",
            "compare_url": "https://api.github.com/repos/PrismarineJS/node-minecraft-protocol/compare/{base}...{head}",
            "contents_url": "https://api.github.com/repos/PrismarineJS/node-minecraft-protocol/contents/{+path}",
            "contributors_url": "https://api.github.com/repos/PrismarineJS/node-minecraft-protocol/contributors",
            "created_at": "2013-01-01T09:17:05Z",
            "default_branch": "master",
            "deployments_url": "https://api.github.com/repos/PrismarineJS/node-minecraft-protocol/deployments",
            "description": "Parse and serialize minecraft packets, plus authentication and encryption.",
            "disabled": false,
            "downloads_url": "https://api.github.com/repos/PrismarineJS/node-minecraft-protocol/downloads",
            "events_url": "https://api.github.com/repos/PrismarineJS/node-minecraft-protocol/events",
            "fork": false,
            "forks": 222,
            "forks_count": 222,
            "forks_url": "https://api.github.com/repos/PrismarineJS/node-minecraft-protocol/forks",
            "full_name": "PrismarineJS/node-minecraft-protocol",
            "git_commits_url": "https://api.github.com/repos/PrismarineJS/node-minecraft-protocol/git/commits{/sha}",
            "git_refs_url": "https://api.github.com/repos/PrismarineJS/node-minecraft-protocol/git/refs{/sha}",
            "git_tags_url": "https://api.github.com/repos/PrismarineJS/node-minecraft-protocol/git/tags{/sha}",
            "git_url": "git://github.com/PrismarineJS/node-minecraft-protocol.git",
            "has_discussions": false,
            "has_downloads": true,
            "has_issues": true,
            "has_pages": true,
            "has_projects": true,
            "has_wiki": true,
            "homepage": "https://prismarinejs.github.io/node-minecraft-protocol/",
            "hooks_url": "https://api.github.com/repos/PrismarineJS/node-minecraft-protocol/hooks",
            "html_url": "https://github.com/PrismarineJS/node-minecraft-protocol",
            "id": 7394347,
            "is_template": false,
            "issue_comment_url": "https://api.github.com/repos/PrismarineJS/node-minecraft-protocol/issues/comments{/number}",
            "issue_events_url": "https://api.github.com/repos/PrismarineJS/node-minecraft-protocol/issues/events{/number}",
            "issues_url": "https://api.github.com/repos/PrismarineJS/node-minecraft-protocol/issues{/number}",
            "keys_url": "https://api.github.com/repos/PrismarineJS/node-minecraft-protocol/keys{/key_id}",
            "labels_url": "https://api.github.com/repos/PrismarineJS/node-minecraft-protocol/labels{/name}",
            "language": "JavaScript",
            "languages_url": "https://api.github.com/repos/PrismarineJS/node-minecraft-protocol/languages",
            "license": {
                "key": "bsd-3-clause",
                "name": "BSD 3-Clause \"New\" or \"Revised\" License",
                "node_id": "MDc6TGljZW5zZTU=",
                "spdx_id": "BSD-3-Clause",
                "url": "https://api.github.com/licenses/bsd-3-clause"
            },
            "merges_url": "https://api.github.com/repos/PrismarineJS/node-minecraft-protocol/merges",
            "milestones_url": "https://api.github.com/repos/PrismarineJS/node-minecraft-protocol/milestones{/number}",
            "mirror_url": null,
            "name": "node-minecraft-protocol",
            "node_id": "MDEwOlJlcG9zaXRvcnk3Mzk0MzQ3",
            "notifications_url": "https://api.github.com/repos/PrismarineJS/node-minecraft-protocol/notifications{?since,all,participating}",
            "open_issues": 92,
            "open_issues_count": 92,
            "owner": {
                "avatar_url": "https://avatars.githubusercontent.com/u/11053411?v=4",
                "events_url": "https://api.github.com/users/PrismarineJS/events{/privacy}",
                "followers_url": "https://api.github.com/users/PrismarineJS/followers",
                "following_url": "https://api.github.com/users/PrismarineJS/following{/other_user}",
                "gists_url": "https://api.github.com/users/PrismarineJS/gists{/gist_id}",
                "gravatar_id": "",
                "html_url": "https://github.com/PrismarineJS",
                "id": 11053411,
                "login": "PrismarineJS",
                "node_id": "MDEyOk9yZ2FuaXphdGlvbjExMDUzNDEx",
                "organizations_url": "https://api.github.com/users/PrismarineJS/orgs",
                "received_events_url": "https://api.github.com/users/PrismarineJS/received_events",
                "repos_url": "https://api.github.com/users/PrismarineJS/repos",
                "site_admin": false,
                "starred_url": "https://api.github.com/users/PrismarineJS/starred{/owner}{/repo}",
                "subscriptions_url": "https://api.github.com/users/PrismarineJS/subscriptions",
                "type": "Organization",
                "url": "https://api.github.com/users/PrismarineJS"
            },
            "private": false,
            "pulls_url": "https://api.github.com/repos/PrismarineJS/node-minecraft-protocol/pulls{/number}",
            "pushed_at": "2023-04-22T09:19:41Z",
            "releases_url": "https://api.github.com/repos/PrismarineJS/node-minecraft-protocol/releases{/id}",
            "size": 1785,
            "ssh_url": "git@github.com:PrismarineJS/node-minecraft-protocol.git",
            "stargazers_count": 1063,
            "stargazers_url": "https://api.github.com/repos/PrismarineJS/node-minecraft-protocol/stargazers",
            "statuses_url": "https://api.github.com/repos/PrismarineJS/node-minecraft-protocol/statuses/{sha}",
            "subscribers_url": "https://api.github.com/repos/PrismarineJS/node-minecraft-protocol/subscribers",
            "subscription_url": "https://api.github.com/repos/PrismarineJS/node-minecraft-protocol/subscription",
            "svn_url": "https://github.com/PrismarineJS/node-minecraft-protocol",
            "tags_url": "https://api.github.com/repos/PrismarineJS/node-minecraft-protocol/tags",
            "teams_url": "https://api.github.com/repos/PrismarineJS/node-minecraft-protocol/teams",
            "topics": [
                "client",
                "minecraft",
                "network",
                "packets",
                "protocol",
                "proxy",
                "server"
            ],
            "trees_url": "https://api.github.com/repos/PrismarineJS/node-minecraft-protocol/git/trees{/sha}",
            "updated_at": "2023-04-22T17:20:34Z",
            "url": "https://api.github.com/repos/PrismarineJS/node-minecraft-protocol",
            "visibility": "public",
            "watchers": 1063,
            "watchers_count": 1063,
            "web_commit_signoff_required": false
        },
        "sha": "9c35951d15ad41c1a96f440cbb88e7f8bd5d1ee3",
        "user": {
            "avatar_url": "https://avatars.githubusercontent.com/u/11053411?v=4",
            "events_url": "https://api.github.com/users/PrismarineJS/events{/privacy}",
            "followers_url": "https://api.github.com/users/PrismarineJS/followers",
            "following_url": "https://api.github.com/users/PrismarineJS/following{/other_user}",
            "gists_url": "https://api.github.com/users/PrismarineJS/gists{/gist_id}",
            "gravatar_id": "",
            "html_url": "https://github.com/PrismarineJS",
            "id": 11053411,
            "login": "PrismarineJS",
            "node_id": "MDEyOk9yZ2FuaXphdGlvbjExMDUzNDEx",
            "organizations_url": "https://api.github.com/users/PrismarineJS/orgs",
            "received_events_url": "https://api.github.com/users/PrismarineJS/received_events",
            "repos_url": "https://api.github.com/users/PrismarineJS/repos",
            "site_admin": false,
            "starred_url": "https://api.github.com/users/PrismarineJS/starred{/owner}{/repo}",
            "subscriptions_url": "https://api.github.com/users/PrismarineJS/subscriptions",
            "type": "Organization",
            "url": "https://api.github.com/users/PrismarineJS"
        }
    },
    "body": "",
    "changed_files": 2,
    "closed_at": "2015-07-29T16:20:42Z",
    "comment_data": [],
    "comment_regular_data": [],
    "comments": 0,
    "comments_url": "https://api.github.com/repos/PrismarineJS/node-minecraft-protocol/issues/202/comments",
    "commit_data": [
        {
            "author": {
                "avatar_url": "https://avatars.githubusercontent.com/u/1270100?v=4",
                "events_url": "https://api.github.com/users/wtfaremyinitials/events{/privacy}",
                "followers_url": "https://api.github.com/users/wtfaremyinitials/followers",
                "following_url": "https://api.github.com/users/wtfaremyinitials/following{/other_user}",
                "gists_url": "https://api.github.com/users/wtfaremyinitials/gists{/gist_id}",
                "gravatar_id": "",
                "html_url": "https://github.com/wtfaremyinitials",
                "id": 1270100,
                "login": "wtfaremyinitials",
                "node_id": "MDQ6VXNlcjEyNzAxMDA=",
                "organizations_url": "https://api.github.com/users/wtfaremyinitials/orgs",
                "received_events_url": "https://api.github.com/users/wtfaremyinitials/received_events",
                "repos_url": "https://api.github.com/users/wtfaremyinitials/repos",
                "site_admin": false,
                "starred_url": "https://api.github.com/users/wtfaremyinitials/starred{/owner}{/repo}",
                "subscriptions_url": "https://api.github.com/users/wtfaremyinitials/subscriptions",
                "type": "User",
                "url": "https://api.github.com/users/wtfaremyinitials"
            },
            "comments_url": "https://api.github.com/repos/PrismarineJS/node-minecraft-protocol/commits/363f60f5173cade319eed5527cb6aad22a5f88f6/comments",
            "commit": {
                "author": {
                    "date": "2015-07-29T16:05:25Z",
                    "email": "wtfranzen@gmail.com",
                    "name": "Will Franzen"
                },
                "comment_count": 0,
                "committer": {
                    "date": "2015-07-29T16:05:25Z",
                    "email": "wtfranzen@gmail.com",
                    "name": "Will Franzen"
                },
                "message": "Update protocol version",
                "tree": {
                    "sha": "a4e7ffb186e805c6ca16194e956ce8c46608abe2",
                    "url": "https://api.github.com/repos/PrismarineJS/node-minecraft-protocol/git/trees/a4e7ffb186e805c6ca16194e956ce8c46608abe2"
                },
                "url": "https://api.github.com/repos/PrismarineJS/node-minecraft-protocol/git/commits/363f60f5173cade319eed5527cb6aad22a5f88f6",
                "verification": {
                    "payload": null,
                    "reason": "unsigned",
                    "signature": null,
                    "verified": false
                }
            },
            "committer": {
                "avatar_url": "https://avatars.githubusercontent.com/u/1270100?v=4",
                "events_url": "https://api.github.com/users/wtfaremyinitials/events{/privacy}",
                "followers_url": "https://api.github.com/users/wtfaremyinitials/followers",
                "following_url": "https://api.github.com/users/wtfaremyinitials/following{/other_user}",
                "gists_url": "https://api.github.com/users/wtfaremyinitials/gists{/gist_id}",
                "gravatar_id": "",
                "html_url": "https://github.com/wtfaremyinitials",
                "id": 1270100,
                "login": "wtfaremyinitials",
                "node_id": "MDQ6VXNlcjEyNzAxMDA=",
                "organizations_url": "https://api.github.com/users/wtfaremyinitials/orgs",
                "received_events_url": "https://api.github.com/users/wtfaremyinitials/received_events",
                "repos_url": "https://api.github.com/users/wtfaremyinitials/repos",
                "site_admin": false,
                "starred_url": "https://api.github.com/users/wtfaremyinitials/starred{/owner}{/repo}",
                "subscriptions_url": "https://api.github.com/users/wtfaremyinitials/subscriptions",
                "type": "User",
                "url": "https://api.github.com/users/wtfaremyinitials"
            },
            "html_url": "https://github.com/PrismarineJS/node-minecraft-protocol/commit/363f60f5173cade319eed5527cb6aad22a5f88f6",
            "node_id": "MDY6Q29tbWl0MTg3ODQ2OTQ6MzYzZjYwZjUxNzNjYWRlMzE5ZWVkNTUyN2NiNmFhZDIyYTVmODhmNg==",
            "parents": [
                {
                    "html_url": "https://github.com/PrismarineJS/node-minecraft-protocol/commit/9c35951d15ad41c1a96f440cbb88e7f8bd5d1ee3",
                    "sha": "9c35951d15ad41c1a96f440cbb88e7f8bd5d1ee3",
                    "url": "https://api.github.com/repos/PrismarineJS/node-minecraft-protocol/commits/9c35951d15ad41c1a96f440cbb88e7f8bd5d1ee3"
                }
            ],
            "sha": "363f60f5173cade319eed5527cb6aad22a5f88f6",
            "url": "https://api.github.com/repos/PrismarineJS/node-minecraft-protocol/commits/363f60f5173cade319eed5527cb6aad22a5f88f6"
        },
        {
            "author": {
                "avatar_url": "https://avatars.githubusercontent.com/u/1270100?v=4",
                "events_url": "https://api.github.com/users/wtfaremyinitials/events{/privacy}",
                "followers_url": "https://api.github.com/users/wtfaremyinitials/followers",
                "following_url": "https://api.github.com/users/wtfaremyinitials/following{/other_user}",
                "gists_url": "https://api.github.com/users/wtfaremyinitials/gists{/gist_id}",
                "gravatar_id": "",
                "html_url": "https://github.com/wtfaremyinitials",
                "id": 1270100,
                "login": "wtfaremyinitials",
                "node_id": "MDQ6VXNlcjEyNzAxMDA=",
                "organizations_url": "https://api.github.com/users/wtfaremyinitials/orgs",
                "received_events_url": "https://api.github.com/users/wtfaremyinitials/received_events",
                "repos_url": "https://api.github.com/users/wtfaremyinitials/repos",
                "site_admin": false,
                "starred_url": "https://api.github.com/users/wtfaremyinitials/starred{/owner}{/repo}",
                "subscriptions_url": "https://api.github.com/users/wtfaremyinitials/subscriptions",
                "type": "User",
                "url": "https://api.github.com/users/wtfaremyinitials"
            },
            "comments_url": "https://api.github.com/repos/PrismarineJS/node-minecraft-protocol/commits/7e4a777919e3663381d20feb4fab17b2a7736f22/comments",
            "commit": {
                "author": {
                    "date": "2015-07-29T16:14:19Z",
                    "email": "wtfranzen@gmail.com",
                    "name": "Will Franzen"
                },
                "comment_count": 0,
                "committer": {
                    "date": "2015-07-29T16:14:19Z",
                    "email": "wtfranzen@gmail.com",
                    "name": "Will Franzen"
                },
                "message": "Update test server jar",
                "tree": {
                    "sha": "0d6d3a734820571ff7f358b2d5a0ba979ea8d4a0",
                    "url": "https://api.github.com/repos/PrismarineJS/node-minecraft-protocol/git/trees/0d6d3a734820571ff7f358b2d5a0ba979ea8d4a0"
                },
                "url": "https://api.github.com/repos/PrismarineJS/node-minecraft-protocol/git/commits/7e4a777919e3663381d20feb4fab17b2a7736f22",
                "verification": {
                    "payload": null,
                    "reason": "unsigned",
                    "signature": null,
                    "verified": false
                }
            },
            "committer": {
                "avatar_url": "https://avatars.githubusercontent.com/u/1270100?v=4",
                "events_url": "https://api.github.com/users/wtfaremyinitials/events{/privacy}",
                "followers_url": "https://api.github.com/users/wtfaremyinitials/followers",
                "following_url": "https://api.github.com/users/wtfaremyinitials/following{/other_user}",
                "gists_url": "https://api.github.com/users/wtfaremyinitials/gists{/gist_id}",
                "gravatar_id": "",
                "html_url": "https://github.com/wtfaremyinitials",
                "id": 1270100,
                "login": "wtfaremyinitials",
                "node_id": "MDQ6VXNlcjEyNzAxMDA=",
                "organizations_url": "https://api.github.com/users/wtfaremyinitials/orgs",
                "received_events_url": "https://api.github.com/users/wtfaremyinitials/received_events",
                "repos_url": "https://api.github.com/users/wtfaremyinitials/repos",
                "site_admin": false,
                "starred_url": "https://api.github.com/users/wtfaremyinitials/starred{/owner}{/repo}",
                "subscriptions_url": "https://api.github.com/users/wtfaremyinitials/subscriptions",
                "type": "User",
                "url": "https://api.github.com/users/wtfaremyinitials"
            },
            "html_url": "https://github.com/PrismarineJS/node-minecraft-protocol/commit/7e4a777919e3663381d20feb4fab17b2a7736f22",
            "node_id": "MDY6Q29tbWl0MTg3ODQ2OTQ6N2U0YTc3NzkxOWUzNjYzMzgxZDIwZmViNGZhYjE3YjJhNzczNmYyMg==",
            "parents": [
                {
                    "html_url": "https://github.com/PrismarineJS/node-minecraft-protocol/commit/363f60f5173cade319eed5527cb6aad22a5f88f6",
                    "sha": "363f60f5173cade319eed5527cb6aad22a5f88f6",
                    "url": "https://api.github.com/repos/PrismarineJS/node-minecraft-protocol/commits/363f60f5173cade319eed5527cb6aad22a5f88f6"
                }
            ],
            "sha": "7e4a777919e3663381d20feb4fab17b2a7736f22",
            "url": "https://api.github.com/repos/PrismarineJS/node-minecraft-protocol/commits/7e4a777919e3663381d20feb4fab17b2a7736f22"
        }
    ],
    "commits": 2,
    "commits_url": "https://api.github.com/repos/PrismarineJS/node-minecraft-protocol/pulls/202/commits",
    "created_at": "2015-07-29T16:05:55Z",
    "deletions": 3,
    "diff_url": "https://github.com/PrismarineJS/node-minecraft-protocol/pull/202.diff",
    "draft": false,
    "head": {
        "label": "wtfaremyinitials:snapshot-1.9",
        "ref": "snapshot-1.9",
        "repo": {
            "allow_forking": true,
            "archive_url": "https://api.github.com/repos/wtfaremyinitials/node-minecraft-protocol/{archive_format}{/ref}",
            "archived": false,
            "assignees_url": "https://api.github.com/repos/wtfaremyinitials/node-minecraft-protocol/assignees{/user}",
            "blobs_url": "https://api.github.com/repos/wtfaremyinitials/node-minecraft-protocol/git/blobs{/sha}",
            "branches_url": "https://api.github.com/repos/wtfaremyinitials/node-minecraft-protocol/branches{/branch}",
            "clone_url": "https://github.com/wtfaremyinitials/node-minecraft-protocol.git",
            "collaborators_url": "https://api.github.com/repos/wtfaremyinitials/node-minecraft-protocol/collaborators{/collaborator}",
            "comments_url": "https://api.github.com/repos/wtfaremyinitials/node-minecraft-protocol/comments{/number}",
            "commits_url": "https://api.github.com/repos/wtfaremyinitials/node-minecraft-protocol/commits{/sha}",
            "compare_url": "https://api.github.com/repos/wtfaremyinitials/node-minecraft-protocol/compare/{base}...{head}",
            "contents_url": "https://api.github.com/repos/wtfaremyinitials/node-minecraft-protocol/contents/{+path}",
            "contributors_url": "https://api.github.com/repos/wtfaremyinitials/node-minecraft-protocol/contributors",
            "created_at": "2014-04-15T02:29:50Z",
            "default_branch": "master",
            "deployments_url": "https://api.github.com/repos/wtfaremyinitials/node-minecraft-protocol/deployments",
            "description": "Parse and serialize minecraft packets, plus authentication and encryption.",
            "disabled": false,
            "downloads_url": "https://api.github.com/repos/wtfaremyinitials/node-minecraft-protocol/downloads",
            "events_url": "https://api.github.com/repos/wtfaremyinitials/node-minecraft-protocol/events",
            "fork": true,
            "forks": 0,
            "forks_count": 0,
            "forks_url": "https://api.github.com/repos/wtfaremyinitials/node-minecraft-protocol/forks",
            "full_name": "wtfaremyinitials/node-minecraft-protocol",
            "git_commits_url": "https://api.github.com/repos/wtfaremyinitials/node-minecraft-protocol/git/commits{/sha}",
            "git_refs_url": "https://api.github.com/repos/wtfaremyinitials/node-minecraft-protocol/git/refs{/sha}",
            "git_tags_url": "https://api.github.com/repos/wtfaremyinitials/node-minecraft-protocol/git/tags{/sha}",
            "git_url": "git://github.com/wtfaremyinitials/node-minecraft-protocol.git",
            "has_discussions": false,
            "has_downloads": true,
            "has_issues": false,
            "has_pages": false,
            "has_projects": true,
            "has_wiki": true,
            "homepage": "",
            "hooks_url": "https://api.github.com/repos/wtfaremyinitials/node-minecraft-protocol/hooks",
            "html_url": "https://github.com/wtfaremyinitials/node-minecraft-protocol",
            "id": 18784694,
            "is_template": false,
            "issue_comment_url": "https://api.github.com/repos/wtfaremyinitials/node-minecraft-protocol/issues/comments{/number}",
            "issue_events_url": "https://api.github.com/repos/wtfaremyinitials/node-minecraft-protocol/issues/events{/number}",
            "issues_url": "https://api.github.com/repos/wtfaremyinitials/node-minecraft-protocol/issues{/number}",
            "keys_url": "https://api.github.com/repos/wtfaremyinitials/node-minecraft-protocol/keys{/key_id}",
            "labels_url": "https://api.github.com/repos/wtfaremyinitials/node-minecraft-protocol/labels{/name}",
            "language": "JavaScript",
            "languages_url": "https://api.github.com/repos/wtfaremyinitials/node-minecraft-protocol/languages",
            "license": null,
            "merges_url": "https://api.github.com/repos/wtfaremyinitials/node-minecraft-protocol/merges",
            "milestones_url": "https://api.github.com/repos/wtfaremyinitials/node-minecraft-protocol/milestones{/number}",
            "mirror_url": null,
            "name": "node-minecraft-protocol",
            "node_id": "MDEwOlJlcG9zaXRvcnkxODc4NDY5NA==",
            "notifications_url": "https://api.github.com/repos/wtfaremyinitials/node-minecraft-protocol/notifications{?since,all,participating}",
            "open_issues": 0,
            "open_issues_count": 0,
            "owner": {
                "avatar_url": "https://avatars.githubusercontent.com/u/1270100?v=4",
                "events_url": "https://api.github.com/users/wtfaremyinitials/events{/privacy}",
                "followers_url": "https://api.github.com/users/wtfaremyinitials/followers",
                "following_url": "https://api.github.com/users/wtfaremyinitials/following{/other_user}",
                "gists_url": "https://api.github.com/users/wtfaremyinitials/gists{/gist_id}",
                "gravatar_id": "",
                "html_url": "https://github.com/wtfaremyinitials",
                "id": 1270100,
                "login": "wtfaremyinitials",
                "node_id": "MDQ6VXNlcjEyNzAxMDA=",
                "organizations_url": "https://api.github.com/users/wtfaremyinitials/orgs",
                "received_events_url": "https://api.github.com/users/wtfaremyinitials/received_events",
                "repos_url": "https://api.github.com/users/wtfaremyinitials/repos",
                "site_admin": false,
                "starred_url": "https://api.github.com/users/wtfaremyinitials/starred{/owner}{/repo}",
                "subscriptions_url": "https://api.github.com/users/wtfaremyinitials/subscriptions",
                "type": "User",
                "url": "https://api.github.com/users/wtfaremyinitials"
            },
            "private": false,
            "pulls_url": "https://api.github.com/repos/wtfaremyinitials/node-minecraft-protocol/pulls{/number}",
            "pushed_at": "2017-04-28T18:14:03Z",
            "releases_url": "https://api.github.com/repos/wtfaremyinitials/node-minecraft-protocol/releases{/id}",
            "size": 958,
            "ssh_url": "git@github.com:wtfaremyinitials/node-minecraft-protocol.git",
            "stargazers_count": 0,
            "stargazers_url": "https://api.github.com/repos/wtfaremyinitials/node-minecraft-protocol/stargazers",
            "statuses_url": "https://api.github.com/repos/wtfaremyinitials/node-minecraft-protocol/statuses/{sha}",
            "subscribers_url": "https://api.github.com/repos/wtfaremyinitials/node-minecraft-protocol/subscribers",
            "subscription_url": "https://api.github.com/repos/wtfaremyinitials/node-minecraft-protocol/subscription",
            "svn_url": "https://github.com/wtfaremyinitials/node-minecraft-protocol",
            "tags_url": "https://api.github.com/repos/wtfaremyinitials/node-minecraft-protocol/tags",
            "teams_url": "https://api.github.com/repos/wtfaremyinitials/node-minecraft-protocol/teams",
            "topics": [],
            "trees_url": "https://api.github.com/repos/wtfaremyinitials/node-minecraft-protocol/git/trees{/sha}",
            "updated_at": "2017-04-28T18:14:18Z",
            "url": "https://api.github.com/repos/wtfaremyinitials/node-minecraft-protocol",
            "visibility": "public",
            "watchers": 0,
            "watchers_count": 0,
            "web_commit_signoff_required": false
        },
        "sha": "7e4a777919e3663381d20feb4fab17b2a7736f22",
        "user": {
            "avatar_url": "https://avatars.githubusercontent.com/u/1270100?v=4",
            "events_url": "https://api.github.com/users/wtfaremyinitials/events{/privacy}",
            "followers_url": "https://api.github.com/users/wtfaremyinitials/followers",
            "following_url": "https://api.github.com/users/wtfaremyinitials/following{/other_user}",
            "gists_url": "https://api.github.com/users/wtfaremyinitials/gists{/gist_id}",
            "gravatar_id": "",
            "html_url": "https://github.com/wtfaremyinitials",
            "id": 1270100,
            "login": "wtfaremyinitials",
            "node_id": "MDQ6VXNlcjEyNzAxMDA=",
            "organizations_url": "https://api.github.com/users/wtfaremyinitials/orgs",
            "received_events_url": "https://api.github.com/users/wtfaremyinitials/received_events",
            "repos_url": "https://api.github.com/users/wtfaremyinitials/repos",
            "site_admin": false,
            "starred_url": "https://api.github.com/users/wtfaremyinitials/starred{/owner}{/repo}",
            "subscriptions_url": "https://api.github.com/users/wtfaremyinitials/subscriptions",
            "type": "User",
            "url": "https://api.github.com/users/wtfaremyinitials"
        }
    },
    "html_url": "https://github.com/PrismarineJS/node-minecraft-protocol/pull/202",
    "id": 41141112,
    "issue_url": "https://api.github.com/repos/PrismarineJS/node-minecraft-protocol/issues/202",
    "labels": [],
    "locked": false,
    "maintainer_can_modify": false,
    "merge_commit_sha": "95822ba2de6202605b7f5030bd7ba3a2fd580673",
    "mergeable": false,
    "mergeable_state": "dirty",
    "merged": true,
    "merged_at": "2015-07-29T16:20:42Z",
    "merged_by": {
        "avatar_url": "https://avatars.githubusercontent.com/u/1270100?v=4",
        "events_url": "https://api.github.com/users/wtfaremyinitials/events{/privacy}",
        "followers_url": "https://api.github.com/users/wtfaremyinitials/followers",
        "following_url": "https://api.github.com/users/wtfaremyinitials/following{/other_user}",
        "gists_url": "https://api.github.com/users/wtfaremyinitials/gists{/gist_id}",
        "gravatar_id": "",
        "html_url": "https://github.com/wtfaremyinitials",
        "id": 1270100,
        "login": "wtfaremyinitials",
        "node_id": "MDQ6VXNlcjEyNzAxMDA=",
        "organizations_url": "https://api.github.com/users/wtfaremyinitials/orgs",
        "received_events_url": "https://api.github.com/users/wtfaremyinitials/received_events",
        "repos_url": "https://api.github.com/users/wtfaremyinitials/repos",
        "site_admin": false,
        "starred_url": "https://api.github.com/users/wtfaremyinitials/starred{/owner}{/repo}",
        "subscriptions_url": "https://api.github.com/users/wtfaremyinitials/subscriptions",
        "type": "User",
        "url": "https://api.github.com/users/wtfaremyinitials"
    },
    "milestone": null,
    "node_id": "MDExOlB1bGxSZXF1ZXN0NDExNDExMTI=",
    "number": 202,
    "patch_url": "https://github.com/PrismarineJS/node-minecraft-protocol/pull/202.patch",
    "rebaseable": false,
    "requested_reviewers": [],
    "requested_teams": [],
    "review_comment_url": "https://api.github.com/repos/PrismarineJS/node-minecraft-protocol/pulls/comments{/number}",
    "review_comments": 0,
    "review_comments_url": "https://api.github.com/repos/PrismarineJS/node-minecraft-protocol/pulls/202/comments",
    "state": "closed",
    "statuses_url": "https://api.github.com/repos/PrismarineJS/node-minecraft-protocol/statuses/7e4a777919e3663381d20feb4fab17b2a7736f22",
    "title": "1.9",
    "updated_at": "2015-07-29T16:20:42Z",
    "url": "https://api.github.com/repos/PrismarineJS/node-minecraft-protocol/pulls/202",
    "user": {
        "avatar_url": "https://avatars.githubusercontent.com/u/1270100?v=4",
        "events_url": "https://api.github.com/users/wtfaremyinitials/events{/privacy}",
        "followers_url": "https://api.github.com/users/wtfaremyinitials/followers",
        "following_url": "https://api.github.com/users/wtfaremyinitials/following{/other_user}",
        "gists_url": "https://api.github.com/users/wtfaremyinitials/gists{/gist_id}",
        "gravatar_id": "",
        "html_url": "https://github.com/wtfaremyinitials",
        "id": 1270100,
        "login": "wtfaremyinitials",
        "node_id": "MDQ6VXNlcjEyNzAxMDA=",
        "organizations_url": "https://api.github.com/users/wtfaremyinitials/orgs",
        "received_events_url": "https://api.github.com/users/wtfaremyinitials/received_events",
        "repos_url": "https://api.github.com/users/wtfaremyinitials/repos",
        "site_admin": false,
        "starred_url": "https://api.github.com/users/wtfaremyinitials/starred{/owner}{/repo}",
        "subscriptions_url": "https://api.github.com/users/wtfaremyinitials/subscriptions",
        "type": "User",
        "url": "https://api.github.com/users/wtfaremyinitials"
    }
}