{
    "_links": {
        "comments": {
            "href": "https://api.github.com/repos/PrismarineJS/node-minecraft-protocol/issues/308/comments"
        },
        "commits": {
            "href": "https://api.github.com/repos/PrismarineJS/node-minecraft-protocol/pulls/308/commits"
        },
        "html": {
            "href": "https://github.com/PrismarineJS/node-minecraft-protocol/pull/308"
        },
        "issue": {
            "href": "https://api.github.com/repos/PrismarineJS/node-minecraft-protocol/issues/308"
        },
        "review_comment": {
            "href": "https://api.github.com/repos/PrismarineJS/node-minecraft-protocol/pulls/comments{/number}"
        },
        "review_comments": {
            "href": "https://api.github.com/repos/PrismarineJS/node-minecraft-protocol/pulls/308/comments"
        },
        "self": {
            "href": "https://api.github.com/repos/PrismarineJS/node-minecraft-protocol/pulls/308"
        },
        "statuses": {
            "href": "https://api.github.com/repos/PrismarineJS/node-minecraft-protocol/statuses/57d9c059411557cb91da054743ff9ba8796d4381"
        }
    },
    "active_lock_reason": null,
    "additions": 10,
    "assignee": null,
    "assignees": [],
    "author_association": "MEMBER",
    "auto_merge": null,
    "base": {
        "label": "PrismarineJS:master",
        "ref": "master",
        "repo": {
            "allow_forking": true,
            "archive_url": "https://api.github.com/repos/PrismarineJS/node-minecraft-protocol/{archive_format}{/ref}",
            "archived": false,
            "assignees_url": "https://api.github.com/repos/PrismarineJS/node-minecraft-protocol/assignees{/user}",
            "blobs_url": "https://api.github.com/repos/PrismarineJS/node-minecraft-protocol/git/blobs{/sha}",
            "branches_url": "https://api.github.com/repos/PrismarineJS/node-minecraft-protocol/branches{/branch}",
            "clone_url": "https://github.com/PrismarineJS/node-minecraft-protocol.git",
            "collaborators_url": "https://api.github.com/repos/PrismarineJS/node-minecraft-protocol/collaborators{/collaborator}",
            "comments_url": "https://api.github.com/repos/PrismarineJS/node-minecraft-protocol/comments{/number}",
            "commits_url": "https://api.github.com/repos/PrismarineJS/node-minecraft-protocol/commits{/sha}",
            "compare_url": "https://api.github.com/repos/PrismarineJS/node-minecraft-protocol/compare/{base}...{head}",
            "contents_url": "https://api.github.com/repos/PrismarineJS/node-minecraft-protocol/contents/{+path}",
            "contributors_url": "https://api.github.com/repos/PrismarineJS/node-minecraft-protocol/contributors",
            "created_at": "2013-01-01T09:17:05Z",
            "default_branch": "master",
            "deployments_url": "https://api.github.com/repos/PrismarineJS/node-minecraft-protocol/deployments",
            "description": "Parse and serialize minecraft packets, plus authentication and encryption.",
            "disabled": false,
            "downloads_url": "https://api.github.com/repos/PrismarineJS/node-minecraft-protocol/downloads",
            "events_url": "https://api.github.com/repos/PrismarineJS/node-minecraft-protocol/events",
            "fork": false,
            "forks": 222,
            "forks_count": 222,
            "forks_url": "https://api.github.com/repos/PrismarineJS/node-minecraft-protocol/forks",
            "full_name": "PrismarineJS/node-minecraft-protocol",
            "git_commits_url": "https://api.github.com/repos/PrismarineJS/node-minecraft-protocol/git/commits{/sha}",
            "git_refs_url": "https://api.github.com/repos/PrismarineJS/node-minecraft-protocol/git/refs{/sha}",
            "git_tags_url": "https://api.github.com/repos/PrismarineJS/node-minecraft-protocol/git/tags{/sha}",
            "git_url": "git://github.com/PrismarineJS/node-minecraft-protocol.git",
            "has_discussions": false,
            "has_downloads": true,
            "has_issues": true,
            "has_pages": true,
            "has_projects": true,
            "has_wiki": true,
            "homepage": "https://prismarinejs.github.io/node-minecraft-protocol/",
            "hooks_url": "https://api.github.com/repos/PrismarineJS/node-minecraft-protocol/hooks",
            "html_url": "https://github.com/PrismarineJS/node-minecraft-protocol",
            "id": 7394347,
            "is_template": false,
            "issue_comment_url": "https://api.github.com/repos/PrismarineJS/node-minecraft-protocol/issues/comments{/number}",
            "issue_events_url": "https://api.github.com/repos/PrismarineJS/node-minecraft-protocol/issues/events{/number}",
            "issues_url": "https://api.github.com/repos/PrismarineJS/node-minecraft-protocol/issues{/number}",
            "keys_url": "https://api.github.com/repos/PrismarineJS/node-minecraft-protocol/keys{/key_id}",
            "labels_url": "https://api.github.com/repos/PrismarineJS/node-minecraft-protocol/labels{/name}",
            "language": "JavaScript",
            "languages_url": "https://api.github.com/repos/PrismarineJS/node-minecraft-protocol/languages",
            "license": {
                "key": "bsd-3-clause",
                "name": "BSD 3-Clause \"New\" or \"Revised\" License",
                "node_id": "MDc6TGljZW5zZTU=",
                "spdx_id": "BSD-3-Clause",
                "url": "https://api.github.com/licenses/bsd-3-clause"
            },
            "merges_url": "https://api.github.com/repos/PrismarineJS/node-minecraft-protocol/merges",
            "milestones_url": "https://api.github.com/repos/PrismarineJS/node-minecraft-protocol/milestones{/number}",
            "mirror_url": null,
            "name": "node-minecraft-protocol",
            "node_id": "MDEwOlJlcG9zaXRvcnk3Mzk0MzQ3",
            "notifications_url": "https://api.github.com/repos/PrismarineJS/node-minecraft-protocol/notifications{?since,all,participating}",
            "open_issues": 92,
            "open_issues_count": 92,
            "owner": {
                "avatar_url": "https://avatars.githubusercontent.com/u/11053411?v=4",
                "events_url": "https://api.github.com/users/PrismarineJS/events{/privacy}",
                "followers_url": "https://api.github.com/users/PrismarineJS/followers",
                "following_url": "https://api.github.com/users/PrismarineJS/following{/other_user}",
                "gists_url": "https://api.github.com/users/PrismarineJS/gists{/gist_id}",
                "gravatar_id": "",
                "html_url": "https://github.com/PrismarineJS",
                "id": 11053411,
                "login": "PrismarineJS",
                "node_id": "MDEyOk9yZ2FuaXphdGlvbjExMDUzNDEx",
                "organizations_url": "https://api.github.com/users/PrismarineJS/orgs",
                "received_events_url": "https://api.github.com/users/PrismarineJS/received_events",
                "repos_url": "https://api.github.com/users/PrismarineJS/repos",
                "site_admin": false,
                "starred_url": "https://api.github.com/users/PrismarineJS/starred{/owner}{/repo}",
                "subscriptions_url": "https://api.github.com/users/PrismarineJS/subscriptions",
                "type": "Organization",
                "url": "https://api.github.com/users/PrismarineJS"
            },
            "private": false,
            "pulls_url": "https://api.github.com/repos/PrismarineJS/node-minecraft-protocol/pulls{/number}",
            "pushed_at": "2023-04-22T09:19:41Z",
            "releases_url": "https://api.github.com/repos/PrismarineJS/node-minecraft-protocol/releases{/id}",
            "size": 1785,
            "ssh_url": "git@github.com:PrismarineJS/node-minecraft-protocol.git",
            "stargazers_count": 1063,
            "stargazers_url": "https://api.github.com/repos/PrismarineJS/node-minecraft-protocol/stargazers",
            "statuses_url": "https://api.github.com/repos/PrismarineJS/node-minecraft-protocol/statuses/{sha}",
            "subscribers_url": "https://api.github.com/repos/PrismarineJS/node-minecraft-protocol/subscribers",
            "subscription_url": "https://api.github.com/repos/PrismarineJS/node-minecraft-protocol/subscription",
            "svn_url": "https://github.com/PrismarineJS/node-minecraft-protocol",
            "tags_url": "https://api.github.com/repos/PrismarineJS/node-minecraft-protocol/tags",
            "teams_url": "https://api.github.com/repos/PrismarineJS/node-minecraft-protocol/teams",
            "topics": [
                "client",
                "minecraft",
                "network",
                "packets",
                "protocol",
                "proxy",
                "server"
            ],
            "trees_url": "https://api.github.com/repos/PrismarineJS/node-minecraft-protocol/git/trees{/sha}",
            "updated_at": "2023-04-22T17:20:34Z",
            "url": "https://api.github.com/repos/PrismarineJS/node-minecraft-protocol",
            "visibility": "public",
            "watchers": 1063,
            "watchers_count": 1063,
            "web_commit_signoff_required": false
        },
        "sha": "fabff6d8ab5492a3ffe2dade2e81be9ea13be279",
        "user": {
            "avatar_url": "https://avatars.githubusercontent.com/u/11053411?v=4",
            "events_url": "https://api.github.com/users/PrismarineJS/events{/privacy}",
            "followers_url": "https://api.github.com/users/PrismarineJS/followers",
            "following_url": "https://api.github.com/users/PrismarineJS/following{/other_user}",
            "gists_url": "https://api.github.com/users/PrismarineJS/gists{/gist_id}",
            "gravatar_id": "",
            "html_url": "https://github.com/PrismarineJS",
            "id": 11053411,
            "login": "PrismarineJS",
            "node_id": "MDEyOk9yZ2FuaXphdGlvbjExMDUzNDEx",
            "organizations_url": "https://api.github.com/users/PrismarineJS/orgs",
            "received_events_url": "https://api.github.com/users/PrismarineJS/received_events",
            "repos_url": "https://api.github.com/users/PrismarineJS/repos",
            "site_admin": false,
            "starred_url": "https://api.github.com/users/PrismarineJS/starred{/owner}{/repo}",
            "subscriptions_url": "https://api.github.com/users/PrismarineJS/subscriptions",
            "type": "Organization",
            "url": "https://api.github.com/users/PrismarineJS"
        }
    },
    "body": "Seems nicer to me !\n\nLess confusing for users. (and yes, it works)\n",
    "changed_files": 6,
    "closed_at": "2015-11-30T13:58:46Z",
    "comment_data": [],
    "comment_regular_data": [
        {
            "author_association": "MEMBER",
            "body": "Awesome :D Merging this.\n",
            "created_at": "2015-11-30T13:58:42Z",
            "html_url": "https://github.com/PrismarineJS/node-minecraft-protocol/pull/308#issuecomment-160636966",
            "id": 160636966,
            "issue_url": "https://api.github.com/repos/PrismarineJS/node-minecraft-protocol/issues/308",
            "node_id": "MDEyOklzc3VlQ29tbWVudDE2MDYzNjk2Ng==",
            "performed_via_github_app": null,
            "reactions": {
                "+1": 0,
                "-1": 0,
                "confused": 0,
                "eyes": 0,
                "heart": 0,
                "hooray": 0,
                "laugh": 0,
                "rocket": 0,
                "total_count": 0,
                "url": "https://api.github.com/repos/PrismarineJS/node-minecraft-protocol/issues/comments/160636966/reactions"
            },
            "updated_at": "2015-11-30T13:58:42Z",
            "url": "https://api.github.com/repos/PrismarineJS/node-minecraft-protocol/issues/comments/160636966",
            "user": {
                "avatar_url": "https://avatars.githubusercontent.com/u/1069318?v=4",
                "events_url": "https://api.github.com/users/roblabla/events{/privacy}",
                "followers_url": "https://api.github.com/users/roblabla/followers",
                "following_url": "https://api.github.com/users/roblabla/following{/other_user}",
                "gists_url": "https://api.github.com/users/roblabla/gists{/gist_id}",
                "gravatar_id": "",
                "html_url": "https://github.com/roblabla",
                "id": 1069318,
                "login": "roblabla",
                "node_id": "MDQ6VXNlcjEwNjkzMTg=",
                "organizations_url": "https://api.github.com/users/roblabla/orgs",
                "received_events_url": "https://api.github.com/users/roblabla/received_events",
                "repos_url": "https://api.github.com/users/roblabla/repos",
                "site_admin": false,
                "starred_url": "https://api.github.com/users/roblabla/starred{/owner}{/repo}",
                "subscriptions_url": "https://api.github.com/users/roblabla/subscriptions",
                "type": "User",
                "url": "https://api.github.com/users/roblabla"
            }
        }
    ],
    "comments": 1,
    "comments_url": "https://api.github.com/repos/PrismarineJS/node-minecraft-protocol/issues/308/comments",
    "commit_data": [
        {
            "author": {
                "avatar_url": "https://avatars.githubusercontent.com/u/2346494?v=4",
                "events_url": "https://api.github.com/users/rom1504/events{/privacy}",
                "followers_url": "https://api.github.com/users/rom1504/followers",
                "following_url": "https://api.github.com/users/rom1504/following{/other_user}",
                "gists_url": "https://api.github.com/users/rom1504/gists{/gist_id}",
                "gravatar_id": "",
                "html_url": "https://github.com/rom1504",
                "id": 2346494,
                "login": "rom1504",
                "node_id": "MDQ6VXNlcjIzNDY0OTQ=",
                "organizations_url": "https://api.github.com/users/rom1504/orgs",
                "received_events_url": "https://api.github.com/users/rom1504/received_events",
                "repos_url": "https://api.github.com/users/rom1504/repos",
                "site_admin": false,
                "starred_url": "https://api.github.com/users/rom1504/starred{/owner}{/repo}",
                "subscriptions_url": "https://api.github.com/users/rom1504/subscriptions",
                "type": "User",
                "url": "https://api.github.com/users/rom1504"
            },
            "comments_url": "https://api.github.com/repos/PrismarineJS/node-minecraft-protocol/commits/57d9c059411557cb91da054743ff9ba8796d4381/comments",
            "commit": {
                "author": {
                    "date": "2015-11-30T12:23:38Z",
                    "email": "romain.rom1@gmail.com",
                    "name": "Romain Beaumont"
                },
                "comment_count": 0,
                "committer": {
                    "date": "2015-11-30T12:23:38Z",
                    "email": "romain.rom1@gmail.com",
                    "name": "Romain Beaumont"
                },
                "message": "use require-self to be able to use require('minecraft-protocol') in examples",
                "tree": {
                    "sha": "d706fb469b16c5e7cd7d64d5de6313febb621b8f",
                    "url": "https://api.github.com/repos/PrismarineJS/node-minecraft-protocol/git/trees/d706fb469b16c5e7cd7d64d5de6313febb621b8f"
                },
                "url": "https://api.github.com/repos/PrismarineJS/node-minecraft-protocol/git/commits/57d9c059411557cb91da054743ff9ba8796d4381",
                "verification": {
                    "payload": null,
                    "reason": "unsigned",
                    "signature": null,
                    "verified": false
                }
            },
            "committer": {
                "avatar_url": "https://avatars.githubusercontent.com/u/2346494?v=4",
                "events_url": "https://api.github.com/users/rom1504/events{/privacy}",
                "followers_url": "https://api.github.com/users/rom1504/followers",
                "following_url": "https://api.github.com/users/rom1504/following{/other_user}",
                "gists_url": "https://api.github.com/users/rom1504/gists{/gist_id}",
                "gravatar_id": "",
                "html_url": "https://github.com/rom1504",
                "id": 2346494,
                "login": "rom1504",
                "node_id": "MDQ6VXNlcjIzNDY0OTQ=",
                "organizations_url": "https://api.github.com/users/rom1504/orgs",
                "received_events_url": "https://api.github.com/users/rom1504/received_events",
                "repos_url": "https://api.github.com/users/rom1504/repos",
                "site_admin": false,
                "starred_url": "https://api.github.com/users/rom1504/starred{/owner}{/repo}",
                "subscriptions_url": "https://api.github.com/users/rom1504/subscriptions",
                "type": "User",
                "url": "https://api.github.com/users/rom1504"
            },
            "html_url": "https://github.com/PrismarineJS/node-minecraft-protocol/commit/57d9c059411557cb91da054743ff9ba8796d4381",
            "node_id": "MDY6Q29tbWl0MzI2NTY2NTc6NTdkOWMwNTk0MTE1NTdjYjkxZGEwNTQ3NDNmZjliYTg3OTZkNDM4MQ==",
            "parents": [
                {
                    "html_url": "https://github.com/PrismarineJS/node-minecraft-protocol/commit/fabff6d8ab5492a3ffe2dade2e81be9ea13be279",
                    "sha": "fabff6d8ab5492a3ffe2dade2e81be9ea13be279",
                    "url": "https://api.github.com/repos/PrismarineJS/node-minecraft-protocol/commits/fabff6d8ab5492a3ffe2dade2e81be9ea13be279"
                }
            ],
            "sha": "57d9c059411557cb91da054743ff9ba8796d4381",
            "url": "https://api.github.com/repos/PrismarineJS/node-minecraft-protocol/commits/57d9c059411557cb91da054743ff9ba8796d4381"
        }
    ],
    "commits": 1,
    "commits_url": "https://api.github.com/repos/PrismarineJS/node-minecraft-protocol/pulls/308/commits",
    "created_at": "2015-11-30T12:24:55Z",
    "deletions": 9,
    "diff_url": "https://github.com/PrismarineJS/node-minecraft-protocol/pull/308.diff",
    "draft": false,
    "head": {
        "label": "rom1504:use_require_self",
        "ref": "use_require_self",
        "repo": {
            "allow_forking": true,
            "archive_url": "https://api.github.com/repos/rom1504/node-minecraft-protocol/{archive_format}{/ref}",
            "archived": false,
            "assignees_url": "https://api.github.com/repos/rom1504/node-minecraft-protocol/assignees{/user}",
            "blobs_url": "https://api.github.com/repos/rom1504/node-minecraft-protocol/git/blobs{/sha}",
            "branches_url": "https://api.github.com/repos/rom1504/node-minecraft-protocol/branches{/branch}",
            "clone_url": "https://github.com/rom1504/node-minecraft-protocol.git",
            "collaborators_url": "https://api.github.com/repos/rom1504/node-minecraft-protocol/collaborators{/collaborator}",
            "comments_url": "https://api.github.com/repos/rom1504/node-minecraft-protocol/comments{/number}",
            "commits_url": "https://api.github.com/repos/rom1504/node-minecraft-protocol/commits{/sha}",
            "compare_url": "https://api.github.com/repos/rom1504/node-minecraft-protocol/compare/{base}...{head}",
            "contents_url": "https://api.github.com/repos/rom1504/node-minecraft-protocol/contents/{+path}",
            "contributors_url": "https://api.github.com/repos/rom1504/node-minecraft-protocol/contributors",
            "created_at": "2015-03-22T01:05:17Z",
            "default_branch": "master",
            "deployments_url": "https://api.github.com/repos/rom1504/node-minecraft-protocol/deployments",
            "description": "Parse and serialize minecraft packets, plus authentication and encryption.",
            "disabled": false,
            "downloads_url": "https://api.github.com/repos/rom1504/node-minecraft-protocol/downloads",
            "events_url": "https://api.github.com/repos/rom1504/node-minecraft-protocol/events",
            "fork": true,
            "forks": 0,
            "forks_count": 0,
            "forks_url": "https://api.github.com/repos/rom1504/node-minecraft-protocol/forks",
            "full_name": "rom1504/node-minecraft-protocol",
            "git_commits_url": "https://api.github.com/repos/rom1504/node-minecraft-protocol/git/commits{/sha}",
            "git_refs_url": "https://api.github.com/repos/rom1504/node-minecraft-protocol/git/refs{/sha}",
            "git_tags_url": "https://api.github.com/repos/rom1504/node-minecraft-protocol/git/tags{/sha}",
            "git_url": "git://github.com/rom1504/node-minecraft-protocol.git",
            "has_discussions": false,
            "has_downloads": true,
            "has_issues": false,
            "has_pages": false,
            "has_projects": true,
            "has_wiki": true,
            "homepage": "http://prismarinejs.github.io/",
            "hooks_url": "https://api.github.com/repos/rom1504/node-minecraft-protocol/hooks",
            "html_url": "https://github.com/rom1504/node-minecraft-protocol",
            "id": 32656657,
            "is_template": false,
            "issue_comment_url": "https://api.github.com/repos/rom1504/node-minecraft-protocol/issues/comments{/number}",
            "issue_events_url": "https://api.github.com/repos/rom1504/node-minecraft-protocol/issues/events{/number}",
            "issues_url": "https://api.github.com/repos/rom1504/node-minecraft-protocol/issues{/number}",
            "keys_url": "https://api.github.com/repos/rom1504/node-minecraft-protocol/keys{/key_id}",
            "labels_url": "https://api.github.com/repos/rom1504/node-minecraft-protocol/labels{/name}",
            "language": "JavaScript",
            "languages_url": "https://api.github.com/repos/rom1504/node-minecraft-protocol/languages",
            "license": null,
            "merges_url": "https://api.github.com/repos/rom1504/node-minecraft-protocol/merges",
            "milestones_url": "https://api.github.com/repos/rom1504/node-minecraft-protocol/milestones{/number}",
            "mirror_url": null,
            "name": "node-minecraft-protocol",
            "node_id": "MDEwOlJlcG9zaXRvcnkzMjY1NjY1Nw==",
            "notifications_url": "https://api.github.com/repos/rom1504/node-minecraft-protocol/notifications{?since,all,participating}",
            "open_issues": 0,
            "open_issues_count": 0,
            "owner": {
                "avatar_url": "https://avatars.githubusercontent.com/u/2346494?v=4",
                "events_url": "https://api.github.com/users/rom1504/events{/privacy}",
                "followers_url": "https://api.github.com/users/rom1504/followers",
                "following_url": "https://api.github.com/users/rom1504/following{/other_user}",
                "gists_url": "https://api.github.com/users/rom1504/gists{/gist_id}",
                "gravatar_id": "",
                "html_url": "https://github.com/rom1504",
                "id": 2346494,
                "login": "rom1504",
                "node_id": "MDQ6VXNlcjIzNDY0OTQ=",
                "organizations_url": "https://api.github.com/users/rom1504/orgs",
                "received_events_url": "https://api.github.com/users/rom1504/received_events",
                "repos_url": "https://api.github.com/users/rom1504/repos",
                "site_admin": false,
                "starred_url": "https://api.github.com/users/rom1504/starred{/owner}{/repo}",
                "subscriptions_url": "https://api.github.com/users/rom1504/subscriptions",
                "type": "User",
                "url": "https://api.github.com/users/rom1504"
            },
            "private": false,
            "pulls_url": "https://api.github.com/repos/rom1504/node-minecraft-protocol/pulls{/number}",
            "pushed_at": "2016-08-10T18:06:44Z",
            "releases_url": "https://api.github.com/repos/rom1504/node-minecraft-protocol/releases{/id}",
            "size": 1006,
            "ssh_url": "git@github.com:rom1504/node-minecraft-protocol.git",
            "stargazers_count": 0,
            "stargazers_url": "https://api.github.com/repos/rom1504/node-minecraft-protocol/stargazers",
            "statuses_url": "https://api.github.com/repos/rom1504/node-minecraft-protocol/statuses/{sha}",
            "subscribers_url": "https://api.github.com/repos/rom1504/node-minecraft-protocol/subscribers",
            "subscription_url": "https://api.github.com/repos/rom1504/node-minecraft-protocol/subscription",
            "svn_url": "https://github.com/rom1504/node-minecraft-protocol",
            "tags_url": "https://api.github.com/repos/rom1504/node-minecraft-protocol/tags",
            "teams_url": "https://api.github.com/repos/rom1504/node-minecraft-protocol/teams",
            "topics": [],
            "trees_url": "https://api.github.com/repos/rom1504/node-minecraft-protocol/git/trees{/sha}",
            "updated_at": "2016-01-19T23:44:33Z",
            "url": "https://api.github.com/repos/rom1504/node-minecraft-protocol",
            "visibility": "public",
            "watchers": 0,
            "watchers_count": 0,
            "web_commit_signoff_required": false
        },
        "sha": "57d9c059411557cb91da054743ff9ba8796d4381",
        "user": {
            "avatar_url": "https://avatars.githubusercontent.com/u/2346494?v=4",
            "events_url": "https://api.github.com/users/rom1504/events{/privacy}",
            "followers_url": "https://api.github.com/users/rom1504/followers",
            "following_url": "https://api.github.com/users/rom1504/following{/other_user}",
            "gists_url": "https://api.github.com/users/rom1504/gists{/gist_id}",
            "gravatar_id": "",
            "html_url": "https://github.com/rom1504",
            "id": 2346494,
            "login": "rom1504",
            "node_id": "MDQ6VXNlcjIzNDY0OTQ=",
            "organizations_url": "https://api.github.com/users/rom1504/orgs",
            "received_events_url": "https://api.github.com/users/rom1504/received_events",
            "repos_url": "https://api.github.com/users/rom1504/repos",
            "site_admin": false,
            "starred_url": "https://api.github.com/users/rom1504/starred{/owner}{/repo}",
            "subscriptions_url": "https://api.github.com/users/rom1504/subscriptions",
            "type": "User",
            "url": "https://api.github.com/users/rom1504"
        }
    },
    "html_url": "https://github.com/PrismarineJS/node-minecraft-protocol/pull/308",
    "id": 52117663,
    "issue_url": "https://api.github.com/repos/PrismarineJS/node-minecraft-protocol/issues/308",
    "labels": [],
    "locked": false,
    "maintainer_can_modify": false,
    "merge_commit_sha": "89cf6ac33154b80a47901e004043b066e758f1ba",
    "mergeable": null,
    "mergeable_state": "unknown",
    "merged": true,
    "merged_at": "2015-11-30T13:58:46Z",
    "merged_by": {
        "avatar_url": "https://avatars.githubusercontent.com/u/1069318?v=4",
        "events_url": "https://api.github.com/users/roblabla/events{/privacy}",
        "followers_url": "https://api.github.com/users/roblabla/followers",
        "following_url": "https://api.github.com/users/roblabla/following{/other_user}",
        "gists_url": "https://api.github.com/users/roblabla/gists{/gist_id}",
        "gravatar_id": "",
        "html_url": "https://github.com/roblabla",
        "id": 1069318,
        "login": "roblabla",
        "node_id": "MDQ6VXNlcjEwNjkzMTg=",
        "organizations_url": "https://api.github.com/users/roblabla/orgs",
        "received_events_url": "https://api.github.com/users/roblabla/received_events",
        "repos_url": "https://api.github.com/users/roblabla/repos",
        "site_admin": false,
        "starred_url": "https://api.github.com/users/roblabla/starred{/owner}{/repo}",
        "subscriptions_url": "https://api.github.com/users/roblabla/subscriptions",
        "type": "User",
        "url": "https://api.github.com/users/roblabla"
    },
    "milestone": null,
    "node_id": "MDExOlB1bGxSZXF1ZXN0NTIxMTc2NjM=",
    "number": 308,
    "patch_url": "https://github.com/PrismarineJS/node-minecraft-protocol/pull/308.patch",
    "rebaseable": null,
    "requested_reviewers": [],
    "requested_teams": [],
    "review_comment_url": "https://api.github.com/repos/PrismarineJS/node-minecraft-protocol/pulls/comments{/number}",
    "review_comments": 0,
    "review_comments_url": "https://api.github.com/repos/PrismarineJS/node-minecraft-protocol/pulls/308/comments",
    "state": "closed",
    "statuses_url": "https://api.github.com/repos/PrismarineJS/node-minecraft-protocol/statuses/57d9c059411557cb91da054743ff9ba8796d4381",
    "title": "use require-self to be able to use require('minecraft-protocol') in examples",
    "updated_at": "2015-11-30T14:01:21Z",
    "url": "https://api.github.com/repos/PrismarineJS/node-minecraft-protocol/pulls/308",
    "user": {
        "avatar_url": "https://avatars.githubusercontent.com/u/2346494?v=4",
        "events_url": "https://api.github.com/users/rom1504/events{/privacy}",
        "followers_url": "https://api.github.com/users/rom1504/followers",
        "following_url": "https://api.github.com/users/rom1504/following{/other_user}",
        "gists_url": "https://api.github.com/users/rom1504/gists{/gist_id}",
        "gravatar_id": "",
        "html_url": "https://github.com/rom1504",
        "id": 2346494,
        "login": "rom1504",
        "node_id": "MDQ6VXNlcjIzNDY0OTQ=",
        "organizations_url": "https://api.github.com/users/rom1504/orgs",
        "received_events_url": "https://api.github.com/users/rom1504/received_events",
        "repos_url": "https://api.github.com/users/rom1504/repos",
        "site_admin": false,
        "starred_url": "https://api.github.com/users/rom1504/starred{/owner}{/repo}",
        "subscriptions_url": "https://api.github.com/users/rom1504/subscriptions",
        "type": "User",
        "url": "https://api.github.com/users/rom1504"
    }
}