{
    "_links": {
        "comments": {
            "href": "https://api.github.com/repos/PrismarineJS/node-minecraft-protocol/issues/43/comments"
        },
        "commits": {
            "href": "https://api.github.com/repos/PrismarineJS/node-minecraft-protocol/pulls/43/commits"
        },
        "html": {
            "href": "https://github.com/PrismarineJS/node-minecraft-protocol/pull/43"
        },
        "issue": {
            "href": "https://api.github.com/repos/PrismarineJS/node-minecraft-protocol/issues/43"
        },
        "review_comment": {
            "href": "https://api.github.com/repos/PrismarineJS/node-minecraft-protocol/pulls/comments{/number}"
        },
        "review_comments": {
            "href": "https://api.github.com/repos/PrismarineJS/node-minecraft-protocol/pulls/43/comments"
        },
        "self": {
            "href": "https://api.github.com/repos/PrismarineJS/node-minecraft-protocol/pulls/43"
        },
        "statuses": {
            "href": "https://api.github.com/repos/PrismarineJS/node-minecraft-protocol/statuses/5f6abad7006b92e89598d8381b401f8fdd8951a9"
        }
    },
    "active_lock_reason": null,
    "additions": 39,
    "assignee": null,
    "assignees": [],
    "author_association": "CONTRIBUTOR",
    "auto_merge": null,
    "base": {
        "label": "PrismarineJS:master",
        "ref": "master",
        "repo": {
            "allow_forking": true,
            "archive_url": "https://api.github.com/repos/PrismarineJS/node-minecraft-protocol/{archive_format}{/ref}",
            "archived": false,
            "assignees_url": "https://api.github.com/repos/PrismarineJS/node-minecraft-protocol/assignees{/user}",
            "blobs_url": "https://api.github.com/repos/PrismarineJS/node-minecraft-protocol/git/blobs{/sha}",
            "branches_url": "https://api.github.com/repos/PrismarineJS/node-minecraft-protocol/branches{/branch}",
            "clone_url": "https://github.com/PrismarineJS/node-minecraft-protocol.git",
            "collaborators_url": "https://api.github.com/repos/PrismarineJS/node-minecraft-protocol/collaborators{/collaborator}",
            "comments_url": "https://api.github.com/repos/PrismarineJS/node-minecraft-protocol/comments{/number}",
            "commits_url": "https://api.github.com/repos/PrismarineJS/node-minecraft-protocol/commits{/sha}",
            "compare_url": "https://api.github.com/repos/PrismarineJS/node-minecraft-protocol/compare/{base}...{head}",
            "contents_url": "https://api.github.com/repos/PrismarineJS/node-minecraft-protocol/contents/{+path}",
            "contributors_url": "https://api.github.com/repos/PrismarineJS/node-minecraft-protocol/contributors",
            "created_at": "2013-01-01T09:17:05Z",
            "default_branch": "master",
            "deployments_url": "https://api.github.com/repos/PrismarineJS/node-minecraft-protocol/deployments",
            "description": "Parse and serialize minecraft packets, plus authentication and encryption.",
            "disabled": false,
            "downloads_url": "https://api.github.com/repos/PrismarineJS/node-minecraft-protocol/downloads",
            "events_url": "https://api.github.com/repos/PrismarineJS/node-minecraft-protocol/events",
            "fork": false,
            "forks": 222,
            "forks_count": 222,
            "forks_url": "https://api.github.com/repos/PrismarineJS/node-minecraft-protocol/forks",
            "full_name": "PrismarineJS/node-minecraft-protocol",
            "git_commits_url": "https://api.github.com/repos/PrismarineJS/node-minecraft-protocol/git/commits{/sha}",
            "git_refs_url": "https://api.github.com/repos/PrismarineJS/node-minecraft-protocol/git/refs{/sha}",
            "git_tags_url": "https://api.github.com/repos/PrismarineJS/node-minecraft-protocol/git/tags{/sha}",
            "git_url": "git://github.com/PrismarineJS/node-minecraft-protocol.git",
            "has_discussions": false,
            "has_downloads": true,
            "has_issues": true,
            "has_pages": true,
            "has_projects": true,
            "has_wiki": true,
            "homepage": "https://prismarinejs.github.io/node-minecraft-protocol/",
            "hooks_url": "https://api.github.com/repos/PrismarineJS/node-minecraft-protocol/hooks",
            "html_url": "https://github.com/PrismarineJS/node-minecraft-protocol",
            "id": 7394347,
            "is_template": false,
            "issue_comment_url": "https://api.github.com/repos/PrismarineJS/node-minecraft-protocol/issues/comments{/number}",
            "issue_events_url": "https://api.github.com/repos/PrismarineJS/node-minecraft-protocol/issues/events{/number}",
            "issues_url": "https://api.github.com/repos/PrismarineJS/node-minecraft-protocol/issues{/number}",
            "keys_url": "https://api.github.com/repos/PrismarineJS/node-minecraft-protocol/keys{/key_id}",
            "labels_url": "https://api.github.com/repos/PrismarineJS/node-minecraft-protocol/labels{/name}",
            "language": "JavaScript",
            "languages_url": "https://api.github.com/repos/PrismarineJS/node-minecraft-protocol/languages",
            "license": {
                "key": "bsd-3-clause",
                "name": "BSD 3-Clause \"New\" or \"Revised\" License",
                "node_id": "MDc6TGljZW5zZTU=",
                "spdx_id": "BSD-3-Clause",
                "url": "https://api.github.com/licenses/bsd-3-clause"
            },
            "merges_url": "https://api.github.com/repos/PrismarineJS/node-minecraft-protocol/merges",
            "milestones_url": "https://api.github.com/repos/PrismarineJS/node-minecraft-protocol/milestones{/number}",
            "mirror_url": null,
            "name": "node-minecraft-protocol",
            "node_id": "MDEwOlJlcG9zaXRvcnk3Mzk0MzQ3",
            "notifications_url": "https://api.github.com/repos/PrismarineJS/node-minecraft-protocol/notifications{?since,all,participating}",
            "open_issues": 92,
            "open_issues_count": 92,
            "owner": {
                "avatar_url": "https://avatars.githubusercontent.com/u/11053411?v=4",
                "events_url": "https://api.github.com/users/PrismarineJS/events{/privacy}",
                "followers_url": "https://api.github.com/users/PrismarineJS/followers",
                "following_url": "https://api.github.com/users/PrismarineJS/following{/other_user}",
                "gists_url": "https://api.github.com/users/PrismarineJS/gists{/gist_id}",
                "gravatar_id": "",
                "html_url": "https://github.com/PrismarineJS",
                "id": 11053411,
                "login": "PrismarineJS",
                "node_id": "MDEyOk9yZ2FuaXphdGlvbjExMDUzNDEx",
                "organizations_url": "https://api.github.com/users/PrismarineJS/orgs",
                "received_events_url": "https://api.github.com/users/PrismarineJS/received_events",
                "repos_url": "https://api.github.com/users/PrismarineJS/repos",
                "site_admin": false,
                "starred_url": "https://api.github.com/users/PrismarineJS/starred{/owner}{/repo}",
                "subscriptions_url": "https://api.github.com/users/PrismarineJS/subscriptions",
                "type": "Organization",
                "url": "https://api.github.com/users/PrismarineJS"
            },
            "private": false,
            "pulls_url": "https://api.github.com/repos/PrismarineJS/node-minecraft-protocol/pulls{/number}",
            "pushed_at": "2023-04-22T09:19:41Z",
            "releases_url": "https://api.github.com/repos/PrismarineJS/node-minecraft-protocol/releases{/id}",
            "size": 1785,
            "ssh_url": "git@github.com:PrismarineJS/node-minecraft-protocol.git",
            "stargazers_count": 1063,
            "stargazers_url": "https://api.github.com/repos/PrismarineJS/node-minecraft-protocol/stargazers",
            "statuses_url": "https://api.github.com/repos/PrismarineJS/node-minecraft-protocol/statuses/{sha}",
            "subscribers_url": "https://api.github.com/repos/PrismarineJS/node-minecraft-protocol/subscribers",
            "subscription_url": "https://api.github.com/repos/PrismarineJS/node-minecraft-protocol/subscription",
            "svn_url": "https://github.com/PrismarineJS/node-minecraft-protocol",
            "tags_url": "https://api.github.com/repos/PrismarineJS/node-minecraft-protocol/tags",
            "teams_url": "https://api.github.com/repos/PrismarineJS/node-minecraft-protocol/teams",
            "topics": [
                "client",
                "minecraft",
                "network",
                "packets",
                "protocol",
                "proxy",
                "server"
            ],
            "trees_url": "https://api.github.com/repos/PrismarineJS/node-minecraft-protocol/git/trees{/sha}",
            "updated_at": "2023-04-22T17:20:34Z",
            "url": "https://api.github.com/repos/PrismarineJS/node-minecraft-protocol",
            "visibility": "public",
            "watchers": 1063,
            "watchers_count": 1063,
            "web_commit_signoff_required": false
        },
        "sha": "72fec007fc0918f6dd93616faf2355130469e993",
        "user": {
            "avatar_url": "https://avatars.githubusercontent.com/u/11053411?v=4",
            "events_url": "https://api.github.com/users/PrismarineJS/events{/privacy}",
            "followers_url": "https://api.github.com/users/PrismarineJS/followers",
            "following_url": "https://api.github.com/users/PrismarineJS/following{/other_user}",
            "gists_url": "https://api.github.com/users/PrismarineJS/gists{/gist_id}",
            "gravatar_id": "",
            "html_url": "https://github.com/PrismarineJS",
            "id": 11053411,
            "login": "PrismarineJS",
            "node_id": "MDEyOk9yZ2FuaXphdGlvbjExMDUzNDEx",
            "organizations_url": "https://api.github.com/users/PrismarineJS/orgs",
            "received_events_url": "https://api.github.com/users/PrismarineJS/received_events",
            "repos_url": "https://api.github.com/users/PrismarineJS/repos",
            "site_admin": false,
            "starred_url": "https://api.github.com/users/PrismarineJS/starred{/owner}{/repo}",
            "subscriptions_url": "https://api.github.com/users/PrismarineJS/subscriptions",
            "type": "Organization",
            "url": "https://api.github.com/users/PrismarineJS"
        }
    },
    "body": "It makes no sense to leave the connection open when the other side has closed their connection, so I made the client close the connection when it gets an 0xff.\n",
    "changed_files": 1,
    "closed_at": "2013-03-14T00:14:26Z",
    "comment_data": [],
    "comment_regular_data": [
        {
            "author_association": "MEMBER",
            "body": "Sorry it took so long for me to look at this. Did you change your mind about wanting to merge it?\n",
            "created_at": "2013-03-14T02:41:46Z",
            "html_url": "https://github.com/PrismarineJS/node-minecraft-protocol/pull/43#issuecomment-14883728",
            "id": 14883728,
            "issue_url": "https://api.github.com/repos/PrismarineJS/node-minecraft-protocol/issues/43",
            "node_id": "MDEyOklzc3VlQ29tbWVudDE0ODgzNzI4",
            "performed_via_github_app": null,
            "reactions": {
                "+1": 0,
                "-1": 0,
                "confused": 0,
                "eyes": 0,
                "heart": 0,
                "hooray": 0,
                "laugh": 0,
                "rocket": 0,
                "total_count": 0,
                "url": "https://api.github.com/repos/PrismarineJS/node-minecraft-protocol/issues/comments/14883728/reactions"
            },
            "updated_at": "2013-03-14T02:41:46Z",
            "url": "https://api.github.com/repos/PrismarineJS/node-minecraft-protocol/issues/comments/14883728",
            "user": {
                "avatar_url": "https://avatars.githubusercontent.com/u/106511?v=4",
                "events_url": "https://api.github.com/users/andrewrk/events{/privacy}",
                "followers_url": "https://api.github.com/users/andrewrk/followers",
                "following_url": "https://api.github.com/users/andrewrk/following{/other_user}",
                "gists_url": "https://api.github.com/users/andrewrk/gists{/gist_id}",
                "gravatar_id": "",
                "html_url": "https://github.com/andrewrk",
                "id": 106511,
                "login": "andrewrk",
                "node_id": "MDQ6VXNlcjEwNjUxMQ==",
                "organizations_url": "https://api.github.com/users/andrewrk/orgs",
                "received_events_url": "https://api.github.com/users/andrewrk/received_events",
                "repos_url": "https://api.github.com/users/andrewrk/repos",
                "site_admin": false,
                "starred_url": "https://api.github.com/users/andrewrk/starred{/owner}{/repo}",
                "subscriptions_url": "https://api.github.com/users/andrewrk/subscriptions",
                "type": "User",
                "url": "https://api.github.com/users/andrewrk"
            }
        },
        {
            "author_association": "CONTRIBUTOR",
            "body": "I closed it because Github doesn't let you have more than one pull request open and this one isn't as important.\n",
            "created_at": "2013-03-14T03:06:34Z",
            "html_url": "https://github.com/PrismarineJS/node-minecraft-protocol/pull/43#issuecomment-14884333",
            "id": 14884333,
            "issue_url": "https://api.github.com/repos/PrismarineJS/node-minecraft-protocol/issues/43",
            "node_id": "MDEyOklzc3VlQ29tbWVudDE0ODg0MzMz",
            "performed_via_github_app": null,
            "reactions": {
                "+1": 0,
                "-1": 0,
                "confused": 0,
                "eyes": 0,
                "heart": 0,
                "hooray": 0,
                "laugh": 0,
                "rocket": 0,
                "total_count": 0,
                "url": "https://api.github.com/repos/PrismarineJS/node-minecraft-protocol/issues/comments/14884333/reactions"
            },
            "updated_at": "2013-03-14T03:06:34Z",
            "url": "https://api.github.com/repos/PrismarineJS/node-minecraft-protocol/issues/comments/14884333",
            "user": {
                "avatar_url": "https://avatars.githubusercontent.com/u/398285?v=4",
                "events_url": "https://api.github.com/users/mappum/events{/privacy}",
                "followers_url": "https://api.github.com/users/mappum/followers",
                "following_url": "https://api.github.com/users/mappum/following{/other_user}",
                "gists_url": "https://api.github.com/users/mappum/gists{/gist_id}",
                "gravatar_id": "",
                "html_url": "https://github.com/mappum",
                "id": 398285,
                "login": "mappum",
                "node_id": "MDQ6VXNlcjM5ODI4NQ==",
                "organizations_url": "https://api.github.com/users/mappum/orgs",
                "received_events_url": "https://api.github.com/users/mappum/received_events",
                "repos_url": "https://api.github.com/users/mappum/repos",
                "site_admin": false,
                "starred_url": "https://api.github.com/users/mappum/starred{/owner}{/repo}",
                "subscriptions_url": "https://api.github.com/users/mappum/subscriptions",
                "type": "User",
                "url": "https://api.github.com/users/mappum"
            }
        },
        {
            "author_association": "MEMBER",
            "body": "whaaaat, since when? I'm 95% sure you can have more than one PR open - you might just have to have another branch.\n",
            "created_at": "2013-03-14T03:26:41Z",
            "html_url": "https://github.com/PrismarineJS/node-minecraft-protocol/pull/43#issuecomment-14884803",
            "id": 14884803,
            "issue_url": "https://api.github.com/repos/PrismarineJS/node-minecraft-protocol/issues/43",
            "node_id": "MDEyOklzc3VlQ29tbWVudDE0ODg0ODAz",
            "performed_via_github_app": null,
            "reactions": {
                "+1": 0,
                "-1": 0,
                "confused": 0,
                "eyes": 0,
                "heart": 0,
                "hooray": 0,
                "laugh": 0,
                "rocket": 0,
                "total_count": 0,
                "url": "https://api.github.com/repos/PrismarineJS/node-minecraft-protocol/issues/comments/14884803/reactions"
            },
            "updated_at": "2013-03-14T03:26:41Z",
            "url": "https://api.github.com/repos/PrismarineJS/node-minecraft-protocol/issues/comments/14884803",
            "user": {
                "avatar_url": "https://avatars.githubusercontent.com/u/106511?v=4",
                "events_url": "https://api.github.com/users/andrewrk/events{/privacy}",
                "followers_url": "https://api.github.com/users/andrewrk/followers",
                "following_url": "https://api.github.com/users/andrewrk/following{/other_user}",
                "gists_url": "https://api.github.com/users/andrewrk/gists{/gist_id}",
                "gravatar_id": "",
                "html_url": "https://github.com/andrewrk",
                "id": 106511,
                "login": "andrewrk",
                "node_id": "MDQ6VXNlcjEwNjUxMQ==",
                "organizations_url": "https://api.github.com/users/andrewrk/orgs",
                "received_events_url": "https://api.github.com/users/andrewrk/received_events",
                "repos_url": "https://api.github.com/users/andrewrk/repos",
                "site_admin": false,
                "starred_url": "https://api.github.com/users/andrewrk/starred{/owner}{/repo}",
                "subscriptions_url": "https://api.github.com/users/andrewrk/subscriptions",
                "type": "User",
                "url": "https://api.github.com/users/andrewrk"
            }
        },
        {
            "author_association": "CONTRIBUTOR",
            "body": "That's what I meant, on the same branch (and I had already put this in master).\n",
            "created_at": "2013-03-14T03:39:15Z",
            "html_url": "https://github.com/PrismarineJS/node-minecraft-protocol/pull/43#issuecomment-14885086",
            "id": 14885086,
            "issue_url": "https://api.github.com/repos/PrismarineJS/node-minecraft-protocol/issues/43",
            "node_id": "MDEyOklzc3VlQ29tbWVudDE0ODg1MDg2",
            "performed_via_github_app": null,
            "reactions": {
                "+1": 0,
                "-1": 0,
                "confused": 0,
                "eyes": 0,
                "heart": 0,
                "hooray": 0,
                "laugh": 0,
                "rocket": 0,
                "total_count": 0,
                "url": "https://api.github.com/repos/PrismarineJS/node-minecraft-protocol/issues/comments/14885086/reactions"
            },
            "updated_at": "2013-03-14T03:39:15Z",
            "url": "https://api.github.com/repos/PrismarineJS/node-minecraft-protocol/issues/comments/14885086",
            "user": {
                "avatar_url": "https://avatars.githubusercontent.com/u/398285?v=4",
                "events_url": "https://api.github.com/users/mappum/events{/privacy}",
                "followers_url": "https://api.github.com/users/mappum/followers",
                "following_url": "https://api.github.com/users/mappum/following{/other_user}",
                "gists_url": "https://api.github.com/users/mappum/gists{/gist_id}",
                "gravatar_id": "",
                "html_url": "https://github.com/mappum",
                "id": 398285,
                "login": "mappum",
                "node_id": "MDQ6VXNlcjM5ODI4NQ==",
                "organizations_url": "https://api.github.com/users/mappum/orgs",
                "received_events_url": "https://api.github.com/users/mappum/received_events",
                "repos_url": "https://api.github.com/users/mappum/repos",
                "site_admin": false,
                "starred_url": "https://api.github.com/users/mappum/starred{/owner}{/repo}",
                "subscriptions_url": "https://api.github.com/users/mappum/subscriptions",
                "type": "User",
                "url": "https://api.github.com/users/mappum"
            }
        },
        {
            "author_association": "MEMBER",
            "body": "ah. well anyway it looks like disconnecting works differently now: http://wiki.vg/Pre-release_protocol#Closing_the_connection\n",
            "created_at": "2013-03-14T04:11:54Z",
            "html_url": "https://github.com/PrismarineJS/node-minecraft-protocol/pull/43#issuecomment-14885790",
            "id": 14885790,
            "issue_url": "https://api.github.com/repos/PrismarineJS/node-minecraft-protocol/issues/43",
            "node_id": "MDEyOklzc3VlQ29tbWVudDE0ODg1Nzkw",
            "performed_via_github_app": null,
            "reactions": {
                "+1": 0,
                "-1": 0,
                "confused": 0,
                "eyes": 0,
                "heart": 0,
                "hooray": 0,
                "laugh": 0,
                "rocket": 0,
                "total_count": 0,
                "url": "https://api.github.com/repos/PrismarineJS/node-minecraft-protocol/issues/comments/14885790/reactions"
            },
            "updated_at": "2013-03-14T04:11:54Z",
            "url": "https://api.github.com/repos/PrismarineJS/node-minecraft-protocol/issues/comments/14885790",
            "user": {
                "avatar_url": "https://avatars.githubusercontent.com/u/106511?v=4",
                "events_url": "https://api.github.com/users/andrewrk/events{/privacy}",
                "followers_url": "https://api.github.com/users/andrewrk/followers",
                "following_url": "https://api.github.com/users/andrewrk/following{/other_user}",
                "gists_url": "https://api.github.com/users/andrewrk/gists{/gist_id}",
                "gravatar_id": "",
                "html_url": "https://github.com/andrewrk",
                "id": 106511,
                "login": "andrewrk",
                "node_id": "MDQ6VXNlcjEwNjUxMQ==",
                "organizations_url": "https://api.github.com/users/andrewrk/orgs",
                "received_events_url": "https://api.github.com/users/andrewrk/received_events",
                "repos_url": "https://api.github.com/users/andrewrk/repos",
                "site_admin": false,
                "starred_url": "https://api.github.com/users/andrewrk/starred{/owner}{/repo}",
                "subscriptions_url": "https://api.github.com/users/andrewrk/subscriptions",
                "type": "User",
                "url": "https://api.github.com/users/andrewrk"
            }
        }
    ],
    "comments": 5,
    "comments_url": "https://api.github.com/repos/PrismarineJS/node-minecraft-protocol/issues/43/comments",
    "commit_data": [
        {
            "author": {
                "avatar_url": "https://avatars.githubusercontent.com/u/398285?v=4",
                "events_url": "https://api.github.com/users/mappum/events{/privacy}",
                "followers_url": "https://api.github.com/users/mappum/followers",
                "following_url": "https://api.github.com/users/mappum/following{/other_user}",
                "gists_url": "https://api.github.com/users/mappum/gists{/gist_id}",
                "gravatar_id": "",
                "html_url": "https://github.com/mappum",
                "id": 398285,
                "login": "mappum",
                "node_id": "MDQ6VXNlcjM5ODI4NQ==",
                "organizations_url": "https://api.github.com/users/mappum/orgs",
                "received_events_url": "https://api.github.com/users/mappum/received_events",
                "repos_url": "https://api.github.com/users/mappum/repos",
                "site_admin": false,
                "starred_url": "https://api.github.com/users/mappum/starred{/owner}{/repo}",
                "subscriptions_url": "https://api.github.com/users/mappum/subscriptions",
                "type": "User",
                "url": "https://api.github.com/users/mappum"
            },
            "comments_url": "https://api.github.com/repos/PrismarineJS/node-minecraft-protocol/commits/5f6abad7006b92e89598d8381b401f8fdd8951a9/comments",
            "commit": {
                "author": {
                    "date": "2013-03-14T00:06:28Z",
                    "email": "mappum@gmail.com",
                    "name": "Matt Bell"
                },
                "comment_count": 0,
                "committer": {
                    "date": "2013-03-14T00:06:28Z",
                    "email": "mappum@gmail.com",
                    "name": "Matt Bell"
                },
                "message": "Updated to protocol 60 (1.5.0)",
                "tree": {
                    "sha": "c2a2e4fa829fe42249202440983522e3d03b0519",
                    "url": "https://api.github.com/repos/PrismarineJS/node-minecraft-protocol/git/trees/c2a2e4fa829fe42249202440983522e3d03b0519"
                },
                "url": "https://api.github.com/repos/PrismarineJS/node-minecraft-protocol/git/commits/5f6abad7006b92e89598d8381b401f8fdd8951a9",
                "verification": {
                    "payload": null,
                    "reason": "unsigned",
                    "signature": null,
                    "verified": false
                }
            },
            "committer": {
                "avatar_url": "https://avatars.githubusercontent.com/u/398285?v=4",
                "events_url": "https://api.github.com/users/mappum/events{/privacy}",
                "followers_url": "https://api.github.com/users/mappum/followers",
                "following_url": "https://api.github.com/users/mappum/following{/other_user}",
                "gists_url": "https://api.github.com/users/mappum/gists{/gist_id}",
                "gravatar_id": "",
                "html_url": "https://github.com/mappum",
                "id": 398285,
                "login": "mappum",
                "node_id": "MDQ6VXNlcjM5ODI4NQ==",
                "organizations_url": "https://api.github.com/users/mappum/orgs",
                "received_events_url": "https://api.github.com/users/mappum/received_events",
                "repos_url": "https://api.github.com/users/mappum/repos",
                "site_admin": false,
                "starred_url": "https://api.github.com/users/mappum/starred{/owner}{/repo}",
                "subscriptions_url": "https://api.github.com/users/mappum/subscriptions",
                "type": "User",
                "url": "https://api.github.com/users/mappum"
            },
            "html_url": "https://github.com/PrismarineJS/node-minecraft-protocol/commit/5f6abad7006b92e89598d8381b401f8fdd8951a9",
            "node_id": "MDY6Q29tbWl0Nzk2OTkxNDo1ZjZhYmFkNzAwNmI5MmU4OTU5OGQ4MzgxYjQwMWY4ZmRkODk1MWE5",
            "parents": [
                {
                    "html_url": "https://github.com/PrismarineJS/node-minecraft-protocol/commit/72fec007fc0918f6dd93616faf2355130469e993",
                    "sha": "72fec007fc0918f6dd93616faf2355130469e993",
                    "url": "https://api.github.com/repos/PrismarineJS/node-minecraft-protocol/commits/72fec007fc0918f6dd93616faf2355130469e993"
                }
            ],
            "sha": "5f6abad7006b92e89598d8381b401f8fdd8951a9",
            "url": "https://api.github.com/repos/PrismarineJS/node-minecraft-protocol/commits/5f6abad7006b92e89598d8381b401f8fdd8951a9"
        }
    ],
    "commits": 1,
    "commits_url": "https://api.github.com/repos/PrismarineJS/node-minecraft-protocol/pulls/43/commits",
    "created_at": "2013-02-15T00:28:01Z",
    "deletions": 3,
    "diff_url": "https://github.com/PrismarineJS/node-minecraft-protocol/pull/43.diff",
    "draft": false,
    "head": {
        "label": "mappum:master",
        "ref": "master",
        "repo": {
            "allow_forking": true,
            "archive_url": "https://api.github.com/repos/mappum/node-minecraft-protocol/{archive_format}{/ref}",
            "archived": false,
            "assignees_url": "https://api.github.com/repos/mappum/node-minecraft-protocol/assignees{/user}",
            "blobs_url": "https://api.github.com/repos/mappum/node-minecraft-protocol/git/blobs{/sha}",
            "branches_url": "https://api.github.com/repos/mappum/node-minecraft-protocol/branches{/branch}",
            "clone_url": "https://github.com/mappum/node-minecraft-protocol.git",
            "collaborators_url": "https://api.github.com/repos/mappum/node-minecraft-protocol/collaborators{/collaborator}",
            "comments_url": "https://api.github.com/repos/mappum/node-minecraft-protocol/comments{/number}",
            "commits_url": "https://api.github.com/repos/mappum/node-minecraft-protocol/commits{/sha}",
            "compare_url": "https://api.github.com/repos/mappum/node-minecraft-protocol/compare/{base}...{head}",
            "contents_url": "https://api.github.com/repos/mappum/node-minecraft-protocol/contents/{+path}",
            "contributors_url": "https://api.github.com/repos/mappum/node-minecraft-protocol/contributors",
            "created_at": "2013-02-02T01:23:53Z",
            "default_branch": "master",
            "deployments_url": "https://api.github.com/repos/mappum/node-minecraft-protocol/deployments",
            "description": "Parse and serialize minecraft packets, plus authentication and encryption.",
            "disabled": false,
            "downloads_url": "https://api.github.com/repos/mappum/node-minecraft-protocol/downloads",
            "events_url": "https://api.github.com/repos/mappum/node-minecraft-protocol/events",
            "fork": true,
            "forks": 0,
            "forks_count": 0,
            "forks_url": "https://api.github.com/repos/mappum/node-minecraft-protocol/forks",
            "full_name": "mappum/node-minecraft-protocol",
            "git_commits_url": "https://api.github.com/repos/mappum/node-minecraft-protocol/git/commits{/sha}",
            "git_refs_url": "https://api.github.com/repos/mappum/node-minecraft-protocol/git/refs{/sha}",
            "git_tags_url": "https://api.github.com/repos/mappum/node-minecraft-protocol/git/tags{/sha}",
            "git_url": "git://github.com/mappum/node-minecraft-protocol.git",
            "has_discussions": false,
            "has_downloads": true,
            "has_issues": false,
            "has_pages": false,
            "has_projects": true,
            "has_wiki": true,
            "homepage": "",
            "hooks_url": "https://api.github.com/repos/mappum/node-minecraft-protocol/hooks",
            "html_url": "https://github.com/mappum/node-minecraft-protocol",
            "id": 7969914,
            "is_template": false,
            "issue_comment_url": "https://api.github.com/repos/mappum/node-minecraft-protocol/issues/comments{/number}",
            "issue_events_url": "https://api.github.com/repos/mappum/node-minecraft-protocol/issues/events{/number}",
            "issues_url": "https://api.github.com/repos/mappum/node-minecraft-protocol/issues{/number}",
            "keys_url": "https://api.github.com/repos/mappum/node-minecraft-protocol/keys{/key_id}",
            "labels_url": "https://api.github.com/repos/mappum/node-minecraft-protocol/labels{/name}",
            "language": "JavaScript",
            "languages_url": "https://api.github.com/repos/mappum/node-minecraft-protocol/languages",
            "license": null,
            "merges_url": "https://api.github.com/repos/mappum/node-minecraft-protocol/merges",
            "milestones_url": "https://api.github.com/repos/mappum/node-minecraft-protocol/milestones{/number}",
            "mirror_url": null,
            "name": "node-minecraft-protocol",
            "node_id": "MDEwOlJlcG9zaXRvcnk3OTY5OTE0",
            "notifications_url": "https://api.github.com/repos/mappum/node-minecraft-protocol/notifications{?since,all,participating}",
            "open_issues": 0,
            "open_issues_count": 0,
            "owner": {
                "avatar_url": "https://avatars.githubusercontent.com/u/398285?v=4",
                "events_url": "https://api.github.com/users/mappum/events{/privacy}",
                "followers_url": "https://api.github.com/users/mappum/followers",
                "following_url": "https://api.github.com/users/mappum/following{/other_user}",
                "gists_url": "https://api.github.com/users/mappum/gists{/gist_id}",
                "gravatar_id": "",
                "html_url": "https://github.com/mappum",
                "id": 398285,
                "login": "mappum",
                "node_id": "MDQ6VXNlcjM5ODI4NQ==",
                "organizations_url": "https://api.github.com/users/mappum/orgs",
                "received_events_url": "https://api.github.com/users/mappum/received_events",
                "repos_url": "https://api.github.com/users/mappum/repos",
                "site_admin": false,
                "starred_url": "https://api.github.com/users/mappum/starred{/owner}{/repo}",
                "subscriptions_url": "https://api.github.com/users/mappum/subscriptions",
                "type": "User",
                "url": "https://api.github.com/users/mappum"
            },
            "private": false,
            "pulls_url": "https://api.github.com/repos/mappum/node-minecraft-protocol/pulls{/number}",
            "pushed_at": "2013-07-03T08:00:32Z",
            "releases_url": "https://api.github.com/repos/mappum/node-minecraft-protocol/releases{/id}",
            "size": 262,
            "ssh_url": "git@github.com:mappum/node-minecraft-protocol.git",
            "stargazers_count": 1,
            "stargazers_url": "https://api.github.com/repos/mappum/node-minecraft-protocol/stargazers",
            "statuses_url": "https://api.github.com/repos/mappum/node-minecraft-protocol/statuses/{sha}",
            "subscribers_url": "https://api.github.com/repos/mappum/node-minecraft-protocol/subscribers",
            "subscription_url": "https://api.github.com/repos/mappum/node-minecraft-protocol/subscription",
            "svn_url": "https://github.com/mappum/node-minecraft-protocol",
            "tags_url": "https://api.github.com/repos/mappum/node-minecraft-protocol/tags",
            "teams_url": "https://api.github.com/repos/mappum/node-minecraft-protocol/teams",
            "topics": [],
            "trees_url": "https://api.github.com/repos/mappum/node-minecraft-protocol/git/trees{/sha}",
            "updated_at": "2015-02-18T22:05:41Z",
            "url": "https://api.github.com/repos/mappum/node-minecraft-protocol",
            "visibility": "public",
            "watchers": 1,
            "watchers_count": 1,
            "web_commit_signoff_required": false
        },
        "sha": "5f6abad7006b92e89598d8381b401f8fdd8951a9",
        "user": {
            "avatar_url": "https://avatars.githubusercontent.com/u/398285?v=4",
            "events_url": "https://api.github.com/users/mappum/events{/privacy}",
            "followers_url": "https://api.github.com/users/mappum/followers",
            "following_url": "https://api.github.com/users/mappum/following{/other_user}",
            "gists_url": "https://api.github.com/users/mappum/gists{/gist_id}",
            "gravatar_id": "",
            "html_url": "https://github.com/mappum",
            "id": 398285,
            "login": "mappum",
            "node_id": "MDQ6VXNlcjM5ODI4NQ==",
            "organizations_url": "https://api.github.com/users/mappum/orgs",
            "received_events_url": "https://api.github.com/users/mappum/received_events",
            "repos_url": "https://api.github.com/users/mappum/repos",
            "site_admin": false,
            "starred_url": "https://api.github.com/users/mappum/starred{/owner}{/repo}",
            "subscriptions_url": "https://api.github.com/users/mappum/subscriptions",
            "type": "User",
            "url": "https://api.github.com/users/mappum"
        }
    },
    "html_url": "https://github.com/PrismarineJS/node-minecraft-protocol/pull/43",
    "id": 4156577,
    "issue_url": "https://api.github.com/repos/PrismarineJS/node-minecraft-protocol/issues/43",
    "labels": [],
    "locked": false,
    "maintainer_can_modify": false,
    "merge_commit_sha": "c802c92b13c596c4140e6ce67a8fba00b7119e62",
    "mergeable": false,
    "mergeable_state": "dirty",
    "merged": false,
    "merged_at": null,
    "merged_by": null,
    "milestone": null,
    "node_id": "MDExOlB1bGxSZXF1ZXN0NDE1NjU3Nw==",
    "number": 43,
    "patch_url": "https://github.com/PrismarineJS/node-minecraft-protocol/pull/43.patch",
    "rebaseable": false,
    "requested_reviewers": [],
    "requested_teams": [],
    "review_comment_url": "https://api.github.com/repos/PrismarineJS/node-minecraft-protocol/pulls/comments{/number}",
    "review_comments": 0,
    "review_comments_url": "https://api.github.com/repos/PrismarineJS/node-minecraft-protocol/pulls/43/comments",
    "state": "closed",
    "statuses_url": "https://api.github.com/repos/PrismarineJS/node-minecraft-protocol/statuses/5f6abad7006b92e89598d8381b401f8fdd8951a9",
    "title": "End on server kick/client leave",
    "updated_at": "2013-07-03T08:00:32Z",
    "url": "https://api.github.com/repos/PrismarineJS/node-minecraft-protocol/pulls/43",
    "user": {
        "avatar_url": "https://avatars.githubusercontent.com/u/398285?v=4",
        "events_url": "https://api.github.com/users/mappum/events{/privacy}",
        "followers_url": "https://api.github.com/users/mappum/followers",
        "following_url": "https://api.github.com/users/mappum/following{/other_user}",
        "gists_url": "https://api.github.com/users/mappum/gists{/gist_id}",
        "gravatar_id": "",
        "html_url": "https://github.com/mappum",
        "id": 398285,
        "login": "mappum",
        "node_id": "MDQ6VXNlcjM5ODI4NQ==",
        "organizations_url": "https://api.github.com/users/mappum/orgs",
        "received_events_url": "https://api.github.com/users/mappum/received_events",
        "repos_url": "https://api.github.com/users/mappum/repos",
        "site_admin": false,
        "starred_url": "https://api.github.com/users/mappum/starred{/owner}{/repo}",
        "subscriptions_url": "https://api.github.com/users/mappum/subscriptions",
        "type": "User",
        "url": "https://api.github.com/users/mappum"
    }
}