{
    "_links": {
        "comments": {
            "href": "https://api.github.com/repos/PrismarineJS/node-minecraft-protocol/issues/517/comments"
        },
        "commits": {
            "href": "https://api.github.com/repos/PrismarineJS/node-minecraft-protocol/pulls/517/commits"
        },
        "html": {
            "href": "https://github.com/PrismarineJS/node-minecraft-protocol/pull/517"
        },
        "issue": {
            "href": "https://api.github.com/repos/PrismarineJS/node-minecraft-protocol/issues/517"
        },
        "review_comment": {
            "href": "https://api.github.com/repos/PrismarineJS/node-minecraft-protocol/pulls/comments{/number}"
        },
        "review_comments": {
            "href": "https://api.github.com/repos/PrismarineJS/node-minecraft-protocol/pulls/517/comments"
        },
        "self": {
            "href": "https://api.github.com/repos/PrismarineJS/node-minecraft-protocol/pulls/517"
        },
        "statuses": {
            "href": "https://api.github.com/repos/PrismarineJS/node-minecraft-protocol/statuses/e47f7b1d7b460cd7b1a86aa8cf08994059e943f9"
        }
    },
    "active_lock_reason": null,
    "additions": 1,
    "assignee": null,
    "assignees": [],
    "author_association": "CONTRIBUTOR",
    "auto_merge": null,
    "base": {
        "label": "PrismarineJS:master",
        "ref": "master",
        "repo": {
            "allow_forking": true,
            "archive_url": "https://api.github.com/repos/PrismarineJS/node-minecraft-protocol/{archive_format}{/ref}",
            "archived": false,
            "assignees_url": "https://api.github.com/repos/PrismarineJS/node-minecraft-protocol/assignees{/user}",
            "blobs_url": "https://api.github.com/repos/PrismarineJS/node-minecraft-protocol/git/blobs{/sha}",
            "branches_url": "https://api.github.com/repos/PrismarineJS/node-minecraft-protocol/branches{/branch}",
            "clone_url": "https://github.com/PrismarineJS/node-minecraft-protocol.git",
            "collaborators_url": "https://api.github.com/repos/PrismarineJS/node-minecraft-protocol/collaborators{/collaborator}",
            "comments_url": "https://api.github.com/repos/PrismarineJS/node-minecraft-protocol/comments{/number}",
            "commits_url": "https://api.github.com/repos/PrismarineJS/node-minecraft-protocol/commits{/sha}",
            "compare_url": "https://api.github.com/repos/PrismarineJS/node-minecraft-protocol/compare/{base}...{head}",
            "contents_url": "https://api.github.com/repos/PrismarineJS/node-minecraft-protocol/contents/{+path}",
            "contributors_url": "https://api.github.com/repos/PrismarineJS/node-minecraft-protocol/contributors",
            "created_at": "2013-01-01T09:17:05Z",
            "default_branch": "master",
            "deployments_url": "https://api.github.com/repos/PrismarineJS/node-minecraft-protocol/deployments",
            "description": "Parse and serialize minecraft packets, plus authentication and encryption.",
            "disabled": false,
            "downloads_url": "https://api.github.com/repos/PrismarineJS/node-minecraft-protocol/downloads",
            "events_url": "https://api.github.com/repos/PrismarineJS/node-minecraft-protocol/events",
            "fork": false,
            "forks": 222,
            "forks_count": 222,
            "forks_url": "https://api.github.com/repos/PrismarineJS/node-minecraft-protocol/forks",
            "full_name": "PrismarineJS/node-minecraft-protocol",
            "git_commits_url": "https://api.github.com/repos/PrismarineJS/node-minecraft-protocol/git/commits{/sha}",
            "git_refs_url": "https://api.github.com/repos/PrismarineJS/node-minecraft-protocol/git/refs{/sha}",
            "git_tags_url": "https://api.github.com/repos/PrismarineJS/node-minecraft-protocol/git/tags{/sha}",
            "git_url": "git://github.com/PrismarineJS/node-minecraft-protocol.git",
            "has_discussions": false,
            "has_downloads": true,
            "has_issues": true,
            "has_pages": true,
            "has_projects": true,
            "has_wiki": true,
            "homepage": "https://prismarinejs.github.io/node-minecraft-protocol/",
            "hooks_url": "https://api.github.com/repos/PrismarineJS/node-minecraft-protocol/hooks",
            "html_url": "https://github.com/PrismarineJS/node-minecraft-protocol",
            "id": 7394347,
            "is_template": false,
            "issue_comment_url": "https://api.github.com/repos/PrismarineJS/node-minecraft-protocol/issues/comments{/number}",
            "issue_events_url": "https://api.github.com/repos/PrismarineJS/node-minecraft-protocol/issues/events{/number}",
            "issues_url": "https://api.github.com/repos/PrismarineJS/node-minecraft-protocol/issues{/number}",
            "keys_url": "https://api.github.com/repos/PrismarineJS/node-minecraft-protocol/keys{/key_id}",
            "labels_url": "https://api.github.com/repos/PrismarineJS/node-minecraft-protocol/labels{/name}",
            "language": "JavaScript",
            "languages_url": "https://api.github.com/repos/PrismarineJS/node-minecraft-protocol/languages",
            "license": {
                "key": "bsd-3-clause",
                "name": "BSD 3-Clause \"New\" or \"Revised\" License",
                "node_id": "MDc6TGljZW5zZTU=",
                "spdx_id": "BSD-3-Clause",
                "url": "https://api.github.com/licenses/bsd-3-clause"
            },
            "merges_url": "https://api.github.com/repos/PrismarineJS/node-minecraft-protocol/merges",
            "milestones_url": "https://api.github.com/repos/PrismarineJS/node-minecraft-protocol/milestones{/number}",
            "mirror_url": null,
            "name": "node-minecraft-protocol",
            "node_id": "MDEwOlJlcG9zaXRvcnk3Mzk0MzQ3",
            "notifications_url": "https://api.github.com/repos/PrismarineJS/node-minecraft-protocol/notifications{?since,all,participating}",
            "open_issues": 92,
            "open_issues_count": 92,
            "owner": {
                "avatar_url": "https://avatars.githubusercontent.com/u/11053411?v=4",
                "events_url": "https://api.github.com/users/PrismarineJS/events{/privacy}",
                "followers_url": "https://api.github.com/users/PrismarineJS/followers",
                "following_url": "https://api.github.com/users/PrismarineJS/following{/other_user}",
                "gists_url": "https://api.github.com/users/PrismarineJS/gists{/gist_id}",
                "gravatar_id": "",
                "html_url": "https://github.com/PrismarineJS",
                "id": 11053411,
                "login": "PrismarineJS",
                "node_id": "MDEyOk9yZ2FuaXphdGlvbjExMDUzNDEx",
                "organizations_url": "https://api.github.com/users/PrismarineJS/orgs",
                "received_events_url": "https://api.github.com/users/PrismarineJS/received_events",
                "repos_url": "https://api.github.com/users/PrismarineJS/repos",
                "site_admin": false,
                "starred_url": "https://api.github.com/users/PrismarineJS/starred{/owner}{/repo}",
                "subscriptions_url": "https://api.github.com/users/PrismarineJS/subscriptions",
                "type": "Organization",
                "url": "https://api.github.com/users/PrismarineJS"
            },
            "private": false,
            "pulls_url": "https://api.github.com/repos/PrismarineJS/node-minecraft-protocol/pulls{/number}",
            "pushed_at": "2023-04-22T09:19:41Z",
            "releases_url": "https://api.github.com/repos/PrismarineJS/node-minecraft-protocol/releases{/id}",
            "size": 1785,
            "ssh_url": "git@github.com:PrismarineJS/node-minecraft-protocol.git",
            "stargazers_count": 1063,
            "stargazers_url": "https://api.github.com/repos/PrismarineJS/node-minecraft-protocol/stargazers",
            "statuses_url": "https://api.github.com/repos/PrismarineJS/node-minecraft-protocol/statuses/{sha}",
            "subscribers_url": "https://api.github.com/repos/PrismarineJS/node-minecraft-protocol/subscribers",
            "subscription_url": "https://api.github.com/repos/PrismarineJS/node-minecraft-protocol/subscription",
            "svn_url": "https://github.com/PrismarineJS/node-minecraft-protocol",
            "tags_url": "https://api.github.com/repos/PrismarineJS/node-minecraft-protocol/tags",
            "teams_url": "https://api.github.com/repos/PrismarineJS/node-minecraft-protocol/teams",
            "topics": [
                "client",
                "minecraft",
                "network",
                "packets",
                "protocol",
                "proxy",
                "server"
            ],
            "trees_url": "https://api.github.com/repos/PrismarineJS/node-minecraft-protocol/git/trees{/sha}",
            "updated_at": "2023-04-22T17:20:34Z",
            "url": "https://api.github.com/repos/PrismarineJS/node-minecraft-protocol",
            "visibility": "public",
            "watchers": 1063,
            "watchers_count": 1063,
            "web_commit_signoff_required": false
        },
        "sha": "3ab909c931578f1c926de7dc355cd8e547977433",
        "user": {
            "avatar_url": "https://avatars.githubusercontent.com/u/11053411?v=4",
            "events_url": "https://api.github.com/users/PrismarineJS/events{/privacy}",
            "followers_url": "https://api.github.com/users/PrismarineJS/followers",
            "following_url": "https://api.github.com/users/PrismarineJS/following{/other_user}",
            "gists_url": "https://api.github.com/users/PrismarineJS/gists{/gist_id}",
            "gravatar_id": "",
            "html_url": "https://github.com/PrismarineJS",
            "id": 11053411,
            "login": "PrismarineJS",
            "node_id": "MDEyOk9yZ2FuaXphdGlvbjExMDUzNDEx",
            "organizations_url": "https://api.github.com/users/PrismarineJS/orgs",
            "received_events_url": "https://api.github.com/users/PrismarineJS/received_events",
            "repos_url": "https://api.github.com/users/PrismarineJS/repos",
            "site_admin": false,
            "starred_url": "https://api.github.com/users/PrismarineJS/starred{/owner}{/repo}",
            "subscriptions_url": "https://api.github.com/users/PrismarineJS/subscriptions",
            "type": "Organization",
            "url": "https://api.github.com/users/PrismarineJS"
        }
    },
    "body": "\n## Version **1.1.1** of [yggdrasil](https://github.com/zekesonxx/node-yggdrasil) just got published.\n\n<table>\n  <tr>\n    <th align=left>\n      Dependency\n    </td>\n    <td>\n      yggdrasil\n    </td>\n  </tr>\n  <tr>\n    <th align=left>\n      Current Version\n    </td>\n    <td>\n      1.0.0\n    </td>\n  </tr>\n  <tr>\n    <th align=left>\n      Type\n    </td>\n    <td>\n      dependency\n    </td>\n  </tr>\n</table>\n\nThe version **1.1.1** is **not covered** by your **current version range**.\n\nWithout accepting this pull request your project will work just like it did before. There might be a bunch of new features, fixes and perf improvements that the maintainers worked on for you though.\n\nI recommend you look into these changes and try to get onto the latest version of yggdrasil.\nGiven that you have a decent test suite, a passing build is a strong indicator that you can take advantage of these changes by merging the proposed change into your project. Otherwise this branch is a great starting point for you to work on the update.\n\n\n---\n\n\n<details>\n<summary>Commits</summary>\n<p>The new version differs by 6 commits.</p>\n<ul>\n<li><a href=\"https://urls.greenkeeper.io/zekesonxx/node-yggdrasil/commit/9f626c6b65216b0fbffa218c3f8dcc47dc50eb2a\"><code>9f626c6</code></a> <code>Version bump to 1.1.1</code></li>\n<li><a href=\"https://urls.greenkeeper.io/zekesonxx/node-yggdrasil/commit/dd9188006e1218de05acf09109d5d8f81a624f1c\"><code>dd91880</code></a> <code>Fix crash on no JSON response, fixes #24 (#27)</code></li>\n<li><a href=\"https://urls.greenkeeper.io/zekesonxx/node-yggdrasil/commit/ad80d3bd7fe18f7cde9dcc87cd764b1ae2c1dc8f\"><code>ad80d3b</code></a> <code>Version bump to 1.1.0</code></li>\n<li><a href=\"https://urls.greenkeeper.io/zekesonxx/node-yggdrasil/commit/a8ebcba73b8c1a495f4ebcb974c9ba4da8fe5da7\"><code>a8ebcba</code></a> <code>Update dependencies to not-super-old versions</code></li>\n<li><a href=\"https://urls.greenkeeper.io/zekesonxx/node-yggdrasil/commit/1773c40d9128e4bf79f5d75d8a20cb24ce497eb7\"><code>1773c40</code></a> <code>Switch from request to phin (#23)</code></li>\n<li><a href=\"https://urls.greenkeeper.io/zekesonxx/node-yggdrasil/commit/28f2520071c8f491e1721b4531c8e530e88b21de\"><code>28f2520</code></a> <code>add requestUser option (#21)</code></li>\n</ul>\n<p>See the <a href=\"https://urls.greenkeeper.io/zekesonxx/node-yggdrasil/compare/8a121badd2cd3c4eb960f58799419fe7a42e1c1e...9f626c6b65216b0fbffa218c3f8dcc47dc50eb2a\">full diff</a></p>\n</details>\n\n<details>\n  <summary>Not sure how things should work exactly?</summary>\n\n  There is a collection of [frequently asked questions](https://greenkeeper.io/faq.html) and of course you may always [ask my humans](https://github.com/greenkeeperio/greenkeeper/issues/new).\n</details>\n\n\n---\n\n\nYour [Greenkeeper](https://greenkeeper.io) Bot :palm_tree:\n\n",
    "changed_files": 1,
    "closed_at": "2017-08-25T17:34:11Z",
    "comment_data": [],
    "comment_regular_data": [],
    "comments": 0,
    "comments_url": "https://api.github.com/repos/PrismarineJS/node-minecraft-protocol/issues/517/comments",
    "commit_data": [
        {
            "author": {
                "avatar_url": "https://avatars.githubusercontent.com/in/505?v=4",
                "events_url": "https://api.github.com/users/greenkeeper%5Bbot%5D/events{/privacy}",
                "followers_url": "https://api.github.com/users/greenkeeper%5Bbot%5D/followers",
                "following_url": "https://api.github.com/users/greenkeeper%5Bbot%5D/following{/other_user}",
                "gists_url": "https://api.github.com/users/greenkeeper%5Bbot%5D/gists{/gist_id}",
                "gravatar_id": "",
                "html_url": "https://github.com/apps/greenkeeper",
                "id": 23040076,
                "login": "greenkeeper[bot]",
                "node_id": "MDM6Qm90MjMwNDAwNzY=",
                "organizations_url": "https://api.github.com/users/greenkeeper%5Bbot%5D/orgs",
                "received_events_url": "https://api.github.com/users/greenkeeper%5Bbot%5D/received_events",
                "repos_url": "https://api.github.com/users/greenkeeper%5Bbot%5D/repos",
                "site_admin": false,
                "starred_url": "https://api.github.com/users/greenkeeper%5Bbot%5D/starred{/owner}{/repo}",
                "subscriptions_url": "https://api.github.com/users/greenkeeper%5Bbot%5D/subscriptions",
                "type": "Bot",
                "url": "https://api.github.com/users/greenkeeper%5Bbot%5D"
            },
            "comments_url": "https://api.github.com/repos/PrismarineJS/node-minecraft-protocol/commits/55090c42a6eb226a829ecaeea21365086515e166/comments",
            "commit": {
                "author": {
                    "date": "2017-08-25T15:51:31Z",
                    "email": "greenkeeper[bot]@users.noreply.github.com",
                    "name": "greenkeeper[bot]"
                },
                "comment_count": 0,
                "committer": {
                    "date": "2017-08-25T15:51:31Z",
                    "email": "greenkeeper[bot]@users.noreply.github.com",
                    "name": "greenkeeper[bot]"
                },
                "message": "fix(package): update yggdrasil to version 1.1.1",
                "tree": {
                    "sha": "ed719e951ba7268cfbac1b9af21ed7c48e93dee3",
                    "url": "https://api.github.com/repos/PrismarineJS/node-minecraft-protocol/git/trees/ed719e951ba7268cfbac1b9af21ed7c48e93dee3"
                },
                "url": "https://api.github.com/repos/PrismarineJS/node-minecraft-protocol/git/commits/55090c42a6eb226a829ecaeea21365086515e166",
                "verification": {
                    "payload": null,
                    "reason": "unsigned",
                    "signature": null,
                    "verified": false
                }
            },
            "committer": {
                "avatar_url": "https://avatars.githubusercontent.com/in/505?v=4",
                "events_url": "https://api.github.com/users/greenkeeper%5Bbot%5D/events{/privacy}",
                "followers_url": "https://api.github.com/users/greenkeeper%5Bbot%5D/followers",
                "following_url": "https://api.github.com/users/greenkeeper%5Bbot%5D/following{/other_user}",
                "gists_url": "https://api.github.com/users/greenkeeper%5Bbot%5D/gists{/gist_id}",
                "gravatar_id": "",
                "html_url": "https://github.com/apps/greenkeeper",
                "id": 23040076,
                "login": "greenkeeper[bot]",
                "node_id": "MDM6Qm90MjMwNDAwNzY=",
                "organizations_url": "https://api.github.com/users/greenkeeper%5Bbot%5D/orgs",
                "received_events_url": "https://api.github.com/users/greenkeeper%5Bbot%5D/received_events",
                "repos_url": "https://api.github.com/users/greenkeeper%5Bbot%5D/repos",
                "site_admin": false,
                "starred_url": "https://api.github.com/users/greenkeeper%5Bbot%5D/starred{/owner}{/repo}",
                "subscriptions_url": "https://api.github.com/users/greenkeeper%5Bbot%5D/subscriptions",
                "type": "Bot",
                "url": "https://api.github.com/users/greenkeeper%5Bbot%5D"
            },
            "html_url": "https://github.com/PrismarineJS/node-minecraft-protocol/commit/55090c42a6eb226a829ecaeea21365086515e166",
            "node_id": "MDY6Q29tbWl0NzM5NDM0Nzo1NTA5MGM0MmE2ZWIyMjZhODI5ZWNhZWVhMjEzNjUwODY1MTVlMTY2",
            "parents": [
                {
                    "html_url": "https://github.com/PrismarineJS/node-minecraft-protocol/commit/3ab909c931578f1c926de7dc355cd8e547977433",
                    "sha": "3ab909c931578f1c926de7dc355cd8e547977433",
                    "url": "https://api.github.com/repos/PrismarineJS/node-minecraft-protocol/commits/3ab909c931578f1c926de7dc355cd8e547977433"
                }
            ],
            "sha": "55090c42a6eb226a829ecaeea21365086515e166",
            "url": "https://api.github.com/repos/PrismarineJS/node-minecraft-protocol/commits/55090c42a6eb226a829ecaeea21365086515e166"
        },
        {
            "author": {
                "avatar_url": "https://avatars.githubusercontent.com/u/2346494?v=4",
                "events_url": "https://api.github.com/users/rom1504/events{/privacy}",
                "followers_url": "https://api.github.com/users/rom1504/followers",
                "following_url": "https://api.github.com/users/rom1504/following{/other_user}",
                "gists_url": "https://api.github.com/users/rom1504/gists{/gist_id}",
                "gravatar_id": "",
                "html_url": "https://github.com/rom1504",
                "id": 2346494,
                "login": "rom1504",
                "node_id": "MDQ6VXNlcjIzNDY0OTQ=",
                "organizations_url": "https://api.github.com/users/rom1504/orgs",
                "received_events_url": "https://api.github.com/users/rom1504/received_events",
                "repos_url": "https://api.github.com/users/rom1504/repos",
                "site_admin": false,
                "starred_url": "https://api.github.com/users/rom1504/starred{/owner}{/repo}",
                "subscriptions_url": "https://api.github.com/users/rom1504/subscriptions",
                "type": "User",
                "url": "https://api.github.com/users/rom1504"
            },
            "comments_url": "https://api.github.com/repos/PrismarineJS/node-minecraft-protocol/commits/e47f7b1d7b460cd7b1a86aa8cf08994059e943f9/comments",
            "commit": {
                "author": {
                    "date": "2017-08-25T17:29:29Z",
                    "email": "romain.rom1@gmail.com",
                    "name": "Romain Beaumont"
                },
                "comment_count": 0,
                "committer": {
                    "date": "2017-08-25T17:29:29Z",
                    "email": "noreply@github.com",
                    "name": "GitHub"
                },
                "message": "Update package.json",
                "tree": {
                    "sha": "9123515eded9127ad88b04196a7a9e6cecfd55ca",
                    "url": "https://api.github.com/repos/PrismarineJS/node-minecraft-protocol/git/trees/9123515eded9127ad88b04196a7a9e6cecfd55ca"
                },
                "url": "https://api.github.com/repos/PrismarineJS/node-minecraft-protocol/git/commits/e47f7b1d7b460cd7b1a86aa8cf08994059e943f9",
                "verification": {
                    "payload": null,
                    "reason": "unsigned",
                    "signature": null,
                    "verified": false
                }
            },
            "committer": {
                "avatar_url": "https://avatars.githubusercontent.com/u/19864447?v=4",
                "events_url": "https://api.github.com/users/web-flow/events{/privacy}",
                "followers_url": "https://api.github.com/users/web-flow/followers",
                "following_url": "https://api.github.com/users/web-flow/following{/other_user}",
                "gists_url": "https://api.github.com/users/web-flow/gists{/gist_id}",
                "gravatar_id": "",
                "html_url": "https://github.com/web-flow",
                "id": 19864447,
                "login": "web-flow",
                "node_id": "MDQ6VXNlcjE5ODY0NDQ3",
                "organizations_url": "https://api.github.com/users/web-flow/orgs",
                "received_events_url": "https://api.github.com/users/web-flow/received_events",
                "repos_url": "https://api.github.com/users/web-flow/repos",
                "site_admin": false,
                "starred_url": "https://api.github.com/users/web-flow/starred{/owner}{/repo}",
                "subscriptions_url": "https://api.github.com/users/web-flow/subscriptions",
                "type": "User",
                "url": "https://api.github.com/users/web-flow"
            },
            "html_url": "https://github.com/PrismarineJS/node-minecraft-protocol/commit/e47f7b1d7b460cd7b1a86aa8cf08994059e943f9",
            "node_id": "MDY6Q29tbWl0NzM5NDM0NzplNDdmN2IxZDdiNDYwY2Q3YjFhODZhYThjZjA4OTk0MDU5ZTk0M2Y5",
            "parents": [
                {
                    "html_url": "https://github.com/PrismarineJS/node-minecraft-protocol/commit/55090c42a6eb226a829ecaeea21365086515e166",
                    "sha": "55090c42a6eb226a829ecaeea21365086515e166",
                    "url": "https://api.github.com/repos/PrismarineJS/node-minecraft-protocol/commits/55090c42a6eb226a829ecaeea21365086515e166"
                }
            ],
            "sha": "e47f7b1d7b460cd7b1a86aa8cf08994059e943f9",
            "url": "https://api.github.com/repos/PrismarineJS/node-minecraft-protocol/commits/e47f7b1d7b460cd7b1a86aa8cf08994059e943f9"
        }
    ],
    "commits": 2,
    "commits_url": "https://api.github.com/repos/PrismarineJS/node-minecraft-protocol/pulls/517/commits",
    "created_at": "2017-08-25T15:51:45Z",
    "deletions": 1,
    "diff_url": "https://github.com/PrismarineJS/node-minecraft-protocol/pull/517.diff",
    "draft": false,
    "head": {
        "label": "PrismarineJS:greenkeeper/yggdrasil-1.1.1",
        "ref": "greenkeeper/yggdrasil-1.1.1",
        "repo": {
            "allow_forking": true,
            "archive_url": "https://api.github.com/repos/PrismarineJS/node-minecraft-protocol/{archive_format}{/ref}",
            "archived": false,
            "assignees_url": "https://api.github.com/repos/PrismarineJS/node-minecraft-protocol/assignees{/user}",
            "blobs_url": "https://api.github.com/repos/PrismarineJS/node-minecraft-protocol/git/blobs{/sha}",
            "branches_url": "https://api.github.com/repos/PrismarineJS/node-minecraft-protocol/branches{/branch}",
            "clone_url": "https://github.com/PrismarineJS/node-minecraft-protocol.git",
            "collaborators_url": "https://api.github.com/repos/PrismarineJS/node-minecraft-protocol/collaborators{/collaborator}",
            "comments_url": "https://api.github.com/repos/PrismarineJS/node-minecraft-protocol/comments{/number}",
            "commits_url": "https://api.github.com/repos/PrismarineJS/node-minecraft-protocol/commits{/sha}",
            "compare_url": "https://api.github.com/repos/PrismarineJS/node-minecraft-protocol/compare/{base}...{head}",
            "contents_url": "https://api.github.com/repos/PrismarineJS/node-minecraft-protocol/contents/{+path}",
            "contributors_url": "https://api.github.com/repos/PrismarineJS/node-minecraft-protocol/contributors",
            "created_at": "2013-01-01T09:17:05Z",
            "default_branch": "master",
            "deployments_url": "https://api.github.com/repos/PrismarineJS/node-minecraft-protocol/deployments",
            "description": "Parse and serialize minecraft packets, plus authentication and encryption.",
            "disabled": false,
            "downloads_url": "https://api.github.com/repos/PrismarineJS/node-minecraft-protocol/downloads",
            "events_url": "https://api.github.com/repos/PrismarineJS/node-minecraft-protocol/events",
            "fork": false,
            "forks": 222,
            "forks_count": 222,
            "forks_url": "https://api.github.com/repos/PrismarineJS/node-minecraft-protocol/forks",
            "full_name": "PrismarineJS/node-minecraft-protocol",
            "git_commits_url": "https://api.github.com/repos/PrismarineJS/node-minecraft-protocol/git/commits{/sha}",
            "git_refs_url": "https://api.github.com/repos/PrismarineJS/node-minecraft-protocol/git/refs{/sha}",
            "git_tags_url": "https://api.github.com/repos/PrismarineJS/node-minecraft-protocol/git/tags{/sha}",
            "git_url": "git://github.com/PrismarineJS/node-minecraft-protocol.git",
            "has_discussions": false,
            "has_downloads": true,
            "has_issues": true,
            "has_pages": true,
            "has_projects": true,
            "has_wiki": true,
            "homepage": "https://prismarinejs.github.io/node-minecraft-protocol/",
            "hooks_url": "https://api.github.com/repos/PrismarineJS/node-minecraft-protocol/hooks",
            "html_url": "https://github.com/PrismarineJS/node-minecraft-protocol",
            "id": 7394347,
            "is_template": false,
            "issue_comment_url": "https://api.github.com/repos/PrismarineJS/node-minecraft-protocol/issues/comments{/number}",
            "issue_events_url": "https://api.github.com/repos/PrismarineJS/node-minecraft-protocol/issues/events{/number}",
            "issues_url": "https://api.github.com/repos/PrismarineJS/node-minecraft-protocol/issues{/number}",
            "keys_url": "https://api.github.com/repos/PrismarineJS/node-minecraft-protocol/keys{/key_id}",
            "labels_url": "https://api.github.com/repos/PrismarineJS/node-minecraft-protocol/labels{/name}",
            "language": "JavaScript",
            "languages_url": "https://api.github.com/repos/PrismarineJS/node-minecraft-protocol/languages",
            "license": {
                "key": "bsd-3-clause",
                "name": "BSD 3-Clause \"New\" or \"Revised\" License",
                "node_id": "MDc6TGljZW5zZTU=",
                "spdx_id": "BSD-3-Clause",
                "url": "https://api.github.com/licenses/bsd-3-clause"
            },
            "merges_url": "https://api.github.com/repos/PrismarineJS/node-minecraft-protocol/merges",
            "milestones_url": "https://api.github.com/repos/PrismarineJS/node-minecraft-protocol/milestones{/number}",
            "mirror_url": null,
            "name": "node-minecraft-protocol",
            "node_id": "MDEwOlJlcG9zaXRvcnk3Mzk0MzQ3",
            "notifications_url": "https://api.github.com/repos/PrismarineJS/node-minecraft-protocol/notifications{?since,all,participating}",
            "open_issues": 92,
            "open_issues_count": 92,
            "owner": {
                "avatar_url": "https://avatars.githubusercontent.com/u/11053411?v=4",
                "events_url": "https://api.github.com/users/PrismarineJS/events{/privacy}",
                "followers_url": "https://api.github.com/users/PrismarineJS/followers",
                "following_url": "https://api.github.com/users/PrismarineJS/following{/other_user}",
                "gists_url": "https://api.github.com/users/PrismarineJS/gists{/gist_id}",
                "gravatar_id": "",
                "html_url": "https://github.com/PrismarineJS",
                "id": 11053411,
                "login": "PrismarineJS",
                "node_id": "MDEyOk9yZ2FuaXphdGlvbjExMDUzNDEx",
                "organizations_url": "https://api.github.com/users/PrismarineJS/orgs",
                "received_events_url": "https://api.github.com/users/PrismarineJS/received_events",
                "repos_url": "https://api.github.com/users/PrismarineJS/repos",
                "site_admin": false,
                "starred_url": "https://api.github.com/users/PrismarineJS/starred{/owner}{/repo}",
                "subscriptions_url": "https://api.github.com/users/PrismarineJS/subscriptions",
                "type": "Organization",
                "url": "https://api.github.com/users/PrismarineJS"
            },
            "private": false,
            "pulls_url": "https://api.github.com/repos/PrismarineJS/node-minecraft-protocol/pulls{/number}",
            "pushed_at": "2023-04-22T09:19:41Z",
            "releases_url": "https://api.github.com/repos/PrismarineJS/node-minecraft-protocol/releases{/id}",
            "size": 1785,
            "ssh_url": "git@github.com:PrismarineJS/node-minecraft-protocol.git",
            "stargazers_count": 1063,
            "stargazers_url": "https://api.github.com/repos/PrismarineJS/node-minecraft-protocol/stargazers",
            "statuses_url": "https://api.github.com/repos/PrismarineJS/node-minecraft-protocol/statuses/{sha}",
            "subscribers_url": "https://api.github.com/repos/PrismarineJS/node-minecraft-protocol/subscribers",
            "subscription_url": "https://api.github.com/repos/PrismarineJS/node-minecraft-protocol/subscription",
            "svn_url": "https://github.com/PrismarineJS/node-minecraft-protocol",
            "tags_url": "https://api.github.com/repos/PrismarineJS/node-minecraft-protocol/tags",
            "teams_url": "https://api.github.com/repos/PrismarineJS/node-minecraft-protocol/teams",
            "topics": [
                "client",
                "minecraft",
                "network",
                "packets",
                "protocol",
                "proxy",
                "server"
            ],
            "trees_url": "https://api.github.com/repos/PrismarineJS/node-minecraft-protocol/git/trees{/sha}",
            "updated_at": "2023-04-22T17:20:34Z",
            "url": "https://api.github.com/repos/PrismarineJS/node-minecraft-protocol",
            "visibility": "public",
            "watchers": 1063,
            "watchers_count": 1063,
            "web_commit_signoff_required": false
        },
        "sha": "e47f7b1d7b460cd7b1a86aa8cf08994059e943f9",
        "user": {
            "avatar_url": "https://avatars.githubusercontent.com/u/11053411?v=4",
            "events_url": "https://api.github.com/users/PrismarineJS/events{/privacy}",
            "followers_url": "https://api.github.com/users/PrismarineJS/followers",
            "following_url": "https://api.github.com/users/PrismarineJS/following{/other_user}",
            "gists_url": "https://api.github.com/users/PrismarineJS/gists{/gist_id}",
            "gravatar_id": "",
            "html_url": "https://github.com/PrismarineJS",
            "id": 11053411,
            "login": "PrismarineJS",
            "node_id": "MDEyOk9yZ2FuaXphdGlvbjExMDUzNDEx",
            "organizations_url": "https://api.github.com/users/PrismarineJS/orgs",
            "received_events_url": "https://api.github.com/users/PrismarineJS/received_events",
            "repos_url": "https://api.github.com/users/PrismarineJS/repos",
            "site_admin": false,
            "starred_url": "https://api.github.com/users/PrismarineJS/starred{/owner}{/repo}",
            "subscriptions_url": "https://api.github.com/users/PrismarineJS/subscriptions",
            "type": "Organization",
            "url": "https://api.github.com/users/PrismarineJS"
        }
    },
    "html_url": "https://github.com/PrismarineJS/node-minecraft-protocol/pull/517",
    "id": 137703507,
    "issue_url": "https://api.github.com/repos/PrismarineJS/node-minecraft-protocol/issues/517",
    "labels": [
        {
            "color": "ededed",
            "default": false,
            "description": null,
            "id": 352111526,
            "name": "greenkeeper",
            "node_id": "MDU6TGFiZWwzNTIxMTE1MjY=",
            "url": "https://api.github.com/repos/PrismarineJS/node-minecraft-protocol/labels/greenkeeper"
        }
    ],
    "locked": false,
    "maintainer_can_modify": false,
    "merge_commit_sha": "788b376c218c78d6e1499e49009d483134c31add",
    "mergeable": null,
    "mergeable_state": "unknown",
    "merged": true,
    "merged_at": "2017-08-25T17:34:11Z",
    "merged_by": {
        "avatar_url": "https://avatars.githubusercontent.com/u/2346494?v=4",
        "events_url": "https://api.github.com/users/rom1504/events{/privacy}",
        "followers_url": "https://api.github.com/users/rom1504/followers",
        "following_url": "https://api.github.com/users/rom1504/following{/other_user}",
        "gists_url": "https://api.github.com/users/rom1504/gists{/gist_id}",
        "gravatar_id": "",
        "html_url": "https://github.com/rom1504",
        "id": 2346494,
        "login": "rom1504",
        "node_id": "MDQ6VXNlcjIzNDY0OTQ=",
        "organizations_url": "https://api.github.com/users/rom1504/orgs",
        "received_events_url": "https://api.github.com/users/rom1504/received_events",
        "repos_url": "https://api.github.com/users/rom1504/repos",
        "site_admin": false,
        "starred_url": "https://api.github.com/users/rom1504/starred{/owner}{/repo}",
        "subscriptions_url": "https://api.github.com/users/rom1504/subscriptions",
        "type": "User",
        "url": "https://api.github.com/users/rom1504"
    },
    "milestone": null,
    "node_id": "MDExOlB1bGxSZXF1ZXN0MTM3NzAzNTA3",
    "number": 517,
    "patch_url": "https://github.com/PrismarineJS/node-minecraft-protocol/pull/517.patch",
    "rebaseable": null,
    "requested_reviewers": [],
    "requested_teams": [],
    "review_comment_url": "https://api.github.com/repos/PrismarineJS/node-minecraft-protocol/pulls/comments{/number}",
    "review_comments": 0,
    "review_comments_url": "https://api.github.com/repos/PrismarineJS/node-minecraft-protocol/pulls/517/comments",
    "state": "closed",
    "statuses_url": "https://api.github.com/repos/PrismarineJS/node-minecraft-protocol/statuses/e47f7b1d7b460cd7b1a86aa8cf08994059e943f9",
    "title": "Update yggdrasil to the latest version 🚀",
    "updated_at": "2017-08-25T17:34:14Z",
    "url": "https://api.github.com/repos/PrismarineJS/node-minecraft-protocol/pulls/517",
    "user": {
        "avatar_url": "https://avatars.githubusercontent.com/in/505?v=4",
        "events_url": "https://api.github.com/users/greenkeeper%5Bbot%5D/events{/privacy}",
        "followers_url": "https://api.github.com/users/greenkeeper%5Bbot%5D/followers",
        "following_url": "https://api.github.com/users/greenkeeper%5Bbot%5D/following{/other_user}",
        "gists_url": "https://api.github.com/users/greenkeeper%5Bbot%5D/gists{/gist_id}",
        "gravatar_id": "",
        "html_url": "https://github.com/apps/greenkeeper",
        "id": 23040076,
        "login": "greenkeeper[bot]",
        "node_id": "MDM6Qm90MjMwNDAwNzY=",
        "organizations_url": "https://api.github.com/users/greenkeeper%5Bbot%5D/orgs",
        "received_events_url": "https://api.github.com/users/greenkeeper%5Bbot%5D/received_events",
        "repos_url": "https://api.github.com/users/greenkeeper%5Bbot%5D/repos",
        "site_admin": false,
        "starred_url": "https://api.github.com/users/greenkeeper%5Bbot%5D/starred{/owner}{/repo}",
        "subscriptions_url": "https://api.github.com/users/greenkeeper%5Bbot%5D/subscriptions",
        "type": "Bot",
        "url": "https://api.github.com/users/greenkeeper%5Bbot%5D"
    }
}