{
    "_links": {
        "comments": {
            "href": "https://api.github.com/repos/PrismarineJS/node-minecraft-protocol/issues/702/comments"
        },
        "commits": {
            "href": "https://api.github.com/repos/PrismarineJS/node-minecraft-protocol/pulls/702/commits"
        },
        "html": {
            "href": "https://github.com/PrismarineJS/node-minecraft-protocol/pull/702"
        },
        "issue": {
            "href": "https://api.github.com/repos/PrismarineJS/node-minecraft-protocol/issues/702"
        },
        "review_comment": {
            "href": "https://api.github.com/repos/PrismarineJS/node-minecraft-protocol/pulls/comments{/number}"
        },
        "review_comments": {
            "href": "https://api.github.com/repos/PrismarineJS/node-minecraft-protocol/pulls/702/comments"
        },
        "self": {
            "href": "https://api.github.com/repos/PrismarineJS/node-minecraft-protocol/pulls/702"
        },
        "statuses": {
            "href": "https://api.github.com/repos/PrismarineJS/node-minecraft-protocol/statuses/95d58245e6ec77436dba15b2407d34e2b17eca76"
        }
    },
    "active_lock_reason": null,
    "additions": 3,
    "assignee": null,
    "assignees": [],
    "author_association": "NONE",
    "auto_merge": null,
    "base": {
        "label": "PrismarineJS:master",
        "ref": "master",
        "repo": {
            "allow_forking": true,
            "archive_url": "https://api.github.com/repos/PrismarineJS/node-minecraft-protocol/{archive_format}{/ref}",
            "archived": false,
            "assignees_url": "https://api.github.com/repos/PrismarineJS/node-minecraft-protocol/assignees{/user}",
            "blobs_url": "https://api.github.com/repos/PrismarineJS/node-minecraft-protocol/git/blobs{/sha}",
            "branches_url": "https://api.github.com/repos/PrismarineJS/node-minecraft-protocol/branches{/branch}",
            "clone_url": "https://github.com/PrismarineJS/node-minecraft-protocol.git",
            "collaborators_url": "https://api.github.com/repos/PrismarineJS/node-minecraft-protocol/collaborators{/collaborator}",
            "comments_url": "https://api.github.com/repos/PrismarineJS/node-minecraft-protocol/comments{/number}",
            "commits_url": "https://api.github.com/repos/PrismarineJS/node-minecraft-protocol/commits{/sha}",
            "compare_url": "https://api.github.com/repos/PrismarineJS/node-minecraft-protocol/compare/{base}...{head}",
            "contents_url": "https://api.github.com/repos/PrismarineJS/node-minecraft-protocol/contents/{+path}",
            "contributors_url": "https://api.github.com/repos/PrismarineJS/node-minecraft-protocol/contributors",
            "created_at": "2013-01-01T09:17:05Z",
            "default_branch": "master",
            "deployments_url": "https://api.github.com/repos/PrismarineJS/node-minecraft-protocol/deployments",
            "description": "Parse and serialize minecraft packets, plus authentication and encryption.",
            "disabled": false,
            "downloads_url": "https://api.github.com/repos/PrismarineJS/node-minecraft-protocol/downloads",
            "events_url": "https://api.github.com/repos/PrismarineJS/node-minecraft-protocol/events",
            "fork": false,
            "forks": 222,
            "forks_count": 222,
            "forks_url": "https://api.github.com/repos/PrismarineJS/node-minecraft-protocol/forks",
            "full_name": "PrismarineJS/node-minecraft-protocol",
            "git_commits_url": "https://api.github.com/repos/PrismarineJS/node-minecraft-protocol/git/commits{/sha}",
            "git_refs_url": "https://api.github.com/repos/PrismarineJS/node-minecraft-protocol/git/refs{/sha}",
            "git_tags_url": "https://api.github.com/repos/PrismarineJS/node-minecraft-protocol/git/tags{/sha}",
            "git_url": "git://github.com/PrismarineJS/node-minecraft-protocol.git",
            "has_discussions": false,
            "has_downloads": true,
            "has_issues": true,
            "has_pages": true,
            "has_projects": true,
            "has_wiki": true,
            "homepage": "https://prismarinejs.github.io/node-minecraft-protocol/",
            "hooks_url": "https://api.github.com/repos/PrismarineJS/node-minecraft-protocol/hooks",
            "html_url": "https://github.com/PrismarineJS/node-minecraft-protocol",
            "id": 7394347,
            "is_template": false,
            "issue_comment_url": "https://api.github.com/repos/PrismarineJS/node-minecraft-protocol/issues/comments{/number}",
            "issue_events_url": "https://api.github.com/repos/PrismarineJS/node-minecraft-protocol/issues/events{/number}",
            "issues_url": "https://api.github.com/repos/PrismarineJS/node-minecraft-protocol/issues{/number}",
            "keys_url": "https://api.github.com/repos/PrismarineJS/node-minecraft-protocol/keys{/key_id}",
            "labels_url": "https://api.github.com/repos/PrismarineJS/node-minecraft-protocol/labels{/name}",
            "language": "JavaScript",
            "languages_url": "https://api.github.com/repos/PrismarineJS/node-minecraft-protocol/languages",
            "license": {
                "key": "bsd-3-clause",
                "name": "BSD 3-Clause \"New\" or \"Revised\" License",
                "node_id": "MDc6TGljZW5zZTU=",
                "spdx_id": "BSD-3-Clause",
                "url": "https://api.github.com/licenses/bsd-3-clause"
            },
            "merges_url": "https://api.github.com/repos/PrismarineJS/node-minecraft-protocol/merges",
            "milestones_url": "https://api.github.com/repos/PrismarineJS/node-minecraft-protocol/milestones{/number}",
            "mirror_url": null,
            "name": "node-minecraft-protocol",
            "node_id": "MDEwOlJlcG9zaXRvcnk3Mzk0MzQ3",
            "notifications_url": "https://api.github.com/repos/PrismarineJS/node-minecraft-protocol/notifications{?since,all,participating}",
            "open_issues": 92,
            "open_issues_count": 92,
            "owner": {
                "avatar_url": "https://avatars.githubusercontent.com/u/11053411?v=4",
                "events_url": "https://api.github.com/users/PrismarineJS/events{/privacy}",
                "followers_url": "https://api.github.com/users/PrismarineJS/followers",
                "following_url": "https://api.github.com/users/PrismarineJS/following{/other_user}",
                "gists_url": "https://api.github.com/users/PrismarineJS/gists{/gist_id}",
                "gravatar_id": "",
                "html_url": "https://github.com/PrismarineJS",
                "id": 11053411,
                "login": "PrismarineJS",
                "node_id": "MDEyOk9yZ2FuaXphdGlvbjExMDUzNDEx",
                "organizations_url": "https://api.github.com/users/PrismarineJS/orgs",
                "received_events_url": "https://api.github.com/users/PrismarineJS/received_events",
                "repos_url": "https://api.github.com/users/PrismarineJS/repos",
                "site_admin": false,
                "starred_url": "https://api.github.com/users/PrismarineJS/starred{/owner}{/repo}",
                "subscriptions_url": "https://api.github.com/users/PrismarineJS/subscriptions",
                "type": "Organization",
                "url": "https://api.github.com/users/PrismarineJS"
            },
            "private": false,
            "pulls_url": "https://api.github.com/repos/PrismarineJS/node-minecraft-protocol/pulls{/number}",
            "pushed_at": "2023-04-22T09:19:41Z",
            "releases_url": "https://api.github.com/repos/PrismarineJS/node-minecraft-protocol/releases{/id}",
            "size": 1785,
            "ssh_url": "git@github.com:PrismarineJS/node-minecraft-protocol.git",
            "stargazers_count": 1063,
            "stargazers_url": "https://api.github.com/repos/PrismarineJS/node-minecraft-protocol/stargazers",
            "statuses_url": "https://api.github.com/repos/PrismarineJS/node-minecraft-protocol/statuses/{sha}",
            "subscribers_url": "https://api.github.com/repos/PrismarineJS/node-minecraft-protocol/subscribers",
            "subscription_url": "https://api.github.com/repos/PrismarineJS/node-minecraft-protocol/subscription",
            "svn_url": "https://github.com/PrismarineJS/node-minecraft-protocol",
            "tags_url": "https://api.github.com/repos/PrismarineJS/node-minecraft-protocol/tags",
            "teams_url": "https://api.github.com/repos/PrismarineJS/node-minecraft-protocol/teams",
            "topics": [
                "client",
                "minecraft",
                "network",
                "packets",
                "protocol",
                "proxy",
                "server"
            ],
            "trees_url": "https://api.github.com/repos/PrismarineJS/node-minecraft-protocol/git/trees{/sha}",
            "updated_at": "2023-04-22T17:20:34Z",
            "url": "https://api.github.com/repos/PrismarineJS/node-minecraft-protocol",
            "visibility": "public",
            "watchers": 1063,
            "watchers_count": 1063,
            "web_commit_signoff_required": false
        },
        "sha": "28b52a91589215f985d513102ddcd201a2d248a6",
        "user": {
            "avatar_url": "https://avatars.githubusercontent.com/u/11053411?v=4",
            "events_url": "https://api.github.com/users/PrismarineJS/events{/privacy}",
            "followers_url": "https://api.github.com/users/PrismarineJS/followers",
            "following_url": "https://api.github.com/users/PrismarineJS/following{/other_user}",
            "gists_url": "https://api.github.com/users/PrismarineJS/gists{/gist_id}",
            "gravatar_id": "",
            "html_url": "https://github.com/PrismarineJS",
            "id": 11053411,
            "login": "PrismarineJS",
            "node_id": "MDEyOk9yZ2FuaXphdGlvbjExMDUzNDEx",
            "organizations_url": "https://api.github.com/users/PrismarineJS/orgs",
            "received_events_url": "https://api.github.com/users/PrismarineJS/received_events",
            "repos_url": "https://api.github.com/users/PrismarineJS/repos",
            "site_admin": false,
            "starred_url": "https://api.github.com/users/PrismarineJS/starred{/owner}{/repo}",
            "subscriptions_url": "https://api.github.com/users/PrismarineJS/subscriptions",
            "type": "Organization",
            "url": "https://api.github.com/users/PrismarineJS"
        }
    },
    "body": "",
    "changed_files": 1,
    "closed_at": "2020-05-03T03:03:55Z",
    "comment_data": [],
    "comment_regular_data": [],
    "comments": 0,
    "comments_url": "https://api.github.com/repos/PrismarineJS/node-minecraft-protocol/issues/702/comments",
    "commit_data": [
        {
            "author": {
                "avatar_url": "https://avatars.githubusercontent.com/u/55628081?v=4",
                "events_url": "https://api.github.com/users/C1assic/events{/privacy}",
                "followers_url": "https://api.github.com/users/C1assic/followers",
                "following_url": "https://api.github.com/users/C1assic/following{/other_user}",
                "gists_url": "https://api.github.com/users/C1assic/gists{/gist_id}",
                "gravatar_id": "",
                "html_url": "https://github.com/C1assic",
                "id": 55628081,
                "login": "C1assic",
                "node_id": "MDQ6VXNlcjU1NjI4MDgx",
                "organizations_url": "https://api.github.com/users/C1assic/orgs",
                "received_events_url": "https://api.github.com/users/C1assic/received_events",
                "repos_url": "https://api.github.com/users/C1assic/repos",
                "site_admin": false,
                "starred_url": "https://api.github.com/users/C1assic/starred{/owner}{/repo}",
                "subscriptions_url": "https://api.github.com/users/C1assic/subscriptions",
                "type": "User",
                "url": "https://api.github.com/users/C1assic"
            },
            "comments_url": "https://api.github.com/repos/PrismarineJS/node-minecraft-protocol/commits/95d58245e6ec77436dba15b2407d34e2b17eca76/comments",
            "commit": {
                "author": {
                    "date": "2020-04-28T11:15:38Z",
                    "email": "55628081+C1assic@users.noreply.github.com",
                    "name": "C1assic"
                },
                "comment_count": 0,
                "committer": {
                    "date": "2020-04-28T11:15:38Z",
                    "email": "noreply@github.com",
                    "name": "GitHub"
                },
                "message": "Update handshake.js",
                "tree": {
                    "sha": "3dae2d1c69cae2c8c5bbc7af2c292c50ae9618b6",
                    "url": "https://api.github.com/repos/PrismarineJS/node-minecraft-protocol/git/trees/3dae2d1c69cae2c8c5bbc7af2c292c50ae9618b6"
                },
                "url": "https://api.github.com/repos/PrismarineJS/node-minecraft-protocol/git/commits/95d58245e6ec77436dba15b2407d34e2b17eca76",
                "verification": {
                    "payload": "tree 3dae2d1c69cae2c8c5bbc7af2c292c50ae9618b6\nparent 28b52a91589215f985d513102ddcd201a2d248a6\nauthor C1assic <55628081+C1assic@users.noreply.github.com> 1588072538 +0700\ncommitter GitHub <noreply@github.com> 1588072538 +0700\n\nUpdate handshake.js",
                    "reason": "valid",
                    "signature": "-----BEGIN PGP SIGNATURE-----\n\nwsBcBAABCAAQBQJeqBBaCRBK7hj4Ov3rIwAAdHIIAHhL+As12vfdn3MxZsZA9vuc\nNklhm8ROANIkxJ1ucdHeeLh/7NqncgsKmGEq4Ws6Hi2axtOFQU+f+E+ToOMl+OsP\n+BGjE8N+4wK0mS7axaPL3SJUtgJmC6KiTLWWlhsjziO8W2jGSQNPbLmLdnri5lgf\nKhsxZh7d89qUUwI8LHJIKCkbPL4c8WwXCHZmkIsnduQLKDAvkq9ATRci1zz6WBMF\nvYW8xA7QMmD2eLNURRF1hQQonjD4bj9XZBLWYwR2nHWRRdKOi7HVrm+s0fYZi4rw\nHSu0S9kbybYLxeDWn1/v8+1TIO+vig4TI7TTkSJ7I7NFlz5Wdue5CssXfLbp+BM=\n=uMC6\n-----END PGP SIGNATURE-----\n",
                    "verified": true
                }
            },
            "committer": {
                "avatar_url": "https://avatars.githubusercontent.com/u/19864447?v=4",
                "events_url": "https://api.github.com/users/web-flow/events{/privacy}",
                "followers_url": "https://api.github.com/users/web-flow/followers",
                "following_url": "https://api.github.com/users/web-flow/following{/other_user}",
                "gists_url": "https://api.github.com/users/web-flow/gists{/gist_id}",
                "gravatar_id": "",
                "html_url": "https://github.com/web-flow",
                "id": 19864447,
                "login": "web-flow",
                "node_id": "MDQ6VXNlcjE5ODY0NDQ3",
                "organizations_url": "https://api.github.com/users/web-flow/orgs",
                "received_events_url": "https://api.github.com/users/web-flow/received_events",
                "repos_url": "https://api.github.com/users/web-flow/repos",
                "site_admin": false,
                "starred_url": "https://api.github.com/users/web-flow/starred{/owner}{/repo}",
                "subscriptions_url": "https://api.github.com/users/web-flow/subscriptions",
                "type": "User",
                "url": "https://api.github.com/users/web-flow"
            },
            "html_url": "https://github.com/PrismarineJS/node-minecraft-protocol/commit/95d58245e6ec77436dba15b2407d34e2b17eca76",
            "node_id": "MDY6Q29tbWl0NzM5NDM0Nzo5NWQ1ODI0NWU2ZWM3NzQzNmRiYTE1YjI0MDdkMzRlMmIxN2VjYTc2",
            "parents": [
                {
                    "html_url": "https://github.com/PrismarineJS/node-minecraft-protocol/commit/28b52a91589215f985d513102ddcd201a2d248a6",
                    "sha": "28b52a91589215f985d513102ddcd201a2d248a6",
                    "url": "https://api.github.com/repos/PrismarineJS/node-minecraft-protocol/commits/28b52a91589215f985d513102ddcd201a2d248a6"
                }
            ],
            "sha": "95d58245e6ec77436dba15b2407d34e2b17eca76",
            "url": "https://api.github.com/repos/PrismarineJS/node-minecraft-protocol/commits/95d58245e6ec77436dba15b2407d34e2b17eca76"
        }
    ],
    "commits": 1,
    "commits_url": "https://api.github.com/repos/PrismarineJS/node-minecraft-protocol/pulls/702/commits",
    "created_at": "2020-04-28T11:16:04Z",
    "deletions": 2,
    "diff_url": "https://github.com/PrismarineJS/node-minecraft-protocol/pull/702.diff",
    "draft": false,
    "head": {
        "label": "C1assic:patch-1",
        "ref": "patch-1",
        "repo": null,
        "sha": "95d58245e6ec77436dba15b2407d34e2b17eca76",
        "user": {
            "avatar_url": "https://avatars.githubusercontent.com/u/55628081?v=4",
            "events_url": "https://api.github.com/users/C1assic/events{/privacy}",
            "followers_url": "https://api.github.com/users/C1assic/followers",
            "following_url": "https://api.github.com/users/C1assic/following{/other_user}",
            "gists_url": "https://api.github.com/users/C1assic/gists{/gist_id}",
            "gravatar_id": "",
            "html_url": "https://github.com/C1assic",
            "id": 55628081,
            "login": "C1assic",
            "node_id": "MDQ6VXNlcjU1NjI4MDgx",
            "organizations_url": "https://api.github.com/users/C1assic/orgs",
            "received_events_url": "https://api.github.com/users/C1assic/received_events",
            "repos_url": "https://api.github.com/users/C1assic/repos",
            "site_admin": false,
            "starred_url": "https://api.github.com/users/C1assic/starred{/owner}{/repo}",
            "subscriptions_url": "https://api.github.com/users/C1assic/subscriptions",
            "type": "User",
            "url": "https://api.github.com/users/C1assic"
        }
    },
    "html_url": "https://github.com/PrismarineJS/node-minecraft-protocol/pull/702",
    "id": 410050940,
    "issue_url": "https://api.github.com/repos/PrismarineJS/node-minecraft-protocol/issues/702",
    "labels": [],
    "locked": false,
    "maintainer_can_modify": false,
    "merge_commit_sha": "23b562b930218e7ee20219276e5d8f049abdadbf",
    "mergeable": null,
    "mergeable_state": "unknown",
    "merged": false,
    "merged_at": null,
    "merged_by": null,
    "milestone": null,
    "node_id": "MDExOlB1bGxSZXF1ZXN0NDEwMDUwOTQw",
    "number": 702,
    "patch_url": "https://github.com/PrismarineJS/node-minecraft-protocol/pull/702.patch",
    "rebaseable": null,
    "requested_reviewers": [],
    "requested_teams": [],
    "review_comment_url": "https://api.github.com/repos/PrismarineJS/node-minecraft-protocol/pulls/comments{/number}",
    "review_comments": 0,
    "review_comments_url": "https://api.github.com/repos/PrismarineJS/node-minecraft-protocol/pulls/702/comments",
    "state": "closed",
    "statuses_url": "https://api.github.com/repos/PrismarineJS/node-minecraft-protocol/statuses/95d58245e6ec77436dba15b2407d34e2b17eca76",
    "title": "Update handshake.js",
    "updated_at": "2020-05-03T03:03:55Z",
    "url": "https://api.github.com/repos/PrismarineJS/node-minecraft-protocol/pulls/702",
    "user": {
        "avatar_url": "https://avatars.githubusercontent.com/u/55628081?v=4",
        "events_url": "https://api.github.com/users/C1assic/events{/privacy}",
        "followers_url": "https://api.github.com/users/C1assic/followers",
        "following_url": "https://api.github.com/users/C1assic/following{/other_user}",
        "gists_url": "https://api.github.com/users/C1assic/gists{/gist_id}",
        "gravatar_id": "",
        "html_url": "https://github.com/C1assic",
        "id": 55628081,
        "login": "C1assic",
        "node_id": "MDQ6VXNlcjU1NjI4MDgx",
        "organizations_url": "https://api.github.com/users/C1assic/orgs",
        "received_events_url": "https://api.github.com/users/C1assic/received_events",
        "repos_url": "https://api.github.com/users/C1assic/repos",
        "site_admin": false,
        "starred_url": "https://api.github.com/users/C1assic/starred{/owner}{/repo}",
        "subscriptions_url": "https://api.github.com/users/C1assic/subscriptions",
        "type": "User",
        "url": "https://api.github.com/users/C1assic"
    }
}