{
    "_links": {
        "comments": {
            "href": "https://api.github.com/repos/PrismarineJS/node-minecraft-protocol/issues/754/comments"
        },
        "commits": {
            "href": "https://api.github.com/repos/PrismarineJS/node-minecraft-protocol/pulls/754/commits"
        },
        "html": {
            "href": "https://github.com/PrismarineJS/node-minecraft-protocol/pull/754"
        },
        "issue": {
            "href": "https://api.github.com/repos/PrismarineJS/node-minecraft-protocol/issues/754"
        },
        "review_comment": {
            "href": "https://api.github.com/repos/PrismarineJS/node-minecraft-protocol/pulls/comments{/number}"
        },
        "review_comments": {
            "href": "https://api.github.com/repos/PrismarineJS/node-minecraft-protocol/pulls/754/comments"
        },
        "self": {
            "href": "https://api.github.com/repos/PrismarineJS/node-minecraft-protocol/pulls/754"
        },
        "statuses": {
            "href": "https://api.github.com/repos/PrismarineJS/node-minecraft-protocol/statuses/64c31e9061e6f69b56020dd455b67c59794b4667"
        }
    },
    "active_lock_reason": null,
    "additions": 1,
    "assignee": null,
    "assignees": [],
    "author_association": "CONTRIBUTOR",
    "auto_merge": null,
    "base": {
        "label": "PrismarineJS:master",
        "ref": "master",
        "repo": {
            "allow_forking": true,
            "archive_url": "https://api.github.com/repos/PrismarineJS/node-minecraft-protocol/{archive_format}{/ref}",
            "archived": false,
            "assignees_url": "https://api.github.com/repos/PrismarineJS/node-minecraft-protocol/assignees{/user}",
            "blobs_url": "https://api.github.com/repos/PrismarineJS/node-minecraft-protocol/git/blobs{/sha}",
            "branches_url": "https://api.github.com/repos/PrismarineJS/node-minecraft-protocol/branches{/branch}",
            "clone_url": "https://github.com/PrismarineJS/node-minecraft-protocol.git",
            "collaborators_url": "https://api.github.com/repos/PrismarineJS/node-minecraft-protocol/collaborators{/collaborator}",
            "comments_url": "https://api.github.com/repos/PrismarineJS/node-minecraft-protocol/comments{/number}",
            "commits_url": "https://api.github.com/repos/PrismarineJS/node-minecraft-protocol/commits{/sha}",
            "compare_url": "https://api.github.com/repos/PrismarineJS/node-minecraft-protocol/compare/{base}...{head}",
            "contents_url": "https://api.github.com/repos/PrismarineJS/node-minecraft-protocol/contents/{+path}",
            "contributors_url": "https://api.github.com/repos/PrismarineJS/node-minecraft-protocol/contributors",
            "created_at": "2013-01-01T09:17:05Z",
            "default_branch": "master",
            "deployments_url": "https://api.github.com/repos/PrismarineJS/node-minecraft-protocol/deployments",
            "description": "Parse and serialize minecraft packets, plus authentication and encryption.",
            "disabled": false,
            "downloads_url": "https://api.github.com/repos/PrismarineJS/node-minecraft-protocol/downloads",
            "events_url": "https://api.github.com/repos/PrismarineJS/node-minecraft-protocol/events",
            "fork": false,
            "forks": 222,
            "forks_count": 222,
            "forks_url": "https://api.github.com/repos/PrismarineJS/node-minecraft-protocol/forks",
            "full_name": "PrismarineJS/node-minecraft-protocol",
            "git_commits_url": "https://api.github.com/repos/PrismarineJS/node-minecraft-protocol/git/commits{/sha}",
            "git_refs_url": "https://api.github.com/repos/PrismarineJS/node-minecraft-protocol/git/refs{/sha}",
            "git_tags_url": "https://api.github.com/repos/PrismarineJS/node-minecraft-protocol/git/tags{/sha}",
            "git_url": "git://github.com/PrismarineJS/node-minecraft-protocol.git",
            "has_discussions": false,
            "has_downloads": true,
            "has_issues": true,
            "has_pages": true,
            "has_projects": true,
            "has_wiki": true,
            "homepage": "https://prismarinejs.github.io/node-minecraft-protocol/",
            "hooks_url": "https://api.github.com/repos/PrismarineJS/node-minecraft-protocol/hooks",
            "html_url": "https://github.com/PrismarineJS/node-minecraft-protocol",
            "id": 7394347,
            "is_template": false,
            "issue_comment_url": "https://api.github.com/repos/PrismarineJS/node-minecraft-protocol/issues/comments{/number}",
            "issue_events_url": "https://api.github.com/repos/PrismarineJS/node-minecraft-protocol/issues/events{/number}",
            "issues_url": "https://api.github.com/repos/PrismarineJS/node-minecraft-protocol/issues{/number}",
            "keys_url": "https://api.github.com/repos/PrismarineJS/node-minecraft-protocol/keys{/key_id}",
            "labels_url": "https://api.github.com/repos/PrismarineJS/node-minecraft-protocol/labels{/name}",
            "language": "JavaScript",
            "languages_url": "https://api.github.com/repos/PrismarineJS/node-minecraft-protocol/languages",
            "license": {
                "key": "bsd-3-clause",
                "name": "BSD 3-Clause \"New\" or \"Revised\" License",
                "node_id": "MDc6TGljZW5zZTU=",
                "spdx_id": "BSD-3-Clause",
                "url": "https://api.github.com/licenses/bsd-3-clause"
            },
            "merges_url": "https://api.github.com/repos/PrismarineJS/node-minecraft-protocol/merges",
            "milestones_url": "https://api.github.com/repos/PrismarineJS/node-minecraft-protocol/milestones{/number}",
            "mirror_url": null,
            "name": "node-minecraft-protocol",
            "node_id": "MDEwOlJlcG9zaXRvcnk3Mzk0MzQ3",
            "notifications_url": "https://api.github.com/repos/PrismarineJS/node-minecraft-protocol/notifications{?since,all,participating}",
            "open_issues": 92,
            "open_issues_count": 92,
            "owner": {
                "avatar_url": "https://avatars.githubusercontent.com/u/11053411?v=4",
                "events_url": "https://api.github.com/users/PrismarineJS/events{/privacy}",
                "followers_url": "https://api.github.com/users/PrismarineJS/followers",
                "following_url": "https://api.github.com/users/PrismarineJS/following{/other_user}",
                "gists_url": "https://api.github.com/users/PrismarineJS/gists{/gist_id}",
                "gravatar_id": "",
                "html_url": "https://github.com/PrismarineJS",
                "id": 11053411,
                "login": "PrismarineJS",
                "node_id": "MDEyOk9yZ2FuaXphdGlvbjExMDUzNDEx",
                "organizations_url": "https://api.github.com/users/PrismarineJS/orgs",
                "received_events_url": "https://api.github.com/users/PrismarineJS/received_events",
                "repos_url": "https://api.github.com/users/PrismarineJS/repos",
                "site_admin": false,
                "starred_url": "https://api.github.com/users/PrismarineJS/starred{/owner}{/repo}",
                "subscriptions_url": "https://api.github.com/users/PrismarineJS/subscriptions",
                "type": "Organization",
                "url": "https://api.github.com/users/PrismarineJS"
            },
            "private": false,
            "pulls_url": "https://api.github.com/repos/PrismarineJS/node-minecraft-protocol/pulls{/number}",
            "pushed_at": "2023-04-22T09:19:41Z",
            "releases_url": "https://api.github.com/repos/PrismarineJS/node-minecraft-protocol/releases{/id}",
            "size": 1785,
            "ssh_url": "git@github.com:PrismarineJS/node-minecraft-protocol.git",
            "stargazers_count": 1063,
            "stargazers_url": "https://api.github.com/repos/PrismarineJS/node-minecraft-protocol/stargazers",
            "statuses_url": "https://api.github.com/repos/PrismarineJS/node-minecraft-protocol/statuses/{sha}",
            "subscribers_url": "https://api.github.com/repos/PrismarineJS/node-minecraft-protocol/subscribers",
            "subscription_url": "https://api.github.com/repos/PrismarineJS/node-minecraft-protocol/subscription",
            "svn_url": "https://github.com/PrismarineJS/node-minecraft-protocol",
            "tags_url": "https://api.github.com/repos/PrismarineJS/node-minecraft-protocol/tags",
            "teams_url": "https://api.github.com/repos/PrismarineJS/node-minecraft-protocol/teams",
            "topics": [
                "client",
                "minecraft",
                "network",
                "packets",
                "protocol",
                "proxy",
                "server"
            ],
            "trees_url": "https://api.github.com/repos/PrismarineJS/node-minecraft-protocol/git/trees{/sha}",
            "updated_at": "2023-04-22T17:20:34Z",
            "url": "https://api.github.com/repos/PrismarineJS/node-minecraft-protocol",
            "visibility": "public",
            "watchers": 1063,
            "watchers_count": 1063,
            "web_commit_signoff_required": false
        },
        "sha": "a186392d1d65468ebbc7816197406779b4d181e6",
        "user": {
            "avatar_url": "https://avatars.githubusercontent.com/u/11053411?v=4",
            "events_url": "https://api.github.com/users/PrismarineJS/events{/privacy}",
            "followers_url": "https://api.github.com/users/PrismarineJS/followers",
            "following_url": "https://api.github.com/users/PrismarineJS/following{/other_user}",
            "gists_url": "https://api.github.com/users/PrismarineJS/gists{/gist_id}",
            "gravatar_id": "",
            "html_url": "https://github.com/PrismarineJS",
            "id": 11053411,
            "login": "PrismarineJS",
            "node_id": "MDEyOk9yZ2FuaXphdGlvbjExMDUzNDEx",
            "organizations_url": "https://api.github.com/users/PrismarineJS/orgs",
            "received_events_url": "https://api.github.com/users/PrismarineJS/received_events",
            "repos_url": "https://api.github.com/users/PrismarineJS/repos",
            "site_admin": false,
            "starred_url": "https://api.github.com/users/PrismarineJS/starred{/owner}{/repo}",
            "subscriptions_url": "https://api.github.com/users/PrismarineJS/subscriptions",
            "type": "Organization",
            "url": "https://api.github.com/users/PrismarineJS"
        }
    },
    "body": "Sometimes parsed.data is undefined, meaning the `s` variable is evaluated to undefined. When trying to read the length of the variable, it causes `Cannot read property 'length' of undefined`. By checking that `s` is defined before checking it's length prevents the crash from happening.",
    "changed_files": 1,
    "closed_at": "2020-08-08T18:17:36Z",
    "comment_data": [],
    "comment_regular_data": [],
    "comments": 0,
    "comments_url": "https://api.github.com/repos/PrismarineJS/node-minecraft-protocol/issues/754/comments",
    "commit_data": [
        {
            "author": {
                "avatar_url": "https://avatars.githubusercontent.com/u/36706634?v=4",
                "events_url": "https://api.github.com/users/VBDojnaz/events{/privacy}",
                "followers_url": "https://api.github.com/users/VBDojnaz/followers",
                "following_url": "https://api.github.com/users/VBDojnaz/following{/other_user}",
                "gists_url": "https://api.github.com/users/VBDojnaz/gists{/gist_id}",
                "gravatar_id": "",
                "html_url": "https://github.com/VBDojnaz",
                "id": 36706634,
                "login": "VBDojnaz",
                "node_id": "MDQ6VXNlcjM2NzA2NjM0",
                "organizations_url": "https://api.github.com/users/VBDojnaz/orgs",
                "received_events_url": "https://api.github.com/users/VBDojnaz/received_events",
                "repos_url": "https://api.github.com/users/VBDojnaz/repos",
                "site_admin": false,
                "starred_url": "https://api.github.com/users/VBDojnaz/starred{/owner}{/repo}",
                "subscriptions_url": "https://api.github.com/users/VBDojnaz/subscriptions",
                "type": "User",
                "url": "https://api.github.com/users/VBDojnaz"
            },
            "comments_url": "https://api.github.com/repos/PrismarineJS/node-minecraft-protocol/commits/64c31e9061e6f69b56020dd455b67c59794b4667/comments",
            "commit": {
                "author": {
                    "date": "2020-08-08T17:16:36Z",
                    "email": "36706634+HVEVB@users.noreply.github.com",
                    "name": "HVEVB"
                },
                "comment_count": 0,
                "committer": {
                    "date": "2020-08-08T17:16:36Z",
                    "email": "noreply@github.com",
                    "name": "GitHub"
                },
                "message": "Fixes crashes\n\nSometimes parsed.data is undefined, meaning the `s` variable is evaluated to undefined. When trying to read the length of the variable, it causes `Cannot read property 'length' of undefined`. By checking that `s` is defined before checking it's length prevents the crash from happening.",
                "tree": {
                    "sha": "fc49f187a7456e605e67d2c3f68c14abdd560238",
                    "url": "https://api.github.com/repos/PrismarineJS/node-minecraft-protocol/git/trees/fc49f187a7456e605e67d2c3f68c14abdd560238"
                },
                "url": "https://api.github.com/repos/PrismarineJS/node-minecraft-protocol/git/commits/64c31e9061e6f69b56020dd455b67c59794b4667",
                "verification": {
                    "payload": "tree fc49f187a7456e605e67d2c3f68c14abdd560238\nparent a186392d1d65468ebbc7816197406779b4d181e6\nauthor HVEVB <36706634+HVEVB@users.noreply.github.com> 1596906996 +0200\ncommitter GitHub <noreply@github.com> 1596906996 +0200\n\nFixes crashes\n\nSometimes parsed.data is undefined, meaning the `s` variable is evaluated to undefined. When trying to read the length of the variable, it causes `Cannot read property 'length' of undefined`. By checking that `s` is defined before checking it's length prevents the crash from happening.",
                    "reason": "valid",
                    "signature": "-----BEGIN PGP SIGNATURE-----\n\nwsBcBAABCAAQBQJfLt30CRBK7hj4Ov3rIwAAdHIIADE21LS+ocMerPEUtcZO7vix\nvu80gbl6h1mRSVoqrENSrIg/ueyw1AHdHXm9UpTPYMgQzs207LTitJJTOLPBI8Se\n+Ajh9dlF5czhuEdARkZZxAwqYk+B8PvTzfwYKCf4821X3kxDsbg3+kND5M+LhS35\n+sXJ3IaSIVC0KwG1zWbczbEbkncjwxJhZt9ea2zL5RjPdBdV5JgdaIf1R0NUp0YP\ntptWog8vUk08IsaunSctcdi2ipME9S0AjVY7lrgYPysbWdMoObtrqAz3NwWiQMyY\n8UTIXoXLHFd1EykrwXTztRSsaUA3fgss3REOD3qHrz5eQiK3dfHzNRJUek6yvYg=\n=nTyH\n-----END PGP SIGNATURE-----\n",
                    "verified": true
                }
            },
            "committer": {
                "avatar_url": "https://avatars.githubusercontent.com/u/19864447?v=4",
                "events_url": "https://api.github.com/users/web-flow/events{/privacy}",
                "followers_url": "https://api.github.com/users/web-flow/followers",
                "following_url": "https://api.github.com/users/web-flow/following{/other_user}",
                "gists_url": "https://api.github.com/users/web-flow/gists{/gist_id}",
                "gravatar_id": "",
                "html_url": "https://github.com/web-flow",
                "id": 19864447,
                "login": "web-flow",
                "node_id": "MDQ6VXNlcjE5ODY0NDQ3",
                "organizations_url": "https://api.github.com/users/web-flow/orgs",
                "received_events_url": "https://api.github.com/users/web-flow/received_events",
                "repos_url": "https://api.github.com/users/web-flow/repos",
                "site_admin": false,
                "starred_url": "https://api.github.com/users/web-flow/starred{/owner}{/repo}",
                "subscriptions_url": "https://api.github.com/users/web-flow/subscriptions",
                "type": "User",
                "url": "https://api.github.com/users/web-flow"
            },
            "html_url": "https://github.com/PrismarineJS/node-minecraft-protocol/commit/64c31e9061e6f69b56020dd455b67c59794b4667",
            "node_id": "MDY6Q29tbWl0Mjg2MDg1NzMyOjY0YzMxZTkwNjFlNmY2OWI1NjAyMGRkNDU1YjY3YzU5Nzk0YjQ2Njc=",
            "parents": [
                {
                    "html_url": "https://github.com/PrismarineJS/node-minecraft-protocol/commit/a186392d1d65468ebbc7816197406779b4d181e6",
                    "sha": "a186392d1d65468ebbc7816197406779b4d181e6",
                    "url": "https://api.github.com/repos/PrismarineJS/node-minecraft-protocol/commits/a186392d1d65468ebbc7816197406779b4d181e6"
                }
            ],
            "sha": "64c31e9061e6f69b56020dd455b67c59794b4667",
            "url": "https://api.github.com/repos/PrismarineJS/node-minecraft-protocol/commits/64c31e9061e6f69b56020dd455b67c59794b4667"
        }
    ],
    "commits": 1,
    "commits_url": "https://api.github.com/repos/PrismarineJS/node-minecraft-protocol/pulls/754/commits",
    "created_at": "2020-08-08T17:16:49Z",
    "deletions": 1,
    "diff_url": "https://github.com/PrismarineJS/node-minecraft-protocol/pull/754.diff",
    "draft": false,
    "head": {
        "label": "VBDojnaz:patch-1",
        "ref": "patch-1",
        "repo": {
            "allow_forking": true,
            "archive_url": "https://api.github.com/repos/VBDojnaz/node-minecraft-protocol/{archive_format}{/ref}",
            "archived": false,
            "assignees_url": "https://api.github.com/repos/VBDojnaz/node-minecraft-protocol/assignees{/user}",
            "blobs_url": "https://api.github.com/repos/VBDojnaz/node-minecraft-protocol/git/blobs{/sha}",
            "branches_url": "https://api.github.com/repos/VBDojnaz/node-minecraft-protocol/branches{/branch}",
            "clone_url": "https://github.com/VBDojnaz/node-minecraft-protocol.git",
            "collaborators_url": "https://api.github.com/repos/VBDojnaz/node-minecraft-protocol/collaborators{/collaborator}",
            "comments_url": "https://api.github.com/repos/VBDojnaz/node-minecraft-protocol/comments{/number}",
            "commits_url": "https://api.github.com/repos/VBDojnaz/node-minecraft-protocol/commits{/sha}",
            "compare_url": "https://api.github.com/repos/VBDojnaz/node-minecraft-protocol/compare/{base}...{head}",
            "contents_url": "https://api.github.com/repos/VBDojnaz/node-minecraft-protocol/contents/{+path}",
            "contributors_url": "https://api.github.com/repos/VBDojnaz/node-minecraft-protocol/contributors",
            "created_at": "2020-08-08T17:10:05Z",
            "default_branch": "master",
            "deployments_url": "https://api.github.com/repos/VBDojnaz/node-minecraft-protocol/deployments",
            "description": "Parse and serialize minecraft packets, plus authentication and encryption.",
            "disabled": false,
            "downloads_url": "https://api.github.com/repos/VBDojnaz/node-minecraft-protocol/downloads",
            "events_url": "https://api.github.com/repos/VBDojnaz/node-minecraft-protocol/events",
            "fork": true,
            "forks": 0,
            "forks_count": 0,
            "forks_url": "https://api.github.com/repos/VBDojnaz/node-minecraft-protocol/forks",
            "full_name": "VBDojnaz/node-minecraft-protocol",
            "git_commits_url": "https://api.github.com/repos/VBDojnaz/node-minecraft-protocol/git/commits{/sha}",
            "git_refs_url": "https://api.github.com/repos/VBDojnaz/node-minecraft-protocol/git/refs{/sha}",
            "git_tags_url": "https://api.github.com/repos/VBDojnaz/node-minecraft-protocol/git/tags{/sha}",
            "git_url": "git://github.com/VBDojnaz/node-minecraft-protocol.git",
            "has_discussions": false,
            "has_downloads": true,
            "has_issues": false,
            "has_pages": false,
            "has_projects": true,
            "has_wiki": true,
            "homepage": "https://node-minecraft-protocol.prismarine.js.org/",
            "hooks_url": "https://api.github.com/repos/VBDojnaz/node-minecraft-protocol/hooks",
            "html_url": "https://github.com/VBDojnaz/node-minecraft-protocol",
            "id": 286085732,
            "is_template": false,
            "issue_comment_url": "https://api.github.com/repos/VBDojnaz/node-minecraft-protocol/issues/comments{/number}",
            "issue_events_url": "https://api.github.com/repos/VBDojnaz/node-minecraft-protocol/issues/events{/number}",
            "issues_url": "https://api.github.com/repos/VBDojnaz/node-minecraft-protocol/issues{/number}",
            "keys_url": "https://api.github.com/repos/VBDojnaz/node-minecraft-protocol/keys{/key_id}",
            "labels_url": "https://api.github.com/repos/VBDojnaz/node-minecraft-protocol/labels{/name}",
            "language": null,
            "languages_url": "https://api.github.com/repos/VBDojnaz/node-minecraft-protocol/languages",
            "license": {
                "key": "bsd-3-clause",
                "name": "BSD 3-Clause \"New\" or \"Revised\" License",
                "node_id": "MDc6TGljZW5zZTU=",
                "spdx_id": "BSD-3-Clause",
                "url": "https://api.github.com/licenses/bsd-3-clause"
            },
            "merges_url": "https://api.github.com/repos/VBDojnaz/node-minecraft-protocol/merges",
            "milestones_url": "https://api.github.com/repos/VBDojnaz/node-minecraft-protocol/milestones{/number}",
            "mirror_url": null,
            "name": "node-minecraft-protocol",
            "node_id": "MDEwOlJlcG9zaXRvcnkyODYwODU3MzI=",
            "notifications_url": "https://api.github.com/repos/VBDojnaz/node-minecraft-protocol/notifications{?since,all,participating}",
            "open_issues": 0,
            "open_issues_count": 0,
            "owner": {
                "avatar_url": "https://avatars.githubusercontent.com/u/36706634?v=4",
                "events_url": "https://api.github.com/users/VBDojnaz/events{/privacy}",
                "followers_url": "https://api.github.com/users/VBDojnaz/followers",
                "following_url": "https://api.github.com/users/VBDojnaz/following{/other_user}",
                "gists_url": "https://api.github.com/users/VBDojnaz/gists{/gist_id}",
                "gravatar_id": "",
                "html_url": "https://github.com/VBDojnaz",
                "id": 36706634,
                "login": "VBDojnaz",
                "node_id": "MDQ6VXNlcjM2NzA2NjM0",
                "organizations_url": "https://api.github.com/users/VBDojnaz/orgs",
                "received_events_url": "https://api.github.com/users/VBDojnaz/received_events",
                "repos_url": "https://api.github.com/users/VBDojnaz/repos",
                "site_admin": false,
                "starred_url": "https://api.github.com/users/VBDojnaz/starred{/owner}{/repo}",
                "subscriptions_url": "https://api.github.com/users/VBDojnaz/subscriptions",
                "type": "User",
                "url": "https://api.github.com/users/VBDojnaz"
            },
            "private": false,
            "pulls_url": "https://api.github.com/repos/VBDojnaz/node-minecraft-protocol/pulls{/number}",
            "pushed_at": "2020-08-08T17:16:37Z",
            "releases_url": "https://api.github.com/repos/VBDojnaz/node-minecraft-protocol/releases{/id}",
            "size": 1372,
            "ssh_url": "git@github.com:VBDojnaz/node-minecraft-protocol.git",
            "stargazers_count": 0,
            "stargazers_url": "https://api.github.com/repos/VBDojnaz/node-minecraft-protocol/stargazers",
            "statuses_url": "https://api.github.com/repos/VBDojnaz/node-minecraft-protocol/statuses/{sha}",
            "subscribers_url": "https://api.github.com/repos/VBDojnaz/node-minecraft-protocol/subscribers",
            "subscription_url": "https://api.github.com/repos/VBDojnaz/node-minecraft-protocol/subscription",
            "svn_url": "https://github.com/VBDojnaz/node-minecraft-protocol",
            "tags_url": "https://api.github.com/repos/VBDojnaz/node-minecraft-protocol/tags",
            "teams_url": "https://api.github.com/repos/VBDojnaz/node-minecraft-protocol/teams",
            "topics": [],
            "trees_url": "https://api.github.com/repos/VBDojnaz/node-minecraft-protocol/git/trees{/sha}",
            "updated_at": "2020-08-08T17:10:07Z",
            "url": "https://api.github.com/repos/VBDojnaz/node-minecraft-protocol",
            "visibility": "public",
            "watchers": 0,
            "watchers_count": 0,
            "web_commit_signoff_required": false
        },
        "sha": "64c31e9061e6f69b56020dd455b67c59794b4667",
        "user": {
            "avatar_url": "https://avatars.githubusercontent.com/u/36706634?v=4",
            "events_url": "https://api.github.com/users/VBDojnaz/events{/privacy}",
            "followers_url": "https://api.github.com/users/VBDojnaz/followers",
            "following_url": "https://api.github.com/users/VBDojnaz/following{/other_user}",
            "gists_url": "https://api.github.com/users/VBDojnaz/gists{/gist_id}",
            "gravatar_id": "",
            "html_url": "https://github.com/VBDojnaz",
            "id": 36706634,
            "login": "VBDojnaz",
            "node_id": "MDQ6VXNlcjM2NzA2NjM0",
            "organizations_url": "https://api.github.com/users/VBDojnaz/orgs",
            "received_events_url": "https://api.github.com/users/VBDojnaz/received_events",
            "repos_url": "https://api.github.com/users/VBDojnaz/repos",
            "site_admin": false,
            "starred_url": "https://api.github.com/users/VBDojnaz/starred{/owner}{/repo}",
            "subscriptions_url": "https://api.github.com/users/VBDojnaz/subscriptions",
            "type": "User",
            "url": "https://api.github.com/users/VBDojnaz"
        }
    },
    "html_url": "https://github.com/PrismarineJS/node-minecraft-protocol/pull/754",
    "id": 465053905,
    "issue_url": "https://api.github.com/repos/PrismarineJS/node-minecraft-protocol/issues/754",
    "labels": [],
    "locked": false,
    "maintainer_can_modify": false,
    "merge_commit_sha": "6489e1656c22f47af9acaa96227c512a0b43657d",
    "mergeable": null,
    "mergeable_state": "unknown",
    "merged": true,
    "merged_at": "2020-08-08T18:17:36Z",
    "merged_by": {
        "avatar_url": "https://avatars.githubusercontent.com/u/2346494?v=4",
        "events_url": "https://api.github.com/users/rom1504/events{/privacy}",
        "followers_url": "https://api.github.com/users/rom1504/followers",
        "following_url": "https://api.github.com/users/rom1504/following{/other_user}",
        "gists_url": "https://api.github.com/users/rom1504/gists{/gist_id}",
        "gravatar_id": "",
        "html_url": "https://github.com/rom1504",
        "id": 2346494,
        "login": "rom1504",
        "node_id": "MDQ6VXNlcjIzNDY0OTQ=",
        "organizations_url": "https://api.github.com/users/rom1504/orgs",
        "received_events_url": "https://api.github.com/users/rom1504/received_events",
        "repos_url": "https://api.github.com/users/rom1504/repos",
        "site_admin": false,
        "starred_url": "https://api.github.com/users/rom1504/starred{/owner}{/repo}",
        "subscriptions_url": "https://api.github.com/users/rom1504/subscriptions",
        "type": "User",
        "url": "https://api.github.com/users/rom1504"
    },
    "milestone": null,
    "node_id": "MDExOlB1bGxSZXF1ZXN0NDY1MDUzOTA1",
    "number": 754,
    "patch_url": "https://github.com/PrismarineJS/node-minecraft-protocol/pull/754.patch",
    "rebaseable": null,
    "requested_reviewers": [],
    "requested_teams": [],
    "review_comment_url": "https://api.github.com/repos/PrismarineJS/node-minecraft-protocol/pulls/comments{/number}",
    "review_comments": 0,
    "review_comments_url": "https://api.github.com/repos/PrismarineJS/node-minecraft-protocol/pulls/754/comments",
    "state": "closed",
    "statuses_url": "https://api.github.com/repos/PrismarineJS/node-minecraft-protocol/statuses/64c31e9061e6f69b56020dd455b67c59794b4667",
    "title": "Fixes crashes",
    "updated_at": "2020-08-08T18:17:36Z",
    "url": "https://api.github.com/repos/PrismarineJS/node-minecraft-protocol/pulls/754",
    "user": {
        "avatar_url": "https://avatars.githubusercontent.com/u/36706634?v=4",
        "events_url": "https://api.github.com/users/VBDojnaz/events{/privacy}",
        "followers_url": "https://api.github.com/users/VBDojnaz/followers",
        "following_url": "https://api.github.com/users/VBDojnaz/following{/other_user}",
        "gists_url": "https://api.github.com/users/VBDojnaz/gists{/gist_id}",
        "gravatar_id": "",
        "html_url": "https://github.com/VBDojnaz",
        "id": 36706634,
        "login": "VBDojnaz",
        "node_id": "MDQ6VXNlcjM2NzA2NjM0",
        "organizations_url": "https://api.github.com/users/VBDojnaz/orgs",
        "received_events_url": "https://api.github.com/users/VBDojnaz/received_events",
        "repos_url": "https://api.github.com/users/VBDojnaz/repos",
        "site_admin": false,
        "starred_url": "https://api.github.com/users/VBDojnaz/starred{/owner}{/repo}",
        "subscriptions_url": "https://api.github.com/users/VBDojnaz/subscriptions",
        "type": "User",
        "url": "https://api.github.com/users/VBDojnaz"
    }
}