{
    "_links": {
        "comments": {
            "href": "https://api.github.com/repos/PrismarineJS/node-minecraft-protocol-forge/issues/8/comments"
        },
        "commits": {
            "href": "https://api.github.com/repos/PrismarineJS/node-minecraft-protocol-forge/pulls/8/commits"
        },
        "html": {
            "href": "https://github.com/PrismarineJS/node-minecraft-protocol-forge/pull/8"
        },
        "issue": {
            "href": "https://api.github.com/repos/PrismarineJS/node-minecraft-protocol-forge/issues/8"
        },
        "review_comment": {
            "href": "https://api.github.com/repos/PrismarineJS/node-minecraft-protocol-forge/pulls/comments{/number}"
        },
        "review_comments": {
            "href": "https://api.github.com/repos/PrismarineJS/node-minecraft-protocol-forge/pulls/8/comments"
        },
        "self": {
            "href": "https://api.github.com/repos/PrismarineJS/node-minecraft-protocol-forge/pulls/8"
        },
        "statuses": {
            "href": "https://api.github.com/repos/PrismarineJS/node-minecraft-protocol-forge/statuses/63df2f521bde1cfce914f0e7b4cf7b6f6032f744"
        }
    },
    "active_lock_reason": null,
    "additions": 5,
    "assignee": null,
    "assignees": [],
    "author_association": "MEMBER",
    "auto_merge": null,
    "base": {
        "label": "PrismarineJS:master",
        "ref": "master",
        "repo": {
            "allow_forking": true,
            "archive_url": "https://api.github.com/repos/PrismarineJS/node-minecraft-protocol-forge/{archive_format}{/ref}",
            "archived": false,
            "assignees_url": "https://api.github.com/repos/PrismarineJS/node-minecraft-protocol-forge/assignees{/user}",
            "blobs_url": "https://api.github.com/repos/PrismarineJS/node-minecraft-protocol-forge/git/blobs{/sha}",
            "branches_url": "https://api.github.com/repos/PrismarineJS/node-minecraft-protocol-forge/branches{/branch}",
            "clone_url": "https://github.com/PrismarineJS/node-minecraft-protocol-forge.git",
            "collaborators_url": "https://api.github.com/repos/PrismarineJS/node-minecraft-protocol-forge/collaborators{/collaborator}",
            "comments_url": "https://api.github.com/repos/PrismarineJS/node-minecraft-protocol-forge/comments{/number}",
            "commits_url": "https://api.github.com/repos/PrismarineJS/node-minecraft-protocol-forge/commits{/sha}",
            "compare_url": "https://api.github.com/repos/PrismarineJS/node-minecraft-protocol-forge/compare/{base}...{head}",
            "contents_url": "https://api.github.com/repos/PrismarineJS/node-minecraft-protocol-forge/contents/{+path}",
            "contributors_url": "https://api.github.com/repos/PrismarineJS/node-minecraft-protocol-forge/contributors",
            "created_at": "2016-01-24T20:01:54Z",
            "default_branch": "master",
            "deployments_url": "https://api.github.com/repos/PrismarineJS/node-minecraft-protocol-forge/deployments",
            "description": "Plugin to add FML/Forge client support (including auto-versioning) to node-minecraft-protocol",
            "disabled": false,
            "downloads_url": "https://api.github.com/repos/PrismarineJS/node-minecraft-protocol-forge/downloads",
            "events_url": "https://api.github.com/repos/PrismarineJS/node-minecraft-protocol-forge/events",
            "fork": false,
            "forks": 12,
            "forks_count": 12,
            "forks_url": "https://api.github.com/repos/PrismarineJS/node-minecraft-protocol-forge/forks",
            "full_name": "PrismarineJS/node-minecraft-protocol-forge",
            "git_commits_url": "https://api.github.com/repos/PrismarineJS/node-minecraft-protocol-forge/git/commits{/sha}",
            "git_refs_url": "https://api.github.com/repos/PrismarineJS/node-minecraft-protocol-forge/git/refs{/sha}",
            "git_tags_url": "https://api.github.com/repos/PrismarineJS/node-minecraft-protocol-forge/git/tags{/sha}",
            "git_url": "git://github.com/PrismarineJS/node-minecraft-protocol-forge.git",
            "has_discussions": false,
            "has_downloads": true,
            "has_issues": true,
            "has_pages": false,
            "has_projects": true,
            "has_wiki": true,
            "homepage": "",
            "hooks_url": "https://api.github.com/repos/PrismarineJS/node-minecraft-protocol-forge/hooks",
            "html_url": "https://github.com/PrismarineJS/node-minecraft-protocol-forge",
            "id": 50305451,
            "is_template": false,
            "issue_comment_url": "https://api.github.com/repos/PrismarineJS/node-minecraft-protocol-forge/issues/comments{/number}",
            "issue_events_url": "https://api.github.com/repos/PrismarineJS/node-minecraft-protocol-forge/issues/events{/number}",
            "issues_url": "https://api.github.com/repos/PrismarineJS/node-minecraft-protocol-forge/issues{/number}",
            "keys_url": "https://api.github.com/repos/PrismarineJS/node-minecraft-protocol-forge/keys{/key_id}",
            "labels_url": "https://api.github.com/repos/PrismarineJS/node-minecraft-protocol-forge/labels{/name}",
            "language": "JavaScript",
            "languages_url": "https://api.github.com/repos/PrismarineJS/node-minecraft-protocol-forge/languages",
            "license": null,
            "merges_url": "https://api.github.com/repos/PrismarineJS/node-minecraft-protocol-forge/merges",
            "milestones_url": "https://api.github.com/repos/PrismarineJS/node-minecraft-protocol-forge/milestones{/number}",
            "mirror_url": null,
            "name": "node-minecraft-protocol-forge",
            "node_id": "MDEwOlJlcG9zaXRvcnk1MDMwNTQ1MQ==",
            "notifications_url": "https://api.github.com/repos/PrismarineJS/node-minecraft-protocol-forge/notifications{?since,all,participating}",
            "open_issues": 12,
            "open_issues_count": 12,
            "owner": {
                "avatar_url": "https://avatars.githubusercontent.com/u/11053411?v=4",
                "events_url": "https://api.github.com/users/PrismarineJS/events{/privacy}",
                "followers_url": "https://api.github.com/users/PrismarineJS/followers",
                "following_url": "https://api.github.com/users/PrismarineJS/following{/other_user}",
                "gists_url": "https://api.github.com/users/PrismarineJS/gists{/gist_id}",
                "gravatar_id": "",
                "html_url": "https://github.com/PrismarineJS",
                "id": 11053411,
                "login": "PrismarineJS",
                "node_id": "MDEyOk9yZ2FuaXphdGlvbjExMDUzNDEx",
                "organizations_url": "https://api.github.com/users/PrismarineJS/orgs",
                "received_events_url": "https://api.github.com/users/PrismarineJS/received_events",
                "repos_url": "https://api.github.com/users/PrismarineJS/repos",
                "site_admin": false,
                "starred_url": "https://api.github.com/users/PrismarineJS/starred{/owner}{/repo}",
                "subscriptions_url": "https://api.github.com/users/PrismarineJS/subscriptions",
                "type": "Organization",
                "url": "https://api.github.com/users/PrismarineJS"
            },
            "private": false,
            "pulls_url": "https://api.github.com/repos/PrismarineJS/node-minecraft-protocol-forge/pulls{/number}",
            "pushed_at": "2022-07-25T12:51:02Z",
            "releases_url": "https://api.github.com/repos/PrismarineJS/node-minecraft-protocol-forge/releases{/id}",
            "size": 863,
            "ssh_url": "git@github.com:PrismarineJS/node-minecraft-protocol-forge.git",
            "stargazers_count": 39,
            "stargazers_url": "https://api.github.com/repos/PrismarineJS/node-minecraft-protocol-forge/stargazers",
            "statuses_url": "https://api.github.com/repos/PrismarineJS/node-minecraft-protocol-forge/statuses/{sha}",
            "subscribers_url": "https://api.github.com/repos/PrismarineJS/node-minecraft-protocol-forge/subscribers",
            "subscription_url": "https://api.github.com/repos/PrismarineJS/node-minecraft-protocol-forge/subscription",
            "svn_url": "https://github.com/PrismarineJS/node-minecraft-protocol-forge",
            "tags_url": "https://api.github.com/repos/PrismarineJS/node-minecraft-protocol-forge/tags",
            "teams_url": "https://api.github.com/repos/PrismarineJS/node-minecraft-protocol-forge/teams",
            "topics": [],
            "trees_url": "https://api.github.com/repos/PrismarineJS/node-minecraft-protocol-forge/git/trees{/sha}",
            "updated_at": "2023-01-17T18:08:52Z",
            "url": "https://api.github.com/repos/PrismarineJS/node-minecraft-protocol-forge",
            "visibility": "public",
            "watchers": 39,
            "watchers_count": 39,
            "web_commit_signoff_required": false
        },
        "sha": "37c13dbcb43b72cc07a71781d0427db83084cca7",
        "user": {
            "avatar_url": "https://avatars.githubusercontent.com/u/11053411?v=4",
            "events_url": "https://api.github.com/users/PrismarineJS/events{/privacy}",
            "followers_url": "https://api.github.com/users/PrismarineJS/followers",
            "following_url": "https://api.github.com/users/PrismarineJS/following{/other_user}",
            "gists_url": "https://api.github.com/users/PrismarineJS/gists{/gist_id}",
            "gravatar_id": "",
            "html_url": "https://github.com/PrismarineJS",
            "id": 11053411,
            "login": "PrismarineJS",
            "node_id": "MDEyOk9yZ2FuaXphdGlvbjExMDUzNDEx",
            "organizations_url": "https://api.github.com/users/PrismarineJS/orgs",
            "received_events_url": "https://api.github.com/users/PrismarineJS/received_events",
            "repos_url": "https://api.github.com/users/PrismarineJS/repos",
            "site_admin": false,
            "starred_url": "https://api.github.com/users/PrismarineJS/starred{/owner}{/repo}",
            "subscriptions_url": "https://api.github.com/users/PrismarineJS/subscriptions",
            "type": "Organization",
            "url": "https://api.github.com/users/PrismarineJS"
        }
    },
    "body": "",
    "changed_files": 1,
    "closed_at": "2016-02-19T23:01:49Z",
    "comment_data": [],
    "comment_regular_data": [],
    "comments": 0,
    "comments_url": "https://api.github.com/repos/PrismarineJS/node-minecraft-protocol-forge/issues/8/comments",
    "commit_data": [
        {
            "author": {
                "avatar_url": "https://avatars.githubusercontent.com/u/2346494?v=4",
                "events_url": "https://api.github.com/users/rom1504/events{/privacy}",
                "followers_url": "https://api.github.com/users/rom1504/followers",
                "following_url": "https://api.github.com/users/rom1504/following{/other_user}",
                "gists_url": "https://api.github.com/users/rom1504/gists{/gist_id}",
                "gravatar_id": "",
                "html_url": "https://github.com/rom1504",
                "id": 2346494,
                "login": "rom1504",
                "node_id": "MDQ6VXNlcjIzNDY0OTQ=",
                "organizations_url": "https://api.github.com/users/rom1504/orgs",
                "received_events_url": "https://api.github.com/users/rom1504/received_events",
                "repos_url": "https://api.github.com/users/rom1504/repos",
                "site_admin": false,
                "starred_url": "https://api.github.com/users/rom1504/starred{/owner}{/repo}",
                "subscriptions_url": "https://api.github.com/users/rom1504/subscriptions",
                "type": "User",
                "url": "https://api.github.com/users/rom1504"
            },
            "comments_url": "https://api.github.com/repos/PrismarineJS/node-minecraft-protocol-forge/commits/63df2f521bde1cfce914f0e7b4cf7b6f6032f744/comments",
            "commit": {
                "author": {
                    "date": "2016-02-19T16:08:01Z",
                    "email": "romain.rom1@gmail.com",
                    "name": "Romain Beaumont"
                },
                "comment_count": 0,
                "committer": {
                    "date": "2016-02-19T16:08:01Z",
                    "email": "romain.rom1@gmail.com",
                    "name": "Romain Beaumont"
                },
                "message": "https://github.com/roblabla/ProtoDef/pull/50 : update to new numerical names",
                "tree": {
                    "sha": "1e958008954333f17130685686df462743a448f8",
                    "url": "https://api.github.com/repos/PrismarineJS/node-minecraft-protocol-forge/git/trees/1e958008954333f17130685686df462743a448f8"
                },
                "url": "https://api.github.com/repos/PrismarineJS/node-minecraft-protocol-forge/git/commits/63df2f521bde1cfce914f0e7b4cf7b6f6032f744",
                "verification": {
                    "payload": null,
                    "reason": "unsigned",
                    "signature": null,
                    "verified": false
                }
            },
            "committer": {
                "avatar_url": "https://avatars.githubusercontent.com/u/2346494?v=4",
                "events_url": "https://api.github.com/users/rom1504/events{/privacy}",
                "followers_url": "https://api.github.com/users/rom1504/followers",
                "following_url": "https://api.github.com/users/rom1504/following{/other_user}",
                "gists_url": "https://api.github.com/users/rom1504/gists{/gist_id}",
                "gravatar_id": "",
                "html_url": "https://github.com/rom1504",
                "id": 2346494,
                "login": "rom1504",
                "node_id": "MDQ6VXNlcjIzNDY0OTQ=",
                "organizations_url": "https://api.github.com/users/rom1504/orgs",
                "received_events_url": "https://api.github.com/users/rom1504/received_events",
                "repos_url": "https://api.github.com/users/rom1504/repos",
                "site_admin": false,
                "starred_url": "https://api.github.com/users/rom1504/starred{/owner}{/repo}",
                "subscriptions_url": "https://api.github.com/users/rom1504/subscriptions",
                "type": "User",
                "url": "https://api.github.com/users/rom1504"
            },
            "html_url": "https://github.com/PrismarineJS/node-minecraft-protocol-forge/commit/63df2f521bde1cfce914f0e7b4cf7b6f6032f744",
            "node_id": "MDY6Q29tbWl0NTAzMDU0NTE6NjNkZjJmNTIxYmRlMWNmY2U5MTRmMGU3YjRjZjdiNmY2MDMyZjc0NA==",
            "parents": [
                {
                    "html_url": "https://github.com/PrismarineJS/node-minecraft-protocol-forge/commit/37c13dbcb43b72cc07a71781d0427db83084cca7",
                    "sha": "37c13dbcb43b72cc07a71781d0427db83084cca7",
                    "url": "https://api.github.com/repos/PrismarineJS/node-minecraft-protocol-forge/commits/37c13dbcb43b72cc07a71781d0427db83084cca7"
                }
            ],
            "sha": "63df2f521bde1cfce914f0e7b4cf7b6f6032f744",
            "url": "https://api.github.com/repos/PrismarineJS/node-minecraft-protocol-forge/commits/63df2f521bde1cfce914f0e7b4cf7b6f6032f744"
        }
    ],
    "commits": 1,
    "commits_url": "https://api.github.com/repos/PrismarineJS/node-minecraft-protocol-forge/pulls/8/commits",
    "created_at": "2016-02-19T16:08:43Z",
    "deletions": 5,
    "diff_url": "https://github.com/PrismarineJS/node-minecraft-protocol-forge/pull/8.diff",
    "draft": false,
    "head": {
        "label": "PrismarineJS:new_numerical_names",
        "ref": "new_numerical_names",
        "repo": {
            "allow_forking": true,
            "archive_url": "https://api.github.com/repos/PrismarineJS/node-minecraft-protocol-forge/{archive_format}{/ref}",
            "archived": false,
            "assignees_url": "https://api.github.com/repos/PrismarineJS/node-minecraft-protocol-forge/assignees{/user}",
            "blobs_url": "https://api.github.com/repos/PrismarineJS/node-minecraft-protocol-forge/git/blobs{/sha}",
            "branches_url": "https://api.github.com/repos/PrismarineJS/node-minecraft-protocol-forge/branches{/branch}",
            "clone_url": "https://github.com/PrismarineJS/node-minecraft-protocol-forge.git",
            "collaborators_url": "https://api.github.com/repos/PrismarineJS/node-minecraft-protocol-forge/collaborators{/collaborator}",
            "comments_url": "https://api.github.com/repos/PrismarineJS/node-minecraft-protocol-forge/comments{/number}",
            "commits_url": "https://api.github.com/repos/PrismarineJS/node-minecraft-protocol-forge/commits{/sha}",
            "compare_url": "https://api.github.com/repos/PrismarineJS/node-minecraft-protocol-forge/compare/{base}...{head}",
            "contents_url": "https://api.github.com/repos/PrismarineJS/node-minecraft-protocol-forge/contents/{+path}",
            "contributors_url": "https://api.github.com/repos/PrismarineJS/node-minecraft-protocol-forge/contributors",
            "created_at": "2016-01-24T20:01:54Z",
            "default_branch": "master",
            "deployments_url": "https://api.github.com/repos/PrismarineJS/node-minecraft-protocol-forge/deployments",
            "description": "Plugin to add FML/Forge client support (including auto-versioning) to node-minecraft-protocol",
            "disabled": false,
            "downloads_url": "https://api.github.com/repos/PrismarineJS/node-minecraft-protocol-forge/downloads",
            "events_url": "https://api.github.com/repos/PrismarineJS/node-minecraft-protocol-forge/events",
            "fork": false,
            "forks": 12,
            "forks_count": 12,
            "forks_url": "https://api.github.com/repos/PrismarineJS/node-minecraft-protocol-forge/forks",
            "full_name": "PrismarineJS/node-minecraft-protocol-forge",
            "git_commits_url": "https://api.github.com/repos/PrismarineJS/node-minecraft-protocol-forge/git/commits{/sha}",
            "git_refs_url": "https://api.github.com/repos/PrismarineJS/node-minecraft-protocol-forge/git/refs{/sha}",
            "git_tags_url": "https://api.github.com/repos/PrismarineJS/node-minecraft-protocol-forge/git/tags{/sha}",
            "git_url": "git://github.com/PrismarineJS/node-minecraft-protocol-forge.git",
            "has_discussions": false,
            "has_downloads": true,
            "has_issues": true,
            "has_pages": false,
            "has_projects": true,
            "has_wiki": true,
            "homepage": "",
            "hooks_url": "https://api.github.com/repos/PrismarineJS/node-minecraft-protocol-forge/hooks",
            "html_url": "https://github.com/PrismarineJS/node-minecraft-protocol-forge",
            "id": 50305451,
            "is_template": false,
            "issue_comment_url": "https://api.github.com/repos/PrismarineJS/node-minecraft-protocol-forge/issues/comments{/number}",
            "issue_events_url": "https://api.github.com/repos/PrismarineJS/node-minecraft-protocol-forge/issues/events{/number}",
            "issues_url": "https://api.github.com/repos/PrismarineJS/node-minecraft-protocol-forge/issues{/number}",
            "keys_url": "https://api.github.com/repos/PrismarineJS/node-minecraft-protocol-forge/keys{/key_id}",
            "labels_url": "https://api.github.com/repos/PrismarineJS/node-minecraft-protocol-forge/labels{/name}",
            "language": "JavaScript",
            "languages_url": "https://api.github.com/repos/PrismarineJS/node-minecraft-protocol-forge/languages",
            "license": null,
            "merges_url": "https://api.github.com/repos/PrismarineJS/node-minecraft-protocol-forge/merges",
            "milestones_url": "https://api.github.com/repos/PrismarineJS/node-minecraft-protocol-forge/milestones{/number}",
            "mirror_url": null,
            "name": "node-minecraft-protocol-forge",
            "node_id": "MDEwOlJlcG9zaXRvcnk1MDMwNTQ1MQ==",
            "notifications_url": "https://api.github.com/repos/PrismarineJS/node-minecraft-protocol-forge/notifications{?since,all,participating}",
            "open_issues": 12,
            "open_issues_count": 12,
            "owner": {
                "avatar_url": "https://avatars.githubusercontent.com/u/11053411?v=4",
                "events_url": "https://api.github.com/users/PrismarineJS/events{/privacy}",
                "followers_url": "https://api.github.com/users/PrismarineJS/followers",
                "following_url": "https://api.github.com/users/PrismarineJS/following{/other_user}",
                "gists_url": "https://api.github.com/users/PrismarineJS/gists{/gist_id}",
                "gravatar_id": "",
                "html_url": "https://github.com/PrismarineJS",
                "id": 11053411,
                "login": "PrismarineJS",
                "node_id": "MDEyOk9yZ2FuaXphdGlvbjExMDUzNDEx",
                "organizations_url": "https://api.github.com/users/PrismarineJS/orgs",
                "received_events_url": "https://api.github.com/users/PrismarineJS/received_events",
                "repos_url": "https://api.github.com/users/PrismarineJS/repos",
                "site_admin": false,
                "starred_url": "https://api.github.com/users/PrismarineJS/starred{/owner}{/repo}",
                "subscriptions_url": "https://api.github.com/users/PrismarineJS/subscriptions",
                "type": "Organization",
                "url": "https://api.github.com/users/PrismarineJS"
            },
            "private": false,
            "pulls_url": "https://api.github.com/repos/PrismarineJS/node-minecraft-protocol-forge/pulls{/number}",
            "pushed_at": "2022-07-25T12:51:02Z",
            "releases_url": "https://api.github.com/repos/PrismarineJS/node-minecraft-protocol-forge/releases{/id}",
            "size": 863,
            "ssh_url": "git@github.com:PrismarineJS/node-minecraft-protocol-forge.git",
            "stargazers_count": 39,
            "stargazers_url": "https://api.github.com/repos/PrismarineJS/node-minecraft-protocol-forge/stargazers",
            "statuses_url": "https://api.github.com/repos/PrismarineJS/node-minecraft-protocol-forge/statuses/{sha}",
            "subscribers_url": "https://api.github.com/repos/PrismarineJS/node-minecraft-protocol-forge/subscribers",
            "subscription_url": "https://api.github.com/repos/PrismarineJS/node-minecraft-protocol-forge/subscription",
            "svn_url": "https://github.com/PrismarineJS/node-minecraft-protocol-forge",
            "tags_url": "https://api.github.com/repos/PrismarineJS/node-minecraft-protocol-forge/tags",
            "teams_url": "https://api.github.com/repos/PrismarineJS/node-minecraft-protocol-forge/teams",
            "topics": [],
            "trees_url": "https://api.github.com/repos/PrismarineJS/node-minecraft-protocol-forge/git/trees{/sha}",
            "updated_at": "2023-01-17T18:08:52Z",
            "url": "https://api.github.com/repos/PrismarineJS/node-minecraft-protocol-forge",
            "visibility": "public",
            "watchers": 39,
            "watchers_count": 39,
            "web_commit_signoff_required": false
        },
        "sha": "63df2f521bde1cfce914f0e7b4cf7b6f6032f744",
        "user": {
            "avatar_url": "https://avatars.githubusercontent.com/u/11053411?v=4",
            "events_url": "https://api.github.com/users/PrismarineJS/events{/privacy}",
            "followers_url": "https://api.github.com/users/PrismarineJS/followers",
            "following_url": "https://api.github.com/users/PrismarineJS/following{/other_user}",
            "gists_url": "https://api.github.com/users/PrismarineJS/gists{/gist_id}",
            "gravatar_id": "",
            "html_url": "https://github.com/PrismarineJS",
            "id": 11053411,
            "login": "PrismarineJS",
            "node_id": "MDEyOk9yZ2FuaXphdGlvbjExMDUzNDEx",
            "organizations_url": "https://api.github.com/users/PrismarineJS/orgs",
            "received_events_url": "https://api.github.com/users/PrismarineJS/received_events",
            "repos_url": "https://api.github.com/users/PrismarineJS/repos",
            "site_admin": false,
            "starred_url": "https://api.github.com/users/PrismarineJS/starred{/owner}{/repo}",
            "subscriptions_url": "https://api.github.com/users/PrismarineJS/subscriptions",
            "type": "Organization",
            "url": "https://api.github.com/users/PrismarineJS"
        }
    },
    "html_url": "https://github.com/PrismarineJS/node-minecraft-protocol-forge/pull/8",
    "id": 59969374,
    "issue_url": "https://api.github.com/repos/PrismarineJS/node-minecraft-protocol-forge/issues/8",
    "labels": [],
    "locked": false,
    "maintainer_can_modify": false,
    "merge_commit_sha": "8feb46bf7548e280a60429d3e71489ca98594d18",
    "mergeable": null,
    "mergeable_state": "unknown",
    "merged": true,
    "merged_at": "2016-02-19T23:01:49Z",
    "merged_by": {
        "avatar_url": "https://avatars.githubusercontent.com/u/5897956?v=4",
        "events_url": "https://api.github.com/users/deathcap/events{/privacy}",
        "followers_url": "https://api.github.com/users/deathcap/followers",
        "following_url": "https://api.github.com/users/deathcap/following{/other_user}",
        "gists_url": "https://api.github.com/users/deathcap/gists{/gist_id}",
        "gravatar_id": "",
        "html_url": "https://github.com/deathcap",
        "id": 5897956,
        "login": "deathcap",
        "node_id": "MDQ6VXNlcjU4OTc5NTY=",
        "organizations_url": "https://api.github.com/users/deathcap/orgs",
        "received_events_url": "https://api.github.com/users/deathcap/received_events",
        "repos_url": "https://api.github.com/users/deathcap/repos",
        "site_admin": false,
        "starred_url": "https://api.github.com/users/deathcap/starred{/owner}{/repo}",
        "subscriptions_url": "https://api.github.com/users/deathcap/subscriptions",
        "type": "User",
        "url": "https://api.github.com/users/deathcap"
    },
    "milestone": null,
    "node_id": "MDExOlB1bGxSZXF1ZXN0NTk5NjkzNzQ=",
    "number": 8,
    "patch_url": "https://github.com/PrismarineJS/node-minecraft-protocol-forge/pull/8.patch",
    "rebaseable": null,
    "requested_reviewers": [],
    "requested_teams": [],
    "review_comment_url": "https://api.github.com/repos/PrismarineJS/node-minecraft-protocol-forge/pulls/comments{/number}",
    "review_comments": 0,
    "review_comments_url": "https://api.github.com/repos/PrismarineJS/node-minecraft-protocol-forge/pulls/8/comments",
    "state": "closed",
    "statuses_url": "https://api.github.com/repos/PrismarineJS/node-minecraft-protocol-forge/statuses/63df2f521bde1cfce914f0e7b4cf7b6f6032f744",
    "title": "https://github.com/roblabla/ProtoDef/pull/50 : update to new numerical names",
    "updated_at": "2016-02-19T23:01:52Z",
    "url": "https://api.github.com/repos/PrismarineJS/node-minecraft-protocol-forge/pulls/8",
    "user": {
        "avatar_url": "https://avatars.githubusercontent.com/u/2346494?v=4",
        "events_url": "https://api.github.com/users/rom1504/events{/privacy}",
        "followers_url": "https://api.github.com/users/rom1504/followers",
        "following_url": "https://api.github.com/users/rom1504/following{/other_user}",
        "gists_url": "https://api.github.com/users/rom1504/gists{/gist_id}",
        "gravatar_id": "",
        "html_url": "https://github.com/rom1504",
        "id": 2346494,
        "login": "rom1504",
        "node_id": "MDQ6VXNlcjIzNDY0OTQ=",
        "organizations_url": "https://api.github.com/users/rom1504/orgs",
        "received_events_url": "https://api.github.com/users/rom1504/received_events",
        "repos_url": "https://api.github.com/users/rom1504/repos",
        "site_admin": false,
        "starred_url": "https://api.github.com/users/rom1504/starred{/owner}{/repo}",
        "subscriptions_url": "https://api.github.com/users/rom1504/subscriptions",
        "type": "User",
        "url": "https://api.github.com/users/rom1504"
    }
}