{
    "_links": {
        "comments": {
            "href": "https://api.github.com/repos/PrismarineJS/mineflayer-pvp/issues/28/comments"
        },
        "commits": {
            "href": "https://api.github.com/repos/PrismarineJS/mineflayer-pvp/pulls/28/commits"
        },
        "html": {
            "href": "https://github.com/PrismarineJS/mineflayer-pvp/pull/28"
        },
        "issue": {
            "href": "https://api.github.com/repos/PrismarineJS/mineflayer-pvp/issues/28"
        },
        "review_comment": {
            "href": "https://api.github.com/repos/PrismarineJS/mineflayer-pvp/pulls/comments{/number}"
        },
        "review_comments": {
            "href": "https://api.github.com/repos/PrismarineJS/mineflayer-pvp/pulls/28/comments"
        },
        "self": {
            "href": "https://api.github.com/repos/PrismarineJS/mineflayer-pvp/pulls/28"
        },
        "statuses": {
            "href": "https://api.github.com/repos/PrismarineJS/mineflayer-pvp/statuses/d3f50d4cc83772e88c661bf45eb865bb53172b01"
        }
    },
    "active_lock_reason": null,
    "additions": 2,
    "assignee": null,
    "assignees": [],
    "author_association": "MEMBER",
    "auto_merge": null,
    "base": {
        "label": "PrismarineJS:master",
        "ref": "master",
        "repo": {
            "allow_forking": true,
            "archive_url": "https://api.github.com/repos/PrismarineJS/mineflayer-pvp/{archive_format}{/ref}",
            "archived": false,
            "assignees_url": "https://api.github.com/repos/PrismarineJS/mineflayer-pvp/assignees{/user}",
            "blobs_url": "https://api.github.com/repos/PrismarineJS/mineflayer-pvp/git/blobs{/sha}",
            "branches_url": "https://api.github.com/repos/PrismarineJS/mineflayer-pvp/branches{/branch}",
            "clone_url": "https://github.com/PrismarineJS/mineflayer-pvp.git",
            "collaborators_url": "https://api.github.com/repos/PrismarineJS/mineflayer-pvp/collaborators{/collaborator}",
            "comments_url": "https://api.github.com/repos/PrismarineJS/mineflayer-pvp/comments{/number}",
            "commits_url": "https://api.github.com/repos/PrismarineJS/mineflayer-pvp/commits{/sha}",
            "compare_url": "https://api.github.com/repos/PrismarineJS/mineflayer-pvp/compare/{base}...{head}",
            "contents_url": "https://api.github.com/repos/PrismarineJS/mineflayer-pvp/contents/{+path}",
            "contributors_url": "https://api.github.com/repos/PrismarineJS/mineflayer-pvp/contributors",
            "created_at": "2020-10-09T00:55:40Z",
            "default_branch": "master",
            "deployments_url": "https://api.github.com/repos/PrismarineJS/mineflayer-pvp/deployments",
            "description": "Adds support for basic PVP and PVE to Mineflayer bots.",
            "disabled": false,
            "downloads_url": "https://api.github.com/repos/PrismarineJS/mineflayer-pvp/downloads",
            "events_url": "https://api.github.com/repos/PrismarineJS/mineflayer-pvp/events",
            "fork": false,
            "forks": 16,
            "forks_count": 16,
            "forks_url": "https://api.github.com/repos/PrismarineJS/mineflayer-pvp/forks",
            "full_name": "PrismarineJS/mineflayer-pvp",
            "git_commits_url": "https://api.github.com/repos/PrismarineJS/mineflayer-pvp/git/commits{/sha}",
            "git_refs_url": "https://api.github.com/repos/PrismarineJS/mineflayer-pvp/git/refs{/sha}",
            "git_tags_url": "https://api.github.com/repos/PrismarineJS/mineflayer-pvp/git/tags{/sha}",
            "git_url": "git://github.com/PrismarineJS/mineflayer-pvp.git",
            "has_discussions": false,
            "has_downloads": true,
            "has_issues": true,
            "has_pages": false,
            "has_projects": true,
            "has_wiki": true,
            "homepage": null,
            "hooks_url": "https://api.github.com/repos/PrismarineJS/mineflayer-pvp/hooks",
            "html_url": "https://github.com/PrismarineJS/mineflayer-pvp",
            "id": 302496780,
            "is_template": false,
            "issue_comment_url": "https://api.github.com/repos/PrismarineJS/mineflayer-pvp/issues/comments{/number}",
            "issue_events_url": "https://api.github.com/repos/PrismarineJS/mineflayer-pvp/issues/events{/number}",
            "issues_url": "https://api.github.com/repos/PrismarineJS/mineflayer-pvp/issues{/number}",
            "keys_url": "https://api.github.com/repos/PrismarineJS/mineflayer-pvp/keys{/key_id}",
            "labels_url": "https://api.github.com/repos/PrismarineJS/mineflayer-pvp/labels{/name}",
            "language": "TypeScript",
            "languages_url": "https://api.github.com/repos/PrismarineJS/mineflayer-pvp/languages",
            "license": {
                "key": "mit",
                "name": "MIT License",
                "node_id": "MDc6TGljZW5zZTEz",
                "spdx_id": "MIT",
                "url": "https://api.github.com/licenses/mit"
            },
            "merges_url": "https://api.github.com/repos/PrismarineJS/mineflayer-pvp/merges",
            "milestones_url": "https://api.github.com/repos/PrismarineJS/mineflayer-pvp/milestones{/number}",
            "mirror_url": null,
            "name": "mineflayer-pvp",
            "node_id": "MDEwOlJlcG9zaXRvcnkzMDI0OTY3ODA=",
            "notifications_url": "https://api.github.com/repos/PrismarineJS/mineflayer-pvp/notifications{?since,all,participating}",
            "open_issues": 11,
            "open_issues_count": 11,
            "owner": {
                "avatar_url": "https://avatars.githubusercontent.com/u/11053411?v=4",
                "events_url": "https://api.github.com/users/PrismarineJS/events{/privacy}",
                "followers_url": "https://api.github.com/users/PrismarineJS/followers",
                "following_url": "https://api.github.com/users/PrismarineJS/following{/other_user}",
                "gists_url": "https://api.github.com/users/PrismarineJS/gists{/gist_id}",
                "gravatar_id": "",
                "html_url": "https://github.com/PrismarineJS",
                "id": 11053411,
                "login": "PrismarineJS",
                "node_id": "MDEyOk9yZ2FuaXphdGlvbjExMDUzNDEx",
                "organizations_url": "https://api.github.com/users/PrismarineJS/orgs",
                "received_events_url": "https://api.github.com/users/PrismarineJS/received_events",
                "repos_url": "https://api.github.com/users/PrismarineJS/repos",
                "site_admin": false,
                "starred_url": "https://api.github.com/users/PrismarineJS/starred{/owner}{/repo}",
                "subscriptions_url": "https://api.github.com/users/PrismarineJS/subscriptions",
                "type": "Organization",
                "url": "https://api.github.com/users/PrismarineJS"
            },
            "private": false,
            "pulls_url": "https://api.github.com/repos/PrismarineJS/mineflayer-pvp/pulls{/number}",
            "pushed_at": "2023-04-10T10:58:35Z",
            "releases_url": "https://api.github.com/repos/PrismarineJS/mineflayer-pvp/releases{/id}",
            "size": 90,
            "ssh_url": "git@github.com:PrismarineJS/mineflayer-pvp.git",
            "stargazers_count": 36,
            "stargazers_url": "https://api.github.com/repos/PrismarineJS/mineflayer-pvp/stargazers",
            "statuses_url": "https://api.github.com/repos/PrismarineJS/mineflayer-pvp/statuses/{sha}",
            "subscribers_url": "https://api.github.com/repos/PrismarineJS/mineflayer-pvp/subscribers",
            "subscription_url": "https://api.github.com/repos/PrismarineJS/mineflayer-pvp/subscription",
            "svn_url": "https://github.com/PrismarineJS/mineflayer-pvp",
            "tags_url": "https://api.github.com/repos/PrismarineJS/mineflayer-pvp/tags",
            "teams_url": "https://api.github.com/repos/PrismarineJS/mineflayer-pvp/teams",
            "topics": [],
            "trees_url": "https://api.github.com/repos/PrismarineJS/mineflayer-pvp/git/trees{/sha}",
            "updated_at": "2023-04-18T01:24:37Z",
            "url": "https://api.github.com/repos/PrismarineJS/mineflayer-pvp",
            "visibility": "public",
            "watchers": 36,
            "watchers_count": 36,
            "web_commit_signoff_required": false
        },
        "sha": "33c399e41ed303f963a7e910058300b3c38ec6fd",
        "user": {
            "avatar_url": "https://avatars.githubusercontent.com/u/11053411?v=4",
            "events_url": "https://api.github.com/users/PrismarineJS/events{/privacy}",
            "followers_url": "https://api.github.com/users/PrismarineJS/followers",
            "following_url": "https://api.github.com/users/PrismarineJS/following{/other_user}",
            "gists_url": "https://api.github.com/users/PrismarineJS/gists{/gist_id}",
            "gravatar_id": "",
            "html_url": "https://github.com/PrismarineJS",
            "id": 11053411,
            "login": "PrismarineJS",
            "node_id": "MDEyOk9yZ2FuaXphdGlvbjExMDUzNDEx",
            "organizations_url": "https://api.github.com/users/PrismarineJS/orgs",
            "received_events_url": "https://api.github.com/users/PrismarineJS/received_events",
            "repos_url": "https://api.github.com/users/PrismarineJS/repos",
            "site_admin": false,
            "starred_url": "https://api.github.com/users/PrismarineJS/starred{/owner}{/repo}",
            "subscriptions_url": "https://api.github.com/users/PrismarineJS/subscriptions",
            "type": "Organization",
            "url": "https://api.github.com/users/PrismarineJS"
        }
    },
    "body": "Closes #27 ",
    "changed_files": 1,
    "closed_at": "2021-02-21T10:42:31Z",
    "comment_data": [],
    "comment_regular_data": [],
    "comments": 0,
    "comments_url": "https://api.github.com/repos/PrismarineJS/mineflayer-pvp/issues/28/comments",
    "commit_data": [
        {
            "author": {
                "avatar_url": "https://avatars.githubusercontent.com/u/3118172?v=4",
                "events_url": "https://api.github.com/users/TheDudeFromCI/events{/privacy}",
                "followers_url": "https://api.github.com/users/TheDudeFromCI/followers",
                "following_url": "https://api.github.com/users/TheDudeFromCI/following{/other_user}",
                "gists_url": "https://api.github.com/users/TheDudeFromCI/gists{/gist_id}",
                "gravatar_id": "",
                "html_url": "https://github.com/TheDudeFromCI",
                "id": 3118172,
                "login": "TheDudeFromCI",
                "node_id": "MDQ6VXNlcjMxMTgxNzI=",
                "organizations_url": "https://api.github.com/users/TheDudeFromCI/orgs",
                "received_events_url": "https://api.github.com/users/TheDudeFromCI/received_events",
                "repos_url": "https://api.github.com/users/TheDudeFromCI/repos",
                "site_admin": false,
                "starred_url": "https://api.github.com/users/TheDudeFromCI/starred{/owner}{/repo}",
                "subscriptions_url": "https://api.github.com/users/TheDudeFromCI/subscriptions",
                "type": "User",
                "url": "https://api.github.com/users/TheDudeFromCI"
            },
            "comments_url": "https://api.github.com/repos/PrismarineJS/mineflayer-pvp/commits/d3f50d4cc83772e88c661bf45eb865bb53172b01/comments",
            "commit": {
                "author": {
                    "date": "2021-02-21T10:40:58Z",
                    "email": "thedudefromci@gmail.com",
                    "name": "TheDudeFromCI"
                },
                "comment_count": 0,
                "committer": {
                    "date": "2021-02-21T10:40:58Z",
                    "email": "thedudefromci@gmail.com",
                    "name": "TheDudeFromCI"
                },
                "message": "stoppedAttacking is no longer called before combat.\n\nSigned-off-by: TheDudeFromCI <thedudefromci@gmail.com>",
                "tree": {
                    "sha": "2b31a139575ec0b9e3ccacf53c0f026f1121f7d4",
                    "url": "https://api.github.com/repos/PrismarineJS/mineflayer-pvp/git/trees/2b31a139575ec0b9e3ccacf53c0f026f1121f7d4"
                },
                "url": "https://api.github.com/repos/PrismarineJS/mineflayer-pvp/git/commits/d3f50d4cc83772e88c661bf45eb865bb53172b01",
                "verification": {
                    "payload": null,
                    "reason": "unsigned",
                    "signature": null,
                    "verified": false
                }
            },
            "committer": {
                "avatar_url": "https://avatars.githubusercontent.com/u/3118172?v=4",
                "events_url": "https://api.github.com/users/TheDudeFromCI/events{/privacy}",
                "followers_url": "https://api.github.com/users/TheDudeFromCI/followers",
                "following_url": "https://api.github.com/users/TheDudeFromCI/following{/other_user}",
                "gists_url": "https://api.github.com/users/TheDudeFromCI/gists{/gist_id}",
                "gravatar_id": "",
                "html_url": "https://github.com/TheDudeFromCI",
                "id": 3118172,
                "login": "TheDudeFromCI",
                "node_id": "MDQ6VXNlcjMxMTgxNzI=",
                "organizations_url": "https://api.github.com/users/TheDudeFromCI/orgs",
                "received_events_url": "https://api.github.com/users/TheDudeFromCI/received_events",
                "repos_url": "https://api.github.com/users/TheDudeFromCI/repos",
                "site_admin": false,
                "starred_url": "https://api.github.com/users/TheDudeFromCI/starred{/owner}{/repo}",
                "subscriptions_url": "https://api.github.com/users/TheDudeFromCI/subscriptions",
                "type": "User",
                "url": "https://api.github.com/users/TheDudeFromCI"
            },
            "html_url": "https://github.com/PrismarineJS/mineflayer-pvp/commit/d3f50d4cc83772e88c661bf45eb865bb53172b01",
            "node_id": "MDY6Q29tbWl0MzAyNDk2NzgwOmQzZjUwZDRjYzgzNzcyZTg4YzY2MWJmNDVlYjg2NWJiNTMxNzJiMDE=",
            "parents": [
                {
                    "html_url": "https://github.com/PrismarineJS/mineflayer-pvp/commit/33c399e41ed303f963a7e910058300b3c38ec6fd",
                    "sha": "33c399e41ed303f963a7e910058300b3c38ec6fd",
                    "url": "https://api.github.com/repos/PrismarineJS/mineflayer-pvp/commits/33c399e41ed303f963a7e910058300b3c38ec6fd"
                }
            ],
            "sha": "d3f50d4cc83772e88c661bf45eb865bb53172b01",
            "url": "https://api.github.com/repos/PrismarineJS/mineflayer-pvp/commits/d3f50d4cc83772e88c661bf45eb865bb53172b01"
        }
    ],
    "commits": 1,
    "commits_url": "https://api.github.com/repos/PrismarineJS/mineflayer-pvp/pulls/28/commits",
    "created_at": "2021-02-21T10:41:20Z",
    "deletions": 0,
    "diff_url": "https://github.com/PrismarineJS/mineflayer-pvp/pull/28.diff",
    "draft": false,
    "head": {
        "label": "PrismarineJS:stopped-attacking-event-patch",
        "ref": "stopped-attacking-event-patch",
        "repo": {
            "allow_forking": true,
            "archive_url": "https://api.github.com/repos/PrismarineJS/mineflayer-pvp/{archive_format}{/ref}",
            "archived": false,
            "assignees_url": "https://api.github.com/repos/PrismarineJS/mineflayer-pvp/assignees{/user}",
            "blobs_url": "https://api.github.com/repos/PrismarineJS/mineflayer-pvp/git/blobs{/sha}",
            "branches_url": "https://api.github.com/repos/PrismarineJS/mineflayer-pvp/branches{/branch}",
            "clone_url": "https://github.com/PrismarineJS/mineflayer-pvp.git",
            "collaborators_url": "https://api.github.com/repos/PrismarineJS/mineflayer-pvp/collaborators{/collaborator}",
            "comments_url": "https://api.github.com/repos/PrismarineJS/mineflayer-pvp/comments{/number}",
            "commits_url": "https://api.github.com/repos/PrismarineJS/mineflayer-pvp/commits{/sha}",
            "compare_url": "https://api.github.com/repos/PrismarineJS/mineflayer-pvp/compare/{base}...{head}",
            "contents_url": "https://api.github.com/repos/PrismarineJS/mineflayer-pvp/contents/{+path}",
            "contributors_url": "https://api.github.com/repos/PrismarineJS/mineflayer-pvp/contributors",
            "created_at": "2020-10-09T00:55:40Z",
            "default_branch": "master",
            "deployments_url": "https://api.github.com/repos/PrismarineJS/mineflayer-pvp/deployments",
            "description": "Adds support for basic PVP and PVE to Mineflayer bots.",
            "disabled": false,
            "downloads_url": "https://api.github.com/repos/PrismarineJS/mineflayer-pvp/downloads",
            "events_url": "https://api.github.com/repos/PrismarineJS/mineflayer-pvp/events",
            "fork": false,
            "forks": 16,
            "forks_count": 16,
            "forks_url": "https://api.github.com/repos/PrismarineJS/mineflayer-pvp/forks",
            "full_name": "PrismarineJS/mineflayer-pvp",
            "git_commits_url": "https://api.github.com/repos/PrismarineJS/mineflayer-pvp/git/commits{/sha}",
            "git_refs_url": "https://api.github.com/repos/PrismarineJS/mineflayer-pvp/git/refs{/sha}",
            "git_tags_url": "https://api.github.com/repos/PrismarineJS/mineflayer-pvp/git/tags{/sha}",
            "git_url": "git://github.com/PrismarineJS/mineflayer-pvp.git",
            "has_discussions": false,
            "has_downloads": true,
            "has_issues": true,
            "has_pages": false,
            "has_projects": true,
            "has_wiki": true,
            "homepage": null,
            "hooks_url": "https://api.github.com/repos/PrismarineJS/mineflayer-pvp/hooks",
            "html_url": "https://github.com/PrismarineJS/mineflayer-pvp",
            "id": 302496780,
            "is_template": false,
            "issue_comment_url": "https://api.github.com/repos/PrismarineJS/mineflayer-pvp/issues/comments{/number}",
            "issue_events_url": "https://api.github.com/repos/PrismarineJS/mineflayer-pvp/issues/events{/number}",
            "issues_url": "https://api.github.com/repos/PrismarineJS/mineflayer-pvp/issues{/number}",
            "keys_url": "https://api.github.com/repos/PrismarineJS/mineflayer-pvp/keys{/key_id}",
            "labels_url": "https://api.github.com/repos/PrismarineJS/mineflayer-pvp/labels{/name}",
            "language": "TypeScript",
            "languages_url": "https://api.github.com/repos/PrismarineJS/mineflayer-pvp/languages",
            "license": {
                "key": "mit",
                "name": "MIT License",
                "node_id": "MDc6TGljZW5zZTEz",
                "spdx_id": "MIT",
                "url": "https://api.github.com/licenses/mit"
            },
            "merges_url": "https://api.github.com/repos/PrismarineJS/mineflayer-pvp/merges",
            "milestones_url": "https://api.github.com/repos/PrismarineJS/mineflayer-pvp/milestones{/number}",
            "mirror_url": null,
            "name": "mineflayer-pvp",
            "node_id": "MDEwOlJlcG9zaXRvcnkzMDI0OTY3ODA=",
            "notifications_url": "https://api.github.com/repos/PrismarineJS/mineflayer-pvp/notifications{?since,all,participating}",
            "open_issues": 11,
            "open_issues_count": 11,
            "owner": {
                "avatar_url": "https://avatars.githubusercontent.com/u/11053411?v=4",
                "events_url": "https://api.github.com/users/PrismarineJS/events{/privacy}",
                "followers_url": "https://api.github.com/users/PrismarineJS/followers",
                "following_url": "https://api.github.com/users/PrismarineJS/following{/other_user}",
                "gists_url": "https://api.github.com/users/PrismarineJS/gists{/gist_id}",
                "gravatar_id": "",
                "html_url": "https://github.com/PrismarineJS",
                "id": 11053411,
                "login": "PrismarineJS",
                "node_id": "MDEyOk9yZ2FuaXphdGlvbjExMDUzNDEx",
                "organizations_url": "https://api.github.com/users/PrismarineJS/orgs",
                "received_events_url": "https://api.github.com/users/PrismarineJS/received_events",
                "repos_url": "https://api.github.com/users/PrismarineJS/repos",
                "site_admin": false,
                "starred_url": "https://api.github.com/users/PrismarineJS/starred{/owner}{/repo}",
                "subscriptions_url": "https://api.github.com/users/PrismarineJS/subscriptions",
                "type": "Organization",
                "url": "https://api.github.com/users/PrismarineJS"
            },
            "private": false,
            "pulls_url": "https://api.github.com/repos/PrismarineJS/mineflayer-pvp/pulls{/number}",
            "pushed_at": "2023-04-10T10:58:35Z",
            "releases_url": "https://api.github.com/repos/PrismarineJS/mineflayer-pvp/releases{/id}",
            "size": 90,
            "ssh_url": "git@github.com:PrismarineJS/mineflayer-pvp.git",
            "stargazers_count": 36,
            "stargazers_url": "https://api.github.com/repos/PrismarineJS/mineflayer-pvp/stargazers",
            "statuses_url": "https://api.github.com/repos/PrismarineJS/mineflayer-pvp/statuses/{sha}",
            "subscribers_url": "https://api.github.com/repos/PrismarineJS/mineflayer-pvp/subscribers",
            "subscription_url": "https://api.github.com/repos/PrismarineJS/mineflayer-pvp/subscription",
            "svn_url": "https://github.com/PrismarineJS/mineflayer-pvp",
            "tags_url": "https://api.github.com/repos/PrismarineJS/mineflayer-pvp/tags",
            "teams_url": "https://api.github.com/repos/PrismarineJS/mineflayer-pvp/teams",
            "topics": [],
            "trees_url": "https://api.github.com/repos/PrismarineJS/mineflayer-pvp/git/trees{/sha}",
            "updated_at": "2023-04-18T01:24:37Z",
            "url": "https://api.github.com/repos/PrismarineJS/mineflayer-pvp",
            "visibility": "public",
            "watchers": 36,
            "watchers_count": 36,
            "web_commit_signoff_required": false
        },
        "sha": "d3f50d4cc83772e88c661bf45eb865bb53172b01",
        "user": {
            "avatar_url": "https://avatars.githubusercontent.com/u/11053411?v=4",
            "events_url": "https://api.github.com/users/PrismarineJS/events{/privacy}",
            "followers_url": "https://api.github.com/users/PrismarineJS/followers",
            "following_url": "https://api.github.com/users/PrismarineJS/following{/other_user}",
            "gists_url": "https://api.github.com/users/PrismarineJS/gists{/gist_id}",
            "gravatar_id": "",
            "html_url": "https://github.com/PrismarineJS",
            "id": 11053411,
            "login": "PrismarineJS",
            "node_id": "MDEyOk9yZ2FuaXphdGlvbjExMDUzNDEx",
            "organizations_url": "https://api.github.com/users/PrismarineJS/orgs",
            "received_events_url": "https://api.github.com/users/PrismarineJS/received_events",
            "repos_url": "https://api.github.com/users/PrismarineJS/repos",
            "site_admin": false,
            "starred_url": "https://api.github.com/users/PrismarineJS/starred{/owner}{/repo}",
            "subscriptions_url": "https://api.github.com/users/PrismarineJS/subscriptions",
            "type": "Organization",
            "url": "https://api.github.com/users/PrismarineJS"
        }
    },
    "html_url": "https://github.com/PrismarineJS/mineflayer-pvp/pull/28",
    "id": 577089041,
    "issue_url": "https://api.github.com/repos/PrismarineJS/mineflayer-pvp/issues/28",
    "labels": [],
    "locked": false,
    "maintainer_can_modify": false,
    "merge_commit_sha": "cd9a2e48a2cd16e7d108c44707e356051af17965",
    "mergeable": null,
    "mergeable_state": "unknown",
    "merged": true,
    "merged_at": "2021-02-21T10:42:31Z",
    "merged_by": {
        "avatar_url": "https://avatars.githubusercontent.com/u/3118172?v=4",
        "events_url": "https://api.github.com/users/TheDudeFromCI/events{/privacy}",
        "followers_url": "https://api.github.com/users/TheDudeFromCI/followers",
        "following_url": "https://api.github.com/users/TheDudeFromCI/following{/other_user}",
        "gists_url": "https://api.github.com/users/TheDudeFromCI/gists{/gist_id}",
        "gravatar_id": "",
        "html_url": "https://github.com/TheDudeFromCI",
        "id": 3118172,
        "login": "TheDudeFromCI",
        "node_id": "MDQ6VXNlcjMxMTgxNzI=",
        "organizations_url": "https://api.github.com/users/TheDudeFromCI/orgs",
        "received_events_url": "https://api.github.com/users/TheDudeFromCI/received_events",
        "repos_url": "https://api.github.com/users/TheDudeFromCI/repos",
        "site_admin": false,
        "starred_url": "https://api.github.com/users/TheDudeFromCI/starred{/owner}{/repo}",
        "subscriptions_url": "https://api.github.com/users/TheDudeFromCI/subscriptions",
        "type": "User",
        "url": "https://api.github.com/users/TheDudeFromCI"
    },
    "milestone": null,
    "node_id": "MDExOlB1bGxSZXF1ZXN0NTc3MDg5MDQx",
    "number": 28,
    "patch_url": "https://github.com/PrismarineJS/mineflayer-pvp/pull/28.patch",
    "rebaseable": null,
    "requested_reviewers": [],
    "requested_teams": [],
    "review_comment_url": "https://api.github.com/repos/PrismarineJS/mineflayer-pvp/pulls/comments{/number}",
    "review_comments": 0,
    "review_comments_url": "https://api.github.com/repos/PrismarineJS/mineflayer-pvp/pulls/28/comments",
    "state": "closed",
    "statuses_url": "https://api.github.com/repos/PrismarineJS/mineflayer-pvp/statuses/d3f50d4cc83772e88c661bf45eb865bb53172b01",
    "title": "stoppedAttacking is no longer called before combat.",
    "updated_at": "2021-02-21T10:42:31Z",
    "url": "https://api.github.com/repos/PrismarineJS/mineflayer-pvp/pulls/28",
    "user": {
        "avatar_url": "https://avatars.githubusercontent.com/u/3118172?v=4",
        "events_url": "https://api.github.com/users/TheDudeFromCI/events{/privacy}",
        "followers_url": "https://api.github.com/users/TheDudeFromCI/followers",
        "following_url": "https://api.github.com/users/TheDudeFromCI/following{/other_user}",
        "gists_url": "https://api.github.com/users/TheDudeFromCI/gists{/gist_id}",
        "gravatar_id": "",
        "html_url": "https://github.com/TheDudeFromCI",
        "id": 3118172,
        "login": "TheDudeFromCI",
        "node_id": "MDQ6VXNlcjMxMTgxNzI=",
        "organizations_url": "https://api.github.com/users/TheDudeFromCI/orgs",
        "received_events_url": "https://api.github.com/users/TheDudeFromCI/received_events",
        "repos_url": "https://api.github.com/users/TheDudeFromCI/repos",
        "site_admin": false,
        "starred_url": "https://api.github.com/users/TheDudeFromCI/starred{/owner}{/repo}",
        "subscriptions_url": "https://api.github.com/users/TheDudeFromCI/subscriptions",
        "type": "User",
        "url": "https://api.github.com/users/TheDudeFromCI"
    }
}