{
    "_links": {
        "comments": {
            "href": "https://api.github.com/repos/PrismarineJS/mineflayer-pvp/issues/34/comments"
        },
        "commits": {
            "href": "https://api.github.com/repos/PrismarineJS/mineflayer-pvp/pulls/34/commits"
        },
        "html": {
            "href": "https://github.com/PrismarineJS/mineflayer-pvp/pull/34"
        },
        "issue": {
            "href": "https://api.github.com/repos/PrismarineJS/mineflayer-pvp/issues/34"
        },
        "review_comment": {
            "href": "https://api.github.com/repos/PrismarineJS/mineflayer-pvp/pulls/comments{/number}"
        },
        "review_comments": {
            "href": "https://api.github.com/repos/PrismarineJS/mineflayer-pvp/pulls/34/comments"
        },
        "self": {
            "href": "https://api.github.com/repos/PrismarineJS/mineflayer-pvp/pulls/34"
        },
        "statuses": {
            "href": "https://api.github.com/repos/PrismarineJS/mineflayer-pvp/statuses/0d08f6686a0bfe83d52211a3d8520e941bf3b076"
        }
    },
    "active_lock_reason": null,
    "additions": 1,
    "assignee": null,
    "assignees": [],
    "author_association": "CONTRIBUTOR",
    "auto_merge": null,
    "base": {
        "label": "PrismarineJS:master",
        "ref": "master",
        "repo": {
            "allow_forking": true,
            "archive_url": "https://api.github.com/repos/PrismarineJS/mineflayer-pvp/{archive_format}{/ref}",
            "archived": false,
            "assignees_url": "https://api.github.com/repos/PrismarineJS/mineflayer-pvp/assignees{/user}",
            "blobs_url": "https://api.github.com/repos/PrismarineJS/mineflayer-pvp/git/blobs{/sha}",
            "branches_url": "https://api.github.com/repos/PrismarineJS/mineflayer-pvp/branches{/branch}",
            "clone_url": "https://github.com/PrismarineJS/mineflayer-pvp.git",
            "collaborators_url": "https://api.github.com/repos/PrismarineJS/mineflayer-pvp/collaborators{/collaborator}",
            "comments_url": "https://api.github.com/repos/PrismarineJS/mineflayer-pvp/comments{/number}",
            "commits_url": "https://api.github.com/repos/PrismarineJS/mineflayer-pvp/commits{/sha}",
            "compare_url": "https://api.github.com/repos/PrismarineJS/mineflayer-pvp/compare/{base}...{head}",
            "contents_url": "https://api.github.com/repos/PrismarineJS/mineflayer-pvp/contents/{+path}",
            "contributors_url": "https://api.github.com/repos/PrismarineJS/mineflayer-pvp/contributors",
            "created_at": "2020-10-09T00:55:40Z",
            "default_branch": "master",
            "deployments_url": "https://api.github.com/repos/PrismarineJS/mineflayer-pvp/deployments",
            "description": "Adds support for basic PVP and PVE to Mineflayer bots.",
            "disabled": false,
            "downloads_url": "https://api.github.com/repos/PrismarineJS/mineflayer-pvp/downloads",
            "events_url": "https://api.github.com/repos/PrismarineJS/mineflayer-pvp/events",
            "fork": false,
            "forks": 16,
            "forks_count": 16,
            "forks_url": "https://api.github.com/repos/PrismarineJS/mineflayer-pvp/forks",
            "full_name": "PrismarineJS/mineflayer-pvp",
            "git_commits_url": "https://api.github.com/repos/PrismarineJS/mineflayer-pvp/git/commits{/sha}",
            "git_refs_url": "https://api.github.com/repos/PrismarineJS/mineflayer-pvp/git/refs{/sha}",
            "git_tags_url": "https://api.github.com/repos/PrismarineJS/mineflayer-pvp/git/tags{/sha}",
            "git_url": "git://github.com/PrismarineJS/mineflayer-pvp.git",
            "has_discussions": false,
            "has_downloads": true,
            "has_issues": true,
            "has_pages": false,
            "has_projects": true,
            "has_wiki": true,
            "homepage": null,
            "hooks_url": "https://api.github.com/repos/PrismarineJS/mineflayer-pvp/hooks",
            "html_url": "https://github.com/PrismarineJS/mineflayer-pvp",
            "id": 302496780,
            "is_template": false,
            "issue_comment_url": "https://api.github.com/repos/PrismarineJS/mineflayer-pvp/issues/comments{/number}",
            "issue_events_url": "https://api.github.com/repos/PrismarineJS/mineflayer-pvp/issues/events{/number}",
            "issues_url": "https://api.github.com/repos/PrismarineJS/mineflayer-pvp/issues{/number}",
            "keys_url": "https://api.github.com/repos/PrismarineJS/mineflayer-pvp/keys{/key_id}",
            "labels_url": "https://api.github.com/repos/PrismarineJS/mineflayer-pvp/labels{/name}",
            "language": "TypeScript",
            "languages_url": "https://api.github.com/repos/PrismarineJS/mineflayer-pvp/languages",
            "license": {
                "key": "mit",
                "name": "MIT License",
                "node_id": "MDc6TGljZW5zZTEz",
                "spdx_id": "MIT",
                "url": "https://api.github.com/licenses/mit"
            },
            "merges_url": "https://api.github.com/repos/PrismarineJS/mineflayer-pvp/merges",
            "milestones_url": "https://api.github.com/repos/PrismarineJS/mineflayer-pvp/milestones{/number}",
            "mirror_url": null,
            "name": "mineflayer-pvp",
            "node_id": "MDEwOlJlcG9zaXRvcnkzMDI0OTY3ODA=",
            "notifications_url": "https://api.github.com/repos/PrismarineJS/mineflayer-pvp/notifications{?since,all,participating}",
            "open_issues": 11,
            "open_issues_count": 11,
            "owner": {
                "avatar_url": "https://avatars.githubusercontent.com/u/11053411?v=4",
                "events_url": "https://api.github.com/users/PrismarineJS/events{/privacy}",
                "followers_url": "https://api.github.com/users/PrismarineJS/followers",
                "following_url": "https://api.github.com/users/PrismarineJS/following{/other_user}",
                "gists_url": "https://api.github.com/users/PrismarineJS/gists{/gist_id}",
                "gravatar_id": "",
                "html_url": "https://github.com/PrismarineJS",
                "id": 11053411,
                "login": "PrismarineJS",
                "node_id": "MDEyOk9yZ2FuaXphdGlvbjExMDUzNDEx",
                "organizations_url": "https://api.github.com/users/PrismarineJS/orgs",
                "received_events_url": "https://api.github.com/users/PrismarineJS/received_events",
                "repos_url": "https://api.github.com/users/PrismarineJS/repos",
                "site_admin": false,
                "starred_url": "https://api.github.com/users/PrismarineJS/starred{/owner}{/repo}",
                "subscriptions_url": "https://api.github.com/users/PrismarineJS/subscriptions",
                "type": "Organization",
                "url": "https://api.github.com/users/PrismarineJS"
            },
            "private": false,
            "pulls_url": "https://api.github.com/repos/PrismarineJS/mineflayer-pvp/pulls{/number}",
            "pushed_at": "2023-04-10T10:58:35Z",
            "releases_url": "https://api.github.com/repos/PrismarineJS/mineflayer-pvp/releases{/id}",
            "size": 90,
            "ssh_url": "git@github.com:PrismarineJS/mineflayer-pvp.git",
            "stargazers_count": 36,
            "stargazers_url": "https://api.github.com/repos/PrismarineJS/mineflayer-pvp/stargazers",
            "statuses_url": "https://api.github.com/repos/PrismarineJS/mineflayer-pvp/statuses/{sha}",
            "subscribers_url": "https://api.github.com/repos/PrismarineJS/mineflayer-pvp/subscribers",
            "subscription_url": "https://api.github.com/repos/PrismarineJS/mineflayer-pvp/subscription",
            "svn_url": "https://github.com/PrismarineJS/mineflayer-pvp",
            "tags_url": "https://api.github.com/repos/PrismarineJS/mineflayer-pvp/tags",
            "teams_url": "https://api.github.com/repos/PrismarineJS/mineflayer-pvp/teams",
            "topics": [],
            "trees_url": "https://api.github.com/repos/PrismarineJS/mineflayer-pvp/git/trees{/sha}",
            "updated_at": "2023-04-18T01:24:37Z",
            "url": "https://api.github.com/repos/PrismarineJS/mineflayer-pvp",
            "visibility": "public",
            "watchers": 36,
            "watchers_count": 36,
            "web_commit_signoff_required": false
        },
        "sha": "f000bd9e41781ea68cb2bc4beb079004bdc8f4a9",
        "user": {
            "avatar_url": "https://avatars.githubusercontent.com/u/11053411?v=4",
            "events_url": "https://api.github.com/users/PrismarineJS/events{/privacy}",
            "followers_url": "https://api.github.com/users/PrismarineJS/followers",
            "following_url": "https://api.github.com/users/PrismarineJS/following{/other_user}",
            "gists_url": "https://api.github.com/users/PrismarineJS/gists{/gist_id}",
            "gravatar_id": "",
            "html_url": "https://github.com/PrismarineJS",
            "id": 11053411,
            "login": "PrismarineJS",
            "node_id": "MDEyOk9yZ2FuaXphdGlvbjExMDUzNDEx",
            "organizations_url": "https://api.github.com/users/PrismarineJS/orgs",
            "received_events_url": "https://api.github.com/users/PrismarineJS/received_events",
            "repos_url": "https://api.github.com/users/PrismarineJS/repos",
            "site_admin": false,
            "starred_url": "https://api.github.com/users/PrismarineJS/starred{/owner}{/repo}",
            "subscriptions_url": "https://api.github.com/users/PrismarineJS/subscriptions",
            "type": "Organization",
            "url": "https://api.github.com/users/PrismarineJS"
        }
    },
    "body": "Bumps [@types/node](https://github.com/DefinitelyTyped/DefinitelyTyped/tree/HEAD/types/node) from 15.14.1 to 16.0.0.\n<details>\n<summary>Commits</summary>\n<ul>\n<li>See full diff in <a href=\"https://github.com/DefinitelyTyped/DefinitelyTyped/commits/HEAD/types/node\">compare view</a></li>\n</ul>\n</details>\n<br />\n\n\n[![Dependabot compatibility score](https://dependabot-badges.githubapp.com/badges/compatibility_score?dependency-name=@types/node&package-manager=npm_and_yarn&previous-version=15.14.1&new-version=16.0.0)](https://docs.github.com/en/github/managing-security-vulnerabilities/about-dependabot-security-updates#about-compatibility-scores)\n\nDependabot will resolve any conflicts with this PR as long as you don't alter it yourself. You can also trigger a rebase manually by commenting `@dependabot rebase`.\n\n[//]: # (dependabot-automerge-start)\n[//]: # (dependabot-automerge-end)\n\n---\n\n<details>\n<summary>Dependabot commands and options</summary>\n<br />\n\nYou can trigger Dependabot actions by commenting on this PR:\n- `@dependabot rebase` will rebase this PR\n- `@dependabot recreate` will recreate this PR, overwriting any edits that have been made to it\n- `@dependabot merge` will merge this PR after your CI passes on it\n- `@dependabot squash and merge` will squash and merge this PR after your CI passes on it\n- `@dependabot cancel merge` will cancel a previously requested merge and block automerging\n- `@dependabot reopen` will reopen this PR if it is closed\n- `@dependabot close` will close this PR and stop Dependabot recreating it. You can achieve the same result by closing it manually\n- `@dependabot ignore this major version` will close this PR and stop Dependabot creating any more for this major version (unless you reopen the PR or upgrade to it yourself)\n- `@dependabot ignore this minor version` will close this PR and stop Dependabot creating any more for this minor version (unless you reopen the PR or upgrade to it yourself)\n- `@dependabot ignore this dependency` will close this PR and stop Dependabot creating any more for this dependency (unless you reopen the PR or upgrade to it yourself)\n\n\n</details>",
    "changed_files": 1,
    "closed_at": "2021-07-06T10:44:57Z",
    "comment_data": [],
    "comment_regular_data": [
        {
            "author_association": "CONTRIBUTOR",
            "body": "OK, I won't notify you again about this release, but will get in touch when a new version is available. If you'd rather skip all updates until the next major or minor version, let me know by commenting `@dependabot ignore this major version` or `@dependabot ignore this minor version`. You can also ignore all major, minor, or patch releases for a dependency by adding an [`ignore` condition](https://docs.github.com/en/code-security/supply-chain-security/configuration-options-for-dependency-updates#ignore) with the desired `update_types` to your config file.\n\nIf you change your mind, just re-open this PR and I'll resolve any conflicts on it.",
            "created_at": "2021-07-06T10:44:59Z",
            "html_url": "https://github.com/PrismarineJS/mineflayer-pvp/pull/34#issuecomment-874655635",
            "id": 874655635,
            "issue_url": "https://api.github.com/repos/PrismarineJS/mineflayer-pvp/issues/34",
            "node_id": "MDEyOklzc3VlQ29tbWVudDg3NDY1NTYzNQ==",
            "performed_via_github_app": null,
            "reactions": {
                "+1": 0,
                "-1": 0,
                "confused": 0,
                "eyes": 0,
                "heart": 0,
                "hooray": 0,
                "laugh": 0,
                "rocket": 0,
                "total_count": 0,
                "url": "https://api.github.com/repos/PrismarineJS/mineflayer-pvp/issues/comments/874655635/reactions"
            },
            "updated_at": "2021-07-06T10:44:59Z",
            "url": "https://api.github.com/repos/PrismarineJS/mineflayer-pvp/issues/comments/874655635",
            "user": {
                "avatar_url": "https://avatars.githubusercontent.com/in/29110?v=4",
                "events_url": "https://api.github.com/users/dependabot%5Bbot%5D/events{/privacy}",
                "followers_url": "https://api.github.com/users/dependabot%5Bbot%5D/followers",
                "following_url": "https://api.github.com/users/dependabot%5Bbot%5D/following{/other_user}",
                "gists_url": "https://api.github.com/users/dependabot%5Bbot%5D/gists{/gist_id}",
                "gravatar_id": "",
                "html_url": "https://github.com/apps/dependabot",
                "id": 49699333,
                "login": "dependabot[bot]",
                "node_id": "MDM6Qm90NDk2OTkzMzM=",
                "organizations_url": "https://api.github.com/users/dependabot%5Bbot%5D/orgs",
                "received_events_url": "https://api.github.com/users/dependabot%5Bbot%5D/received_events",
                "repos_url": "https://api.github.com/users/dependabot%5Bbot%5D/repos",
                "site_admin": false,
                "starred_url": "https://api.github.com/users/dependabot%5Bbot%5D/starred{/owner}{/repo}",
                "subscriptions_url": "https://api.github.com/users/dependabot%5Bbot%5D/subscriptions",
                "type": "Bot",
                "url": "https://api.github.com/users/dependabot%5Bbot%5D"
            }
        }
    ],
    "comments": 1,
    "comments_url": "https://api.github.com/repos/PrismarineJS/mineflayer-pvp/issues/34/comments",
    "commit_data": [
        {
            "author": {
                "avatar_url": "https://avatars.githubusercontent.com/in/29110?v=4",
                "events_url": "https://api.github.com/users/dependabot%5Bbot%5D/events{/privacy}",
                "followers_url": "https://api.github.com/users/dependabot%5Bbot%5D/followers",
                "following_url": "https://api.github.com/users/dependabot%5Bbot%5D/following{/other_user}",
                "gists_url": "https://api.github.com/users/dependabot%5Bbot%5D/gists{/gist_id}",
                "gravatar_id": "",
                "html_url": "https://github.com/apps/dependabot",
                "id": 49699333,
                "login": "dependabot[bot]",
                "node_id": "MDM6Qm90NDk2OTkzMzM=",
                "organizations_url": "https://api.github.com/users/dependabot%5Bbot%5D/orgs",
                "received_events_url": "https://api.github.com/users/dependabot%5Bbot%5D/received_events",
                "repos_url": "https://api.github.com/users/dependabot%5Bbot%5D/repos",
                "site_admin": false,
                "starred_url": "https://api.github.com/users/dependabot%5Bbot%5D/starred{/owner}{/repo}",
                "subscriptions_url": "https://api.github.com/users/dependabot%5Bbot%5D/subscriptions",
                "type": "Bot",
                "url": "https://api.github.com/users/dependabot%5Bbot%5D"
            },
            "comments_url": "https://api.github.com/repos/PrismarineJS/mineflayer-pvp/commits/0d08f6686a0bfe83d52211a3d8520e941bf3b076/comments",
            "commit": {
                "author": {
                    "date": "2021-07-05T10:16:04Z",
                    "email": "49699333+dependabot[bot]@users.noreply.github.com",
                    "name": "dependabot[bot]"
                },
                "comment_count": 0,
                "committer": {
                    "date": "2021-07-05T10:16:04Z",
                    "email": "noreply@github.com",
                    "name": "GitHub"
                },
                "message": "Bump @types/node from 15.14.1 to 16.0.0\n\nBumps [@types/node](https://github.com/DefinitelyTyped/DefinitelyTyped/tree/HEAD/types/node) from 15.14.1 to 16.0.0.\n- [Release notes](https://github.com/DefinitelyTyped/DefinitelyTyped/releases)\n- [Commits](https://github.com/DefinitelyTyped/DefinitelyTyped/commits/HEAD/types/node)\n\n---\nupdated-dependencies:\n- dependency-name: \"@types/node\"\n  dependency-type: direct:development\n  update-type: version-update:semver-major\n...\n\nSigned-off-by: dependabot[bot] <support@github.com>",
                "tree": {
                    "sha": "58332f6c5f9fae990ac4cbb45c25c8ea280a2e2d",
                    "url": "https://api.github.com/repos/PrismarineJS/mineflayer-pvp/git/trees/58332f6c5f9fae990ac4cbb45c25c8ea280a2e2d"
                },
                "url": "https://api.github.com/repos/PrismarineJS/mineflayer-pvp/git/commits/0d08f6686a0bfe83d52211a3d8520e941bf3b076",
                "verification": {
                    "payload": "tree 58332f6c5f9fae990ac4cbb45c25c8ea280a2e2d\nparent f000bd9e41781ea68cb2bc4beb079004bdc8f4a9\nauthor dependabot[bot] <49699333+dependabot[bot]@users.noreply.github.com> 1625480164 +0000\ncommitter GitHub <noreply@github.com> 1625480164 +0000\n\nBump @types/node from 15.14.1 to 16.0.0\n\nBumps [@types/node](https://github.com/DefinitelyTyped/DefinitelyTyped/tree/HEAD/types/node) from 15.14.1 to 16.0.0.\n- [Release notes](https://github.com/DefinitelyTyped/DefinitelyTyped/releases)\n- [Commits](https://github.com/DefinitelyTyped/DefinitelyTyped/commits/HEAD/types/node)\n\n---\nupdated-dependencies:\n- dependency-name: \"@types/node\"\n  dependency-type: direct:development\n  update-type: version-update:semver-major\n...\n\nSigned-off-by: dependabot[bot] <support@github.com>",
                    "reason": "valid",
                    "signature": "-----BEGIN PGP SIGNATURE-----\n\nwsBcBAABCAAQBQJg4tvkCRBK7hj4Ov3rIwAAtCoIAIHsO7i7oHK31wThSLtvrZy4\nHunuBtUGMU6DwiomHQ8rYLEjikP6REjH/MhMveljnHyWEEPxkQ87JjOHx0SsJjj6\n7ki8HkjB0d4ugEwkJTH9RJQuYNhu4gACNCNVj14MBID90lR8nX8+syFvcKiQXjEu\n5wMAN4RM2WZnUaHVvA4cDXiBzgrpZ5JnbIxn8FBYu0OqvbxSRWdXIJdFkUgHl4bm\nEuyBNA4CphZsE6D1GLA0IeON4KKbGJ9cYNqERWWGwdSuxh0tAwcgR4yfHCMLdX+m\nLhkb8D7peV28lJRbcMovYRgPk2tkbYdoCQMsU6qJl4+W1+SNvtNiBREbG3jBqLA=\n=VM+I\n-----END PGP SIGNATURE-----\n",
                    "verified": true
                }
            },
            "committer": {
                "avatar_url": "https://avatars.githubusercontent.com/u/19864447?v=4",
                "events_url": "https://api.github.com/users/web-flow/events{/privacy}",
                "followers_url": "https://api.github.com/users/web-flow/followers",
                "following_url": "https://api.github.com/users/web-flow/following{/other_user}",
                "gists_url": "https://api.github.com/users/web-flow/gists{/gist_id}",
                "gravatar_id": "",
                "html_url": "https://github.com/web-flow",
                "id": 19864447,
                "login": "web-flow",
                "node_id": "MDQ6VXNlcjE5ODY0NDQ3",
                "organizations_url": "https://api.github.com/users/web-flow/orgs",
                "received_events_url": "https://api.github.com/users/web-flow/received_events",
                "repos_url": "https://api.github.com/users/web-flow/repos",
                "site_admin": false,
                "starred_url": "https://api.github.com/users/web-flow/starred{/owner}{/repo}",
                "subscriptions_url": "https://api.github.com/users/web-flow/subscriptions",
                "type": "User",
                "url": "https://api.github.com/users/web-flow"
            },
            "html_url": "https://github.com/PrismarineJS/mineflayer-pvp/commit/0d08f6686a0bfe83d52211a3d8520e941bf3b076",
            "node_id": "MDY6Q29tbWl0MzAyNDk2NzgwOjBkMDhmNjY4NmEwYmZlODNkNTIyMTFhM2Q4NTIwZTk0MWJmM2IwNzY=",
            "parents": [
                {
                    "html_url": "https://github.com/PrismarineJS/mineflayer-pvp/commit/f000bd9e41781ea68cb2bc4beb079004bdc8f4a9",
                    "sha": "f000bd9e41781ea68cb2bc4beb079004bdc8f4a9",
                    "url": "https://api.github.com/repos/PrismarineJS/mineflayer-pvp/commits/f000bd9e41781ea68cb2bc4beb079004bdc8f4a9"
                }
            ],
            "sha": "0d08f6686a0bfe83d52211a3d8520e941bf3b076",
            "url": "https://api.github.com/repos/PrismarineJS/mineflayer-pvp/commits/0d08f6686a0bfe83d52211a3d8520e941bf3b076"
        }
    ],
    "commits": 1,
    "commits_url": "https://api.github.com/repos/PrismarineJS/mineflayer-pvp/pulls/34/commits",
    "created_at": "2021-07-05T10:16:05Z",
    "deletions": 1,
    "diff_url": "https://github.com/PrismarineJS/mineflayer-pvp/pull/34.diff",
    "draft": false,
    "head": {
        "label": "PrismarineJS:dependabot/npm_and_yarn/types/node-16.0.0",
        "ref": "dependabot/npm_and_yarn/types/node-16.0.0",
        "repo": {
            "allow_forking": true,
            "archive_url": "https://api.github.com/repos/PrismarineJS/mineflayer-pvp/{archive_format}{/ref}",
            "archived": false,
            "assignees_url": "https://api.github.com/repos/PrismarineJS/mineflayer-pvp/assignees{/user}",
            "blobs_url": "https://api.github.com/repos/PrismarineJS/mineflayer-pvp/git/blobs{/sha}",
            "branches_url": "https://api.github.com/repos/PrismarineJS/mineflayer-pvp/branches{/branch}",
            "clone_url": "https://github.com/PrismarineJS/mineflayer-pvp.git",
            "collaborators_url": "https://api.github.com/repos/PrismarineJS/mineflayer-pvp/collaborators{/collaborator}",
            "comments_url": "https://api.github.com/repos/PrismarineJS/mineflayer-pvp/comments{/number}",
            "commits_url": "https://api.github.com/repos/PrismarineJS/mineflayer-pvp/commits{/sha}",
            "compare_url": "https://api.github.com/repos/PrismarineJS/mineflayer-pvp/compare/{base}...{head}",
            "contents_url": "https://api.github.com/repos/PrismarineJS/mineflayer-pvp/contents/{+path}",
            "contributors_url": "https://api.github.com/repos/PrismarineJS/mineflayer-pvp/contributors",
            "created_at": "2020-10-09T00:55:40Z",
            "default_branch": "master",
            "deployments_url": "https://api.github.com/repos/PrismarineJS/mineflayer-pvp/deployments",
            "description": "Adds support for basic PVP and PVE to Mineflayer bots.",
            "disabled": false,
            "downloads_url": "https://api.github.com/repos/PrismarineJS/mineflayer-pvp/downloads",
            "events_url": "https://api.github.com/repos/PrismarineJS/mineflayer-pvp/events",
            "fork": false,
            "forks": 16,
            "forks_count": 16,
            "forks_url": "https://api.github.com/repos/PrismarineJS/mineflayer-pvp/forks",
            "full_name": "PrismarineJS/mineflayer-pvp",
            "git_commits_url": "https://api.github.com/repos/PrismarineJS/mineflayer-pvp/git/commits{/sha}",
            "git_refs_url": "https://api.github.com/repos/PrismarineJS/mineflayer-pvp/git/refs{/sha}",
            "git_tags_url": "https://api.github.com/repos/PrismarineJS/mineflayer-pvp/git/tags{/sha}",
            "git_url": "git://github.com/PrismarineJS/mineflayer-pvp.git",
            "has_discussions": false,
            "has_downloads": true,
            "has_issues": true,
            "has_pages": false,
            "has_projects": true,
            "has_wiki": true,
            "homepage": null,
            "hooks_url": "https://api.github.com/repos/PrismarineJS/mineflayer-pvp/hooks",
            "html_url": "https://github.com/PrismarineJS/mineflayer-pvp",
            "id": 302496780,
            "is_template": false,
            "issue_comment_url": "https://api.github.com/repos/PrismarineJS/mineflayer-pvp/issues/comments{/number}",
            "issue_events_url": "https://api.github.com/repos/PrismarineJS/mineflayer-pvp/issues/events{/number}",
            "issues_url": "https://api.github.com/repos/PrismarineJS/mineflayer-pvp/issues{/number}",
            "keys_url": "https://api.github.com/repos/PrismarineJS/mineflayer-pvp/keys{/key_id}",
            "labels_url": "https://api.github.com/repos/PrismarineJS/mineflayer-pvp/labels{/name}",
            "language": "TypeScript",
            "languages_url": "https://api.github.com/repos/PrismarineJS/mineflayer-pvp/languages",
            "license": {
                "key": "mit",
                "name": "MIT License",
                "node_id": "MDc6TGljZW5zZTEz",
                "spdx_id": "MIT",
                "url": "https://api.github.com/licenses/mit"
            },
            "merges_url": "https://api.github.com/repos/PrismarineJS/mineflayer-pvp/merges",
            "milestones_url": "https://api.github.com/repos/PrismarineJS/mineflayer-pvp/milestones{/number}",
            "mirror_url": null,
            "name": "mineflayer-pvp",
            "node_id": "MDEwOlJlcG9zaXRvcnkzMDI0OTY3ODA=",
            "notifications_url": "https://api.github.com/repos/PrismarineJS/mineflayer-pvp/notifications{?since,all,participating}",
            "open_issues": 11,
            "open_issues_count": 11,
            "owner": {
                "avatar_url": "https://avatars.githubusercontent.com/u/11053411?v=4",
                "events_url": "https://api.github.com/users/PrismarineJS/events{/privacy}",
                "followers_url": "https://api.github.com/users/PrismarineJS/followers",
                "following_url": "https://api.github.com/users/PrismarineJS/following{/other_user}",
                "gists_url": "https://api.github.com/users/PrismarineJS/gists{/gist_id}",
                "gravatar_id": "",
                "html_url": "https://github.com/PrismarineJS",
                "id": 11053411,
                "login": "PrismarineJS",
                "node_id": "MDEyOk9yZ2FuaXphdGlvbjExMDUzNDEx",
                "organizations_url": "https://api.github.com/users/PrismarineJS/orgs",
                "received_events_url": "https://api.github.com/users/PrismarineJS/received_events",
                "repos_url": "https://api.github.com/users/PrismarineJS/repos",
                "site_admin": false,
                "starred_url": "https://api.github.com/users/PrismarineJS/starred{/owner}{/repo}",
                "subscriptions_url": "https://api.github.com/users/PrismarineJS/subscriptions",
                "type": "Organization",
                "url": "https://api.github.com/users/PrismarineJS"
            },
            "private": false,
            "pulls_url": "https://api.github.com/repos/PrismarineJS/mineflayer-pvp/pulls{/number}",
            "pushed_at": "2023-04-10T10:58:35Z",
            "releases_url": "https://api.github.com/repos/PrismarineJS/mineflayer-pvp/releases{/id}",
            "size": 90,
            "ssh_url": "git@github.com:PrismarineJS/mineflayer-pvp.git",
            "stargazers_count": 36,
            "stargazers_url": "https://api.github.com/repos/PrismarineJS/mineflayer-pvp/stargazers",
            "statuses_url": "https://api.github.com/repos/PrismarineJS/mineflayer-pvp/statuses/{sha}",
            "subscribers_url": "https://api.github.com/repos/PrismarineJS/mineflayer-pvp/subscribers",
            "subscription_url": "https://api.github.com/repos/PrismarineJS/mineflayer-pvp/subscription",
            "svn_url": "https://github.com/PrismarineJS/mineflayer-pvp",
            "tags_url": "https://api.github.com/repos/PrismarineJS/mineflayer-pvp/tags",
            "teams_url": "https://api.github.com/repos/PrismarineJS/mineflayer-pvp/teams",
            "topics": [],
            "trees_url": "https://api.github.com/repos/PrismarineJS/mineflayer-pvp/git/trees{/sha}",
            "updated_at": "2023-04-18T01:24:37Z",
            "url": "https://api.github.com/repos/PrismarineJS/mineflayer-pvp",
            "visibility": "public",
            "watchers": 36,
            "watchers_count": 36,
            "web_commit_signoff_required": false
        },
        "sha": "0d08f6686a0bfe83d52211a3d8520e941bf3b076",
        "user": {
            "avatar_url": "https://avatars.githubusercontent.com/u/11053411?v=4",
            "events_url": "https://api.github.com/users/PrismarineJS/events{/privacy}",
            "followers_url": "https://api.github.com/users/PrismarineJS/followers",
            "following_url": "https://api.github.com/users/PrismarineJS/following{/other_user}",
            "gists_url": "https://api.github.com/users/PrismarineJS/gists{/gist_id}",
            "gravatar_id": "",
            "html_url": "https://github.com/PrismarineJS",
            "id": 11053411,
            "login": "PrismarineJS",
            "node_id": "MDEyOk9yZ2FuaXphdGlvbjExMDUzNDEx",
            "organizations_url": "https://api.github.com/users/PrismarineJS/orgs",
            "received_events_url": "https://api.github.com/users/PrismarineJS/received_events",
            "repos_url": "https://api.github.com/users/PrismarineJS/repos",
            "site_admin": false,
            "starred_url": "https://api.github.com/users/PrismarineJS/starred{/owner}{/repo}",
            "subscriptions_url": "https://api.github.com/users/PrismarineJS/subscriptions",
            "type": "Organization",
            "url": "https://api.github.com/users/PrismarineJS"
        }
    },
    "html_url": "https://github.com/PrismarineJS/mineflayer-pvp/pull/34",
    "id": 683567544,
    "issue_url": "https://api.github.com/repos/PrismarineJS/mineflayer-pvp/issues/34",
    "labels": [
        {
            "color": "0366d6",
            "default": false,
            "description": "Pull requests that update a dependency file",
            "id": 2724399615,
            "name": "dependencies",
            "node_id": "MDU6TGFiZWwyNzI0Mzk5NjE1",
            "url": "https://api.github.com/repos/PrismarineJS/mineflayer-pvp/labels/dependencies"
        }
    ],
    "locked": false,
    "maintainer_can_modify": false,
    "merge_commit_sha": "5a0cff288dc9e45c457670ba612a6e5f49db6cb9",
    "mergeable": null,
    "mergeable_state": "unknown",
    "merged": false,
    "merged_at": null,
    "merged_by": null,
    "milestone": null,
    "node_id": "MDExOlB1bGxSZXF1ZXN0NjgzNTY3NTQ0",
    "number": 34,
    "patch_url": "https://github.com/PrismarineJS/mineflayer-pvp/pull/34.patch",
    "rebaseable": null,
    "requested_reviewers": [],
    "requested_teams": [],
    "review_comment_url": "https://api.github.com/repos/PrismarineJS/mineflayer-pvp/pulls/comments{/number}",
    "review_comments": 0,
    "review_comments_url": "https://api.github.com/repos/PrismarineJS/mineflayer-pvp/pulls/34/comments",
    "state": "closed",
    "statuses_url": "https://api.github.com/repos/PrismarineJS/mineflayer-pvp/statuses/0d08f6686a0bfe83d52211a3d8520e941bf3b076",
    "title": "Bump @types/node from 15.14.1 to 16.0.0",
    "updated_at": "2021-07-06T10:45:07Z",
    "url": "https://api.github.com/repos/PrismarineJS/mineflayer-pvp/pulls/34",
    "user": {
        "avatar_url": "https://avatars.githubusercontent.com/in/29110?v=4",
        "events_url": "https://api.github.com/users/dependabot%5Bbot%5D/events{/privacy}",
        "followers_url": "https://api.github.com/users/dependabot%5Bbot%5D/followers",
        "following_url": "https://api.github.com/users/dependabot%5Bbot%5D/following{/other_user}",
        "gists_url": "https://api.github.com/users/dependabot%5Bbot%5D/gists{/gist_id}",
        "gravatar_id": "",
        "html_url": "https://github.com/apps/dependabot",
        "id": 49699333,
        "login": "dependabot[bot]",
        "node_id": "MDM6Qm90NDk2OTkzMzM=",
        "organizations_url": "https://api.github.com/users/dependabot%5Bbot%5D/orgs",
        "received_events_url": "https://api.github.com/users/dependabot%5Bbot%5D/received_events",
        "repos_url": "https://api.github.com/users/dependabot%5Bbot%5D/repos",
        "site_admin": false,
        "starred_url": "https://api.github.com/users/dependabot%5Bbot%5D/starred{/owner}{/repo}",
        "subscriptions_url": "https://api.github.com/users/dependabot%5Bbot%5D/subscriptions",
        "type": "Bot",
        "url": "https://api.github.com/users/dependabot%5Bbot%5D"
    }
}