{
    "assets": [],
    "assets_url": "https://api.github.com/repos/PrismarineJS/prismarine-viewer/releases/35594868/assets",
    "author": {
        "avatar_url": "https://avatars.githubusercontent.com/u/2346494?v=4",
        "events_url": "https://api.github.com/users/rom1504/events{/privacy}",
        "followers_url": "https://api.github.com/users/rom1504/followers",
        "following_url": "https://api.github.com/users/rom1504/following{/other_user}",
        "gists_url": "https://api.github.com/users/rom1504/gists{/gist_id}",
        "gravatar_id": "",
        "html_url": "https://github.com/rom1504",
        "id": 2346494,
        "login": "rom1504",
        "node_id": "MDQ6VXNlcjIzNDY0OTQ=",
        "organizations_url": "https://api.github.com/users/rom1504/orgs",
        "received_events_url": "https://api.github.com/users/rom1504/received_events",
        "repos_url": "https://api.github.com/users/rom1504/repos",
        "site_admin": false,
        "starred_url": "https://api.github.com/users/rom1504/starred{/owner}{/repo}",
        "subscriptions_url": "https://api.github.com/users/rom1504/subscriptions",
        "type": "User",
        "url": "https://api.github.com/users/rom1504",
        "user_view_type": "public"
    },
    "body": "",
    "created_at": "2020-12-22T01:46:40Z",
    "draft": false,
    "html_url": "https://github.com/PrismarineJS/prismarine-viewer/releases/tag/1.10.0",
    "id": 35594868,
    "name": "",
    "node_id": "MDc6UmVsZWFzZTM1NTk0ODY4",
    "prerelease": false,
    "published_at": "2020-12-22T01:49:16Z",
    "tag_name": "1.10.0",
    "tarball_url": "https://api.github.com/repos/PrismarineJS/prismarine-viewer/tarball/1.10.0",
    "target_commitish": "master",
    "upload_url": "https://uploads.github.com/repos/PrismarineJS/prismarine-viewer/releases/35594868/assets{?name,label}",
    "url": "https://api.github.com/repos/PrismarineJS/prismarine-viewer/releases/35594868",
    "zipball_url": "https://api.github.com/repos/PrismarineJS/prismarine-viewer/zipball/1.10.0"
}