{
    "assets": [],
    "assets_url": "https://api.github.com/repos/PrismarineJS/prismarine-viewer/releases/40132369/assets",
    "author": {
        "avatar_url": "https://avatars.githubusercontent.com/in/15368?v=4",
        "events_url": "https://api.github.com/users/github-actions%5Bbot%5D/events{/privacy}",
        "followers_url": "https://api.github.com/users/github-actions%5Bbot%5D/followers",
        "following_url": "https://api.github.com/users/github-actions%5Bbot%5D/following{/other_user}",
        "gists_url": "https://api.github.com/users/github-actions%5Bbot%5D/gists{/gist_id}",
        "gravatar_id": "",
        "html_url": "https://github.com/apps/github-actions",
        "id": 41898282,
        "login": "github-actions[bot]",
        "node_id": "MDM6Qm90NDE4OTgyODI=",
        "organizations_url": "https://api.github.com/users/github-actions%5Bbot%5D/orgs",
        "received_events_url": "https://api.github.com/users/github-actions%5Bbot%5D/received_events",
        "repos_url": "https://api.github.com/users/github-actions%5Bbot%5D/repos",
        "site_admin": false,
        "starred_url": "https://api.github.com/users/github-actions%5Bbot%5D/starred{/owner}{/repo}",
        "subscriptions_url": "https://api.github.com/users/github-actions%5Bbot%5D/subscriptions",
        "type": "Bot",
        "url": "https://api.github.com/users/github-actions%5Bbot%5D",
        "user_view_type": "public"
    },
    "body": "1.19.1",
    "created_at": "2021-03-21T23:57:38Z",
    "draft": false,
    "html_url": "https://github.com/PrismarineJS/prismarine-viewer/releases/tag/1.19.1",
    "id": 40132369,
    "name": "Release 1.19.1",
    "node_id": "MDc6UmVsZWFzZTQwMTMyMzY5",
    "prerelease": false,
    "published_at": "2021-03-22T00:01:17Z",
    "tag_name": "1.19.1",
    "tarball_url": "https://api.github.com/repos/PrismarineJS/prismarine-viewer/tarball/1.19.1",
    "target_commitish": "ef31493c707bc8ae513efbce20a666f12b92f657",
    "upload_url": "https://uploads.github.com/repos/PrismarineJS/prismarine-viewer/releases/40132369/assets{?name,label}",
    "url": "https://api.github.com/repos/PrismarineJS/prismarine-viewer/releases/40132369",
    "zipball_url": "https://api.github.com/repos/PrismarineJS/prismarine-viewer/zipball/1.19.1"
}