{
    "assets": [],
    "assets_url": "https://api.github.com/repos/PrismarineJS/prismarine-viewer/releases/135437491/assets",
    "author": {
        "avatar_url": "https://avatars.githubusercontent.com/in/15368?v=4",
        "events_url": "https://api.github.com/users/github-actions%5Bbot%5D/events{/privacy}",
        "followers_url": "https://api.github.com/users/github-actions%5Bbot%5D/followers",
        "following_url": "https://api.github.com/users/github-actions%5Bbot%5D/following{/other_user}",
        "gists_url": "https://api.github.com/users/github-actions%5Bbot%5D/gists{/gist_id}",
        "gravatar_id": "",
        "html_url": "https://github.com/apps/github-actions",
        "id": 41898282,
        "login": "github-actions[bot]",
        "node_id": "MDM6Qm90NDE4OTgyODI=",
        "organizations_url": "https://api.github.com/users/github-actions%5Bbot%5D/orgs",
        "received_events_url": "https://api.github.com/users/github-actions%5Bbot%5D/received_events",
        "repos_url": "https://api.github.com/users/github-actions%5Bbot%5D/repos",
        "site_admin": false,
        "starred_url": "https://api.github.com/users/github-actions%5Bbot%5D/starred{/owner}{/repo}",
        "subscriptions_url": "https://api.github.com/users/github-actions%5Bbot%5D/subscriptions",
        "type": "Bot",
        "url": "https://api.github.com/users/github-actions%5Bbot%5D",
        "user_view_type": "public"
    },
    "body": "1.27.0",
    "created_at": "2023-12-31T14:00:16Z",
    "draft": false,
    "html_url": "https://github.com/PrismarineJS/prismarine-viewer/releases/tag/1.27.0",
    "id": 135437491,
    "name": "Release 1.27.0",
    "node_id": "RE_kwDOEC0DT84IEpyz",
    "prerelease": false,
    "published_at": "2023-12-31T14:15:30Z",
    "tag_name": "1.27.0",
    "tarball_url": "https://api.github.com/repos/PrismarineJS/prismarine-viewer/tarball/1.27.0",
    "target_commitish": "13f37b98370a1dc64d6fc6d044a857844458221d",
    "upload_url": "https://uploads.github.com/repos/PrismarineJS/prismarine-viewer/releases/135437491/assets{?name,label}",
    "url": "https://api.github.com/repos/PrismarineJS/prismarine-viewer/releases/135437491",
    "zipball_url": "https://api.github.com/repos/PrismarineJS/prismarine-viewer/zipball/1.27.0"
}