{
    "active_lock_reason": null,
    "assignee": null,
    "assignees": [],
    "author_association": "MEMBER",
    "body": "@mhsjlw is working on it I think\n",
    "closed_at": "2015-08-27T21:06:10Z",
    "comment_data": [
        {
            "author_association": "MEMBER",
            "body": "Done.\n",
            "created_at": "2015-08-27T21:06:10Z",
            "html_url": "https://github.com/PrismarineJS/flying-squid/issues/12#issuecomment-135554948",
            "id": 135554948,
            "issue_url": "https://api.github.com/repos/PrismarineJS/flying-squid/issues/12",
            "node_id": "MDEyOklzc3VlQ29tbWVudDEzNTU1NDk0OA==",
            "performed_via_github_app": null,
            "reactions": {
                "+1": 0,
                "-1": 0,
                "confused": 0,
                "eyes": 0,
                "heart": 0,
                "hooray": 0,
                "laugh": 0,
                "rocket": 0,
                "total_count": 0,
                "url": "https://api.github.com/repos/PrismarineJS/flying-squid/issues/comments/135554948/reactions"
            },
            "updated_at": "2015-08-27T21:06:10Z",
            "url": "https://api.github.com/repos/PrismarineJS/flying-squid/issues/comments/135554948",
            "user": {
                "avatar_url": "https://avatars.githubusercontent.com/u/8526903?v=4",
                "events_url": "https://api.github.com/users/mhsjlw/events{/privacy}",
                "followers_url": "https://api.github.com/users/mhsjlw/followers",
                "following_url": "https://api.github.com/users/mhsjlw/following{/other_user}",
                "gists_url": "https://api.github.com/users/mhsjlw/gists{/gist_id}",
                "gravatar_id": "",
                "html_url": "https://github.com/mhsjlw",
                "id": 8526903,
                "login": "mhsjlw",
                "node_id": "MDQ6VXNlcjg1MjY5MDM=",
                "organizations_url": "https://api.github.com/users/mhsjlw/orgs",
                "received_events_url": "https://api.github.com/users/mhsjlw/received_events",
                "repos_url": "https://api.github.com/users/mhsjlw/repos",
                "site_admin": false,
                "starred_url": "https://api.github.com/users/mhsjlw/starred{/owner}{/repo}",
                "subscriptions_url": "https://api.github.com/users/mhsjlw/subscriptions",
                "type": "User",
                "url": "https://api.github.com/users/mhsjlw"
            }
        }
    ],
    "comments": 1,
    "comments_url": "https://api.github.com/repos/PrismarineJS/flying-squid/issues/12/comments",
    "created_at": "2015-08-27T10:41:32Z",
    "event_data": [
        {
            "actor": {
                "avatar_url": "https://avatars.githubusercontent.com/u/8526903?v=4",
                "events_url": "https://api.github.com/users/mhsjlw/events{/privacy}",
                "followers_url": "https://api.github.com/users/mhsjlw/followers",
                "following_url": "https://api.github.com/users/mhsjlw/following{/other_user}",
                "gists_url": "https://api.github.com/users/mhsjlw/gists{/gist_id}",
                "gravatar_id": "",
                "html_url": "https://github.com/mhsjlw",
                "id": 8526903,
                "login": "mhsjlw",
                "node_id": "MDQ6VXNlcjg1MjY5MDM=",
                "organizations_url": "https://api.github.com/users/mhsjlw/orgs",
                "received_events_url": "https://api.github.com/users/mhsjlw/received_events",
                "repos_url": "https://api.github.com/users/mhsjlw/repos",
                "site_admin": false,
                "starred_url": "https://api.github.com/users/mhsjlw/starred{/owner}{/repo}",
                "subscriptions_url": "https://api.github.com/users/mhsjlw/subscriptions",
                "type": "User",
                "url": "https://api.github.com/users/mhsjlw"
            },
            "commit_id": null,
            "commit_url": null,
            "created_at": "2015-08-27T10:41:32Z",
            "event": "mentioned",
            "id": 393866729,
            "node_id": "MDE0Ok1lbnRpb25lZEV2ZW50MzkzODY2NzI5",
            "performed_via_github_app": null,
            "url": "https://api.github.com/repos/PrismarineJS/flying-squid/issues/events/393866729"
        },
        {
            "actor": {
                "avatar_url": "https://avatars.githubusercontent.com/u/8526903?v=4",
                "events_url": "https://api.github.com/users/mhsjlw/events{/privacy}",
                "followers_url": "https://api.github.com/users/mhsjlw/followers",
                "following_url": "https://api.github.com/users/mhsjlw/following{/other_user}",
                "gists_url": "https://api.github.com/users/mhsjlw/gists{/gist_id}",
                "gravatar_id": "",
                "html_url": "https://github.com/mhsjlw",
                "id": 8526903,
                "login": "mhsjlw",
                "node_id": "MDQ6VXNlcjg1MjY5MDM=",
                "organizations_url": "https://api.github.com/users/mhsjlw/orgs",
                "received_events_url": "https://api.github.com/users/mhsjlw/received_events",
                "repos_url": "https://api.github.com/users/mhsjlw/repos",
                "site_admin": false,
                "starred_url": "https://api.github.com/users/mhsjlw/starred{/owner}{/repo}",
                "subscriptions_url": "https://api.github.com/users/mhsjlw/subscriptions",
                "type": "User",
                "url": "https://api.github.com/users/mhsjlw"
            },
            "commit_id": null,
            "commit_url": null,
            "created_at": "2015-08-27T10:41:32Z",
            "event": "subscribed",
            "id": 393866730,
            "node_id": "MDE1OlN1YnNjcmliZWRFdmVudDM5Mzg2NjczMA==",
            "performed_via_github_app": null,
            "url": "https://api.github.com/repos/PrismarineJS/flying-squid/issues/events/393866730"
        },
        {
            "actor": {
                "avatar_url": "https://avatars.githubusercontent.com/u/2346494?v=4",
                "events_url": "https://api.github.com/users/rom1504/events{/privacy}",
                "followers_url": "https://api.github.com/users/rom1504/followers",
                "following_url": "https://api.github.com/users/rom1504/following{/other_user}",
                "gists_url": "https://api.github.com/users/rom1504/gists{/gist_id}",
                "gravatar_id": "",
                "html_url": "https://github.com/rom1504",
                "id": 2346494,
                "login": "rom1504",
                "node_id": "MDQ6VXNlcjIzNDY0OTQ=",
                "organizations_url": "https://api.github.com/users/rom1504/orgs",
                "received_events_url": "https://api.github.com/users/rom1504/received_events",
                "repos_url": "https://api.github.com/users/rom1504/repos",
                "site_admin": false,
                "starred_url": "https://api.github.com/users/rom1504/starred{/owner}{/repo}",
                "subscriptions_url": "https://api.github.com/users/rom1504/subscriptions",
                "type": "User",
                "url": "https://api.github.com/users/rom1504"
            },
            "commit_id": null,
            "commit_url": null,
            "created_at": "2015-08-27T10:41:53Z",
            "event": "labeled",
            "id": 393866918,
            "label": {
                "color": "d4c5f9",
                "name": "chat"
            },
            "node_id": "MDEyOkxhYmVsZWRFdmVudDM5Mzg2NjkxOA==",
            "performed_via_github_app": null,
            "url": "https://api.github.com/repos/PrismarineJS/flying-squid/issues/events/393866918"
        },
        {
            "actor": {
                "avatar_url": "https://avatars.githubusercontent.com/u/8526903?v=4",
                "events_url": "https://api.github.com/users/mhsjlw/events{/privacy}",
                "followers_url": "https://api.github.com/users/mhsjlw/followers",
                "following_url": "https://api.github.com/users/mhsjlw/following{/other_user}",
                "gists_url": "https://api.github.com/users/mhsjlw/gists{/gist_id}",
                "gravatar_id": "",
                "html_url": "https://github.com/mhsjlw",
                "id": 8526903,
                "login": "mhsjlw",
                "node_id": "MDQ6VXNlcjg1MjY5MDM=",
                "organizations_url": "https://api.github.com/users/mhsjlw/orgs",
                "received_events_url": "https://api.github.com/users/mhsjlw/received_events",
                "repos_url": "https://api.github.com/users/mhsjlw/repos",
                "site_admin": false,
                "starred_url": "https://api.github.com/users/mhsjlw/starred{/owner}{/repo}",
                "subscriptions_url": "https://api.github.com/users/mhsjlw/subscriptions",
                "type": "User",
                "url": "https://api.github.com/users/mhsjlw"
            },
            "commit_id": null,
            "commit_url": null,
            "created_at": "2015-08-27T21:06:10Z",
            "event": "closed",
            "id": 394468734,
            "node_id": "MDExOkNsb3NlZEV2ZW50Mzk0NDY4NzM0",
            "performed_via_github_app": null,
            "state_reason": null,
            "url": "https://api.github.com/repos/PrismarineJS/flying-squid/issues/events/394468734"
        }
    ],
    "events_url": "https://api.github.com/repos/PrismarineJS/flying-squid/issues/12/events",
    "html_url": "https://github.com/PrismarineJS/flying-squid/issues/12",
    "id": 103478216,
    "labels": [
        {
            "color": "d4c5f9",
            "default": false,
            "description": null,
            "id": 253276714,
            "name": "chat",
            "node_id": "MDU6TGFiZWwyNTMyNzY3MTQ=",
            "url": "https://api.github.com/repos/PrismarineJS/flying-squid/labels/chat"
        }
    ],
    "labels_url": "https://api.github.com/repos/PrismarineJS/flying-squid/issues/12/labels{/name}",
    "locked": false,
    "milestone": null,
    "node_id": "MDU6SXNzdWUxMDM0NzgyMTY=",
    "number": 12,
    "performed_via_github_app": null,
    "reactions": {
        "+1": 0,
        "-1": 0,
        "confused": 0,
        "eyes": 0,
        "heart": 0,
        "hooray": 0,
        "laugh": 0,
        "rocket": 0,
        "total_count": 0,
        "url": "https://api.github.com/repos/PrismarineJS/flying-squid/issues/12/reactions"
    },
    "repository_url": "https://api.github.com/repos/PrismarineJS/flying-squid",
    "state": "closed",
    "state_reason": "completed",
    "timeline_url": "https://api.github.com/repos/PrismarineJS/flying-squid/issues/12/timeline",
    "title": "Implement commands",
    "updated_at": "2015-08-27T21:06:10Z",
    "url": "https://api.github.com/repos/PrismarineJS/flying-squid/issues/12",
    "user": {
        "avatar_url": "https://avatars.githubusercontent.com/u/2346494?v=4",
        "events_url": "https://api.github.com/users/rom1504/events{/privacy}",
        "followers_url": "https://api.github.com/users/rom1504/followers",
        "following_url": "https://api.github.com/users/rom1504/following{/other_user}",
        "gists_url": "https://api.github.com/users/rom1504/gists{/gist_id}",
        "gravatar_id": "",
        "html_url": "https://github.com/rom1504",
        "id": 2346494,
        "login": "rom1504",
        "node_id": "MDQ6VXNlcjIzNDY0OTQ=",
        "organizations_url": "https://api.github.com/users/rom1504/orgs",
        "received_events_url": "https://api.github.com/users/rom1504/received_events",
        "repos_url": "https://api.github.com/users/rom1504/repos",
        "site_admin": false,
        "starred_url": "https://api.github.com/users/rom1504/starred{/owner}{/repo}",
        "subscriptions_url": "https://api.github.com/users/rom1504/subscriptions",
        "type": "User",
        "url": "https://api.github.com/users/rom1504"
    }
}