{
    "active_lock_reason": null,
    "assignee": null,
    "assignees": [],
    "author_association": "MEMBER",
    "body": "See https://github.com/mhsjlw/flying-squid/pull/49#issuecomment-139058903\n",
    "closed_at": "2015-09-28T22:54:20Z",
    "comment_data": [
        {
            "author_association": "MEMBER",
            "body": "now handled in #49 \n",
            "created_at": "2015-09-28T22:54:20Z",
            "html_url": "https://github.com/PrismarineJS/flying-squid/issues/54#issuecomment-143896130",
            "id": 143896130,
            "issue_url": "https://api.github.com/repos/PrismarineJS/flying-squid/issues/54",
            "node_id": "MDEyOklzc3VlQ29tbWVudDE0Mzg5NjEzMA==",
            "performed_via_github_app": null,
            "reactions": {
                "+1": 0,
                "-1": 0,
                "confused": 0,
                "eyes": 0,
                "heart": 0,
                "hooray": 0,
                "laugh": 0,
                "rocket": 0,
                "total_count": 0,
                "url": "https://api.github.com/repos/PrismarineJS/flying-squid/issues/comments/143896130/reactions"
            },
            "updated_at": "2015-09-28T22:54:20Z",
            "url": "https://api.github.com/repos/PrismarineJS/flying-squid/issues/comments/143896130",
            "user": {
                "avatar_url": "https://avatars.githubusercontent.com/u/2346494?v=4",
                "events_url": "https://api.github.com/users/rom1504/events{/privacy}",
                "followers_url": "https://api.github.com/users/rom1504/followers",
                "following_url": "https://api.github.com/users/rom1504/following{/other_user}",
                "gists_url": "https://api.github.com/users/rom1504/gists{/gist_id}",
                "gravatar_id": "",
                "html_url": "https://github.com/rom1504",
                "id": 2346494,
                "login": "rom1504",
                "node_id": "MDQ6VXNlcjIzNDY0OTQ=",
                "organizations_url": "https://api.github.com/users/rom1504/orgs",
                "received_events_url": "https://api.github.com/users/rom1504/received_events",
                "repos_url": "https://api.github.com/users/rom1504/repos",
                "site_admin": false,
                "starred_url": "https://api.github.com/users/rom1504/starred{/owner}{/repo}",
                "subscriptions_url": "https://api.github.com/users/rom1504/subscriptions",
                "type": "User",
                "url": "https://api.github.com/users/rom1504"
            }
        }
    ],
    "comments": 1,
    "comments_url": "https://api.github.com/repos/PrismarineJS/flying-squid/issues/54/comments",
    "created_at": "2015-09-27T22:01:16Z",
    "event_data": [
        {
            "actor": {
                "avatar_url": "https://avatars.githubusercontent.com/u/2346494?v=4",
                "events_url": "https://api.github.com/users/rom1504/events{/privacy}",
                "followers_url": "https://api.github.com/users/rom1504/followers",
                "following_url": "https://api.github.com/users/rom1504/following{/other_user}",
                "gists_url": "https://api.github.com/users/rom1504/gists{/gist_id}",
                "gravatar_id": "",
                "html_url": "https://github.com/rom1504",
                "id": 2346494,
                "login": "rom1504",
                "node_id": "MDQ6VXNlcjIzNDY0OTQ=",
                "organizations_url": "https://api.github.com/users/rom1504/orgs",
                "received_events_url": "https://api.github.com/users/rom1504/received_events",
                "repos_url": "https://api.github.com/users/rom1504/repos",
                "site_admin": false,
                "starred_url": "https://api.github.com/users/rom1504/starred{/owner}{/repo}",
                "subscriptions_url": "https://api.github.com/users/rom1504/subscriptions",
                "type": "User",
                "url": "https://api.github.com/users/rom1504"
            },
            "commit_id": null,
            "commit_url": null,
            "created_at": "2015-09-28T22:54:20Z",
            "event": "closed",
            "id": 421313297,
            "node_id": "MDExOkNsb3NlZEV2ZW50NDIxMzEzMjk3",
            "performed_via_github_app": null,
            "state_reason": null,
            "url": "https://api.github.com/repos/PrismarineJS/flying-squid/issues/events/421313297"
        }
    ],
    "events_url": "https://api.github.com/repos/PrismarineJS/flying-squid/issues/54/events",
    "html_url": "https://github.com/PrismarineJS/flying-squid/issues/54",
    "id": 108563452,
    "labels": [],
    "labels_url": "https://api.github.com/repos/PrismarineJS/flying-squid/issues/54/labels{/name}",
    "locked": false,
    "milestone": null,
    "node_id": "MDU6SXNzdWUxMDg1NjM0NTI=",
    "number": 54,
    "performed_via_github_app": null,
    "reactions": {
        "+1": 0,
        "-1": 0,
        "confused": 0,
        "eyes": 0,
        "heart": 0,
        "hooray": 0,
        "laugh": 0,
        "rocket": 0,
        "total_count": 0,
        "url": "https://api.github.com/repos/PrismarineJS/flying-squid/issues/54/reactions"
    },
    "repository_url": "https://api.github.com/repos/PrismarineJS/flying-squid",
    "state": "closed",
    "state_reason": "completed",
    "timeline_url": "https://api.github.com/repos/PrismarineJS/flying-squid/issues/54/timeline",
    "title": "Cleanup plugins",
    "updated_at": "2015-09-28T22:54:20Z",
    "url": "https://api.github.com/repos/PrismarineJS/flying-squid/issues/54",
    "user": {
        "avatar_url": "https://avatars.githubusercontent.com/u/2346494?v=4",
        "events_url": "https://api.github.com/users/rom1504/events{/privacy}",
        "followers_url": "https://api.github.com/users/rom1504/followers",
        "following_url": "https://api.github.com/users/rom1504/following{/other_user}",
        "gists_url": "https://api.github.com/users/rom1504/gists{/gist_id}",
        "gravatar_id": "",
        "html_url": "https://github.com/rom1504",
        "id": 2346494,
        "login": "rom1504",
        "node_id": "MDQ6VXNlcjIzNDY0OTQ=",
        "organizations_url": "https://api.github.com/users/rom1504/orgs",
        "received_events_url": "https://api.github.com/users/rom1504/received_events",
        "repos_url": "https://api.github.com/users/rom1504/repos",
        "site_admin": false,
        "starred_url": "https://api.github.com/users/rom1504/starred{/owner}{/repo}",
        "subscriptions_url": "https://api.github.com/users/rom1504/subscriptions",
        "type": "User",
        "url": "https://api.github.com/users/rom1504"
    }
}