{
    "active_lock_reason": null,
    "assignee": null,
    "assignees": [],
    "author_association": "MEMBER",
    "body": "see http://wiki.vg/Protocol_FAQ#.E2.80.A6my_client_isn.27t_receiving_complete_map_chunks.21\n",
    "closed_at": "2015-11-06T19:36:44Z",
    "comment_data": [],
    "comments": 0,
    "comments_url": "https://api.github.com/repos/PrismarineJS/flying-squid/issues/88/comments",
    "created_at": "2015-11-05T14:40:09Z",
    "event_data": [
        {
            "actor": {
                "avatar_url": "https://avatars.githubusercontent.com/u/2346494?v=4",
                "events_url": "https://api.github.com/users/rom1504/events{/privacy}",
                "followers_url": "https://api.github.com/users/rom1504/followers",
                "following_url": "https://api.github.com/users/rom1504/following{/other_user}",
                "gists_url": "https://api.github.com/users/rom1504/gists{/gist_id}",
                "gravatar_id": "",
                "html_url": "https://github.com/rom1504",
                "id": 2346494,
                "login": "rom1504",
                "node_id": "MDQ6VXNlcjIzNDY0OTQ=",
                "organizations_url": "https://api.github.com/users/rom1504/orgs",
                "received_events_url": "https://api.github.com/users/rom1504/received_events",
                "repos_url": "https://api.github.com/users/rom1504/repos",
                "site_admin": false,
                "starred_url": "https://api.github.com/users/rom1504/starred{/owner}{/repo}",
                "subscriptions_url": "https://api.github.com/users/rom1504/subscriptions",
                "type": "User",
                "url": "https://api.github.com/users/rom1504"
            },
            "commit_id": null,
            "commit_url": null,
            "created_at": "2015-11-06T16:11:09Z",
            "event": "labeled",
            "id": 457075273,
            "label": {
                "color": "1a94c6",
                "name": "world"
            },
            "node_id": "MDEyOkxhYmVsZWRFdmVudDQ1NzA3NTI3Mw==",
            "performed_via_github_app": null,
            "url": "https://api.github.com/repos/PrismarineJS/flying-squid/issues/events/457075273"
        },
        {
            "actor": {
                "avatar_url": "https://avatars.githubusercontent.com/u/2346494?v=4",
                "events_url": "https://api.github.com/users/rom1504/events{/privacy}",
                "followers_url": "https://api.github.com/users/rom1504/followers",
                "following_url": "https://api.github.com/users/rom1504/following{/other_user}",
                "gists_url": "https://api.github.com/users/rom1504/gists{/gist_id}",
                "gravatar_id": "",
                "html_url": "https://github.com/rom1504",
                "id": 2346494,
                "login": "rom1504",
                "node_id": "MDQ6VXNlcjIzNDY0OTQ=",
                "organizations_url": "https://api.github.com/users/rom1504/orgs",
                "received_events_url": "https://api.github.com/users/rom1504/received_events",
                "repos_url": "https://api.github.com/users/rom1504/repos",
                "site_admin": false,
                "starred_url": "https://api.github.com/users/rom1504/starred{/owner}{/repo}",
                "subscriptions_url": "https://api.github.com/users/rom1504/subscriptions",
                "type": "User",
                "url": "https://api.github.com/users/rom1504"
            },
            "commit_id": "6b86cf5e9a7aa9f49f706d4d78ea41186428be5a",
            "commit_url": "https://api.github.com/repos/PrismarineJS/flying-squid/commits/6b86cf5e9a7aa9f49f706d4d78ea41186428be5a",
            "created_at": "2015-11-06T19:36:44Z",
            "event": "closed",
            "id": 457291407,
            "node_id": "MDExOkNsb3NlZEV2ZW50NDU3MjkxNDA3",
            "performed_via_github_app": null,
            "state_reason": null,
            "url": "https://api.github.com/repos/PrismarineJS/flying-squid/issues/events/457291407"
        }
    ],
    "events_url": "https://api.github.com/repos/PrismarineJS/flying-squid/issues/88/events",
    "html_url": "https://github.com/PrismarineJS/flying-squid/issues/88",
    "id": 115297531,
    "labels": [
        {
            "color": "1a94c6",
            "default": false,
            "description": null,
            "id": 253126351,
            "name": "world",
            "node_id": "MDU6TGFiZWwyNTMxMjYzNTE=",
            "url": "https://api.github.com/repos/PrismarineJS/flying-squid/labels/world"
        }
    ],
    "labels_url": "https://api.github.com/repos/PrismarineJS/flying-squid/issues/88/labels{/name}",
    "locked": false,
    "milestone": null,
    "node_id": "MDU6SXNzdWUxMTUyOTc1MzE=",
    "number": 88,
    "performed_via_github_app": null,
    "reactions": {
        "+1": 0,
        "-1": 0,
        "confused": 0,
        "eyes": 0,
        "heart": 0,
        "hooray": 0,
        "laugh": 0,
        "rocket": 0,
        "total_count": 0,
        "url": "https://api.github.com/repos/PrismarineJS/flying-squid/issues/88/reactions"
    },
    "repository_url": "https://api.github.com/repos/PrismarineJS/flying-squid",
    "state": "closed",
    "state_reason": "completed",
    "timeline_url": "https://api.github.com/repos/PrismarineJS/flying-squid/issues/88/timeline",
    "title": "Speedup login by only sending all the chunks when the client sends position updates",
    "updated_at": "2015-11-06T19:36:44Z",
    "url": "https://api.github.com/repos/PrismarineJS/flying-squid/issues/88",
    "user": {
        "avatar_url": "https://avatars.githubusercontent.com/u/2346494?v=4",
        "events_url": "https://api.github.com/users/rom1504/events{/privacy}",
        "followers_url": "https://api.github.com/users/rom1504/followers",
        "following_url": "https://api.github.com/users/rom1504/following{/other_user}",
        "gists_url": "https://api.github.com/users/rom1504/gists{/gist_id}",
        "gravatar_id": "",
        "html_url": "https://github.com/rom1504",
        "id": 2346494,
        "login": "rom1504",
        "node_id": "MDQ6VXNlcjIzNDY0OTQ=",
        "organizations_url": "https://api.github.com/users/rom1504/orgs",
        "received_events_url": "https://api.github.com/users/rom1504/received_events",
        "repos_url": "https://api.github.com/users/rom1504/repos",
        "site_admin": false,
        "starred_url": "https://api.github.com/users/rom1504/starred{/owner}{/repo}",
        "subscriptions_url": "https://api.github.com/users/rom1504/subscriptions",
        "type": "User",
        "url": "https://api.github.com/users/rom1504"
    }
}