{
    "_links": {
        "comments": {
            "href": "https://api.github.com/repos/PrismarineJS/prismarine-auth/issues/56/comments"
        },
        "commits": {
            "href": "https://api.github.com/repos/PrismarineJS/prismarine-auth/pulls/56/commits"
        },
        "html": {
            "href": "https://github.com/PrismarineJS/prismarine-auth/pull/56"
        },
        "issue": {
            "href": "https://api.github.com/repos/PrismarineJS/prismarine-auth/issues/56"
        },
        "review_comment": {
            "href": "https://api.github.com/repos/PrismarineJS/prismarine-auth/pulls/comments{/number}"
        },
        "review_comments": {
            "href": "https://api.github.com/repos/PrismarineJS/prismarine-auth/pulls/56/comments"
        },
        "self": {
            "href": "https://api.github.com/repos/PrismarineJS/prismarine-auth/pulls/56"
        },
        "statuses": {
            "href": "https://api.github.com/repos/PrismarineJS/prismarine-auth/statuses/3e312aed378d867a2c865744e3bb25fa3c01c458"
        }
    },
    "active_lock_reason": null,
    "additions": 2,
    "assignee": null,
    "assignees": [],
    "author_association": "CONTRIBUTOR",
    "auto_merge": null,
    "base": {
        "label": "PrismarineJS:master",
        "ref": "master",
        "repo": {
            "allow_forking": true,
            "archive_url": "https://api.github.com/repos/PrismarineJS/prismarine-auth/{archive_format}{/ref}",
            "archived": false,
            "assignees_url": "https://api.github.com/repos/PrismarineJS/prismarine-auth/assignees{/user}",
            "blobs_url": "https://api.github.com/repos/PrismarineJS/prismarine-auth/git/blobs{/sha}",
            "branches_url": "https://api.github.com/repos/PrismarineJS/prismarine-auth/branches{/branch}",
            "clone_url": "https://github.com/PrismarineJS/prismarine-auth.git",
            "collaborators_url": "https://api.github.com/repos/PrismarineJS/prismarine-auth/collaborators{/collaborator}",
            "comments_url": "https://api.github.com/repos/PrismarineJS/prismarine-auth/comments{/number}",
            "commits_url": "https://api.github.com/repos/PrismarineJS/prismarine-auth/commits{/sha}",
            "compare_url": "https://api.github.com/repos/PrismarineJS/prismarine-auth/compare/{base}...{head}",
            "contents_url": "https://api.github.com/repos/PrismarineJS/prismarine-auth/contents/{+path}",
            "contributors_url": "https://api.github.com/repos/PrismarineJS/prismarine-auth/contributors",
            "created_at": "2021-06-26T20:52:55Z",
            "default_branch": "master",
            "deployments_url": "https://api.github.com/repos/PrismarineJS/prismarine-auth/deployments",
            "description": "Microsoft/Xbox Live authentication ",
            "disabled": false,
            "downloads_url": "https://api.github.com/repos/PrismarineJS/prismarine-auth/downloads",
            "events_url": "https://api.github.com/repos/PrismarineJS/prismarine-auth/events",
            "fork": false,
            "forks": 13,
            "forks_count": 13,
            "forks_url": "https://api.github.com/repos/PrismarineJS/prismarine-auth/forks",
            "full_name": "PrismarineJS/prismarine-auth",
            "git_commits_url": "https://api.github.com/repos/PrismarineJS/prismarine-auth/git/commits{/sha}",
            "git_refs_url": "https://api.github.com/repos/PrismarineJS/prismarine-auth/git/refs{/sha}",
            "git_tags_url": "https://api.github.com/repos/PrismarineJS/prismarine-auth/git/tags{/sha}",
            "git_url": "git://github.com/PrismarineJS/prismarine-auth.git",
            "has_discussions": false,
            "has_downloads": true,
            "has_issues": true,
            "has_pages": false,
            "has_projects": true,
            "has_wiki": true,
            "homepage": "",
            "hooks_url": "https://api.github.com/repos/PrismarineJS/prismarine-auth/hooks",
            "html_url": "https://github.com/PrismarineJS/prismarine-auth",
            "id": 380594199,
            "is_template": false,
            "issue_comment_url": "https://api.github.com/repos/PrismarineJS/prismarine-auth/issues/comments{/number}",
            "issue_events_url": "https://api.github.com/repos/PrismarineJS/prismarine-auth/issues/events{/number}",
            "issues_url": "https://api.github.com/repos/PrismarineJS/prismarine-auth/issues{/number}",
            "keys_url": "https://api.github.com/repos/PrismarineJS/prismarine-auth/keys{/key_id}",
            "labels_url": "https://api.github.com/repos/PrismarineJS/prismarine-auth/labels{/name}",
            "language": "JavaScript",
            "languages_url": "https://api.github.com/repos/PrismarineJS/prismarine-auth/languages",
            "license": {
                "key": "mit",
                "name": "MIT License",
                "node_id": "MDc6TGljZW5zZTEz",
                "spdx_id": "MIT",
                "url": "https://api.github.com/licenses/mit"
            },
            "merges_url": "https://api.github.com/repos/PrismarineJS/prismarine-auth/merges",
            "milestones_url": "https://api.github.com/repos/PrismarineJS/prismarine-auth/milestones{/number}",
            "mirror_url": null,
            "name": "prismarine-auth",
            "node_id": "MDEwOlJlcG9zaXRvcnkzODA1OTQxOTk=",
            "notifications_url": "https://api.github.com/repos/PrismarineJS/prismarine-auth/notifications{?since,all,participating}",
            "open_issues": 3,
            "open_issues_count": 3,
            "owner": {
                "avatar_url": "https://avatars.githubusercontent.com/u/11053411?v=4",
                "events_url": "https://api.github.com/users/PrismarineJS/events{/privacy}",
                "followers_url": "https://api.github.com/users/PrismarineJS/followers",
                "following_url": "https://api.github.com/users/PrismarineJS/following{/other_user}",
                "gists_url": "https://api.github.com/users/PrismarineJS/gists{/gist_id}",
                "gravatar_id": "",
                "html_url": "https://github.com/PrismarineJS",
                "id": 11053411,
                "login": "PrismarineJS",
                "node_id": "MDEyOk9yZ2FuaXphdGlvbjExMDUzNDEx",
                "organizations_url": "https://api.github.com/users/PrismarineJS/orgs",
                "received_events_url": "https://api.github.com/users/PrismarineJS/received_events",
                "repos_url": "https://api.github.com/users/PrismarineJS/repos",
                "site_admin": false,
                "starred_url": "https://api.github.com/users/PrismarineJS/starred{/owner}{/repo}",
                "subscriptions_url": "https://api.github.com/users/PrismarineJS/subscriptions",
                "type": "Organization",
                "url": "https://api.github.com/users/PrismarineJS"
            },
            "private": false,
            "pulls_url": "https://api.github.com/repos/PrismarineJS/prismarine-auth/pulls{/number}",
            "pushed_at": "2023-01-14T15:17:19Z",
            "releases_url": "https://api.github.com/repos/PrismarineJS/prismarine-auth/releases{/id}",
            "size": 118,
            "ssh_url": "git@github.com:PrismarineJS/prismarine-auth.git",
            "stargazers_count": 30,
            "stargazers_url": "https://api.github.com/repos/PrismarineJS/prismarine-auth/stargazers",
            "statuses_url": "https://api.github.com/repos/PrismarineJS/prismarine-auth/statuses/{sha}",
            "subscribers_url": "https://api.github.com/repos/PrismarineJS/prismarine-auth/subscribers",
            "subscription_url": "https://api.github.com/repos/PrismarineJS/prismarine-auth/subscription",
            "svn_url": "https://github.com/PrismarineJS/prismarine-auth",
            "tags_url": "https://api.github.com/repos/PrismarineJS/prismarine-auth/tags",
            "teams_url": "https://api.github.com/repos/PrismarineJS/prismarine-auth/teams",
            "topics": [],
            "trees_url": "https://api.github.com/repos/PrismarineJS/prismarine-auth/git/trees{/sha}",
            "updated_at": "2023-03-09T12:59:03Z",
            "url": "https://api.github.com/repos/PrismarineJS/prismarine-auth",
            "visibility": "public",
            "watchers": 30,
            "watchers_count": 30,
            "web_commit_signoff_required": false
        },
        "sha": "f80499c9a741d748a186d52b7b455a973583d0de",
        "user": {
            "avatar_url": "https://avatars.githubusercontent.com/u/11053411?v=4",
            "events_url": "https://api.github.com/users/PrismarineJS/events{/privacy}",
            "followers_url": "https://api.github.com/users/PrismarineJS/followers",
            "following_url": "https://api.github.com/users/PrismarineJS/following{/other_user}",
            "gists_url": "https://api.github.com/users/PrismarineJS/gists{/gist_id}",
            "gravatar_id": "",
            "html_url": "https://github.com/PrismarineJS",
            "id": 11053411,
            "login": "PrismarineJS",
            "node_id": "MDEyOk9yZ2FuaXphdGlvbjExMDUzNDEx",
            "organizations_url": "https://api.github.com/users/PrismarineJS/orgs",
            "received_events_url": "https://api.github.com/users/PrismarineJS/received_events",
            "repos_url": "https://api.github.com/users/PrismarineJS/repos",
            "site_admin": false,
            "starred_url": "https://api.github.com/users/PrismarineJS/starred{/owner}{/repo}",
            "subscriptions_url": "https://api.github.com/users/PrismarineJS/subscriptions",
            "type": "Organization",
            "url": "https://api.github.com/users/PrismarineJS"
        }
    },
    "body": null,
    "changed_files": 1,
    "closed_at": "2022-10-01T21:52:58Z",
    "comment_data": [],
    "comment_regular_data": [],
    "comments": 0,
    "comments_url": "https://api.github.com/repos/PrismarineJS/prismarine-auth/issues/56/comments",
    "commit_data": [
        {
            "author": {
                "avatar_url": "https://avatars.githubusercontent.com/u/66429271?v=4",
                "events_url": "https://api.github.com/users/LucienHH/events{/privacy}",
                "followers_url": "https://api.github.com/users/LucienHH/followers",
                "following_url": "https://api.github.com/users/LucienHH/following{/other_user}",
                "gists_url": "https://api.github.com/users/LucienHH/gists{/gist_id}",
                "gravatar_id": "",
                "html_url": "https://github.com/LucienHH",
                "id": 66429271,
                "login": "LucienHH",
                "node_id": "MDQ6VXNlcjY2NDI5Mjcx",
                "organizations_url": "https://api.github.com/users/LucienHH/orgs",
                "received_events_url": "https://api.github.com/users/LucienHH/received_events",
                "repos_url": "https://api.github.com/users/LucienHH/repos",
                "site_admin": false,
                "starred_url": "https://api.github.com/users/LucienHH/starred{/owner}{/repo}",
                "subscriptions_url": "https://api.github.com/users/LucienHH/subscriptions",
                "type": "User",
                "url": "https://api.github.com/users/LucienHH"
            },
            "comments_url": "https://api.github.com/repos/PrismarineJS/prismarine-auth/commits/3e312aed378d867a2c865744e3bb25fa3c01c458/comments",
            "commit": {
                "author": {
                    "date": "2022-10-01T21:16:32Z",
                    "email": "lucienharryholloway@hotmail.co.uk",
                    "name": "unknown"
                },
                "comment_count": 0,
                "committer": {
                    "date": "2022-10-01T21:16:32Z",
                    "email": "lucienharryholloway@hotmail.co.uk",
                    "name": "unknown"
                },
                "message": "Update README with `flow` option",
                "tree": {
                    "sha": "c9d9afad99e7ca3c11083b023070a2c849ec8ff6",
                    "url": "https://api.github.com/repos/PrismarineJS/prismarine-auth/git/trees/c9d9afad99e7ca3c11083b023070a2c849ec8ff6"
                },
                "url": "https://api.github.com/repos/PrismarineJS/prismarine-auth/git/commits/3e312aed378d867a2c865744e3bb25fa3c01c458",
                "verification": {
                    "payload": null,
                    "reason": "unsigned",
                    "signature": null,
                    "verified": false
                }
            },
            "committer": {
                "avatar_url": "https://avatars.githubusercontent.com/u/66429271?v=4",
                "events_url": "https://api.github.com/users/LucienHH/events{/privacy}",
                "followers_url": "https://api.github.com/users/LucienHH/followers",
                "following_url": "https://api.github.com/users/LucienHH/following{/other_user}",
                "gists_url": "https://api.github.com/users/LucienHH/gists{/gist_id}",
                "gravatar_id": "",
                "html_url": "https://github.com/LucienHH",
                "id": 66429271,
                "login": "LucienHH",
                "node_id": "MDQ6VXNlcjY2NDI5Mjcx",
                "organizations_url": "https://api.github.com/users/LucienHH/orgs",
                "received_events_url": "https://api.github.com/users/LucienHH/received_events",
                "repos_url": "https://api.github.com/users/LucienHH/repos",
                "site_admin": false,
                "starred_url": "https://api.github.com/users/LucienHH/starred{/owner}{/repo}",
                "subscriptions_url": "https://api.github.com/users/LucienHH/subscriptions",
                "type": "User",
                "url": "https://api.github.com/users/LucienHH"
            },
            "html_url": "https://github.com/PrismarineJS/prismarine-auth/commit/3e312aed378d867a2c865744e3bb25fa3c01c458",
            "node_id": "C_kwDOF7WZ19oAKDNlMzEyYWVkMzc4ZDg2N2EyYzg2NTc0NGUzYmIyNWZhM2MwMWM0NTg",
            "parents": [
                {
                    "html_url": "https://github.com/PrismarineJS/prismarine-auth/commit/f80499c9a741d748a186d52b7b455a973583d0de",
                    "sha": "f80499c9a741d748a186d52b7b455a973583d0de",
                    "url": "https://api.github.com/repos/PrismarineJS/prismarine-auth/commits/f80499c9a741d748a186d52b7b455a973583d0de"
                }
            ],
            "sha": "3e312aed378d867a2c865744e3bb25fa3c01c458",
            "url": "https://api.github.com/repos/PrismarineJS/prismarine-auth/commits/3e312aed378d867a2c865744e3bb25fa3c01c458"
        }
    ],
    "commits": 1,
    "commits_url": "https://api.github.com/repos/PrismarineJS/prismarine-auth/pulls/56/commits",
    "created_at": "2022-10-01T21:16:54Z",
    "deletions": 2,
    "diff_url": "https://github.com/PrismarineJS/prismarine-auth/pull/56.diff",
    "draft": false,
    "head": {
        "label": "LucienHH:patch",
        "ref": "patch",
        "repo": {
            "allow_forking": true,
            "archive_url": "https://api.github.com/repos/LucienHH/prismarine-auth/{archive_format}{/ref}",
            "archived": false,
            "assignees_url": "https://api.github.com/repos/LucienHH/prismarine-auth/assignees{/user}",
            "blobs_url": "https://api.github.com/repos/LucienHH/prismarine-auth/git/blobs{/sha}",
            "branches_url": "https://api.github.com/repos/LucienHH/prismarine-auth/branches{/branch}",
            "clone_url": "https://github.com/LucienHH/prismarine-auth.git",
            "collaborators_url": "https://api.github.com/repos/LucienHH/prismarine-auth/collaborators{/collaborator}",
            "comments_url": "https://api.github.com/repos/LucienHH/prismarine-auth/comments{/number}",
            "commits_url": "https://api.github.com/repos/LucienHH/prismarine-auth/commits{/sha}",
            "compare_url": "https://api.github.com/repos/LucienHH/prismarine-auth/compare/{base}...{head}",
            "contents_url": "https://api.github.com/repos/LucienHH/prismarine-auth/contents/{+path}",
            "contributors_url": "https://api.github.com/repos/LucienHH/prismarine-auth/contributors",
            "created_at": "2021-08-19T01:11:48Z",
            "default_branch": "master",
            "deployments_url": "https://api.github.com/repos/LucienHH/prismarine-auth/deployments",
            "description": "Microsoft/Xbox Live authentication ",
            "disabled": false,
            "downloads_url": "https://api.github.com/repos/LucienHH/prismarine-auth/downloads",
            "events_url": "https://api.github.com/repos/LucienHH/prismarine-auth/events",
            "fork": true,
            "forks": 0,
            "forks_count": 0,
            "forks_url": "https://api.github.com/repos/LucienHH/prismarine-auth/forks",
            "full_name": "LucienHH/prismarine-auth",
            "git_commits_url": "https://api.github.com/repos/LucienHH/prismarine-auth/git/commits{/sha}",
            "git_refs_url": "https://api.github.com/repos/LucienHH/prismarine-auth/git/refs{/sha}",
            "git_tags_url": "https://api.github.com/repos/LucienHH/prismarine-auth/git/tags{/sha}",
            "git_url": "git://github.com/LucienHH/prismarine-auth.git",
            "has_discussions": false,
            "has_downloads": true,
            "has_issues": false,
            "has_pages": false,
            "has_projects": true,
            "has_wiki": true,
            "homepage": "",
            "hooks_url": "https://api.github.com/repos/LucienHH/prismarine-auth/hooks",
            "html_url": "https://github.com/LucienHH/prismarine-auth",
            "id": 397777367,
            "is_template": false,
            "issue_comment_url": "https://api.github.com/repos/LucienHH/prismarine-auth/issues/comments{/number}",
            "issue_events_url": "https://api.github.com/repos/LucienHH/prismarine-auth/issues/events{/number}",
            "issues_url": "https://api.github.com/repos/LucienHH/prismarine-auth/issues{/number}",
            "keys_url": "https://api.github.com/repos/LucienHH/prismarine-auth/keys{/key_id}",
            "labels_url": "https://api.github.com/repos/LucienHH/prismarine-auth/labels{/name}",
            "language": "JavaScript",
            "languages_url": "https://api.github.com/repos/LucienHH/prismarine-auth/languages",
            "license": {
                "key": "mit",
                "name": "MIT License",
                "node_id": "MDc6TGljZW5zZTEz",
                "spdx_id": "MIT",
                "url": "https://api.github.com/licenses/mit"
            },
            "merges_url": "https://api.github.com/repos/LucienHH/prismarine-auth/merges",
            "milestones_url": "https://api.github.com/repos/LucienHH/prismarine-auth/milestones{/number}",
            "mirror_url": null,
            "name": "prismarine-auth",
            "node_id": "MDEwOlJlcG9zaXRvcnkzOTc3NzczNjc=",
            "notifications_url": "https://api.github.com/repos/LucienHH/prismarine-auth/notifications{?since,all,participating}",
            "open_issues": 0,
            "open_issues_count": 0,
            "owner": {
                "avatar_url": "https://avatars.githubusercontent.com/u/66429271?v=4",
                "events_url": "https://api.github.com/users/LucienHH/events{/privacy}",
                "followers_url": "https://api.github.com/users/LucienHH/followers",
                "following_url": "https://api.github.com/users/LucienHH/following{/other_user}",
                "gists_url": "https://api.github.com/users/LucienHH/gists{/gist_id}",
                "gravatar_id": "",
                "html_url": "https://github.com/LucienHH",
                "id": 66429271,
                "login": "LucienHH",
                "node_id": "MDQ6VXNlcjY2NDI5Mjcx",
                "organizations_url": "https://api.github.com/users/LucienHH/orgs",
                "received_events_url": "https://api.github.com/users/LucienHH/received_events",
                "repos_url": "https://api.github.com/users/LucienHH/repos",
                "site_admin": false,
                "starred_url": "https://api.github.com/users/LucienHH/starred{/owner}{/repo}",
                "subscriptions_url": "https://api.github.com/users/LucienHH/subscriptions",
                "type": "User",
                "url": "https://api.github.com/users/LucienHH"
            },
            "private": false,
            "pulls_url": "https://api.github.com/repos/LucienHH/prismarine-auth/pulls{/number}",
            "pushed_at": "2023-01-03T22:55:41Z",
            "releases_url": "https://api.github.com/repos/LucienHH/prismarine-auth/releases{/id}",
            "size": 125,
            "ssh_url": "git@github.com:LucienHH/prismarine-auth.git",
            "stargazers_count": 0,
            "stargazers_url": "https://api.github.com/repos/LucienHH/prismarine-auth/stargazers",
            "statuses_url": "https://api.github.com/repos/LucienHH/prismarine-auth/statuses/{sha}",
            "subscribers_url": "https://api.github.com/repos/LucienHH/prismarine-auth/subscribers",
            "subscription_url": "https://api.github.com/repos/LucienHH/prismarine-auth/subscription",
            "svn_url": "https://github.com/LucienHH/prismarine-auth",
            "tags_url": "https://api.github.com/repos/LucienHH/prismarine-auth/tags",
            "teams_url": "https://api.github.com/repos/LucienHH/prismarine-auth/teams",
            "topics": [],
            "trees_url": "https://api.github.com/repos/LucienHH/prismarine-auth/git/trees{/sha}",
            "updated_at": "2021-11-25T22:35:44Z",
            "url": "https://api.github.com/repos/LucienHH/prismarine-auth",
            "visibility": "public",
            "watchers": 0,
            "watchers_count": 0,
            "web_commit_signoff_required": false
        },
        "sha": "3e312aed378d867a2c865744e3bb25fa3c01c458",
        "user": {
            "avatar_url": "https://avatars.githubusercontent.com/u/66429271?v=4",
            "events_url": "https://api.github.com/users/LucienHH/events{/privacy}",
            "followers_url": "https://api.github.com/users/LucienHH/followers",
            "following_url": "https://api.github.com/users/LucienHH/following{/other_user}",
            "gists_url": "https://api.github.com/users/LucienHH/gists{/gist_id}",
            "gravatar_id": "",
            "html_url": "https://github.com/LucienHH",
            "id": 66429271,
            "login": "LucienHH",
            "node_id": "MDQ6VXNlcjY2NDI5Mjcx",
            "organizations_url": "https://api.github.com/users/LucienHH/orgs",
            "received_events_url": "https://api.github.com/users/LucienHH/received_events",
            "repos_url": "https://api.github.com/users/LucienHH/repos",
            "site_admin": false,
            "starred_url": "https://api.github.com/users/LucienHH/starred{/owner}{/repo}",
            "subscriptions_url": "https://api.github.com/users/LucienHH/subscriptions",
            "type": "User",
            "url": "https://api.github.com/users/LucienHH"
        }
    },
    "html_url": "https://github.com/PrismarineJS/prismarine-auth/pull/56",
    "id": 1073677914,
    "issue_url": "https://api.github.com/repos/PrismarineJS/prismarine-auth/issues/56",
    "labels": [],
    "locked": false,
    "maintainer_can_modify": false,
    "merge_commit_sha": "91b1aeb85c97807bd43f44541350a041590affe2",
    "mergeable": null,
    "mergeable_state": "unknown",
    "merged": true,
    "merged_at": "2022-10-01T21:52:58Z",
    "merged_by": {
        "avatar_url": "https://avatars.githubusercontent.com/u/2346494?v=4",
        "events_url": "https://api.github.com/users/rom1504/events{/privacy}",
        "followers_url": "https://api.github.com/users/rom1504/followers",
        "following_url": "https://api.github.com/users/rom1504/following{/other_user}",
        "gists_url": "https://api.github.com/users/rom1504/gists{/gist_id}",
        "gravatar_id": "",
        "html_url": "https://github.com/rom1504",
        "id": 2346494,
        "login": "rom1504",
        "node_id": "MDQ6VXNlcjIzNDY0OTQ=",
        "organizations_url": "https://api.github.com/users/rom1504/orgs",
        "received_events_url": "https://api.github.com/users/rom1504/received_events",
        "repos_url": "https://api.github.com/users/rom1504/repos",
        "site_admin": false,
        "starred_url": "https://api.github.com/users/rom1504/starred{/owner}{/repo}",
        "subscriptions_url": "https://api.github.com/users/rom1504/subscriptions",
        "type": "User",
        "url": "https://api.github.com/users/rom1504"
    },
    "milestone": null,
    "node_id": "PR_kwDOFq9oF84__wZa",
    "number": 56,
    "patch_url": "https://github.com/PrismarineJS/prismarine-auth/pull/56.patch",
    "rebaseable": null,
    "requested_reviewers": [],
    "requested_teams": [],
    "review_comment_url": "https://api.github.com/repos/PrismarineJS/prismarine-auth/pulls/comments{/number}",
    "review_comments": 0,
    "review_comments_url": "https://api.github.com/repos/PrismarineJS/prismarine-auth/pulls/56/comments",
    "state": "closed",
    "statuses_url": "https://api.github.com/repos/PrismarineJS/prismarine-auth/statuses/3e312aed378d867a2c865744e3bb25fa3c01c458",
    "title": "Update README with `flow` option",
    "updated_at": "2022-10-02T10:19:02Z",
    "url": "https://api.github.com/repos/PrismarineJS/prismarine-auth/pulls/56",
    "user": {
        "avatar_url": "https://avatars.githubusercontent.com/u/66429271?v=4",
        "events_url": "https://api.github.com/users/LucienHH/events{/privacy}",
        "followers_url": "https://api.github.com/users/LucienHH/followers",
        "following_url": "https://api.github.com/users/LucienHH/following{/other_user}",
        "gists_url": "https://api.github.com/users/LucienHH/gists{/gist_id}",
        "gravatar_id": "",
        "html_url": "https://github.com/LucienHH",
        "id": 66429271,
        "login": "LucienHH",
        "node_id": "MDQ6VXNlcjY2NDI5Mjcx",
        "organizations_url": "https://api.github.com/users/LucienHH/orgs",
        "received_events_url": "https://api.github.com/users/LucienHH/received_events",
        "repos_url": "https://api.github.com/users/LucienHH/repos",
        "site_admin": false,
        "starred_url": "https://api.github.com/users/LucienHH/starred{/owner}{/repo}",
        "subscriptions_url": "https://api.github.com/users/LucienHH/subscriptions",
        "type": "User",
        "url": "https://api.github.com/users/LucienHH"
    }
}