{
    "_links": {
        "comments": {
            "href": "https://api.github.com/repos/PrismarineJS/prismarine-auth/issues/80/comments"
        },
        "commits": {
            "href": "https://api.github.com/repos/PrismarineJS/prismarine-auth/pulls/80/commits"
        },
        "html": {
            "href": "https://github.com/PrismarineJS/prismarine-auth/pull/80"
        },
        "issue": {
            "href": "https://api.github.com/repos/PrismarineJS/prismarine-auth/issues/80"
        },
        "review_comment": {
            "href": "https://api.github.com/repos/PrismarineJS/prismarine-auth/pulls/comments{/number}"
        },
        "review_comments": {
            "href": "https://api.github.com/repos/PrismarineJS/prismarine-auth/pulls/80/comments"
        },
        "self": {
            "href": "https://api.github.com/repos/PrismarineJS/prismarine-auth/pulls/80"
        },
        "statuses": {
            "href": "https://api.github.com/repos/PrismarineJS/prismarine-auth/statuses/229c9beae870a1ce5f952b622af8f78019c457d5"
        }
    },
    "active_lock_reason": null,
    "additions": 1,
    "assignee": null,
    "assignees": [],
    "author_association": "CONTRIBUTOR",
    "auto_merge": null,
    "base": {
        "label": "PrismarineJS:master",
        "ref": "master",
        "repo": {
            "allow_forking": true,
            "archive_url": "https://api.github.com/repos/PrismarineJS/prismarine-auth/{archive_format}{/ref}",
            "archived": false,
            "assignees_url": "https://api.github.com/repos/PrismarineJS/prismarine-auth/assignees{/user}",
            "blobs_url": "https://api.github.com/repos/PrismarineJS/prismarine-auth/git/blobs{/sha}",
            "branches_url": "https://api.github.com/repos/PrismarineJS/prismarine-auth/branches{/branch}",
            "clone_url": "https://github.com/PrismarineJS/prismarine-auth.git",
            "collaborators_url": "https://api.github.com/repos/PrismarineJS/prismarine-auth/collaborators{/collaborator}",
            "comments_url": "https://api.github.com/repos/PrismarineJS/prismarine-auth/comments{/number}",
            "commits_url": "https://api.github.com/repos/PrismarineJS/prismarine-auth/commits{/sha}",
            "compare_url": "https://api.github.com/repos/PrismarineJS/prismarine-auth/compare/{base}...{head}",
            "contents_url": "https://api.github.com/repos/PrismarineJS/prismarine-auth/contents/{+path}",
            "contributors_url": "https://api.github.com/repos/PrismarineJS/prismarine-auth/contributors",
            "created_at": "2021-06-26T20:52:55Z",
            "default_branch": "master",
            "deployments_url": "https://api.github.com/repos/PrismarineJS/prismarine-auth/deployments",
            "description": "Microsoft/Xbox Live authentication ",
            "disabled": false,
            "downloads_url": "https://api.github.com/repos/PrismarineJS/prismarine-auth/downloads",
            "events_url": "https://api.github.com/repos/PrismarineJS/prismarine-auth/events",
            "fork": false,
            "forks": 17,
            "forks_count": 17,
            "forks_url": "https://api.github.com/repos/PrismarineJS/prismarine-auth/forks",
            "full_name": "PrismarineJS/prismarine-auth",
            "git_commits_url": "https://api.github.com/repos/PrismarineJS/prismarine-auth/git/commits{/sha}",
            "git_refs_url": "https://api.github.com/repos/PrismarineJS/prismarine-auth/git/refs{/sha}",
            "git_tags_url": "https://api.github.com/repos/PrismarineJS/prismarine-auth/git/tags{/sha}",
            "git_url": "git://github.com/PrismarineJS/prismarine-auth.git",
            "has_discussions": false,
            "has_downloads": true,
            "has_issues": true,
            "has_pages": false,
            "has_projects": true,
            "has_wiki": true,
            "homepage": "",
            "hooks_url": "https://api.github.com/repos/PrismarineJS/prismarine-auth/hooks",
            "html_url": "https://github.com/PrismarineJS/prismarine-auth",
            "id": 380594199,
            "is_template": false,
            "issue_comment_url": "https://api.github.com/repos/PrismarineJS/prismarine-auth/issues/comments{/number}",
            "issue_events_url": "https://api.github.com/repos/PrismarineJS/prismarine-auth/issues/events{/number}",
            "issues_url": "https://api.github.com/repos/PrismarineJS/prismarine-auth/issues{/number}",
            "keys_url": "https://api.github.com/repos/PrismarineJS/prismarine-auth/keys{/key_id}",
            "labels_url": "https://api.github.com/repos/PrismarineJS/prismarine-auth/labels{/name}",
            "language": "JavaScript",
            "languages_url": "https://api.github.com/repos/PrismarineJS/prismarine-auth/languages",
            "license": {
                "key": "mit",
                "name": "MIT License",
                "node_id": "MDc6TGljZW5zZTEz",
                "spdx_id": "MIT",
                "url": "https://api.github.com/licenses/mit"
            },
            "merges_url": "https://api.github.com/repos/PrismarineJS/prismarine-auth/merges",
            "milestones_url": "https://api.github.com/repos/PrismarineJS/prismarine-auth/milestones{/number}",
            "mirror_url": null,
            "name": "prismarine-auth",
            "node_id": "MDEwOlJlcG9zaXRvcnkzODA1OTQxOTk=",
            "notifications_url": "https://api.github.com/repos/PrismarineJS/prismarine-auth/notifications{?since,all,participating}",
            "open_issues": 5,
            "open_issues_count": 5,
            "owner": {
                "avatar_url": "https://avatars.githubusercontent.com/u/11053411?v=4",
                "events_url": "https://api.github.com/users/PrismarineJS/events{/privacy}",
                "followers_url": "https://api.github.com/users/PrismarineJS/followers",
                "following_url": "https://api.github.com/users/PrismarineJS/following{/other_user}",
                "gists_url": "https://api.github.com/users/PrismarineJS/gists{/gist_id}",
                "gravatar_id": "",
                "html_url": "https://github.com/PrismarineJS",
                "id": 11053411,
                "login": "PrismarineJS",
                "node_id": "MDEyOk9yZ2FuaXphdGlvbjExMDUzNDEx",
                "organizations_url": "https://api.github.com/users/PrismarineJS/orgs",
                "received_events_url": "https://api.github.com/users/PrismarineJS/received_events",
                "repos_url": "https://api.github.com/users/PrismarineJS/repos",
                "site_admin": false,
                "starred_url": "https://api.github.com/users/PrismarineJS/starred{/owner}{/repo}",
                "subscriptions_url": "https://api.github.com/users/PrismarineJS/subscriptions",
                "type": "Organization",
                "url": "https://api.github.com/users/PrismarineJS"
            },
            "private": false,
            "pulls_url": "https://api.github.com/repos/PrismarineJS/prismarine-auth/pulls{/number}",
            "pushed_at": "2023-12-01T18:59:18Z",
            "releases_url": "https://api.github.com/repos/PrismarineJS/prismarine-auth/releases{/id}",
            "size": 118,
            "ssh_url": "git@github.com:PrismarineJS/prismarine-auth.git",
            "stargazers_count": 37,
            "stargazers_url": "https://api.github.com/repos/PrismarineJS/prismarine-auth/stargazers",
            "statuses_url": "https://api.github.com/repos/PrismarineJS/prismarine-auth/statuses/{sha}",
            "subscribers_url": "https://api.github.com/repos/PrismarineJS/prismarine-auth/subscribers",
            "subscription_url": "https://api.github.com/repos/PrismarineJS/prismarine-auth/subscription",
            "svn_url": "https://github.com/PrismarineJS/prismarine-auth",
            "tags_url": "https://api.github.com/repos/PrismarineJS/prismarine-auth/tags",
            "teams_url": "https://api.github.com/repos/PrismarineJS/prismarine-auth/teams",
            "topics": [],
            "trees_url": "https://api.github.com/repos/PrismarineJS/prismarine-auth/git/trees{/sha}",
            "updated_at": "2023-12-02T14:05:00Z",
            "url": "https://api.github.com/repos/PrismarineJS/prismarine-auth",
            "visibility": "public",
            "watchers": 37,
            "watchers_count": 37,
            "web_commit_signoff_required": false
        },
        "sha": "836bd0715737c1dbb9f5e8e809372585ee825070",
        "user": {
            "avatar_url": "https://avatars.githubusercontent.com/u/11053411?v=4",
            "events_url": "https://api.github.com/users/PrismarineJS/events{/privacy}",
            "followers_url": "https://api.github.com/users/PrismarineJS/followers",
            "following_url": "https://api.github.com/users/PrismarineJS/following{/other_user}",
            "gists_url": "https://api.github.com/users/PrismarineJS/gists{/gist_id}",
            "gravatar_id": "",
            "html_url": "https://github.com/PrismarineJS",
            "id": 11053411,
            "login": "PrismarineJS",
            "node_id": "MDEyOk9yZ2FuaXphdGlvbjExMDUzNDEx",
            "organizations_url": "https://api.github.com/users/PrismarineJS/orgs",
            "received_events_url": "https://api.github.com/users/PrismarineJS/received_events",
            "repos_url": "https://api.github.com/users/PrismarineJS/repos",
            "site_admin": false,
            "starred_url": "https://api.github.com/users/PrismarineJS/starred{/owner}{/repo}",
            "subscriptions_url": "https://api.github.com/users/PrismarineJS/subscriptions",
            "type": "Organization",
            "url": "https://api.github.com/users/PrismarineJS"
        }
    },
    "body": "Bumps [jose](https://github.com/panva/jose) from 4.15.4 to 5.1.0.\n<details>\n<summary>Release notes</summary>\n<p><em>Sourced from <a href=\"https://github.com/panva/jose/releases\">jose's releases</a>.</em></p>\n<blockquote>\n<h2>v5.1.0</h2>\n<h3>Features</h3>\n<ul>\n<li>add payload generics to jose.decodeJwt (<a href=\"https://github.com/panva/jose/commit/9de49e26956a20cdb94472f10f83b20480613329\">9de49e2</a>), closes <a href=\"https://redirect.github.com/panva/jose/issues/604\">#604</a></li>\n</ul>\n<h2>v5.0.2</h2>\n<h3>Fixes</h3>\n<ul>\n<li><strong>createRemoteJWKSet:</strong> ensure a default user-agent header is present (<a href=\"https://github.com/panva/jose/commit/887dd3cd05f34e06ce20ad00201599a5a469fbac\">887dd3c</a>), closes <a href=\"https://redirect.github.com/panva/jose/issues/600\">#600</a></li>\n</ul>\n<h2>v5.0.1</h2>\n<h3>Fixes</h3>\n<ul>\n<li>also use ES2020 in the CDN bundles (<a href=\"https://github.com/panva/jose/commit/8c4d3909db56f2d62cf2bf413e8343c0fdd2b92f\">8c4d390</a>)</li>\n</ul>\n<h2>v5.0.0</h2>\n<h3>⚠ BREAKING CHANGES</h3>\n<ul>\n<li><strong>Node.js:</strong> return Uint8Array (not a Buffer) from base64url.decode</li>\n<li>Browser distribution is now built using ES2020 as a target</li>\n<li>Node.js distribution is now built using ES2022 as a target</li>\n<li><strong>types:</strong> jwtVerify and jwtDecrypt type argument for the resolved KeyLike type is now a second optional type argument following a type for the JWT Claims Set (aka payload)</li>\n<li>PBES2 Key Management Algorithms' use in decrypt functions now requires the use of the keyManagementAlgorithms option to explicitly opt-in for their use.</li>\n<li>importJWK &quot;octAsKeyObject&quot; option was removed. importJWK will no longer return CryptoKey or KeyObject for &quot;oct&quot; (octet sequence) JWK key types, it will instead always return a Uint8Array formed from the &quot;k&quot; (Key Value) Parameter regardless of the other JWK Parameters that may be present.</li>\n<li>End-Of-Life versions of Node.js as of October 2023 are no longer supported. Node.js 18, 20, 21, and future releases are the ones that remain supported.</li>\n<li>The JWE &quot;zip&quot; (Compression Algorithm) Header Parameter\nis no longer supported by this JOSE implementation.</li>\n</ul>\n<h3>Features</h3>\n<ul>\n<li>add Date as valid input to timestamp setting functions (<a href=\"https://github.com/panva/jose/commit/bd830a47979912d4c0775d01a05584c2aa9f0dcd\">bd830a4</a>)</li>\n<li>default to an empty payload in JWT producing constructors (<a href=\"https://github.com/panva/jose/commit/98d6ca12c448697ed6342b1230b351eb5bfa0df8\">98d6ca1</a>)</li>\n<li><strong>types:</strong> add optional Generics for JWT verify and decrypt (<a href=\"https://github.com/panva/jose/commit/61bd2a0adb638c1c2469459d78556a99cec697c7\">61bd2a0</a>), closes <a href=\"https://redirect.github.com/panva/jose/issues/568\">#568</a></li>\n</ul>\n<h3>Reverts</h3>\n<ul>\n<li>Revert &quot;test: fix test under lts/erbium&quot; (<a href=\"https://github.com/panva/jose/commit/b64b6c731c3e2d0e6751e0221804af08d7015bfa\">b64b6c7</a>)</li>\n</ul>\n<h3>Refactor</h3>\n<ul>\n<li>Browser distribution is now built using ES2020 as a target (<a href=\"https://github.com/panva/jose/commit/18366840e1ae557b951fe921c5004b17ad56e972\">1836684</a>)</li>\n<li>drop support for EOL Node.js versions (<a href=\"https://github.com/panva/jose/commit/b5aee542fb5995dd29e012011f832ce8dfd24e29\">b5aee54</a>)</li>\n<li>importJWK always returns a Uint8Array for symmetric key inputs (<a href=\"https://github.com/panva/jose/commit/163e1b02ed5b64368110d750c9f5f5c3d247042d\">163e1b0</a>)</li>\n<li>Node.js distribution is now built using ES2022 as a target (<a href=\"https://github.com/panva/jose/commit/239697a17d048b8eb2120d29adff7f98edc0f26e\">239697a</a>)</li>\n<li><strong>Node.js:</strong> return Uint8Array (not a Buffer) from base64url.decode (<a href=\"https://github.com/panva/jose/commit/02d51827e24195d650cf83de100ae16cd8b0599e\">02d5182</a>)</li>\n<li>PBES2 Algorithms require explicit opt-in during verification (<a href=\"https://github.com/panva/jose/commit/e2da031381b7c5327ea9a0ccf58f059fa8af7e92\">e2da031</a>)</li>\n<li>remove support for JWE &quot;zip&quot; (Compression Algorithm) Header Parameter (<a href=\"https://github.com/panva/jose/commit/16998b15c75d90b64eb5b0fa0713cfdfa7896757\">16998b1</a>)</li>\n<li><strong>types:</strong> rename type parameters for the KeyLike returns (<a href=\"https://github.com/panva/jose/commit/eddd400235e84e3d84c1a8471b01915a12d3d866\">eddd400</a>)</li>\n</ul>\n<!-- raw HTML omitted -->\n</blockquote>\n<p>... (truncated)</p>\n</details>\n<details>\n<summary>Changelog</summary>\n<p><em>Sourced from <a href=\"https://github.com/panva/jose/blob/main/CHANGELOG.md\">jose's changelog</a>.</em></p>\n<blockquote>\n<h2><a href=\"https://github.com/panva/jose/compare/v5.0.2...v5.1.0\">5.1.0</a> (2023-11-03)</h2>\n<h3>Features</h3>\n<ul>\n<li>add payload generics to jose.decodeJwt (<a href=\"https://github.com/panva/jose/commit/9de49e26956a20cdb94472f10f83b20480613329\">9de49e2</a>), closes <a href=\"https://redirect.github.com/panva/jose/issues/604\">#604</a></li>\n</ul>\n<h2><a href=\"https://github.com/panva/jose/compare/v5.0.1...v5.0.2\">5.0.2</a> (2023-11-02)</h2>\n<h3>Fixes</h3>\n<ul>\n<li><strong>createRemoteJWKSet:</strong> ensure a default user-agent header is present (<a href=\"https://github.com/panva/jose/commit/887dd3cd05f34e06ce20ad00201599a5a469fbac\">887dd3c</a>), closes <a href=\"https://redirect.github.com/panva/jose/issues/600\">#600</a></li>\n</ul>\n<h2><a href=\"https://github.com/panva/jose/compare/v5.0.0...v5.0.1\">5.0.1</a> (2023-10-25)</h2>\n<h3>Fixes</h3>\n<ul>\n<li>also use ES2020 in the CDN bundles (<a href=\"https://github.com/panva/jose/commit/8c4d3909db56f2d62cf2bf413e8343c0fdd2b92f\">8c4d390</a>)</li>\n</ul>\n<h2><a href=\"https://github.com/panva/jose/compare/v4.15.4...v5.0.0\">5.0.0</a> (2023-10-25)</h2>\n<h3>⚠ BREAKING CHANGES</h3>\n<ul>\n<li><strong>Node.js:</strong> return Uint8Array (not a Buffer) from base64url.decode</li>\n<li>Browser distribution is now built using ES2020 as a target</li>\n<li>Node.js distribution is now built using ES2022 as a target</li>\n<li><strong>types:</strong> jwtVerify and jwtDecrypt type argument for the resolved\nKeyLike type is now a second optional type argument following a type\nfor the JWT Claims Set (aka payload)</li>\n<li>PBES2 Key Management Algorithms' use in decrypt\nfunctions now requires the use of the keyManagementAlgorithms option\nto explicitly opt-in for their use.</li>\n<li>importJWK &quot;octAsKeyObject&quot; option was removed.\nimportJWK will no longer return CryptoKey or KeyObject for &quot;oct&quot; (octet\nsequence) JWK key types, it will instead always return a Uint8Array\nformed from the &quot;k&quot; (Key Value) Parameter regardless of the other JWK\nParameters that may be present.</li>\n<li>End-Of-Life versions of Node.js as of October 2023 are\nno longer supported. Node.js 18, 20, and 21 and future releases are\nthe ones that remain supported.</li>\n<li>The JWE &quot;zip&quot; (Compression Algorithm) Header Parameter\nis no longer supported by this JOSE implementation.</li>\n</ul>\n<h3>Features</h3>\n<ul>\n<li>add Date as valid input to timestamp setting functions (<a href=\"https://github.com/panva/jose/commit/bd830a47979912d4c0775d01a05584c2aa9f0dcd\">bd830a4</a>)</li>\n<li>default to an empty payload in JWT producing constructors (<a href=\"https://github.com/panva/jose/commit/98d6ca12c448697ed6342b1230b351eb5bfa0df8\">98d6ca1</a>)</li>\n</ul>\n<!-- raw HTML omitted -->\n</blockquote>\n<p>... (truncated)</p>\n</details>\n<details>\n<summary>Commits</summary>\n<ul>\n<li><a href=\"https://github.com/panva/jose/commit/45f042e8f944d089090e8e6c31aaa9cdc2dcf097\"><code>45f042e</code></a> chore(release): 5.1.0</li>\n<li><a href=\"https://github.com/panva/jose/commit/9de49e26956a20cdb94472f10f83b20480613329\"><code>9de49e2</code></a> feat: add payload generics to jose.decodeJwt</li>\n<li><a href=\"https://github.com/panva/jose/commit/b4f3b6168e446fbc104ce5743a79ae72d69d62d0\"><code>b4f3b61</code></a> docs: revert unintended typedoc changes</li>\n<li><a href=\"https://github.com/panva/jose/commit/8b7f6406efb2303fa1f1838dd72e5b79712cd68c\"><code>8b7f640</code></a> chore: cleanup after release</li>\n<li><a href=\"https://github.com/panva/jose/commit/21fb51dcc6bf1b3101dbb5256db18196f7e64dcb\"><code>21fb51d</code></a> chore(release): 5.0.2</li>\n<li><a href=\"https://github.com/panva/jose/commit/de98085a0f7d89a24ec840c73aa7a435704ff442\"><code>de98085</code></a> docs: update createLocalJWKSet and createRemoteJWKSet documentation</li>\n<li><a href=\"https://github.com/panva/jose/commit/887dd3cd05f34e06ce20ad00201599a5a469fbac\"><code>887dd3c</code></a> fix(createRemoteJWKSet): ensure a default user-agent header is present</li>\n<li><a href=\"https://github.com/panva/jose/commit/651979ae2e71e8a8c9d6ad3c629532a8afad5da0\"><code>651979a</code></a> chore: cleanup after release</li>\n<li><a href=\"https://github.com/panva/jose/commit/bee688f4a32fc4c86d710cc8c7ab9b7958f7dbba\"><code>bee688f</code></a> chore(release): 5.0.1</li>\n<li><a href=\"https://github.com/panva/jose/commit/8c4d3909db56f2d62cf2bf413e8343c0fdd2b92f\"><code>8c4d390</code></a> fix: also use ES2020 in the CDN bundles</li>\n<li>Additional commits viewable in <a href=\"https://github.com/panva/jose/compare/v4.15.4...v5.1.0\">compare view</a></li>\n</ul>\n</details>\n<br />\n\n\n[![Dependabot compatibility score](https://dependabot-badges.githubapp.com/badges/compatibility_score?dependency-name=jose&package-manager=npm_and_yarn&previous-version=4.15.4&new-version=5.1.0)](https://docs.github.com/en/github/managing-security-vulnerabilities/about-dependabot-security-updates#about-compatibility-scores)\n\nDependabot will resolve any conflicts with this PR as long as you don't alter it yourself. You can also trigger a rebase manually by commenting `@dependabot rebase`.\n\n[//]: # (dependabot-automerge-start)\n[//]: # (dependabot-automerge-end)\n\n---\n\n<details>\n<summary>Dependabot commands and options</summary>\n<br />\n\nYou can trigger Dependabot actions by commenting on this PR:\n- `@dependabot rebase` will rebase this PR\n- `@dependabot recreate` will recreate this PR, overwriting any edits that have been made to it\n- `@dependabot merge` will merge this PR after your CI passes on it\n- `@dependabot squash and merge` will squash and merge this PR after your CI passes on it\n- `@dependabot cancel merge` will cancel a previously requested merge and block automerging\n- `@dependabot reopen` will reopen this PR if it is closed\n- `@dependabot close` will close this PR and stop Dependabot recreating it. You can achieve the same result by closing it manually\n- `@dependabot show <dependency name> ignore conditions` will show all of the ignore conditions of the specified dependency\n- `@dependabot ignore this major version` will close this PR and stop Dependabot creating any more for this major version (unless you reopen the PR or upgrade to it yourself)\n- `@dependabot ignore this minor version` will close this PR and stop Dependabot creating any more for this minor version (unless you reopen the PR or upgrade to it yourself)\n- `@dependabot ignore this dependency` will close this PR and stop Dependabot creating any more for this dependency (unless you reopen the PR or upgrade to it yourself)\n\n\n</details>",
    "changed_files": 1,
    "closed_at": "2023-11-15T06:52:13Z",
    "comment_data": [],
    "comment_regular_data": [
        {
            "author_association": "CONTRIBUTOR",
            "body": "Superseded by #82.",
            "created_at": "2023-11-15T06:52:12Z",
            "html_url": "https://github.com/PrismarineJS/prismarine-auth/pull/80#issuecomment-1811897966",
            "id": 1811897966,
            "issue_url": "https://api.github.com/repos/PrismarineJS/prismarine-auth/issues/80",
            "node_id": "IC_kwDOFq9oF85r_15u",
            "performed_via_github_app": {
                "created_at": "2019-04-16T22:34:25Z",
                "description": "",
                "events": [
                    "check_suite",
                    "issues",
                    "issue_comment",
                    "label",
                    "pull_request",
                    "pull_request_review",
                    "pull_request_review_comment",
                    "repository"
                ],
                "external_url": "https://dependabot-api.githubapp.com",
                "html_url": "https://github.com/apps/dependabot",
                "id": 29110,
                "name": "Dependabot",
                "node_id": "MDM6QXBwMjkxMTA=",
                "owner": {
                    "avatar_url": "https://avatars.githubusercontent.com/u/9919?v=4",
                    "events_url": "https://api.github.com/users/github/events{/privacy}",
                    "followers_url": "https://api.github.com/users/github/followers",
                    "following_url": "https://api.github.com/users/github/following{/other_user}",
                    "gists_url": "https://api.github.com/users/github/gists{/gist_id}",
                    "gravatar_id": "",
                    "html_url": "https://github.com/github",
                    "id": 9919,
                    "login": "github",
                    "node_id": "MDEyOk9yZ2FuaXphdGlvbjk5MTk=",
                    "organizations_url": "https://api.github.com/users/github/orgs",
                    "received_events_url": "https://api.github.com/users/github/received_events",
                    "repos_url": "https://api.github.com/users/github/repos",
                    "site_admin": false,
                    "starred_url": "https://api.github.com/users/github/starred{/owner}{/repo}",
                    "subscriptions_url": "https://api.github.com/users/github/subscriptions",
                    "type": "Organization",
                    "url": "https://api.github.com/users/github"
                },
                "permissions": {
                    "checks": "write",
                    "contents": "write",
                    "issues": "write",
                    "members": "read",
                    "metadata": "read",
                    "pull_requests": "write",
                    "statuses": "read",
                    "vulnerability_alerts": "read",
                    "workflows": "write"
                },
                "slug": "dependabot",
                "updated_at": "2023-10-12T13:35:09Z"
            },
            "reactions": {
                "+1": 0,
                "-1": 0,
                "confused": 0,
                "eyes": 0,
                "heart": 0,
                "hooray": 0,
                "laugh": 0,
                "rocket": 0,
                "total_count": 0,
                "url": "https://api.github.com/repos/PrismarineJS/prismarine-auth/issues/comments/1811897966/reactions"
            },
            "updated_at": "2023-11-15T06:52:12Z",
            "url": "https://api.github.com/repos/PrismarineJS/prismarine-auth/issues/comments/1811897966",
            "user": {
                "avatar_url": "https://avatars.githubusercontent.com/in/29110?v=4",
                "events_url": "https://api.github.com/users/dependabot%5Bbot%5D/events{/privacy}",
                "followers_url": "https://api.github.com/users/dependabot%5Bbot%5D/followers",
                "following_url": "https://api.github.com/users/dependabot%5Bbot%5D/following{/other_user}",
                "gists_url": "https://api.github.com/users/dependabot%5Bbot%5D/gists{/gist_id}",
                "gravatar_id": "",
                "html_url": "https://github.com/apps/dependabot",
                "id": 49699333,
                "login": "dependabot[bot]",
                "node_id": "MDM6Qm90NDk2OTkzMzM=",
                "organizations_url": "https://api.github.com/users/dependabot%5Bbot%5D/orgs",
                "received_events_url": "https://api.github.com/users/dependabot%5Bbot%5D/received_events",
                "repos_url": "https://api.github.com/users/dependabot%5Bbot%5D/repos",
                "site_admin": false,
                "starred_url": "https://api.github.com/users/dependabot%5Bbot%5D/starred{/owner}{/repo}",
                "subscriptions_url": "https://api.github.com/users/dependabot%5Bbot%5D/subscriptions",
                "type": "Bot",
                "url": "https://api.github.com/users/dependabot%5Bbot%5D"
            }
        }
    ],
    "comments": 1,
    "comments_url": "https://api.github.com/repos/PrismarineJS/prismarine-auth/issues/80/comments",
    "commit_data": [
        {
            "author": {
                "avatar_url": "https://avatars.githubusercontent.com/in/29110?v=4",
                "events_url": "https://api.github.com/users/dependabot%5Bbot%5D/events{/privacy}",
                "followers_url": "https://api.github.com/users/dependabot%5Bbot%5D/followers",
                "following_url": "https://api.github.com/users/dependabot%5Bbot%5D/following{/other_user}",
                "gists_url": "https://api.github.com/users/dependabot%5Bbot%5D/gists{/gist_id}",
                "gravatar_id": "",
                "html_url": "https://github.com/apps/dependabot",
                "id": 49699333,
                "login": "dependabot[bot]",
                "node_id": "MDM6Qm90NDk2OTkzMzM=",
                "organizations_url": "https://api.github.com/users/dependabot%5Bbot%5D/orgs",
                "received_events_url": "https://api.github.com/users/dependabot%5Bbot%5D/received_events",
                "repos_url": "https://api.github.com/users/dependabot%5Bbot%5D/repos",
                "site_admin": false,
                "starred_url": "https://api.github.com/users/dependabot%5Bbot%5D/starred{/owner}{/repo}",
                "subscriptions_url": "https://api.github.com/users/dependabot%5Bbot%5D/subscriptions",
                "type": "Bot",
                "url": "https://api.github.com/users/dependabot%5Bbot%5D"
            },
            "comments_url": "https://api.github.com/repos/PrismarineJS/prismarine-auth/commits/229c9beae870a1ce5f952b622af8f78019c457d5/comments",
            "commit": {
                "author": {
                    "date": "2023-11-06T06:14:37Z",
                    "email": "49699333+dependabot[bot]@users.noreply.github.com",
                    "name": "dependabot[bot]"
                },
                "comment_count": 0,
                "committer": {
                    "date": "2023-11-06T06:14:37Z",
                    "email": "noreply@github.com",
                    "name": "GitHub"
                },
                "message": "Bump jose from 4.15.4 to 5.1.0\n\nBumps [jose](https://github.com/panva/jose) from 4.15.4 to 5.1.0.\n- [Release notes](https://github.com/panva/jose/releases)\n- [Changelog](https://github.com/panva/jose/blob/main/CHANGELOG.md)\n- [Commits](https://github.com/panva/jose/compare/v4.15.4...v5.1.0)\n\n---\nupdated-dependencies:\n- dependency-name: jose\n  dependency-type: direct:production\n  update-type: version-update:semver-major\n...\n\nSigned-off-by: dependabot[bot] <support@github.com>",
                "tree": {
                    "sha": "f8c25d545dd5f33ee8ba1ca1c9ef235c55d959b8",
                    "url": "https://api.github.com/repos/PrismarineJS/prismarine-auth/git/trees/f8c25d545dd5f33ee8ba1ca1c9ef235c55d959b8"
                },
                "url": "https://api.github.com/repos/PrismarineJS/prismarine-auth/git/commits/229c9beae870a1ce5f952b622af8f78019c457d5",
                "verification": {
                    "payload": "tree f8c25d545dd5f33ee8ba1ca1c9ef235c55d959b8\nparent 836bd0715737c1dbb9f5e8e809372585ee825070\nauthor dependabot[bot] <49699333+dependabot[bot]@users.noreply.github.com> 1699251277 +0000\ncommitter GitHub <noreply@github.com> 1699251277 +0000\n\nBump jose from 4.15.4 to 5.1.0\n\nBumps [jose](https://github.com/panva/jose) from 4.15.4 to 5.1.0.\n- [Release notes](https://github.com/panva/jose/releases)\n- [Changelog](https://github.com/panva/jose/blob/main/CHANGELOG.md)\n- [Commits](https://github.com/panva/jose/compare/v4.15.4...v5.1.0)\n\n---\nupdated-dependencies:\n- dependency-name: jose\n  dependency-type: direct:production\n  update-type: version-update:semver-major\n...\n\nSigned-off-by: dependabot[bot] <support@github.com>",
                    "reason": "valid",
                    "signature": "-----BEGIN PGP SIGNATURE-----\n\nwsBcBAABCAAQBQJlSIRNCRBK7hj4Ov3rIwAAvxsIADCfYrB7etXbdZkh/cm3jUVx\nxdJ0qfEuE25r0371d3KIMp36EgJ9/mF6jpxD6g/EG+gxRoeYN4+0hLg65k/Abbbs\naZ6a0c3fydXOAxi5Dk/FgxttrbxR2HIfDcYKgiWVDErWf192MMVR/DTvAxASnjtl\nbKIjhxlyYz8+mG6gmMu2O0kcUF51tsLkSoyjJwL8pYFNNM8Igcy3/Uu+0zSRwZkX\nba7qHUHUpaysbIW+SJaGNPH6N27JQrah4dgG8AWPE9SuS8GlSZYQ67XMekgJGwIO\naakUFPo8Hx5Tlw3GrR2lpvgq6m3+4G+JH5BDImHtXmKesBPSkDZzpQqzt1D7F4c=\n=rOMU\n-----END PGP SIGNATURE-----\n",
                    "verified": true
                }
            },
            "committer": {
                "avatar_url": "https://avatars.githubusercontent.com/u/19864447?v=4",
                "events_url": "https://api.github.com/users/web-flow/events{/privacy}",
                "followers_url": "https://api.github.com/users/web-flow/followers",
                "following_url": "https://api.github.com/users/web-flow/following{/other_user}",
                "gists_url": "https://api.github.com/users/web-flow/gists{/gist_id}",
                "gravatar_id": "",
                "html_url": "https://github.com/web-flow",
                "id": 19864447,
                "login": "web-flow",
                "node_id": "MDQ6VXNlcjE5ODY0NDQ3",
                "organizations_url": "https://api.github.com/users/web-flow/orgs",
                "received_events_url": "https://api.github.com/users/web-flow/received_events",
                "repos_url": "https://api.github.com/users/web-flow/repos",
                "site_admin": false,
                "starred_url": "https://api.github.com/users/web-flow/starred{/owner}{/repo}",
                "subscriptions_url": "https://api.github.com/users/web-flow/subscriptions",
                "type": "User",
                "url": "https://api.github.com/users/web-flow"
            },
            "html_url": "https://github.com/PrismarineJS/prismarine-auth/commit/229c9beae870a1ce5f952b622af8f78019c457d5",
            "node_id": "C_kwDOFq9oF9oAKDIyOWM5YmVhZTg3MGExY2U1Zjk1MmI2MjJhZjhmNzgwMTljNDU3ZDU",
            "parents": [
                {
                    "html_url": "https://github.com/PrismarineJS/prismarine-auth/commit/836bd0715737c1dbb9f5e8e809372585ee825070",
                    "sha": "836bd0715737c1dbb9f5e8e809372585ee825070",
                    "url": "https://api.github.com/repos/PrismarineJS/prismarine-auth/commits/836bd0715737c1dbb9f5e8e809372585ee825070"
                }
            ],
            "sha": "229c9beae870a1ce5f952b622af8f78019c457d5",
            "url": "https://api.github.com/repos/PrismarineJS/prismarine-auth/commits/229c9beae870a1ce5f952b622af8f78019c457d5"
        }
    ],
    "commits": 1,
    "commits_url": "https://api.github.com/repos/PrismarineJS/prismarine-auth/pulls/80/commits",
    "created_at": "2023-11-06T06:14:38Z",
    "deletions": 1,
    "diff_url": "https://github.com/PrismarineJS/prismarine-auth/pull/80.diff",
    "draft": false,
    "head": {
        "label": "PrismarineJS:dependabot/npm_and_yarn/jose-5.1.0",
        "ref": "dependabot/npm_and_yarn/jose-5.1.0",
        "repo": {
            "allow_forking": true,
            "archive_url": "https://api.github.com/repos/PrismarineJS/prismarine-auth/{archive_format}{/ref}",
            "archived": false,
            "assignees_url": "https://api.github.com/repos/PrismarineJS/prismarine-auth/assignees{/user}",
            "blobs_url": "https://api.github.com/repos/PrismarineJS/prismarine-auth/git/blobs{/sha}",
            "branches_url": "https://api.github.com/repos/PrismarineJS/prismarine-auth/branches{/branch}",
            "clone_url": "https://github.com/PrismarineJS/prismarine-auth.git",
            "collaborators_url": "https://api.github.com/repos/PrismarineJS/prismarine-auth/collaborators{/collaborator}",
            "comments_url": "https://api.github.com/repos/PrismarineJS/prismarine-auth/comments{/number}",
            "commits_url": "https://api.github.com/repos/PrismarineJS/prismarine-auth/commits{/sha}",
            "compare_url": "https://api.github.com/repos/PrismarineJS/prismarine-auth/compare/{base}...{head}",
            "contents_url": "https://api.github.com/repos/PrismarineJS/prismarine-auth/contents/{+path}",
            "contributors_url": "https://api.github.com/repos/PrismarineJS/prismarine-auth/contributors",
            "created_at": "2021-06-26T20:52:55Z",
            "default_branch": "master",
            "deployments_url": "https://api.github.com/repos/PrismarineJS/prismarine-auth/deployments",
            "description": "Microsoft/Xbox Live authentication ",
            "disabled": false,
            "downloads_url": "https://api.github.com/repos/PrismarineJS/prismarine-auth/downloads",
            "events_url": "https://api.github.com/repos/PrismarineJS/prismarine-auth/events",
            "fork": false,
            "forks": 17,
            "forks_count": 17,
            "forks_url": "https://api.github.com/repos/PrismarineJS/prismarine-auth/forks",
            "full_name": "PrismarineJS/prismarine-auth",
            "git_commits_url": "https://api.github.com/repos/PrismarineJS/prismarine-auth/git/commits{/sha}",
            "git_refs_url": "https://api.github.com/repos/PrismarineJS/prismarine-auth/git/refs{/sha}",
            "git_tags_url": "https://api.github.com/repos/PrismarineJS/prismarine-auth/git/tags{/sha}",
            "git_url": "git://github.com/PrismarineJS/prismarine-auth.git",
            "has_discussions": false,
            "has_downloads": true,
            "has_issues": true,
            "has_pages": false,
            "has_projects": true,
            "has_wiki": true,
            "homepage": "",
            "hooks_url": "https://api.github.com/repos/PrismarineJS/prismarine-auth/hooks",
            "html_url": "https://github.com/PrismarineJS/prismarine-auth",
            "id": 380594199,
            "is_template": false,
            "issue_comment_url": "https://api.github.com/repos/PrismarineJS/prismarine-auth/issues/comments{/number}",
            "issue_events_url": "https://api.github.com/repos/PrismarineJS/prismarine-auth/issues/events{/number}",
            "issues_url": "https://api.github.com/repos/PrismarineJS/prismarine-auth/issues{/number}",
            "keys_url": "https://api.github.com/repos/PrismarineJS/prismarine-auth/keys{/key_id}",
            "labels_url": "https://api.github.com/repos/PrismarineJS/prismarine-auth/labels{/name}",
            "language": "JavaScript",
            "languages_url": "https://api.github.com/repos/PrismarineJS/prismarine-auth/languages",
            "license": {
                "key": "mit",
                "name": "MIT License",
                "node_id": "MDc6TGljZW5zZTEz",
                "spdx_id": "MIT",
                "url": "https://api.github.com/licenses/mit"
            },
            "merges_url": "https://api.github.com/repos/PrismarineJS/prismarine-auth/merges",
            "milestones_url": "https://api.github.com/repos/PrismarineJS/prismarine-auth/milestones{/number}",
            "mirror_url": null,
            "name": "prismarine-auth",
            "node_id": "MDEwOlJlcG9zaXRvcnkzODA1OTQxOTk=",
            "notifications_url": "https://api.github.com/repos/PrismarineJS/prismarine-auth/notifications{?since,all,participating}",
            "open_issues": 5,
            "open_issues_count": 5,
            "owner": {
                "avatar_url": "https://avatars.githubusercontent.com/u/11053411?v=4",
                "events_url": "https://api.github.com/users/PrismarineJS/events{/privacy}",
                "followers_url": "https://api.github.com/users/PrismarineJS/followers",
                "following_url": "https://api.github.com/users/PrismarineJS/following{/other_user}",
                "gists_url": "https://api.github.com/users/PrismarineJS/gists{/gist_id}",
                "gravatar_id": "",
                "html_url": "https://github.com/PrismarineJS",
                "id": 11053411,
                "login": "PrismarineJS",
                "node_id": "MDEyOk9yZ2FuaXphdGlvbjExMDUzNDEx",
                "organizations_url": "https://api.github.com/users/PrismarineJS/orgs",
                "received_events_url": "https://api.github.com/users/PrismarineJS/received_events",
                "repos_url": "https://api.github.com/users/PrismarineJS/repos",
                "site_admin": false,
                "starred_url": "https://api.github.com/users/PrismarineJS/starred{/owner}{/repo}",
                "subscriptions_url": "https://api.github.com/users/PrismarineJS/subscriptions",
                "type": "Organization",
                "url": "https://api.github.com/users/PrismarineJS"
            },
            "private": false,
            "pulls_url": "https://api.github.com/repos/PrismarineJS/prismarine-auth/pulls{/number}",
            "pushed_at": "2023-12-01T18:59:18Z",
            "releases_url": "https://api.github.com/repos/PrismarineJS/prismarine-auth/releases{/id}",
            "size": 118,
            "ssh_url": "git@github.com:PrismarineJS/prismarine-auth.git",
            "stargazers_count": 37,
            "stargazers_url": "https://api.github.com/repos/PrismarineJS/prismarine-auth/stargazers",
            "statuses_url": "https://api.github.com/repos/PrismarineJS/prismarine-auth/statuses/{sha}",
            "subscribers_url": "https://api.github.com/repos/PrismarineJS/prismarine-auth/subscribers",
            "subscription_url": "https://api.github.com/repos/PrismarineJS/prismarine-auth/subscription",
            "svn_url": "https://github.com/PrismarineJS/prismarine-auth",
            "tags_url": "https://api.github.com/repos/PrismarineJS/prismarine-auth/tags",
            "teams_url": "https://api.github.com/repos/PrismarineJS/prismarine-auth/teams",
            "topics": [],
            "trees_url": "https://api.github.com/repos/PrismarineJS/prismarine-auth/git/trees{/sha}",
            "updated_at": "2023-12-02T14:05:00Z",
            "url": "https://api.github.com/repos/PrismarineJS/prismarine-auth",
            "visibility": "public",
            "watchers": 37,
            "watchers_count": 37,
            "web_commit_signoff_required": false
        },
        "sha": "229c9beae870a1ce5f952b622af8f78019c457d5",
        "user": {
            "avatar_url": "https://avatars.githubusercontent.com/u/11053411?v=4",
            "events_url": "https://api.github.com/users/PrismarineJS/events{/privacy}",
            "followers_url": "https://api.github.com/users/PrismarineJS/followers",
            "following_url": "https://api.github.com/users/PrismarineJS/following{/other_user}",
            "gists_url": "https://api.github.com/users/PrismarineJS/gists{/gist_id}",
            "gravatar_id": "",
            "html_url": "https://github.com/PrismarineJS",
            "id": 11053411,
            "login": "PrismarineJS",
            "node_id": "MDEyOk9yZ2FuaXphdGlvbjExMDUzNDEx",
            "organizations_url": "https://api.github.com/users/PrismarineJS/orgs",
            "received_events_url": "https://api.github.com/users/PrismarineJS/received_events",
            "repos_url": "https://api.github.com/users/PrismarineJS/repos",
            "site_admin": false,
            "starred_url": "https://api.github.com/users/PrismarineJS/starred{/owner}{/repo}",
            "subscriptions_url": "https://api.github.com/users/PrismarineJS/subscriptions",
            "type": "Organization",
            "url": "https://api.github.com/users/PrismarineJS"
        }
    },
    "html_url": "https://github.com/PrismarineJS/prismarine-auth/pull/80",
    "id": 1587915077,
    "issue_url": "https://api.github.com/repos/PrismarineJS/prismarine-auth/issues/80",
    "labels": [
        {
            "color": "0366d6",
            "default": false,
            "description": "Pull requests that update a dependency file",
            "id": 3203606531,
            "name": "dependencies",
            "node_id": "MDU6TGFiZWwzMjAzNjA2NTMx",
            "url": "https://api.github.com/repos/PrismarineJS/prismarine-auth/labels/dependencies"
        }
    ],
    "locked": false,
    "maintainer_can_modify": false,
    "merge_commit_sha": "9b0797acbe4d7cf839b53f898afe48fb3866a709",
    "mergeable": null,
    "mergeable_state": "unknown",
    "merged": false,
    "merged_at": null,
    "merged_by": null,
    "milestone": null,
    "node_id": "PR_kwDOFq9oF85epalF",
    "number": 80,
    "patch_url": "https://github.com/PrismarineJS/prismarine-auth/pull/80.patch",
    "rebaseable": null,
    "requested_reviewers": [],
    "requested_teams": [],
    "review_comment_url": "https://api.github.com/repos/PrismarineJS/prismarine-auth/pulls/comments{/number}",
    "review_comments": 0,
    "review_comments_url": "https://api.github.com/repos/PrismarineJS/prismarine-auth/pulls/80/comments",
    "state": "closed",
    "statuses_url": "https://api.github.com/repos/PrismarineJS/prismarine-auth/statuses/229c9beae870a1ce5f952b622af8f78019c457d5",
    "title": "Bump jose from 4.15.4 to 5.1.0",
    "updated_at": "2023-11-15T06:52:15Z",
    "url": "https://api.github.com/repos/PrismarineJS/prismarine-auth/pulls/80",
    "user": {
        "avatar_url": "https://avatars.githubusercontent.com/in/29110?v=4",
        "events_url": "https://api.github.com/users/dependabot%5Bbot%5D/events{/privacy}",
        "followers_url": "https://api.github.com/users/dependabot%5Bbot%5D/followers",
        "following_url": "https://api.github.com/users/dependabot%5Bbot%5D/following{/other_user}",
        "gists_url": "https://api.github.com/users/dependabot%5Bbot%5D/gists{/gist_id}",
        "gravatar_id": "",
        "html_url": "https://github.com/apps/dependabot",
        "id": 49699333,
        "login": "dependabot[bot]",
        "node_id": "MDM6Qm90NDk2OTkzMzM=",
        "organizations_url": "https://api.github.com/users/dependabot%5Bbot%5D/orgs",
        "received_events_url": "https://api.github.com/users/dependabot%5Bbot%5D/received_events",
        "repos_url": "https://api.github.com/users/dependabot%5Bbot%5D/repos",
        "site_admin": false,
        "starred_url": "https://api.github.com/users/dependabot%5Bbot%5D/starred{/owner}{/repo}",
        "subscriptions_url": "https://api.github.com/users/dependabot%5Bbot%5D/subscriptions",
        "type": "Bot",
        "url": "https://api.github.com/users/dependabot%5Bbot%5D"
    }
}