{
    "_links": {
        "comments": {
            "href": "https://api.github.com/repos/PrismarineJS/node-yggdrasil/issues/14/comments"
        },
        "commits": {
            "href": "https://api.github.com/repos/PrismarineJS/node-yggdrasil/pulls/14/commits"
        },
        "html": {
            "href": "https://github.com/PrismarineJS/node-yggdrasil/pull/14"
        },
        "issue": {
            "href": "https://api.github.com/repos/PrismarineJS/node-yggdrasil/issues/14"
        },
        "review_comment": {
            "href": "https://api.github.com/repos/PrismarineJS/node-yggdrasil/pulls/comments{/number}"
        },
        "review_comments": {
            "href": "https://api.github.com/repos/PrismarineJS/node-yggdrasil/pulls/14/comments"
        },
        "self": {
            "href": "https://api.github.com/repos/PrismarineJS/node-yggdrasil/pulls/14"
        },
        "statuses": {
            "href": "https://api.github.com/repos/PrismarineJS/node-yggdrasil/statuses/ab23b5296475bcf5bd2c7cd90f28778725d2ae96"
        }
    },
    "active_lock_reason": null,
    "additions": 74,
    "assignee": null,
    "assignees": [],
    "author_association": "CONTRIBUTOR",
    "auto_merge": null,
    "base": {
        "label": "PrismarineJS:master",
        "ref": "master",
        "repo": {
            "allow_forking": true,
            "archive_url": "https://api.github.com/repos/PrismarineJS/node-yggdrasil/{archive_format}{/ref}",
            "archived": false,
            "assignees_url": "https://api.github.com/repos/PrismarineJS/node-yggdrasil/assignees{/user}",
            "blobs_url": "https://api.github.com/repos/PrismarineJS/node-yggdrasil/git/blobs{/sha}",
            "branches_url": "https://api.github.com/repos/PrismarineJS/node-yggdrasil/branches{/branch}",
            "clone_url": "https://github.com/PrismarineJS/node-yggdrasil.git",
            "collaborators_url": "https://api.github.com/repos/PrismarineJS/node-yggdrasil/collaborators{/collaborator}",
            "comments_url": "https://api.github.com/repos/PrismarineJS/node-yggdrasil/comments{/number}",
            "commits_url": "https://api.github.com/repos/PrismarineJS/node-yggdrasil/commits{/sha}",
            "compare_url": "https://api.github.com/repos/PrismarineJS/node-yggdrasil/compare/{base}...{head}",
            "contents_url": "https://api.github.com/repos/PrismarineJS/node-yggdrasil/contents/{+path}",
            "contributors_url": "https://api.github.com/repos/PrismarineJS/node-yggdrasil/contributors",
            "created_at": "2014-03-16T05:26:59Z",
            "default_branch": "master",
            "deployments_url": "https://api.github.com/repos/PrismarineJS/node-yggdrasil/deployments",
            "description": "Node.js library to interact with Mojang's authentication system, known as Yggdrasil",
            "disabled": false,
            "downloads_url": "https://api.github.com/repos/PrismarineJS/node-yggdrasil/downloads",
            "events_url": "https://api.github.com/repos/PrismarineJS/node-yggdrasil/events",
            "fork": false,
            "forks": 27,
            "forks_count": 27,
            "forks_url": "https://api.github.com/repos/PrismarineJS/node-yggdrasil/forks",
            "full_name": "PrismarineJS/node-yggdrasil",
            "git_commits_url": "https://api.github.com/repos/PrismarineJS/node-yggdrasil/git/commits{/sha}",
            "git_refs_url": "https://api.github.com/repos/PrismarineJS/node-yggdrasil/git/refs{/sha}",
            "git_tags_url": "https://api.github.com/repos/PrismarineJS/node-yggdrasil/git/tags{/sha}",
            "git_url": "git://github.com/PrismarineJS/node-yggdrasil.git",
            "has_discussions": false,
            "has_downloads": true,
            "has_issues": true,
            "has_pages": false,
            "has_projects": true,
            "has_wiki": false,
            "homepage": "",
            "hooks_url": "https://api.github.com/repos/PrismarineJS/node-yggdrasil/hooks",
            "html_url": "https://github.com/PrismarineJS/node-yggdrasil",
            "id": 17792776,
            "is_template": false,
            "issue_comment_url": "https://api.github.com/repos/PrismarineJS/node-yggdrasil/issues/comments{/number}",
            "issue_events_url": "https://api.github.com/repos/PrismarineJS/node-yggdrasil/issues/events{/number}",
            "issues_url": "https://api.github.com/repos/PrismarineJS/node-yggdrasil/issues{/number}",
            "keys_url": "https://api.github.com/repos/PrismarineJS/node-yggdrasil/keys{/key_id}",
            "labels_url": "https://api.github.com/repos/PrismarineJS/node-yggdrasil/labels{/name}",
            "language": "JavaScript",
            "languages_url": "https://api.github.com/repos/PrismarineJS/node-yggdrasil/languages",
            "license": {
                "key": "other",
                "name": "Other",
                "node_id": "MDc6TGljZW5zZTA=",
                "spdx_id": "NOASSERTION",
                "url": null
            },
            "merges_url": "https://api.github.com/repos/PrismarineJS/node-yggdrasil/merges",
            "milestones_url": "https://api.github.com/repos/PrismarineJS/node-yggdrasil/milestones{/number}",
            "mirror_url": null,
            "name": "node-yggdrasil",
            "node_id": "MDEwOlJlcG9zaXRvcnkxNzc5Mjc3Ng==",
            "notifications_url": "https://api.github.com/repos/PrismarineJS/node-yggdrasil/notifications{?since,all,participating}",
            "open_issues": 4,
            "open_issues_count": 4,
            "owner": {
                "avatar_url": "https://avatars.githubusercontent.com/u/11053411?v=4",
                "events_url": "https://api.github.com/users/PrismarineJS/events{/privacy}",
                "followers_url": "https://api.github.com/users/PrismarineJS/followers",
                "following_url": "https://api.github.com/users/PrismarineJS/following{/other_user}",
                "gists_url": "https://api.github.com/users/PrismarineJS/gists{/gist_id}",
                "gravatar_id": "",
                "html_url": "https://github.com/PrismarineJS",
                "id": 11053411,
                "login": "PrismarineJS",
                "node_id": "MDEyOk9yZ2FuaXphdGlvbjExMDUzNDEx",
                "organizations_url": "https://api.github.com/users/PrismarineJS/orgs",
                "received_events_url": "https://api.github.com/users/PrismarineJS/received_events",
                "repos_url": "https://api.github.com/users/PrismarineJS/repos",
                "site_admin": false,
                "starred_url": "https://api.github.com/users/PrismarineJS/starred{/owner}{/repo}",
                "subscriptions_url": "https://api.github.com/users/PrismarineJS/subscriptions",
                "type": "Organization",
                "url": "https://api.github.com/users/PrismarineJS"
            },
            "private": false,
            "pulls_url": "https://api.github.com/repos/PrismarineJS/node-yggdrasil/pulls{/number}",
            "pushed_at": "2023-01-21T22:30:17Z",
            "releases_url": "https://api.github.com/repos/PrismarineJS/node-yggdrasil/releases{/id}",
            "size": 172,
            "ssh_url": "git@github.com:PrismarineJS/node-yggdrasil.git",
            "stargazers_count": 37,
            "stargazers_url": "https://api.github.com/repos/PrismarineJS/node-yggdrasil/stargazers",
            "statuses_url": "https://api.github.com/repos/PrismarineJS/node-yggdrasil/statuses/{sha}",
            "subscribers_url": "https://api.github.com/repos/PrismarineJS/node-yggdrasil/subscribers",
            "subscription_url": "https://api.github.com/repos/PrismarineJS/node-yggdrasil/subscription",
            "svn_url": "https://github.com/PrismarineJS/node-yggdrasil",
            "tags_url": "https://api.github.com/repos/PrismarineJS/node-yggdrasil/tags",
            "teams_url": "https://api.github.com/repos/PrismarineJS/node-yggdrasil/teams",
            "topics": [],
            "trees_url": "https://api.github.com/repos/PrismarineJS/node-yggdrasil/git/trees{/sha}",
            "updated_at": "2023-02-03T00:10:28Z",
            "url": "https://api.github.com/repos/PrismarineJS/node-yggdrasil",
            "visibility": "public",
            "watchers": 37,
            "watchers_count": 37,
            "web_commit_signoff_required": false
        },
        "sha": "a2095095026ec0942ed664c5e8c7df3efef5abdc",
        "user": {
            "avatar_url": "https://avatars.githubusercontent.com/u/11053411?v=4",
            "events_url": "https://api.github.com/users/PrismarineJS/events{/privacy}",
            "followers_url": "https://api.github.com/users/PrismarineJS/followers",
            "following_url": "https://api.github.com/users/PrismarineJS/following{/other_user}",
            "gists_url": "https://api.github.com/users/PrismarineJS/gists{/gist_id}",
            "gravatar_id": "",
            "html_url": "https://github.com/PrismarineJS",
            "id": 11053411,
            "login": "PrismarineJS",
            "node_id": "MDEyOk9yZ2FuaXphdGlvbjExMDUzNDEx",
            "organizations_url": "https://api.github.com/users/PrismarineJS/orgs",
            "received_events_url": "https://api.github.com/users/PrismarineJS/received_events",
            "repos_url": "https://api.github.com/users/PrismarineJS/repos",
            "site_admin": false,
            "starred_url": "https://api.github.com/users/PrismarineJS/starred{/owner}{/repo}",
            "subscriptions_url": "https://api.github.com/users/PrismarineJS/subscriptions",
            "type": "Organization",
            "url": "https://api.github.com/users/PrismarineJS"
        }
    },
    "body": "fix #12",
    "changed_files": 3,
    "closed_at": "2016-11-07T16:37:15Z",
    "comment_data": [],
    "comment_regular_data": [
        {
            "author_association": "MEMBER",
            "body": "looks good to me.\nHowever this contains breaking changes, so it should be released as a new major (so here that would be 0.2.0 or 1.0.0)\n",
            "created_at": "2016-11-07T13:26:32Z",
            "html_url": "https://github.com/PrismarineJS/node-yggdrasil/pull/14#issuecomment-258834662",
            "id": 258834662,
            "issue_url": "https://api.github.com/repos/PrismarineJS/node-yggdrasil/issues/14",
            "node_id": "MDEyOklzc3VlQ29tbWVudDI1ODgzNDY2Mg==",
            "performed_via_github_app": null,
            "reactions": {
                "+1": 0,
                "-1": 0,
                "confused": 0,
                "eyes": 0,
                "heart": 0,
                "hooray": 0,
                "laugh": 0,
                "rocket": 0,
                "total_count": 0,
                "url": "https://api.github.com/repos/PrismarineJS/node-yggdrasil/issues/comments/258834662/reactions"
            },
            "updated_at": "2016-11-07T13:26:32Z",
            "url": "https://api.github.com/repos/PrismarineJS/node-yggdrasil/issues/comments/258834662",
            "user": {
                "avatar_url": "https://avatars.githubusercontent.com/u/2346494?v=4",
                "events_url": "https://api.github.com/users/rom1504/events{/privacy}",
                "followers_url": "https://api.github.com/users/rom1504/followers",
                "following_url": "https://api.github.com/users/rom1504/following{/other_user}",
                "gists_url": "https://api.github.com/users/rom1504/gists{/gist_id}",
                "gravatar_id": "",
                "html_url": "https://github.com/rom1504",
                "id": 2346494,
                "login": "rom1504",
                "node_id": "MDQ6VXNlcjIzNDY0OTQ=",
                "organizations_url": "https://api.github.com/users/rom1504/orgs",
                "received_events_url": "https://api.github.com/users/rom1504/received_events",
                "repos_url": "https://api.github.com/users/rom1504/repos",
                "site_admin": false,
                "starred_url": "https://api.github.com/users/rom1504/starred{/owner}{/repo}",
                "subscriptions_url": "https://api.github.com/users/rom1504/subscriptions",
                "type": "User",
                "url": "https://api.github.com/users/rom1504"
            }
        }
    ],
    "comments": 1,
    "comments_url": "https://api.github.com/repos/PrismarineJS/node-yggdrasil/issues/14/comments",
    "commit_data": [
        {
            "author": {
                "avatar_url": "https://avatars.githubusercontent.com/u/30390234?v=4",
                "events_url": "https://api.github.com/users/Luminess/events{/privacy}",
                "followers_url": "https://api.github.com/users/Luminess/followers",
                "following_url": "https://api.github.com/users/Luminess/following{/other_user}",
                "gists_url": "https://api.github.com/users/Luminess/gists{/gist_id}",
                "gravatar_id": "",
                "html_url": "https://github.com/Luminess",
                "id": 30390234,
                "login": "Luminess",
                "node_id": "MDQ6VXNlcjMwMzkwMjM0",
                "organizations_url": "https://api.github.com/users/Luminess/orgs",
                "received_events_url": "https://api.github.com/users/Luminess/received_events",
                "repos_url": "https://api.github.com/users/Luminess/repos",
                "site_admin": false,
                "starred_url": "https://api.github.com/users/Luminess/starred{/owner}{/repo}",
                "subscriptions_url": "https://api.github.com/users/Luminess/subscriptions",
                "type": "User",
                "url": "https://api.github.com/users/Luminess"
            },
            "comments_url": "https://api.github.com/repos/PrismarineJS/node-yggdrasil/commits/d5f0882c4ce5033d464e8aa55db5f068f2320ff3/comments",
            "commit": {
                "author": {
                    "date": "2016-11-07T00:59:43Z",
                    "email": "Luminess@users.noreply.github.com",
                    "name": "Howard Nguyen"
                },
                "comment_count": 0,
                "committer": {
                    "date": "2016-11-07T01:18:12Z",
                    "email": "Luminess@users.noreply.github.com",
                    "name": "Howard Nguyen"
                },
                "message": "Wrapped callback error messages in Error objects",
                "tree": {
                    "sha": "f5b8a634cec6d02085f5bedeaf623a45e83074c7",
                    "url": "https://api.github.com/repos/PrismarineJS/node-yggdrasil/git/trees/f5b8a634cec6d02085f5bedeaf623a45e83074c7"
                },
                "url": "https://api.github.com/repos/PrismarineJS/node-yggdrasil/git/commits/d5f0882c4ce5033d464e8aa55db5f068f2320ff3",
                "verification": {
                    "payload": null,
                    "reason": "unsigned",
                    "signature": null,
                    "verified": false
                }
            },
            "committer": {
                "avatar_url": "https://avatars.githubusercontent.com/u/30390234?v=4",
                "events_url": "https://api.github.com/users/Luminess/events{/privacy}",
                "followers_url": "https://api.github.com/users/Luminess/followers",
                "following_url": "https://api.github.com/users/Luminess/following{/other_user}",
                "gists_url": "https://api.github.com/users/Luminess/gists{/gist_id}",
                "gravatar_id": "",
                "html_url": "https://github.com/Luminess",
                "id": 30390234,
                "login": "Luminess",
                "node_id": "MDQ6VXNlcjMwMzkwMjM0",
                "organizations_url": "https://api.github.com/users/Luminess/orgs",
                "received_events_url": "https://api.github.com/users/Luminess/received_events",
                "repos_url": "https://api.github.com/users/Luminess/repos",
                "site_admin": false,
                "starred_url": "https://api.github.com/users/Luminess/starred{/owner}{/repo}",
                "subscriptions_url": "https://api.github.com/users/Luminess/subscriptions",
                "type": "User",
                "url": "https://api.github.com/users/Luminess"
            },
            "html_url": "https://github.com/PrismarineJS/node-yggdrasil/commit/d5f0882c4ce5033d464e8aa55db5f068f2320ff3",
            "node_id": "MDY6Q29tbWl0NzI5NzUzMTI6ZDVmMDg4MmM0Y2U1MDMzZDQ2NGU4YWE1NWRiNWYwNjhmMjMyMGZmMw==",
            "parents": [
                {
                    "html_url": "https://github.com/PrismarineJS/node-yggdrasil/commit/7bcb06b21d9253fd00ac0d1a177e09116b2d7def",
                    "sha": "7bcb06b21d9253fd00ac0d1a177e09116b2d7def",
                    "url": "https://api.github.com/repos/PrismarineJS/node-yggdrasil/commits/7bcb06b21d9253fd00ac0d1a177e09116b2d7def"
                }
            ],
            "sha": "d5f0882c4ce5033d464e8aa55db5f068f2320ff3",
            "url": "https://api.github.com/repos/PrismarineJS/node-yggdrasil/commits/d5f0882c4ce5033d464e8aa55db5f068f2320ff3"
        },
        {
            "author": {
                "avatar_url": "https://avatars.githubusercontent.com/u/30390234?v=4",
                "events_url": "https://api.github.com/users/Luminess/events{/privacy}",
                "followers_url": "https://api.github.com/users/Luminess/followers",
                "following_url": "https://api.github.com/users/Luminess/following{/other_user}",
                "gists_url": "https://api.github.com/users/Luminess/gists{/gist_id}",
                "gravatar_id": "",
                "html_url": "https://github.com/Luminess",
                "id": 30390234,
                "login": "Luminess",
                "node_id": "MDQ6VXNlcjMwMzkwMjM0",
                "organizations_url": "https://api.github.com/users/Luminess/orgs",
                "received_events_url": "https://api.github.com/users/Luminess/received_events",
                "repos_url": "https://api.github.com/users/Luminess/repos",
                "site_admin": false,
                "starred_url": "https://api.github.com/users/Luminess/starred{/owner}{/repo}",
                "subscriptions_url": "https://api.github.com/users/Luminess/subscriptions",
                "type": "User",
                "url": "https://api.github.com/users/Luminess"
            },
            "comments_url": "https://api.github.com/repos/PrismarineJS/node-yggdrasil/commits/5362e06a63c0c8ce2cb41087e20d6b37834dfad2/comments",
            "commit": {
                "author": {
                    "date": "2016-11-07T01:20:00Z",
                    "email": "Luminess@users.noreply.github.com",
                    "name": "Howard Nguyen"
                },
                "comment_count": 0,
                "committer": {
                    "date": "2016-11-07T01:20:00Z",
                    "email": "Luminess@users.noreply.github.com",
                    "name": "Howard Nguyen"
                },
                "message": "Replace double-quotes with single-quotes",
                "tree": {
                    "sha": "385eae95954ebb331b143df7572eb0fd60b9a799",
                    "url": "https://api.github.com/repos/PrismarineJS/node-yggdrasil/git/trees/385eae95954ebb331b143df7572eb0fd60b9a799"
                },
                "url": "https://api.github.com/repos/PrismarineJS/node-yggdrasil/git/commits/5362e06a63c0c8ce2cb41087e20d6b37834dfad2",
                "verification": {
                    "payload": null,
                    "reason": "unsigned",
                    "signature": null,
                    "verified": false
                }
            },
            "committer": {
                "avatar_url": "https://avatars.githubusercontent.com/u/30390234?v=4",
                "events_url": "https://api.github.com/users/Luminess/events{/privacy}",
                "followers_url": "https://api.github.com/users/Luminess/followers",
                "following_url": "https://api.github.com/users/Luminess/following{/other_user}",
                "gists_url": "https://api.github.com/users/Luminess/gists{/gist_id}",
                "gravatar_id": "",
                "html_url": "https://github.com/Luminess",
                "id": 30390234,
                "login": "Luminess",
                "node_id": "MDQ6VXNlcjMwMzkwMjM0",
                "organizations_url": "https://api.github.com/users/Luminess/orgs",
                "received_events_url": "https://api.github.com/users/Luminess/received_events",
                "repos_url": "https://api.github.com/users/Luminess/repos",
                "site_admin": false,
                "starred_url": "https://api.github.com/users/Luminess/starred{/owner}{/repo}",
                "subscriptions_url": "https://api.github.com/users/Luminess/subscriptions",
                "type": "User",
                "url": "https://api.github.com/users/Luminess"
            },
            "html_url": "https://github.com/PrismarineJS/node-yggdrasil/commit/5362e06a63c0c8ce2cb41087e20d6b37834dfad2",
            "node_id": "MDY6Q29tbWl0NzI5NzUzMTI6NTM2MmUwNmE2M2MwYzhjZTJjYjQxMDg3ZTIwZDZiMzc4MzRkZmFkMg==",
            "parents": [
                {
                    "html_url": "https://github.com/PrismarineJS/node-yggdrasil/commit/d5f0882c4ce5033d464e8aa55db5f068f2320ff3",
                    "sha": "d5f0882c4ce5033d464e8aa55db5f068f2320ff3",
                    "url": "https://api.github.com/repos/PrismarineJS/node-yggdrasil/commits/d5f0882c4ce5033d464e8aa55db5f068f2320ff3"
                }
            ],
            "sha": "5362e06a63c0c8ce2cb41087e20d6b37834dfad2",
            "url": "https://api.github.com/repos/PrismarineJS/node-yggdrasil/commits/5362e06a63c0c8ce2cb41087e20d6b37834dfad2"
        },
        {
            "author": {
                "avatar_url": "https://avatars.githubusercontent.com/u/30390234?v=4",
                "events_url": "https://api.github.com/users/Luminess/events{/privacy}",
                "followers_url": "https://api.github.com/users/Luminess/followers",
                "following_url": "https://api.github.com/users/Luminess/following{/other_user}",
                "gists_url": "https://api.github.com/users/Luminess/gists{/gist_id}",
                "gravatar_id": "",
                "html_url": "https://github.com/Luminess",
                "id": 30390234,
                "login": "Luminess",
                "node_id": "MDQ6VXNlcjMwMzkwMjM0",
                "organizations_url": "https://api.github.com/users/Luminess/orgs",
                "received_events_url": "https://api.github.com/users/Luminess/received_events",
                "repos_url": "https://api.github.com/users/Luminess/repos",
                "site_admin": false,
                "starred_url": "https://api.github.com/users/Luminess/starred{/owner}{/repo}",
                "subscriptions_url": "https://api.github.com/users/Luminess/subscriptions",
                "type": "User",
                "url": "https://api.github.com/users/Luminess"
            },
            "comments_url": "https://api.github.com/repos/PrismarineJS/node-yggdrasil/commits/8c79ca6a9222908af2a081f238942d4dfd057299/comments",
            "commit": {
                "author": {
                    "date": "2016-11-07T01:30:10Z",
                    "email": "Luminess@users.noreply.github.com",
                    "name": "Howard Nguyen"
                },
                "comment_count": 0,
                "committer": {
                    "date": "2016-11-07T01:32:14Z",
                    "email": "Luminess@users.noreply.github.com",
                    "name": "Howard Nguyen"
                },
                "message": "Redo callback errors",
                "tree": {
                    "sha": "d7799169830f31c6cb2a724f2bba816fb3e2c8a9",
                    "url": "https://api.github.com/repos/PrismarineJS/node-yggdrasil/git/trees/d7799169830f31c6cb2a724f2bba816fb3e2c8a9"
                },
                "url": "https://api.github.com/repos/PrismarineJS/node-yggdrasil/git/commits/8c79ca6a9222908af2a081f238942d4dfd057299",
                "verification": {
                    "payload": null,
                    "reason": "unsigned",
                    "signature": null,
                    "verified": false
                }
            },
            "committer": {
                "avatar_url": "https://avatars.githubusercontent.com/u/30390234?v=4",
                "events_url": "https://api.github.com/users/Luminess/events{/privacy}",
                "followers_url": "https://api.github.com/users/Luminess/followers",
                "following_url": "https://api.github.com/users/Luminess/following{/other_user}",
                "gists_url": "https://api.github.com/users/Luminess/gists{/gist_id}",
                "gravatar_id": "",
                "html_url": "https://github.com/Luminess",
                "id": 30390234,
                "login": "Luminess",
                "node_id": "MDQ6VXNlcjMwMzkwMjM0",
                "organizations_url": "https://api.github.com/users/Luminess/orgs",
                "received_events_url": "https://api.github.com/users/Luminess/received_events",
                "repos_url": "https://api.github.com/users/Luminess/repos",
                "site_admin": false,
                "starred_url": "https://api.github.com/users/Luminess/starred{/owner}{/repo}",
                "subscriptions_url": "https://api.github.com/users/Luminess/subscriptions",
                "type": "User",
                "url": "https://api.github.com/users/Luminess"
            },
            "html_url": "https://github.com/PrismarineJS/node-yggdrasil/commit/8c79ca6a9222908af2a081f238942d4dfd057299",
            "node_id": "MDY6Q29tbWl0NzI5NzUzMTI6OGM3OWNhNmE5MjIyOTA4YWYyYTA4MWYyMzg5NDJkNGRmZDA1NzI5OQ==",
            "parents": [
                {
                    "html_url": "https://github.com/PrismarineJS/node-yggdrasil/commit/5362e06a63c0c8ce2cb41087e20d6b37834dfad2",
                    "sha": "5362e06a63c0c8ce2cb41087e20d6b37834dfad2",
                    "url": "https://api.github.com/repos/PrismarineJS/node-yggdrasil/commits/5362e06a63c0c8ce2cb41087e20d6b37834dfad2"
                }
            ],
            "sha": "8c79ca6a9222908af2a081f238942d4dfd057299",
            "url": "https://api.github.com/repos/PrismarineJS/node-yggdrasil/commits/8c79ca6a9222908af2a081f238942d4dfd057299"
        },
        {
            "author": {
                "avatar_url": "https://avatars.githubusercontent.com/u/30390234?v=4",
                "events_url": "https://api.github.com/users/Luminess/events{/privacy}",
                "followers_url": "https://api.github.com/users/Luminess/followers",
                "following_url": "https://api.github.com/users/Luminess/following{/other_user}",
                "gists_url": "https://api.github.com/users/Luminess/gists{/gist_id}",
                "gravatar_id": "",
                "html_url": "https://github.com/Luminess",
                "id": 30390234,
                "login": "Luminess",
                "node_id": "MDQ6VXNlcjMwMzkwMjM0",
                "organizations_url": "https://api.github.com/users/Luminess/orgs",
                "received_events_url": "https://api.github.com/users/Luminess/received_events",
                "repos_url": "https://api.github.com/users/Luminess/repos",
                "site_admin": false,
                "starred_url": "https://api.github.com/users/Luminess/starred{/owner}{/repo}",
                "subscriptions_url": "https://api.github.com/users/Luminess/subscriptions",
                "type": "User",
                "url": "https://api.github.com/users/Luminess"
            },
            "comments_url": "https://api.github.com/repos/PrismarineJS/node-yggdrasil/commits/ab23b5296475bcf5bd2c7cd90f28778725d2ae96/comments",
            "commit": {
                "author": {
                    "date": "2016-11-07T01:49:00Z",
                    "email": "Luminess@users.noreply.github.com",
                    "name": "Howard Nguyen"
                },
                "comment_count": 0,
                "committer": {
                    "date": "2016-11-07T01:49:00Z",
                    "email": "Luminess@users.noreply.github.com",
                    "name": "Howard Nguyen"
                },
                "message": "Update documentation",
                "tree": {
                    "sha": "59ce172ed9870a2bb5cd53acff1ea27fcef23808",
                    "url": "https://api.github.com/repos/PrismarineJS/node-yggdrasil/git/trees/59ce172ed9870a2bb5cd53acff1ea27fcef23808"
                },
                "url": "https://api.github.com/repos/PrismarineJS/node-yggdrasil/git/commits/ab23b5296475bcf5bd2c7cd90f28778725d2ae96",
                "verification": {
                    "payload": null,
                    "reason": "unsigned",
                    "signature": null,
                    "verified": false
                }
            },
            "committer": {
                "avatar_url": "https://avatars.githubusercontent.com/u/30390234?v=4",
                "events_url": "https://api.github.com/users/Luminess/events{/privacy}",
                "followers_url": "https://api.github.com/users/Luminess/followers",
                "following_url": "https://api.github.com/users/Luminess/following{/other_user}",
                "gists_url": "https://api.github.com/users/Luminess/gists{/gist_id}",
                "gravatar_id": "",
                "html_url": "https://github.com/Luminess",
                "id": 30390234,
                "login": "Luminess",
                "node_id": "MDQ6VXNlcjMwMzkwMjM0",
                "organizations_url": "https://api.github.com/users/Luminess/orgs",
                "received_events_url": "https://api.github.com/users/Luminess/received_events",
                "repos_url": "https://api.github.com/users/Luminess/repos",
                "site_admin": false,
                "starred_url": "https://api.github.com/users/Luminess/starred{/owner}{/repo}",
                "subscriptions_url": "https://api.github.com/users/Luminess/subscriptions",
                "type": "User",
                "url": "https://api.github.com/users/Luminess"
            },
            "html_url": "https://github.com/PrismarineJS/node-yggdrasil/commit/ab23b5296475bcf5bd2c7cd90f28778725d2ae96",
            "node_id": "MDY6Q29tbWl0NzI5NzUzMTI6YWIyM2I1Mjk2NDc1YmNmNWJkMmM3Y2Q5MGYyODc3ODcyNWQyYWU5Ng==",
            "parents": [
                {
                    "html_url": "https://github.com/PrismarineJS/node-yggdrasil/commit/8c79ca6a9222908af2a081f238942d4dfd057299",
                    "sha": "8c79ca6a9222908af2a081f238942d4dfd057299",
                    "url": "https://api.github.com/repos/PrismarineJS/node-yggdrasil/commits/8c79ca6a9222908af2a081f238942d4dfd057299"
                }
            ],
            "sha": "ab23b5296475bcf5bd2c7cd90f28778725d2ae96",
            "url": "https://api.github.com/repos/PrismarineJS/node-yggdrasil/commits/ab23b5296475bcf5bd2c7cd90f28778725d2ae96"
        }
    ],
    "commits": 4,
    "commits_url": "https://api.github.com/repos/PrismarineJS/node-yggdrasil/pulls/14/commits",
    "created_at": "2016-11-07T01:34:15Z",
    "deletions": 74,
    "diff_url": "https://github.com/PrismarineJS/node-yggdrasil/pull/14.diff",
    "draft": false,
    "head": {
        "label": "LuminescentMoon:master",
        "ref": "master",
        "repo": {
            "allow_forking": true,
            "archive_url": "https://api.github.com/repos/LuminescentMoon/node-yggdrasil/{archive_format}{/ref}",
            "archived": false,
            "assignees_url": "https://api.github.com/repos/LuminescentMoon/node-yggdrasil/assignees{/user}",
            "blobs_url": "https://api.github.com/repos/LuminescentMoon/node-yggdrasil/git/blobs{/sha}",
            "branches_url": "https://api.github.com/repos/LuminescentMoon/node-yggdrasil/branches{/branch}",
            "clone_url": "https://github.com/LuminescentMoon/node-yggdrasil.git",
            "collaborators_url": "https://api.github.com/repos/LuminescentMoon/node-yggdrasil/collaborators{/collaborator}",
            "comments_url": "https://api.github.com/repos/LuminescentMoon/node-yggdrasil/comments{/number}",
            "commits_url": "https://api.github.com/repos/LuminescentMoon/node-yggdrasil/commits{/sha}",
            "compare_url": "https://api.github.com/repos/LuminescentMoon/node-yggdrasil/compare/{base}...{head}",
            "contents_url": "https://api.github.com/repos/LuminescentMoon/node-yggdrasil/contents/{+path}",
            "contributors_url": "https://api.github.com/repos/LuminescentMoon/node-yggdrasil/contributors",
            "created_at": "2016-11-06T07:00:38Z",
            "default_branch": "master",
            "deployments_url": "https://api.github.com/repos/LuminescentMoon/node-yggdrasil/deployments",
            "description": "Node.js library to interact with Mojang's authentication system, known as Yggdrasil",
            "disabled": false,
            "downloads_url": "https://api.github.com/repos/LuminescentMoon/node-yggdrasil/downloads",
            "events_url": "https://api.github.com/repos/LuminescentMoon/node-yggdrasil/events",
            "fork": true,
            "forks": 0,
            "forks_count": 0,
            "forks_url": "https://api.github.com/repos/LuminescentMoon/node-yggdrasil/forks",
            "full_name": "LuminescentMoon/node-yggdrasil",
            "git_commits_url": "https://api.github.com/repos/LuminescentMoon/node-yggdrasil/git/commits{/sha}",
            "git_refs_url": "https://api.github.com/repos/LuminescentMoon/node-yggdrasil/git/refs{/sha}",
            "git_tags_url": "https://api.github.com/repos/LuminescentMoon/node-yggdrasil/git/tags{/sha}",
            "git_url": "git://github.com/LuminescentMoon/node-yggdrasil.git",
            "has_discussions": false,
            "has_downloads": true,
            "has_issues": false,
            "has_pages": false,
            "has_projects": true,
            "has_wiki": true,
            "homepage": "",
            "hooks_url": "https://api.github.com/repos/LuminescentMoon/node-yggdrasil/hooks",
            "html_url": "https://github.com/LuminescentMoon/node-yggdrasil",
            "id": 72975312,
            "is_template": false,
            "issue_comment_url": "https://api.github.com/repos/LuminescentMoon/node-yggdrasil/issues/comments{/number}",
            "issue_events_url": "https://api.github.com/repos/LuminescentMoon/node-yggdrasil/issues/events{/number}",
            "issues_url": "https://api.github.com/repos/LuminescentMoon/node-yggdrasil/issues{/number}",
            "keys_url": "https://api.github.com/repos/LuminescentMoon/node-yggdrasil/keys{/key_id}",
            "labels_url": "https://api.github.com/repos/LuminescentMoon/node-yggdrasil/labels{/name}",
            "language": "JavaScript",
            "languages_url": "https://api.github.com/repos/LuminescentMoon/node-yggdrasil/languages",
            "license": {
                "key": "other",
                "name": "Other",
                "node_id": "MDc6TGljZW5zZTA=",
                "spdx_id": "NOASSERTION",
                "url": null
            },
            "merges_url": "https://api.github.com/repos/LuminescentMoon/node-yggdrasil/merges",
            "milestones_url": "https://api.github.com/repos/LuminescentMoon/node-yggdrasil/milestones{/number}",
            "mirror_url": null,
            "name": "node-yggdrasil",
            "node_id": "MDEwOlJlcG9zaXRvcnk3Mjk3NTMxMg==",
            "notifications_url": "https://api.github.com/repos/LuminescentMoon/node-yggdrasil/notifications{?since,all,participating}",
            "open_issues": 0,
            "open_issues_count": 0,
            "owner": {
                "avatar_url": "https://avatars.githubusercontent.com/u/6457338?v=4",
                "events_url": "https://api.github.com/users/LuminescentMoon/events{/privacy}",
                "followers_url": "https://api.github.com/users/LuminescentMoon/followers",
                "following_url": "https://api.github.com/users/LuminescentMoon/following{/other_user}",
                "gists_url": "https://api.github.com/users/LuminescentMoon/gists{/gist_id}",
                "gravatar_id": "",
                "html_url": "https://github.com/LuminescentMoon",
                "id": 6457338,
                "login": "LuminescentMoon",
                "node_id": "MDQ6VXNlcjY0NTczMzg=",
                "organizations_url": "https://api.github.com/users/LuminescentMoon/orgs",
                "received_events_url": "https://api.github.com/users/LuminescentMoon/received_events",
                "repos_url": "https://api.github.com/users/LuminescentMoon/repos",
                "site_admin": false,
                "starred_url": "https://api.github.com/users/LuminescentMoon/starred{/owner}{/repo}",
                "subscriptions_url": "https://api.github.com/users/LuminescentMoon/subscriptions",
                "type": "User",
                "url": "https://api.github.com/users/LuminescentMoon"
            },
            "private": false,
            "pulls_url": "https://api.github.com/repos/LuminescentMoon/node-yggdrasil/pulls{/number}",
            "pushed_at": "2017-01-25T07:38:01Z",
            "releases_url": "https://api.github.com/repos/LuminescentMoon/node-yggdrasil/releases{/id}",
            "size": 51,
            "ssh_url": "git@github.com:LuminescentMoon/node-yggdrasil.git",
            "stargazers_count": 0,
            "stargazers_url": "https://api.github.com/repos/LuminescentMoon/node-yggdrasil/stargazers",
            "statuses_url": "https://api.github.com/repos/LuminescentMoon/node-yggdrasil/statuses/{sha}",
            "subscribers_url": "https://api.github.com/repos/LuminescentMoon/node-yggdrasil/subscribers",
            "subscription_url": "https://api.github.com/repos/LuminescentMoon/node-yggdrasil/subscription",
            "svn_url": "https://github.com/LuminescentMoon/node-yggdrasil",
            "tags_url": "https://api.github.com/repos/LuminescentMoon/node-yggdrasil/tags",
            "teams_url": "https://api.github.com/repos/LuminescentMoon/node-yggdrasil/teams",
            "topics": [],
            "trees_url": "https://api.github.com/repos/LuminescentMoon/node-yggdrasil/git/trees{/sha}",
            "updated_at": "2020-02-01T17:58:44Z",
            "url": "https://api.github.com/repos/LuminescentMoon/node-yggdrasil",
            "visibility": "public",
            "watchers": 0,
            "watchers_count": 0,
            "web_commit_signoff_required": false
        },
        "sha": "ab23b5296475bcf5bd2c7cd90f28778725d2ae96",
        "user": {
            "avatar_url": "https://avatars.githubusercontent.com/u/6457338?v=4",
            "events_url": "https://api.github.com/users/LuminescentMoon/events{/privacy}",
            "followers_url": "https://api.github.com/users/LuminescentMoon/followers",
            "following_url": "https://api.github.com/users/LuminescentMoon/following{/other_user}",
            "gists_url": "https://api.github.com/users/LuminescentMoon/gists{/gist_id}",
            "gravatar_id": "",
            "html_url": "https://github.com/LuminescentMoon",
            "id": 6457338,
            "login": "LuminescentMoon",
            "node_id": "MDQ6VXNlcjY0NTczMzg=",
            "organizations_url": "https://api.github.com/users/LuminescentMoon/orgs",
            "received_events_url": "https://api.github.com/users/LuminescentMoon/received_events",
            "repos_url": "https://api.github.com/users/LuminescentMoon/repos",
            "site_admin": false,
            "starred_url": "https://api.github.com/users/LuminescentMoon/starred{/owner}{/repo}",
            "subscriptions_url": "https://api.github.com/users/LuminescentMoon/subscriptions",
            "type": "User",
            "url": "https://api.github.com/users/LuminescentMoon"
        }
    },
    "html_url": "https://github.com/PrismarineJS/node-yggdrasil/pull/14",
    "id": 92512525,
    "issue_url": "https://api.github.com/repos/PrismarineJS/node-yggdrasil/issues/14",
    "labels": [],
    "locked": false,
    "maintainer_can_modify": false,
    "merge_commit_sha": "c431b4e6dd69f09613f6f9dc9833624eb2875cdb",
    "mergeable": null,
    "mergeable_state": "unknown",
    "merged": true,
    "merged_at": "2016-11-07T16:37:15Z",
    "merged_by": {
        "avatar_url": "https://avatars.githubusercontent.com/u/965509?v=4",
        "events_url": "https://api.github.com/users/zekesonxx/events{/privacy}",
        "followers_url": "https://api.github.com/users/zekesonxx/followers",
        "following_url": "https://api.github.com/users/zekesonxx/following{/other_user}",
        "gists_url": "https://api.github.com/users/zekesonxx/gists{/gist_id}",
        "gravatar_id": "",
        "html_url": "https://github.com/zekesonxx",
        "id": 965509,
        "login": "zekesonxx",
        "node_id": "MDQ6VXNlcjk2NTUwOQ==",
        "organizations_url": "https://api.github.com/users/zekesonxx/orgs",
        "received_events_url": "https://api.github.com/users/zekesonxx/received_events",
        "repos_url": "https://api.github.com/users/zekesonxx/repos",
        "site_admin": false,
        "starred_url": "https://api.github.com/users/zekesonxx/starred{/owner}{/repo}",
        "subscriptions_url": "https://api.github.com/users/zekesonxx/subscriptions",
        "type": "User",
        "url": "https://api.github.com/users/zekesonxx"
    },
    "milestone": null,
    "node_id": "MDExOlB1bGxSZXF1ZXN0OTI1MTI1MjU=",
    "number": 14,
    "patch_url": "https://github.com/PrismarineJS/node-yggdrasil/pull/14.patch",
    "rebaseable": null,
    "requested_reviewers": [],
    "requested_teams": [],
    "review_comment_url": "https://api.github.com/repos/PrismarineJS/node-yggdrasil/pulls/comments{/number}",
    "review_comments": 0,
    "review_comments_url": "https://api.github.com/repos/PrismarineJS/node-yggdrasil/pulls/14/comments",
    "state": "closed",
    "statuses_url": "https://api.github.com/repos/PrismarineJS/node-yggdrasil/statuses/ab23b5296475bcf5bd2c7cd90f28778725d2ae96",
    "title": "fix #12",
    "updated_at": "2016-11-07T16:37:15Z",
    "url": "https://api.github.com/repos/PrismarineJS/node-yggdrasil/pulls/14",
    "user": {
        "avatar_url": "https://avatars.githubusercontent.com/u/6457338?v=4",
        "events_url": "https://api.github.com/users/LuminescentMoon/events{/privacy}",
        "followers_url": "https://api.github.com/users/LuminescentMoon/followers",
        "following_url": "https://api.github.com/users/LuminescentMoon/following{/other_user}",
        "gists_url": "https://api.github.com/users/LuminescentMoon/gists{/gist_id}",
        "gravatar_id": "",
        "html_url": "https://github.com/LuminescentMoon",
        "id": 6457338,
        "login": "LuminescentMoon",
        "node_id": "MDQ6VXNlcjY0NTczMzg=",
        "organizations_url": "https://api.github.com/users/LuminescentMoon/orgs",
        "received_events_url": "https://api.github.com/users/LuminescentMoon/received_events",
        "repos_url": "https://api.github.com/users/LuminescentMoon/repos",
        "site_admin": false,
        "starred_url": "https://api.github.com/users/LuminescentMoon/starred{/owner}{/repo}",
        "subscriptions_url": "https://api.github.com/users/LuminescentMoon/subscriptions",
        "type": "User",
        "url": "https://api.github.com/users/LuminescentMoon"
    }
}