{
    "active_lock_reason": null,
    "assignee": null,
    "assignees": [],
    "author_association": "NONE",
    "body": "When any link is clicked (such as Minecraft data), the requested data is not shown on the site. A blank page is shown instead.",
    "closed_at": null,
    "comment_data": [
        {
            "author_association": "MEMBER",
            "body": "We could probably deploy a simple static HTML website instead here. Right now there is React with routing + PWA. As each project generally has its own pages so there's not really the need for a super single page website.",
            "created_at": "2024-03-31T20:55:58Z",
            "html_url": "https://github.com/PrismarineJS/prismarinejs.github.io/issues/76#issuecomment-2028902750",
            "id": 2028902750,
            "issue_url": "https://api.github.com/repos/PrismarineJS/prismarinejs.github.io/issues/76",
            "node_id": "IC_kwDOAdybds547ple",
            "performed_via_github_app": null,
            "reactions": {
                "+1": 0,
                "-1": 0,
                "confused": 0,
                "eyes": 0,
                "heart": 0,
                "hooray": 0,
                "laugh": 0,
                "rocket": 0,
                "total_count": 0,
                "url": "https://api.github.com/repos/PrismarineJS/prismarinejs.github.io/issues/comments/2028902750/reactions"
            },
            "updated_at": "2024-03-31T20:55:58Z",
            "url": "https://api.github.com/repos/PrismarineJS/prismarinejs.github.io/issues/comments/2028902750",
            "user": {
                "avatar_url": "https://avatars.githubusercontent.com/u/13713600?v=4",
                "events_url": "https://api.github.com/users/extremeheat/events{/privacy}",
                "followers_url": "https://api.github.com/users/extremeheat/followers",
                "following_url": "https://api.github.com/users/extremeheat/following{/other_user}",
                "gists_url": "https://api.github.com/users/extremeheat/gists{/gist_id}",
                "gravatar_id": "",
                "html_url": "https://github.com/extremeheat",
                "id": 13713600,
                "login": "extremeheat",
                "node_id": "MDQ6VXNlcjEzNzEzNjAw",
                "organizations_url": "https://api.github.com/users/extremeheat/orgs",
                "received_events_url": "https://api.github.com/users/extremeheat/received_events",
                "repos_url": "https://api.github.com/users/extremeheat/repos",
                "site_admin": false,
                "starred_url": "https://api.github.com/users/extremeheat/starred{/owner}{/repo}",
                "subscriptions_url": "https://api.github.com/users/extremeheat/subscriptions",
                "type": "User",
                "url": "https://api.github.com/users/extremeheat"
            }
        },
        {
            "author_association": "MEMBER",
            "body": "But I guess since the infra is already here may as well keep it. Removing the manifest.json should fix the blank page issues.",
            "created_at": "2024-03-31T20:56:40Z",
            "html_url": "https://github.com/PrismarineJS/prismarinejs.github.io/issues/76#issuecomment-2028902934",
            "id": 2028902934,
            "issue_url": "https://api.github.com/repos/PrismarineJS/prismarinejs.github.io/issues/76",
            "node_id": "IC_kwDOAdybds547poW",
            "performed_via_github_app": null,
            "reactions": {
                "+1": 0,
                "-1": 0,
                "confused": 0,
                "eyes": 0,
                "heart": 0,
                "hooray": 0,
                "laugh": 0,
                "rocket": 0,
                "total_count": 0,
                "url": "https://api.github.com/repos/PrismarineJS/prismarinejs.github.io/issues/comments/2028902934/reactions"
            },
            "updated_at": "2024-03-31T20:56:40Z",
            "url": "https://api.github.com/repos/PrismarineJS/prismarinejs.github.io/issues/comments/2028902934",
            "user": {
                "avatar_url": "https://avatars.githubusercontent.com/u/13713600?v=4",
                "events_url": "https://api.github.com/users/extremeheat/events{/privacy}",
                "followers_url": "https://api.github.com/users/extremeheat/followers",
                "following_url": "https://api.github.com/users/extremeheat/following{/other_user}",
                "gists_url": "https://api.github.com/users/extremeheat/gists{/gist_id}",
                "gravatar_id": "",
                "html_url": "https://github.com/extremeheat",
                "id": 13713600,
                "login": "extremeheat",
                "node_id": "MDQ6VXNlcjEzNzEzNjAw",
                "organizations_url": "https://api.github.com/users/extremeheat/orgs",
                "received_events_url": "https://api.github.com/users/extremeheat/received_events",
                "repos_url": "https://api.github.com/users/extremeheat/repos",
                "site_admin": false,
                "starred_url": "https://api.github.com/users/extremeheat/starred{/owner}{/repo}",
                "subscriptions_url": "https://api.github.com/users/extremeheat/subscriptions",
                "type": "User",
                "url": "https://api.github.com/users/extremeheat"
            }
        }
    ],
    "comments": 2,
    "comments_url": "https://api.github.com/repos/PrismarineJS/prismarinejs.github.io/issues/76/comments",
    "created_at": "2024-03-31T16:11:21Z",
    "event_data": [],
    "events_url": "https://api.github.com/repos/PrismarineJS/prismarinejs.github.io/issues/76/events",
    "html_url": "https://github.com/PrismarineJS/prismarinejs.github.io/issues/76",
    "id": 2217064467,
    "labels": [],
    "labels_url": "https://api.github.com/repos/PrismarineJS/prismarinejs.github.io/issues/76/labels{/name}",
    "locked": false,
    "milestone": null,
    "node_id": "I_kwDOAdybds6EJbgT",
    "number": 76,
    "performed_via_github_app": null,
    "reactions": {
        "+1": 0,
        "-1": 0,
        "confused": 0,
        "eyes": 0,
        "heart": 0,
        "hooray": 0,
        "laugh": 0,
        "rocket": 0,
        "total_count": 0,
        "url": "https://api.github.com/repos/PrismarineJS/prismarinejs.github.io/issues/76/reactions"
    },
    "repository_url": "https://api.github.com/repos/PrismarineJS/prismarinejs.github.io",
    "state": "open",
    "state_reason": null,
    "timeline_url": "https://api.github.com/repos/PrismarineJS/prismarinejs.github.io/issues/76/timeline",
    "title": "Data Not Loaded On Site",
    "updated_at": "2024-03-31T20:56:41Z",
    "url": "https://api.github.com/repos/PrismarineJS/prismarinejs.github.io/issues/76",
    "user": {
        "avatar_url": "https://avatars.githubusercontent.com/u/65626245?v=4",
        "events_url": "https://api.github.com/users/SplitterBlue/events{/privacy}",
        "followers_url": "https://api.github.com/users/SplitterBlue/followers",
        "following_url": "https://api.github.com/users/SplitterBlue/following{/other_user}",
        "gists_url": "https://api.github.com/users/SplitterBlue/gists{/gist_id}",
        "gravatar_id": "",
        "html_url": "https://github.com/SplitterBlue",
        "id": 65626245,
        "login": "SplitterBlue",
        "node_id": "MDQ6VXNlcjY1NjI2MjQ1",
        "organizations_url": "https://api.github.com/users/SplitterBlue/orgs",
        "received_events_url": "https://api.github.com/users/SplitterBlue/received_events",
        "repos_url": "https://api.github.com/users/SplitterBlue/repos",
        "site_admin": false,
        "starred_url": "https://api.github.com/users/SplitterBlue/starred{/owner}{/repo}",
        "subscriptions_url": "https://api.github.com/users/SplitterBlue/subscriptions",
        "type": "User",
        "url": "https://api.github.com/users/SplitterBlue"
    }
}