{
    "_links": {
        "comments": {
            "href": "https://api.github.com/repos/PrismarineJS/minecraft-wiki-extractor/issues/33/comments"
        },
        "commits": {
            "href": "https://api.github.com/repos/PrismarineJS/minecraft-wiki-extractor/pulls/33/commits"
        },
        "html": {
            "href": "https://github.com/PrismarineJS/minecraft-wiki-extractor/pull/33"
        },
        "issue": {
            "href": "https://api.github.com/repos/PrismarineJS/minecraft-wiki-extractor/issues/33"
        },
        "review_comment": {
            "href": "https://api.github.com/repos/PrismarineJS/minecraft-wiki-extractor/pulls/comments{/number}"
        },
        "review_comments": {
            "href": "https://api.github.com/repos/PrismarineJS/minecraft-wiki-extractor/pulls/33/comments"
        },
        "self": {
            "href": "https://api.github.com/repos/PrismarineJS/minecraft-wiki-extractor/pulls/33"
        },
        "statuses": {
            "href": "https://api.github.com/repos/PrismarineJS/minecraft-wiki-extractor/statuses/894ab08007ea9bbf638fcea7a9260faa4d93b09c"
        }
    },
    "active_lock_reason": null,
    "additions": 127,
    "assignee": null,
    "assignees": [],
    "author_association": "CONTRIBUTOR",
    "auto_merge": null,
    "base": {
        "label": "PrismarineJS:master",
        "ref": "master",
        "repo": {
            "allow_forking": true,
            "archive_url": "https://api.github.com/repos/PrismarineJS/minecraft-wiki-extractor/{archive_format}{/ref}",
            "archived": false,
            "assignees_url": "https://api.github.com/repos/PrismarineJS/minecraft-wiki-extractor/assignees{/user}",
            "blobs_url": "https://api.github.com/repos/PrismarineJS/minecraft-wiki-extractor/git/blobs{/sha}",
            "branches_url": "https://api.github.com/repos/PrismarineJS/minecraft-wiki-extractor/branches{/branch}",
            "clone_url": "https://github.com/PrismarineJS/minecraft-wiki-extractor.git",
            "collaborators_url": "https://api.github.com/repos/PrismarineJS/minecraft-wiki-extractor/collaborators{/collaborator}",
            "comments_url": "https://api.github.com/repos/PrismarineJS/minecraft-wiki-extractor/comments{/number}",
            "commits_url": "https://api.github.com/repos/PrismarineJS/minecraft-wiki-extractor/commits{/sha}",
            "compare_url": "https://api.github.com/repos/PrismarineJS/minecraft-wiki-extractor/compare/{base}...{head}",
            "contents_url": "https://api.github.com/repos/PrismarineJS/minecraft-wiki-extractor/contents/{+path}",
            "contributors_url": "https://api.github.com/repos/PrismarineJS/minecraft-wiki-extractor/contributors",
            "created_at": "2015-10-06T22:29:20Z",
            "default_branch": "master",
            "deployments_url": "https://api.github.com/repos/PrismarineJS/minecraft-wiki-extractor/deployments",
            "description": "Extract structured data from the minecraft wiki",
            "disabled": false,
            "downloads_url": "https://api.github.com/repos/PrismarineJS/minecraft-wiki-extractor/downloads",
            "events_url": "https://api.github.com/repos/PrismarineJS/minecraft-wiki-extractor/events",
            "fork": false,
            "forks": 7,
            "forks_count": 7,
            "forks_url": "https://api.github.com/repos/PrismarineJS/minecraft-wiki-extractor/forks",
            "full_name": "PrismarineJS/minecraft-wiki-extractor",
            "git_commits_url": "https://api.github.com/repos/PrismarineJS/minecraft-wiki-extractor/git/commits{/sha}",
            "git_refs_url": "https://api.github.com/repos/PrismarineJS/minecraft-wiki-extractor/git/refs{/sha}",
            "git_tags_url": "https://api.github.com/repos/PrismarineJS/minecraft-wiki-extractor/git/tags{/sha}",
            "git_url": "git://github.com/PrismarineJS/minecraft-wiki-extractor.git",
            "has_discussions": false,
            "has_downloads": true,
            "has_issues": true,
            "has_pages": false,
            "has_projects": true,
            "has_wiki": true,
            "homepage": null,
            "hooks_url": "https://api.github.com/repos/PrismarineJS/minecraft-wiki-extractor/hooks",
            "html_url": "https://github.com/PrismarineJS/minecraft-wiki-extractor",
            "id": 43782508,
            "is_template": false,
            "issue_comment_url": "https://api.github.com/repos/PrismarineJS/minecraft-wiki-extractor/issues/comments{/number}",
            "issue_events_url": "https://api.github.com/repos/PrismarineJS/minecraft-wiki-extractor/issues/events{/number}",
            "issues_url": "https://api.github.com/repos/PrismarineJS/minecraft-wiki-extractor/issues{/number}",
            "keys_url": "https://api.github.com/repos/PrismarineJS/minecraft-wiki-extractor/keys{/key_id}",
            "labels_url": "https://api.github.com/repos/PrismarineJS/minecraft-wiki-extractor/labels{/name}",
            "language": "JavaScript",
            "languages_url": "https://api.github.com/repos/PrismarineJS/minecraft-wiki-extractor/languages",
            "license": null,
            "merges_url": "https://api.github.com/repos/PrismarineJS/minecraft-wiki-extractor/merges",
            "milestones_url": "https://api.github.com/repos/PrismarineJS/minecraft-wiki-extractor/milestones{/number}",
            "mirror_url": null,
            "name": "minecraft-wiki-extractor",
            "node_id": "MDEwOlJlcG9zaXRvcnk0Mzc4MjUwOA==",
            "notifications_url": "https://api.github.com/repos/PrismarineJS/minecraft-wiki-extractor/notifications{?since,all,participating}",
            "open_issues": 20,
            "open_issues_count": 20,
            "owner": {
                "avatar_url": "https://avatars.githubusercontent.com/u/11053411?v=4",
                "events_url": "https://api.github.com/users/PrismarineJS/events{/privacy}",
                "followers_url": "https://api.github.com/users/PrismarineJS/followers",
                "following_url": "https://api.github.com/users/PrismarineJS/following{/other_user}",
                "gists_url": "https://api.github.com/users/PrismarineJS/gists{/gist_id}",
                "gravatar_id": "",
                "html_url": "https://github.com/PrismarineJS",
                "id": 11053411,
                "login": "PrismarineJS",
                "node_id": "MDEyOk9yZ2FuaXphdGlvbjExMDUzNDEx",
                "organizations_url": "https://api.github.com/users/PrismarineJS/orgs",
                "received_events_url": "https://api.github.com/users/PrismarineJS/received_events",
                "repos_url": "https://api.github.com/users/PrismarineJS/repos",
                "site_admin": false,
                "starred_url": "https://api.github.com/users/PrismarineJS/starred{/owner}{/repo}",
                "subscriptions_url": "https://api.github.com/users/PrismarineJS/subscriptions",
                "type": "Organization",
                "url": "https://api.github.com/users/PrismarineJS"
            },
            "private": false,
            "pulls_url": "https://api.github.com/repos/PrismarineJS/minecraft-wiki-extractor/pulls{/number}",
            "pushed_at": "2023-03-15T14:58:10Z",
            "releases_url": "https://api.github.com/repos/PrismarineJS/minecraft-wiki-extractor/releases{/id}",
            "size": 93,
            "ssh_url": "git@github.com:PrismarineJS/minecraft-wiki-extractor.git",
            "stargazers_count": 10,
            "stargazers_url": "https://api.github.com/repos/PrismarineJS/minecraft-wiki-extractor/stargazers",
            "statuses_url": "https://api.github.com/repos/PrismarineJS/minecraft-wiki-extractor/statuses/{sha}",
            "subscribers_url": "https://api.github.com/repos/PrismarineJS/minecraft-wiki-extractor/subscribers",
            "subscription_url": "https://api.github.com/repos/PrismarineJS/minecraft-wiki-extractor/subscription",
            "svn_url": "https://github.com/PrismarineJS/minecraft-wiki-extractor",
            "tags_url": "https://api.github.com/repos/PrismarineJS/minecraft-wiki-extractor/tags",
            "teams_url": "https://api.github.com/repos/PrismarineJS/minecraft-wiki-extractor/teams",
            "topics": [],
            "trees_url": "https://api.github.com/repos/PrismarineJS/minecraft-wiki-extractor/git/trees{/sha}",
            "updated_at": "2023-02-04T09:49:39Z",
            "url": "https://api.github.com/repos/PrismarineJS/minecraft-wiki-extractor",
            "visibility": "public",
            "watchers": 10,
            "watchers_count": 10,
            "web_commit_signoff_required": false
        },
        "sha": "8108742db882a4fc19b809e480e64379549d30dd",
        "user": {
            "avatar_url": "https://avatars.githubusercontent.com/u/11053411?v=4",
            "events_url": "https://api.github.com/users/PrismarineJS/events{/privacy}",
            "followers_url": "https://api.github.com/users/PrismarineJS/followers",
            "following_url": "https://api.github.com/users/PrismarineJS/following{/other_user}",
            "gists_url": "https://api.github.com/users/PrismarineJS/gists{/gist_id}",
            "gravatar_id": "",
            "html_url": "https://github.com/PrismarineJS",
            "id": 11053411,
            "login": "PrismarineJS",
            "node_id": "MDEyOk9yZ2FuaXphdGlvbjExMDUzNDEx",
            "organizations_url": "https://api.github.com/users/PrismarineJS/orgs",
            "received_events_url": "https://api.github.com/users/PrismarineJS/received_events",
            "repos_url": "https://api.github.com/users/PrismarineJS/repos",
            "site_admin": false,
            "starred_url": "https://api.github.com/users/PrismarineJS/starred{/owner}{/repo}",
            "subscriptions_url": "https://api.github.com/users/PrismarineJS/subscriptions",
            "type": "Organization",
            "url": "https://api.github.com/users/PrismarineJS"
        }
    },
    "body": "",
    "changed_files": 3,
    "closed_at": "2020-07-04T14:40:24Z",
    "comment_data": [],
    "comment_regular_data": [
        {
            "author_association": "MEMBER",
            "body": "thanks",
            "created_at": "2020-07-04T14:40:29Z",
            "html_url": "https://github.com/PrismarineJS/minecraft-wiki-extractor/pull/33#issuecomment-653773968",
            "id": 653773968,
            "issue_url": "https://api.github.com/repos/PrismarineJS/minecraft-wiki-extractor/issues/33",
            "node_id": "MDEyOklzc3VlQ29tbWVudDY1Mzc3Mzk2OA==",
            "performed_via_github_app": null,
            "reactions": {
                "+1": 0,
                "-1": 0,
                "confused": 0,
                "eyes": 0,
                "heart": 0,
                "hooray": 0,
                "laugh": 0,
                "rocket": 0,
                "total_count": 0,
                "url": "https://api.github.com/repos/PrismarineJS/minecraft-wiki-extractor/issues/comments/653773968/reactions"
            },
            "updated_at": "2020-07-04T14:40:29Z",
            "url": "https://api.github.com/repos/PrismarineJS/minecraft-wiki-extractor/issues/comments/653773968",
            "user": {
                "avatar_url": "https://avatars.githubusercontent.com/u/2346494?v=4",
                "events_url": "https://api.github.com/users/rom1504/events{/privacy}",
                "followers_url": "https://api.github.com/users/rom1504/followers",
                "following_url": "https://api.github.com/users/rom1504/following{/other_user}",
                "gists_url": "https://api.github.com/users/rom1504/gists{/gist_id}",
                "gravatar_id": "",
                "html_url": "https://github.com/rom1504",
                "id": 2346494,
                "login": "rom1504",
                "node_id": "MDQ6VXNlcjIzNDY0OTQ=",
                "organizations_url": "https://api.github.com/users/rom1504/orgs",
                "received_events_url": "https://api.github.com/users/rom1504/received_events",
                "repos_url": "https://api.github.com/users/rom1504/repos",
                "site_admin": false,
                "starred_url": "https://api.github.com/users/rom1504/starred{/owner}{/repo}",
                "subscriptions_url": "https://api.github.com/users/rom1504/subscriptions",
                "type": "User",
                "url": "https://api.github.com/users/rom1504"
            }
        }
    ],
    "comments": 1,
    "comments_url": "https://api.github.com/repos/PrismarineJS/minecraft-wiki-extractor/issues/33/comments",
    "commit_data": [
        {
            "author": {
                "avatar_url": "https://avatars.githubusercontent.com/u/33251702?v=4",
                "events_url": "https://api.github.com/users/AppDevMichael/events{/privacy}",
                "followers_url": "https://api.github.com/users/AppDevMichael/followers",
                "following_url": "https://api.github.com/users/AppDevMichael/following{/other_user}",
                "gists_url": "https://api.github.com/users/AppDevMichael/gists{/gist_id}",
                "gravatar_id": "",
                "html_url": "https://github.com/AppDevMichael",
                "id": 33251702,
                "login": "AppDevMichael",
                "node_id": "MDQ6VXNlcjMzMjUxNzAy",
                "organizations_url": "https://api.github.com/users/AppDevMichael/orgs",
                "received_events_url": "https://api.github.com/users/AppDevMichael/received_events",
                "repos_url": "https://api.github.com/users/AppDevMichael/repos",
                "site_admin": false,
                "starred_url": "https://api.github.com/users/AppDevMichael/starred{/owner}{/repo}",
                "subscriptions_url": "https://api.github.com/users/AppDevMichael/subscriptions",
                "type": "User",
                "url": "https://api.github.com/users/AppDevMichael"
            },
            "comments_url": "https://api.github.com/repos/PrismarineJS/minecraft-wiki-extractor/commits/8ef207f4069133e014238616221cdc480a412041/comments",
            "commit": {
                "author": {
                    "date": "2020-07-02T22:25:31Z",
                    "email": "33251702+AppDevMichael@users.noreply.github.com",
                    "name": "AppDevMichael"
                },
                "comment_count": 0,
                "committer": {
                    "date": "2020-07-02T22:25:31Z",
                    "email": "33251702+AppDevMichael@users.noreply.github.com",
                    "name": "AppDevMichael"
                },
                "message": "Added foods.json",
                "tree": {
                    "sha": "627c37678b2a60c73db70fedcc614c3a28553c5a",
                    "url": "https://api.github.com/repos/PrismarineJS/minecraft-wiki-extractor/git/trees/627c37678b2a60c73db70fedcc614c3a28553c5a"
                },
                "url": "https://api.github.com/repos/PrismarineJS/minecraft-wiki-extractor/git/commits/8ef207f4069133e014238616221cdc480a412041",
                "verification": {
                    "payload": null,
                    "reason": "unsigned",
                    "signature": null,
                    "verified": false
                }
            },
            "committer": {
                "avatar_url": "https://avatars.githubusercontent.com/u/33251702?v=4",
                "events_url": "https://api.github.com/users/AppDevMichael/events{/privacy}",
                "followers_url": "https://api.github.com/users/AppDevMichael/followers",
                "following_url": "https://api.github.com/users/AppDevMichael/following{/other_user}",
                "gists_url": "https://api.github.com/users/AppDevMichael/gists{/gist_id}",
                "gravatar_id": "",
                "html_url": "https://github.com/AppDevMichael",
                "id": 33251702,
                "login": "AppDevMichael",
                "node_id": "MDQ6VXNlcjMzMjUxNzAy",
                "organizations_url": "https://api.github.com/users/AppDevMichael/orgs",
                "received_events_url": "https://api.github.com/users/AppDevMichael/received_events",
                "repos_url": "https://api.github.com/users/AppDevMichael/repos",
                "site_admin": false,
                "starred_url": "https://api.github.com/users/AppDevMichael/starred{/owner}{/repo}",
                "subscriptions_url": "https://api.github.com/users/AppDevMichael/subscriptions",
                "type": "User",
                "url": "https://api.github.com/users/AppDevMichael"
            },
            "html_url": "https://github.com/PrismarineJS/minecraft-wiki-extractor/commit/8ef207f4069133e014238616221cdc480a412041",
            "node_id": "MDY6Q29tbWl0Mjc2NzU2MjQxOjhlZjIwN2Y0MDY5MTMzZTAxNDIzODYxNjIyMWNkYzQ4MGE0MTIwNDE=",
            "parents": [
                {
                    "html_url": "https://github.com/PrismarineJS/minecraft-wiki-extractor/commit/8108742db882a4fc19b809e480e64379549d30dd",
                    "sha": "8108742db882a4fc19b809e480e64379549d30dd",
                    "url": "https://api.github.com/repos/PrismarineJS/minecraft-wiki-extractor/commits/8108742db882a4fc19b809e480e64379549d30dd"
                }
            ],
            "sha": "8ef207f4069133e014238616221cdc480a412041",
            "url": "https://api.github.com/repos/PrismarineJS/minecraft-wiki-extractor/commits/8ef207f4069133e014238616221cdc480a412041"
        },
        {
            "author": {
                "avatar_url": "https://avatars.githubusercontent.com/u/33251702?v=4",
                "events_url": "https://api.github.com/users/AppDevMichael/events{/privacy}",
                "followers_url": "https://api.github.com/users/AppDevMichael/followers",
                "following_url": "https://api.github.com/users/AppDevMichael/following{/other_user}",
                "gists_url": "https://api.github.com/users/AppDevMichael/gists{/gist_id}",
                "gravatar_id": "",
                "html_url": "https://github.com/AppDevMichael",
                "id": 33251702,
                "login": "AppDevMichael",
                "node_id": "MDQ6VXNlcjMzMjUxNzAy",
                "organizations_url": "https://api.github.com/users/AppDevMichael/orgs",
                "received_events_url": "https://api.github.com/users/AppDevMichael/received_events",
                "repos_url": "https://api.github.com/users/AppDevMichael/repos",
                "site_admin": false,
                "starred_url": "https://api.github.com/users/AppDevMichael/starred{/owner}{/repo}",
                "subscriptions_url": "https://api.github.com/users/AppDevMichael/subscriptions",
                "type": "User",
                "url": "https://api.github.com/users/AppDevMichael"
            },
            "comments_url": "https://api.github.com/repos/PrismarineJS/minecraft-wiki-extractor/commits/894ab08007ea9bbf638fcea7a9260faa4d93b09c/comments",
            "commit": {
                "author": {
                    "date": "2020-07-02T23:25:23Z",
                    "email": "33251702+AppDevMichael@users.noreply.github.com",
                    "name": "AppDevMichael"
                },
                "comment_count": 0,
                "committer": {
                    "date": "2020-07-02T23:25:23Z",
                    "email": "33251702+AppDevMichael@users.noreply.github.com",
                    "name": "AppDevMichael"
                },
                "message": "Added food extractor",
                "tree": {
                    "sha": "6d13e8bfcf81ce84ff11d8f3ddc36c1c2fff9133",
                    "url": "https://api.github.com/repos/PrismarineJS/minecraft-wiki-extractor/git/trees/6d13e8bfcf81ce84ff11d8f3ddc36c1c2fff9133"
                },
                "url": "https://api.github.com/repos/PrismarineJS/minecraft-wiki-extractor/git/commits/894ab08007ea9bbf638fcea7a9260faa4d93b09c",
                "verification": {
                    "payload": null,
                    "reason": "unsigned",
                    "signature": null,
                    "verified": false
                }
            },
            "committer": {
                "avatar_url": "https://avatars.githubusercontent.com/u/33251702?v=4",
                "events_url": "https://api.github.com/users/AppDevMichael/events{/privacy}",
                "followers_url": "https://api.github.com/users/AppDevMichael/followers",
                "following_url": "https://api.github.com/users/AppDevMichael/following{/other_user}",
                "gists_url": "https://api.github.com/users/AppDevMichael/gists{/gist_id}",
                "gravatar_id": "",
                "html_url": "https://github.com/AppDevMichael",
                "id": 33251702,
                "login": "AppDevMichael",
                "node_id": "MDQ6VXNlcjMzMjUxNzAy",
                "organizations_url": "https://api.github.com/users/AppDevMichael/orgs",
                "received_events_url": "https://api.github.com/users/AppDevMichael/received_events",
                "repos_url": "https://api.github.com/users/AppDevMichael/repos",
                "site_admin": false,
                "starred_url": "https://api.github.com/users/AppDevMichael/starred{/owner}{/repo}",
                "subscriptions_url": "https://api.github.com/users/AppDevMichael/subscriptions",
                "type": "User",
                "url": "https://api.github.com/users/AppDevMichael"
            },
            "html_url": "https://github.com/PrismarineJS/minecraft-wiki-extractor/commit/894ab08007ea9bbf638fcea7a9260faa4d93b09c",
            "node_id": "MDY6Q29tbWl0Mjc2NzU2MjQxOjg5NGFiMDgwMDdlYTliYmY2MzhmY2VhN2E5MjYwZmFhNGQ5M2IwOWM=",
            "parents": [
                {
                    "html_url": "https://github.com/PrismarineJS/minecraft-wiki-extractor/commit/8ef207f4069133e014238616221cdc480a412041",
                    "sha": "8ef207f4069133e014238616221cdc480a412041",
                    "url": "https://api.github.com/repos/PrismarineJS/minecraft-wiki-extractor/commits/8ef207f4069133e014238616221cdc480a412041"
                }
            ],
            "sha": "894ab08007ea9bbf638fcea7a9260faa4d93b09c",
            "url": "https://api.github.com/repos/PrismarineJS/minecraft-wiki-extractor/commits/894ab08007ea9bbf638fcea7a9260faa4d93b09c"
        }
    ],
    "commits": 2,
    "commits_url": "https://api.github.com/repos/PrismarineJS/minecraft-wiki-extractor/pulls/33/commits",
    "created_at": "2020-07-02T23:30:39Z",
    "deletions": 1,
    "diff_url": "https://github.com/PrismarineJS/minecraft-wiki-extractor/pull/33.diff",
    "draft": false,
    "head": {
        "label": "AppDevMichael:master",
        "ref": "master",
        "repo": {
            "allow_forking": true,
            "archive_url": "https://api.github.com/repos/AppDevMichael/minecraft-wiki-extractor/{archive_format}{/ref}",
            "archived": false,
            "assignees_url": "https://api.github.com/repos/AppDevMichael/minecraft-wiki-extractor/assignees{/user}",
            "blobs_url": "https://api.github.com/repos/AppDevMichael/minecraft-wiki-extractor/git/blobs{/sha}",
            "branches_url": "https://api.github.com/repos/AppDevMichael/minecraft-wiki-extractor/branches{/branch}",
            "clone_url": "https://github.com/AppDevMichael/minecraft-wiki-extractor.git",
            "collaborators_url": "https://api.github.com/repos/AppDevMichael/minecraft-wiki-extractor/collaborators{/collaborator}",
            "comments_url": "https://api.github.com/repos/AppDevMichael/minecraft-wiki-extractor/comments{/number}",
            "commits_url": "https://api.github.com/repos/AppDevMichael/minecraft-wiki-extractor/commits{/sha}",
            "compare_url": "https://api.github.com/repos/AppDevMichael/minecraft-wiki-extractor/compare/{base}...{head}",
            "contents_url": "https://api.github.com/repos/AppDevMichael/minecraft-wiki-extractor/contents/{+path}",
            "contributors_url": "https://api.github.com/repos/AppDevMichael/minecraft-wiki-extractor/contributors",
            "created_at": "2020-07-02T22:24:52Z",
            "default_branch": "master",
            "deployments_url": "https://api.github.com/repos/AppDevMichael/minecraft-wiki-extractor/deployments",
            "description": "Extract structured data from the minecraft wiki",
            "disabled": false,
            "downloads_url": "https://api.github.com/repos/AppDevMichael/minecraft-wiki-extractor/downloads",
            "events_url": "https://api.github.com/repos/AppDevMichael/minecraft-wiki-extractor/events",
            "fork": true,
            "forks": 0,
            "forks_count": 0,
            "forks_url": "https://api.github.com/repos/AppDevMichael/minecraft-wiki-extractor/forks",
            "full_name": "AppDevMichael/minecraft-wiki-extractor",
            "git_commits_url": "https://api.github.com/repos/AppDevMichael/minecraft-wiki-extractor/git/commits{/sha}",
            "git_refs_url": "https://api.github.com/repos/AppDevMichael/minecraft-wiki-extractor/git/refs{/sha}",
            "git_tags_url": "https://api.github.com/repos/AppDevMichael/minecraft-wiki-extractor/git/tags{/sha}",
            "git_url": "git://github.com/AppDevMichael/minecraft-wiki-extractor.git",
            "has_discussions": false,
            "has_downloads": true,
            "has_issues": false,
            "has_pages": false,
            "has_projects": true,
            "has_wiki": true,
            "homepage": null,
            "hooks_url": "https://api.github.com/repos/AppDevMichael/minecraft-wiki-extractor/hooks",
            "html_url": "https://github.com/AppDevMichael/minecraft-wiki-extractor",
            "id": 276756241,
            "is_template": false,
            "issue_comment_url": "https://api.github.com/repos/AppDevMichael/minecraft-wiki-extractor/issues/comments{/number}",
            "issue_events_url": "https://api.github.com/repos/AppDevMichael/minecraft-wiki-extractor/issues/events{/number}",
            "issues_url": "https://api.github.com/repos/AppDevMichael/minecraft-wiki-extractor/issues{/number}",
            "keys_url": "https://api.github.com/repos/AppDevMichael/minecraft-wiki-extractor/keys{/key_id}",
            "labels_url": "https://api.github.com/repos/AppDevMichael/minecraft-wiki-extractor/labels{/name}",
            "language": "JavaScript",
            "languages_url": "https://api.github.com/repos/AppDevMichael/minecraft-wiki-extractor/languages",
            "license": null,
            "merges_url": "https://api.github.com/repos/AppDevMichael/minecraft-wiki-extractor/merges",
            "milestones_url": "https://api.github.com/repos/AppDevMichael/minecraft-wiki-extractor/milestones{/number}",
            "mirror_url": null,
            "name": "minecraft-wiki-extractor",
            "node_id": "MDEwOlJlcG9zaXRvcnkyNzY3NTYyNDE=",
            "notifications_url": "https://api.github.com/repos/AppDevMichael/minecraft-wiki-extractor/notifications{?since,all,participating}",
            "open_issues": 0,
            "open_issues_count": 0,
            "owner": {
                "avatar_url": "https://avatars.githubusercontent.com/u/33251702?v=4",
                "events_url": "https://api.github.com/users/AppDevMichael/events{/privacy}",
                "followers_url": "https://api.github.com/users/AppDevMichael/followers",
                "following_url": "https://api.github.com/users/AppDevMichael/following{/other_user}",
                "gists_url": "https://api.github.com/users/AppDevMichael/gists{/gist_id}",
                "gravatar_id": "",
                "html_url": "https://github.com/AppDevMichael",
                "id": 33251702,
                "login": "AppDevMichael",
                "node_id": "MDQ6VXNlcjMzMjUxNzAy",
                "organizations_url": "https://api.github.com/users/AppDevMichael/orgs",
                "received_events_url": "https://api.github.com/users/AppDevMichael/received_events",
                "repos_url": "https://api.github.com/users/AppDevMichael/repos",
                "site_admin": false,
                "starred_url": "https://api.github.com/users/AppDevMichael/starred{/owner}{/repo}",
                "subscriptions_url": "https://api.github.com/users/AppDevMichael/subscriptions",
                "type": "User",
                "url": "https://api.github.com/users/AppDevMichael"
            },
            "private": false,
            "pulls_url": "https://api.github.com/repos/AppDevMichael/minecraft-wiki-extractor/pulls{/number}",
            "pushed_at": "2020-07-02T23:25:30Z",
            "releases_url": "https://api.github.com/repos/AppDevMichael/minecraft-wiki-extractor/releases{/id}",
            "size": 63,
            "ssh_url": "git@github.com:AppDevMichael/minecraft-wiki-extractor.git",
            "stargazers_count": 0,
            "stargazers_url": "https://api.github.com/repos/AppDevMichael/minecraft-wiki-extractor/stargazers",
            "statuses_url": "https://api.github.com/repos/AppDevMichael/minecraft-wiki-extractor/statuses/{sha}",
            "subscribers_url": "https://api.github.com/repos/AppDevMichael/minecraft-wiki-extractor/subscribers",
            "subscription_url": "https://api.github.com/repos/AppDevMichael/minecraft-wiki-extractor/subscription",
            "svn_url": "https://github.com/AppDevMichael/minecraft-wiki-extractor",
            "tags_url": "https://api.github.com/repos/AppDevMichael/minecraft-wiki-extractor/tags",
            "teams_url": "https://api.github.com/repos/AppDevMichael/minecraft-wiki-extractor/teams",
            "topics": [],
            "trees_url": "https://api.github.com/repos/AppDevMichael/minecraft-wiki-extractor/git/trees{/sha}",
            "updated_at": "2020-07-02T23:25:33Z",
            "url": "https://api.github.com/repos/AppDevMichael/minecraft-wiki-extractor",
            "visibility": "public",
            "watchers": 0,
            "watchers_count": 0,
            "web_commit_signoff_required": false
        },
        "sha": "894ab08007ea9bbf638fcea7a9260faa4d93b09c",
        "user": {
            "avatar_url": "https://avatars.githubusercontent.com/u/33251702?v=4",
            "events_url": "https://api.github.com/users/AppDevMichael/events{/privacy}",
            "followers_url": "https://api.github.com/users/AppDevMichael/followers",
            "following_url": "https://api.github.com/users/AppDevMichael/following{/other_user}",
            "gists_url": "https://api.github.com/users/AppDevMichael/gists{/gist_id}",
            "gravatar_id": "",
            "html_url": "https://github.com/AppDevMichael",
            "id": 33251702,
            "login": "AppDevMichael",
            "node_id": "MDQ6VXNlcjMzMjUxNzAy",
            "organizations_url": "https://api.github.com/users/AppDevMichael/orgs",
            "received_events_url": "https://api.github.com/users/AppDevMichael/received_events",
            "repos_url": "https://api.github.com/users/AppDevMichael/repos",
            "site_admin": false,
            "starred_url": "https://api.github.com/users/AppDevMichael/starred{/owner}{/repo}",
            "subscriptions_url": "https://api.github.com/users/AppDevMichael/subscriptions",
            "type": "User",
            "url": "https://api.github.com/users/AppDevMichael"
        }
    },
    "html_url": "https://github.com/PrismarineJS/minecraft-wiki-extractor/pull/33",
    "id": 443783146,
    "issue_url": "https://api.github.com/repos/PrismarineJS/minecraft-wiki-extractor/issues/33",
    "labels": [],
    "locked": false,
    "maintainer_can_modify": false,
    "merge_commit_sha": "b66cf9850e32d4d78607149010837191bd445a3d",
    "mergeable": null,
    "mergeable_state": "unknown",
    "merged": true,
    "merged_at": "2020-07-04T14:40:24Z",
    "merged_by": {
        "avatar_url": "https://avatars.githubusercontent.com/u/2346494?v=4",
        "events_url": "https://api.github.com/users/rom1504/events{/privacy}",
        "followers_url": "https://api.github.com/users/rom1504/followers",
        "following_url": "https://api.github.com/users/rom1504/following{/other_user}",
        "gists_url": "https://api.github.com/users/rom1504/gists{/gist_id}",
        "gravatar_id": "",
        "html_url": "https://github.com/rom1504",
        "id": 2346494,
        "login": "rom1504",
        "node_id": "MDQ6VXNlcjIzNDY0OTQ=",
        "organizations_url": "https://api.github.com/users/rom1504/orgs",
        "received_events_url": "https://api.github.com/users/rom1504/received_events",
        "repos_url": "https://api.github.com/users/rom1504/repos",
        "site_admin": false,
        "starred_url": "https://api.github.com/users/rom1504/starred{/owner}{/repo}",
        "subscriptions_url": "https://api.github.com/users/rom1504/subscriptions",
        "type": "User",
        "url": "https://api.github.com/users/rom1504"
    },
    "milestone": null,
    "node_id": "MDExOlB1bGxSZXF1ZXN0NDQzNzgzMTQ2",
    "number": 33,
    "patch_url": "https://github.com/PrismarineJS/minecraft-wiki-extractor/pull/33.patch",
    "rebaseable": null,
    "requested_reviewers": [],
    "requested_teams": [],
    "review_comment_url": "https://api.github.com/repos/PrismarineJS/minecraft-wiki-extractor/pulls/comments{/number}",
    "review_comments": 0,
    "review_comments_url": "https://api.github.com/repos/PrismarineJS/minecraft-wiki-extractor/pulls/33/comments",
    "state": "closed",
    "statuses_url": "https://api.github.com/repos/PrismarineJS/minecraft-wiki-extractor/statuses/894ab08007ea9bbf638fcea7a9260faa4d93b09c",
    "title": "Added food extractor",
    "updated_at": "2020-07-04T14:40:30Z",
    "url": "https://api.github.com/repos/PrismarineJS/minecraft-wiki-extractor/pulls/33",
    "user": {
        "avatar_url": "https://avatars.githubusercontent.com/u/33251702?v=4",
        "events_url": "https://api.github.com/users/AppDevMichael/events{/privacy}",
        "followers_url": "https://api.github.com/users/AppDevMichael/followers",
        "following_url": "https://api.github.com/users/AppDevMichael/following{/other_user}",
        "gists_url": "https://api.github.com/users/AppDevMichael/gists{/gist_id}",
        "gravatar_id": "",
        "html_url": "https://github.com/AppDevMichael",
        "id": 33251702,
        "login": "AppDevMichael",
        "node_id": "MDQ6VXNlcjMzMjUxNzAy",
        "organizations_url": "https://api.github.com/users/AppDevMichael/orgs",
        "received_events_url": "https://api.github.com/users/AppDevMichael/received_events",
        "repos_url": "https://api.github.com/users/AppDevMichael/repos",
        "site_admin": false,
        "starred_url": "https://api.github.com/users/AppDevMichael/starred{/owner}{/repo}",
        "subscriptions_url": "https://api.github.com/users/AppDevMichael/subscriptions",
        "type": "User",
        "url": "https://api.github.com/users/AppDevMichael"
    }
}