{
    "_links": {
        "comments": {
            "href": "https://api.github.com/repos/PrismarineJS/prismarine-realms/issues/21/comments"
        },
        "commits": {
            "href": "https://api.github.com/repos/PrismarineJS/prismarine-realms/pulls/21/commits"
        },
        "html": {
            "href": "https://github.com/PrismarineJS/prismarine-realms/pull/21"
        },
        "issue": {
            "href": "https://api.github.com/repos/PrismarineJS/prismarine-realms/issues/21"
        },
        "review_comment": {
            "href": "https://api.github.com/repos/PrismarineJS/prismarine-realms/pulls/comments{/number}"
        },
        "review_comments": {
            "href": "https://api.github.com/repos/PrismarineJS/prismarine-realms/pulls/21/comments"
        },
        "self": {
            "href": "https://api.github.com/repos/PrismarineJS/prismarine-realms/pulls/21"
        },
        "statuses": {
            "href": "https://api.github.com/repos/PrismarineJS/prismarine-realms/statuses/38605f82478c5c270097341fb42574c619a7d31a"
        }
    },
    "active_lock_reason": null,
    "additions": 7,
    "assignee": null,
    "assignees": [],
    "author_association": "CONTRIBUTOR",
    "auto_merge": null,
    "base": {
        "label": "PrismarineJS:master",
        "ref": "master",
        "repo": {
            "allow_forking": true,
            "archive_url": "https://api.github.com/repos/PrismarineJS/prismarine-realms/{archive_format}{/ref}",
            "archived": false,
            "assignees_url": "https://api.github.com/repos/PrismarineJS/prismarine-realms/assignees{/user}",
            "blobs_url": "https://api.github.com/repos/PrismarineJS/prismarine-realms/git/blobs{/sha}",
            "branches_url": "https://api.github.com/repos/PrismarineJS/prismarine-realms/branches{/branch}",
            "clone_url": "https://github.com/PrismarineJS/prismarine-realms.git",
            "collaborators_url": "https://api.github.com/repos/PrismarineJS/prismarine-realms/collaborators{/collaborator}",
            "comments_url": "https://api.github.com/repos/PrismarineJS/prismarine-realms/comments{/number}",
            "commits_url": "https://api.github.com/repos/PrismarineJS/prismarine-realms/commits{/sha}",
            "compare_url": "https://api.github.com/repos/PrismarineJS/prismarine-realms/compare/{base}...{head}",
            "contents_url": "https://api.github.com/repos/PrismarineJS/prismarine-realms/contents/{+path}",
            "contributors_url": "https://api.github.com/repos/PrismarineJS/prismarine-realms/contributors",
            "created_at": "2022-03-05T05:42:24Z",
            "default_branch": "master",
            "deployments_url": "https://api.github.com/repos/PrismarineJS/prismarine-realms/deployments",
            "description": "Library for interacting with Minecraft Realms",
            "disabled": false,
            "downloads_url": "https://api.github.com/repos/PrismarineJS/prismarine-realms/downloads",
            "events_url": "https://api.github.com/repos/PrismarineJS/prismarine-realms/events",
            "fork": false,
            "forks": 4,
            "forks_count": 4,
            "forks_url": "https://api.github.com/repos/PrismarineJS/prismarine-realms/forks",
            "full_name": "PrismarineJS/prismarine-realms",
            "git_commits_url": "https://api.github.com/repos/PrismarineJS/prismarine-realms/git/commits{/sha}",
            "git_refs_url": "https://api.github.com/repos/PrismarineJS/prismarine-realms/git/refs{/sha}",
            "git_tags_url": "https://api.github.com/repos/PrismarineJS/prismarine-realms/git/tags{/sha}",
            "git_url": "git://github.com/PrismarineJS/prismarine-realms.git",
            "has_discussions": false,
            "has_downloads": true,
            "has_issues": true,
            "has_pages": false,
            "has_projects": true,
            "has_wiki": true,
            "homepage": "",
            "hooks_url": "https://api.github.com/repos/PrismarineJS/prismarine-realms/hooks",
            "html_url": "https://github.com/PrismarineJS/prismarine-realms",
            "id": 466361600,
            "is_template": false,
            "issue_comment_url": "https://api.github.com/repos/PrismarineJS/prismarine-realms/issues/comments{/number}",
            "issue_events_url": "https://api.github.com/repos/PrismarineJS/prismarine-realms/issues/events{/number}",
            "issues_url": "https://api.github.com/repos/PrismarineJS/prismarine-realms/issues{/number}",
            "keys_url": "https://api.github.com/repos/PrismarineJS/prismarine-realms/keys{/key_id}",
            "labels_url": "https://api.github.com/repos/PrismarineJS/prismarine-realms/labels{/name}",
            "language": "JavaScript",
            "languages_url": "https://api.github.com/repos/PrismarineJS/prismarine-realms/languages",
            "license": {
                "key": "mit",
                "name": "MIT License",
                "node_id": "MDc6TGljZW5zZTEz",
                "spdx_id": "MIT",
                "url": "https://api.github.com/licenses/mit"
            },
            "merges_url": "https://api.github.com/repos/PrismarineJS/prismarine-realms/merges",
            "milestones_url": "https://api.github.com/repos/PrismarineJS/prismarine-realms/milestones{/number}",
            "mirror_url": null,
            "name": "prismarine-realms",
            "node_id": "R_kgDOG8wdAA",
            "notifications_url": "https://api.github.com/repos/PrismarineJS/prismarine-realms/notifications{?since,all,participating}",
            "open_issues": 4,
            "open_issues_count": 4,
            "owner": {
                "avatar_url": "https://avatars.githubusercontent.com/u/11053411?v=4",
                "events_url": "https://api.github.com/users/PrismarineJS/events{/privacy}",
                "followers_url": "https://api.github.com/users/PrismarineJS/followers",
                "following_url": "https://api.github.com/users/PrismarineJS/following{/other_user}",
                "gists_url": "https://api.github.com/users/PrismarineJS/gists{/gist_id}",
                "gravatar_id": "",
                "html_url": "https://github.com/PrismarineJS",
                "id": 11053411,
                "login": "PrismarineJS",
                "node_id": "MDEyOk9yZ2FuaXphdGlvbjExMDUzNDEx",
                "organizations_url": "https://api.github.com/users/PrismarineJS/orgs",
                "received_events_url": "https://api.github.com/users/PrismarineJS/received_events",
                "repos_url": "https://api.github.com/users/PrismarineJS/repos",
                "site_admin": false,
                "starred_url": "https://api.github.com/users/PrismarineJS/starred{/owner}{/repo}",
                "subscriptions_url": "https://api.github.com/users/PrismarineJS/subscriptions",
                "type": "Organization",
                "url": "https://api.github.com/users/PrismarineJS"
            },
            "private": false,
            "pulls_url": "https://api.github.com/repos/PrismarineJS/prismarine-realms/pulls{/number}",
            "pushed_at": "2023-04-18T19:55:42Z",
            "releases_url": "https://api.github.com/repos/PrismarineJS/prismarine-realms/releases{/id}",
            "size": 46,
            "ssh_url": "git@github.com:PrismarineJS/prismarine-realms.git",
            "stargazers_count": 4,
            "stargazers_url": "https://api.github.com/repos/PrismarineJS/prismarine-realms/stargazers",
            "statuses_url": "https://api.github.com/repos/PrismarineJS/prismarine-realms/statuses/{sha}",
            "subscribers_url": "https://api.github.com/repos/PrismarineJS/prismarine-realms/subscribers",
            "subscription_url": "https://api.github.com/repos/PrismarineJS/prismarine-realms/subscription",
            "svn_url": "https://github.com/PrismarineJS/prismarine-realms",
            "tags_url": "https://api.github.com/repos/PrismarineJS/prismarine-realms/tags",
            "teams_url": "https://api.github.com/repos/PrismarineJS/prismarine-realms/teams",
            "topics": [],
            "trees_url": "https://api.github.com/repos/PrismarineJS/prismarine-realms/git/trees{/sha}",
            "updated_at": "2023-04-17T21:23:30Z",
            "url": "https://api.github.com/repos/PrismarineJS/prismarine-realms",
            "visibility": "public",
            "watchers": 4,
            "watchers_count": 4,
            "web_commit_signoff_required": false
        },
        "sha": "7aae04987c087e736a9ba870410b83c5c340749a",
        "user": {
            "avatar_url": "https://avatars.githubusercontent.com/u/11053411?v=4",
            "events_url": "https://api.github.com/users/PrismarineJS/events{/privacy}",
            "followers_url": "https://api.github.com/users/PrismarineJS/followers",
            "following_url": "https://api.github.com/users/PrismarineJS/following{/other_user}",
            "gists_url": "https://api.github.com/users/PrismarineJS/gists{/gist_id}",
            "gravatar_id": "",
            "html_url": "https://github.com/PrismarineJS",
            "id": 11053411,
            "login": "PrismarineJS",
            "node_id": "MDEyOk9yZ2FuaXphdGlvbjExMDUzNDEx",
            "organizations_url": "https://api.github.com/users/PrismarineJS/orgs",
            "received_events_url": "https://api.github.com/users/PrismarineJS/received_events",
            "repos_url": "https://api.github.com/users/PrismarineJS/repos",
            "site_admin": false,
            "starred_url": "https://api.github.com/users/PrismarineJS/starred{/owner}{/repo}",
            "subscriptions_url": "https://api.github.com/users/PrismarineJS/subscriptions",
            "type": "Organization",
            "url": "https://api.github.com/users/PrismarineJS"
        }
    },
    "body": null,
    "changed_files": 3,
    "closed_at": "2022-05-21T19:51:26Z",
    "comment_data": [],
    "comment_regular_data": [
        {
            "author_association": "CONTRIBUTOR",
            "body": "https://github.com/PrismarineJS/prismarine-realms/pull/22 First",
            "created_at": "2022-05-20T09:15:15Z",
            "html_url": "https://github.com/PrismarineJS/prismarine-realms/pull/21#issuecomment-1132671273",
            "id": 1132671273,
            "issue_url": "https://api.github.com/repos/PrismarineJS/prismarine-realms/issues/21",
            "node_id": "IC_kwDOG8wdAM5DgzEp",
            "performed_via_github_app": null,
            "reactions": {
                "+1": 0,
                "-1": 0,
                "confused": 0,
                "eyes": 0,
                "heart": 0,
                "hooray": 0,
                "laugh": 0,
                "rocket": 0,
                "total_count": 0,
                "url": "https://api.github.com/repos/PrismarineJS/prismarine-realms/issues/comments/1132671273/reactions"
            },
            "updated_at": "2022-05-20T09:15:15Z",
            "url": "https://api.github.com/repos/PrismarineJS/prismarine-realms/issues/comments/1132671273",
            "user": {
                "avatar_url": "https://avatars.githubusercontent.com/u/66429271?v=4",
                "events_url": "https://api.github.com/users/LucienHH/events{/privacy}",
                "followers_url": "https://api.github.com/users/LucienHH/followers",
                "following_url": "https://api.github.com/users/LucienHH/following{/other_user}",
                "gists_url": "https://api.github.com/users/LucienHH/gists{/gist_id}",
                "gravatar_id": "",
                "html_url": "https://github.com/LucienHH",
                "id": 66429271,
                "login": "LucienHH",
                "node_id": "MDQ6VXNlcjY2NDI5Mjcx",
                "organizations_url": "https://api.github.com/users/LucienHH/orgs",
                "received_events_url": "https://api.github.com/users/LucienHH/received_events",
                "repos_url": "https://api.github.com/users/LucienHH/repos",
                "site_admin": false,
                "starred_url": "https://api.github.com/users/LucienHH/starred{/owner}{/repo}",
                "subscriptions_url": "https://api.github.com/users/LucienHH/subscriptions",
                "type": "User",
                "url": "https://api.github.com/users/LucienHH"
            }
        }
    ],
    "comments": 1,
    "comments_url": "https://api.github.com/repos/PrismarineJS/prismarine-realms/issues/21/comments",
    "commit_data": [
        {
            "author": {
                "avatar_url": "https://avatars.githubusercontent.com/u/66429271?v=4",
                "events_url": "https://api.github.com/users/LucienHH/events{/privacy}",
                "followers_url": "https://api.github.com/users/LucienHH/followers",
                "following_url": "https://api.github.com/users/LucienHH/following{/other_user}",
                "gists_url": "https://api.github.com/users/LucienHH/gists{/gist_id}",
                "gravatar_id": "",
                "html_url": "https://github.com/LucienHH",
                "id": 66429271,
                "login": "LucienHH",
                "node_id": "MDQ6VXNlcjY2NDI5Mjcx",
                "organizations_url": "https://api.github.com/users/LucienHH/orgs",
                "received_events_url": "https://api.github.com/users/LucienHH/received_events",
                "repos_url": "https://api.github.com/users/LucienHH/repos",
                "site_admin": false,
                "starred_url": "https://api.github.com/users/LucienHH/starred{/owner}{/repo}",
                "subscriptions_url": "https://api.github.com/users/LucienHH/subscriptions",
                "type": "User",
                "url": "https://api.github.com/users/LucienHH"
            },
            "comments_url": "https://api.github.com/repos/PrismarineJS/prismarine-realms/commits/baadc06df3afbb5a8f4fbfd11ba22cb9fa614c33/comments",
            "commit": {
                "author": {
                    "date": "2022-05-20T08:28:51Z",
                    "email": "lucienharryholloway@hotmail.co.uk",
                    "name": "LucienHH"
                },
                "comment_count": 0,
                "committer": {
                    "date": "2022-05-20T08:28:51Z",
                    "email": "lucienharryholloway@hotmail.co.uk",
                    "name": "LucienHH"
                },
                "message": "Release 1.2.0",
                "tree": {
                    "sha": "cd382bff6a5ad56686be58933b3d923e83bd0117",
                    "url": "https://api.github.com/repos/PrismarineJS/prismarine-realms/git/trees/cd382bff6a5ad56686be58933b3d923e83bd0117"
                },
                "url": "https://api.github.com/repos/PrismarineJS/prismarine-realms/git/commits/baadc06df3afbb5a8f4fbfd11ba22cb9fa614c33",
                "verification": {
                    "payload": null,
                    "reason": "unsigned",
                    "signature": null,
                    "verified": false
                }
            },
            "committer": {
                "avatar_url": "https://avatars.githubusercontent.com/u/66429271?v=4",
                "events_url": "https://api.github.com/users/LucienHH/events{/privacy}",
                "followers_url": "https://api.github.com/users/LucienHH/followers",
                "following_url": "https://api.github.com/users/LucienHH/following{/other_user}",
                "gists_url": "https://api.github.com/users/LucienHH/gists{/gist_id}",
                "gravatar_id": "",
                "html_url": "https://github.com/LucienHH",
                "id": 66429271,
                "login": "LucienHH",
                "node_id": "MDQ6VXNlcjY2NDI5Mjcx",
                "organizations_url": "https://api.github.com/users/LucienHH/orgs",
                "received_events_url": "https://api.github.com/users/LucienHH/received_events",
                "repos_url": "https://api.github.com/users/LucienHH/repos",
                "site_admin": false,
                "starred_url": "https://api.github.com/users/LucienHH/starred{/owner}{/repo}",
                "subscriptions_url": "https://api.github.com/users/LucienHH/subscriptions",
                "type": "User",
                "url": "https://api.github.com/users/LucienHH"
            },
            "html_url": "https://github.com/PrismarineJS/prismarine-realms/commit/baadc06df3afbb5a8f4fbfd11ba22cb9fa614c33",
            "node_id": "C_kwDOG9Gid9oAKGJhYWRjMDZkZjNhZmJiNWE4ZjRmYmZkMTFiYTIyY2I5ZmE2MTRjMzM",
            "parents": [
                {
                    "html_url": "https://github.com/PrismarineJS/prismarine-realms/commit/7aae04987c087e736a9ba870410b83c5c340749a",
                    "sha": "7aae04987c087e736a9ba870410b83c5c340749a",
                    "url": "https://api.github.com/repos/PrismarineJS/prismarine-realms/commits/7aae04987c087e736a9ba870410b83c5c340749a"
                }
            ],
            "sha": "baadc06df3afbb5a8f4fbfd11ba22cb9fa614c33",
            "url": "https://api.github.com/repos/PrismarineJS/prismarine-realms/commits/baadc06df3afbb5a8f4fbfd11ba22cb9fa614c33"
        },
        {
            "author": {
                "avatar_url": "https://avatars.githubusercontent.com/u/66429271?v=4",
                "events_url": "https://api.github.com/users/LucienHH/events{/privacy}",
                "followers_url": "https://api.github.com/users/LucienHH/followers",
                "following_url": "https://api.github.com/users/LucienHH/following{/other_user}",
                "gists_url": "https://api.github.com/users/LucienHH/gists{/gist_id}",
                "gravatar_id": "",
                "html_url": "https://github.com/LucienHH",
                "id": 66429271,
                "login": "LucienHH",
                "node_id": "MDQ6VXNlcjY2NDI5Mjcx",
                "organizations_url": "https://api.github.com/users/LucienHH/orgs",
                "received_events_url": "https://api.github.com/users/LucienHH/received_events",
                "repos_url": "https://api.github.com/users/LucienHH/repos",
                "site_admin": false,
                "starred_url": "https://api.github.com/users/LucienHH/starred{/owner}{/repo}",
                "subscriptions_url": "https://api.github.com/users/LucienHH/subscriptions",
                "type": "User",
                "url": "https://api.github.com/users/LucienHH"
            },
            "comments_url": "https://api.github.com/repos/PrismarineJS/prismarine-realms/commits/e8437fd364b0f5018bab557ac951f18f3fac866d/comments",
            "commit": {
                "author": {
                    "date": "2022-05-20T09:14:25Z",
                    "email": "lucienharryholloway@hotmail.co.uk",
                    "name": "LucienHH"
                },
                "comment_count": 0,
                "committer": {
                    "date": "2022-05-20T09:14:25Z",
                    "email": "lucienharryholloway@hotmail.co.uk",
                    "name": "LucienHH"
                },
                "message": "Squashed commit of the following:\n\ncommit 72cc5cb330c06e7c9a015333925f2331fe38ebb5\nAuthor: LucienHH <lucienharryholloway@hotmail.co.uk>\nDate:   Fri May 20 10:11:28 2022 +0100\n\n    Correct types",
                "tree": {
                    "sha": "14654abbd294100de99835bab4efade51c4a7d6f",
                    "url": "https://api.github.com/repos/PrismarineJS/prismarine-realms/git/trees/14654abbd294100de99835bab4efade51c4a7d6f"
                },
                "url": "https://api.github.com/repos/PrismarineJS/prismarine-realms/git/commits/e8437fd364b0f5018bab557ac951f18f3fac866d",
                "verification": {
                    "payload": null,
                    "reason": "unsigned",
                    "signature": null,
                    "verified": false
                }
            },
            "committer": {
                "avatar_url": "https://avatars.githubusercontent.com/u/66429271?v=4",
                "events_url": "https://api.github.com/users/LucienHH/events{/privacy}",
                "followers_url": "https://api.github.com/users/LucienHH/followers",
                "following_url": "https://api.github.com/users/LucienHH/following{/other_user}",
                "gists_url": "https://api.github.com/users/LucienHH/gists{/gist_id}",
                "gravatar_id": "",
                "html_url": "https://github.com/LucienHH",
                "id": 66429271,
                "login": "LucienHH",
                "node_id": "MDQ6VXNlcjY2NDI5Mjcx",
                "organizations_url": "https://api.github.com/users/LucienHH/orgs",
                "received_events_url": "https://api.github.com/users/LucienHH/received_events",
                "repos_url": "https://api.github.com/users/LucienHH/repos",
                "site_admin": false,
                "starred_url": "https://api.github.com/users/LucienHH/starred{/owner}{/repo}",
                "subscriptions_url": "https://api.github.com/users/LucienHH/subscriptions",
                "type": "User",
                "url": "https://api.github.com/users/LucienHH"
            },
            "html_url": "https://github.com/PrismarineJS/prismarine-realms/commit/e8437fd364b0f5018bab557ac951f18f3fac866d",
            "node_id": "C_kwDOG9Gid9oAKGU4NDM3ZmQzNjRiMGY1MDE4YmFiNTU3YWM5NTFmMThmM2ZhYzg2NmQ",
            "parents": [
                {
                    "html_url": "https://github.com/PrismarineJS/prismarine-realms/commit/baadc06df3afbb5a8f4fbfd11ba22cb9fa614c33",
                    "sha": "baadc06df3afbb5a8f4fbfd11ba22cb9fa614c33",
                    "url": "https://api.github.com/repos/PrismarineJS/prismarine-realms/commits/baadc06df3afbb5a8f4fbfd11ba22cb9fa614c33"
                }
            ],
            "sha": "e8437fd364b0f5018bab557ac951f18f3fac866d",
            "url": "https://api.github.com/repos/PrismarineJS/prismarine-realms/commits/e8437fd364b0f5018bab557ac951f18f3fac866d"
        },
        {
            "author": {
                "avatar_url": "https://avatars.githubusercontent.com/u/66429271?v=4",
                "events_url": "https://api.github.com/users/LucienHH/events{/privacy}",
                "followers_url": "https://api.github.com/users/LucienHH/followers",
                "following_url": "https://api.github.com/users/LucienHH/following{/other_user}",
                "gists_url": "https://api.github.com/users/LucienHH/gists{/gist_id}",
                "gravatar_id": "",
                "html_url": "https://github.com/LucienHH",
                "id": 66429271,
                "login": "LucienHH",
                "node_id": "MDQ6VXNlcjY2NDI5Mjcx",
                "organizations_url": "https://api.github.com/users/LucienHH/orgs",
                "received_events_url": "https://api.github.com/users/LucienHH/received_events",
                "repos_url": "https://api.github.com/users/LucienHH/repos",
                "site_admin": false,
                "starred_url": "https://api.github.com/users/LucienHH/starred{/owner}{/repo}",
                "subscriptions_url": "https://api.github.com/users/LucienHH/subscriptions",
                "type": "User",
                "url": "https://api.github.com/users/LucienHH"
            },
            "comments_url": "https://api.github.com/repos/PrismarineJS/prismarine-realms/commits/38605f82478c5c270097341fb42574c619a7d31a/comments",
            "commit": {
                "author": {
                    "date": "2022-05-20T09:14:49Z",
                    "email": "lucienharryholloway@hotmail.co.uk",
                    "name": "LucienHH"
                },
                "comment_count": 0,
                "committer": {
                    "date": "2022-05-20T09:14:49Z",
                    "email": "lucienharryholloway@hotmail.co.uk",
                    "name": "LucienHH"
                },
                "message": "Update HISTORY.md",
                "tree": {
                    "sha": "b14d74b7beb856041a4f164afada152024b710f7",
                    "url": "https://api.github.com/repos/PrismarineJS/prismarine-realms/git/trees/b14d74b7beb856041a4f164afada152024b710f7"
                },
                "url": "https://api.github.com/repos/PrismarineJS/prismarine-realms/git/commits/38605f82478c5c270097341fb42574c619a7d31a",
                "verification": {
                    "payload": null,
                    "reason": "unsigned",
                    "signature": null,
                    "verified": false
                }
            },
            "committer": {
                "avatar_url": "https://avatars.githubusercontent.com/u/66429271?v=4",
                "events_url": "https://api.github.com/users/LucienHH/events{/privacy}",
                "followers_url": "https://api.github.com/users/LucienHH/followers",
                "following_url": "https://api.github.com/users/LucienHH/following{/other_user}",
                "gists_url": "https://api.github.com/users/LucienHH/gists{/gist_id}",
                "gravatar_id": "",
                "html_url": "https://github.com/LucienHH",
                "id": 66429271,
                "login": "LucienHH",
                "node_id": "MDQ6VXNlcjY2NDI5Mjcx",
                "organizations_url": "https://api.github.com/users/LucienHH/orgs",
                "received_events_url": "https://api.github.com/users/LucienHH/received_events",
                "repos_url": "https://api.github.com/users/LucienHH/repos",
                "site_admin": false,
                "starred_url": "https://api.github.com/users/LucienHH/starred{/owner}{/repo}",
                "subscriptions_url": "https://api.github.com/users/LucienHH/subscriptions",
                "type": "User",
                "url": "https://api.github.com/users/LucienHH"
            },
            "html_url": "https://github.com/PrismarineJS/prismarine-realms/commit/38605f82478c5c270097341fb42574c619a7d31a",
            "node_id": "C_kwDOG9Gid9oAKDM4NjA1ZjgyNDc4YzVjMjcwMDk3MzQxZmI0MjU3NGM2MTlhN2QzMWE",
            "parents": [
                {
                    "html_url": "https://github.com/PrismarineJS/prismarine-realms/commit/e8437fd364b0f5018bab557ac951f18f3fac866d",
                    "sha": "e8437fd364b0f5018bab557ac951f18f3fac866d",
                    "url": "https://api.github.com/repos/PrismarineJS/prismarine-realms/commits/e8437fd364b0f5018bab557ac951f18f3fac866d"
                }
            ],
            "sha": "38605f82478c5c270097341fb42574c619a7d31a",
            "url": "https://api.github.com/repos/PrismarineJS/prismarine-realms/commits/38605f82478c5c270097341fb42574c619a7d31a"
        }
    ],
    "commits": 3,
    "commits_url": "https://api.github.com/repos/PrismarineJS/prismarine-realms/pulls/21/commits",
    "created_at": "2022-05-20T08:29:07Z",
    "deletions": 3,
    "diff_url": "https://github.com/PrismarineJS/prismarine-realms/pull/21.diff",
    "draft": false,
    "head": {
        "label": "LucienHH:rel",
        "ref": "rel",
        "repo": {
            "allow_forking": true,
            "archive_url": "https://api.github.com/repos/LucienHH/prismarine-realms/{archive_format}{/ref}",
            "archived": false,
            "assignees_url": "https://api.github.com/repos/LucienHH/prismarine-realms/assignees{/user}",
            "blobs_url": "https://api.github.com/repos/LucienHH/prismarine-realms/git/blobs{/sha}",
            "branches_url": "https://api.github.com/repos/LucienHH/prismarine-realms/branches{/branch}",
            "clone_url": "https://github.com/LucienHH/prismarine-realms.git",
            "collaborators_url": "https://api.github.com/repos/LucienHH/prismarine-realms/collaborators{/collaborator}",
            "comments_url": "https://api.github.com/repos/LucienHH/prismarine-realms/comments{/number}",
            "commits_url": "https://api.github.com/repos/LucienHH/prismarine-realms/commits{/sha}",
            "compare_url": "https://api.github.com/repos/LucienHH/prismarine-realms/compare/{base}...{head}",
            "contents_url": "https://api.github.com/repos/LucienHH/prismarine-realms/contents/{+path}",
            "contributors_url": "https://api.github.com/repos/LucienHH/prismarine-realms/contributors",
            "created_at": "2022-03-06T11:57:45Z",
            "default_branch": "master",
            "deployments_url": "https://api.github.com/repos/LucienHH/prismarine-realms/deployments",
            "description": "Minecraft realm API",
            "disabled": false,
            "downloads_url": "https://api.github.com/repos/LucienHH/prismarine-realms/downloads",
            "events_url": "https://api.github.com/repos/LucienHH/prismarine-realms/events",
            "fork": true,
            "forks": 1,
            "forks_count": 1,
            "forks_url": "https://api.github.com/repos/LucienHH/prismarine-realms/forks",
            "full_name": "LucienHH/prismarine-realms",
            "git_commits_url": "https://api.github.com/repos/LucienHH/prismarine-realms/git/commits{/sha}",
            "git_refs_url": "https://api.github.com/repos/LucienHH/prismarine-realms/git/refs{/sha}",
            "git_tags_url": "https://api.github.com/repos/LucienHH/prismarine-realms/git/tags{/sha}",
            "git_url": "git://github.com/LucienHH/prismarine-realms.git",
            "has_discussions": false,
            "has_downloads": true,
            "has_issues": false,
            "has_pages": false,
            "has_projects": true,
            "has_wiki": true,
            "homepage": null,
            "hooks_url": "https://api.github.com/repos/LucienHH/prismarine-realms/hooks",
            "html_url": "https://github.com/LucienHH/prismarine-realms",
            "id": 466723447,
            "is_template": false,
            "issue_comment_url": "https://api.github.com/repos/LucienHH/prismarine-realms/issues/comments{/number}",
            "issue_events_url": "https://api.github.com/repos/LucienHH/prismarine-realms/issues/events{/number}",
            "issues_url": "https://api.github.com/repos/LucienHH/prismarine-realms/issues{/number}",
            "keys_url": "https://api.github.com/repos/LucienHH/prismarine-realms/keys{/key_id}",
            "labels_url": "https://api.github.com/repos/LucienHH/prismarine-realms/labels{/name}",
            "language": "JavaScript",
            "languages_url": "https://api.github.com/repos/LucienHH/prismarine-realms/languages",
            "license": {
                "key": "mit",
                "name": "MIT License",
                "node_id": "MDc6TGljZW5zZTEz",
                "spdx_id": "MIT",
                "url": "https://api.github.com/licenses/mit"
            },
            "merges_url": "https://api.github.com/repos/LucienHH/prismarine-realms/merges",
            "milestones_url": "https://api.github.com/repos/LucienHH/prismarine-realms/milestones{/number}",
            "mirror_url": null,
            "name": "prismarine-realms",
            "node_id": "R_kgDOG9Gidw",
            "notifications_url": "https://api.github.com/repos/LucienHH/prismarine-realms/notifications{?since,all,participating}",
            "open_issues": 0,
            "open_issues_count": 0,
            "owner": {
                "avatar_url": "https://avatars.githubusercontent.com/u/66429271?v=4",
                "events_url": "https://api.github.com/users/LucienHH/events{/privacy}",
                "followers_url": "https://api.github.com/users/LucienHH/followers",
                "following_url": "https://api.github.com/users/LucienHH/following{/other_user}",
                "gists_url": "https://api.github.com/users/LucienHH/gists{/gist_id}",
                "gravatar_id": "",
                "html_url": "https://github.com/LucienHH",
                "id": 66429271,
                "login": "LucienHH",
                "node_id": "MDQ6VXNlcjY2NDI5Mjcx",
                "organizations_url": "https://api.github.com/users/LucienHH/orgs",
                "received_events_url": "https://api.github.com/users/LucienHH/received_events",
                "repos_url": "https://api.github.com/users/LucienHH/repos",
                "site_admin": false,
                "starred_url": "https://api.github.com/users/LucienHH/starred{/owner}{/repo}",
                "subscriptions_url": "https://api.github.com/users/LucienHH/subscriptions",
                "type": "User",
                "url": "https://api.github.com/users/LucienHH"
            },
            "private": false,
            "pulls_url": "https://api.github.com/repos/LucienHH/prismarine-realms/pulls{/number}",
            "pushed_at": "2023-04-18T19:55:40Z",
            "releases_url": "https://api.github.com/repos/LucienHH/prismarine-realms/releases{/id}",
            "size": 54,
            "ssh_url": "git@github.com:LucienHH/prismarine-realms.git",
            "stargazers_count": 0,
            "stargazers_url": "https://api.github.com/repos/LucienHH/prismarine-realms/stargazers",
            "statuses_url": "https://api.github.com/repos/LucienHH/prismarine-realms/statuses/{sha}",
            "subscribers_url": "https://api.github.com/repos/LucienHH/prismarine-realms/subscribers",
            "subscription_url": "https://api.github.com/repos/LucienHH/prismarine-realms/subscription",
            "svn_url": "https://github.com/LucienHH/prismarine-realms",
            "tags_url": "https://api.github.com/repos/LucienHH/prismarine-realms/tags",
            "teams_url": "https://api.github.com/repos/LucienHH/prismarine-realms/teams",
            "topics": [],
            "trees_url": "https://api.github.com/repos/LucienHH/prismarine-realms/git/trees{/sha}",
            "updated_at": "2022-04-02T13:33:18Z",
            "url": "https://api.github.com/repos/LucienHH/prismarine-realms",
            "visibility": "public",
            "watchers": 0,
            "watchers_count": 0,
            "web_commit_signoff_required": false
        },
        "sha": "38605f82478c5c270097341fb42574c619a7d31a",
        "user": {
            "avatar_url": "https://avatars.githubusercontent.com/u/66429271?v=4",
            "events_url": "https://api.github.com/users/LucienHH/events{/privacy}",
            "followers_url": "https://api.github.com/users/LucienHH/followers",
            "following_url": "https://api.github.com/users/LucienHH/following{/other_user}",
            "gists_url": "https://api.github.com/users/LucienHH/gists{/gist_id}",
            "gravatar_id": "",
            "html_url": "https://github.com/LucienHH",
            "id": 66429271,
            "login": "LucienHH",
            "node_id": "MDQ6VXNlcjY2NDI5Mjcx",
            "organizations_url": "https://api.github.com/users/LucienHH/orgs",
            "received_events_url": "https://api.github.com/users/LucienHH/received_events",
            "repos_url": "https://api.github.com/users/LucienHH/repos",
            "site_admin": false,
            "starred_url": "https://api.github.com/users/LucienHH/starred{/owner}{/repo}",
            "subscriptions_url": "https://api.github.com/users/LucienHH/subscriptions",
            "type": "User",
            "url": "https://api.github.com/users/LucienHH"
        }
    },
    "html_url": "https://github.com/PrismarineJS/prismarine-realms/pull/21",
    "id": 942430427,
    "issue_url": "https://api.github.com/repos/PrismarineJS/prismarine-realms/issues/21",
    "labels": [],
    "locked": false,
    "maintainer_can_modify": false,
    "merge_commit_sha": "784bc594a30064caabcdddc5f9403963c315ddf1",
    "mergeable": null,
    "mergeable_state": "unknown",
    "merged": true,
    "merged_at": "2022-05-21T19:51:26Z",
    "merged_by": {
        "avatar_url": "https://avatars.githubusercontent.com/u/13713600?v=4",
        "events_url": "https://api.github.com/users/extremeheat/events{/privacy}",
        "followers_url": "https://api.github.com/users/extremeheat/followers",
        "following_url": "https://api.github.com/users/extremeheat/following{/other_user}",
        "gists_url": "https://api.github.com/users/extremeheat/gists{/gist_id}",
        "gravatar_id": "",
        "html_url": "https://github.com/extremeheat",
        "id": 13713600,
        "login": "extremeheat",
        "node_id": "MDQ6VXNlcjEzNzEzNjAw",
        "organizations_url": "https://api.github.com/users/extremeheat/orgs",
        "received_events_url": "https://api.github.com/users/extremeheat/received_events",
        "repos_url": "https://api.github.com/users/extremeheat/repos",
        "site_admin": false,
        "starred_url": "https://api.github.com/users/extremeheat/starred{/owner}{/repo}",
        "subscriptions_url": "https://api.github.com/users/extremeheat/subscriptions",
        "type": "User",
        "url": "https://api.github.com/users/extremeheat"
    },
    "milestone": null,
    "node_id": "PR_kwDOG8wdAM44LFjb",
    "number": 21,
    "patch_url": "https://github.com/PrismarineJS/prismarine-realms/pull/21.patch",
    "rebaseable": null,
    "requested_reviewers": [],
    "requested_teams": [],
    "review_comment_url": "https://api.github.com/repos/PrismarineJS/prismarine-realms/pulls/comments{/number}",
    "review_comments": 0,
    "review_comments_url": "https://api.github.com/repos/PrismarineJS/prismarine-realms/pulls/21/comments",
    "state": "closed",
    "statuses_url": "https://api.github.com/repos/PrismarineJS/prismarine-realms/statuses/38605f82478c5c270097341fb42574c619a7d31a",
    "title": "Release 1.2.0",
    "updated_at": "2022-08-22T14:40:42Z",
    "url": "https://api.github.com/repos/PrismarineJS/prismarine-realms/pulls/21",
    "user": {
        "avatar_url": "https://avatars.githubusercontent.com/u/66429271?v=4",
        "events_url": "https://api.github.com/users/LucienHH/events{/privacy}",
        "followers_url": "https://api.github.com/users/LucienHH/followers",
        "following_url": "https://api.github.com/users/LucienHH/following{/other_user}",
        "gists_url": "https://api.github.com/users/LucienHH/gists{/gist_id}",
        "gravatar_id": "",
        "html_url": "https://github.com/LucienHH",
        "id": 66429271,
        "login": "LucienHH",
        "node_id": "MDQ6VXNlcjY2NDI5Mjcx",
        "organizations_url": "https://api.github.com/users/LucienHH/orgs",
        "received_events_url": "https://api.github.com/users/LucienHH/received_events",
        "repos_url": "https://api.github.com/users/LucienHH/repos",
        "site_admin": false,
        "starred_url": "https://api.github.com/users/LucienHH/starred{/owner}{/repo}",
        "subscriptions_url": "https://api.github.com/users/LucienHH/subscriptions",
        "type": "User",
        "url": "https://api.github.com/users/LucienHH"
    }
}