{
    "active_lock_reason": null,
    "assignee": null,
    "assignees": [],
    "author_association": "MEMBER",
    "body": "Before the first release of the plugin, a documentation should be written. This would cover the details of various dependencies and strategies, as well as how to create your own.",
    "closed_at": null,
    "comment_data": [],
    "comments": 0,
    "comments_url": "https://api.github.com/repos/PrismarineJS/prismarine-gameplay/issues/14/comments",
    "created_at": "2020-08-08T16:03:28Z",
    "event_data": [],
    "events_url": "https://api.github.com/repos/PrismarineJS/prismarine-gameplay/issues/14/events",
    "html_url": "https://github.com/PrismarineJS/prismarine-gameplay/issues/14",
    "id": 675547692,
    "labels": [],
    "labels_url": "https://api.github.com/repos/PrismarineJS/prismarine-gameplay/issues/14/labels{/name}",
    "locked": false,
    "milestone": null,
    "node_id": "MDU6SXNzdWU2NzU1NDc2OTI=",
    "number": 14,
    "performed_via_github_app": null,
    "reactions": {
        "+1": 0,
        "-1": 0,
        "confused": 0,
        "eyes": 0,
        "heart": 0,
        "hooray": 0,
        "laugh": 0,
        "rocket": 0,
        "total_count": 0,
        "url": "https://api.github.com/repos/PrismarineJS/prismarine-gameplay/issues/14/reactions"
    },
    "repository_url": "https://api.github.com/repos/PrismarineJS/prismarine-gameplay",
    "state": "open",
    "state_reason": null,
    "timeline_url": "https://api.github.com/repos/PrismarineJS/prismarine-gameplay/issues/14/timeline",
    "title": "Documentation",
    "updated_at": "2020-08-08T16:03:28Z",
    "url": "https://api.github.com/repos/PrismarineJS/prismarine-gameplay/issues/14",
    "user": {
        "avatar_url": "https://avatars.githubusercontent.com/u/3118172?v=4",
        "events_url": "https://api.github.com/users/TheDudeFromCI/events{/privacy}",
        "followers_url": "https://api.github.com/users/TheDudeFromCI/followers",
        "following_url": "https://api.github.com/users/TheDudeFromCI/following{/other_user}",
        "gists_url": "https://api.github.com/users/TheDudeFromCI/gists{/gist_id}",
        "gravatar_id": "",
        "html_url": "https://github.com/TheDudeFromCI",
        "id": 3118172,
        "login": "TheDudeFromCI",
        "node_id": "MDQ6VXNlcjMxMTgxNzI=",
        "organizations_url": "https://api.github.com/users/TheDudeFromCI/orgs",
        "received_events_url": "https://api.github.com/users/TheDudeFromCI/received_events",
        "repos_url": "https://api.github.com/users/TheDudeFromCI/repos",
        "site_admin": false,
        "starred_url": "https://api.github.com/users/TheDudeFromCI/starred{/owner}{/repo}",
        "subscriptions_url": "https://api.github.com/users/TheDudeFromCI/subscriptions",
        "type": "User",
        "url": "https://api.github.com/users/TheDudeFromCI"
    }
}