{
    "_links": {
        "comments": {
            "href": "https://api.github.com/repos/PrismarineJS/node-minecraft-data/issues/130/comments"
        },
        "commits": {
            "href": "https://api.github.com/repos/PrismarineJS/node-minecraft-data/pulls/130/commits"
        },
        "html": {
            "href": "https://github.com/PrismarineJS/node-minecraft-data/pull/130"
        },
        "issue": {
            "href": "https://api.github.com/repos/PrismarineJS/node-minecraft-data/issues/130"
        },
        "review_comment": {
            "href": "https://api.github.com/repos/PrismarineJS/node-minecraft-data/pulls/comments{/number}"
        },
        "review_comments": {
            "href": "https://api.github.com/repos/PrismarineJS/node-minecraft-data/pulls/130/comments"
        },
        "self": {
            "href": "https://api.github.com/repos/PrismarineJS/node-minecraft-data/pulls/130"
        },
        "statuses": {
            "href": "https://api.github.com/repos/PrismarineJS/node-minecraft-data/statuses/31ca1b1ebeeb16fefb32e76cb4050cfce00ba32a"
        }
    },
    "active_lock_reason": null,
    "additions": 1,
    "assignee": null,
    "assignees": [],
    "author_association": "CONTRIBUTOR",
    "auto_merge": null,
    "base": {
        "label": "PrismarineJS:master",
        "ref": "master",
        "repo": {
            "allow_forking": true,
            "archive_url": "https://api.github.com/repos/PrismarineJS/node-minecraft-data/{archive_format}{/ref}",
            "archived": false,
            "assignees_url": "https://api.github.com/repos/PrismarineJS/node-minecraft-data/assignees{/user}",
            "blobs_url": "https://api.github.com/repos/PrismarineJS/node-minecraft-data/git/blobs{/sha}",
            "branches_url": "https://api.github.com/repos/PrismarineJS/node-minecraft-data/branches{/branch}",
            "clone_url": "https://github.com/PrismarineJS/node-minecraft-data.git",
            "collaborators_url": "https://api.github.com/repos/PrismarineJS/node-minecraft-data/collaborators{/collaborator}",
            "comments_url": "https://api.github.com/repos/PrismarineJS/node-minecraft-data/comments{/number}",
            "commits_url": "https://api.github.com/repos/PrismarineJS/node-minecraft-data/commits{/sha}",
            "compare_url": "https://api.github.com/repos/PrismarineJS/node-minecraft-data/compare/{base}...{head}",
            "contents_url": "https://api.github.com/repos/PrismarineJS/node-minecraft-data/contents/{+path}",
            "contributors_url": "https://api.github.com/repos/PrismarineJS/node-minecraft-data/contributors",
            "created_at": "2015-05-05T20:50:30Z",
            "default_branch": "master",
            "deployments_url": "https://api.github.com/repos/PrismarineJS/node-minecraft-data/deployments",
            "description": "Provide easy access to minecraft-data in node.js",
            "disabled": false,
            "downloads_url": "https://api.github.com/repos/PrismarineJS/node-minecraft-data/downloads",
            "events_url": "https://api.github.com/repos/PrismarineJS/node-minecraft-data/events",
            "fork": false,
            "forks": 40,
            "forks_count": 40,
            "forks_url": "https://api.github.com/repos/PrismarineJS/node-minecraft-data/forks",
            "full_name": "PrismarineJS/node-minecraft-data",
            "git_commits_url": "https://api.github.com/repos/PrismarineJS/node-minecraft-data/git/commits{/sha}",
            "git_refs_url": "https://api.github.com/repos/PrismarineJS/node-minecraft-data/git/refs{/sha}",
            "git_tags_url": "https://api.github.com/repos/PrismarineJS/node-minecraft-data/git/tags{/sha}",
            "git_url": "git://github.com/PrismarineJS/node-minecraft-data.git",
            "has_discussions": false,
            "has_downloads": true,
            "has_issues": true,
            "has_pages": false,
            "has_projects": true,
            "has_wiki": true,
            "homepage": "https://minecraft-data.prismarine.js.org/",
            "hooks_url": "https://api.github.com/repos/PrismarineJS/node-minecraft-data/hooks",
            "html_url": "https://github.com/PrismarineJS/node-minecraft-data",
            "id": 35123311,
            "is_template": false,
            "issue_comment_url": "https://api.github.com/repos/PrismarineJS/node-minecraft-data/issues/comments{/number}",
            "issue_events_url": "https://api.github.com/repos/PrismarineJS/node-minecraft-data/issues/events{/number}",
            "issues_url": "https://api.github.com/repos/PrismarineJS/node-minecraft-data/issues{/number}",
            "keys_url": "https://api.github.com/repos/PrismarineJS/node-minecraft-data/keys{/key_id}",
            "labels_url": "https://api.github.com/repos/PrismarineJS/node-minecraft-data/labels{/name}",
            "language": "JavaScript",
            "languages_url": "https://api.github.com/repos/PrismarineJS/node-minecraft-data/languages",
            "license": null,
            "merges_url": "https://api.github.com/repos/PrismarineJS/node-minecraft-data/merges",
            "milestones_url": "https://api.github.com/repos/PrismarineJS/node-minecraft-data/milestones{/number}",
            "mirror_url": null,
            "name": "node-minecraft-data",
            "node_id": "MDEwOlJlcG9zaXRvcnkzNTEyMzMxMQ==",
            "notifications_url": "https://api.github.com/repos/PrismarineJS/node-minecraft-data/notifications{?since,all,participating}",
            "open_issues": 7,
            "open_issues_count": 7,
            "owner": {
                "avatar_url": "https://avatars.githubusercontent.com/u/11053411?v=4",
                "events_url": "https://api.github.com/users/PrismarineJS/events{/privacy}",
                "followers_url": "https://api.github.com/users/PrismarineJS/followers",
                "following_url": "https://api.github.com/users/PrismarineJS/following{/other_user}",
                "gists_url": "https://api.github.com/users/PrismarineJS/gists{/gist_id}",
                "gravatar_id": "",
                "html_url": "https://github.com/PrismarineJS",
                "id": 11053411,
                "login": "PrismarineJS",
                "node_id": "MDEyOk9yZ2FuaXphdGlvbjExMDUzNDEx",
                "organizations_url": "https://api.github.com/users/PrismarineJS/orgs",
                "received_events_url": "https://api.github.com/users/PrismarineJS/received_events",
                "repos_url": "https://api.github.com/users/PrismarineJS/repos",
                "site_admin": false,
                "starred_url": "https://api.github.com/users/PrismarineJS/starred{/owner}{/repo}",
                "subscriptions_url": "https://api.github.com/users/PrismarineJS/subscriptions",
                "type": "Organization",
                "url": "https://api.github.com/users/PrismarineJS"
            },
            "private": false,
            "pulls_url": "https://api.github.com/repos/PrismarineJS/node-minecraft-data/pulls{/number}",
            "pushed_at": "2023-04-10T01:09:34Z",
            "releases_url": "https://api.github.com/repos/PrismarineJS/node-minecraft-data/releases{/id}",
            "size": 421,
            "ssh_url": "git@github.com:PrismarineJS/node-minecraft-data.git",
            "stargazers_count": 73,
            "stargazers_url": "https://api.github.com/repos/PrismarineJS/node-minecraft-data/stargazers",
            "statuses_url": "https://api.github.com/repos/PrismarineJS/node-minecraft-data/statuses/{sha}",
            "subscribers_url": "https://api.github.com/repos/PrismarineJS/node-minecraft-data/subscribers",
            "subscription_url": "https://api.github.com/repos/PrismarineJS/node-minecraft-data/subscription",
            "svn_url": "https://github.com/PrismarineJS/node-minecraft-data",
            "tags_url": "https://api.github.com/repos/PrismarineJS/node-minecraft-data/tags",
            "teams_url": "https://api.github.com/repos/PrismarineJS/node-minecraft-data/teams",
            "topics": [],
            "trees_url": "https://api.github.com/repos/PrismarineJS/node-minecraft-data/git/trees{/sha}",
            "updated_at": "2023-04-06T17:47:53Z",
            "url": "https://api.github.com/repos/PrismarineJS/node-minecraft-data",
            "visibility": "public",
            "watchers": 73,
            "watchers_count": 73,
            "web_commit_signoff_required": false
        },
        "sha": "09e96a789b2718633cd4354cac6506120eab2c0a",
        "user": {
            "avatar_url": "https://avatars.githubusercontent.com/u/11053411?v=4",
            "events_url": "https://api.github.com/users/PrismarineJS/events{/privacy}",
            "followers_url": "https://api.github.com/users/PrismarineJS/followers",
            "following_url": "https://api.github.com/users/PrismarineJS/following{/other_user}",
            "gists_url": "https://api.github.com/users/PrismarineJS/gists{/gist_id}",
            "gravatar_id": "",
            "html_url": "https://github.com/PrismarineJS",
            "id": 11053411,
            "login": "PrismarineJS",
            "node_id": "MDEyOk9yZ2FuaXphdGlvbjExMDUzNDEx",
            "organizations_url": "https://api.github.com/users/PrismarineJS/orgs",
            "received_events_url": "https://api.github.com/users/PrismarineJS/received_events",
            "repos_url": "https://api.github.com/users/PrismarineJS/repos",
            "site_admin": false,
            "starred_url": "https://api.github.com/users/PrismarineJS/starred{/owner}{/repo}",
            "subscriptions_url": "https://api.github.com/users/PrismarineJS/subscriptions",
            "type": "Organization",
            "url": "https://api.github.com/users/PrismarineJS"
        }
    },
    "body": "Bumps [@types/node](https://github.com/DefinitelyTyped/DefinitelyTyped/tree/HEAD/types/node) from 16.11.14 to 17.0.0.\n<details>\n<summary>Commits</summary>\n<ul>\n<li>See full diff in <a href=\"https://github.com/DefinitelyTyped/DefinitelyTyped/commits/HEAD/types/node\">compare view</a></li>\n</ul>\n</details>\n<br />\n\n\n[![Dependabot compatibility score](https://dependabot-badges.githubapp.com/badges/compatibility_score?dependency-name=@types/node&package-manager=npm_and_yarn&previous-version=16.11.14&new-version=17.0.0)](https://docs.github.com/en/github/managing-security-vulnerabilities/about-dependabot-security-updates#about-compatibility-scores)\n\nDependabot will resolve any conflicts with this PR as long as you don't alter it yourself. You can also trigger a rebase manually by commenting `@dependabot rebase`.\n\n[//]: # (dependabot-automerge-start)\n[//]: # (dependabot-automerge-end)\n\n---\n\n<details>\n<summary>Dependabot commands and options</summary>\n<br />\n\nYou can trigger Dependabot actions by commenting on this PR:\n- `@dependabot rebase` will rebase this PR\n- `@dependabot recreate` will recreate this PR, overwriting any edits that have been made to it\n- `@dependabot merge` will merge this PR after your CI passes on it\n- `@dependabot squash and merge` will squash and merge this PR after your CI passes on it\n- `@dependabot cancel merge` will cancel a previously requested merge and block automerging\n- `@dependabot reopen` will reopen this PR if it is closed\n- `@dependabot close` will close this PR and stop Dependabot recreating it. You can achieve the same result by closing it manually\n- `@dependabot ignore this major version` will close this PR and stop Dependabot creating any more for this major version (unless you reopen the PR or upgrade to it yourself)\n- `@dependabot ignore this minor version` will close this PR and stop Dependabot creating any more for this minor version (unless you reopen the PR or upgrade to it yourself)\n- `@dependabot ignore this dependency` will close this PR and stop Dependabot creating any more for this dependency (unless you reopen the PR or upgrade to it yourself)\n\n\n</details>",
    "changed_files": 1,
    "closed_at": "2021-12-20T00:57:53Z",
    "comment_data": [],
    "comment_regular_data": [
        {
            "author_association": "CONTRIBUTOR",
            "body": "Superseded by #131.",
            "created_at": "2021-12-20T00:57:53Z",
            "html_url": "https://github.com/PrismarineJS/node-minecraft-data/pull/130#issuecomment-997502605",
            "id": 997502605,
            "issue_url": "https://api.github.com/repos/PrismarineJS/node-minecraft-data/issues/130",
            "node_id": "IC_kwDOAhfwb847dK6N",
            "performed_via_github_app": null,
            "reactions": {
                "+1": 0,
                "-1": 0,
                "confused": 0,
                "eyes": 0,
                "heart": 0,
                "hooray": 0,
                "laugh": 0,
                "rocket": 0,
                "total_count": 0,
                "url": "https://api.github.com/repos/PrismarineJS/node-minecraft-data/issues/comments/997502605/reactions"
            },
            "updated_at": "2021-12-20T00:57:53Z",
            "url": "https://api.github.com/repos/PrismarineJS/node-minecraft-data/issues/comments/997502605",
            "user": {
                "avatar_url": "https://avatars.githubusercontent.com/in/29110?v=4",
                "events_url": "https://api.github.com/users/dependabot%5Bbot%5D/events{/privacy}",
                "followers_url": "https://api.github.com/users/dependabot%5Bbot%5D/followers",
                "following_url": "https://api.github.com/users/dependabot%5Bbot%5D/following{/other_user}",
                "gists_url": "https://api.github.com/users/dependabot%5Bbot%5D/gists{/gist_id}",
                "gravatar_id": "",
                "html_url": "https://github.com/apps/dependabot",
                "id": 49699333,
                "login": "dependabot[bot]",
                "node_id": "MDM6Qm90NDk2OTkzMzM=",
                "organizations_url": "https://api.github.com/users/dependabot%5Bbot%5D/orgs",
                "received_events_url": "https://api.github.com/users/dependabot%5Bbot%5D/received_events",
                "repos_url": "https://api.github.com/users/dependabot%5Bbot%5D/repos",
                "site_admin": false,
                "starred_url": "https://api.github.com/users/dependabot%5Bbot%5D/starred{/owner}{/repo}",
                "subscriptions_url": "https://api.github.com/users/dependabot%5Bbot%5D/subscriptions",
                "type": "Bot",
                "url": "https://api.github.com/users/dependabot%5Bbot%5D"
            }
        }
    ],
    "comments": 1,
    "comments_url": "https://api.github.com/repos/PrismarineJS/node-minecraft-data/issues/130/comments",
    "commit_data": [
        {
            "author": {
                "avatar_url": "https://avatars.githubusercontent.com/in/29110?v=4",
                "events_url": "https://api.github.com/users/dependabot%5Bbot%5D/events{/privacy}",
                "followers_url": "https://api.github.com/users/dependabot%5Bbot%5D/followers",
                "following_url": "https://api.github.com/users/dependabot%5Bbot%5D/following{/other_user}",
                "gists_url": "https://api.github.com/users/dependabot%5Bbot%5D/gists{/gist_id}",
                "gravatar_id": "",
                "html_url": "https://github.com/apps/dependabot",
                "id": 49699333,
                "login": "dependabot[bot]",
                "node_id": "MDM6Qm90NDk2OTkzMzM=",
                "organizations_url": "https://api.github.com/users/dependabot%5Bbot%5D/orgs",
                "received_events_url": "https://api.github.com/users/dependabot%5Bbot%5D/received_events",
                "repos_url": "https://api.github.com/users/dependabot%5Bbot%5D/repos",
                "site_admin": false,
                "starred_url": "https://api.github.com/users/dependabot%5Bbot%5D/starred{/owner}{/repo}",
                "subscriptions_url": "https://api.github.com/users/dependabot%5Bbot%5D/subscriptions",
                "type": "Bot",
                "url": "https://api.github.com/users/dependabot%5Bbot%5D"
            },
            "comments_url": "https://api.github.com/repos/PrismarineJS/node-minecraft-data/commits/31ca1b1ebeeb16fefb32e76cb4050cfce00ba32a/comments",
            "commit": {
                "author": {
                    "date": "2021-12-16T00:33:46Z",
                    "email": "49699333+dependabot[bot]@users.noreply.github.com",
                    "name": "dependabot[bot]"
                },
                "comment_count": 0,
                "committer": {
                    "date": "2021-12-16T00:33:46Z",
                    "email": "noreply@github.com",
                    "name": "GitHub"
                },
                "message": "Bump @types/node from 16.11.14 to 17.0.0\n\nBumps [@types/node](https://github.com/DefinitelyTyped/DefinitelyTyped/tree/HEAD/types/node) from 16.11.14 to 17.0.0.\n- [Release notes](https://github.com/DefinitelyTyped/DefinitelyTyped/releases)\n- [Commits](https://github.com/DefinitelyTyped/DefinitelyTyped/commits/HEAD/types/node)\n\n---\nupdated-dependencies:\n- dependency-name: \"@types/node\"\n  dependency-type: direct:development\n  update-type: version-update:semver-major\n...\n\nSigned-off-by: dependabot[bot] <support@github.com>",
                "tree": {
                    "sha": "120a8020514b1d8575606d1b08a9bdb1d759f63c",
                    "url": "https://api.github.com/repos/PrismarineJS/node-minecraft-data/git/trees/120a8020514b1d8575606d1b08a9bdb1d759f63c"
                },
                "url": "https://api.github.com/repos/PrismarineJS/node-minecraft-data/git/commits/31ca1b1ebeeb16fefb32e76cb4050cfce00ba32a",
                "verification": {
                    "payload": "tree 120a8020514b1d8575606d1b08a9bdb1d759f63c\nparent 09e96a789b2718633cd4354cac6506120eab2c0a\nauthor dependabot[bot] <49699333+dependabot[bot]@users.noreply.github.com> 1639614826 +0000\ncommitter GitHub <noreply@github.com> 1639614826 +0000\n\nBump @types/node from 16.11.14 to 17.0.0\n\nBumps [@types/node](https://github.com/DefinitelyTyped/DefinitelyTyped/tree/HEAD/types/node) from 16.11.14 to 17.0.0.\n- [Release notes](https://github.com/DefinitelyTyped/DefinitelyTyped/releases)\n- [Commits](https://github.com/DefinitelyTyped/DefinitelyTyped/commits/HEAD/types/node)\n\n---\nupdated-dependencies:\n- dependency-name: \"@types/node\"\n  dependency-type: direct:development\n  update-type: version-update:semver-major\n...\n\nSigned-off-by: dependabot[bot] <support@github.com>",
                    "reason": "valid",
                    "signature": "-----BEGIN PGP SIGNATURE-----\n\nwsBcBAABCAAQBQJhuolqCRBK7hj4Ov3rIwAAU1YIAB3LIgJjMkd4Imd9ChWV+B+z\ng/w8Z2pqabwKgT/QbLoyeDmBl6EZmkMevlSvdGEWlyoCxSMhRagYxUrkZkuXyDLX\nHwkoXGgcYdDXMgEtQsCukumvYcmN3yDzH7d9e+2IjPUwPD0/hjkcXbLf70PpxmBL\naB224/roy7sonWxysfXIud/077QzX/To1O3RnsdaBf3qdd5Nos1/HkklJ7pfJe88\n8FL7I80SmDfOQtlVGI+yVp1eihgssq7U0aHIvqhc4kmewxPW2Of6xwoySfZ66+oN\nW4FoHRQuRTMAsGRkmGBP9ZhMag2wVHulvlyJJXIJWaPtRiI2r2jMp6HueE+vRvA=\n=z5eB\n-----END PGP SIGNATURE-----\n",
                    "verified": true
                }
            },
            "committer": {
                "avatar_url": "https://avatars.githubusercontent.com/u/19864447?v=4",
                "events_url": "https://api.github.com/users/web-flow/events{/privacy}",
                "followers_url": "https://api.github.com/users/web-flow/followers",
                "following_url": "https://api.github.com/users/web-flow/following{/other_user}",
                "gists_url": "https://api.github.com/users/web-flow/gists{/gist_id}",
                "gravatar_id": "",
                "html_url": "https://github.com/web-flow",
                "id": 19864447,
                "login": "web-flow",
                "node_id": "MDQ6VXNlcjE5ODY0NDQ3",
                "organizations_url": "https://api.github.com/users/web-flow/orgs",
                "received_events_url": "https://api.github.com/users/web-flow/received_events",
                "repos_url": "https://api.github.com/users/web-flow/repos",
                "site_admin": false,
                "starred_url": "https://api.github.com/users/web-flow/starred{/owner}{/repo}",
                "subscriptions_url": "https://api.github.com/users/web-flow/subscriptions",
                "type": "User",
                "url": "https://api.github.com/users/web-flow"
            },
            "html_url": "https://github.com/PrismarineJS/node-minecraft-data/commit/31ca1b1ebeeb16fefb32e76cb4050cfce00ba32a",
            "node_id": "C_kwDOAhfwb9oAKDMxY2ExYjFlYmVlYjE2ZmVmYjMyZTc2Y2I0MDUwY2ZjZTAwYmEzMmE",
            "parents": [
                {
                    "html_url": "https://github.com/PrismarineJS/node-minecraft-data/commit/09e96a789b2718633cd4354cac6506120eab2c0a",
                    "sha": "09e96a789b2718633cd4354cac6506120eab2c0a",
                    "url": "https://api.github.com/repos/PrismarineJS/node-minecraft-data/commits/09e96a789b2718633cd4354cac6506120eab2c0a"
                }
            ],
            "sha": "31ca1b1ebeeb16fefb32e76cb4050cfce00ba32a",
            "url": "https://api.github.com/repos/PrismarineJS/node-minecraft-data/commits/31ca1b1ebeeb16fefb32e76cb4050cfce00ba32a"
        }
    ],
    "commits": 1,
    "commits_url": "https://api.github.com/repos/PrismarineJS/node-minecraft-data/pulls/130/commits",
    "created_at": "2021-12-16T00:33:47Z",
    "deletions": 1,
    "diff_url": "https://github.com/PrismarineJS/node-minecraft-data/pull/130.diff",
    "draft": false,
    "head": {
        "label": "PrismarineJS:dependabot/npm_and_yarn/types/node-17.0.0",
        "ref": "dependabot/npm_and_yarn/types/node-17.0.0",
        "repo": {
            "allow_forking": true,
            "archive_url": "https://api.github.com/repos/PrismarineJS/node-minecraft-data/{archive_format}{/ref}",
            "archived": false,
            "assignees_url": "https://api.github.com/repos/PrismarineJS/node-minecraft-data/assignees{/user}",
            "blobs_url": "https://api.github.com/repos/PrismarineJS/node-minecraft-data/git/blobs{/sha}",
            "branches_url": "https://api.github.com/repos/PrismarineJS/node-minecraft-data/branches{/branch}",
            "clone_url": "https://github.com/PrismarineJS/node-minecraft-data.git",
            "collaborators_url": "https://api.github.com/repos/PrismarineJS/node-minecraft-data/collaborators{/collaborator}",
            "comments_url": "https://api.github.com/repos/PrismarineJS/node-minecraft-data/comments{/number}",
            "commits_url": "https://api.github.com/repos/PrismarineJS/node-minecraft-data/commits{/sha}",
            "compare_url": "https://api.github.com/repos/PrismarineJS/node-minecraft-data/compare/{base}...{head}",
            "contents_url": "https://api.github.com/repos/PrismarineJS/node-minecraft-data/contents/{+path}",
            "contributors_url": "https://api.github.com/repos/PrismarineJS/node-minecraft-data/contributors",
            "created_at": "2015-05-05T20:50:30Z",
            "default_branch": "master",
            "deployments_url": "https://api.github.com/repos/PrismarineJS/node-minecraft-data/deployments",
            "description": "Provide easy access to minecraft-data in node.js",
            "disabled": false,
            "downloads_url": "https://api.github.com/repos/PrismarineJS/node-minecraft-data/downloads",
            "events_url": "https://api.github.com/repos/PrismarineJS/node-minecraft-data/events",
            "fork": false,
            "forks": 40,
            "forks_count": 40,
            "forks_url": "https://api.github.com/repos/PrismarineJS/node-minecraft-data/forks",
            "full_name": "PrismarineJS/node-minecraft-data",
            "git_commits_url": "https://api.github.com/repos/PrismarineJS/node-minecraft-data/git/commits{/sha}",
            "git_refs_url": "https://api.github.com/repos/PrismarineJS/node-minecraft-data/git/refs{/sha}",
            "git_tags_url": "https://api.github.com/repos/PrismarineJS/node-minecraft-data/git/tags{/sha}",
            "git_url": "git://github.com/PrismarineJS/node-minecraft-data.git",
            "has_discussions": false,
            "has_downloads": true,
            "has_issues": true,
            "has_pages": false,
            "has_projects": true,
            "has_wiki": true,
            "homepage": "https://minecraft-data.prismarine.js.org/",
            "hooks_url": "https://api.github.com/repos/PrismarineJS/node-minecraft-data/hooks",
            "html_url": "https://github.com/PrismarineJS/node-minecraft-data",
            "id": 35123311,
            "is_template": false,
            "issue_comment_url": "https://api.github.com/repos/PrismarineJS/node-minecraft-data/issues/comments{/number}",
            "issue_events_url": "https://api.github.com/repos/PrismarineJS/node-minecraft-data/issues/events{/number}",
            "issues_url": "https://api.github.com/repos/PrismarineJS/node-minecraft-data/issues{/number}",
            "keys_url": "https://api.github.com/repos/PrismarineJS/node-minecraft-data/keys{/key_id}",
            "labels_url": "https://api.github.com/repos/PrismarineJS/node-minecraft-data/labels{/name}",
            "language": "JavaScript",
            "languages_url": "https://api.github.com/repos/PrismarineJS/node-minecraft-data/languages",
            "license": null,
            "merges_url": "https://api.github.com/repos/PrismarineJS/node-minecraft-data/merges",
            "milestones_url": "https://api.github.com/repos/PrismarineJS/node-minecraft-data/milestones{/number}",
            "mirror_url": null,
            "name": "node-minecraft-data",
            "node_id": "MDEwOlJlcG9zaXRvcnkzNTEyMzMxMQ==",
            "notifications_url": "https://api.github.com/repos/PrismarineJS/node-minecraft-data/notifications{?since,all,participating}",
            "open_issues": 7,
            "open_issues_count": 7,
            "owner": {
                "avatar_url": "https://avatars.githubusercontent.com/u/11053411?v=4",
                "events_url": "https://api.github.com/users/PrismarineJS/events{/privacy}",
                "followers_url": "https://api.github.com/users/PrismarineJS/followers",
                "following_url": "https://api.github.com/users/PrismarineJS/following{/other_user}",
                "gists_url": "https://api.github.com/users/PrismarineJS/gists{/gist_id}",
                "gravatar_id": "",
                "html_url": "https://github.com/PrismarineJS",
                "id": 11053411,
                "login": "PrismarineJS",
                "node_id": "MDEyOk9yZ2FuaXphdGlvbjExMDUzNDEx",
                "organizations_url": "https://api.github.com/users/PrismarineJS/orgs",
                "received_events_url": "https://api.github.com/users/PrismarineJS/received_events",
                "repos_url": "https://api.github.com/users/PrismarineJS/repos",
                "site_admin": false,
                "starred_url": "https://api.github.com/users/PrismarineJS/starred{/owner}{/repo}",
                "subscriptions_url": "https://api.github.com/users/PrismarineJS/subscriptions",
                "type": "Organization",
                "url": "https://api.github.com/users/PrismarineJS"
            },
            "private": false,
            "pulls_url": "https://api.github.com/repos/PrismarineJS/node-minecraft-data/pulls{/number}",
            "pushed_at": "2023-04-10T01:09:34Z",
            "releases_url": "https://api.github.com/repos/PrismarineJS/node-minecraft-data/releases{/id}",
            "size": 421,
            "ssh_url": "git@github.com:PrismarineJS/node-minecraft-data.git",
            "stargazers_count": 73,
            "stargazers_url": "https://api.github.com/repos/PrismarineJS/node-minecraft-data/stargazers",
            "statuses_url": "https://api.github.com/repos/PrismarineJS/node-minecraft-data/statuses/{sha}",
            "subscribers_url": "https://api.github.com/repos/PrismarineJS/node-minecraft-data/subscribers",
            "subscription_url": "https://api.github.com/repos/PrismarineJS/node-minecraft-data/subscription",
            "svn_url": "https://github.com/PrismarineJS/node-minecraft-data",
            "tags_url": "https://api.github.com/repos/PrismarineJS/node-minecraft-data/tags",
            "teams_url": "https://api.github.com/repos/PrismarineJS/node-minecraft-data/teams",
            "topics": [],
            "trees_url": "https://api.github.com/repos/PrismarineJS/node-minecraft-data/git/trees{/sha}",
            "updated_at": "2023-04-06T17:47:53Z",
            "url": "https://api.github.com/repos/PrismarineJS/node-minecraft-data",
            "visibility": "public",
            "watchers": 73,
            "watchers_count": 73,
            "web_commit_signoff_required": false
        },
        "sha": "31ca1b1ebeeb16fefb32e76cb4050cfce00ba32a",
        "user": {
            "avatar_url": "https://avatars.githubusercontent.com/u/11053411?v=4",
            "events_url": "https://api.github.com/users/PrismarineJS/events{/privacy}",
            "followers_url": "https://api.github.com/users/PrismarineJS/followers",
            "following_url": "https://api.github.com/users/PrismarineJS/following{/other_user}",
            "gists_url": "https://api.github.com/users/PrismarineJS/gists{/gist_id}",
            "gravatar_id": "",
            "html_url": "https://github.com/PrismarineJS",
            "id": 11053411,
            "login": "PrismarineJS",
            "node_id": "MDEyOk9yZ2FuaXphdGlvbjExMDUzNDEx",
            "organizations_url": "https://api.github.com/users/PrismarineJS/orgs",
            "received_events_url": "https://api.github.com/users/PrismarineJS/received_events",
            "repos_url": "https://api.github.com/users/PrismarineJS/repos",
            "site_admin": false,
            "starred_url": "https://api.github.com/users/PrismarineJS/starred{/owner}{/repo}",
            "subscriptions_url": "https://api.github.com/users/PrismarineJS/subscriptions",
            "type": "Organization",
            "url": "https://api.github.com/users/PrismarineJS"
        }
    },
    "html_url": "https://github.com/PrismarineJS/node-minecraft-data/pull/130",
    "id": 803972845,
    "issue_url": "https://api.github.com/repos/PrismarineJS/node-minecraft-data/issues/130",
    "labels": [
        {
            "color": "0366d6",
            "default": false,
            "description": "Pull requests that update a dependency file",
            "id": 2067070693,
            "name": "dependencies",
            "node_id": "MDU6TGFiZWwyMDY3MDcwNjkz",
            "url": "https://api.github.com/repos/PrismarineJS/node-minecraft-data/labels/dependencies"
        }
    ],
    "locked": false,
    "maintainer_can_modify": false,
    "merge_commit_sha": "c2c7e35e602a191c59f7458e2746a1acb6a2fe03",
    "mergeable": null,
    "mergeable_state": "unknown",
    "merged": false,
    "merged_at": null,
    "merged_by": null,
    "milestone": null,
    "node_id": "PR_kwDOAhfwb84v66bt",
    "number": 130,
    "patch_url": "https://github.com/PrismarineJS/node-minecraft-data/pull/130.patch",
    "rebaseable": null,
    "requested_reviewers": [],
    "requested_teams": [],
    "review_comment_url": "https://api.github.com/repos/PrismarineJS/node-minecraft-data/pulls/comments{/number}",
    "review_comments": 0,
    "review_comments_url": "https://api.github.com/repos/PrismarineJS/node-minecraft-data/pulls/130/comments",
    "state": "closed",
    "statuses_url": "https://api.github.com/repos/PrismarineJS/node-minecraft-data/statuses/31ca1b1ebeeb16fefb32e76cb4050cfce00ba32a",
    "title": "Bump @types/node from 16.11.14 to 17.0.0",
    "updated_at": "2021-12-20T00:57:55Z",
    "url": "https://api.github.com/repos/PrismarineJS/node-minecraft-data/pulls/130",
    "user": {
        "avatar_url": "https://avatars.githubusercontent.com/in/29110?v=4",
        "events_url": "https://api.github.com/users/dependabot%5Bbot%5D/events{/privacy}",
        "followers_url": "https://api.github.com/users/dependabot%5Bbot%5D/followers",
        "following_url": "https://api.github.com/users/dependabot%5Bbot%5D/following{/other_user}",
        "gists_url": "https://api.github.com/users/dependabot%5Bbot%5D/gists{/gist_id}",
        "gravatar_id": "",
        "html_url": "https://github.com/apps/dependabot",
        "id": 49699333,
        "login": "dependabot[bot]",
        "node_id": "MDM6Qm90NDk2OTkzMzM=",
        "organizations_url": "https://api.github.com/users/dependabot%5Bbot%5D/orgs",
        "received_events_url": "https://api.github.com/users/dependabot%5Bbot%5D/received_events",
        "repos_url": "https://api.github.com/users/dependabot%5Bbot%5D/repos",
        "site_admin": false,
        "starred_url": "https://api.github.com/users/dependabot%5Bbot%5D/starred{/owner}{/repo}",
        "subscriptions_url": "https://api.github.com/users/dependabot%5Bbot%5D/subscriptions",
        "type": "Bot",
        "url": "https://api.github.com/users/dependabot%5Bbot%5D"
    }
}