{
    "_links": {
        "comments": {
            "href": "https://api.github.com/repos/PrismarineJS/node-minecraft-data/issues/146/comments"
        },
        "commits": {
            "href": "https://api.github.com/repos/PrismarineJS/node-minecraft-data/pulls/146/commits"
        },
        "html": {
            "href": "https://github.com/PrismarineJS/node-minecraft-data/pull/146"
        },
        "issue": {
            "href": "https://api.github.com/repos/PrismarineJS/node-minecraft-data/issues/146"
        },
        "review_comment": {
            "href": "https://api.github.com/repos/PrismarineJS/node-minecraft-data/pulls/comments{/number}"
        },
        "review_comments": {
            "href": "https://api.github.com/repos/PrismarineJS/node-minecraft-data/pulls/146/comments"
        },
        "self": {
            "href": "https://api.github.com/repos/PrismarineJS/node-minecraft-data/pulls/146"
        },
        "statuses": {
            "href": "https://api.github.com/repos/PrismarineJS/node-minecraft-data/statuses/16f395f25d6ae9ba6bacf56eba082919d67c66f7"
        }
    },
    "active_lock_reason": null,
    "additions": 8,
    "assignee": null,
    "assignees": [],
    "author_association": "MEMBER",
    "auto_merge": null,
    "base": {
        "label": "PrismarineJS:master",
        "ref": "master",
        "repo": {
            "allow_forking": true,
            "archive_url": "https://api.github.com/repos/PrismarineJS/node-minecraft-data/{archive_format}{/ref}",
            "archived": false,
            "assignees_url": "https://api.github.com/repos/PrismarineJS/node-minecraft-data/assignees{/user}",
            "blobs_url": "https://api.github.com/repos/PrismarineJS/node-minecraft-data/git/blobs{/sha}",
            "branches_url": "https://api.github.com/repos/PrismarineJS/node-minecraft-data/branches{/branch}",
            "clone_url": "https://github.com/PrismarineJS/node-minecraft-data.git",
            "collaborators_url": "https://api.github.com/repos/PrismarineJS/node-minecraft-data/collaborators{/collaborator}",
            "comments_url": "https://api.github.com/repos/PrismarineJS/node-minecraft-data/comments{/number}",
            "commits_url": "https://api.github.com/repos/PrismarineJS/node-minecraft-data/commits{/sha}",
            "compare_url": "https://api.github.com/repos/PrismarineJS/node-minecraft-data/compare/{base}...{head}",
            "contents_url": "https://api.github.com/repos/PrismarineJS/node-minecraft-data/contents/{+path}",
            "contributors_url": "https://api.github.com/repos/PrismarineJS/node-minecraft-data/contributors",
            "created_at": "2015-05-05T20:50:30Z",
            "default_branch": "master",
            "deployments_url": "https://api.github.com/repos/PrismarineJS/node-minecraft-data/deployments",
            "description": "Provide easy access to minecraft-data in node.js",
            "disabled": false,
            "downloads_url": "https://api.github.com/repos/PrismarineJS/node-minecraft-data/downloads",
            "events_url": "https://api.github.com/repos/PrismarineJS/node-minecraft-data/events",
            "fork": false,
            "forks": 40,
            "forks_count": 40,
            "forks_url": "https://api.github.com/repos/PrismarineJS/node-minecraft-data/forks",
            "full_name": "PrismarineJS/node-minecraft-data",
            "git_commits_url": "https://api.github.com/repos/PrismarineJS/node-minecraft-data/git/commits{/sha}",
            "git_refs_url": "https://api.github.com/repos/PrismarineJS/node-minecraft-data/git/refs{/sha}",
            "git_tags_url": "https://api.github.com/repos/PrismarineJS/node-minecraft-data/git/tags{/sha}",
            "git_url": "git://github.com/PrismarineJS/node-minecraft-data.git",
            "has_discussions": false,
            "has_downloads": true,
            "has_issues": true,
            "has_pages": false,
            "has_projects": true,
            "has_wiki": true,
            "homepage": "https://minecraft-data.prismarine.js.org/",
            "hooks_url": "https://api.github.com/repos/PrismarineJS/node-minecraft-data/hooks",
            "html_url": "https://github.com/PrismarineJS/node-minecraft-data",
            "id": 35123311,
            "is_template": false,
            "issue_comment_url": "https://api.github.com/repos/PrismarineJS/node-minecraft-data/issues/comments{/number}",
            "issue_events_url": "https://api.github.com/repos/PrismarineJS/node-minecraft-data/issues/events{/number}",
            "issues_url": "https://api.github.com/repos/PrismarineJS/node-minecraft-data/issues{/number}",
            "keys_url": "https://api.github.com/repos/PrismarineJS/node-minecraft-data/keys{/key_id}",
            "labels_url": "https://api.github.com/repos/PrismarineJS/node-minecraft-data/labels{/name}",
            "language": "JavaScript",
            "languages_url": "https://api.github.com/repos/PrismarineJS/node-minecraft-data/languages",
            "license": null,
            "merges_url": "https://api.github.com/repos/PrismarineJS/node-minecraft-data/merges",
            "milestones_url": "https://api.github.com/repos/PrismarineJS/node-minecraft-data/milestones{/number}",
            "mirror_url": null,
            "name": "node-minecraft-data",
            "node_id": "MDEwOlJlcG9zaXRvcnkzNTEyMzMxMQ==",
            "notifications_url": "https://api.github.com/repos/PrismarineJS/node-minecraft-data/notifications{?since,all,participating}",
            "open_issues": 7,
            "open_issues_count": 7,
            "owner": {
                "avatar_url": "https://avatars.githubusercontent.com/u/11053411?v=4",
                "events_url": "https://api.github.com/users/PrismarineJS/events{/privacy}",
                "followers_url": "https://api.github.com/users/PrismarineJS/followers",
                "following_url": "https://api.github.com/users/PrismarineJS/following{/other_user}",
                "gists_url": "https://api.github.com/users/PrismarineJS/gists{/gist_id}",
                "gravatar_id": "",
                "html_url": "https://github.com/PrismarineJS",
                "id": 11053411,
                "login": "PrismarineJS",
                "node_id": "MDEyOk9yZ2FuaXphdGlvbjExMDUzNDEx",
                "organizations_url": "https://api.github.com/users/PrismarineJS/orgs",
                "received_events_url": "https://api.github.com/users/PrismarineJS/received_events",
                "repos_url": "https://api.github.com/users/PrismarineJS/repos",
                "site_admin": false,
                "starred_url": "https://api.github.com/users/PrismarineJS/starred{/owner}{/repo}",
                "subscriptions_url": "https://api.github.com/users/PrismarineJS/subscriptions",
                "type": "Organization",
                "url": "https://api.github.com/users/PrismarineJS"
            },
            "private": false,
            "pulls_url": "https://api.github.com/repos/PrismarineJS/node-minecraft-data/pulls{/number}",
            "pushed_at": "2023-04-10T01:09:34Z",
            "releases_url": "https://api.github.com/repos/PrismarineJS/node-minecraft-data/releases{/id}",
            "size": 421,
            "ssh_url": "git@github.com:PrismarineJS/node-minecraft-data.git",
            "stargazers_count": 73,
            "stargazers_url": "https://api.github.com/repos/PrismarineJS/node-minecraft-data/stargazers",
            "statuses_url": "https://api.github.com/repos/PrismarineJS/node-minecraft-data/statuses/{sha}",
            "subscribers_url": "https://api.github.com/repos/PrismarineJS/node-minecraft-data/subscribers",
            "subscription_url": "https://api.github.com/repos/PrismarineJS/node-minecraft-data/subscription",
            "svn_url": "https://github.com/PrismarineJS/node-minecraft-data",
            "tags_url": "https://api.github.com/repos/PrismarineJS/node-minecraft-data/tags",
            "teams_url": "https://api.github.com/repos/PrismarineJS/node-minecraft-data/teams",
            "topics": [],
            "trees_url": "https://api.github.com/repos/PrismarineJS/node-minecraft-data/git/trees{/sha}",
            "updated_at": "2023-04-06T17:47:53Z",
            "url": "https://api.github.com/repos/PrismarineJS/node-minecraft-data",
            "visibility": "public",
            "watchers": 73,
            "watchers_count": 73,
            "web_commit_signoff_required": false
        },
        "sha": "8f183f7a08b1895c75d17a2ff14951f0fefa7375",
        "user": {
            "avatar_url": "https://avatars.githubusercontent.com/u/11053411?v=4",
            "events_url": "https://api.github.com/users/PrismarineJS/events{/privacy}",
            "followers_url": "https://api.github.com/users/PrismarineJS/followers",
            "following_url": "https://api.github.com/users/PrismarineJS/following{/other_user}",
            "gists_url": "https://api.github.com/users/PrismarineJS/gists{/gist_id}",
            "gravatar_id": "",
            "html_url": "https://github.com/PrismarineJS",
            "id": 11053411,
            "login": "PrismarineJS",
            "node_id": "MDEyOk9yZ2FuaXphdGlvbjExMDUzNDEx",
            "organizations_url": "https://api.github.com/users/PrismarineJS/orgs",
            "received_events_url": "https://api.github.com/users/PrismarineJS/received_events",
            "repos_url": "https://api.github.com/users/PrismarineJS/repos",
            "site_admin": false,
            "starred_url": "https://api.github.com/users/PrismarineJS/starred{/owner}{/repo}",
            "subscriptions_url": "https://api.github.com/users/PrismarineJS/subscriptions",
            "type": "Organization",
            "url": "https://api.github.com/users/PrismarineJS"
        }
    },
    "body": "A new version of minecraft-data was released.",
    "changed_files": 3,
    "closed_at": "2022-01-22T17:21:34Z",
    "comment_data": [],
    "comment_regular_data": [
        {
            "author_association": "MEMBER",
            "body": "done manually",
            "created_at": "2022-01-22T17:21:34Z",
            "html_url": "https://github.com/PrismarineJS/node-minecraft-data/pull/146#issuecomment-1019313136",
            "id": 1019313136,
            "issue_url": "https://api.github.com/repos/PrismarineJS/node-minecraft-data/issues/146",
            "node_id": "IC_kwDOAhfwb848wXvw",
            "performed_via_github_app": null,
            "reactions": {
                "+1": 0,
                "-1": 0,
                "confused": 0,
                "eyes": 0,
                "heart": 0,
                "hooray": 0,
                "laugh": 0,
                "rocket": 0,
                "total_count": 0,
                "url": "https://api.github.com/repos/PrismarineJS/node-minecraft-data/issues/comments/1019313136/reactions"
            },
            "updated_at": "2022-01-22T17:21:34Z",
            "url": "https://api.github.com/repos/PrismarineJS/node-minecraft-data/issues/comments/1019313136",
            "user": {
                "avatar_url": "https://avatars.githubusercontent.com/u/2346494?v=4",
                "events_url": "https://api.github.com/users/rom1504/events{/privacy}",
                "followers_url": "https://api.github.com/users/rom1504/followers",
                "following_url": "https://api.github.com/users/rom1504/following{/other_user}",
                "gists_url": "https://api.github.com/users/rom1504/gists{/gist_id}",
                "gravatar_id": "",
                "html_url": "https://github.com/rom1504",
                "id": 2346494,
                "login": "rom1504",
                "node_id": "MDQ6VXNlcjIzNDY0OTQ=",
                "organizations_url": "https://api.github.com/users/rom1504/orgs",
                "received_events_url": "https://api.github.com/users/rom1504/received_events",
                "repos_url": "https://api.github.com/users/rom1504/repos",
                "site_admin": false,
                "starred_url": "https://api.github.com/users/rom1504/starred{/owner}{/repo}",
                "subscriptions_url": "https://api.github.com/users/rom1504/subscriptions",
                "type": "User",
                "url": "https://api.github.com/users/rom1504"
            }
        }
    ],
    "comments": 1,
    "comments_url": "https://api.github.com/repos/PrismarineJS/node-minecraft-data/issues/146/comments",
    "commit_data": [
        {
            "author": {
                "avatar_url": "https://avatars.githubusercontent.com/u/15970751?v=4",
                "events_url": "https://api.github.com/users/rom1504bot/events{/privacy}",
                "followers_url": "https://api.github.com/users/rom1504bot/followers",
                "following_url": "https://api.github.com/users/rom1504bot/following{/other_user}",
                "gists_url": "https://api.github.com/users/rom1504bot/gists{/gist_id}",
                "gravatar_id": "",
                "html_url": "https://github.com/rom1504bot",
                "id": 15970751,
                "login": "rom1504bot",
                "node_id": "MDQ6VXNlcjE1OTcwNzUx",
                "organizations_url": "https://api.github.com/users/rom1504bot/orgs",
                "received_events_url": "https://api.github.com/users/rom1504bot/received_events",
                "repos_url": "https://api.github.com/users/rom1504bot/repos",
                "site_admin": false,
                "starred_url": "https://api.github.com/users/rom1504bot/starred{/owner}{/repo}",
                "subscriptions_url": "https://api.github.com/users/rom1504bot/subscriptions",
                "type": "User",
                "url": "https://api.github.com/users/rom1504bot"
            },
            "comments_url": "https://api.github.com/repos/PrismarineJS/node-minecraft-data/commits/ebc141fe402d858f84e2fe6987394610066453ac/comments",
            "commit": {
                "author": {
                    "date": "2022-01-22T17:08:11Z",
                    "email": "rom1504bot@users.noreply.github.com",
                    "name": "rom1504bot"
                },
                "comment_count": 0,
                "committer": {
                    "date": "2022-01-22T17:08:24Z",
                    "email": "romain.rom1@gmail.com",
                    "name": "Romain Beaumont"
                },
                "message": "Update Minecraft Data",
                "tree": {
                    "sha": "d533bc13cd5e2dbeddbc68283032a508c7ca2a48",
                    "url": "https://api.github.com/repos/PrismarineJS/node-minecraft-data/git/trees/d533bc13cd5e2dbeddbc68283032a508c7ca2a48"
                },
                "url": "https://api.github.com/repos/PrismarineJS/node-minecraft-data/git/commits/ebc141fe402d858f84e2fe6987394610066453ac",
                "verification": {
                    "payload": null,
                    "reason": "unsigned",
                    "signature": null,
                    "verified": false
                }
            },
            "committer": {
                "avatar_url": "https://avatars.githubusercontent.com/u/2346494?v=4",
                "events_url": "https://api.github.com/users/rom1504/events{/privacy}",
                "followers_url": "https://api.github.com/users/rom1504/followers",
                "following_url": "https://api.github.com/users/rom1504/following{/other_user}",
                "gists_url": "https://api.github.com/users/rom1504/gists{/gist_id}",
                "gravatar_id": "",
                "html_url": "https://github.com/rom1504",
                "id": 2346494,
                "login": "rom1504",
                "node_id": "MDQ6VXNlcjIzNDY0OTQ=",
                "organizations_url": "https://api.github.com/users/rom1504/orgs",
                "received_events_url": "https://api.github.com/users/rom1504/received_events",
                "repos_url": "https://api.github.com/users/rom1504/repos",
                "site_admin": false,
                "starred_url": "https://api.github.com/users/rom1504/starred{/owner}{/repo}",
                "subscriptions_url": "https://api.github.com/users/rom1504/subscriptions",
                "type": "User",
                "url": "https://api.github.com/users/rom1504"
            },
            "html_url": "https://github.com/PrismarineJS/node-minecraft-data/commit/ebc141fe402d858f84e2fe6987394610066453ac",
            "node_id": "C_kwDOAhfwb9oAKGViYzE0MWZlNDAyZDg1OGY4NGUyZmU2OTg3Mzk0NjEwMDY2NDUzYWM",
            "parents": [
                {
                    "html_url": "https://github.com/PrismarineJS/node-minecraft-data/commit/8f183f7a08b1895c75d17a2ff14951f0fefa7375",
                    "sha": "8f183f7a08b1895c75d17a2ff14951f0fefa7375",
                    "url": "https://api.github.com/repos/PrismarineJS/node-minecraft-data/commits/8f183f7a08b1895c75d17a2ff14951f0fefa7375"
                }
            ],
            "sha": "ebc141fe402d858f84e2fe6987394610066453ac",
            "url": "https://api.github.com/repos/PrismarineJS/node-minecraft-data/commits/ebc141fe402d858f84e2fe6987394610066453ac"
        },
        {
            "author": {
                "avatar_url": "https://avatars.githubusercontent.com/u/15970751?v=4",
                "events_url": "https://api.github.com/users/rom1504bot/events{/privacy}",
                "followers_url": "https://api.github.com/users/rom1504bot/followers",
                "following_url": "https://api.github.com/users/rom1504bot/following{/other_user}",
                "gists_url": "https://api.github.com/users/rom1504bot/gists{/gist_id}",
                "gravatar_id": "",
                "html_url": "https://github.com/rom1504bot",
                "id": 15970751,
                "login": "rom1504bot",
                "node_id": "MDQ6VXNlcjE1OTcwNzUx",
                "organizations_url": "https://api.github.com/users/rom1504bot/orgs",
                "received_events_url": "https://api.github.com/users/rom1504bot/received_events",
                "repos_url": "https://api.github.com/users/rom1504bot/repos",
                "site_admin": false,
                "starred_url": "https://api.github.com/users/rom1504bot/starred{/owner}{/repo}",
                "subscriptions_url": "https://api.github.com/users/rom1504bot/subscriptions",
                "type": "User",
                "url": "https://api.github.com/users/rom1504bot"
            },
            "comments_url": "https://api.github.com/repos/PrismarineJS/node-minecraft-data/commits/55311dd2b0ca2e6d8f79638a9da1b0546b4ece1a/comments",
            "commit": {
                "author": {
                    "date": "2022-01-22T17:08:11Z",
                    "email": "rom1504bot@users.noreply.github.com",
                    "name": "rom1504bot"
                },
                "comment_count": 0,
                "committer": {
                    "date": "2022-01-22T17:08:24Z",
                    "email": "romain.rom1@gmail.com",
                    "name": "Romain Beaumont"
                },
                "message": "Release 1.108.0",
                "tree": {
                    "sha": "8b60cf3d69bd7aaca0a48f987a88e8e30b796989",
                    "url": "https://api.github.com/repos/PrismarineJS/node-minecraft-data/git/trees/8b60cf3d69bd7aaca0a48f987a88e8e30b796989"
                },
                "url": "https://api.github.com/repos/PrismarineJS/node-minecraft-data/git/commits/55311dd2b0ca2e6d8f79638a9da1b0546b4ece1a",
                "verification": {
                    "payload": null,
                    "reason": "unsigned",
                    "signature": null,
                    "verified": false
                }
            },
            "committer": {
                "avatar_url": "https://avatars.githubusercontent.com/u/2346494?v=4",
                "events_url": "https://api.github.com/users/rom1504/events{/privacy}",
                "followers_url": "https://api.github.com/users/rom1504/followers",
                "following_url": "https://api.github.com/users/rom1504/following{/other_user}",
                "gists_url": "https://api.github.com/users/rom1504/gists{/gist_id}",
                "gravatar_id": "",
                "html_url": "https://github.com/rom1504",
                "id": 2346494,
                "login": "rom1504",
                "node_id": "MDQ6VXNlcjIzNDY0OTQ=",
                "organizations_url": "https://api.github.com/users/rom1504/orgs",
                "received_events_url": "https://api.github.com/users/rom1504/received_events",
                "repos_url": "https://api.github.com/users/rom1504/repos",
                "site_admin": false,
                "starred_url": "https://api.github.com/users/rom1504/starred{/owner}{/repo}",
                "subscriptions_url": "https://api.github.com/users/rom1504/subscriptions",
                "type": "User",
                "url": "https://api.github.com/users/rom1504"
            },
            "html_url": "https://github.com/PrismarineJS/node-minecraft-data/commit/55311dd2b0ca2e6d8f79638a9da1b0546b4ece1a",
            "node_id": "C_kwDOAhfwb9oAKDU1MzExZGQyYjBjYTJlNmQ4Zjc5NjM4YTlkYTFiMDU0NmI0ZWNlMWE",
            "parents": [
                {
                    "html_url": "https://github.com/PrismarineJS/node-minecraft-data/commit/ebc141fe402d858f84e2fe6987394610066453ac",
                    "sha": "ebc141fe402d858f84e2fe6987394610066453ac",
                    "url": "https://api.github.com/repos/PrismarineJS/node-minecraft-data/commits/ebc141fe402d858f84e2fe6987394610066453ac"
                }
            ],
            "sha": "55311dd2b0ca2e6d8f79638a9da1b0546b4ece1a",
            "url": "https://api.github.com/repos/PrismarineJS/node-minecraft-data/commits/55311dd2b0ca2e6d8f79638a9da1b0546b4ece1a"
        },
        {
            "author": {
                "avatar_url": "https://avatars.githubusercontent.com/u/15970751?v=4",
                "events_url": "https://api.github.com/users/rom1504bot/events{/privacy}",
                "followers_url": "https://api.github.com/users/rom1504bot/followers",
                "following_url": "https://api.github.com/users/rom1504bot/following{/other_user}",
                "gists_url": "https://api.github.com/users/rom1504bot/gists{/gist_id}",
                "gravatar_id": "",
                "html_url": "https://github.com/rom1504bot",
                "id": 15970751,
                "login": "rom1504bot",
                "node_id": "MDQ6VXNlcjE1OTcwNzUx",
                "organizations_url": "https://api.github.com/users/rom1504bot/orgs",
                "received_events_url": "https://api.github.com/users/rom1504bot/received_events",
                "repos_url": "https://api.github.com/users/rom1504bot/repos",
                "site_admin": false,
                "starred_url": "https://api.github.com/users/rom1504bot/starred{/owner}{/repo}",
                "subscriptions_url": "https://api.github.com/users/rom1504bot/subscriptions",
                "type": "User",
                "url": "https://api.github.com/users/rom1504bot"
            },
            "comments_url": "https://api.github.com/repos/PrismarineJS/node-minecraft-data/commits/81f7b43355eb3851f1d3cea23eb25eeae9a1ac48/comments",
            "commit": {
                "author": {
                    "date": "2022-01-22T17:16:56Z",
                    "email": "rom1504bot@users.noreply.github.com",
                    "name": "rom1504bot"
                },
                "comment_count": 0,
                "committer": {
                    "date": "2022-01-22T17:16:56Z",
                    "email": "rom1504bot@users.noreply.github.com",
                    "name": "rom1504bot"
                },
                "message": "Update Minecraft Data",
                "tree": {
                    "sha": "dfc2e8d0bf26546c711e335b76353ba6a06d609f",
                    "url": "https://api.github.com/repos/PrismarineJS/node-minecraft-data/git/trees/dfc2e8d0bf26546c711e335b76353ba6a06d609f"
                },
                "url": "https://api.github.com/repos/PrismarineJS/node-minecraft-data/git/commits/81f7b43355eb3851f1d3cea23eb25eeae9a1ac48",
                "verification": {
                    "payload": null,
                    "reason": "unsigned",
                    "signature": null,
                    "verified": false
                }
            },
            "committer": {
                "avatar_url": "https://avatars.githubusercontent.com/u/15970751?v=4",
                "events_url": "https://api.github.com/users/rom1504bot/events{/privacy}",
                "followers_url": "https://api.github.com/users/rom1504bot/followers",
                "following_url": "https://api.github.com/users/rom1504bot/following{/other_user}",
                "gists_url": "https://api.github.com/users/rom1504bot/gists{/gist_id}",
                "gravatar_id": "",
                "html_url": "https://github.com/rom1504bot",
                "id": 15970751,
                "login": "rom1504bot",
                "node_id": "MDQ6VXNlcjE1OTcwNzUx",
                "organizations_url": "https://api.github.com/users/rom1504bot/orgs",
                "received_events_url": "https://api.github.com/users/rom1504bot/received_events",
                "repos_url": "https://api.github.com/users/rom1504bot/repos",
                "site_admin": false,
                "starred_url": "https://api.github.com/users/rom1504bot/starred{/owner}{/repo}",
                "subscriptions_url": "https://api.github.com/users/rom1504bot/subscriptions",
                "type": "User",
                "url": "https://api.github.com/users/rom1504bot"
            },
            "html_url": "https://github.com/PrismarineJS/node-minecraft-data/commit/81f7b43355eb3851f1d3cea23eb25eeae9a1ac48",
            "node_id": "C_kwDOAhfwb9oAKDgxZjdiNDMzNTVlYjM4NTFmMWQzY2VhMjNlYjI1ZWVhZTlhMWFjNDg",
            "parents": [
                {
                    "html_url": "https://github.com/PrismarineJS/node-minecraft-data/commit/55311dd2b0ca2e6d8f79638a9da1b0546b4ece1a",
                    "sha": "55311dd2b0ca2e6d8f79638a9da1b0546b4ece1a",
                    "url": "https://api.github.com/repos/PrismarineJS/node-minecraft-data/commits/55311dd2b0ca2e6d8f79638a9da1b0546b4ece1a"
                }
            ],
            "sha": "81f7b43355eb3851f1d3cea23eb25eeae9a1ac48",
            "url": "https://api.github.com/repos/PrismarineJS/node-minecraft-data/commits/81f7b43355eb3851f1d3cea23eb25eeae9a1ac48"
        },
        {
            "author": {
                "avatar_url": "https://avatars.githubusercontent.com/u/15970751?v=4",
                "events_url": "https://api.github.com/users/rom1504bot/events{/privacy}",
                "followers_url": "https://api.github.com/users/rom1504bot/followers",
                "following_url": "https://api.github.com/users/rom1504bot/following{/other_user}",
                "gists_url": "https://api.github.com/users/rom1504bot/gists{/gist_id}",
                "gravatar_id": "",
                "html_url": "https://github.com/rom1504bot",
                "id": 15970751,
                "login": "rom1504bot",
                "node_id": "MDQ6VXNlcjE1OTcwNzUx",
                "organizations_url": "https://api.github.com/users/rom1504bot/orgs",
                "received_events_url": "https://api.github.com/users/rom1504bot/received_events",
                "repos_url": "https://api.github.com/users/rom1504bot/repos",
                "site_admin": false,
                "starred_url": "https://api.github.com/users/rom1504bot/starred{/owner}{/repo}",
                "subscriptions_url": "https://api.github.com/users/rom1504bot/subscriptions",
                "type": "User",
                "url": "https://api.github.com/users/rom1504bot"
            },
            "comments_url": "https://api.github.com/repos/PrismarineJS/node-minecraft-data/commits/16f395f25d6ae9ba6bacf56eba082919d67c66f7/comments",
            "commit": {
                "author": {
                    "date": "2022-01-22T17:16:56Z",
                    "email": "rom1504bot@users.noreply.github.com",
                    "name": "rom1504bot"
                },
                "comment_count": 0,
                "committer": {
                    "date": "2022-01-22T17:16:56Z",
                    "email": "rom1504bot@users.noreply.github.com",
                    "name": "rom1504bot"
                },
                "message": "Release 2.108.0",
                "tree": {
                    "sha": "1726997c40ba4ff21cb44014cb883d8f53ffdc33",
                    "url": "https://api.github.com/repos/PrismarineJS/node-minecraft-data/git/trees/1726997c40ba4ff21cb44014cb883d8f53ffdc33"
                },
                "url": "https://api.github.com/repos/PrismarineJS/node-minecraft-data/git/commits/16f395f25d6ae9ba6bacf56eba082919d67c66f7",
                "verification": {
                    "payload": null,
                    "reason": "unsigned",
                    "signature": null,
                    "verified": false
                }
            },
            "committer": {
                "avatar_url": "https://avatars.githubusercontent.com/u/15970751?v=4",
                "events_url": "https://api.github.com/users/rom1504bot/events{/privacy}",
                "followers_url": "https://api.github.com/users/rom1504bot/followers",
                "following_url": "https://api.github.com/users/rom1504bot/following{/other_user}",
                "gists_url": "https://api.github.com/users/rom1504bot/gists{/gist_id}",
                "gravatar_id": "",
                "html_url": "https://github.com/rom1504bot",
                "id": 15970751,
                "login": "rom1504bot",
                "node_id": "MDQ6VXNlcjE1OTcwNzUx",
                "organizations_url": "https://api.github.com/users/rom1504bot/orgs",
                "received_events_url": "https://api.github.com/users/rom1504bot/received_events",
                "repos_url": "https://api.github.com/users/rom1504bot/repos",
                "site_admin": false,
                "starred_url": "https://api.github.com/users/rom1504bot/starred{/owner}{/repo}",
                "subscriptions_url": "https://api.github.com/users/rom1504bot/subscriptions",
                "type": "User",
                "url": "https://api.github.com/users/rom1504bot"
            },
            "html_url": "https://github.com/PrismarineJS/node-minecraft-data/commit/16f395f25d6ae9ba6bacf56eba082919d67c66f7",
            "node_id": "C_kwDOAhfwb9oAKDE2ZjM5NWYyNWQ2YWU5YmE2YmFjZjU2ZWJhMDgyOTE5ZDY3YzY2Zjc",
            "parents": [
                {
                    "html_url": "https://github.com/PrismarineJS/node-minecraft-data/commit/81f7b43355eb3851f1d3cea23eb25eeae9a1ac48",
                    "sha": "81f7b43355eb3851f1d3cea23eb25eeae9a1ac48",
                    "url": "https://api.github.com/repos/PrismarineJS/node-minecraft-data/commits/81f7b43355eb3851f1d3cea23eb25eeae9a1ac48"
                }
            ],
            "sha": "16f395f25d6ae9ba6bacf56eba082919d67c66f7",
            "url": "https://api.github.com/repos/PrismarineJS/node-minecraft-data/commits/16f395f25d6ae9ba6bacf56eba082919d67c66f7"
        }
    ],
    "commits": 4,
    "commits_url": "https://api.github.com/repos/PrismarineJS/node-minecraft-data/pulls/146/commits",
    "created_at": "2022-01-22T17:16:58Z",
    "deletions": 2,
    "diff_url": "https://github.com/PrismarineJS/node-minecraft-data/pull/146.diff",
    "draft": false,
    "head": {
        "label": "PrismarineJS:release-2.108.0",
        "ref": "release-2.108.0",
        "repo": {
            "allow_forking": true,
            "archive_url": "https://api.github.com/repos/PrismarineJS/node-minecraft-data/{archive_format}{/ref}",
            "archived": false,
            "assignees_url": "https://api.github.com/repos/PrismarineJS/node-minecraft-data/assignees{/user}",
            "blobs_url": "https://api.github.com/repos/PrismarineJS/node-minecraft-data/git/blobs{/sha}",
            "branches_url": "https://api.github.com/repos/PrismarineJS/node-minecraft-data/branches{/branch}",
            "clone_url": "https://github.com/PrismarineJS/node-minecraft-data.git",
            "collaborators_url": "https://api.github.com/repos/PrismarineJS/node-minecraft-data/collaborators{/collaborator}",
            "comments_url": "https://api.github.com/repos/PrismarineJS/node-minecraft-data/comments{/number}",
            "commits_url": "https://api.github.com/repos/PrismarineJS/node-minecraft-data/commits{/sha}",
            "compare_url": "https://api.github.com/repos/PrismarineJS/node-minecraft-data/compare/{base}...{head}",
            "contents_url": "https://api.github.com/repos/PrismarineJS/node-minecraft-data/contents/{+path}",
            "contributors_url": "https://api.github.com/repos/PrismarineJS/node-minecraft-data/contributors",
            "created_at": "2015-05-05T20:50:30Z",
            "default_branch": "master",
            "deployments_url": "https://api.github.com/repos/PrismarineJS/node-minecraft-data/deployments",
            "description": "Provide easy access to minecraft-data in node.js",
            "disabled": false,
            "downloads_url": "https://api.github.com/repos/PrismarineJS/node-minecraft-data/downloads",
            "events_url": "https://api.github.com/repos/PrismarineJS/node-minecraft-data/events",
            "fork": false,
            "forks": 40,
            "forks_count": 40,
            "forks_url": "https://api.github.com/repos/PrismarineJS/node-minecraft-data/forks",
            "full_name": "PrismarineJS/node-minecraft-data",
            "git_commits_url": "https://api.github.com/repos/PrismarineJS/node-minecraft-data/git/commits{/sha}",
            "git_refs_url": "https://api.github.com/repos/PrismarineJS/node-minecraft-data/git/refs{/sha}",
            "git_tags_url": "https://api.github.com/repos/PrismarineJS/node-minecraft-data/git/tags{/sha}",
            "git_url": "git://github.com/PrismarineJS/node-minecraft-data.git",
            "has_discussions": false,
            "has_downloads": true,
            "has_issues": true,
            "has_pages": false,
            "has_projects": true,
            "has_wiki": true,
            "homepage": "https://minecraft-data.prismarine.js.org/",
            "hooks_url": "https://api.github.com/repos/PrismarineJS/node-minecraft-data/hooks",
            "html_url": "https://github.com/PrismarineJS/node-minecraft-data",
            "id": 35123311,
            "is_template": false,
            "issue_comment_url": "https://api.github.com/repos/PrismarineJS/node-minecraft-data/issues/comments{/number}",
            "issue_events_url": "https://api.github.com/repos/PrismarineJS/node-minecraft-data/issues/events{/number}",
            "issues_url": "https://api.github.com/repos/PrismarineJS/node-minecraft-data/issues{/number}",
            "keys_url": "https://api.github.com/repos/PrismarineJS/node-minecraft-data/keys{/key_id}",
            "labels_url": "https://api.github.com/repos/PrismarineJS/node-minecraft-data/labels{/name}",
            "language": "JavaScript",
            "languages_url": "https://api.github.com/repos/PrismarineJS/node-minecraft-data/languages",
            "license": null,
            "merges_url": "https://api.github.com/repos/PrismarineJS/node-minecraft-data/merges",
            "milestones_url": "https://api.github.com/repos/PrismarineJS/node-minecraft-data/milestones{/number}",
            "mirror_url": null,
            "name": "node-minecraft-data",
            "node_id": "MDEwOlJlcG9zaXRvcnkzNTEyMzMxMQ==",
            "notifications_url": "https://api.github.com/repos/PrismarineJS/node-minecraft-data/notifications{?since,all,participating}",
            "open_issues": 7,
            "open_issues_count": 7,
            "owner": {
                "avatar_url": "https://avatars.githubusercontent.com/u/11053411?v=4",
                "events_url": "https://api.github.com/users/PrismarineJS/events{/privacy}",
                "followers_url": "https://api.github.com/users/PrismarineJS/followers",
                "following_url": "https://api.github.com/users/PrismarineJS/following{/other_user}",
                "gists_url": "https://api.github.com/users/PrismarineJS/gists{/gist_id}",
                "gravatar_id": "",
                "html_url": "https://github.com/PrismarineJS",
                "id": 11053411,
                "login": "PrismarineJS",
                "node_id": "MDEyOk9yZ2FuaXphdGlvbjExMDUzNDEx",
                "organizations_url": "https://api.github.com/users/PrismarineJS/orgs",
                "received_events_url": "https://api.github.com/users/PrismarineJS/received_events",
                "repos_url": "https://api.github.com/users/PrismarineJS/repos",
                "site_admin": false,
                "starred_url": "https://api.github.com/users/PrismarineJS/starred{/owner}{/repo}",
                "subscriptions_url": "https://api.github.com/users/PrismarineJS/subscriptions",
                "type": "Organization",
                "url": "https://api.github.com/users/PrismarineJS"
            },
            "private": false,
            "pulls_url": "https://api.github.com/repos/PrismarineJS/node-minecraft-data/pulls{/number}",
            "pushed_at": "2023-04-10T01:09:34Z",
            "releases_url": "https://api.github.com/repos/PrismarineJS/node-minecraft-data/releases{/id}",
            "size": 421,
            "ssh_url": "git@github.com:PrismarineJS/node-minecraft-data.git",
            "stargazers_count": 73,
            "stargazers_url": "https://api.github.com/repos/PrismarineJS/node-minecraft-data/stargazers",
            "statuses_url": "https://api.github.com/repos/PrismarineJS/node-minecraft-data/statuses/{sha}",
            "subscribers_url": "https://api.github.com/repos/PrismarineJS/node-minecraft-data/subscribers",
            "subscription_url": "https://api.github.com/repos/PrismarineJS/node-minecraft-data/subscription",
            "svn_url": "https://github.com/PrismarineJS/node-minecraft-data",
            "tags_url": "https://api.github.com/repos/PrismarineJS/node-minecraft-data/tags",
            "teams_url": "https://api.github.com/repos/PrismarineJS/node-minecraft-data/teams",
            "topics": [],
            "trees_url": "https://api.github.com/repos/PrismarineJS/node-minecraft-data/git/trees{/sha}",
            "updated_at": "2023-04-06T17:47:53Z",
            "url": "https://api.github.com/repos/PrismarineJS/node-minecraft-data",
            "visibility": "public",
            "watchers": 73,
            "watchers_count": 73,
            "web_commit_signoff_required": false
        },
        "sha": "16f395f25d6ae9ba6bacf56eba082919d67c66f7",
        "user": {
            "avatar_url": "https://avatars.githubusercontent.com/u/11053411?v=4",
            "events_url": "https://api.github.com/users/PrismarineJS/events{/privacy}",
            "followers_url": "https://api.github.com/users/PrismarineJS/followers",
            "following_url": "https://api.github.com/users/PrismarineJS/following{/other_user}",
            "gists_url": "https://api.github.com/users/PrismarineJS/gists{/gist_id}",
            "gravatar_id": "",
            "html_url": "https://github.com/PrismarineJS",
            "id": 11053411,
            "login": "PrismarineJS",
            "node_id": "MDEyOk9yZ2FuaXphdGlvbjExMDUzNDEx",
            "organizations_url": "https://api.github.com/users/PrismarineJS/orgs",
            "received_events_url": "https://api.github.com/users/PrismarineJS/received_events",
            "repos_url": "https://api.github.com/users/PrismarineJS/repos",
            "site_admin": false,
            "starred_url": "https://api.github.com/users/PrismarineJS/starred{/owner}{/repo}",
            "subscriptions_url": "https://api.github.com/users/PrismarineJS/subscriptions",
            "type": "Organization",
            "url": "https://api.github.com/users/PrismarineJS"
        }
    },
    "html_url": "https://github.com/PrismarineJS/node-minecraft-data/pull/146",
    "id": 829559121,
    "issue_url": "https://api.github.com/repos/PrismarineJS/node-minecraft-data/issues/146",
    "labels": [],
    "locked": false,
    "maintainer_can_modify": false,
    "merge_commit_sha": "e669eaa65077e68216be99a0f6a32cc21e3bfa5a",
    "mergeable": false,
    "mergeable_state": "dirty",
    "merged": false,
    "merged_at": null,
    "merged_by": null,
    "milestone": null,
    "node_id": "PR_kwDOAhfwb84xchFR",
    "number": 146,
    "patch_url": "https://github.com/PrismarineJS/node-minecraft-data/pull/146.patch",
    "rebaseable": false,
    "requested_reviewers": [],
    "requested_teams": [],
    "review_comment_url": "https://api.github.com/repos/PrismarineJS/node-minecraft-data/pulls/comments{/number}",
    "review_comments": 0,
    "review_comments_url": "https://api.github.com/repos/PrismarineJS/node-minecraft-data/pulls/146/comments",
    "state": "closed",
    "statuses_url": "https://api.github.com/repos/PrismarineJS/node-minecraft-data/statuses/16f395f25d6ae9ba6bacf56eba082919d67c66f7",
    "title": "Release 2.108.0",
    "updated_at": "2022-01-22T17:21:37Z",
    "url": "https://api.github.com/repos/PrismarineJS/node-minecraft-data/pulls/146",
    "user": {
        "avatar_url": "https://avatars.githubusercontent.com/u/15970751?v=4",
        "events_url": "https://api.github.com/users/rom1504bot/events{/privacy}",
        "followers_url": "https://api.github.com/users/rom1504bot/followers",
        "following_url": "https://api.github.com/users/rom1504bot/following{/other_user}",
        "gists_url": "https://api.github.com/users/rom1504bot/gists{/gist_id}",
        "gravatar_id": "",
        "html_url": "https://github.com/rom1504bot",
        "id": 15970751,
        "login": "rom1504bot",
        "node_id": "MDQ6VXNlcjE1OTcwNzUx",
        "organizations_url": "https://api.github.com/users/rom1504bot/orgs",
        "received_events_url": "https://api.github.com/users/rom1504bot/received_events",
        "repos_url": "https://api.github.com/users/rom1504bot/repos",
        "site_admin": false,
        "starred_url": "https://api.github.com/users/rom1504bot/starred{/owner}{/repo}",
        "subscriptions_url": "https://api.github.com/users/rom1504bot/subscriptions",
        "type": "User",
        "url": "https://api.github.com/users/rom1504bot"
    }
}