{
    "_links": {
        "comments": {
            "href": "https://api.github.com/repos/PrismarineJS/node-minecraft-data/issues/280/comments"
        },
        "commits": {
            "href": "https://api.github.com/repos/PrismarineJS/node-minecraft-data/pulls/280/commits"
        },
        "html": {
            "href": "https://github.com/PrismarineJS/node-minecraft-data/pull/280"
        },
        "issue": {
            "href": "https://api.github.com/repos/PrismarineJS/node-minecraft-data/issues/280"
        },
        "review_comment": {
            "href": "https://api.github.com/repos/PrismarineJS/node-minecraft-data/pulls/comments{/number}"
        },
        "review_comments": {
            "href": "https://api.github.com/repos/PrismarineJS/node-minecraft-data/pulls/280/comments"
        },
        "self": {
            "href": "https://api.github.com/repos/PrismarineJS/node-minecraft-data/pulls/280"
        },
        "statuses": {
            "href": "https://api.github.com/repos/PrismarineJS/node-minecraft-data/statuses/b218e4fbd497e23e36949985422fbc4417cd2b57"
        }
    },
    "active_lock_reason": null,
    "additions": 1,
    "assignee": null,
    "assignees": [],
    "author_association": "CONTRIBUTOR",
    "auto_merge": null,
    "base": {
        "label": "PrismarineJS:master",
        "ref": "master",
        "repo": {
            "allow_forking": true,
            "archive_url": "https://api.github.com/repos/PrismarineJS/node-minecraft-data/{archive_format}{/ref}",
            "archived": false,
            "assignees_url": "https://api.github.com/repos/PrismarineJS/node-minecraft-data/assignees{/user}",
            "blobs_url": "https://api.github.com/repos/PrismarineJS/node-minecraft-data/git/blobs{/sha}",
            "branches_url": "https://api.github.com/repos/PrismarineJS/node-minecraft-data/branches{/branch}",
            "clone_url": "https://github.com/PrismarineJS/node-minecraft-data.git",
            "collaborators_url": "https://api.github.com/repos/PrismarineJS/node-minecraft-data/collaborators{/collaborator}",
            "comments_url": "https://api.github.com/repos/PrismarineJS/node-minecraft-data/comments{/number}",
            "commits_url": "https://api.github.com/repos/PrismarineJS/node-minecraft-data/commits{/sha}",
            "compare_url": "https://api.github.com/repos/PrismarineJS/node-minecraft-data/compare/{base}...{head}",
            "contents_url": "https://api.github.com/repos/PrismarineJS/node-minecraft-data/contents/{+path}",
            "contributors_url": "https://api.github.com/repos/PrismarineJS/node-minecraft-data/contributors",
            "created_at": "2015-05-05T20:50:30Z",
            "default_branch": "master",
            "deployments_url": "https://api.github.com/repos/PrismarineJS/node-minecraft-data/deployments",
            "description": "Provide easy access to minecraft-data in node.js",
            "disabled": false,
            "downloads_url": "https://api.github.com/repos/PrismarineJS/node-minecraft-data/downloads",
            "events_url": "https://api.github.com/repos/PrismarineJS/node-minecraft-data/events",
            "fork": false,
            "forks": 41,
            "forks_count": 41,
            "forks_url": "https://api.github.com/repos/PrismarineJS/node-minecraft-data/forks",
            "full_name": "PrismarineJS/node-minecraft-data",
            "git_commits_url": "https://api.github.com/repos/PrismarineJS/node-minecraft-data/git/commits{/sha}",
            "git_refs_url": "https://api.github.com/repos/PrismarineJS/node-minecraft-data/git/refs{/sha}",
            "git_tags_url": "https://api.github.com/repos/PrismarineJS/node-minecraft-data/git/tags{/sha}",
            "git_url": "git://github.com/PrismarineJS/node-minecraft-data.git",
            "has_discussions": false,
            "has_downloads": true,
            "has_issues": true,
            "has_pages": false,
            "has_projects": true,
            "has_wiki": true,
            "homepage": "https://minecraft-data.prismarine.js.org/",
            "hooks_url": "https://api.github.com/repos/PrismarineJS/node-minecraft-data/hooks",
            "html_url": "https://github.com/PrismarineJS/node-minecraft-data",
            "id": 35123311,
            "is_template": false,
            "issue_comment_url": "https://api.github.com/repos/PrismarineJS/node-minecraft-data/issues/comments{/number}",
            "issue_events_url": "https://api.github.com/repos/PrismarineJS/node-minecraft-data/issues/events{/number}",
            "issues_url": "https://api.github.com/repos/PrismarineJS/node-minecraft-data/issues{/number}",
            "keys_url": "https://api.github.com/repos/PrismarineJS/node-minecraft-data/keys{/key_id}",
            "labels_url": "https://api.github.com/repos/PrismarineJS/node-minecraft-data/labels{/name}",
            "language": "JavaScript",
            "languages_url": "https://api.github.com/repos/PrismarineJS/node-minecraft-data/languages",
            "license": null,
            "merges_url": "https://api.github.com/repos/PrismarineJS/node-minecraft-data/merges",
            "milestones_url": "https://api.github.com/repos/PrismarineJS/node-minecraft-data/milestones{/number}",
            "mirror_url": null,
            "name": "node-minecraft-data",
            "node_id": "MDEwOlJlcG9zaXRvcnkzNTEyMzMxMQ==",
            "notifications_url": "https://api.github.com/repos/PrismarineJS/node-minecraft-data/notifications{?since,all,participating}",
            "open_issues": 9,
            "open_issues_count": 9,
            "owner": {
                "avatar_url": "https://avatars.githubusercontent.com/u/11053411?v=4",
                "events_url": "https://api.github.com/users/PrismarineJS/events{/privacy}",
                "followers_url": "https://api.github.com/users/PrismarineJS/followers",
                "following_url": "https://api.github.com/users/PrismarineJS/following{/other_user}",
                "gists_url": "https://api.github.com/users/PrismarineJS/gists{/gist_id}",
                "gravatar_id": "",
                "html_url": "https://github.com/PrismarineJS",
                "id": 11053411,
                "login": "PrismarineJS",
                "node_id": "MDEyOk9yZ2FuaXphdGlvbjExMDUzNDEx",
                "organizations_url": "https://api.github.com/users/PrismarineJS/orgs",
                "received_events_url": "https://api.github.com/users/PrismarineJS/received_events",
                "repos_url": "https://api.github.com/users/PrismarineJS/repos",
                "site_admin": false,
                "starred_url": "https://api.github.com/users/PrismarineJS/starred{/owner}{/repo}",
                "subscriptions_url": "https://api.github.com/users/PrismarineJS/subscriptions",
                "type": "Organization",
                "url": "https://api.github.com/users/PrismarineJS"
            },
            "private": false,
            "pulls_url": "https://api.github.com/repos/PrismarineJS/node-minecraft-data/pulls{/number}",
            "pushed_at": "2023-05-17T00:58:14Z",
            "releases_url": "https://api.github.com/repos/PrismarineJS/node-minecraft-data/releases{/id}",
            "size": 432,
            "ssh_url": "git@github.com:PrismarineJS/node-minecraft-data.git",
            "stargazers_count": 76,
            "stargazers_url": "https://api.github.com/repos/PrismarineJS/node-minecraft-data/stargazers",
            "statuses_url": "https://api.github.com/repos/PrismarineJS/node-minecraft-data/statuses/{sha}",
            "subscribers_url": "https://api.github.com/repos/PrismarineJS/node-minecraft-data/subscribers",
            "subscription_url": "https://api.github.com/repos/PrismarineJS/node-minecraft-data/subscription",
            "svn_url": "https://github.com/PrismarineJS/node-minecraft-data",
            "tags_url": "https://api.github.com/repos/PrismarineJS/node-minecraft-data/tags",
            "teams_url": "https://api.github.com/repos/PrismarineJS/node-minecraft-data/teams",
            "topics": [],
            "trees_url": "https://api.github.com/repos/PrismarineJS/node-minecraft-data/git/trees{/sha}",
            "updated_at": "2023-05-14T18:08:26Z",
            "url": "https://api.github.com/repos/PrismarineJS/node-minecraft-data",
            "visibility": "public",
            "watchers": 76,
            "watchers_count": 76,
            "web_commit_signoff_required": false
        },
        "sha": "0c52d56a35b58b5f5596fb46df5a9c0ae269c9ad",
        "user": {
            "avatar_url": "https://avatars.githubusercontent.com/u/11053411?v=4",
            "events_url": "https://api.github.com/users/PrismarineJS/events{/privacy}",
            "followers_url": "https://api.github.com/users/PrismarineJS/followers",
            "following_url": "https://api.github.com/users/PrismarineJS/following{/other_user}",
            "gists_url": "https://api.github.com/users/PrismarineJS/gists{/gist_id}",
            "gravatar_id": "",
            "html_url": "https://github.com/PrismarineJS",
            "id": 11053411,
            "login": "PrismarineJS",
            "node_id": "MDEyOk9yZ2FuaXphdGlvbjExMDUzNDEx",
            "organizations_url": "https://api.github.com/users/PrismarineJS/orgs",
            "received_events_url": "https://api.github.com/users/PrismarineJS/received_events",
            "repos_url": "https://api.github.com/users/PrismarineJS/repos",
            "site_admin": false,
            "starred_url": "https://api.github.com/users/PrismarineJS/starred{/owner}{/repo}",
            "subscriptions_url": "https://api.github.com/users/PrismarineJS/subscriptions",
            "type": "Organization",
            "url": "https://api.github.com/users/PrismarineJS"
        }
    },
    "body": "Bumps [@types/node](https://github.com/DefinitelyTyped/DefinitelyTyped/tree/HEAD/types/node) from 18.16.9 to 20.1.4.\n<details>\n<summary>Commits</summary>\n<ul>\n<li>See full diff in <a href=\"https://github.com/DefinitelyTyped/DefinitelyTyped/commits/HEAD/types/node\">compare view</a></li>\n</ul>\n</details>\n<br />\n\n\n[![Dependabot compatibility score](https://dependabot-badges.githubapp.com/badges/compatibility_score?dependency-name=@types/node&package-manager=npm_and_yarn&previous-version=18.16.9&new-version=20.1.4)](https://docs.github.com/en/github/managing-security-vulnerabilities/about-dependabot-security-updates#about-compatibility-scores)\n\nDependabot will resolve any conflicts with this PR as long as you don't alter it yourself. You can also trigger a rebase manually by commenting `@dependabot rebase`.\n\n[//]: # (dependabot-automerge-start)\n[//]: # (dependabot-automerge-end)\n\n---\n\n<details>\n<summary>Dependabot commands and options</summary>\n<br />\n\nYou can trigger Dependabot actions by commenting on this PR:\n- `@dependabot rebase` will rebase this PR\n- `@dependabot recreate` will recreate this PR, overwriting any edits that have been made to it\n- `@dependabot merge` will merge this PR after your CI passes on it\n- `@dependabot squash and merge` will squash and merge this PR after your CI passes on it\n- `@dependabot cancel merge` will cancel a previously requested merge and block automerging\n- `@dependabot reopen` will reopen this PR if it is closed\n- `@dependabot close` will close this PR and stop Dependabot recreating it. You can achieve the same result by closing it manually\n- `@dependabot ignore this major version` will close this PR and stop Dependabot creating any more for this major version (unless you reopen the PR or upgrade to it yourself)\n- `@dependabot ignore this minor version` will close this PR and stop Dependabot creating any more for this minor version (unless you reopen the PR or upgrade to it yourself)\n- `@dependabot ignore this dependency` will close this PR and stop Dependabot creating any more for this dependency (unless you reopen the PR or upgrade to it yourself)\n\n\n</details>",
    "changed_files": 1,
    "closed_at": "2023-05-17T00:58:13Z",
    "comment_data": [],
    "comment_regular_data": [
        {
            "author_association": "NONE",
            "body": "**New dependency changes detected.** Learn more about [Socket for GitHub ↗︎](https://socket.dev?utm_medium=gh)\n\n***\n👍 No new dependency issues detected in pull request\n\n<details>\n<summary>\n<strong>Bot Commands</strong>\n</summary>\n<p>To ignore an alert, reply with a comment starting with <code>@SocketSecurity ignore</code> followed by a space separated list of <code>package-name@version</code> specifiers. e.g. <code>@SocketSecurity ignore foo@1.0.0 bar@*</code> or ignore all packages with <code>@SocketSecurity ignore-all</code></p>\n<ul>\n</ul>\n\n\n<p>⚠️ Please accept the latest app permissions to ensure bot commands work properly. Accept the new permissions <a href=\"https://github.com/organizations/PrismarineJS/settings/installations/24271767/permissions/update\">here</a>.</p>\n</details>\n<details>\n<summary>\n<strong>Pull request alert summary</strong>\n</summary>\n<table>\n<thead>\n<tr>\n<th>Issue</th>\n<th>Status</th>\n</tr>\n</thead>\n<tbody>\n<tr>\n<td><a href='https://socket.dev/npm/issue/installScripts'>Install scripts</a></td>\n<td>✅ 0 issues</td>\n</tr>\n<tr>\n<td><a href='https://socket.dev/npm/issue/hasNativeCode'>Native code</a></td>\n<td>✅ 0 issues</td>\n</tr>\n<tr>\n<td><a href='https://socket.dev/npm/issue/shellScriptOverride'>Bin script shell injection</a></td>\n<td>✅ 0 issues</td>\n</tr>\n<tr>\n<td><a href='https://socket.dev/npm/issue/unresolvedRequire'>Unresolved require</a></td>\n<td>✅ 0 issues</td>\n</tr>\n<tr>\n<td><a href='https://socket.dev/npm/issue/invalidPackageJSON'>Invalid package.json</a></td>\n<td>✅ 0 issues</td>\n</tr>\n<tr>\n<td><a href='https://socket.dev/npm/issue/httpDependency'>HTTP dependency</a></td>\n<td>✅ 0 issues</td>\n</tr>\n<tr>\n<td><a href='https://socket.dev/npm/issue/gitDependency'>Git dependency</a></td>\n<td>✅ 0 issues</td>\n</tr>\n<tr>\n<td><a href='https://socket.dev/npm/issue/didYouMean'>Potential typo squat</a></td>\n<td>✅ 0 issues</td>\n</tr>\n<tr>\n<td><a href='https://socket.dev/npm/issue/malware'>Known Malware</a></td>\n<td>✅ 0 issues</td>\n</tr>\n<tr>\n<td><a href='https://socket.dev/npm/issue/telemetry'>Telemetry</a></td>\n<td>✅ 0 issues</td>\n</tr>\n<tr>\n<td><a href='https://socket.dev/npm/issue/troll'>Protestware/Troll package</a></td>\n<td>✅ 0 issues</td>\n</tr>\n</tbody>\n</table>\n</details>\n\n\n\n***\n\n\n**📊 Modified Dependency Overview:**\n\n\n\n| ⬆️ Updated Package | Version Diff | Added Capability Access | `+/-` Transitive Count | Publisher |\n| --- | --- | --- | --- | --- |\n| [@types/node@20.1.4](https://socket.dev/npm/package/@types/node/overview/20.1.4) | [18.16.9...20.1.4](https://socket.dev/npm/package/@types/node/diff/20.1.4?from=18.16.9) | None | `+0/-0` | [types](https://socket.dev/npm/user/types) |",
            "created_at": "2023-05-15T01:16:26Z",
            "html_url": "https://github.com/PrismarineJS/node-minecraft-data/pull/280#issuecomment-1547062573",
            "id": 1547062573,
            "issue_url": "https://api.github.com/repos/PrismarineJS/node-minecraft-data/issues/280",
            "node_id": "IC_kwDOAhfwb85cNk0t",
            "performed_via_github_app": null,
            "reactions": {
                "+1": 0,
                "-1": 0,
                "confused": 0,
                "eyes": 0,
                "heart": 0,
                "hooray": 0,
                "laugh": 0,
                "rocket": 0,
                "total_count": 0,
                "url": "https://api.github.com/repos/PrismarineJS/node-minecraft-data/issues/comments/1547062573/reactions"
            },
            "updated_at": "2023-05-15T01:16:26Z",
            "url": "https://api.github.com/repos/PrismarineJS/node-minecraft-data/issues/comments/1547062573",
            "user": {
                "avatar_url": "https://avatars.githubusercontent.com/in/156372?v=4",
                "events_url": "https://api.github.com/users/socket-security%5Bbot%5D/events{/privacy}",
                "followers_url": "https://api.github.com/users/socket-security%5Bbot%5D/followers",
                "following_url": "https://api.github.com/users/socket-security%5Bbot%5D/following{/other_user}",
                "gists_url": "https://api.github.com/users/socket-security%5Bbot%5D/gists{/gist_id}",
                "gravatar_id": "",
                "html_url": "https://github.com/apps/socket-security",
                "id": 95510084,
                "login": "socket-security[bot]",
                "node_id": "BOT_kgDOBbFeRA",
                "organizations_url": "https://api.github.com/users/socket-security%5Bbot%5D/orgs",
                "received_events_url": "https://api.github.com/users/socket-security%5Bbot%5D/received_events",
                "repos_url": "https://api.github.com/users/socket-security%5Bbot%5D/repos",
                "site_admin": false,
                "starred_url": "https://api.github.com/users/socket-security%5Bbot%5D/starred{/owner}{/repo}",
                "subscriptions_url": "https://api.github.com/users/socket-security%5Bbot%5D/subscriptions",
                "type": "Bot",
                "url": "https://api.github.com/users/socket-security%5Bbot%5D"
            }
        },
        {
            "author_association": "CONTRIBUTOR",
            "body": "Superseded by #281.",
            "created_at": "2023-05-17T00:58:12Z",
            "html_url": "https://github.com/PrismarineJS/node-minecraft-data/pull/280#issuecomment-1550537199",
            "id": 1550537199,
            "issue_url": "https://api.github.com/repos/PrismarineJS/node-minecraft-data/issues/280",
            "node_id": "IC_kwDOAhfwb85ca1Hv",
            "performed_via_github_app": null,
            "reactions": {
                "+1": 0,
                "-1": 0,
                "confused": 0,
                "eyes": 0,
                "heart": 0,
                "hooray": 0,
                "laugh": 0,
                "rocket": 0,
                "total_count": 0,
                "url": "https://api.github.com/repos/PrismarineJS/node-minecraft-data/issues/comments/1550537199/reactions"
            },
            "updated_at": "2023-05-17T00:58:12Z",
            "url": "https://api.github.com/repos/PrismarineJS/node-minecraft-data/issues/comments/1550537199",
            "user": {
                "avatar_url": "https://avatars.githubusercontent.com/in/29110?v=4",
                "events_url": "https://api.github.com/users/dependabot%5Bbot%5D/events{/privacy}",
                "followers_url": "https://api.github.com/users/dependabot%5Bbot%5D/followers",
                "following_url": "https://api.github.com/users/dependabot%5Bbot%5D/following{/other_user}",
                "gists_url": "https://api.github.com/users/dependabot%5Bbot%5D/gists{/gist_id}",
                "gravatar_id": "",
                "html_url": "https://github.com/apps/dependabot",
                "id": 49699333,
                "login": "dependabot[bot]",
                "node_id": "MDM6Qm90NDk2OTkzMzM=",
                "organizations_url": "https://api.github.com/users/dependabot%5Bbot%5D/orgs",
                "received_events_url": "https://api.github.com/users/dependabot%5Bbot%5D/received_events",
                "repos_url": "https://api.github.com/users/dependabot%5Bbot%5D/repos",
                "site_admin": false,
                "starred_url": "https://api.github.com/users/dependabot%5Bbot%5D/starred{/owner}{/repo}",
                "subscriptions_url": "https://api.github.com/users/dependabot%5Bbot%5D/subscriptions",
                "type": "Bot",
                "url": "https://api.github.com/users/dependabot%5Bbot%5D"
            }
        }
    ],
    "comments": 2,
    "comments_url": "https://api.github.com/repos/PrismarineJS/node-minecraft-data/issues/280/comments",
    "commit_data": [
        {
            "author": {
                "avatar_url": "https://avatars.githubusercontent.com/in/29110?v=4",
                "events_url": "https://api.github.com/users/dependabot%5Bbot%5D/events{/privacy}",
                "followers_url": "https://api.github.com/users/dependabot%5Bbot%5D/followers",
                "following_url": "https://api.github.com/users/dependabot%5Bbot%5D/following{/other_user}",
                "gists_url": "https://api.github.com/users/dependabot%5Bbot%5D/gists{/gist_id}",
                "gravatar_id": "",
                "html_url": "https://github.com/apps/dependabot",
                "id": 49699333,
                "login": "dependabot[bot]",
                "node_id": "MDM6Qm90NDk2OTkzMzM=",
                "organizations_url": "https://api.github.com/users/dependabot%5Bbot%5D/orgs",
                "received_events_url": "https://api.github.com/users/dependabot%5Bbot%5D/received_events",
                "repos_url": "https://api.github.com/users/dependabot%5Bbot%5D/repos",
                "site_admin": false,
                "starred_url": "https://api.github.com/users/dependabot%5Bbot%5D/starred{/owner}{/repo}",
                "subscriptions_url": "https://api.github.com/users/dependabot%5Bbot%5D/subscriptions",
                "type": "Bot",
                "url": "https://api.github.com/users/dependabot%5Bbot%5D"
            },
            "comments_url": "https://api.github.com/repos/PrismarineJS/node-minecraft-data/commits/b218e4fbd497e23e36949985422fbc4417cd2b57/comments",
            "commit": {
                "author": {
                    "date": "2023-05-15T01:15:35Z",
                    "email": "49699333+dependabot[bot]@users.noreply.github.com",
                    "name": "dependabot[bot]"
                },
                "comment_count": 0,
                "committer": {
                    "date": "2023-05-15T01:15:35Z",
                    "email": "noreply@github.com",
                    "name": "GitHub"
                },
                "message": "Bump @types/node from 18.16.9 to 20.1.4\n\nBumps [@types/node](https://github.com/DefinitelyTyped/DefinitelyTyped/tree/HEAD/types/node) from 18.16.9 to 20.1.4.\n- [Release notes](https://github.com/DefinitelyTyped/DefinitelyTyped/releases)\n- [Commits](https://github.com/DefinitelyTyped/DefinitelyTyped/commits/HEAD/types/node)\n\n---\nupdated-dependencies:\n- dependency-name: \"@types/node\"\n  dependency-type: direct:development\n  update-type: version-update:semver-major\n...\n\nSigned-off-by: dependabot[bot] <support@github.com>",
                "tree": {
                    "sha": "ca78ac0ab1023c3116e30440aec494636a2caa5a",
                    "url": "https://api.github.com/repos/PrismarineJS/node-minecraft-data/git/trees/ca78ac0ab1023c3116e30440aec494636a2caa5a"
                },
                "url": "https://api.github.com/repos/PrismarineJS/node-minecraft-data/git/commits/b218e4fbd497e23e36949985422fbc4417cd2b57",
                "verification": {
                    "payload": "tree ca78ac0ab1023c3116e30440aec494636a2caa5a\nparent 0c52d56a35b58b5f5596fb46df5a9c0ae269c9ad\nauthor dependabot[bot] <49699333+dependabot[bot]@users.noreply.github.com> 1684113335 +0000\ncommitter GitHub <noreply@github.com> 1684113335 +0000\n\nBump @types/node from 18.16.9 to 20.1.4\n\nBumps [@types/node](https://github.com/DefinitelyTyped/DefinitelyTyped/tree/HEAD/types/node) from 18.16.9 to 20.1.4.\n- [Release notes](https://github.com/DefinitelyTyped/DefinitelyTyped/releases)\n- [Commits](https://github.com/DefinitelyTyped/DefinitelyTyped/commits/HEAD/types/node)\n\n---\nupdated-dependencies:\n- dependency-name: \"@types/node\"\n  dependency-type: direct:development\n  update-type: version-update:semver-major\n...\n\nSigned-off-by: dependabot[bot] <support@github.com>",
                    "reason": "valid",
                    "signature": "-----BEGIN PGP SIGNATURE-----\n\nwsBcBAABCAAQBQJkYYe3CRBK7hj4Ov3rIwAA6W0IABAaZvnaTSoHdse0mjGYT3Tz\ndG1OHhPVn9UskQBj4xtxRkRZnyNLuxx/8wtf8TdN8VEfEzKinjrQrIRONleDuYFD\n2gmA4aG6iK0Vqn7WOl3g6hnAXc/rsrNnEdQIPkuDjwLM+8OJb4huQZEKN3T1aJVM\nEcxRkWQn0FdnR7EslY7d3z1ba8lF5aRbYXzLQ9bNSe/Uzr/smGSF7VnpJilsOltx\nA6sjpFumc1ZhZwBnIuTWJx9G0KJ3aULC5PDARzG1Q5r4Et+gMAb6sLW4kMVejI55\n05IICpfSnwF5oY0MtRD6Gx6+HaB5s5N1DRNUFVb6rfth3VUAq8s1bkaM/TKEoGg=\n=wIBb\n-----END PGP SIGNATURE-----\n",
                    "verified": true
                }
            },
            "committer": {
                "avatar_url": "https://avatars.githubusercontent.com/u/19864447?v=4",
                "events_url": "https://api.github.com/users/web-flow/events{/privacy}",
                "followers_url": "https://api.github.com/users/web-flow/followers",
                "following_url": "https://api.github.com/users/web-flow/following{/other_user}",
                "gists_url": "https://api.github.com/users/web-flow/gists{/gist_id}",
                "gravatar_id": "",
                "html_url": "https://github.com/web-flow",
                "id": 19864447,
                "login": "web-flow",
                "node_id": "MDQ6VXNlcjE5ODY0NDQ3",
                "organizations_url": "https://api.github.com/users/web-flow/orgs",
                "received_events_url": "https://api.github.com/users/web-flow/received_events",
                "repos_url": "https://api.github.com/users/web-flow/repos",
                "site_admin": false,
                "starred_url": "https://api.github.com/users/web-flow/starred{/owner}{/repo}",
                "subscriptions_url": "https://api.github.com/users/web-flow/subscriptions",
                "type": "User",
                "url": "https://api.github.com/users/web-flow"
            },
            "html_url": "https://github.com/PrismarineJS/node-minecraft-data/commit/b218e4fbd497e23e36949985422fbc4417cd2b57",
            "node_id": "C_kwDOAhfwb9oAKGIyMThlNGZiZDQ5N2UyM2UzNjk0OTk4NTQyMmZiYzQ0MTdjZDJiNTc",
            "parents": [
                {
                    "html_url": "https://github.com/PrismarineJS/node-minecraft-data/commit/0c52d56a35b58b5f5596fb46df5a9c0ae269c9ad",
                    "sha": "0c52d56a35b58b5f5596fb46df5a9c0ae269c9ad",
                    "url": "https://api.github.com/repos/PrismarineJS/node-minecraft-data/commits/0c52d56a35b58b5f5596fb46df5a9c0ae269c9ad"
                }
            ],
            "sha": "b218e4fbd497e23e36949985422fbc4417cd2b57",
            "url": "https://api.github.com/repos/PrismarineJS/node-minecraft-data/commits/b218e4fbd497e23e36949985422fbc4417cd2b57"
        }
    ],
    "commits": 1,
    "commits_url": "https://api.github.com/repos/PrismarineJS/node-minecraft-data/pulls/280/commits",
    "created_at": "2023-05-15T01:15:36Z",
    "deletions": 1,
    "diff_url": "https://github.com/PrismarineJS/node-minecraft-data/pull/280.diff",
    "draft": false,
    "head": {
        "label": "PrismarineJS:dependabot/npm_and_yarn/types/node-20.1.4",
        "ref": "dependabot/npm_and_yarn/types/node-20.1.4",
        "repo": {
            "allow_forking": true,
            "archive_url": "https://api.github.com/repos/PrismarineJS/node-minecraft-data/{archive_format}{/ref}",
            "archived": false,
            "assignees_url": "https://api.github.com/repos/PrismarineJS/node-minecraft-data/assignees{/user}",
            "blobs_url": "https://api.github.com/repos/PrismarineJS/node-minecraft-data/git/blobs{/sha}",
            "branches_url": "https://api.github.com/repos/PrismarineJS/node-minecraft-data/branches{/branch}",
            "clone_url": "https://github.com/PrismarineJS/node-minecraft-data.git",
            "collaborators_url": "https://api.github.com/repos/PrismarineJS/node-minecraft-data/collaborators{/collaborator}",
            "comments_url": "https://api.github.com/repos/PrismarineJS/node-minecraft-data/comments{/number}",
            "commits_url": "https://api.github.com/repos/PrismarineJS/node-minecraft-data/commits{/sha}",
            "compare_url": "https://api.github.com/repos/PrismarineJS/node-minecraft-data/compare/{base}...{head}",
            "contents_url": "https://api.github.com/repos/PrismarineJS/node-minecraft-data/contents/{+path}",
            "contributors_url": "https://api.github.com/repos/PrismarineJS/node-minecraft-data/contributors",
            "created_at": "2015-05-05T20:50:30Z",
            "default_branch": "master",
            "deployments_url": "https://api.github.com/repos/PrismarineJS/node-minecraft-data/deployments",
            "description": "Provide easy access to minecraft-data in node.js",
            "disabled": false,
            "downloads_url": "https://api.github.com/repos/PrismarineJS/node-minecraft-data/downloads",
            "events_url": "https://api.github.com/repos/PrismarineJS/node-minecraft-data/events",
            "fork": false,
            "forks": 41,
            "forks_count": 41,
            "forks_url": "https://api.github.com/repos/PrismarineJS/node-minecraft-data/forks",
            "full_name": "PrismarineJS/node-minecraft-data",
            "git_commits_url": "https://api.github.com/repos/PrismarineJS/node-minecraft-data/git/commits{/sha}",
            "git_refs_url": "https://api.github.com/repos/PrismarineJS/node-minecraft-data/git/refs{/sha}",
            "git_tags_url": "https://api.github.com/repos/PrismarineJS/node-minecraft-data/git/tags{/sha}",
            "git_url": "git://github.com/PrismarineJS/node-minecraft-data.git",
            "has_discussions": false,
            "has_downloads": true,
            "has_issues": true,
            "has_pages": false,
            "has_projects": true,
            "has_wiki": true,
            "homepage": "https://minecraft-data.prismarine.js.org/",
            "hooks_url": "https://api.github.com/repos/PrismarineJS/node-minecraft-data/hooks",
            "html_url": "https://github.com/PrismarineJS/node-minecraft-data",
            "id": 35123311,
            "is_template": false,
            "issue_comment_url": "https://api.github.com/repos/PrismarineJS/node-minecraft-data/issues/comments{/number}",
            "issue_events_url": "https://api.github.com/repos/PrismarineJS/node-minecraft-data/issues/events{/number}",
            "issues_url": "https://api.github.com/repos/PrismarineJS/node-minecraft-data/issues{/number}",
            "keys_url": "https://api.github.com/repos/PrismarineJS/node-minecraft-data/keys{/key_id}",
            "labels_url": "https://api.github.com/repos/PrismarineJS/node-minecraft-data/labels{/name}",
            "language": "JavaScript",
            "languages_url": "https://api.github.com/repos/PrismarineJS/node-minecraft-data/languages",
            "license": null,
            "merges_url": "https://api.github.com/repos/PrismarineJS/node-minecraft-data/merges",
            "milestones_url": "https://api.github.com/repos/PrismarineJS/node-minecraft-data/milestones{/number}",
            "mirror_url": null,
            "name": "node-minecraft-data",
            "node_id": "MDEwOlJlcG9zaXRvcnkzNTEyMzMxMQ==",
            "notifications_url": "https://api.github.com/repos/PrismarineJS/node-minecraft-data/notifications{?since,all,participating}",
            "open_issues": 9,
            "open_issues_count": 9,
            "owner": {
                "avatar_url": "https://avatars.githubusercontent.com/u/11053411?v=4",
                "events_url": "https://api.github.com/users/PrismarineJS/events{/privacy}",
                "followers_url": "https://api.github.com/users/PrismarineJS/followers",
                "following_url": "https://api.github.com/users/PrismarineJS/following{/other_user}",
                "gists_url": "https://api.github.com/users/PrismarineJS/gists{/gist_id}",
                "gravatar_id": "",
                "html_url": "https://github.com/PrismarineJS",
                "id": 11053411,
                "login": "PrismarineJS",
                "node_id": "MDEyOk9yZ2FuaXphdGlvbjExMDUzNDEx",
                "organizations_url": "https://api.github.com/users/PrismarineJS/orgs",
                "received_events_url": "https://api.github.com/users/PrismarineJS/received_events",
                "repos_url": "https://api.github.com/users/PrismarineJS/repos",
                "site_admin": false,
                "starred_url": "https://api.github.com/users/PrismarineJS/starred{/owner}{/repo}",
                "subscriptions_url": "https://api.github.com/users/PrismarineJS/subscriptions",
                "type": "Organization",
                "url": "https://api.github.com/users/PrismarineJS"
            },
            "private": false,
            "pulls_url": "https://api.github.com/repos/PrismarineJS/node-minecraft-data/pulls{/number}",
            "pushed_at": "2023-05-17T00:58:14Z",
            "releases_url": "https://api.github.com/repos/PrismarineJS/node-minecraft-data/releases{/id}",
            "size": 432,
            "ssh_url": "git@github.com:PrismarineJS/node-minecraft-data.git",
            "stargazers_count": 76,
            "stargazers_url": "https://api.github.com/repos/PrismarineJS/node-minecraft-data/stargazers",
            "statuses_url": "https://api.github.com/repos/PrismarineJS/node-minecraft-data/statuses/{sha}",
            "subscribers_url": "https://api.github.com/repos/PrismarineJS/node-minecraft-data/subscribers",
            "subscription_url": "https://api.github.com/repos/PrismarineJS/node-minecraft-data/subscription",
            "svn_url": "https://github.com/PrismarineJS/node-minecraft-data",
            "tags_url": "https://api.github.com/repos/PrismarineJS/node-minecraft-data/tags",
            "teams_url": "https://api.github.com/repos/PrismarineJS/node-minecraft-data/teams",
            "topics": [],
            "trees_url": "https://api.github.com/repos/PrismarineJS/node-minecraft-data/git/trees{/sha}",
            "updated_at": "2023-05-14T18:08:26Z",
            "url": "https://api.github.com/repos/PrismarineJS/node-minecraft-data",
            "visibility": "public",
            "watchers": 76,
            "watchers_count": 76,
            "web_commit_signoff_required": false
        },
        "sha": "b218e4fbd497e23e36949985422fbc4417cd2b57",
        "user": {
            "avatar_url": "https://avatars.githubusercontent.com/u/11053411?v=4",
            "events_url": "https://api.github.com/users/PrismarineJS/events{/privacy}",
            "followers_url": "https://api.github.com/users/PrismarineJS/followers",
            "following_url": "https://api.github.com/users/PrismarineJS/following{/other_user}",
            "gists_url": "https://api.github.com/users/PrismarineJS/gists{/gist_id}",
            "gravatar_id": "",
            "html_url": "https://github.com/PrismarineJS",
            "id": 11053411,
            "login": "PrismarineJS",
            "node_id": "MDEyOk9yZ2FuaXphdGlvbjExMDUzNDEx",
            "organizations_url": "https://api.github.com/users/PrismarineJS/orgs",
            "received_events_url": "https://api.github.com/users/PrismarineJS/received_events",
            "repos_url": "https://api.github.com/users/PrismarineJS/repos",
            "site_admin": false,
            "starred_url": "https://api.github.com/users/PrismarineJS/starred{/owner}{/repo}",
            "subscriptions_url": "https://api.github.com/users/PrismarineJS/subscriptions",
            "type": "Organization",
            "url": "https://api.github.com/users/PrismarineJS"
        }
    },
    "html_url": "https://github.com/PrismarineJS/node-minecraft-data/pull/280",
    "id": 1349964981,
    "issue_url": "https://api.github.com/repos/PrismarineJS/node-minecraft-data/issues/280",
    "labels": [
        {
            "color": "0366d6",
            "default": false,
            "description": "Pull requests that update a dependency file",
            "id": 2067070693,
            "name": "dependencies",
            "node_id": "MDU6TGFiZWwyMDY3MDcwNjkz",
            "url": "https://api.github.com/repos/PrismarineJS/node-minecraft-data/labels/dependencies"
        }
    ],
    "locked": false,
    "maintainer_can_modify": false,
    "merge_commit_sha": "20c159e67d3eac29eba0a10d8a0d569f6182e338",
    "mergeable": true,
    "mergeable_state": "blocked",
    "merged": false,
    "merged_at": null,
    "merged_by": null,
    "milestone": null,
    "node_id": "PR_kwDOAhfwb85QdtS1",
    "number": 280,
    "patch_url": "https://github.com/PrismarineJS/node-minecraft-data/pull/280.patch",
    "rebaseable": false,
    "requested_reviewers": [],
    "requested_teams": [],
    "review_comment_url": "https://api.github.com/repos/PrismarineJS/node-minecraft-data/pulls/comments{/number}",
    "review_comments": 0,
    "review_comments_url": "https://api.github.com/repos/PrismarineJS/node-minecraft-data/pulls/280/comments",
    "state": "closed",
    "statuses_url": "https://api.github.com/repos/PrismarineJS/node-minecraft-data/statuses/b218e4fbd497e23e36949985422fbc4417cd2b57",
    "title": "Bump @types/node from 18.16.9 to 20.1.4",
    "updated_at": "2023-05-17T00:58:15Z",
    "url": "https://api.github.com/repos/PrismarineJS/node-minecraft-data/pulls/280",
    "user": {
        "avatar_url": "https://avatars.githubusercontent.com/in/29110?v=4",
        "events_url": "https://api.github.com/users/dependabot%5Bbot%5D/events{/privacy}",
        "followers_url": "https://api.github.com/users/dependabot%5Bbot%5D/followers",
        "following_url": "https://api.github.com/users/dependabot%5Bbot%5D/following{/other_user}",
        "gists_url": "https://api.github.com/users/dependabot%5Bbot%5D/gists{/gist_id}",
        "gravatar_id": "",
        "html_url": "https://github.com/apps/dependabot",
        "id": 49699333,
        "login": "dependabot[bot]",
        "node_id": "MDM6Qm90NDk2OTkzMzM=",
        "organizations_url": "https://api.github.com/users/dependabot%5Bbot%5D/orgs",
        "received_events_url": "https://api.github.com/users/dependabot%5Bbot%5D/received_events",
        "repos_url": "https://api.github.com/users/dependabot%5Bbot%5D/repos",
        "site_admin": false,
        "starred_url": "https://api.github.com/users/dependabot%5Bbot%5D/starred{/owner}{/repo}",
        "subscriptions_url": "https://api.github.com/users/dependabot%5Bbot%5D/subscriptions",
        "type": "Bot",
        "url": "https://api.github.com/users/dependabot%5Bbot%5D"
    }
}