{
    "_links": {
        "comments": {
            "href": "https://api.github.com/repos/PrismarineJS/node-minecraft-data/issues/82/comments"
        },
        "commits": {
            "href": "https://api.github.com/repos/PrismarineJS/node-minecraft-data/pulls/82/commits"
        },
        "html": {
            "href": "https://github.com/PrismarineJS/node-minecraft-data/pull/82"
        },
        "issue": {
            "href": "https://api.github.com/repos/PrismarineJS/node-minecraft-data/issues/82"
        },
        "review_comment": {
            "href": "https://api.github.com/repos/PrismarineJS/node-minecraft-data/pulls/comments{/number}"
        },
        "review_comments": {
            "href": "https://api.github.com/repos/PrismarineJS/node-minecraft-data/pulls/82/comments"
        },
        "self": {
            "href": "https://api.github.com/repos/PrismarineJS/node-minecraft-data/pulls/82"
        },
        "statuses": {
            "href": "https://api.github.com/repos/PrismarineJS/node-minecraft-data/statuses/00673cce0c5507cc41478f9aa48becc6b0cc5f64"
        }
    },
    "active_lock_reason": null,
    "additions": 1,
    "assignee": null,
    "assignees": [],
    "author_association": "CONTRIBUTOR",
    "auto_merge": null,
    "base": {
        "label": "PrismarineJS:master",
        "ref": "master",
        "repo": {
            "allow_forking": true,
            "archive_url": "https://api.github.com/repos/PrismarineJS/node-minecraft-data/{archive_format}{/ref}",
            "archived": false,
            "assignees_url": "https://api.github.com/repos/PrismarineJS/node-minecraft-data/assignees{/user}",
            "blobs_url": "https://api.github.com/repos/PrismarineJS/node-minecraft-data/git/blobs{/sha}",
            "branches_url": "https://api.github.com/repos/PrismarineJS/node-minecraft-data/branches{/branch}",
            "clone_url": "https://github.com/PrismarineJS/node-minecraft-data.git",
            "collaborators_url": "https://api.github.com/repos/PrismarineJS/node-minecraft-data/collaborators{/collaborator}",
            "comments_url": "https://api.github.com/repos/PrismarineJS/node-minecraft-data/comments{/number}",
            "commits_url": "https://api.github.com/repos/PrismarineJS/node-minecraft-data/commits{/sha}",
            "compare_url": "https://api.github.com/repos/PrismarineJS/node-minecraft-data/compare/{base}...{head}",
            "contents_url": "https://api.github.com/repos/PrismarineJS/node-minecraft-data/contents/{+path}",
            "contributors_url": "https://api.github.com/repos/PrismarineJS/node-minecraft-data/contributors",
            "created_at": "2015-05-05T20:50:30Z",
            "default_branch": "master",
            "deployments_url": "https://api.github.com/repos/PrismarineJS/node-minecraft-data/deployments",
            "description": "Provide easy access to minecraft-data in node.js",
            "disabled": false,
            "downloads_url": "https://api.github.com/repos/PrismarineJS/node-minecraft-data/downloads",
            "events_url": "https://api.github.com/repos/PrismarineJS/node-minecraft-data/events",
            "fork": false,
            "forks": 40,
            "forks_count": 40,
            "forks_url": "https://api.github.com/repos/PrismarineJS/node-minecraft-data/forks",
            "full_name": "PrismarineJS/node-minecraft-data",
            "git_commits_url": "https://api.github.com/repos/PrismarineJS/node-minecraft-data/git/commits{/sha}",
            "git_refs_url": "https://api.github.com/repos/PrismarineJS/node-minecraft-data/git/refs{/sha}",
            "git_tags_url": "https://api.github.com/repos/PrismarineJS/node-minecraft-data/git/tags{/sha}",
            "git_url": "git://github.com/PrismarineJS/node-minecraft-data.git",
            "has_discussions": false,
            "has_downloads": true,
            "has_issues": true,
            "has_pages": false,
            "has_projects": true,
            "has_wiki": true,
            "homepage": "https://minecraft-data.prismarine.js.org/",
            "hooks_url": "https://api.github.com/repos/PrismarineJS/node-minecraft-data/hooks",
            "html_url": "https://github.com/PrismarineJS/node-minecraft-data",
            "id": 35123311,
            "is_template": false,
            "issue_comment_url": "https://api.github.com/repos/PrismarineJS/node-minecraft-data/issues/comments{/number}",
            "issue_events_url": "https://api.github.com/repos/PrismarineJS/node-minecraft-data/issues/events{/number}",
            "issues_url": "https://api.github.com/repos/PrismarineJS/node-minecraft-data/issues{/number}",
            "keys_url": "https://api.github.com/repos/PrismarineJS/node-minecraft-data/keys{/key_id}",
            "labels_url": "https://api.github.com/repos/PrismarineJS/node-minecraft-data/labels{/name}",
            "language": "JavaScript",
            "languages_url": "https://api.github.com/repos/PrismarineJS/node-minecraft-data/languages",
            "license": null,
            "merges_url": "https://api.github.com/repos/PrismarineJS/node-minecraft-data/merges",
            "milestones_url": "https://api.github.com/repos/PrismarineJS/node-minecraft-data/milestones{/number}",
            "mirror_url": null,
            "name": "node-minecraft-data",
            "node_id": "MDEwOlJlcG9zaXRvcnkzNTEyMzMxMQ==",
            "notifications_url": "https://api.github.com/repos/PrismarineJS/node-minecraft-data/notifications{?since,all,participating}",
            "open_issues": 7,
            "open_issues_count": 7,
            "owner": {
                "avatar_url": "https://avatars.githubusercontent.com/u/11053411?v=4",
                "events_url": "https://api.github.com/users/PrismarineJS/events{/privacy}",
                "followers_url": "https://api.github.com/users/PrismarineJS/followers",
                "following_url": "https://api.github.com/users/PrismarineJS/following{/other_user}",
                "gists_url": "https://api.github.com/users/PrismarineJS/gists{/gist_id}",
                "gravatar_id": "",
                "html_url": "https://github.com/PrismarineJS",
                "id": 11053411,
                "login": "PrismarineJS",
                "node_id": "MDEyOk9yZ2FuaXphdGlvbjExMDUzNDEx",
                "organizations_url": "https://api.github.com/users/PrismarineJS/orgs",
                "received_events_url": "https://api.github.com/users/PrismarineJS/received_events",
                "repos_url": "https://api.github.com/users/PrismarineJS/repos",
                "site_admin": false,
                "starred_url": "https://api.github.com/users/PrismarineJS/starred{/owner}{/repo}",
                "subscriptions_url": "https://api.github.com/users/PrismarineJS/subscriptions",
                "type": "Organization",
                "url": "https://api.github.com/users/PrismarineJS"
            },
            "private": false,
            "pulls_url": "https://api.github.com/repos/PrismarineJS/node-minecraft-data/pulls{/number}",
            "pushed_at": "2023-04-10T01:09:34Z",
            "releases_url": "https://api.github.com/repos/PrismarineJS/node-minecraft-data/releases{/id}",
            "size": 421,
            "ssh_url": "git@github.com:PrismarineJS/node-minecraft-data.git",
            "stargazers_count": 73,
            "stargazers_url": "https://api.github.com/repos/PrismarineJS/node-minecraft-data/stargazers",
            "statuses_url": "https://api.github.com/repos/PrismarineJS/node-minecraft-data/statuses/{sha}",
            "subscribers_url": "https://api.github.com/repos/PrismarineJS/node-minecraft-data/subscribers",
            "subscription_url": "https://api.github.com/repos/PrismarineJS/node-minecraft-data/subscription",
            "svn_url": "https://github.com/PrismarineJS/node-minecraft-data",
            "tags_url": "https://api.github.com/repos/PrismarineJS/node-minecraft-data/tags",
            "teams_url": "https://api.github.com/repos/PrismarineJS/node-minecraft-data/teams",
            "topics": [],
            "trees_url": "https://api.github.com/repos/PrismarineJS/node-minecraft-data/git/trees{/sha}",
            "updated_at": "2023-04-06T17:47:53Z",
            "url": "https://api.github.com/repos/PrismarineJS/node-minecraft-data",
            "visibility": "public",
            "watchers": 73,
            "watchers_count": 73,
            "web_commit_signoff_required": false
        },
        "sha": "047ffb996f04d5d25a3076494a2bab010fb5d3cf",
        "user": {
            "avatar_url": "https://avatars.githubusercontent.com/u/11053411?v=4",
            "events_url": "https://api.github.com/users/PrismarineJS/events{/privacy}",
            "followers_url": "https://api.github.com/users/PrismarineJS/followers",
            "following_url": "https://api.github.com/users/PrismarineJS/following{/other_user}",
            "gists_url": "https://api.github.com/users/PrismarineJS/gists{/gist_id}",
            "gravatar_id": "",
            "html_url": "https://github.com/PrismarineJS",
            "id": 11053411,
            "login": "PrismarineJS",
            "node_id": "MDEyOk9yZ2FuaXphdGlvbjExMDUzNDEx",
            "organizations_url": "https://api.github.com/users/PrismarineJS/orgs",
            "received_events_url": "https://api.github.com/users/PrismarineJS/received_events",
            "repos_url": "https://api.github.com/users/PrismarineJS/repos",
            "site_admin": false,
            "starred_url": "https://api.github.com/users/PrismarineJS/starred{/owner}{/repo}",
            "subscriptions_url": "https://api.github.com/users/PrismarineJS/subscriptions",
            "type": "Organization",
            "url": "https://api.github.com/users/PrismarineJS"
        }
    },
    "body": "Bumps [mocha](https://github.com/mochajs/mocha) from 8.4.0 to 9.0.0.\n<details>\n<summary>Release notes</summary>\n<p><em>Sourced from <a href=\"https://github.com/mochajs/mocha/releases\">mocha's releases</a>.</em></p>\n<blockquote>\n<h2>v9.0.0</h2>\n<h1>9.0.0 / 2021-06-07</h1>\n<h2>:boom: Breaking Changes</h2>\n<ul>\n<li>\n<p><a href=\"https://github-redirect.dependabot.com/mochajs/mocha/issues/4633\">#4633</a>: <strong>Drop Node.js v10.x support</strong> (<a href=\"https://github.com/juergba\"><strong><code>@​juergba</code></strong></a>)</p>\n</li>\n<li>\n<p><a href=\"https://github-redirect.dependabot.com/mochajs/mocha/issues/4635\">#4635</a>: <code>import</code>-first loading of test files (<a href=\"https://github.com/giltayar\"><strong><code>@​giltayar</code></strong></a>)</p>\n</li>\n</ul>\n<p><strong>Mocha is going ESM-first!</strong> This means that it will now use ESM <code>import(test_file)</code> to load the test files, instead of the CommonJS <code>require(test_file)</code>. This is not a problem, as <code>import</code> can also load most files that <code>require</code> does. In the rare cases where this fails, it will fallback to <code>require(...)</code>. This ESM-first approach is the next step in Mocha's ESM migration, and allows ESM loaders to load and transform the test file.</p>\n<ul>\n<li>\n<p><a href=\"https://github-redirect.dependabot.com/mochajs/mocha/issues/4636\">#4636</a>: Remove deprecated <code>utils.lookupFiles()</code> (<a href=\"https://github.com/juergba\"><strong><code>@​juergba</code></strong></a>)</p>\n</li>\n<li>\n<p><a href=\"https://github-redirect.dependabot.com/mochajs/mocha/issues/4638\">#4638</a>: Limit the size of <code>actual</code>/<code>expected</code> for <code>diff</code> generation (<a href=\"https://github.com/juergba\"><strong><code>@​juergba</code></strong></a>)</p>\n</li>\n<li>\n<p><a href=\"https://github-redirect.dependabot.com/mochajs/mocha/issues/4389\">#4389</a>: Refactoring: Consuming log-symbols alternate to code for win32 in reporters/base (<a href=\"https://github.com/MoonSupport\"><strong><code>@​MoonSupport</code></strong></a>)</p>\n</li>\n</ul>\n<h2>:tada: Enhancements</h2>\n<ul>\n<li><a href=\"https://github-redirect.dependabot.com/mochajs/mocha/issues/4640\">#4640</a>: Add new option <code>--dry-run</code> (<a href=\"https://github.com/juergba\"><strong><code>@​juergba</code></strong></a>)</li>\n</ul>\n<h2>:bug: Fixes</h2>\n<ul>\n<li><a href=\"https://github-redirect.dependabot.com/mochajs/mocha/issues/4128\">#4128</a>: Fix: control stringification of error message (<a href=\"https://github.com/syeutyu\"><strong><code>@​syeutyu</code></strong></a>)</li>\n</ul>\n<h2>:nut_and_bolt: Other</h2>\n<ul>\n<li><a href=\"https://github-redirect.dependabot.com/mochajs/mocha/issues/4646\">#4646</a>: Deprecate <code>Runner(suite: Suite, delay: boolean)</code> signature (<a href=\"https://github.com/juergba\"><strong><code>@​juergba</code></strong></a>)</li>\n<li><a href=\"https://github-redirect.dependabot.com/mochajs/mocha/issues/4643\">#4643</a>: Update production dependencies (<a href=\"https://github.com/juergba\"><strong><code>@​juergba</code></strong></a>)</li>\n</ul>\n</blockquote>\n</details>\n<details>\n<summary>Changelog</summary>\n<p><em>Sourced from <a href=\"https://github.com/mochajs/mocha/blob/master/CHANGELOG.md\">mocha's changelog</a>.</em></p>\n<blockquote>\n<h1>9.0.0 / 2021-06-07</h1>\n<h2>:boom: Breaking Changes</h2>\n<ul>\n<li>\n<p><a href=\"https://github-redirect.dependabot.com/mochajs/mocha/issues/4633\">#4633</a>: <strong>Drop Node.js v10.x support</strong> (<a href=\"https://github.com/juergba\"><strong><code>@​juergba</code></strong></a>)</p>\n</li>\n<li>\n<p><a href=\"https://github-redirect.dependabot.com/mochajs/mocha/issues/4635\">#4635</a>: <code>import</code>-first loading of test files (<a href=\"https://github.com/giltayar\"><strong><code>@​giltayar</code></strong></a>)</p>\n</li>\n</ul>\n<p><strong>Mocha is going ESM-first!</strong> This means that it will now use ESM <code>import(test_file)</code> to load the test files, instead of the CommonJS <code>require(test_file)</code>. This is not a problem, as <code>import</code> can also load most files that <code>require</code> does. In the rare cases where this fails, it will fallback to <code>require(...)</code>. This ESM-first approach is the next step in Mocha's ESM migration, and allows ESM loaders to load and transform the test file.</p>\n<ul>\n<li>\n<p><a href=\"https://github-redirect.dependabot.com/mochajs/mocha/issues/4636\">#4636</a>: Remove deprecated <code>utils.lookupFiles()</code> (<a href=\"https://github.com/juergba\"><strong><code>@​juergba</code></strong></a>)</p>\n</li>\n<li>\n<p><a href=\"https://github-redirect.dependabot.com/mochajs/mocha/issues/4638\">#4638</a>: Limit the size of <code>actual</code>/<code>expected</code> for <code>diff</code> generation (<a href=\"https://github.com/juergba\"><strong><code>@​juergba</code></strong></a>)</p>\n</li>\n<li>\n<p><a href=\"https://github-redirect.dependabot.com/mochajs/mocha/issues/4389\">#4389</a>: Refactoring: Consuming log-symbols alternate to code for win32 in reporters/base (<a href=\"https://github.com/MoonSupport\"><strong><code>@​MoonSupport</code></strong></a>)</p>\n</li>\n</ul>\n<h2>:tada: Enhancements</h2>\n<ul>\n<li><a href=\"https://github-redirect.dependabot.com/mochajs/mocha/issues/4640\">#4640</a>: Add new option <code>--dry-run</code> (<a href=\"https://github.com/juergba\"><strong><code>@​juergba</code></strong></a>)</li>\n</ul>\n<h2>:bug: Fixes</h2>\n<ul>\n<li><a href=\"https://github-redirect.dependabot.com/mochajs/mocha/issues/4128\">#4128</a>: Fix: control stringification of error message (<a href=\"https://github.com/syeutyu\"><strong><code>@​syeutyu</code></strong></a>)</li>\n</ul>\n<h2>:nut_and_bolt: Other</h2>\n<ul>\n<li><a href=\"https://github-redirect.dependabot.com/mochajs/mocha/issues/4646\">#4646</a>: Deprecate <code>Runner(suite: Suite, delay: boolean)</code> signature (<a href=\"https://github.com/juergba\"><strong><code>@​juergba</code></strong></a>)</li>\n<li><a href=\"https://github-redirect.dependabot.com/mochajs/mocha/issues/4643\">#4643</a>: Update production dependencies (<a href=\"https://github.com/juergba\"><strong><code>@​juergba</code></strong></a>)</li>\n</ul>\n</blockquote>\n</details>\n<details>\n<summary>Commits</summary>\n<ul>\n<li><a href=\"https://github.com/mochajs/mocha/commit/8339c3db2cb273f6b56a4cfa7974510f1bf72934\"><code>8339c3d</code></a> Release v9.0.0</li>\n<li><a href=\"https://github.com/mochajs/mocha/commit/92518dfd3cf2a6458a5c1e67976f1d1eb3c9d1d7\"><code>92518df</code></a> update CHANGELOG for v9.0.0 [ci skip]</li>\n<li><a href=\"https://github.com/mochajs/mocha/commit/7259a5b1ed83f2191a3330cec905085677803dd0\"><code>7259a5b</code></a> Update production dependencies (<a href=\"https://github-redirect.dependabot.com/mochajs/mocha/issues/4643\">#4643</a>)</li>\n<li><a href=\"https://github.com/mochajs/mocha/commit/82123061ac84dca1a42635167a73714d5f89a846\"><code>8212306</code></a> Add new option &quot;--dry-run&quot; (<a href=\"https://github-redirect.dependabot.com/mochajs/mocha/issues/4640\">#4640</a>)</li>\n<li><a href=\"https://github.com/mochajs/mocha/commit/9872410a717ab389d6b7f585cb00a7b0f8ea1d69\"><code>9872410</code></a> Deprecate &quot;Runner(suite: Suite, delay: boolean)&quot; (<a href=\"https://github-redirect.dependabot.com/mochajs/mocha/issues/4646\">#4646</a>)</li>\n<li><a href=\"https://github.com/mochajs/mocha/commit/a93d759c4c4cfd6da2656be5cbcb6fb9a125a4a1\"><code>a93d759</code></a> Limit the size of 'actual'/'expected' before generating diff (<a href=\"https://github-redirect.dependabot.com/mochajs/mocha/issues/4638\">#4638</a>)</li>\n<li><a href=\"https://github.com/mochajs/mocha/commit/9b4435db8447bf681e7824b31902452f55678adb\"><code>9b4435d</code></a> Import-first loading of test files (<a href=\"https://github-redirect.dependabot.com/mochajs/mocha/issues/4635\">#4635</a>)</li>\n<li><a href=\"https://github.com/mochajs/mocha/commit/1c4e623c020c97269922dc9e23a951f63ad8f7b8\"><code>1c4e623</code></a> Fix: control stringification of error message (<a href=\"https://github-redirect.dependabot.com/mochajs/mocha/issues/4128\">#4128</a>)</li>\n<li><a href=\"https://github.com/mochajs/mocha/commit/1b5cbf131eff4e1858cdfe7a1a7d201664c767dc\"><code>1b5cbf1</code></a> Remove deprecated &quot;utils.lookupFiles()&quot; (<a href=\"https://github-redirect.dependabot.com/mochajs/mocha/issues/4636\">#4636</a>)</li>\n<li><a href=\"https://github.com/mochajs/mocha/commit/356ecf44015f9da7d99ead1049ab9d188c9442b5\"><code>356ecf4</code></a> GH actions: delete old workflow runs (<a href=\"https://github-redirect.dependabot.com/mochajs/mocha/issues/4637\">#4637</a>) [ci skip]</li>\n<li>Additional commits viewable in <a href=\"https://github.com/mochajs/mocha/compare/v8.4.0...v9.0.0\">compare view</a></li>\n</ul>\n</details>\n<br />\n\n\n[![Dependabot compatibility score](https://dependabot-badges.githubapp.com/badges/compatibility_score?dependency-name=mocha&package-manager=npm_and_yarn&previous-version=8.4.0&new-version=9.0.0)](https://docs.github.com/en/github/managing-security-vulnerabilities/about-dependabot-security-updates#about-compatibility-scores)\n\nDependabot will resolve any conflicts with this PR as long as you don't alter it yourself. You can also trigger a rebase manually by commenting `@dependabot rebase`.\n\n[//]: # (dependabot-automerge-start)\n[//]: # (dependabot-automerge-end)\n\n---\n\n<details>\n<summary>Dependabot commands and options</summary>\n<br />\n\nYou can trigger Dependabot actions by commenting on this PR:\n- `@dependabot rebase` will rebase this PR\n- `@dependabot recreate` will recreate this PR, overwriting any edits that have been made to it\n- `@dependabot merge` will merge this PR after your CI passes on it\n- `@dependabot squash and merge` will squash and merge this PR after your CI passes on it\n- `@dependabot cancel merge` will cancel a previously requested merge and block automerging\n- `@dependabot reopen` will reopen this PR if it is closed\n- `@dependabot close` will close this PR and stop Dependabot recreating it. You can achieve the same result by closing it manually\n- `@dependabot ignore this major version` will close this PR and stop Dependabot creating any more for this major version (unless you reopen the PR or upgrade to it yourself)\n- `@dependabot ignore this minor version` will close this PR and stop Dependabot creating any more for this minor version (unless you reopen the PR or upgrade to it yourself)\n- `@dependabot ignore this dependency` will close this PR and stop Dependabot creating any more for this dependency (unless you reopen the PR or upgrade to it yourself)\n\n\n</details>",
    "changed_files": 1,
    "closed_at": "2021-06-16T20:38:21Z",
    "comment_data": [],
    "comment_regular_data": [],
    "comments": 0,
    "comments_url": "https://api.github.com/repos/PrismarineJS/node-minecraft-data/issues/82/comments",
    "commit_data": [
        {
            "author": {
                "avatar_url": "https://avatars.githubusercontent.com/in/29110?v=4",
                "events_url": "https://api.github.com/users/dependabot%5Bbot%5D/events{/privacy}",
                "followers_url": "https://api.github.com/users/dependabot%5Bbot%5D/followers",
                "following_url": "https://api.github.com/users/dependabot%5Bbot%5D/following{/other_user}",
                "gists_url": "https://api.github.com/users/dependabot%5Bbot%5D/gists{/gist_id}",
                "gravatar_id": "",
                "html_url": "https://github.com/apps/dependabot",
                "id": 49699333,
                "login": "dependabot[bot]",
                "node_id": "MDM6Qm90NDk2OTkzMzM=",
                "organizations_url": "https://api.github.com/users/dependabot%5Bbot%5D/orgs",
                "received_events_url": "https://api.github.com/users/dependabot%5Bbot%5D/received_events",
                "repos_url": "https://api.github.com/users/dependabot%5Bbot%5D/repos",
                "site_admin": false,
                "starred_url": "https://api.github.com/users/dependabot%5Bbot%5D/starred{/owner}{/repo}",
                "subscriptions_url": "https://api.github.com/users/dependabot%5Bbot%5D/subscriptions",
                "type": "Bot",
                "url": "https://api.github.com/users/dependabot%5Bbot%5D"
            },
            "comments_url": "https://api.github.com/repos/PrismarineJS/node-minecraft-data/commits/00673cce0c5507cc41478f9aa48becc6b0cc5f64/comments",
            "commit": {
                "author": {
                    "date": "2021-06-08T06:40:55Z",
                    "email": "49699333+dependabot[bot]@users.noreply.github.com",
                    "name": "dependabot[bot]"
                },
                "comment_count": 0,
                "committer": {
                    "date": "2021-06-08T06:40:55Z",
                    "email": "noreply@github.com",
                    "name": "GitHub"
                },
                "message": "Bump mocha from 8.4.0 to 9.0.0\n\nBumps [mocha](https://github.com/mochajs/mocha) from 8.4.0 to 9.0.0.\n- [Release notes](https://github.com/mochajs/mocha/releases)\n- [Changelog](https://github.com/mochajs/mocha/blob/master/CHANGELOG.md)\n- [Commits](https://github.com/mochajs/mocha/compare/v8.4.0...v9.0.0)\n\n---\nupdated-dependencies:\n- dependency-name: mocha\n  dependency-type: direct:development\n  update-type: version-update:semver-major\n...\n\nSigned-off-by: dependabot[bot] <support@github.com>",
                "tree": {
                    "sha": "04a10e48e7d58bfb4d44eca550e800f8f4cdf120",
                    "url": "https://api.github.com/repos/PrismarineJS/node-minecraft-data/git/trees/04a10e48e7d58bfb4d44eca550e800f8f4cdf120"
                },
                "url": "https://api.github.com/repos/PrismarineJS/node-minecraft-data/git/commits/00673cce0c5507cc41478f9aa48becc6b0cc5f64",
                "verification": {
                    "payload": "tree 04a10e48e7d58bfb4d44eca550e800f8f4cdf120\nparent 047ffb996f04d5d25a3076494a2bab010fb5d3cf\nauthor dependabot[bot] <49699333+dependabot[bot]@users.noreply.github.com> 1623134455 +0000\ncommitter GitHub <noreply@github.com> 1623134455 +0000\n\nBump mocha from 8.4.0 to 9.0.0\n\nBumps [mocha](https://github.com/mochajs/mocha) from 8.4.0 to 9.0.0.\n- [Release notes](https://github.com/mochajs/mocha/releases)\n- [Changelog](https://github.com/mochajs/mocha/blob/master/CHANGELOG.md)\n- [Commits](https://github.com/mochajs/mocha/compare/v8.4.0...v9.0.0)\n\n---\nupdated-dependencies:\n- dependency-name: mocha\n  dependency-type: direct:development\n  update-type: version-update:semver-major\n...\n\nSigned-off-by: dependabot[bot] <support@github.com>",
                    "reason": "valid",
                    "signature": "-----BEGIN PGP SIGNATURE-----\n\nwsBcBAABCAAQBQJgvxD3CRBK7hj4Ov3rIwAAWpwIAAfdQJp5+c9GuKWmnpdy4h2m\nHX+ESPcvhHjxl7hgFRNbXKRrY9gTboXG441ufhHLQ2rhaKMUtjpWboIO3+JaZuDg\nqImpNWFAKPyoLiblkmITmCDh00clfX8S71Ja/EPTC2CKuowixv5YXojMfmrZX6A+\n94abuQ0p1LpiLvCqrL8kxsjT7Nd3NKXprP0ZDFLCGqMuk2D0upTe6VlvwHyFYwo0\nmAB1gdFDBaNr61G5xCwrpQc2T3bRRyl5AOQNUX/Qj8O5jXYvYpttOODTll5aL3O9\nIXeJ3X8slZeFz1hdfi7uA35btCGpJukvne3OJzemnnkEsIJ/fUC24qOtUhuk9Mw=\n=e7Dx\n-----END PGP SIGNATURE-----\n",
                    "verified": true
                }
            },
            "committer": {
                "avatar_url": "https://avatars.githubusercontent.com/u/19864447?v=4",
                "events_url": "https://api.github.com/users/web-flow/events{/privacy}",
                "followers_url": "https://api.github.com/users/web-flow/followers",
                "following_url": "https://api.github.com/users/web-flow/following{/other_user}",
                "gists_url": "https://api.github.com/users/web-flow/gists{/gist_id}",
                "gravatar_id": "",
                "html_url": "https://github.com/web-flow",
                "id": 19864447,
                "login": "web-flow",
                "node_id": "MDQ6VXNlcjE5ODY0NDQ3",
                "organizations_url": "https://api.github.com/users/web-flow/orgs",
                "received_events_url": "https://api.github.com/users/web-flow/received_events",
                "repos_url": "https://api.github.com/users/web-flow/repos",
                "site_admin": false,
                "starred_url": "https://api.github.com/users/web-flow/starred{/owner}{/repo}",
                "subscriptions_url": "https://api.github.com/users/web-flow/subscriptions",
                "type": "User",
                "url": "https://api.github.com/users/web-flow"
            },
            "html_url": "https://github.com/PrismarineJS/node-minecraft-data/commit/00673cce0c5507cc41478f9aa48becc6b0cc5f64",
            "node_id": "MDY6Q29tbWl0MzUxMjMzMTE6MDA2NzNjY2UwYzU1MDdjYzQxNDc4ZjlhYTQ4YmVjYzZiMGNjNWY2NA==",
            "parents": [
                {
                    "html_url": "https://github.com/PrismarineJS/node-minecraft-data/commit/047ffb996f04d5d25a3076494a2bab010fb5d3cf",
                    "sha": "047ffb996f04d5d25a3076494a2bab010fb5d3cf",
                    "url": "https://api.github.com/repos/PrismarineJS/node-minecraft-data/commits/047ffb996f04d5d25a3076494a2bab010fb5d3cf"
                }
            ],
            "sha": "00673cce0c5507cc41478f9aa48becc6b0cc5f64",
            "url": "https://api.github.com/repos/PrismarineJS/node-minecraft-data/commits/00673cce0c5507cc41478f9aa48becc6b0cc5f64"
        }
    ],
    "commits": 1,
    "commits_url": "https://api.github.com/repos/PrismarineJS/node-minecraft-data/pulls/82/commits",
    "created_at": "2021-06-08T06:40:56Z",
    "deletions": 1,
    "diff_url": "https://github.com/PrismarineJS/node-minecraft-data/pull/82.diff",
    "draft": false,
    "head": {
        "label": "PrismarineJS:dependabot/npm_and_yarn/mocha-9.0.0",
        "ref": "dependabot/npm_and_yarn/mocha-9.0.0",
        "repo": {
            "allow_forking": true,
            "archive_url": "https://api.github.com/repos/PrismarineJS/node-minecraft-data/{archive_format}{/ref}",
            "archived": false,
            "assignees_url": "https://api.github.com/repos/PrismarineJS/node-minecraft-data/assignees{/user}",
            "blobs_url": "https://api.github.com/repos/PrismarineJS/node-minecraft-data/git/blobs{/sha}",
            "branches_url": "https://api.github.com/repos/PrismarineJS/node-minecraft-data/branches{/branch}",
            "clone_url": "https://github.com/PrismarineJS/node-minecraft-data.git",
            "collaborators_url": "https://api.github.com/repos/PrismarineJS/node-minecraft-data/collaborators{/collaborator}",
            "comments_url": "https://api.github.com/repos/PrismarineJS/node-minecraft-data/comments{/number}",
            "commits_url": "https://api.github.com/repos/PrismarineJS/node-minecraft-data/commits{/sha}",
            "compare_url": "https://api.github.com/repos/PrismarineJS/node-minecraft-data/compare/{base}...{head}",
            "contents_url": "https://api.github.com/repos/PrismarineJS/node-minecraft-data/contents/{+path}",
            "contributors_url": "https://api.github.com/repos/PrismarineJS/node-minecraft-data/contributors",
            "created_at": "2015-05-05T20:50:30Z",
            "default_branch": "master",
            "deployments_url": "https://api.github.com/repos/PrismarineJS/node-minecraft-data/deployments",
            "description": "Provide easy access to minecraft-data in node.js",
            "disabled": false,
            "downloads_url": "https://api.github.com/repos/PrismarineJS/node-minecraft-data/downloads",
            "events_url": "https://api.github.com/repos/PrismarineJS/node-minecraft-data/events",
            "fork": false,
            "forks": 40,
            "forks_count": 40,
            "forks_url": "https://api.github.com/repos/PrismarineJS/node-minecraft-data/forks",
            "full_name": "PrismarineJS/node-minecraft-data",
            "git_commits_url": "https://api.github.com/repos/PrismarineJS/node-minecraft-data/git/commits{/sha}",
            "git_refs_url": "https://api.github.com/repos/PrismarineJS/node-minecraft-data/git/refs{/sha}",
            "git_tags_url": "https://api.github.com/repos/PrismarineJS/node-minecraft-data/git/tags{/sha}",
            "git_url": "git://github.com/PrismarineJS/node-minecraft-data.git",
            "has_discussions": false,
            "has_downloads": true,
            "has_issues": true,
            "has_pages": false,
            "has_projects": true,
            "has_wiki": true,
            "homepage": "https://minecraft-data.prismarine.js.org/",
            "hooks_url": "https://api.github.com/repos/PrismarineJS/node-minecraft-data/hooks",
            "html_url": "https://github.com/PrismarineJS/node-minecraft-data",
            "id": 35123311,
            "is_template": false,
            "issue_comment_url": "https://api.github.com/repos/PrismarineJS/node-minecraft-data/issues/comments{/number}",
            "issue_events_url": "https://api.github.com/repos/PrismarineJS/node-minecraft-data/issues/events{/number}",
            "issues_url": "https://api.github.com/repos/PrismarineJS/node-minecraft-data/issues{/number}",
            "keys_url": "https://api.github.com/repos/PrismarineJS/node-minecraft-data/keys{/key_id}",
            "labels_url": "https://api.github.com/repos/PrismarineJS/node-minecraft-data/labels{/name}",
            "language": "JavaScript",
            "languages_url": "https://api.github.com/repos/PrismarineJS/node-minecraft-data/languages",
            "license": null,
            "merges_url": "https://api.github.com/repos/PrismarineJS/node-minecraft-data/merges",
            "milestones_url": "https://api.github.com/repos/PrismarineJS/node-minecraft-data/milestones{/number}",
            "mirror_url": null,
            "name": "node-minecraft-data",
            "node_id": "MDEwOlJlcG9zaXRvcnkzNTEyMzMxMQ==",
            "notifications_url": "https://api.github.com/repos/PrismarineJS/node-minecraft-data/notifications{?since,all,participating}",
            "open_issues": 7,
            "open_issues_count": 7,
            "owner": {
                "avatar_url": "https://avatars.githubusercontent.com/u/11053411?v=4",
                "events_url": "https://api.github.com/users/PrismarineJS/events{/privacy}",
                "followers_url": "https://api.github.com/users/PrismarineJS/followers",
                "following_url": "https://api.github.com/users/PrismarineJS/following{/other_user}",
                "gists_url": "https://api.github.com/users/PrismarineJS/gists{/gist_id}",
                "gravatar_id": "",
                "html_url": "https://github.com/PrismarineJS",
                "id": 11053411,
                "login": "PrismarineJS",
                "node_id": "MDEyOk9yZ2FuaXphdGlvbjExMDUzNDEx",
                "organizations_url": "https://api.github.com/users/PrismarineJS/orgs",
                "received_events_url": "https://api.github.com/users/PrismarineJS/received_events",
                "repos_url": "https://api.github.com/users/PrismarineJS/repos",
                "site_admin": false,
                "starred_url": "https://api.github.com/users/PrismarineJS/starred{/owner}{/repo}",
                "subscriptions_url": "https://api.github.com/users/PrismarineJS/subscriptions",
                "type": "Organization",
                "url": "https://api.github.com/users/PrismarineJS"
            },
            "private": false,
            "pulls_url": "https://api.github.com/repos/PrismarineJS/node-minecraft-data/pulls{/number}",
            "pushed_at": "2023-04-10T01:09:34Z",
            "releases_url": "https://api.github.com/repos/PrismarineJS/node-minecraft-data/releases{/id}",
            "size": 421,
            "ssh_url": "git@github.com:PrismarineJS/node-minecraft-data.git",
            "stargazers_count": 73,
            "stargazers_url": "https://api.github.com/repos/PrismarineJS/node-minecraft-data/stargazers",
            "statuses_url": "https://api.github.com/repos/PrismarineJS/node-minecraft-data/statuses/{sha}",
            "subscribers_url": "https://api.github.com/repos/PrismarineJS/node-minecraft-data/subscribers",
            "subscription_url": "https://api.github.com/repos/PrismarineJS/node-minecraft-data/subscription",
            "svn_url": "https://github.com/PrismarineJS/node-minecraft-data",
            "tags_url": "https://api.github.com/repos/PrismarineJS/node-minecraft-data/tags",
            "teams_url": "https://api.github.com/repos/PrismarineJS/node-minecraft-data/teams",
            "topics": [],
            "trees_url": "https://api.github.com/repos/PrismarineJS/node-minecraft-data/git/trees{/sha}",
            "updated_at": "2023-04-06T17:47:53Z",
            "url": "https://api.github.com/repos/PrismarineJS/node-minecraft-data",
            "visibility": "public",
            "watchers": 73,
            "watchers_count": 73,
            "web_commit_signoff_required": false
        },
        "sha": "00673cce0c5507cc41478f9aa48becc6b0cc5f64",
        "user": {
            "avatar_url": "https://avatars.githubusercontent.com/u/11053411?v=4",
            "events_url": "https://api.github.com/users/PrismarineJS/events{/privacy}",
            "followers_url": "https://api.github.com/users/PrismarineJS/followers",
            "following_url": "https://api.github.com/users/PrismarineJS/following{/other_user}",
            "gists_url": "https://api.github.com/users/PrismarineJS/gists{/gist_id}",
            "gravatar_id": "",
            "html_url": "https://github.com/PrismarineJS",
            "id": 11053411,
            "login": "PrismarineJS",
            "node_id": "MDEyOk9yZ2FuaXphdGlvbjExMDUzNDEx",
            "organizations_url": "https://api.github.com/users/PrismarineJS/orgs",
            "received_events_url": "https://api.github.com/users/PrismarineJS/received_events",
            "repos_url": "https://api.github.com/users/PrismarineJS/repos",
            "site_admin": false,
            "starred_url": "https://api.github.com/users/PrismarineJS/starred{/owner}{/repo}",
            "subscriptions_url": "https://api.github.com/users/PrismarineJS/subscriptions",
            "type": "Organization",
            "url": "https://api.github.com/users/PrismarineJS"
        }
    },
    "html_url": "https://github.com/PrismarineJS/node-minecraft-data/pull/82",
    "id": 664344579,
    "issue_url": "https://api.github.com/repos/PrismarineJS/node-minecraft-data/issues/82",
    "labels": [
        {
            "color": "0366d6",
            "default": false,
            "description": "Pull requests that update a dependency file",
            "id": 2067070693,
            "name": "dependencies",
            "node_id": "MDU6TGFiZWwyMDY3MDcwNjkz",
            "url": "https://api.github.com/repos/PrismarineJS/node-minecraft-data/labels/dependencies"
        }
    ],
    "locked": false,
    "maintainer_can_modify": false,
    "merge_commit_sha": "df53477cf88410db5af0624cfacaffdbb8680766",
    "mergeable": null,
    "mergeable_state": "unknown",
    "merged": true,
    "merged_at": "2021-06-16T20:38:21Z",
    "merged_by": {
        "avatar_url": "https://avatars.githubusercontent.com/u/2346494?v=4",
        "events_url": "https://api.github.com/users/rom1504/events{/privacy}",
        "followers_url": "https://api.github.com/users/rom1504/followers",
        "following_url": "https://api.github.com/users/rom1504/following{/other_user}",
        "gists_url": "https://api.github.com/users/rom1504/gists{/gist_id}",
        "gravatar_id": "",
        "html_url": "https://github.com/rom1504",
        "id": 2346494,
        "login": "rom1504",
        "node_id": "MDQ6VXNlcjIzNDY0OTQ=",
        "organizations_url": "https://api.github.com/users/rom1504/orgs",
        "received_events_url": "https://api.github.com/users/rom1504/received_events",
        "repos_url": "https://api.github.com/users/rom1504/repos",
        "site_admin": false,
        "starred_url": "https://api.github.com/users/rom1504/starred{/owner}{/repo}",
        "subscriptions_url": "https://api.github.com/users/rom1504/subscriptions",
        "type": "User",
        "url": "https://api.github.com/users/rom1504"
    },
    "milestone": null,
    "node_id": "MDExOlB1bGxSZXF1ZXN0NjY0MzQ0NTc5",
    "number": 82,
    "patch_url": "https://github.com/PrismarineJS/node-minecraft-data/pull/82.patch",
    "rebaseable": null,
    "requested_reviewers": [],
    "requested_teams": [],
    "review_comment_url": "https://api.github.com/repos/PrismarineJS/node-minecraft-data/pulls/comments{/number}",
    "review_comments": 0,
    "review_comments_url": "https://api.github.com/repos/PrismarineJS/node-minecraft-data/pulls/82/comments",
    "state": "closed",
    "statuses_url": "https://api.github.com/repos/PrismarineJS/node-minecraft-data/statuses/00673cce0c5507cc41478f9aa48becc6b0cc5f64",
    "title": "Bump mocha from 8.4.0 to 9.0.0",
    "updated_at": "2021-06-16T20:38:30Z",
    "url": "https://api.github.com/repos/PrismarineJS/node-minecraft-data/pulls/82",
    "user": {
        "avatar_url": "https://avatars.githubusercontent.com/in/29110?v=4",
        "events_url": "https://api.github.com/users/dependabot%5Bbot%5D/events{/privacy}",
        "followers_url": "https://api.github.com/users/dependabot%5Bbot%5D/followers",
        "following_url": "https://api.github.com/users/dependabot%5Bbot%5D/following{/other_user}",
        "gists_url": "https://api.github.com/users/dependabot%5Bbot%5D/gists{/gist_id}",
        "gravatar_id": "",
        "html_url": "https://github.com/apps/dependabot",
        "id": 49699333,
        "login": "dependabot[bot]",
        "node_id": "MDM6Qm90NDk2OTkzMzM=",
        "organizations_url": "https://api.github.com/users/dependabot%5Bbot%5D/orgs",
        "received_events_url": "https://api.github.com/users/dependabot%5Bbot%5D/received_events",
        "repos_url": "https://api.github.com/users/dependabot%5Bbot%5D/repos",
        "site_admin": false,
        "starred_url": "https://api.github.com/users/dependabot%5Bbot%5D/starred{/owner}{/repo}",
        "subscriptions_url": "https://api.github.com/users/dependabot%5Bbot%5D/subscriptions",
        "type": "Bot",
        "url": "https://api.github.com/users/dependabot%5Bbot%5D"
    }
}