{
    "_links": {
        "comments": {
            "href": "https://api.github.com/repos/PrismarineJS/mineflayer-pathfinder/issues/21/comments"
        },
        "commits": {
            "href": "https://api.github.com/repos/PrismarineJS/mineflayer-pathfinder/pulls/21/commits"
        },
        "html": {
            "href": "https://github.com/PrismarineJS/mineflayer-pathfinder/pull/21"
        },
        "issue": {
            "href": "https://api.github.com/repos/PrismarineJS/mineflayer-pathfinder/issues/21"
        },
        "review_comment": {
            "href": "https://api.github.com/repos/PrismarineJS/mineflayer-pathfinder/pulls/comments{/number}"
        },
        "review_comments": {
            "href": "https://api.github.com/repos/PrismarineJS/mineflayer-pathfinder/pulls/21/comments"
        },
        "self": {
            "href": "https://api.github.com/repos/PrismarineJS/mineflayer-pathfinder/pulls/21"
        },
        "statuses": {
            "href": "https://api.github.com/repos/PrismarineJS/mineflayer-pathfinder/statuses/52a3242b52a5554f63504ce68dc620c5fd2a81e2"
        }
    },
    "active_lock_reason": null,
    "additions": 14,
    "assignee": null,
    "assignees": [],
    "author_association": "CONTRIBUTOR",
    "auto_merge": null,
    "base": {
        "label": "PrismarineJS:master",
        "ref": "master",
        "repo": {
            "allow_forking": true,
            "archive_url": "https://api.github.com/repos/PrismarineJS/mineflayer-pathfinder/{archive_format}{/ref}",
            "archived": false,
            "assignees_url": "https://api.github.com/repos/PrismarineJS/mineflayer-pathfinder/assignees{/user}",
            "blobs_url": "https://api.github.com/repos/PrismarineJS/mineflayer-pathfinder/git/blobs{/sha}",
            "branches_url": "https://api.github.com/repos/PrismarineJS/mineflayer-pathfinder/branches{/branch}",
            "clone_url": "https://github.com/PrismarineJS/mineflayer-pathfinder.git",
            "collaborators_url": "https://api.github.com/repos/PrismarineJS/mineflayer-pathfinder/collaborators{/collaborator}",
            "comments_url": "https://api.github.com/repos/PrismarineJS/mineflayer-pathfinder/comments{/number}",
            "commits_url": "https://api.github.com/repos/PrismarineJS/mineflayer-pathfinder/commits{/sha}",
            "compare_url": "https://api.github.com/repos/PrismarineJS/mineflayer-pathfinder/compare/{base}...{head}",
            "contents_url": "https://api.github.com/repos/PrismarineJS/mineflayer-pathfinder/contents/{+path}",
            "contributors_url": "https://api.github.com/repos/PrismarineJS/mineflayer-pathfinder/contributors",
            "created_at": "2020-04-21T02:34:23Z",
            "default_branch": "master",
            "deployments_url": "https://api.github.com/repos/PrismarineJS/mineflayer-pathfinder/deployments",
            "description": "Pathfinding plugin that gives bot the ability to go from A to B",
            "disabled": false,
            "downloads_url": "https://api.github.com/repos/PrismarineJS/mineflayer-pathfinder/downloads",
            "events_url": "https://api.github.com/repos/PrismarineJS/mineflayer-pathfinder/events",
            "fork": false,
            "forks": 52,
            "forks_count": 52,
            "forks_url": "https://api.github.com/repos/PrismarineJS/mineflayer-pathfinder/forks",
            "full_name": "PrismarineJS/mineflayer-pathfinder",
            "git_commits_url": "https://api.github.com/repos/PrismarineJS/mineflayer-pathfinder/git/commits{/sha}",
            "git_refs_url": "https://api.github.com/repos/PrismarineJS/mineflayer-pathfinder/git/refs{/sha}",
            "git_tags_url": "https://api.github.com/repos/PrismarineJS/mineflayer-pathfinder/git/tags{/sha}",
            "git_url": "git://github.com/PrismarineJS/mineflayer-pathfinder.git",
            "has_discussions": false,
            "has_downloads": true,
            "has_issues": true,
            "has_pages": false,
            "has_projects": true,
            "has_wiki": true,
            "homepage": "",
            "hooks_url": "https://api.github.com/repos/PrismarineJS/mineflayer-pathfinder/hooks",
            "html_url": "https://github.com/PrismarineJS/mineflayer-pathfinder",
            "id": 257460120,
            "is_template": false,
            "issue_comment_url": "https://api.github.com/repos/PrismarineJS/mineflayer-pathfinder/issues/comments{/number}",
            "issue_events_url": "https://api.github.com/repos/PrismarineJS/mineflayer-pathfinder/issues/events{/number}",
            "issues_url": "https://api.github.com/repos/PrismarineJS/mineflayer-pathfinder/issues{/number}",
            "keys_url": "https://api.github.com/repos/PrismarineJS/mineflayer-pathfinder/keys{/key_id}",
            "labels_url": "https://api.github.com/repos/PrismarineJS/mineflayer-pathfinder/labels{/name}",
            "language": "JavaScript",
            "languages_url": "https://api.github.com/repos/PrismarineJS/mineflayer-pathfinder/languages",
            "license": {
                "key": "mit",
                "name": "MIT License",
                "node_id": "MDc6TGljZW5zZTEz",
                "spdx_id": "MIT",
                "url": "https://api.github.com/licenses/mit"
            },
            "merges_url": "https://api.github.com/repos/PrismarineJS/mineflayer-pathfinder/merges",
            "milestones_url": "https://api.github.com/repos/PrismarineJS/mineflayer-pathfinder/milestones{/number}",
            "mirror_url": null,
            "name": "mineflayer-pathfinder",
            "node_id": "MDEwOlJlcG9zaXRvcnkyNTc0NjAxMjA=",
            "notifications_url": "https://api.github.com/repos/PrismarineJS/mineflayer-pathfinder/notifications{?since,all,participating}",
            "open_issues": 31,
            "open_issues_count": 31,
            "owner": {
                "avatar_url": "https://avatars.githubusercontent.com/u/11053411?v=4",
                "events_url": "https://api.github.com/users/PrismarineJS/events{/privacy}",
                "followers_url": "https://api.github.com/users/PrismarineJS/followers",
                "following_url": "https://api.github.com/users/PrismarineJS/following{/other_user}",
                "gists_url": "https://api.github.com/users/PrismarineJS/gists{/gist_id}",
                "gravatar_id": "",
                "html_url": "https://github.com/PrismarineJS",
                "id": 11053411,
                "login": "PrismarineJS",
                "node_id": "MDEyOk9yZ2FuaXphdGlvbjExMDUzNDEx",
                "organizations_url": "https://api.github.com/users/PrismarineJS/orgs",
                "received_events_url": "https://api.github.com/users/PrismarineJS/received_events",
                "repos_url": "https://api.github.com/users/PrismarineJS/repos",
                "site_admin": false,
                "starred_url": "https://api.github.com/users/PrismarineJS/starred{/owner}{/repo}",
                "subscriptions_url": "https://api.github.com/users/PrismarineJS/subscriptions",
                "type": "Organization",
                "url": "https://api.github.com/users/PrismarineJS"
            },
            "private": false,
            "pulls_url": "https://api.github.com/repos/PrismarineJS/mineflayer-pathfinder/pulls{/number}",
            "pushed_at": "2023-04-08T17:24:12Z",
            "releases_url": "https://api.github.com/repos/PrismarineJS/mineflayer-pathfinder/releases{/id}",
            "size": 321,
            "ssh_url": "git@github.com:PrismarineJS/mineflayer-pathfinder.git",
            "stargazers_count": 152,
            "stargazers_url": "https://api.github.com/repos/PrismarineJS/mineflayer-pathfinder/stargazers",
            "statuses_url": "https://api.github.com/repos/PrismarineJS/mineflayer-pathfinder/statuses/{sha}",
            "subscribers_url": "https://api.github.com/repos/PrismarineJS/mineflayer-pathfinder/subscribers",
            "subscription_url": "https://api.github.com/repos/PrismarineJS/mineflayer-pathfinder/subscription",
            "svn_url": "https://github.com/PrismarineJS/mineflayer-pathfinder",
            "tags_url": "https://api.github.com/repos/PrismarineJS/mineflayer-pathfinder/tags",
            "teams_url": "https://api.github.com/repos/PrismarineJS/mineflayer-pathfinder/teams",
            "topics": [
                "bot",
                "minecraft",
                "pathfinding"
            ],
            "trees_url": "https://api.github.com/repos/PrismarineJS/mineflayer-pathfinder/git/trees{/sha}",
            "updated_at": "2023-04-23T22:24:23Z",
            "url": "https://api.github.com/repos/PrismarineJS/mineflayer-pathfinder",
            "visibility": "public",
            "watchers": 152,
            "watchers_count": 152,
            "web_commit_signoff_required": false
        },
        "sha": "a6618b4f63bd00076de39bf5b02a0b37e68ae5bc",
        "user": {
            "avatar_url": "https://avatars.githubusercontent.com/u/11053411?v=4",
            "events_url": "https://api.github.com/users/PrismarineJS/events{/privacy}",
            "followers_url": "https://api.github.com/users/PrismarineJS/followers",
            "following_url": "https://api.github.com/users/PrismarineJS/following{/other_user}",
            "gists_url": "https://api.github.com/users/PrismarineJS/gists{/gist_id}",
            "gravatar_id": "",
            "html_url": "https://github.com/PrismarineJS",
            "id": 11053411,
            "login": "PrismarineJS",
            "node_id": "MDEyOk9yZ2FuaXphdGlvbjExMDUzNDEx",
            "organizations_url": "https://api.github.com/users/PrismarineJS/orgs",
            "received_events_url": "https://api.github.com/users/PrismarineJS/received_events",
            "repos_url": "https://api.github.com/users/PrismarineJS/repos",
            "site_admin": false,
            "starred_url": "https://api.github.com/users/PrismarineJS/starred{/owner}{/repo}",
            "subscriptions_url": "https://api.github.com/users/PrismarineJS/subscriptions",
            "type": "Organization",
            "url": "https://api.github.com/users/PrismarineJS"
        }
    },
    "body": "As per discussion on PR #19: Improved tool selection using `digTime`.\r\n\r\nI'm open to suggestions on improving the new `itemIsTool` check, feels like there should be a better way to check than string comparisons, but I think it works as a first pass anyhow.\r\n\r\nTested with the `example/test.js` bot on `1.16.1` and seems to work",
    "changed_files": 1,
    "closed_at": "2020-07-13T19:14:38Z",
    "comment_data": [
        {
            "_links": {
                "html": {
                    "href": "https://github.com/PrismarineJS/mineflayer-pathfinder/pull/21#discussion_r453238049"
                },
                "pull_request": {
                    "href": "https://api.github.com/repos/PrismarineJS/mineflayer-pathfinder/pulls/21"
                },
                "self": {
                    "href": "https://api.github.com/repos/PrismarineJS/mineflayer-pathfinder/pulls/comments/453238049"
                }
            },
            "author_association": "MEMBER",
            "body": "You could use `block.type === 0` id 0 is always air for all mc versions.\r\nBut is it really needed ? Does it happen often that bestHarvestTool gets called with an air block as a parameter ?",
            "commit_id": "52a3242b52a5554f63504ce68dc620c5fd2a81e2",
            "created_at": "2020-07-11T21:43:31Z",
            "diff_hunk": "@@ -6,22 +6,41 @@ const Move = require('./lib/move')\n const Vec3 = require('vec3').Vec3\n \n const { PlayerState } = require('prismarine-physics')\n+const nbt = require('prismarine-nbt')\n \n const THINK_TIMEOUT = 40 // ms\n \n function inject (bot) {\n   bot.pathfinder = {}\n \n+  function itemIsTool (item) {\n+    // tools are named material_toolname eg wooden_pickaxe\n+    const itemNameSplit = item.name.split('_')\n+    if (itemNameSplit.length === 2) {\n+      const toolNames = ['sword', 'axe', 'pickaxe', 'shovel']\n+      return toolNames.includes(itemNameSplit[1])\n+    }\n+    return false\n+  }\n+\n   bot.pathfinder.bestHarvestTool = function (block) {\n-    const items = bot.inventory.items()\n-    for (const i in block.harvestTools) {\n-      const id = parseInt(i, 10)\n-      for (const j in items) {\n-        const item = items[j]\n-        if (item.type === id) return item\n+    if (block.name === 'air') return null",
            "html_url": "https://github.com/PrismarineJS/mineflayer-pathfinder/pull/21#discussion_r453238049",
            "id": 453238049,
            "line": null,
            "node_id": "MDI0OlB1bGxSZXF1ZXN0UmV2aWV3Q29tbWVudDQ1MzIzODA0OQ==",
            "original_commit_id": "daa07ef2d0bb57bc847179be2352aa67d5810f79",
            "original_line": 27,
            "original_position": 28,
            "original_start_line": null,
            "path": "index.js",
            "position": null,
            "pull_request_review_id": 446830929,
            "pull_request_url": "https://api.github.com/repos/PrismarineJS/mineflayer-pathfinder/pulls/21",
            "reactions": {
                "+1": 0,
                "-1": 0,
                "confused": 0,
                "eyes": 0,
                "heart": 0,
                "hooray": 0,
                "laugh": 0,
                "rocket": 0,
                "total_count": 0,
                "url": "https://api.github.com/repos/PrismarineJS/mineflayer-pathfinder/pulls/comments/453238049/reactions"
            },
            "side": "RIGHT",
            "start_line": null,
            "start_side": null,
            "subject_type": "line",
            "updated_at": "2020-07-13T17:23:38Z",
            "url": "https://api.github.com/repos/PrismarineJS/mineflayer-pathfinder/pulls/comments/453238049",
            "user": {
                "avatar_url": "https://avatars.githubusercontent.com/u/1977472?v=4",
                "events_url": "https://api.github.com/users/Karang/events{/privacy}",
                "followers_url": "https://api.github.com/users/Karang/followers",
                "following_url": "https://api.github.com/users/Karang/following{/other_user}",
                "gists_url": "https://api.github.com/users/Karang/gists{/gist_id}",
                "gravatar_id": "",
                "html_url": "https://github.com/Karang",
                "id": 1977472,
                "login": "Karang",
                "node_id": "MDQ6VXNlcjE5Nzc0NzI=",
                "organizations_url": "https://api.github.com/users/Karang/orgs",
                "received_events_url": "https://api.github.com/users/Karang/received_events",
                "repos_url": "https://api.github.com/users/Karang/repos",
                "site_admin": false,
                "starred_url": "https://api.github.com/users/Karang/starred{/owner}{/repo}",
                "subscriptions_url": "https://api.github.com/users/Karang/subscriptions",
                "type": "User",
                "url": "https://api.github.com/users/Karang"
            }
        },
        {
            "_links": {
                "html": {
                    "href": "https://github.com/PrismarineJS/mineflayer-pathfinder/pull/21#discussion_r453238245"
                },
                "pull_request": {
                    "href": "https://api.github.com/repos/PrismarineJS/mineflayer-pathfinder/pulls/21"
                },
                "self": {
                    "href": "https://api.github.com/repos/PrismarineJS/mineflayer-pathfinder/pulls/comments/453238245"
                }
            },
            "author_association": "MEMBER",
            "body": "digTime should work with any item and tools should have the fastest dig time anyway. Is it really needed to prefilter the items ?",
            "commit_id": "52a3242b52a5554f63504ce68dc620c5fd2a81e2",
            "created_at": "2020-07-11T21:45:57Z",
            "diff_hunk": "@@ -6,22 +6,41 @@ const Move = require('./lib/move')\n const Vec3 = require('vec3').Vec3\n \n const { PlayerState } = require('prismarine-physics')\n+const nbt = require('prismarine-nbt')\n \n const THINK_TIMEOUT = 40 // ms\n \n function inject (bot) {\n   bot.pathfinder = {}\n \n+  function itemIsTool (item) {\n+    // tools are named material_toolname eg wooden_pickaxe\n+    const itemNameSplit = item.name.split('_')\n+    if (itemNameSplit.length === 2) {\n+      const toolNames = ['sword', 'axe', 'pickaxe', 'shovel']\n+      return toolNames.includes(itemNameSplit[1])\n+    }\n+    return false\n+  }\n+\n   bot.pathfinder.bestHarvestTool = function (block) {\n-    const items = bot.inventory.items()\n-    for (const i in block.harvestTools) {\n-      const id = parseInt(i, 10)\n-      for (const j in items) {\n-        const item = items[j]\n-        if (item.type === id) return item\n+    if (block.name === 'air') return null\n+\n+    const availableTools = bot.inventory.items().filter(itemIsTool)",
            "html_url": "https://github.com/PrismarineJS/mineflayer-pathfinder/pull/21#discussion_r453238245",
            "id": 453238245,
            "line": null,
            "node_id": "MDI0OlB1bGxSZXF1ZXN0UmV2aWV3Q29tbWVudDQ1MzIzODI0NQ==",
            "original_commit_id": "daa07ef2d0bb57bc847179be2352aa67d5810f79",
            "original_line": 29,
            "original_position": 30,
            "original_start_line": null,
            "path": "index.js",
            "position": null,
            "pull_request_review_id": 446830929,
            "pull_request_url": "https://api.github.com/repos/PrismarineJS/mineflayer-pathfinder/pulls/21",
            "reactions": {
                "+1": 1,
                "-1": 0,
                "confused": 0,
                "eyes": 0,
                "heart": 0,
                "hooray": 0,
                "laugh": 0,
                "rocket": 0,
                "total_count": 1,
                "url": "https://api.github.com/repos/PrismarineJS/mineflayer-pathfinder/pulls/comments/453238245/reactions"
            },
            "side": "RIGHT",
            "start_line": null,
            "start_side": null,
            "subject_type": "line",
            "updated_at": "2020-07-13T17:23:38Z",
            "url": "https://api.github.com/repos/PrismarineJS/mineflayer-pathfinder/pulls/comments/453238245",
            "user": {
                "avatar_url": "https://avatars.githubusercontent.com/u/1977472?v=4",
                "events_url": "https://api.github.com/users/Karang/events{/privacy}",
                "followers_url": "https://api.github.com/users/Karang/followers",
                "following_url": "https://api.github.com/users/Karang/following{/other_user}",
                "gists_url": "https://api.github.com/users/Karang/gists{/gist_id}",
                "gravatar_id": "",
                "html_url": "https://github.com/Karang",
                "id": 1977472,
                "login": "Karang",
                "node_id": "MDQ6VXNlcjE5Nzc0NzI=",
                "organizations_url": "https://api.github.com/users/Karang/orgs",
                "received_events_url": "https://api.github.com/users/Karang/received_events",
                "repos_url": "https://api.github.com/users/Karang/repos",
                "site_admin": false,
                "starred_url": "https://api.github.com/users/Karang/starred{/owner}{/repo}",
                "subscriptions_url": "https://api.github.com/users/Karang/subscriptions",
                "type": "User",
                "url": "https://api.github.com/users/Karang"
            }
        },
        {
            "_links": {
                "html": {
                    "href": "https://github.com/PrismarineJS/mineflayer-pathfinder/pull/21#discussion_r453238433"
                },
                "pull_request": {
                    "href": "https://api.github.com/repos/PrismarineJS/mineflayer-pathfinder/pulls/21"
                },
                "self": {
                    "href": "https://api.github.com/repos/PrismarineJS/mineflayer-pathfinder/pulls/comments/453238433"
                }
            },
            "author_association": "MEMBER",
            "body": "please use:\r\n```js\r\nfor (const tool of availableTools) {\r\n  //\r\n}\r\n```",
            "commit_id": "52a3242b52a5554f63504ce68dc620c5fd2a81e2",
            "created_at": "2020-07-11T21:48:54Z",
            "diff_hunk": "@@ -6,22 +6,41 @@ const Move = require('./lib/move')\n const Vec3 = require('vec3').Vec3\n \n const { PlayerState } = require('prismarine-physics')\n+const nbt = require('prismarine-nbt')\n \n const THINK_TIMEOUT = 40 // ms\n \n function inject (bot) {\n   bot.pathfinder = {}\n \n+  function itemIsTool (item) {\n+    // tools are named material_toolname eg wooden_pickaxe\n+    const itemNameSplit = item.name.split('_')\n+    if (itemNameSplit.length === 2) {\n+      const toolNames = ['sword', 'axe', 'pickaxe', 'shovel']\n+      return toolNames.includes(itemNameSplit[1])\n+    }\n+    return false\n+  }\n+\n   bot.pathfinder.bestHarvestTool = function (block) {\n-    const items = bot.inventory.items()\n-    for (const i in block.harvestTools) {\n-      const id = parseInt(i, 10)\n-      for (const j in items) {\n-        const item = items[j]\n-        if (item.type === id) return item\n+    if (block.name === 'air') return null\n+\n+    const availableTools = bot.inventory.items().filter(itemIsTool)\n+    const effects = bot.entity.effects\n+\n+    let fastest = Number.MAX_VALUE\n+    let bestTool = null\n+    availableTools.forEach(tool => {",
            "html_url": "https://github.com/PrismarineJS/mineflayer-pathfinder/pull/21#discussion_r453238433",
            "id": 453238433,
            "line": null,
            "node_id": "MDI0OlB1bGxSZXF1ZXN0UmV2aWV3Q29tbWVudDQ1MzIzODQzMw==",
            "original_commit_id": "daa07ef2d0bb57bc847179be2352aa67d5810f79",
            "original_line": 34,
            "original_position": 35,
            "original_start_line": null,
            "path": "index.js",
            "position": null,
            "pull_request_review_id": 446830929,
            "pull_request_url": "https://api.github.com/repos/PrismarineJS/mineflayer-pathfinder/pulls/21",
            "reactions": {
                "+1": 1,
                "-1": 0,
                "confused": 0,
                "eyes": 0,
                "heart": 0,
                "hooray": 0,
                "laugh": 0,
                "rocket": 0,
                "total_count": 1,
                "url": "https://api.github.com/repos/PrismarineJS/mineflayer-pathfinder/pulls/comments/453238433/reactions"
            },
            "side": "RIGHT",
            "start_line": null,
            "start_side": null,
            "subject_type": "line",
            "updated_at": "2020-07-13T17:23:38Z",
            "url": "https://api.github.com/repos/PrismarineJS/mineflayer-pathfinder/pulls/comments/453238433",
            "user": {
                "avatar_url": "https://avatars.githubusercontent.com/u/1977472?v=4",
                "events_url": "https://api.github.com/users/Karang/events{/privacy}",
                "followers_url": "https://api.github.com/users/Karang/followers",
                "following_url": "https://api.github.com/users/Karang/following{/other_user}",
                "gists_url": "https://api.github.com/users/Karang/gists{/gist_id}",
                "gravatar_id": "",
                "html_url": "https://github.com/Karang",
                "id": 1977472,
                "login": "Karang",
                "node_id": "MDQ6VXNlcjE5Nzc0NzI=",
                "organizations_url": "https://api.github.com/users/Karang/orgs",
                "received_events_url": "https://api.github.com/users/Karang/received_events",
                "repos_url": "https://api.github.com/users/Karang/repos",
                "site_admin": false,
                "starred_url": "https://api.github.com/users/Karang/starred{/owner}{/repo}",
                "subscriptions_url": "https://api.github.com/users/Karang/subscriptions",
                "type": "User",
                "url": "https://api.github.com/users/Karang"
            }
        },
        {
            "_links": {
                "html": {
                    "href": "https://github.com/PrismarineJS/mineflayer-pathfinder/pull/21#discussion_r453807873"
                },
                "pull_request": {
                    "href": "https://api.github.com/repos/PrismarineJS/mineflayer-pathfinder/pulls/21"
                },
                "self": {
                    "href": "https://api.github.com/repos/PrismarineJS/mineflayer-pathfinder/pulls/comments/453807873"
                }
            },
            "author_association": "CONTRIBUTOR",
            "body": "Think this was left over from when I was using the functionality elsewhere, I'll remove it",
            "commit_id": "52a3242b52a5554f63504ce68dc620c5fd2a81e2",
            "created_at": "2020-07-13T17:21:32Z",
            "diff_hunk": "@@ -6,22 +6,41 @@ const Move = require('./lib/move')\n const Vec3 = require('vec3').Vec3\n \n const { PlayerState } = require('prismarine-physics')\n+const nbt = require('prismarine-nbt')\n \n const THINK_TIMEOUT = 40 // ms\n \n function inject (bot) {\n   bot.pathfinder = {}\n \n+  function itemIsTool (item) {\n+    // tools are named material_toolname eg wooden_pickaxe\n+    const itemNameSplit = item.name.split('_')\n+    if (itemNameSplit.length === 2) {\n+      const toolNames = ['sword', 'axe', 'pickaxe', 'shovel']\n+      return toolNames.includes(itemNameSplit[1])\n+    }\n+    return false\n+  }\n+\n   bot.pathfinder.bestHarvestTool = function (block) {\n-    const items = bot.inventory.items()\n-    for (const i in block.harvestTools) {\n-      const id = parseInt(i, 10)\n-      for (const j in items) {\n-        const item = items[j]\n-        if (item.type === id) return item\n+    if (block.name === 'air') return null",
            "html_url": "https://github.com/PrismarineJS/mineflayer-pathfinder/pull/21#discussion_r453807873",
            "id": 453807873,
            "in_reply_to_id": 453238049,
            "line": null,
            "node_id": "MDI0OlB1bGxSZXF1ZXN0UmV2aWV3Q29tbWVudDQ1MzgwNzg3Mw==",
            "original_commit_id": "daa07ef2d0bb57bc847179be2352aa67d5810f79",
            "original_line": 27,
            "original_position": 28,
            "original_start_line": null,
            "path": "index.js",
            "position": null,
            "pull_request_review_id": 447449658,
            "pull_request_url": "https://api.github.com/repos/PrismarineJS/mineflayer-pathfinder/pulls/21",
            "reactions": {
                "+1": 0,
                "-1": 0,
                "confused": 0,
                "eyes": 0,
                "heart": 0,
                "hooray": 0,
                "laugh": 0,
                "rocket": 0,
                "total_count": 0,
                "url": "https://api.github.com/repos/PrismarineJS/mineflayer-pathfinder/pulls/comments/453807873/reactions"
            },
            "side": "RIGHT",
            "start_line": null,
            "start_side": null,
            "subject_type": "line",
            "updated_at": "2020-07-13T17:23:38Z",
            "url": "https://api.github.com/repos/PrismarineJS/mineflayer-pathfinder/pulls/comments/453807873",
            "user": {
                "avatar_url": "https://avatars.githubusercontent.com/u/23644091?v=4",
                "events_url": "https://api.github.com/users/Slord6/events{/privacy}",
                "followers_url": "https://api.github.com/users/Slord6/followers",
                "following_url": "https://api.github.com/users/Slord6/following{/other_user}",
                "gists_url": "https://api.github.com/users/Slord6/gists{/gist_id}",
                "gravatar_id": "",
                "html_url": "https://github.com/Slord6",
                "id": 23644091,
                "login": "Slord6",
                "node_id": "MDQ6VXNlcjIzNjQ0MDkx",
                "organizations_url": "https://api.github.com/users/Slord6/orgs",
                "received_events_url": "https://api.github.com/users/Slord6/received_events",
                "repos_url": "https://api.github.com/users/Slord6/repos",
                "site_admin": false,
                "starred_url": "https://api.github.com/users/Slord6/starred{/owner}{/repo}",
                "subscriptions_url": "https://api.github.com/users/Slord6/subscriptions",
                "type": "User",
                "url": "https://api.github.com/users/Slord6"
            }
        }
    ],
    "comment_regular_data": [
        {
            "author_association": "MEMBER",
            "body": "Merged and released. Thanks",
            "created_at": "2020-07-13T19:22:28Z",
            "html_url": "https://github.com/PrismarineJS/mineflayer-pathfinder/pull/21#issuecomment-657745130",
            "id": 657745130,
            "issue_url": "https://api.github.com/repos/PrismarineJS/mineflayer-pathfinder/issues/21",
            "node_id": "MDEyOklzc3VlQ29tbWVudDY1Nzc0NTEzMA==",
            "performed_via_github_app": null,
            "reactions": {
                "+1": 1,
                "-1": 0,
                "confused": 0,
                "eyes": 0,
                "heart": 0,
                "hooray": 0,
                "laugh": 0,
                "rocket": 0,
                "total_count": 1,
                "url": "https://api.github.com/repos/PrismarineJS/mineflayer-pathfinder/issues/comments/657745130/reactions"
            },
            "updated_at": "2020-07-13T19:22:28Z",
            "url": "https://api.github.com/repos/PrismarineJS/mineflayer-pathfinder/issues/comments/657745130",
            "user": {
                "avatar_url": "https://avatars.githubusercontent.com/u/1977472?v=4",
                "events_url": "https://api.github.com/users/Karang/events{/privacy}",
                "followers_url": "https://api.github.com/users/Karang/followers",
                "following_url": "https://api.github.com/users/Karang/following{/other_user}",
                "gists_url": "https://api.github.com/users/Karang/gists{/gist_id}",
                "gravatar_id": "",
                "html_url": "https://github.com/Karang",
                "id": 1977472,
                "login": "Karang",
                "node_id": "MDQ6VXNlcjE5Nzc0NzI=",
                "organizations_url": "https://api.github.com/users/Karang/orgs",
                "received_events_url": "https://api.github.com/users/Karang/received_events",
                "repos_url": "https://api.github.com/users/Karang/repos",
                "site_admin": false,
                "starred_url": "https://api.github.com/users/Karang/starred{/owner}{/repo}",
                "subscriptions_url": "https://api.github.com/users/Karang/subscriptions",
                "type": "User",
                "url": "https://api.github.com/users/Karang"
            }
        }
    ],
    "comments": 1,
    "comments_url": "https://api.github.com/repos/PrismarineJS/mineflayer-pathfinder/issues/21/comments",
    "commit_data": [
        {
            "author": {
                "avatar_url": "https://avatars.githubusercontent.com/u/23644091?v=4",
                "events_url": "https://api.github.com/users/Slord6/events{/privacy}",
                "followers_url": "https://api.github.com/users/Slord6/followers",
                "following_url": "https://api.github.com/users/Slord6/following{/other_user}",
                "gists_url": "https://api.github.com/users/Slord6/gists{/gist_id}",
                "gravatar_id": "",
                "html_url": "https://github.com/Slord6",
                "id": 23644091,
                "login": "Slord6",
                "node_id": "MDQ6VXNlcjIzNjQ0MDkx",
                "organizations_url": "https://api.github.com/users/Slord6/orgs",
                "received_events_url": "https://api.github.com/users/Slord6/received_events",
                "repos_url": "https://api.github.com/users/Slord6/repos",
                "site_admin": false,
                "starred_url": "https://api.github.com/users/Slord6/starred{/owner}{/repo}",
                "subscriptions_url": "https://api.github.com/users/Slord6/subscriptions",
                "type": "User",
                "url": "https://api.github.com/users/Slord6"
            },
            "comments_url": "https://api.github.com/repos/PrismarineJS/mineflayer-pathfinder/commits/e6ea648353929156cf911f7069fe12f8190e722a/comments",
            "commit": {
                "author": {
                    "date": "2020-07-11T20:44:25Z",
                    "email": "samlord6@gmail.com",
                    "name": "Sam Lord"
                },
                "comment_count": 0,
                "committer": {
                    "date": "2020-07-11T20:44:25Z",
                    "email": "samlord6@gmail.com",
                    "name": "Sam Lord"
                },
                "message": "Better tool selection based on material in the case that no harvest tools are present",
                "tree": {
                    "sha": "f2ddf95364b1fd4eb68a17825444d4154fa0338a",
                    "url": "https://api.github.com/repos/PrismarineJS/mineflayer-pathfinder/git/trees/f2ddf95364b1fd4eb68a17825444d4154fa0338a"
                },
                "url": "https://api.github.com/repos/PrismarineJS/mineflayer-pathfinder/git/commits/e6ea648353929156cf911f7069fe12f8190e722a",
                "verification": {
                    "payload": null,
                    "reason": "unsigned",
                    "signature": null,
                    "verified": false
                }
            },
            "committer": {
                "avatar_url": "https://avatars.githubusercontent.com/u/23644091?v=4",
                "events_url": "https://api.github.com/users/Slord6/events{/privacy}",
                "followers_url": "https://api.github.com/users/Slord6/followers",
                "following_url": "https://api.github.com/users/Slord6/following{/other_user}",
                "gists_url": "https://api.github.com/users/Slord6/gists{/gist_id}",
                "gravatar_id": "",
                "html_url": "https://github.com/Slord6",
                "id": 23644091,
                "login": "Slord6",
                "node_id": "MDQ6VXNlcjIzNjQ0MDkx",
                "organizations_url": "https://api.github.com/users/Slord6/orgs",
                "received_events_url": "https://api.github.com/users/Slord6/received_events",
                "repos_url": "https://api.github.com/users/Slord6/repos",
                "site_admin": false,
                "starred_url": "https://api.github.com/users/Slord6/starred{/owner}{/repo}",
                "subscriptions_url": "https://api.github.com/users/Slord6/subscriptions",
                "type": "User",
                "url": "https://api.github.com/users/Slord6"
            },
            "html_url": "https://github.com/PrismarineJS/mineflayer-pathfinder/commit/e6ea648353929156cf911f7069fe12f8190e722a",
            "node_id": "MDY6Q29tbWl0Mjc4NzM3MzE0OmU2ZWE2NDgzNTM5MjkxNTZjZjkxMWY3MDY5ZmUxMmY4MTkwZTcyMmE=",
            "parents": [
                {
                    "html_url": "https://github.com/PrismarineJS/mineflayer-pathfinder/commit/a6618b4f63bd00076de39bf5b02a0b37e68ae5bc",
                    "sha": "a6618b4f63bd00076de39bf5b02a0b37e68ae5bc",
                    "url": "https://api.github.com/repos/PrismarineJS/mineflayer-pathfinder/commits/a6618b4f63bd00076de39bf5b02a0b37e68ae5bc"
                }
            ],
            "sha": "e6ea648353929156cf911f7069fe12f8190e722a",
            "url": "https://api.github.com/repos/PrismarineJS/mineflayer-pathfinder/commits/e6ea648353929156cf911f7069fe12f8190e722a"
        },
        {
            "author": {
                "avatar_url": "https://avatars.githubusercontent.com/u/23644091?v=4",
                "events_url": "https://api.github.com/users/Slord6/events{/privacy}",
                "followers_url": "https://api.github.com/users/Slord6/followers",
                "following_url": "https://api.github.com/users/Slord6/following{/other_user}",
                "gists_url": "https://api.github.com/users/Slord6/gists{/gist_id}",
                "gravatar_id": "",
                "html_url": "https://github.com/Slord6",
                "id": 23644091,
                "login": "Slord6",
                "node_id": "MDQ6VXNlcjIzNjQ0MDkx",
                "organizations_url": "https://api.github.com/users/Slord6/orgs",
                "received_events_url": "https://api.github.com/users/Slord6/received_events",
                "repos_url": "https://api.github.com/users/Slord6/repos",
                "site_admin": false,
                "starred_url": "https://api.github.com/users/Slord6/starred{/owner}{/repo}",
                "subscriptions_url": "https://api.github.com/users/Slord6/subscriptions",
                "type": "User",
                "url": "https://api.github.com/users/Slord6"
            },
            "comments_url": "https://api.github.com/repos/PrismarineJS/mineflayer-pathfinder/commits/2b8370d59eed9bb6540057ab0d722687a359fc17/comments",
            "commit": {
                "author": {
                    "date": "2020-07-11T21:13:28Z",
                    "email": "samlord6@gmail.com",
                    "name": "Sam Lord"
                },
                "comment_count": 0,
                "committer": {
                    "date": "2020-07-11T21:13:28Z",
                    "email": "samlord6@gmail.com",
                    "name": "Sam Lord"
                },
                "message": "Improved selection based on dig time",
                "tree": {
                    "sha": "589e0a5d95555b7cbe769b5765e61e495c66523e",
                    "url": "https://api.github.com/repos/PrismarineJS/mineflayer-pathfinder/git/trees/589e0a5d95555b7cbe769b5765e61e495c66523e"
                },
                "url": "https://api.github.com/repos/PrismarineJS/mineflayer-pathfinder/git/commits/2b8370d59eed9bb6540057ab0d722687a359fc17",
                "verification": {
                    "payload": null,
                    "reason": "unsigned",
                    "signature": null,
                    "verified": false
                }
            },
            "committer": {
                "avatar_url": "https://avatars.githubusercontent.com/u/23644091?v=4",
                "events_url": "https://api.github.com/users/Slord6/events{/privacy}",
                "followers_url": "https://api.github.com/users/Slord6/followers",
                "following_url": "https://api.github.com/users/Slord6/following{/other_user}",
                "gists_url": "https://api.github.com/users/Slord6/gists{/gist_id}",
                "gravatar_id": "",
                "html_url": "https://github.com/Slord6",
                "id": 23644091,
                "login": "Slord6",
                "node_id": "MDQ6VXNlcjIzNjQ0MDkx",
                "organizations_url": "https://api.github.com/users/Slord6/orgs",
                "received_events_url": "https://api.github.com/users/Slord6/received_events",
                "repos_url": "https://api.github.com/users/Slord6/repos",
                "site_admin": false,
                "starred_url": "https://api.github.com/users/Slord6/starred{/owner}{/repo}",
                "subscriptions_url": "https://api.github.com/users/Slord6/subscriptions",
                "type": "User",
                "url": "https://api.github.com/users/Slord6"
            },
            "html_url": "https://github.com/PrismarineJS/mineflayer-pathfinder/commit/2b8370d59eed9bb6540057ab0d722687a359fc17",
            "node_id": "MDY6Q29tbWl0Mjc4NzM3MzE0OjJiODM3MGQ1OWVlZDliYjY1NDAwNTdhYjBkNzIyNjg3YTM1OWZjMTc=",
            "parents": [
                {
                    "html_url": "https://github.com/PrismarineJS/mineflayer-pathfinder/commit/e6ea648353929156cf911f7069fe12f8190e722a",
                    "sha": "e6ea648353929156cf911f7069fe12f8190e722a",
                    "url": "https://api.github.com/repos/PrismarineJS/mineflayer-pathfinder/commits/e6ea648353929156cf911f7069fe12f8190e722a"
                }
            ],
            "sha": "2b8370d59eed9bb6540057ab0d722687a359fc17",
            "url": "https://api.github.com/repos/PrismarineJS/mineflayer-pathfinder/commits/2b8370d59eed9bb6540057ab0d722687a359fc17"
        },
        {
            "author": {
                "avatar_url": "https://avatars.githubusercontent.com/u/23644091?v=4",
                "events_url": "https://api.github.com/users/Slord6/events{/privacy}",
                "followers_url": "https://api.github.com/users/Slord6/followers",
                "following_url": "https://api.github.com/users/Slord6/following{/other_user}",
                "gists_url": "https://api.github.com/users/Slord6/gists{/gist_id}",
                "gravatar_id": "",
                "html_url": "https://github.com/Slord6",
                "id": 23644091,
                "login": "Slord6",
                "node_id": "MDQ6VXNlcjIzNjQ0MDkx",
                "organizations_url": "https://api.github.com/users/Slord6/orgs",
                "received_events_url": "https://api.github.com/users/Slord6/received_events",
                "repos_url": "https://api.github.com/users/Slord6/repos",
                "site_admin": false,
                "starred_url": "https://api.github.com/users/Slord6/starred{/owner}{/repo}",
                "subscriptions_url": "https://api.github.com/users/Slord6/subscriptions",
                "type": "User",
                "url": "https://api.github.com/users/Slord6"
            },
            "comments_url": "https://api.github.com/repos/PrismarineJS/mineflayer-pathfinder/commits/daa07ef2d0bb57bc847179be2352aa67d5810f79/comments",
            "commit": {
                "author": {
                    "date": "2020-07-11T21:15:36Z",
                    "email": "samlord6@gmail.com",
                    "name": "Sam Lord"
                },
                "comment_count": 0,
                "committer": {
                    "date": "2020-07-11T21:15:36Z",
                    "email": "samlord6@gmail.com",
                    "name": "Sam Lord"
                },
                "message": "Linting fixes, remove console output",
                "tree": {
                    "sha": "9d48e9fc4eeba37e3dc6a73d6de5dbc157eeb9f3",
                    "url": "https://api.github.com/repos/PrismarineJS/mineflayer-pathfinder/git/trees/9d48e9fc4eeba37e3dc6a73d6de5dbc157eeb9f3"
                },
                "url": "https://api.github.com/repos/PrismarineJS/mineflayer-pathfinder/git/commits/daa07ef2d0bb57bc847179be2352aa67d5810f79",
                "verification": {
                    "payload": null,
                    "reason": "unsigned",
                    "signature": null,
                    "verified": false
                }
            },
            "committer": {
                "avatar_url": "https://avatars.githubusercontent.com/u/23644091?v=4",
                "events_url": "https://api.github.com/users/Slord6/events{/privacy}",
                "followers_url": "https://api.github.com/users/Slord6/followers",
                "following_url": "https://api.github.com/users/Slord6/following{/other_user}",
                "gists_url": "https://api.github.com/users/Slord6/gists{/gist_id}",
                "gravatar_id": "",
                "html_url": "https://github.com/Slord6",
                "id": 23644091,
                "login": "Slord6",
                "node_id": "MDQ6VXNlcjIzNjQ0MDkx",
                "organizations_url": "https://api.github.com/users/Slord6/orgs",
                "received_events_url": "https://api.github.com/users/Slord6/received_events",
                "repos_url": "https://api.github.com/users/Slord6/repos",
                "site_admin": false,
                "starred_url": "https://api.github.com/users/Slord6/starred{/owner}{/repo}",
                "subscriptions_url": "https://api.github.com/users/Slord6/subscriptions",
                "type": "User",
                "url": "https://api.github.com/users/Slord6"
            },
            "html_url": "https://github.com/PrismarineJS/mineflayer-pathfinder/commit/daa07ef2d0bb57bc847179be2352aa67d5810f79",
            "node_id": "MDY6Q29tbWl0Mjc4NzM3MzE0OmRhYTA3ZWYyZDBiYjU3YmM4NDcxNzliZTIzNTJhYTY3ZDU4MTBmNzk=",
            "parents": [
                {
                    "html_url": "https://github.com/PrismarineJS/mineflayer-pathfinder/commit/2b8370d59eed9bb6540057ab0d722687a359fc17",
                    "sha": "2b8370d59eed9bb6540057ab0d722687a359fc17",
                    "url": "https://api.github.com/repos/PrismarineJS/mineflayer-pathfinder/commits/2b8370d59eed9bb6540057ab0d722687a359fc17"
                }
            ],
            "sha": "daa07ef2d0bb57bc847179be2352aa67d5810f79",
            "url": "https://api.github.com/repos/PrismarineJS/mineflayer-pathfinder/commits/daa07ef2d0bb57bc847179be2352aa67d5810f79"
        },
        {
            "author": {
                "avatar_url": "https://avatars.githubusercontent.com/u/23644091?v=4",
                "events_url": "https://api.github.com/users/Slord6/events{/privacy}",
                "followers_url": "https://api.github.com/users/Slord6/followers",
                "following_url": "https://api.github.com/users/Slord6/following{/other_user}",
                "gists_url": "https://api.github.com/users/Slord6/gists{/gist_id}",
                "gravatar_id": "",
                "html_url": "https://github.com/Slord6",
                "id": 23644091,
                "login": "Slord6",
                "node_id": "MDQ6VXNlcjIzNjQ0MDkx",
                "organizations_url": "https://api.github.com/users/Slord6/orgs",
                "received_events_url": "https://api.github.com/users/Slord6/received_events",
                "repos_url": "https://api.github.com/users/Slord6/repos",
                "site_admin": false,
                "starred_url": "https://api.github.com/users/Slord6/starred{/owner}{/repo}",
                "subscriptions_url": "https://api.github.com/users/Slord6/subscriptions",
                "type": "User",
                "url": "https://api.github.com/users/Slord6"
            },
            "comments_url": "https://api.github.com/repos/PrismarineJS/mineflayer-pathfinder/commits/52a3242b52a5554f63504ce68dc620c5fd2a81e2/comments",
            "commit": {
                "author": {
                    "date": "2020-07-13T17:23:30Z",
                    "email": "samlord6@gmail.com",
                    "name": "Sam Lord"
                },
                "comment_count": 0,
                "committer": {
                    "date": "2020-07-13T17:23:30Z",
                    "email": "samlord6@gmail.com",
                    "name": "Sam Lord"
                },
                "message": " Remove item filtering. Remove early return for air. Style changes.",
                "tree": {
                    "sha": "c8bcd862a1e25b0e0534bf5b14fa7e753520f653",
                    "url": "https://api.github.com/repos/PrismarineJS/mineflayer-pathfinder/git/trees/c8bcd862a1e25b0e0534bf5b14fa7e753520f653"
                },
                "url": "https://api.github.com/repos/PrismarineJS/mineflayer-pathfinder/git/commits/52a3242b52a5554f63504ce68dc620c5fd2a81e2",
                "verification": {
                    "payload": null,
                    "reason": "unsigned",
                    "signature": null,
                    "verified": false
                }
            },
            "committer": {
                "avatar_url": "https://avatars.githubusercontent.com/u/23644091?v=4",
                "events_url": "https://api.github.com/users/Slord6/events{/privacy}",
                "followers_url": "https://api.github.com/users/Slord6/followers",
                "following_url": "https://api.github.com/users/Slord6/following{/other_user}",
                "gists_url": "https://api.github.com/users/Slord6/gists{/gist_id}",
                "gravatar_id": "",
                "html_url": "https://github.com/Slord6",
                "id": 23644091,
                "login": "Slord6",
                "node_id": "MDQ6VXNlcjIzNjQ0MDkx",
                "organizations_url": "https://api.github.com/users/Slord6/orgs",
                "received_events_url": "https://api.github.com/users/Slord6/received_events",
                "repos_url": "https://api.github.com/users/Slord6/repos",
                "site_admin": false,
                "starred_url": "https://api.github.com/users/Slord6/starred{/owner}{/repo}",
                "subscriptions_url": "https://api.github.com/users/Slord6/subscriptions",
                "type": "User",
                "url": "https://api.github.com/users/Slord6"
            },
            "html_url": "https://github.com/PrismarineJS/mineflayer-pathfinder/commit/52a3242b52a5554f63504ce68dc620c5fd2a81e2",
            "node_id": "MDY6Q29tbWl0Mjc4NzM3MzE0OjUyYTMyNDJiNTJhNTU1NGY2MzUwNGNlNjhkYzYyMGM1ZmQyYTgxZTI=",
            "parents": [
                {
                    "html_url": "https://github.com/PrismarineJS/mineflayer-pathfinder/commit/daa07ef2d0bb57bc847179be2352aa67d5810f79",
                    "sha": "daa07ef2d0bb57bc847179be2352aa67d5810f79",
                    "url": "https://api.github.com/repos/PrismarineJS/mineflayer-pathfinder/commits/daa07ef2d0bb57bc847179be2352aa67d5810f79"
                }
            ],
            "sha": "52a3242b52a5554f63504ce68dc620c5fd2a81e2",
            "url": "https://api.github.com/repos/PrismarineJS/mineflayer-pathfinder/commits/52a3242b52a5554f63504ce68dc620c5fd2a81e2"
        }
    ],
    "commits": 4,
    "commits_url": "https://api.github.com/repos/PrismarineJS/mineflayer-pathfinder/pulls/21/commits",
    "created_at": "2020-07-11T21:21:20Z",
    "deletions": 7,
    "diff_url": "https://github.com/PrismarineJS/mineflayer-pathfinder/pull/21.diff",
    "draft": false,
    "head": {
        "label": "Slord6:tool-selection-improvements",
        "ref": "tool-selection-improvements",
        "repo": {
            "allow_forking": true,
            "archive_url": "https://api.github.com/repos/Slord6/mineflayer-pathfinder/{archive_format}{/ref}",
            "archived": false,
            "assignees_url": "https://api.github.com/repos/Slord6/mineflayer-pathfinder/assignees{/user}",
            "blobs_url": "https://api.github.com/repos/Slord6/mineflayer-pathfinder/git/blobs{/sha}",
            "branches_url": "https://api.github.com/repos/Slord6/mineflayer-pathfinder/branches{/branch}",
            "clone_url": "https://github.com/Slord6/mineflayer-pathfinder.git",
            "collaborators_url": "https://api.github.com/repos/Slord6/mineflayer-pathfinder/collaborators{/collaborator}",
            "comments_url": "https://api.github.com/repos/Slord6/mineflayer-pathfinder/comments{/number}",
            "commits_url": "https://api.github.com/repos/Slord6/mineflayer-pathfinder/commits{/sha}",
            "compare_url": "https://api.github.com/repos/Slord6/mineflayer-pathfinder/compare/{base}...{head}",
            "contents_url": "https://api.github.com/repos/Slord6/mineflayer-pathfinder/contents/{+path}",
            "contributors_url": "https://api.github.com/repos/Slord6/mineflayer-pathfinder/contributors",
            "created_at": "2020-07-10T21:33:02Z",
            "default_branch": "master",
            "deployments_url": "https://api.github.com/repos/Slord6/mineflayer-pathfinder/deployments",
            "description": null,
            "disabled": false,
            "downloads_url": "https://api.github.com/repos/Slord6/mineflayer-pathfinder/downloads",
            "events_url": "https://api.github.com/repos/Slord6/mineflayer-pathfinder/events",
            "fork": true,
            "forks": 0,
            "forks_count": 0,
            "forks_url": "https://api.github.com/repos/Slord6/mineflayer-pathfinder/forks",
            "full_name": "Slord6/mineflayer-pathfinder",
            "git_commits_url": "https://api.github.com/repos/Slord6/mineflayer-pathfinder/git/commits{/sha}",
            "git_refs_url": "https://api.github.com/repos/Slord6/mineflayer-pathfinder/git/refs{/sha}",
            "git_tags_url": "https://api.github.com/repos/Slord6/mineflayer-pathfinder/git/tags{/sha}",
            "git_url": "git://github.com/Slord6/mineflayer-pathfinder.git",
            "has_discussions": false,
            "has_downloads": true,
            "has_issues": false,
            "has_pages": false,
            "has_projects": true,
            "has_wiki": true,
            "homepage": null,
            "hooks_url": "https://api.github.com/repos/Slord6/mineflayer-pathfinder/hooks",
            "html_url": "https://github.com/Slord6/mineflayer-pathfinder",
            "id": 278737314,
            "is_template": false,
            "issue_comment_url": "https://api.github.com/repos/Slord6/mineflayer-pathfinder/issues/comments{/number}",
            "issue_events_url": "https://api.github.com/repos/Slord6/mineflayer-pathfinder/issues/events{/number}",
            "issues_url": "https://api.github.com/repos/Slord6/mineflayer-pathfinder/issues{/number}",
            "keys_url": "https://api.github.com/repos/Slord6/mineflayer-pathfinder/keys{/key_id}",
            "labels_url": "https://api.github.com/repos/Slord6/mineflayer-pathfinder/labels{/name}",
            "language": "JavaScript",
            "languages_url": "https://api.github.com/repos/Slord6/mineflayer-pathfinder/languages",
            "license": {
                "key": "mit",
                "name": "MIT License",
                "node_id": "MDc6TGljZW5zZTEz",
                "spdx_id": "MIT",
                "url": "https://api.github.com/licenses/mit"
            },
            "merges_url": "https://api.github.com/repos/Slord6/mineflayer-pathfinder/merges",
            "milestones_url": "https://api.github.com/repos/Slord6/mineflayer-pathfinder/milestones{/number}",
            "mirror_url": null,
            "name": "mineflayer-pathfinder",
            "node_id": "MDEwOlJlcG9zaXRvcnkyNzg3MzczMTQ=",
            "notifications_url": "https://api.github.com/repos/Slord6/mineflayer-pathfinder/notifications{?since,all,participating}",
            "open_issues": 0,
            "open_issues_count": 0,
            "owner": {
                "avatar_url": "https://avatars.githubusercontent.com/u/23644091?v=4",
                "events_url": "https://api.github.com/users/Slord6/events{/privacy}",
                "followers_url": "https://api.github.com/users/Slord6/followers",
                "following_url": "https://api.github.com/users/Slord6/following{/other_user}",
                "gists_url": "https://api.github.com/users/Slord6/gists{/gist_id}",
                "gravatar_id": "",
                "html_url": "https://github.com/Slord6",
                "id": 23644091,
                "login": "Slord6",
                "node_id": "MDQ6VXNlcjIzNjQ0MDkx",
                "organizations_url": "https://api.github.com/users/Slord6/orgs",
                "received_events_url": "https://api.github.com/users/Slord6/received_events",
                "repos_url": "https://api.github.com/users/Slord6/repos",
                "site_admin": false,
                "starred_url": "https://api.github.com/users/Slord6/starred{/owner}{/repo}",
                "subscriptions_url": "https://api.github.com/users/Slord6/subscriptions",
                "type": "User",
                "url": "https://api.github.com/users/Slord6"
            },
            "private": false,
            "pulls_url": "https://api.github.com/repos/Slord6/mineflayer-pathfinder/pulls{/number}",
            "pushed_at": "2020-07-14T18:13:52Z",
            "releases_url": "https://api.github.com/repos/Slord6/mineflayer-pathfinder/releases{/id}",
            "size": 72,
            "ssh_url": "git@github.com:Slord6/mineflayer-pathfinder.git",
            "stargazers_count": 0,
            "stargazers_url": "https://api.github.com/repos/Slord6/mineflayer-pathfinder/stargazers",
            "statuses_url": "https://api.github.com/repos/Slord6/mineflayer-pathfinder/statuses/{sha}",
            "subscribers_url": "https://api.github.com/repos/Slord6/mineflayer-pathfinder/subscribers",
            "subscription_url": "https://api.github.com/repos/Slord6/mineflayer-pathfinder/subscription",
            "svn_url": "https://github.com/Slord6/mineflayer-pathfinder",
            "tags_url": "https://api.github.com/repos/Slord6/mineflayer-pathfinder/tags",
            "teams_url": "https://api.github.com/repos/Slord6/mineflayer-pathfinder/teams",
            "topics": [],
            "trees_url": "https://api.github.com/repos/Slord6/mineflayer-pathfinder/git/trees{/sha}",
            "updated_at": "2020-11-01T20:17:01Z",
            "url": "https://api.github.com/repos/Slord6/mineflayer-pathfinder",
            "visibility": "public",
            "watchers": 0,
            "watchers_count": 0,
            "web_commit_signoff_required": false
        },
        "sha": "52a3242b52a5554f63504ce68dc620c5fd2a81e2",
        "user": {
            "avatar_url": "https://avatars.githubusercontent.com/u/23644091?v=4",
            "events_url": "https://api.github.com/users/Slord6/events{/privacy}",
            "followers_url": "https://api.github.com/users/Slord6/followers",
            "following_url": "https://api.github.com/users/Slord6/following{/other_user}",
            "gists_url": "https://api.github.com/users/Slord6/gists{/gist_id}",
            "gravatar_id": "",
            "html_url": "https://github.com/Slord6",
            "id": 23644091,
            "login": "Slord6",
            "node_id": "MDQ6VXNlcjIzNjQ0MDkx",
            "organizations_url": "https://api.github.com/users/Slord6/orgs",
            "received_events_url": "https://api.github.com/users/Slord6/received_events",
            "repos_url": "https://api.github.com/users/Slord6/repos",
            "site_admin": false,
            "starred_url": "https://api.github.com/users/Slord6/starred{/owner}{/repo}",
            "subscriptions_url": "https://api.github.com/users/Slord6/subscriptions",
            "type": "User",
            "url": "https://api.github.com/users/Slord6"
        }
    },
    "html_url": "https://github.com/PrismarineJS/mineflayer-pathfinder/pull/21",
    "id": 447818605,
    "issue_url": "https://api.github.com/repos/PrismarineJS/mineflayer-pathfinder/issues/21",
    "labels": [],
    "locked": false,
    "maintainer_can_modify": false,
    "merge_commit_sha": "07943646b08ea4c894bfe829a184ac71f4ada0f9",
    "mergeable": null,
    "mergeable_state": "unknown",
    "merged": true,
    "merged_at": "2020-07-13T19:14:38Z",
    "merged_by": {
        "avatar_url": "https://avatars.githubusercontent.com/u/1977472?v=4",
        "events_url": "https://api.github.com/users/Karang/events{/privacy}",
        "followers_url": "https://api.github.com/users/Karang/followers",
        "following_url": "https://api.github.com/users/Karang/following{/other_user}",
        "gists_url": "https://api.github.com/users/Karang/gists{/gist_id}",
        "gravatar_id": "",
        "html_url": "https://github.com/Karang",
        "id": 1977472,
        "login": "Karang",
        "node_id": "MDQ6VXNlcjE5Nzc0NzI=",
        "organizations_url": "https://api.github.com/users/Karang/orgs",
        "received_events_url": "https://api.github.com/users/Karang/received_events",
        "repos_url": "https://api.github.com/users/Karang/repos",
        "site_admin": false,
        "starred_url": "https://api.github.com/users/Karang/starred{/owner}{/repo}",
        "subscriptions_url": "https://api.github.com/users/Karang/subscriptions",
        "type": "User",
        "url": "https://api.github.com/users/Karang"
    },
    "milestone": null,
    "node_id": "MDExOlB1bGxSZXF1ZXN0NDQ3ODE4NjA1",
    "number": 21,
    "patch_url": "https://github.com/PrismarineJS/mineflayer-pathfinder/pull/21.patch",
    "rebaseable": null,
    "requested_reviewers": [
        {
            "avatar_url": "https://avatars.githubusercontent.com/u/1977472?v=4",
            "events_url": "https://api.github.com/users/Karang/events{/privacy}",
            "followers_url": "https://api.github.com/users/Karang/followers",
            "following_url": "https://api.github.com/users/Karang/following{/other_user}",
            "gists_url": "https://api.github.com/users/Karang/gists{/gist_id}",
            "gravatar_id": "",
            "html_url": "https://github.com/Karang",
            "id": 1977472,
            "login": "Karang",
            "node_id": "MDQ6VXNlcjE5Nzc0NzI=",
            "organizations_url": "https://api.github.com/users/Karang/orgs",
            "received_events_url": "https://api.github.com/users/Karang/received_events",
            "repos_url": "https://api.github.com/users/Karang/repos",
            "site_admin": false,
            "starred_url": "https://api.github.com/users/Karang/starred{/owner}{/repo}",
            "subscriptions_url": "https://api.github.com/users/Karang/subscriptions",
            "type": "User",
            "url": "https://api.github.com/users/Karang"
        }
    ],
    "requested_teams": [],
    "review_comment_url": "https://api.github.com/repos/PrismarineJS/mineflayer-pathfinder/pulls/comments{/number}",
    "review_comments": 4,
    "review_comments_url": "https://api.github.com/repos/PrismarineJS/mineflayer-pathfinder/pulls/21/comments",
    "state": "closed",
    "statuses_url": "https://api.github.com/repos/PrismarineJS/mineflayer-pathfinder/statuses/52a3242b52a5554f63504ce68dc620c5fd2a81e2",
    "title": "Tool selection improvements",
    "updated_at": "2020-07-13T19:22:28Z",
    "url": "https://api.github.com/repos/PrismarineJS/mineflayer-pathfinder/pulls/21",
    "user": {
        "avatar_url": "https://avatars.githubusercontent.com/u/23644091?v=4",
        "events_url": "https://api.github.com/users/Slord6/events{/privacy}",
        "followers_url": "https://api.github.com/users/Slord6/followers",
        "following_url": "https://api.github.com/users/Slord6/following{/other_user}",
        "gists_url": "https://api.github.com/users/Slord6/gists{/gist_id}",
        "gravatar_id": "",
        "html_url": "https://github.com/Slord6",
        "id": 23644091,
        "login": "Slord6",
        "node_id": "MDQ6VXNlcjIzNjQ0MDkx",
        "organizations_url": "https://api.github.com/users/Slord6/orgs",
        "received_events_url": "https://api.github.com/users/Slord6/received_events",
        "repos_url": "https://api.github.com/users/Slord6/repos",
        "site_admin": false,
        "starred_url": "https://api.github.com/users/Slord6/starred{/owner}{/repo}",
        "subscriptions_url": "https://api.github.com/users/Slord6/subscriptions",
        "type": "User",
        "url": "https://api.github.com/users/Slord6"
    }
}