{
    "_links": {
        "comments": {
            "href": "https://api.github.com/repos/PrismarineJS/mineflayer-pathfinder/issues/235/comments"
        },
        "commits": {
            "href": "https://api.github.com/repos/PrismarineJS/mineflayer-pathfinder/pulls/235/commits"
        },
        "html": {
            "href": "https://github.com/PrismarineJS/mineflayer-pathfinder/pull/235"
        },
        "issue": {
            "href": "https://api.github.com/repos/PrismarineJS/mineflayer-pathfinder/issues/235"
        },
        "review_comment": {
            "href": "https://api.github.com/repos/PrismarineJS/mineflayer-pathfinder/pulls/comments{/number}"
        },
        "review_comments": {
            "href": "https://api.github.com/repos/PrismarineJS/mineflayer-pathfinder/pulls/235/comments"
        },
        "self": {
            "href": "https://api.github.com/repos/PrismarineJS/mineflayer-pathfinder/pulls/235"
        },
        "statuses": {
            "href": "https://api.github.com/repos/PrismarineJS/mineflayer-pathfinder/statuses/664df198401969bc53314540c89d994fd8a4394b"
        }
    },
    "active_lock_reason": null,
    "additions": 11,
    "assignee": null,
    "assignees": [],
    "author_association": "MEMBER",
    "auto_merge": null,
    "base": {
        "label": "PrismarineJS:master",
        "ref": "master",
        "repo": {
            "allow_forking": true,
            "archive_url": "https://api.github.com/repos/PrismarineJS/mineflayer-pathfinder/{archive_format}{/ref}",
            "archived": false,
            "assignees_url": "https://api.github.com/repos/PrismarineJS/mineflayer-pathfinder/assignees{/user}",
            "blobs_url": "https://api.github.com/repos/PrismarineJS/mineflayer-pathfinder/git/blobs{/sha}",
            "branches_url": "https://api.github.com/repos/PrismarineJS/mineflayer-pathfinder/branches{/branch}",
            "clone_url": "https://github.com/PrismarineJS/mineflayer-pathfinder.git",
            "collaborators_url": "https://api.github.com/repos/PrismarineJS/mineflayer-pathfinder/collaborators{/collaborator}",
            "comments_url": "https://api.github.com/repos/PrismarineJS/mineflayer-pathfinder/comments{/number}",
            "commits_url": "https://api.github.com/repos/PrismarineJS/mineflayer-pathfinder/commits{/sha}",
            "compare_url": "https://api.github.com/repos/PrismarineJS/mineflayer-pathfinder/compare/{base}...{head}",
            "contents_url": "https://api.github.com/repos/PrismarineJS/mineflayer-pathfinder/contents/{+path}",
            "contributors_url": "https://api.github.com/repos/PrismarineJS/mineflayer-pathfinder/contributors",
            "created_at": "2020-04-21T02:34:23Z",
            "default_branch": "master",
            "deployments_url": "https://api.github.com/repos/PrismarineJS/mineflayer-pathfinder/deployments",
            "description": "Pathfinding plugin that gives bot the ability to go from A to B",
            "disabled": false,
            "downloads_url": "https://api.github.com/repos/PrismarineJS/mineflayer-pathfinder/downloads",
            "events_url": "https://api.github.com/repos/PrismarineJS/mineflayer-pathfinder/events",
            "fork": false,
            "forks": 52,
            "forks_count": 52,
            "forks_url": "https://api.github.com/repos/PrismarineJS/mineflayer-pathfinder/forks",
            "full_name": "PrismarineJS/mineflayer-pathfinder",
            "git_commits_url": "https://api.github.com/repos/PrismarineJS/mineflayer-pathfinder/git/commits{/sha}",
            "git_refs_url": "https://api.github.com/repos/PrismarineJS/mineflayer-pathfinder/git/refs{/sha}",
            "git_tags_url": "https://api.github.com/repos/PrismarineJS/mineflayer-pathfinder/git/tags{/sha}",
            "git_url": "git://github.com/PrismarineJS/mineflayer-pathfinder.git",
            "has_discussions": false,
            "has_downloads": true,
            "has_issues": true,
            "has_pages": false,
            "has_projects": true,
            "has_wiki": true,
            "homepage": "",
            "hooks_url": "https://api.github.com/repos/PrismarineJS/mineflayer-pathfinder/hooks",
            "html_url": "https://github.com/PrismarineJS/mineflayer-pathfinder",
            "id": 257460120,
            "is_template": false,
            "issue_comment_url": "https://api.github.com/repos/PrismarineJS/mineflayer-pathfinder/issues/comments{/number}",
            "issue_events_url": "https://api.github.com/repos/PrismarineJS/mineflayer-pathfinder/issues/events{/number}",
            "issues_url": "https://api.github.com/repos/PrismarineJS/mineflayer-pathfinder/issues{/number}",
            "keys_url": "https://api.github.com/repos/PrismarineJS/mineflayer-pathfinder/keys{/key_id}",
            "labels_url": "https://api.github.com/repos/PrismarineJS/mineflayer-pathfinder/labels{/name}",
            "language": "JavaScript",
            "languages_url": "https://api.github.com/repos/PrismarineJS/mineflayer-pathfinder/languages",
            "license": {
                "key": "mit",
                "name": "MIT License",
                "node_id": "MDc6TGljZW5zZTEz",
                "spdx_id": "MIT",
                "url": "https://api.github.com/licenses/mit"
            },
            "merges_url": "https://api.github.com/repos/PrismarineJS/mineflayer-pathfinder/merges",
            "milestones_url": "https://api.github.com/repos/PrismarineJS/mineflayer-pathfinder/milestones{/number}",
            "mirror_url": null,
            "name": "mineflayer-pathfinder",
            "node_id": "MDEwOlJlcG9zaXRvcnkyNTc0NjAxMjA=",
            "notifications_url": "https://api.github.com/repos/PrismarineJS/mineflayer-pathfinder/notifications{?since,all,participating}",
            "open_issues": 31,
            "open_issues_count": 31,
            "owner": {
                "avatar_url": "https://avatars.githubusercontent.com/u/11053411?v=4",
                "events_url": "https://api.github.com/users/PrismarineJS/events{/privacy}",
                "followers_url": "https://api.github.com/users/PrismarineJS/followers",
                "following_url": "https://api.github.com/users/PrismarineJS/following{/other_user}",
                "gists_url": "https://api.github.com/users/PrismarineJS/gists{/gist_id}",
                "gravatar_id": "",
                "html_url": "https://github.com/PrismarineJS",
                "id": 11053411,
                "login": "PrismarineJS",
                "node_id": "MDEyOk9yZ2FuaXphdGlvbjExMDUzNDEx",
                "organizations_url": "https://api.github.com/users/PrismarineJS/orgs",
                "received_events_url": "https://api.github.com/users/PrismarineJS/received_events",
                "repos_url": "https://api.github.com/users/PrismarineJS/repos",
                "site_admin": false,
                "starred_url": "https://api.github.com/users/PrismarineJS/starred{/owner}{/repo}",
                "subscriptions_url": "https://api.github.com/users/PrismarineJS/subscriptions",
                "type": "Organization",
                "url": "https://api.github.com/users/PrismarineJS"
            },
            "private": false,
            "pulls_url": "https://api.github.com/repos/PrismarineJS/mineflayer-pathfinder/pulls{/number}",
            "pushed_at": "2023-04-08T17:24:12Z",
            "releases_url": "https://api.github.com/repos/PrismarineJS/mineflayer-pathfinder/releases{/id}",
            "size": 321,
            "ssh_url": "git@github.com:PrismarineJS/mineflayer-pathfinder.git",
            "stargazers_count": 152,
            "stargazers_url": "https://api.github.com/repos/PrismarineJS/mineflayer-pathfinder/stargazers",
            "statuses_url": "https://api.github.com/repos/PrismarineJS/mineflayer-pathfinder/statuses/{sha}",
            "subscribers_url": "https://api.github.com/repos/PrismarineJS/mineflayer-pathfinder/subscribers",
            "subscription_url": "https://api.github.com/repos/PrismarineJS/mineflayer-pathfinder/subscription",
            "svn_url": "https://github.com/PrismarineJS/mineflayer-pathfinder",
            "tags_url": "https://api.github.com/repos/PrismarineJS/mineflayer-pathfinder/tags",
            "teams_url": "https://api.github.com/repos/PrismarineJS/mineflayer-pathfinder/teams",
            "topics": [
                "bot",
                "minecraft",
                "pathfinding"
            ],
            "trees_url": "https://api.github.com/repos/PrismarineJS/mineflayer-pathfinder/git/trees{/sha}",
            "updated_at": "2023-04-23T22:24:23Z",
            "url": "https://api.github.com/repos/PrismarineJS/mineflayer-pathfinder",
            "visibility": "public",
            "watchers": 152,
            "watchers_count": 152,
            "web_commit_signoff_required": false
        },
        "sha": "5b26a7b2c77b4aec714399dcc6650d62ae05d457",
        "user": {
            "avatar_url": "https://avatars.githubusercontent.com/u/11053411?v=4",
            "events_url": "https://api.github.com/users/PrismarineJS/events{/privacy}",
            "followers_url": "https://api.github.com/users/PrismarineJS/followers",
            "following_url": "https://api.github.com/users/PrismarineJS/following{/other_user}",
            "gists_url": "https://api.github.com/users/PrismarineJS/gists{/gist_id}",
            "gravatar_id": "",
            "html_url": "https://github.com/PrismarineJS",
            "id": 11053411,
            "login": "PrismarineJS",
            "node_id": "MDEyOk9yZ2FuaXphdGlvbjExMDUzNDEx",
            "organizations_url": "https://api.github.com/users/PrismarineJS/orgs",
            "received_events_url": "https://api.github.com/users/PrismarineJS/received_events",
            "repos_url": "https://api.github.com/users/PrismarineJS/repos",
            "site_admin": false,
            "starred_url": "https://api.github.com/users/PrismarineJS/starred{/owner}{/repo}",
            "subscriptions_url": "https://api.github.com/users/PrismarineJS/subscriptions",
            "type": "Organization",
            "url": "https://api.github.com/users/PrismarineJS"
        }
    },
    "body": null,
    "changed_files": 1,
    "closed_at": "2022-01-06T21:21:06Z",
    "comment_data": [],
    "comment_regular_data": [
        {
            "author_association": "NONE",
            "body": "Here it is. Thanks, and hope it will be merged soon.",
            "created_at": "2022-01-06T19:33:18Z",
            "html_url": "https://github.com/PrismarineJS/mineflayer-pathfinder/pull/235#issuecomment-1006876748",
            "id": 1006876748,
            "issue_url": "https://api.github.com/repos/PrismarineJS/mineflayer-pathfinder/issues/235",
            "node_id": "IC_kwDOD1iHmM48A7hM",
            "performed_via_github_app": null,
            "reactions": {
                "+1": 0,
                "-1": 0,
                "confused": 0,
                "eyes": 0,
                "heart": 0,
                "hooray": 0,
                "laugh": 0,
                "rocket": 0,
                "total_count": 0,
                "url": "https://api.github.com/repos/PrismarineJS/mineflayer-pathfinder/issues/comments/1006876748/reactions"
            },
            "updated_at": "2022-01-06T19:33:39Z",
            "url": "https://api.github.com/repos/PrismarineJS/mineflayer-pathfinder/issues/comments/1006876748",
            "user": {
                "avatar_url": "https://avatars.githubusercontent.com/u/67533827?v=4",
                "events_url": "https://api.github.com/users/SzczurekYT/events{/privacy}",
                "followers_url": "https://api.github.com/users/SzczurekYT/followers",
                "following_url": "https://api.github.com/users/SzczurekYT/following{/other_user}",
                "gists_url": "https://api.github.com/users/SzczurekYT/gists{/gist_id}",
                "gravatar_id": "",
                "html_url": "https://github.com/SzczurekYT",
                "id": 67533827,
                "login": "SzczurekYT",
                "node_id": "MDQ6VXNlcjY3NTMzODI3",
                "organizations_url": "https://api.github.com/users/SzczurekYT/orgs",
                "received_events_url": "https://api.github.com/users/SzczurekYT/received_events",
                "repos_url": "https://api.github.com/users/SzczurekYT/repos",
                "site_admin": false,
                "starred_url": "https://api.github.com/users/SzczurekYT/starred{/owner}{/repo}",
                "subscriptions_url": "https://api.github.com/users/SzczurekYT/subscriptions",
                "type": "User",
                "url": "https://api.github.com/users/SzczurekYT"
            }
        },
        {
            "author_association": "NONE",
            "body": "I was just looking for what was causing error in my code and found this, lol.",
            "created_at": "2022-01-06T19:48:25Z",
            "html_url": "https://github.com/PrismarineJS/mineflayer-pathfinder/pull/235#issuecomment-1006887084",
            "id": 1006887084,
            "issue_url": "https://api.github.com/repos/PrismarineJS/mineflayer-pathfinder/issues/235",
            "node_id": "IC_kwDOD1iHmM48A-Cs",
            "performed_via_github_app": null,
            "reactions": {
                "+1": 0,
                "-1": 0,
                "confused": 0,
                "eyes": 0,
                "heart": 0,
                "hooray": 0,
                "laugh": 0,
                "rocket": 0,
                "total_count": 0,
                "url": "https://api.github.com/repos/PrismarineJS/mineflayer-pathfinder/issues/comments/1006887084/reactions"
            },
            "updated_at": "2022-01-06T19:48:25Z",
            "url": "https://api.github.com/repos/PrismarineJS/mineflayer-pathfinder/issues/comments/1006887084",
            "user": {
                "avatar_url": "https://avatars.githubusercontent.com/u/64465772?v=4",
                "events_url": "https://api.github.com/users/Hedgie1/events{/privacy}",
                "followers_url": "https://api.github.com/users/Hedgie1/followers",
                "following_url": "https://api.github.com/users/Hedgie1/following{/other_user}",
                "gists_url": "https://api.github.com/users/Hedgie1/gists{/gist_id}",
                "gravatar_id": "",
                "html_url": "https://github.com/Hedgie1",
                "id": 64465772,
                "login": "Hedgie1",
                "node_id": "MDQ6VXNlcjY0NDY1Nzcy",
                "organizations_url": "https://api.github.com/users/Hedgie1/orgs",
                "received_events_url": "https://api.github.com/users/Hedgie1/received_events",
                "repos_url": "https://api.github.com/users/Hedgie1/repos",
                "site_admin": false,
                "starred_url": "https://api.github.com/users/Hedgie1/starred{/owner}{/repo}",
                "subscriptions_url": "https://api.github.com/users/Hedgie1/subscriptions",
                "type": "User",
                "url": "https://api.github.com/users/Hedgie1"
            }
        },
        {
            "author_association": "NONE",
            "body": "Cool, thanks for the fix. @IceTank ",
            "created_at": "2022-01-06T21:30:14Z",
            "html_url": "https://github.com/PrismarineJS/mineflayer-pathfinder/pull/235#issuecomment-1006948628",
            "id": 1006948628,
            "issue_url": "https://api.github.com/repos/PrismarineJS/mineflayer-pathfinder/issues/235",
            "node_id": "IC_kwDOD1iHmM48BNEU",
            "performed_via_github_app": null,
            "reactions": {
                "+1": 0,
                "-1": 0,
                "confused": 0,
                "eyes": 0,
                "heart": 0,
                "hooray": 0,
                "laugh": 0,
                "rocket": 0,
                "total_count": 0,
                "url": "https://api.github.com/repos/PrismarineJS/mineflayer-pathfinder/issues/comments/1006948628/reactions"
            },
            "updated_at": "2022-01-06T21:30:14Z",
            "url": "https://api.github.com/repos/PrismarineJS/mineflayer-pathfinder/issues/comments/1006948628",
            "user": {
                "avatar_url": "https://avatars.githubusercontent.com/u/67533827?v=4",
                "events_url": "https://api.github.com/users/SzczurekYT/events{/privacy}",
                "followers_url": "https://api.github.com/users/SzczurekYT/followers",
                "following_url": "https://api.github.com/users/SzczurekYT/following{/other_user}",
                "gists_url": "https://api.github.com/users/SzczurekYT/gists{/gist_id}",
                "gravatar_id": "",
                "html_url": "https://github.com/SzczurekYT",
                "id": 67533827,
                "login": "SzczurekYT",
                "node_id": "MDQ6VXNlcjY3NTMzODI3",
                "organizations_url": "https://api.github.com/users/SzczurekYT/orgs",
                "received_events_url": "https://api.github.com/users/SzczurekYT/received_events",
                "repos_url": "https://api.github.com/users/SzczurekYT/repos",
                "site_admin": false,
                "starred_url": "https://api.github.com/users/SzczurekYT/starred{/owner}{/repo}",
                "subscriptions_url": "https://api.github.com/users/SzczurekYT/subscriptions",
                "type": "User",
                "url": "https://api.github.com/users/SzczurekYT"
            }
        }
    ],
    "comments": 3,
    "comments_url": "https://api.github.com/repos/PrismarineJS/mineflayer-pathfinder/issues/235/comments",
    "commit_data": [
        {
            "author": {
                "avatar_url": "https://avatars.githubusercontent.com/u/61137113?v=4",
                "events_url": "https://api.github.com/users/IceTank/events{/privacy}",
                "followers_url": "https://api.github.com/users/IceTank/followers",
                "following_url": "https://api.github.com/users/IceTank/following{/other_user}",
                "gists_url": "https://api.github.com/users/IceTank/gists{/gist_id}",
                "gravatar_id": "",
                "html_url": "https://github.com/IceTank",
                "id": 61137113,
                "login": "IceTank",
                "node_id": "MDQ6VXNlcjYxMTM3MTEz",
                "organizations_url": "https://api.github.com/users/IceTank/orgs",
                "received_events_url": "https://api.github.com/users/IceTank/received_events",
                "repos_url": "https://api.github.com/users/IceTank/repos",
                "site_admin": false,
                "starred_url": "https://api.github.com/users/IceTank/starred{/owner}{/repo}",
                "subscriptions_url": "https://api.github.com/users/IceTank/subscriptions",
                "type": "User",
                "url": "https://api.github.com/users/IceTank"
            },
            "comments_url": "https://api.github.com/repos/PrismarineJS/mineflayer-pathfinder/commits/664df198401969bc53314540c89d994fd8a4394b/comments",
            "commit": {
                "author": {
                    "date": "2022-01-06T19:23:38Z",
                    "email": "niklaslehle@gmail.com",
                    "name": "IceTank"
                },
                "comment_count": 0,
                "committer": {
                    "date": "2022-01-06T19:23:38Z",
                    "email": "niklaslehle@gmail.com",
                    "name": "IceTank"
                },
                "message": "Fix uncaught exception when no tool is available",
                "tree": {
                    "sha": "2c66c21497aab0460e1ee585a07fc5bb9912eb78",
                    "url": "https://api.github.com/repos/PrismarineJS/mineflayer-pathfinder/git/trees/2c66c21497aab0460e1ee585a07fc5bb9912eb78"
                },
                "url": "https://api.github.com/repos/PrismarineJS/mineflayer-pathfinder/git/commits/664df198401969bc53314540c89d994fd8a4394b",
                "verification": {
                    "payload": null,
                    "reason": "unsigned",
                    "signature": null,
                    "verified": false
                }
            },
            "committer": {
                "avatar_url": "https://avatars.githubusercontent.com/u/61137113?v=4",
                "events_url": "https://api.github.com/users/IceTank/events{/privacy}",
                "followers_url": "https://api.github.com/users/IceTank/followers",
                "following_url": "https://api.github.com/users/IceTank/following{/other_user}",
                "gists_url": "https://api.github.com/users/IceTank/gists{/gist_id}",
                "gravatar_id": "",
                "html_url": "https://github.com/IceTank",
                "id": 61137113,
                "login": "IceTank",
                "node_id": "MDQ6VXNlcjYxMTM3MTEz",
                "organizations_url": "https://api.github.com/users/IceTank/orgs",
                "received_events_url": "https://api.github.com/users/IceTank/received_events",
                "repos_url": "https://api.github.com/users/IceTank/repos",
                "site_admin": false,
                "starred_url": "https://api.github.com/users/IceTank/starred{/owner}{/repo}",
                "subscriptions_url": "https://api.github.com/users/IceTank/subscriptions",
                "type": "User",
                "url": "https://api.github.com/users/IceTank"
            },
            "html_url": "https://github.com/PrismarineJS/mineflayer-pathfinder/commit/664df198401969bc53314540c89d994fd8a4394b",
            "node_id": "C_kwDOE09es9oAKDY2NGRmMTk4NDAxOTY5YmM1MzMxNDU0MGM4OWQ5OTRmZDhhNDM5NGI",
            "parents": [
                {
                    "html_url": "https://github.com/PrismarineJS/mineflayer-pathfinder/commit/5b26a7b2c77b4aec714399dcc6650d62ae05d457",
                    "sha": "5b26a7b2c77b4aec714399dcc6650d62ae05d457",
                    "url": "https://api.github.com/repos/PrismarineJS/mineflayer-pathfinder/commits/5b26a7b2c77b4aec714399dcc6650d62ae05d457"
                }
            ],
            "sha": "664df198401969bc53314540c89d994fd8a4394b",
            "url": "https://api.github.com/repos/PrismarineJS/mineflayer-pathfinder/commits/664df198401969bc53314540c89d994fd8a4394b"
        }
    ],
    "commits": 1,
    "commits_url": "https://api.github.com/repos/PrismarineJS/mineflayer-pathfinder/pulls/235/commits",
    "created_at": "2022-01-06T19:29:41Z",
    "deletions": 2,
    "diff_url": "https://github.com/PrismarineJS/mineflayer-pathfinder/pull/235.diff",
    "draft": false,
    "head": {
        "label": "IceTank:uncaught-promise-rejection-fix",
        "ref": "uncaught-promise-rejection-fix",
        "repo": {
            "allow_forking": true,
            "archive_url": "https://api.github.com/repos/IceTank/mineflayer-pathfinder/{archive_format}{/ref}",
            "archived": false,
            "assignees_url": "https://api.github.com/repos/IceTank/mineflayer-pathfinder/assignees{/user}",
            "blobs_url": "https://api.github.com/repos/IceTank/mineflayer-pathfinder/git/blobs{/sha}",
            "branches_url": "https://api.github.com/repos/IceTank/mineflayer-pathfinder/branches{/branch}",
            "clone_url": "https://github.com/IceTank/mineflayer-pathfinder.git",
            "collaborators_url": "https://api.github.com/repos/IceTank/mineflayer-pathfinder/collaborators{/collaborator}",
            "comments_url": "https://api.github.com/repos/IceTank/mineflayer-pathfinder/comments{/number}",
            "commits_url": "https://api.github.com/repos/IceTank/mineflayer-pathfinder/commits{/sha}",
            "compare_url": "https://api.github.com/repos/IceTank/mineflayer-pathfinder/compare/{base}...{head}",
            "contents_url": "https://api.github.com/repos/IceTank/mineflayer-pathfinder/contents/{+path}",
            "contributors_url": "https://api.github.com/repos/IceTank/mineflayer-pathfinder/contributors",
            "created_at": "2020-12-23T17:56:06Z",
            "default_branch": "master",
            "deployments_url": "https://api.github.com/repos/IceTank/mineflayer-pathfinder/deployments",
            "description": "Pathfinding plugin that gives bot the ability to go from A to B",
            "disabled": false,
            "downloads_url": "https://api.github.com/repos/IceTank/mineflayer-pathfinder/downloads",
            "events_url": "https://api.github.com/repos/IceTank/mineflayer-pathfinder/events",
            "fork": true,
            "forks": 0,
            "forks_count": 0,
            "forks_url": "https://api.github.com/repos/IceTank/mineflayer-pathfinder/forks",
            "full_name": "IceTank/mineflayer-pathfinder",
            "git_commits_url": "https://api.github.com/repos/IceTank/mineflayer-pathfinder/git/commits{/sha}",
            "git_refs_url": "https://api.github.com/repos/IceTank/mineflayer-pathfinder/git/refs{/sha}",
            "git_tags_url": "https://api.github.com/repos/IceTank/mineflayer-pathfinder/git/tags{/sha}",
            "git_url": "git://github.com/IceTank/mineflayer-pathfinder.git",
            "has_discussions": false,
            "has_downloads": true,
            "has_issues": false,
            "has_pages": false,
            "has_projects": true,
            "has_wiki": true,
            "homepage": "",
            "hooks_url": "https://api.github.com/repos/IceTank/mineflayer-pathfinder/hooks",
            "html_url": "https://github.com/IceTank/mineflayer-pathfinder",
            "id": 323968691,
            "is_template": false,
            "issue_comment_url": "https://api.github.com/repos/IceTank/mineflayer-pathfinder/issues/comments{/number}",
            "issue_events_url": "https://api.github.com/repos/IceTank/mineflayer-pathfinder/issues/events{/number}",
            "issues_url": "https://api.github.com/repos/IceTank/mineflayer-pathfinder/issues{/number}",
            "keys_url": "https://api.github.com/repos/IceTank/mineflayer-pathfinder/keys{/key_id}",
            "labels_url": "https://api.github.com/repos/IceTank/mineflayer-pathfinder/labels{/name}",
            "language": "JavaScript",
            "languages_url": "https://api.github.com/repos/IceTank/mineflayer-pathfinder/languages",
            "license": {
                "key": "mit",
                "name": "MIT License",
                "node_id": "MDc6TGljZW5zZTEz",
                "spdx_id": "MIT",
                "url": "https://api.github.com/licenses/mit"
            },
            "merges_url": "https://api.github.com/repos/IceTank/mineflayer-pathfinder/merges",
            "milestones_url": "https://api.github.com/repos/IceTank/mineflayer-pathfinder/milestones{/number}",
            "mirror_url": null,
            "name": "mineflayer-pathfinder",
            "node_id": "MDEwOlJlcG9zaXRvcnkzMjM5Njg2OTE=",
            "notifications_url": "https://api.github.com/repos/IceTank/mineflayer-pathfinder/notifications{?since,all,participating}",
            "open_issues": 5,
            "open_issues_count": 5,
            "owner": {
                "avatar_url": "https://avatars.githubusercontent.com/u/61137113?v=4",
                "events_url": "https://api.github.com/users/IceTank/events{/privacy}",
                "followers_url": "https://api.github.com/users/IceTank/followers",
                "following_url": "https://api.github.com/users/IceTank/following{/other_user}",
                "gists_url": "https://api.github.com/users/IceTank/gists{/gist_id}",
                "gravatar_id": "",
                "html_url": "https://github.com/IceTank",
                "id": 61137113,
                "login": "IceTank",
                "node_id": "MDQ6VXNlcjYxMTM3MTEz",
                "organizations_url": "https://api.github.com/users/IceTank/orgs",
                "received_events_url": "https://api.github.com/users/IceTank/received_events",
                "repos_url": "https://api.github.com/users/IceTank/repos",
                "site_admin": false,
                "starred_url": "https://api.github.com/users/IceTank/starred{/owner}{/repo}",
                "subscriptions_url": "https://api.github.com/users/IceTank/subscriptions",
                "type": "User",
                "url": "https://api.github.com/users/IceTank"
            },
            "private": false,
            "pulls_url": "https://api.github.com/repos/IceTank/mineflayer-pathfinder/pulls{/number}",
            "pushed_at": "2023-03-16T10:25:18Z",
            "releases_url": "https://api.github.com/repos/IceTank/mineflayer-pathfinder/releases{/id}",
            "size": 320,
            "ssh_url": "git@github.com:IceTank/mineflayer-pathfinder.git",
            "stargazers_count": 0,
            "stargazers_url": "https://api.github.com/repos/IceTank/mineflayer-pathfinder/stargazers",
            "statuses_url": "https://api.github.com/repos/IceTank/mineflayer-pathfinder/statuses/{sha}",
            "subscribers_url": "https://api.github.com/repos/IceTank/mineflayer-pathfinder/subscribers",
            "subscription_url": "https://api.github.com/repos/IceTank/mineflayer-pathfinder/subscription",
            "svn_url": "https://github.com/IceTank/mineflayer-pathfinder",
            "tags_url": "https://api.github.com/repos/IceTank/mineflayer-pathfinder/tags",
            "teams_url": "https://api.github.com/repos/IceTank/mineflayer-pathfinder/teams",
            "topics": [],
            "trees_url": "https://api.github.com/repos/IceTank/mineflayer-pathfinder/git/trees{/sha}",
            "updated_at": "2021-03-13T02:05:41Z",
            "url": "https://api.github.com/repos/IceTank/mineflayer-pathfinder",
            "visibility": "public",
            "watchers": 0,
            "watchers_count": 0,
            "web_commit_signoff_required": false
        },
        "sha": "664df198401969bc53314540c89d994fd8a4394b",
        "user": {
            "avatar_url": "https://avatars.githubusercontent.com/u/61137113?v=4",
            "events_url": "https://api.github.com/users/IceTank/events{/privacy}",
            "followers_url": "https://api.github.com/users/IceTank/followers",
            "following_url": "https://api.github.com/users/IceTank/following{/other_user}",
            "gists_url": "https://api.github.com/users/IceTank/gists{/gist_id}",
            "gravatar_id": "",
            "html_url": "https://github.com/IceTank",
            "id": 61137113,
            "login": "IceTank",
            "node_id": "MDQ6VXNlcjYxMTM3MTEz",
            "organizations_url": "https://api.github.com/users/IceTank/orgs",
            "received_events_url": "https://api.github.com/users/IceTank/received_events",
            "repos_url": "https://api.github.com/users/IceTank/repos",
            "site_admin": false,
            "starred_url": "https://api.github.com/users/IceTank/starred{/owner}{/repo}",
            "subscriptions_url": "https://api.github.com/users/IceTank/subscriptions",
            "type": "User",
            "url": "https://api.github.com/users/IceTank"
        }
    },
    "html_url": "https://github.com/PrismarineJS/mineflayer-pathfinder/pull/235",
    "id": 815783523,
    "issue_url": "https://api.github.com/repos/PrismarineJS/mineflayer-pathfinder/issues/235",
    "labels": [],
    "locked": false,
    "maintainer_can_modify": false,
    "merge_commit_sha": "4a3a12f06c96990ab97be756a1c9468eca39773f",
    "mergeable": null,
    "mergeable_state": "unknown",
    "merged": true,
    "merged_at": "2022-01-06T21:21:06Z",
    "merged_by": {
        "avatar_url": "https://avatars.githubusercontent.com/u/1977472?v=4",
        "events_url": "https://api.github.com/users/Karang/events{/privacy}",
        "followers_url": "https://api.github.com/users/Karang/followers",
        "following_url": "https://api.github.com/users/Karang/following{/other_user}",
        "gists_url": "https://api.github.com/users/Karang/gists{/gist_id}",
        "gravatar_id": "",
        "html_url": "https://github.com/Karang",
        "id": 1977472,
        "login": "Karang",
        "node_id": "MDQ6VXNlcjE5Nzc0NzI=",
        "organizations_url": "https://api.github.com/users/Karang/orgs",
        "received_events_url": "https://api.github.com/users/Karang/received_events",
        "repos_url": "https://api.github.com/users/Karang/repos",
        "site_admin": false,
        "starred_url": "https://api.github.com/users/Karang/starred{/owner}{/repo}",
        "subscriptions_url": "https://api.github.com/users/Karang/subscriptions",
        "type": "User",
        "url": "https://api.github.com/users/Karang"
    },
    "milestone": null,
    "node_id": "PR_kwDOD1iHmM4wn95j",
    "number": 235,
    "patch_url": "https://github.com/PrismarineJS/mineflayer-pathfinder/pull/235.patch",
    "rebaseable": null,
    "requested_reviewers": [],
    "requested_teams": [],
    "review_comment_url": "https://api.github.com/repos/PrismarineJS/mineflayer-pathfinder/pulls/comments{/number}",
    "review_comments": 0,
    "review_comments_url": "https://api.github.com/repos/PrismarineJS/mineflayer-pathfinder/pulls/235/comments",
    "state": "closed",
    "statuses_url": "https://api.github.com/repos/PrismarineJS/mineflayer-pathfinder/statuses/664df198401969bc53314540c89d994fd8a4394b",
    "title": "Fix uncaught exception when bestHarvestTool returns null",
    "updated_at": "2022-01-07T12:37:10Z",
    "url": "https://api.github.com/repos/PrismarineJS/mineflayer-pathfinder/pulls/235",
    "user": {
        "avatar_url": "https://avatars.githubusercontent.com/u/61137113?v=4",
        "events_url": "https://api.github.com/users/IceTank/events{/privacy}",
        "followers_url": "https://api.github.com/users/IceTank/followers",
        "following_url": "https://api.github.com/users/IceTank/following{/other_user}",
        "gists_url": "https://api.github.com/users/IceTank/gists{/gist_id}",
        "gravatar_id": "",
        "html_url": "https://github.com/IceTank",
        "id": 61137113,
        "login": "IceTank",
        "node_id": "MDQ6VXNlcjYxMTM3MTEz",
        "organizations_url": "https://api.github.com/users/IceTank/orgs",
        "received_events_url": "https://api.github.com/users/IceTank/received_events",
        "repos_url": "https://api.github.com/users/IceTank/repos",
        "site_admin": false,
        "starred_url": "https://api.github.com/users/IceTank/starred{/owner}{/repo}",
        "subscriptions_url": "https://api.github.com/users/IceTank/subscriptions",
        "type": "User",
        "url": "https://api.github.com/users/IceTank"
    }
}