{
    "assets": [],
    "assets_url": "https://api.github.com/repos/PrismarineJS/node-minecraft-packets/releases/41089812/assets",
    "author": {
        "avatar_url": "https://avatars.githubusercontent.com/in/15368?v=4",
        "events_url": "https://api.github.com/users/github-actions%5Bbot%5D/events{/privacy}",
        "followers_url": "https://api.github.com/users/github-actions%5Bbot%5D/followers",
        "following_url": "https://api.github.com/users/github-actions%5Bbot%5D/following{/other_user}",
        "gists_url": "https://api.github.com/users/github-actions%5Bbot%5D/gists{/gist_id}",
        "gravatar_id": "",
        "html_url": "https://github.com/apps/github-actions",
        "id": 41898282,
        "login": "github-actions[bot]",
        "node_id": "MDM6Qm90NDE4OTgyODI=",
        "organizations_url": "https://api.github.com/users/github-actions%5Bbot%5D/orgs",
        "received_events_url": "https://api.github.com/users/github-actions%5Bbot%5D/received_events",
        "repos_url": "https://api.github.com/users/github-actions%5Bbot%5D/repos",
        "site_admin": false,
        "starred_url": "https://api.github.com/users/github-actions%5Bbot%5D/starred{/owner}{/repo}",
        "subscriptions_url": "https://api.github.com/users/github-actions%5Bbot%5D/subscriptions",
        "type": "Bot",
        "url": "https://api.github.com/users/github-actions%5Bbot%5D",
        "user_view_type": "public"
    },
    "body": "1.2.0",
    "created_at": "2021-04-07T22:59:51Z",
    "draft": false,
    "html_url": "https://github.com/PrismarineJS/node-minecraft-packets/releases/tag/1.2.0",
    "id": 41089812,
    "name": "Release 1.2.0",
    "node_id": "MDc6UmVsZWFzZTQxMDg5ODEy",
    "prerelease": false,
    "published_at": "2021-04-07T23:00:24Z",
    "tag_name": "1.2.0",
    "tarball_url": "https://api.github.com/repos/PrismarineJS/node-minecraft-packets/tarball/1.2.0",
    "target_commitish": "c08278cc86f140ab7a16448fce3ed5e74d9a5629",
    "upload_url": "https://uploads.github.com/repos/PrismarineJS/node-minecraft-packets/releases/41089812/assets{?name,label}",
    "url": "https://api.github.com/repos/PrismarineJS/node-minecraft-packets/releases/41089812",
    "zipball_url": "https://api.github.com/repos/PrismarineJS/node-minecraft-packets/zipball/1.2.0"
}