{
    "active_lock_reason": null,
    "assignee": null,
    "assignees": [],
    "author_association": "NONE",
    "body": "Does this let you sprint jump? You probably have it jump over gaps of 1 or 2 but you can sprint jump like 3-4 blocks\n",
    "closed_at": null,
    "comment_data": [
        {
            "author_association": "MEMBER",
            "body": "The module currently does not take sprint jumping into account. A PR to add this would be welcome.\n",
            "created_at": "2013-02-03T03:34:36Z",
            "html_url": "https://github.com/PrismarineJS/mineflayer-navigate/issues/15#issuecomment-13041801",
            "id": 13041801,
            "issue_url": "https://api.github.com/repos/PrismarineJS/mineflayer-navigate/issues/15",
            "node_id": "MDEyOklzc3VlQ29tbWVudDEzMDQxODAx",
            "performed_via_github_app": null,
            "reactions": {
                "+1": 0,
                "-1": 0,
                "confused": 0,
                "eyes": 0,
                "heart": 0,
                "hooray": 0,
                "laugh": 0,
                "rocket": 0,
                "total_count": 0,
                "url": "https://api.github.com/repos/PrismarineJS/mineflayer-navigate/issues/comments/13041801/reactions"
            },
            "updated_at": "2013-02-03T03:34:36Z",
            "url": "https://api.github.com/repos/PrismarineJS/mineflayer-navigate/issues/comments/13041801",
            "user": {
                "avatar_url": "https://avatars.githubusercontent.com/u/106511?v=4",
                "events_url": "https://api.github.com/users/andrewrk/events{/privacy}",
                "followers_url": "https://api.github.com/users/andrewrk/followers",
                "following_url": "https://api.github.com/users/andrewrk/following{/other_user}",
                "gists_url": "https://api.github.com/users/andrewrk/gists{/gist_id}",
                "gravatar_id": "",
                "html_url": "https://github.com/andrewrk",
                "id": 106511,
                "login": "andrewrk",
                "node_id": "MDQ6VXNlcjEwNjUxMQ==",
                "organizations_url": "https://api.github.com/users/andrewrk/orgs",
                "received_events_url": "https://api.github.com/users/andrewrk/received_events",
                "repos_url": "https://api.github.com/users/andrewrk/repos",
                "site_admin": false,
                "starred_url": "https://api.github.com/users/andrewrk/starred{/owner}{/repo}",
                "subscriptions_url": "https://api.github.com/users/andrewrk/subscriptions",
                "type": "User",
                "url": "https://api.github.com/users/andrewrk"
            }
        },
        {
            "author_association": "NONE",
            "body": "If we're going to go by the Notchian Client rules, this would only be allowed while the bot has more than 6 food (3 shanks), which could deplete along the way and might mean the bot is cheating halfway down the path.  Supporting this might make the code very ugly.\n\nBy Notchian Server rules, the bot can fly around and probably sprint anytime he wants.\n",
            "created_at": "2013-02-03T03:55:43Z",
            "html_url": "https://github.com/PrismarineJS/mineflayer-navigate/issues/15#issuecomment-13041996",
            "id": 13041996,
            "issue_url": "https://api.github.com/repos/PrismarineJS/mineflayer-navigate/issues/15",
            "node_id": "MDEyOklzc3VlQ29tbWVudDEzMDQxOTk2",
            "performed_via_github_app": null,
            "reactions": {
                "+1": 0,
                "-1": 0,
                "confused": 0,
                "eyes": 0,
                "heart": 0,
                "hooray": 0,
                "laugh": 0,
                "rocket": 0,
                "total_count": 0,
                "url": "https://api.github.com/repos/PrismarineJS/mineflayer-navigate/issues/comments/13041996/reactions"
            },
            "updated_at": "2013-02-03T03:55:43Z",
            "url": "https://api.github.com/repos/PrismarineJS/mineflayer-navigate/issues/comments/13041996",
            "user": {
                "avatar_url": "https://avatars.githubusercontent.com/u/412436?v=4",
                "events_url": "https://api.github.com/users/Darthfett/events{/privacy}",
                "followers_url": "https://api.github.com/users/Darthfett/followers",
                "following_url": "https://api.github.com/users/Darthfett/following{/other_user}",
                "gists_url": "https://api.github.com/users/Darthfett/gists{/gist_id}",
                "gravatar_id": "",
                "html_url": "https://github.com/Darthfett",
                "id": 412436,
                "login": "Darthfett",
                "node_id": "MDQ6VXNlcjQxMjQzNg==",
                "organizations_url": "https://api.github.com/users/Darthfett/orgs",
                "received_events_url": "https://api.github.com/users/Darthfett/received_events",
                "repos_url": "https://api.github.com/users/Darthfett/repos",
                "site_admin": false,
                "starred_url": "https://api.github.com/users/Darthfett/starred{/owner}{/repo}",
                "subscriptions_url": "https://api.github.com/users/Darthfett/subscriptions",
                "type": "User",
                "url": "https://api.github.com/users/Darthfett"
            }
        },
        {
            "author_association": "MEMBER",
            "body": "mineflayer enforces notchian client rules (See https://github.com/superjoe30/mineflayer/issues/91) but also lets you override `bot.entity.position` and `bot.entity.velocity` if you choose to. What this issue means for mineflayer-navigate is that it mineflayer-navigate would try to take advantage of the non-overridden sprinting controls when possible.\n",
            "created_at": "2013-02-03T05:52:00Z",
            "html_url": "https://github.com/PrismarineJS/mineflayer-navigate/issues/15#issuecomment-13042871",
            "id": 13042871,
            "issue_url": "https://api.github.com/repos/PrismarineJS/mineflayer-navigate/issues/15",
            "node_id": "MDEyOklzc3VlQ29tbWVudDEzMDQyODcx",
            "performed_via_github_app": null,
            "reactions": {
                "+1": 0,
                "-1": 0,
                "confused": 0,
                "eyes": 0,
                "heart": 0,
                "hooray": 0,
                "laugh": 0,
                "rocket": 0,
                "total_count": 0,
                "url": "https://api.github.com/repos/PrismarineJS/mineflayer-navigate/issues/comments/13042871/reactions"
            },
            "updated_at": "2013-02-03T05:52:00Z",
            "url": "https://api.github.com/repos/PrismarineJS/mineflayer-navigate/issues/comments/13042871",
            "user": {
                "avatar_url": "https://avatars.githubusercontent.com/u/106511?v=4",
                "events_url": "https://api.github.com/users/andrewrk/events{/privacy}",
                "followers_url": "https://api.github.com/users/andrewrk/followers",
                "following_url": "https://api.github.com/users/andrewrk/following{/other_user}",
                "gists_url": "https://api.github.com/users/andrewrk/gists{/gist_id}",
                "gravatar_id": "",
                "html_url": "https://github.com/andrewrk",
                "id": 106511,
                "login": "andrewrk",
                "node_id": "MDQ6VXNlcjEwNjUxMQ==",
                "organizations_url": "https://api.github.com/users/andrewrk/orgs",
                "received_events_url": "https://api.github.com/users/andrewrk/received_events",
                "repos_url": "https://api.github.com/users/andrewrk/repos",
                "site_admin": false,
                "starred_url": "https://api.github.com/users/andrewrk/starred{/owner}{/repo}",
                "subscriptions_url": "https://api.github.com/users/andrewrk/subscriptions",
                "type": "User",
                "url": "https://api.github.com/users/andrewrk"
            }
        },
        {
            "author_association": "NONE",
            "body": "Overriding positions like that is going to get you banned on 99% of MC servers so I say we avoid doing that\n",
            "created_at": "2013-02-03T06:42:01Z",
            "html_url": "https://github.com/PrismarineJS/mineflayer-navigate/issues/15#issuecomment-13043245",
            "id": 13043245,
            "issue_url": "https://api.github.com/repos/PrismarineJS/mineflayer-navigate/issues/15",
            "node_id": "MDEyOklzc3VlQ29tbWVudDEzMDQzMjQ1",
            "performed_via_github_app": null,
            "reactions": {
                "+1": 0,
                "-1": 0,
                "confused": 0,
                "eyes": 0,
                "heart": 0,
                "hooray": 0,
                "laugh": 0,
                "rocket": 0,
                "total_count": 0,
                "url": "https://api.github.com/repos/PrismarineJS/mineflayer-navigate/issues/comments/13043245/reactions"
            },
            "updated_at": "2013-02-03T06:42:01Z",
            "url": "https://api.github.com/repos/PrismarineJS/mineflayer-navigate/issues/comments/13043245",
            "user": {
                "avatar_url": "https://avatars.githubusercontent.com/u/425716?v=4",
                "events_url": "https://api.github.com/users/yocontra/events{/privacy}",
                "followers_url": "https://api.github.com/users/yocontra/followers",
                "following_url": "https://api.github.com/users/yocontra/following{/other_user}",
                "gists_url": "https://api.github.com/users/yocontra/gists{/gist_id}",
                "gravatar_id": "",
                "html_url": "https://github.com/yocontra",
                "id": 425716,
                "login": "yocontra",
                "node_id": "MDQ6VXNlcjQyNTcxNg==",
                "organizations_url": "https://api.github.com/users/yocontra/orgs",
                "received_events_url": "https://api.github.com/users/yocontra/received_events",
                "repos_url": "https://api.github.com/users/yocontra/repos",
                "site_admin": false,
                "starred_url": "https://api.github.com/users/yocontra/starred{/owner}{/repo}",
                "subscriptions_url": "https://api.github.com/users/yocontra/subscriptions",
                "type": "User",
                "url": "https://api.github.com/users/yocontra"
            }
        },
        {
            "author_association": "NONE",
            "body": "Perhaps position and velocity be read only outside the scope of the physics plugin? (Using defineProperty)\n\nObviously this is still an issue, I've assigned https://github.com/andrewrk/mineflayer/issues/91 to Milestone 1.7\n\nIt would be nice to see full sprint support with hunger and all included when the stable rolls around\n",
            "created_at": "2014-04-22T00:19:56Z",
            "html_url": "https://github.com/PrismarineJS/mineflayer-navigate/issues/15#issuecomment-40991609",
            "id": 40991609,
            "issue_url": "https://api.github.com/repos/PrismarineJS/mineflayer-navigate/issues/15",
            "node_id": "MDEyOklzc3VlQ29tbWVudDQwOTkxNjA5",
            "performed_via_github_app": null,
            "reactions": {
                "+1": 0,
                "-1": 0,
                "confused": 0,
                "eyes": 0,
                "heart": 0,
                "hooray": 0,
                "laugh": 0,
                "rocket": 0,
                "total_count": 0,
                "url": "https://api.github.com/repos/PrismarineJS/mineflayer-navigate/issues/comments/40991609/reactions"
            },
            "updated_at": "2014-04-22T00:20:30Z",
            "url": "https://api.github.com/repos/PrismarineJS/mineflayer-navigate/issues/comments/40991609",
            "user": {
                "avatar_url": "https://avatars.githubusercontent.com/u/834342?v=4",
                "events_url": "https://api.github.com/users/nevercast/events{/privacy}",
                "followers_url": "https://api.github.com/users/nevercast/followers",
                "following_url": "https://api.github.com/users/nevercast/following{/other_user}",
                "gists_url": "https://api.github.com/users/nevercast/gists{/gist_id}",
                "gravatar_id": "",
                "html_url": "https://github.com/nevercast",
                "id": 834342,
                "login": "nevercast",
                "node_id": "MDQ6VXNlcjgzNDM0Mg==",
                "organizations_url": "https://api.github.com/users/nevercast/orgs",
                "received_events_url": "https://api.github.com/users/nevercast/received_events",
                "repos_url": "https://api.github.com/users/nevercast/repos",
                "site_admin": false,
                "starred_url": "https://api.github.com/users/nevercast/starred{/owner}{/repo}",
                "subscriptions_url": "https://api.github.com/users/nevercast/subscriptions",
                "type": "User",
                "url": "https://api.github.com/users/nevercast"
            }
        }
    ],
    "comments": 5,
    "comments_url": "https://api.github.com/repos/PrismarineJS/mineflayer-navigate/issues/15/comments",
    "created_at": "2013-02-03T02:55:12Z",
    "event_data": [],
    "events_url": "https://api.github.com/repos/PrismarineJS/mineflayer-navigate/issues/15/events",
    "html_url": "https://github.com/PrismarineJS/mineflayer-navigate/issues/15",
    "id": 10580244,
    "labels": [],
    "labels_url": "https://api.github.com/repos/PrismarineJS/mineflayer-navigate/issues/15/labels{/name}",
    "locked": false,
    "milestone": null,
    "node_id": "MDU6SXNzdWUxMDU4MDI0NA==",
    "number": 15,
    "performed_via_github_app": null,
    "reactions": {
        "+1": 0,
        "-1": 0,
        "confused": 0,
        "eyes": 0,
        "heart": 0,
        "hooray": 0,
        "laugh": 0,
        "rocket": 0,
        "total_count": 0,
        "url": "https://api.github.com/repos/PrismarineJS/mineflayer-navigate/issues/15/reactions"
    },
    "repository_url": "https://api.github.com/repos/PrismarineJS/mineflayer-navigate",
    "state": "open",
    "state_reason": null,
    "timeline_url": "https://api.github.com/repos/PrismarineJS/mineflayer-navigate/issues/15/timeline",
    "title": "Sprint Jumping",
    "updated_at": "2014-04-22T00:20:30Z",
    "url": "https://api.github.com/repos/PrismarineJS/mineflayer-navigate/issues/15",
    "user": {
        "avatar_url": "https://avatars.githubusercontent.com/u/425716?v=4",
        "events_url": "https://api.github.com/users/yocontra/events{/privacy}",
        "followers_url": "https://api.github.com/users/yocontra/followers",
        "following_url": "https://api.github.com/users/yocontra/following{/other_user}",
        "gists_url": "https://api.github.com/users/yocontra/gists{/gist_id}",
        "gravatar_id": "",
        "html_url": "https://github.com/yocontra",
        "id": 425716,
        "login": "yocontra",
        "node_id": "MDQ6VXNlcjQyNTcxNg==",
        "organizations_url": "https://api.github.com/users/yocontra/orgs",
        "received_events_url": "https://api.github.com/users/yocontra/received_events",
        "repos_url": "https://api.github.com/users/yocontra/repos",
        "site_admin": false,
        "starred_url": "https://api.github.com/users/yocontra/starred{/owner}{/repo}",
        "subscriptions_url": "https://api.github.com/users/yocontra/subscriptions",
        "type": "User",
        "url": "https://api.github.com/users/yocontra"
    }
}