{
    "active_lock_reason": null,
    "assignee": null,
    "assignees": [],
    "author_association": "NONE",
    "body": "When I run the default script (+ server information), the bot will join the server. When I say \"come\" in chat, the bot does not respond. It stands still for 15 seconds, then disconnects (reason in server console is \"Timed out\"). The script continues to work/doesn't close, and gives no errors.\r\n\r\nI have tried this on 2 different servers, one through bungeecord, the other a standalone vanilla server (cracked). ",
    "closed_at": null,
    "comment_data": [
        {
            "author_association": "MEMBER",
            "body": "How far are you from the bot ?\n\nOn Tue, Jun 12, 2018, 01:52 Bayside308 <notifications@github.com> wrote:\n\n> When I run the default script (+ server information), the bot will join\n> the server. When I say \"come\" in chat, the bot does not respond. It stands\n> still for 15 seconds, then disconnects (reason in server console is \"Timed\n> out\"). The script continues to work/doesn't close, and gives no errors.\n>\n> I have tried this on 2 different servers, one through bungeecord, the\n> other a standalone vanilla server (cracked).\n>\n> —\n> You are receiving this because you are subscribed to this thread.\n> Reply to this email directly, view it on GitHub\n> <https://github.com/PrismarineJS/mineflayer-navigate/issues/33>, or mute\n> the thread\n> <https://github.com/notifications/unsubscribe-auth/ACPN_hQENtiDoEM5eM1jkhnIUtwZxCDOks5t7wKmgaJpZM4UjkXk>\n> .\n>\n",
            "created_at": "2018-06-12T08:49:49Z",
            "html_url": "https://github.com/PrismarineJS/mineflayer-navigate/issues/33#issuecomment-396515270",
            "id": 396515270,
            "issue_url": "https://api.github.com/repos/PrismarineJS/mineflayer-navigate/issues/33",
            "node_id": "MDEyOklzc3VlQ29tbWVudDM5NjUxNTI3MA==",
            "performed_via_github_app": null,
            "reactions": {
                "+1": 0,
                "-1": 0,
                "confused": 0,
                "eyes": 0,
                "heart": 0,
                "hooray": 0,
                "laugh": 0,
                "rocket": 0,
                "total_count": 0,
                "url": "https://api.github.com/repos/PrismarineJS/mineflayer-navigate/issues/comments/396515270/reactions"
            },
            "updated_at": "2018-06-12T08:49:49Z",
            "url": "https://api.github.com/repos/PrismarineJS/mineflayer-navigate/issues/comments/396515270",
            "user": {
                "avatar_url": "https://avatars.githubusercontent.com/u/2346494?v=4",
                "events_url": "https://api.github.com/users/rom1504/events{/privacy}",
                "followers_url": "https://api.github.com/users/rom1504/followers",
                "following_url": "https://api.github.com/users/rom1504/following{/other_user}",
                "gists_url": "https://api.github.com/users/rom1504/gists{/gist_id}",
                "gravatar_id": "",
                "html_url": "https://github.com/rom1504",
                "id": 2346494,
                "login": "rom1504",
                "node_id": "MDQ6VXNlcjIzNDY0OTQ=",
                "organizations_url": "https://api.github.com/users/rom1504/orgs",
                "received_events_url": "https://api.github.com/users/rom1504/received_events",
                "repos_url": "https://api.github.com/users/rom1504/repos",
                "site_admin": false,
                "starred_url": "https://api.github.com/users/rom1504/starred{/owner}{/repo}",
                "subscriptions_url": "https://api.github.com/users/rom1504/subscriptions",
                "type": "User",
                "url": "https://api.github.com/users/rom1504"
            }
        },
        {
            "author_association": "NONE",
            "body": "I've tried everywhere from 2 to ~20 blocks away. However, I think that it is a mineflayer issue because it happens without using the navigate plugin. Should I move the issue over there?",
            "created_at": "2018-06-13T20:49:38Z",
            "html_url": "https://github.com/PrismarineJS/mineflayer-navigate/issues/33#issuecomment-397081638",
            "id": 397081638,
            "issue_url": "https://api.github.com/repos/PrismarineJS/mineflayer-navigate/issues/33",
            "node_id": "MDEyOklzc3VlQ29tbWVudDM5NzA4MTYzOA==",
            "performed_via_github_app": null,
            "reactions": {
                "+1": 0,
                "-1": 0,
                "confused": 0,
                "eyes": 0,
                "heart": 0,
                "hooray": 0,
                "laugh": 0,
                "rocket": 0,
                "total_count": 0,
                "url": "https://api.github.com/repos/PrismarineJS/mineflayer-navigate/issues/comments/397081638/reactions"
            },
            "updated_at": "2018-06-13T20:49:38Z",
            "url": "https://api.github.com/repos/PrismarineJS/mineflayer-navigate/issues/comments/397081638",
            "user": {
                "avatar_url": "https://avatars.githubusercontent.com/u/16769193?v=4",
                "events_url": "https://api.github.com/users/Bayside308/events{/privacy}",
                "followers_url": "https://api.github.com/users/Bayside308/followers",
                "following_url": "https://api.github.com/users/Bayside308/following{/other_user}",
                "gists_url": "https://api.github.com/users/Bayside308/gists{/gist_id}",
                "gravatar_id": "",
                "html_url": "https://github.com/Bayside308",
                "id": 16769193,
                "login": "Bayside308",
                "node_id": "MDQ6VXNlcjE2NzY5MTkz",
                "organizations_url": "https://api.github.com/users/Bayside308/orgs",
                "received_events_url": "https://api.github.com/users/Bayside308/received_events",
                "repos_url": "https://api.github.com/users/Bayside308/repos",
                "site_admin": false,
                "starred_url": "https://api.github.com/users/Bayside308/starred{/owner}{/repo}",
                "subscriptions_url": "https://api.github.com/users/Bayside308/subscriptions",
                "type": "User",
                "url": "https://api.github.com/users/Bayside308"
            }
        }
    ],
    "comments": 2,
    "comments_url": "https://api.github.com/repos/PrismarineJS/mineflayer-navigate/issues/33/comments",
    "created_at": "2018-06-11T23:52:06Z",
    "event_data": [],
    "events_url": "https://api.github.com/repos/PrismarineJS/mineflayer-navigate/issues/33/events",
    "html_url": "https://github.com/PrismarineJS/mineflayer-navigate/issues/33",
    "id": 331389616,
    "labels": [],
    "labels_url": "https://api.github.com/repos/PrismarineJS/mineflayer-navigate/issues/33/labels{/name}",
    "locked": false,
    "milestone": null,
    "node_id": "MDU6SXNzdWUzMzEzODk2MTY=",
    "number": 33,
    "performed_via_github_app": null,
    "reactions": {
        "+1": 0,
        "-1": 0,
        "confused": 0,
        "eyes": 0,
        "heart": 0,
        "hooray": 0,
        "laugh": 0,
        "rocket": 0,
        "total_count": 0,
        "url": "https://api.github.com/repos/PrismarineJS/mineflayer-navigate/issues/33/reactions"
    },
    "repository_url": "https://api.github.com/repos/PrismarineJS/mineflayer-navigate",
    "state": "open",
    "state_reason": null,
    "timeline_url": "https://api.github.com/repos/PrismarineJS/mineflayer-navigate/issues/33/timeline",
    "title": "Bot times out after 15 seconds",
    "updated_at": "2018-06-13T20:49:38Z",
    "url": "https://api.github.com/repos/PrismarineJS/mineflayer-navigate/issues/33",
    "user": {
        "avatar_url": "https://avatars.githubusercontent.com/u/16769193?v=4",
        "events_url": "https://api.github.com/users/Bayside308/events{/privacy}",
        "followers_url": "https://api.github.com/users/Bayside308/followers",
        "following_url": "https://api.github.com/users/Bayside308/following{/other_user}",
        "gists_url": "https://api.github.com/users/Bayside308/gists{/gist_id}",
        "gravatar_id": "",
        "html_url": "https://github.com/Bayside308",
        "id": 16769193,
        "login": "Bayside308",
        "node_id": "MDQ6VXNlcjE2NzY5MTkz",
        "organizations_url": "https://api.github.com/users/Bayside308/orgs",
        "received_events_url": "https://api.github.com/users/Bayside308/received_events",
        "repos_url": "https://api.github.com/users/Bayside308/repos",
        "site_admin": false,
        "starred_url": "https://api.github.com/users/Bayside308/starred{/owner}{/repo}",
        "subscriptions_url": "https://api.github.com/users/Bayside308/subscriptions",
        "type": "User",
        "url": "https://api.github.com/users/Bayside308"
    }
}