{
    "active_lock_reason": null,
    "assignee": null,
    "assignees": [],
    "author_association": "NONE",
    "body": "Good morning everybody,\r\ni'am sorry for opening an issue on this; did not found an more appropriate place for it. While working on a project using mineflayer-navigate my code very fast became a mess because of all the events fired and holding status objects and so on.\r\nAfter a while i started to wrap this module in a promise based manner in order to use it in a more sequential style (without loosing any of the concurrency features), and express temporary dependencies better. This weekend i decided to proper document my code and publish it.\r\nFeel free to use it and it would be a pleasure if my code becomes part of this one (i avoided a pull request, because this topic was never discussed here, but it would be a pleasure to do so).\r\n\r\ngithub: [mineflayer-navigate-promise](https://github.com/thisismexp/mineflayer-navigate-promise)\r\nnpm: [mineflayer-navigate-promise](https://www.npmjs.com/package/mineflayer-navigate-promise)\r\n\r\n",
    "closed_at": null,
    "comment_data": [
        {
            "author_association": "MEMBER",
            "body": "Hi, I will look at it, glad that mineflayer-navigate could be useful to you\n!\nIt was implemented before promises were a thing so indeed it was never\nconsidered before.\n\nHowever there are many users of mineflayer and its plugins so we try to\nbreak the API as rarely as possible.\n\nIt would be great if it was possible to find a way to expose the promise\nAPI and also keep the old API at the same place. (Without copy pasting the\ncode)\n\nOn a related topic, you can have a look at the mineflayer GitHub issue on\npromises.\n\nOn Mon, Dec 3, 2018, 08:58 Florian <notifications@github.com> wrote:\n\n> Good morning everybody,\n> i'am sorry for opening an issue on this; did not found an more appropriate\n> place for it. While working on a project using mineflayer-navigate my code\n> very fast became a mess because of all the events fired and holding status\n> objects and so on.\n> After a while i started to wrap this module in a promise based manner in\n> order to use it in a more sequential style (without loosing any of the\n> concurrency features), and express temporary dependencies better. This\n> weekend i decided to proper document my code and publish it.\n> Feel free to use it and it would be a pleasure if my code becomes part of\n> this one (i avoided a pull request, because this topic was never discussed\n> here, but it would be a pleasure to do so).\n>\n> github: mineflayer-navigate-promise\n> <https://github.com/thisismexp/mineflayer-navigate-promise>\n> npm: mineflayer-navigate-promise\n> <https://www.npmjs.com/package/mineflayer-navigate-promise>\n>\n> —\n> You are receiving this because you are subscribed to this thread.\n> Reply to this email directly, view it on GitHub\n> <https://github.com/PrismarineJS/mineflayer-navigate/issues/36>, or mute\n> the thread\n> <https://github.com/notifications/unsubscribe-auth/ACPN_ojk80sMxum9cY5m29zTqQ7Opkumks5u1Nm0gaJpZM4Y-DgZ>\n> .\n>\n",
            "created_at": "2018-12-03T08:21:05Z",
            "html_url": "https://github.com/PrismarineJS/mineflayer-navigate/issues/36#issuecomment-443625690",
            "id": 443625690,
            "issue_url": "https://api.github.com/repos/PrismarineJS/mineflayer-navigate/issues/36",
            "node_id": "MDEyOklzc3VlQ29tbWVudDQ0MzYyNTY5MA==",
            "performed_via_github_app": null,
            "reactions": {
                "+1": 0,
                "-1": 0,
                "confused": 0,
                "eyes": 0,
                "heart": 0,
                "hooray": 0,
                "laugh": 0,
                "rocket": 0,
                "total_count": 0,
                "url": "https://api.github.com/repos/PrismarineJS/mineflayer-navigate/issues/comments/443625690/reactions"
            },
            "updated_at": "2018-12-03T08:21:05Z",
            "url": "https://api.github.com/repos/PrismarineJS/mineflayer-navigate/issues/comments/443625690",
            "user": {
                "avatar_url": "https://avatars.githubusercontent.com/u/2346494?v=4",
                "events_url": "https://api.github.com/users/rom1504/events{/privacy}",
                "followers_url": "https://api.github.com/users/rom1504/followers",
                "following_url": "https://api.github.com/users/rom1504/following{/other_user}",
                "gists_url": "https://api.github.com/users/rom1504/gists{/gist_id}",
                "gravatar_id": "",
                "html_url": "https://github.com/rom1504",
                "id": 2346494,
                "login": "rom1504",
                "node_id": "MDQ6VXNlcjIzNDY0OTQ=",
                "organizations_url": "https://api.github.com/users/rom1504/orgs",
                "received_events_url": "https://api.github.com/users/rom1504/received_events",
                "repos_url": "https://api.github.com/users/rom1504/repos",
                "site_admin": false,
                "starred_url": "https://api.github.com/users/rom1504/starred{/owner}{/repo}",
                "subscriptions_url": "https://api.github.com/users/rom1504/subscriptions",
                "type": "User",
                "url": "https://api.github.com/users/rom1504"
            }
        },
        {
            "author_association": "NONE",
            "body": "Thank you for your reply.\r\nOh, to be honest, i did not checked the mineflayer issue page on this. But yeah, as you suggest, i just extended the api by some (3) functions and all the previous introduced functions should work as before.\r\nJust let me know your opinion on my little project when you looked at it. Since i'am new to the javascript world i do not claim that my code is flawless :)",
            "created_at": "2018-12-03T08:32:27Z",
            "html_url": "https://github.com/PrismarineJS/mineflayer-navigate/issues/36#issuecomment-443628602",
            "id": 443628602,
            "issue_url": "https://api.github.com/repos/PrismarineJS/mineflayer-navigate/issues/36",
            "node_id": "MDEyOklzc3VlQ29tbWVudDQ0MzYyODYwMg==",
            "performed_via_github_app": null,
            "reactions": {
                "+1": 0,
                "-1": 0,
                "confused": 0,
                "eyes": 0,
                "heart": 0,
                "hooray": 0,
                "laugh": 0,
                "rocket": 0,
                "total_count": 0,
                "url": "https://api.github.com/repos/PrismarineJS/mineflayer-navigate/issues/comments/443628602/reactions"
            },
            "updated_at": "2018-12-03T08:32:27Z",
            "url": "https://api.github.com/repos/PrismarineJS/mineflayer-navigate/issues/comments/443628602",
            "user": {
                "avatar_url": "https://avatars.githubusercontent.com/u/19307322?v=4",
                "events_url": "https://api.github.com/users/thisismexp/events{/privacy}",
                "followers_url": "https://api.github.com/users/thisismexp/followers",
                "following_url": "https://api.github.com/users/thisismexp/following{/other_user}",
                "gists_url": "https://api.github.com/users/thisismexp/gists{/gist_id}",
                "gravatar_id": "",
                "html_url": "https://github.com/thisismexp",
                "id": 19307322,
                "login": "thisismexp",
                "node_id": "MDQ6VXNlcjE5MzA3MzIy",
                "organizations_url": "https://api.github.com/users/thisismexp/orgs",
                "received_events_url": "https://api.github.com/users/thisismexp/received_events",
                "repos_url": "https://api.github.com/users/thisismexp/repos",
                "site_admin": false,
                "starred_url": "https://api.github.com/users/thisismexp/starred{/owner}{/repo}",
                "subscriptions_url": "https://api.github.com/users/thisismexp/subscriptions",
                "type": "User",
                "url": "https://api.github.com/users/thisismexp"
            }
        }
    ],
    "comments": 2,
    "comments_url": "https://api.github.com/repos/PrismarineJS/mineflayer-navigate/issues/36/comments",
    "created_at": "2018-12-03T07:58:44Z",
    "event_data": [],
    "events_url": "https://api.github.com/repos/PrismarineJS/mineflayer-navigate/issues/36/events",
    "html_url": "https://github.com/PrismarineJS/mineflayer-navigate/issues/36",
    "id": 386699031,
    "labels": [],
    "labels_url": "https://api.github.com/repos/PrismarineJS/mineflayer-navigate/issues/36/labels{/name}",
    "locked": false,
    "milestone": null,
    "node_id": "MDU6SXNzdWUzODY2OTkwMzE=",
    "number": 36,
    "performed_via_github_app": null,
    "reactions": {
        "+1": 0,
        "-1": 0,
        "confused": 0,
        "eyes": 0,
        "heart": 0,
        "hooray": 0,
        "laugh": 0,
        "rocket": 0,
        "total_count": 0,
        "url": "https://api.github.com/repos/PrismarineJS/mineflayer-navigate/issues/36/reactions"
    },
    "repository_url": "https://api.github.com/repos/PrismarineJS/mineflayer-navigate",
    "state": "open",
    "state_reason": null,
    "timeline_url": "https://api.github.com/repos/PrismarineJS/mineflayer-navigate/issues/36/timeline",
    "title": "Promise-based navigation",
    "updated_at": "2018-12-03T08:32:27Z",
    "url": "https://api.github.com/repos/PrismarineJS/mineflayer-navigate/issues/36",
    "user": {
        "avatar_url": "https://avatars.githubusercontent.com/u/19307322?v=4",
        "events_url": "https://api.github.com/users/thisismexp/events{/privacy}",
        "followers_url": "https://api.github.com/users/thisismexp/followers",
        "following_url": "https://api.github.com/users/thisismexp/following{/other_user}",
        "gists_url": "https://api.github.com/users/thisismexp/gists{/gist_id}",
        "gravatar_id": "",
        "html_url": "https://github.com/thisismexp",
        "id": 19307322,
        "login": "thisismexp",
        "node_id": "MDQ6VXNlcjE5MzA3MzIy",
        "organizations_url": "https://api.github.com/users/thisismexp/orgs",
        "received_events_url": "https://api.github.com/users/thisismexp/received_events",
        "repos_url": "https://api.github.com/users/thisismexp/repos",
        "site_admin": false,
        "starred_url": "https://api.github.com/users/thisismexp/starred{/owner}{/repo}",
        "subscriptions_url": "https://api.github.com/users/thisismexp/subscriptions",
        "type": "User",
        "url": "https://api.github.com/users/thisismexp"
    }
}