{
    "assets": [],
    "assets_url": "https://api.github.com/repos/PrismarineJS/prismarine-registry/releases/182093171/assets",
    "author": {
        "avatar_url": "https://avatars.githubusercontent.com/in/15368?v=4",
        "events_url": "https://api.github.com/users/github-actions%5Bbot%5D/events{/privacy}",
        "followers_url": "https://api.github.com/users/github-actions%5Bbot%5D/followers",
        "following_url": "https://api.github.com/users/github-actions%5Bbot%5D/following{/other_user}",
        "gists_url": "https://api.github.com/users/github-actions%5Bbot%5D/gists{/gist_id}",
        "gravatar_id": "",
        "html_url": "https://github.com/apps/github-actions",
        "id": 41898282,
        "login": "github-actions[bot]",
        "node_id": "MDM6Qm90NDE4OTgyODI=",
        "organizations_url": "https://api.github.com/users/github-actions%5Bbot%5D/orgs",
        "received_events_url": "https://api.github.com/users/github-actions%5Bbot%5D/received_events",
        "repos_url": "https://api.github.com/users/github-actions%5Bbot%5D/repos",
        "site_admin": false,
        "starred_url": "https://api.github.com/users/github-actions%5Bbot%5D/starred{/owner}{/repo}",
        "subscriptions_url": "https://api.github.com/users/github-actions%5Bbot%5D/subscriptions",
        "type": "Bot",
        "url": "https://api.github.com/users/github-actions%5Bbot%5D",
        "user_view_type": "public"
    },
    "body": "1.10.0",
    "created_at": "2024-10-26T19:32:26Z",
    "draft": false,
    "html_url": "https://github.com/PrismarineJS/prismarine-registry/releases/tag/1.10.0",
    "id": 182093171,
    "name": "Release 1.10.0",
    "node_id": "RE_kwDOGnl0XM4K2oVz",
    "prerelease": false,
    "published_at": "2024-10-26T19:32:43Z",
    "tag_name": "1.10.0",
    "tarball_url": "https://api.github.com/repos/PrismarineJS/prismarine-registry/tarball/1.10.0",
    "target_commitish": "361f24d73732a8a4e704ae6b4eee2f900cf36d5e",
    "upload_url": "https://uploads.github.com/repos/PrismarineJS/prismarine-registry/releases/182093171/assets{?name,label}",
    "url": "https://api.github.com/repos/PrismarineJS/prismarine-registry/releases/182093171",
    "zipball_url": "https://api.github.com/repos/PrismarineJS/prismarine-registry/zipball/1.10.0"
}