{
    "_links": {
        "comments": {
            "href": "https://api.github.com/repos/PrismarineJS/minecraft-data/issues/121/comments"
        },
        "commits": {
            "href": "https://api.github.com/repos/PrismarineJS/minecraft-data/pulls/121/commits"
        },
        "html": {
            "href": "https://github.com/PrismarineJS/minecraft-data/pull/121"
        },
        "issue": {
            "href": "https://api.github.com/repos/PrismarineJS/minecraft-data/issues/121"
        },
        "review_comment": {
            "href": "https://api.github.com/repos/PrismarineJS/minecraft-data/pulls/comments{/number}"
        },
        "review_comments": {
            "href": "https://api.github.com/repos/PrismarineJS/minecraft-data/pulls/121/comments"
        },
        "self": {
            "href": "https://api.github.com/repos/PrismarineJS/minecraft-data/pulls/121"
        },
        "statuses": {
            "href": "https://api.github.com/repos/PrismarineJS/minecraft-data/statuses/116ccf1e564a3cf9889db596eff3829cc4f9ee8c"
        }
    },
    "active_lock_reason": null,
    "additions": 19,
    "assignee": null,
    "assignees": [],
    "author_association": "MEMBER",
    "auto_merge": null,
    "base": {
        "label": "PrismarineJS:master",
        "ref": "master",
        "repo": {
            "allow_forking": true,
            "archive_url": "https://api.github.com/repos/PrismarineJS/minecraft-data/{archive_format}{/ref}",
            "archived": false,
            "assignees_url": "https://api.github.com/repos/PrismarineJS/minecraft-data/assignees{/user}",
            "blobs_url": "https://api.github.com/repos/PrismarineJS/minecraft-data/git/blobs{/sha}",
            "branches_url": "https://api.github.com/repos/PrismarineJS/minecraft-data/branches{/branch}",
            "clone_url": "https://github.com/PrismarineJS/minecraft-data.git",
            "collaborators_url": "https://api.github.com/repos/PrismarineJS/minecraft-data/collaborators{/collaborator}",
            "comments_url": "https://api.github.com/repos/PrismarineJS/minecraft-data/comments{/number}",
            "commits_url": "https://api.github.com/repos/PrismarineJS/minecraft-data/commits{/sha}",
            "compare_url": "https://api.github.com/repos/PrismarineJS/minecraft-data/compare/{base}...{head}",
            "contents_url": "https://api.github.com/repos/PrismarineJS/minecraft-data/contents/{+path}",
            "contributors_url": "https://api.github.com/repos/PrismarineJS/minecraft-data/contributors",
            "created_at": "2015-03-23T15:38:19Z",
            "default_branch": "master",
            "deployments_url": "https://api.github.com/repos/PrismarineJS/minecraft-data/deployments",
            "description": "Language independent module providing minecraft data for minecraft clients, servers and libraries.",
            "disabled": false,
            "downloads_url": "https://api.github.com/repos/PrismarineJS/minecraft-data/downloads",
            "events_url": "https://api.github.com/repos/PrismarineJS/minecraft-data/events",
            "fork": false,
            "forks": 184,
            "forks_count": 184,
            "forks_url": "https://api.github.com/repos/PrismarineJS/minecraft-data/forks",
            "full_name": "PrismarineJS/minecraft-data",
            "git_commits_url": "https://api.github.com/repos/PrismarineJS/minecraft-data/git/commits{/sha}",
            "git_refs_url": "https://api.github.com/repos/PrismarineJS/minecraft-data/git/refs{/sha}",
            "git_tags_url": "https://api.github.com/repos/PrismarineJS/minecraft-data/git/tags{/sha}",
            "git_url": "git://github.com/PrismarineJS/minecraft-data.git",
            "has_discussions": false,
            "has_downloads": true,
            "has_issues": true,
            "has_pages": true,
            "has_projects": true,
            "has_wiki": true,
            "homepage": "https://prismarinejs.github.io/minecraft-data",
            "hooks_url": "https://api.github.com/repos/PrismarineJS/minecraft-data/hooks",
            "html_url": "https://github.com/PrismarineJS/minecraft-data",
            "id": 32741498,
            "is_template": false,
            "issue_comment_url": "https://api.github.com/repos/PrismarineJS/minecraft-data/issues/comments{/number}",
            "issue_events_url": "https://api.github.com/repos/PrismarineJS/minecraft-data/issues/events{/number}",
            "issues_url": "https://api.github.com/repos/PrismarineJS/minecraft-data/issues{/number}",
            "keys_url": "https://api.github.com/repos/PrismarineJS/minecraft-data/keys{/key_id}",
            "labels_url": "https://api.github.com/repos/PrismarineJS/minecraft-data/labels{/name}",
            "language": "JavaScript",
            "languages_url": "https://api.github.com/repos/PrismarineJS/minecraft-data/languages",
            "license": null,
            "merges_url": "https://api.github.com/repos/PrismarineJS/minecraft-data/merges",
            "milestones_url": "https://api.github.com/repos/PrismarineJS/minecraft-data/milestones{/number}",
            "mirror_url": null,
            "name": "minecraft-data",
            "node_id": "MDEwOlJlcG9zaXRvcnkzMjc0MTQ5OA==",
            "notifications_url": "https://api.github.com/repos/PrismarineJS/minecraft-data/notifications{?since,all,participating}",
            "open_issues": 113,
            "open_issues_count": 113,
            "owner": {
                "avatar_url": "https://avatars.githubusercontent.com/u/11053411?v=4",
                "events_url": "https://api.github.com/users/PrismarineJS/events{/privacy}",
                "followers_url": "https://api.github.com/users/PrismarineJS/followers",
                "following_url": "https://api.github.com/users/PrismarineJS/following{/other_user}",
                "gists_url": "https://api.github.com/users/PrismarineJS/gists{/gist_id}",
                "gravatar_id": "",
                "html_url": "https://github.com/PrismarineJS",
                "id": 11053411,
                "login": "PrismarineJS",
                "node_id": "MDEyOk9yZ2FuaXphdGlvbjExMDUzNDEx",
                "organizations_url": "https://api.github.com/users/PrismarineJS/orgs",
                "received_events_url": "https://api.github.com/users/PrismarineJS/received_events",
                "repos_url": "https://api.github.com/users/PrismarineJS/repos",
                "site_admin": false,
                "starred_url": "https://api.github.com/users/PrismarineJS/starred{/owner}{/repo}",
                "subscriptions_url": "https://api.github.com/users/PrismarineJS/subscriptions",
                "type": "Organization",
                "url": "https://api.github.com/users/PrismarineJS"
            },
            "private": false,
            "pulls_url": "https://api.github.com/repos/PrismarineJS/minecraft-data/pulls{/number}",
            "pushed_at": "2023-04-08T18:30:50Z",
            "releases_url": "https://api.github.com/repos/PrismarineJS/minecraft-data/releases{/id}",
            "size": 134084,
            "ssh_url": "git@github.com:PrismarineJS/minecraft-data.git",
            "stargazers_count": 473,
            "stargazers_url": "https://api.github.com/repos/PrismarineJS/minecraft-data/stargazers",
            "statuses_url": "https://api.github.com/repos/PrismarineJS/minecraft-data/statuses/{sha}",
            "subscribers_url": "https://api.github.com/repos/PrismarineJS/minecraft-data/subscribers",
            "subscription_url": "https://api.github.com/repos/PrismarineJS/minecraft-data/subscription",
            "svn_url": "https://github.com/PrismarineJS/minecraft-data",
            "tags_url": "https://api.github.com/repos/PrismarineJS/minecraft-data/tags",
            "teams_url": "https://api.github.com/repos/PrismarineJS/minecraft-data/teams",
            "topics": [
                "data",
                "minecraft"
            ],
            "trees_url": "https://api.github.com/repos/PrismarineJS/minecraft-data/git/trees{/sha}",
            "updated_at": "2023-04-24T04:11:18Z",
            "url": "https://api.github.com/repos/PrismarineJS/minecraft-data",
            "visibility": "public",
            "watchers": 473,
            "watchers_count": 473,
            "web_commit_signoff_required": false
        },
        "sha": "a6cdfc2c14cf3797dd9b000348303a748dafc34e",
        "user": {
            "avatar_url": "https://avatars.githubusercontent.com/u/11053411?v=4",
            "events_url": "https://api.github.com/users/PrismarineJS/events{/privacy}",
            "followers_url": "https://api.github.com/users/PrismarineJS/followers",
            "following_url": "https://api.github.com/users/PrismarineJS/following{/other_user}",
            "gists_url": "https://api.github.com/users/PrismarineJS/gists{/gist_id}",
            "gravatar_id": "",
            "html_url": "https://github.com/PrismarineJS",
            "id": 11053411,
            "login": "PrismarineJS",
            "node_id": "MDEyOk9yZ2FuaXphdGlvbjExMDUzNDEx",
            "organizations_url": "https://api.github.com/users/PrismarineJS/orgs",
            "received_events_url": "https://api.github.com/users/PrismarineJS/received_events",
            "repos_url": "https://api.github.com/users/PrismarineJS/repos",
            "site_admin": false,
            "starred_url": "https://api.github.com/users/PrismarineJS/starred{/owner}{/repo}",
            "subscriptions_url": "https://api.github.com/users/PrismarineJS/subscriptions",
            "type": "Organization",
            "url": "https://api.github.com/users/PrismarineJS"
        }
    },
    "body": "This PR admittedly muddies the waters of what is 'minecraft' data, since it adds a packet not part of \"vanilla\" Minecraft, rather a modification for Minecraft. Used by http://teamcofh.com https://github.com/CoFH/ - as a popular library/dependency, CoFHLib/CoFHCore is present on many (most?) modded 1.7 servers.\n\nThe packet itself is very simple, only consisting of a UUID field. Since the ID is negative, it is not likely to conflict with vanilla packets, and 1.7.x is unlikely to change further anyway, so I think this is a worthwhile addition to minecraft-data. Another alternative would be to add this packet in node-minecraft-protocol-forge (but I'm not sure how to extend the packet specification in an nmp plugin. and other non-node software could also benefit from this -26 packet definition if it is in minecraft-data).\n\nWhen combined with https://github.com/PrismarineJS/minecraft-data/pull/120, it is possible using https://github.com/PrismarineJS/node-minecraft-protocol-forge/pull/7 to connect to a heavily-modded server (Feed the Beast Infinity Evolved, 176 mods active) with no packet errors.\n",
    "changed_files": 2,
    "closed_at": "2018-01-01T12:50:43Z",
    "comment_data": [],
    "comment_regular_data": [
        {
            "author_association": "MEMBER",
            "body": "I'd like better for this to be in node-minecraft-protocol-forge indeed.\nI'm going to try to add an option to add new packets in ProtoDef/minecraft-protocol \n",
            "created_at": "2016-02-20T12:52:49Z",
            "html_url": "https://github.com/PrismarineJS/minecraft-data/pull/121#issuecomment-186588049",
            "id": 186588049,
            "issue_url": "https://api.github.com/repos/PrismarineJS/minecraft-data/issues/121",
            "node_id": "MDEyOklzc3VlQ29tbWVudDE4NjU4ODA0OQ==",
            "performed_via_github_app": null,
            "reactions": {
                "+1": 0,
                "-1": 0,
                "confused": 0,
                "eyes": 0,
                "heart": 0,
                "hooray": 0,
                "laugh": 0,
                "rocket": 0,
                "total_count": 0,
                "url": "https://api.github.com/repos/PrismarineJS/minecraft-data/issues/comments/186588049/reactions"
            },
            "updated_at": "2016-02-20T12:52:49Z",
            "url": "https://api.github.com/repos/PrismarineJS/minecraft-data/issues/comments/186588049",
            "user": {
                "avatar_url": "https://avatars.githubusercontent.com/u/2346494?v=4",
                "events_url": "https://api.github.com/users/rom1504/events{/privacy}",
                "followers_url": "https://api.github.com/users/rom1504/followers",
                "following_url": "https://api.github.com/users/rom1504/following{/other_user}",
                "gists_url": "https://api.github.com/users/rom1504/gists{/gist_id}",
                "gravatar_id": "",
                "html_url": "https://github.com/rom1504",
                "id": 2346494,
                "login": "rom1504",
                "node_id": "MDQ6VXNlcjIzNDY0OTQ=",
                "organizations_url": "https://api.github.com/users/rom1504/orgs",
                "received_events_url": "https://api.github.com/users/rom1504/received_events",
                "repos_url": "https://api.github.com/users/rom1504/repos",
                "site_admin": false,
                "starred_url": "https://api.github.com/users/rom1504/starred{/owner}{/repo}",
                "subscriptions_url": "https://api.github.com/users/rom1504/subscriptions",
                "type": "User",
                "url": "https://api.github.com/users/rom1504"
            }
        },
        {
            "author_association": "MEMBER",
            "body": "same as https://github.com/PrismarineJS/minecraft-data/pull/120#issuecomment-186651139\n",
            "created_at": "2016-02-20T16:54:55Z",
            "html_url": "https://github.com/PrismarineJS/minecraft-data/pull/121#issuecomment-186651318",
            "id": 186651318,
            "issue_url": "https://api.github.com/repos/PrismarineJS/minecraft-data/issues/121",
            "node_id": "MDEyOklzc3VlQ29tbWVudDE4NjY1MTMxOA==",
            "performed_via_github_app": null,
            "reactions": {
                "+1": 0,
                "-1": 0,
                "confused": 0,
                "eyes": 0,
                "heart": 0,
                "hooray": 0,
                "laugh": 0,
                "rocket": 0,
                "total_count": 0,
                "url": "https://api.github.com/repos/PrismarineJS/minecraft-data/issues/comments/186651318/reactions"
            },
            "updated_at": "2016-02-20T16:54:55Z",
            "url": "https://api.github.com/repos/PrismarineJS/minecraft-data/issues/comments/186651318",
            "user": {
                "avatar_url": "https://avatars.githubusercontent.com/u/2346494?v=4",
                "events_url": "https://api.github.com/users/rom1504/events{/privacy}",
                "followers_url": "https://api.github.com/users/rom1504/followers",
                "following_url": "https://api.github.com/users/rom1504/following{/other_user}",
                "gists_url": "https://api.github.com/users/rom1504/gists{/gist_id}",
                "gravatar_id": "",
                "html_url": "https://github.com/rom1504",
                "id": 2346494,
                "login": "rom1504",
                "node_id": "MDQ6VXNlcjIzNDY0OTQ=",
                "organizations_url": "https://api.github.com/users/rom1504/orgs",
                "received_events_url": "https://api.github.com/users/rom1504/received_events",
                "repos_url": "https://api.github.com/users/rom1504/repos",
                "site_admin": false,
                "starred_url": "https://api.github.com/users/rom1504/starred{/owner}{/repo}",
                "subscriptions_url": "https://api.github.com/users/rom1504/subscriptions",
                "type": "User",
                "url": "https://api.github.com/users/rom1504"
            }
        },
        {
            "author_association": "MEMBER",
            "body": "tracked elsewhere",
            "created_at": "2018-01-01T12:50:43Z",
            "html_url": "https://github.com/PrismarineJS/minecraft-data/pull/121#issuecomment-354651805",
            "id": 354651805,
            "issue_url": "https://api.github.com/repos/PrismarineJS/minecraft-data/issues/121",
            "node_id": "MDEyOklzc3VlQ29tbWVudDM1NDY1MTgwNQ==",
            "performed_via_github_app": null,
            "reactions": {
                "+1": 0,
                "-1": 0,
                "confused": 0,
                "eyes": 0,
                "heart": 0,
                "hooray": 0,
                "laugh": 0,
                "rocket": 0,
                "total_count": 0,
                "url": "https://api.github.com/repos/PrismarineJS/minecraft-data/issues/comments/354651805/reactions"
            },
            "updated_at": "2018-01-01T12:50:43Z",
            "url": "https://api.github.com/repos/PrismarineJS/minecraft-data/issues/comments/354651805",
            "user": {
                "avatar_url": "https://avatars.githubusercontent.com/u/2346494?v=4",
                "events_url": "https://api.github.com/users/rom1504/events{/privacy}",
                "followers_url": "https://api.github.com/users/rom1504/followers",
                "following_url": "https://api.github.com/users/rom1504/following{/other_user}",
                "gists_url": "https://api.github.com/users/rom1504/gists{/gist_id}",
                "gravatar_id": "",
                "html_url": "https://github.com/rom1504",
                "id": 2346494,
                "login": "rom1504",
                "node_id": "MDQ6VXNlcjIzNDY0OTQ=",
                "organizations_url": "https://api.github.com/users/rom1504/orgs",
                "received_events_url": "https://api.github.com/users/rom1504/received_events",
                "repos_url": "https://api.github.com/users/rom1504/repos",
                "site_admin": false,
                "starred_url": "https://api.github.com/users/rom1504/starred{/owner}{/repo}",
                "subscriptions_url": "https://api.github.com/users/rom1504/subscriptions",
                "type": "User",
                "url": "https://api.github.com/users/rom1504"
            }
        }
    ],
    "comments": 3,
    "comments_url": "https://api.github.com/repos/PrismarineJS/minecraft-data/issues/121/comments",
    "commit_data": [
        {
            "author": {
                "avatar_url": "https://avatars.githubusercontent.com/u/5897956?v=4",
                "events_url": "https://api.github.com/users/deathcap/events{/privacy}",
                "followers_url": "https://api.github.com/users/deathcap/followers",
                "following_url": "https://api.github.com/users/deathcap/following{/other_user}",
                "gists_url": "https://api.github.com/users/deathcap/gists{/gist_id}",
                "gravatar_id": "",
                "html_url": "https://github.com/deathcap",
                "id": 5897956,
                "login": "deathcap",
                "node_id": "MDQ6VXNlcjU4OTc5NTY=",
                "organizations_url": "https://api.github.com/users/deathcap/orgs",
                "received_events_url": "https://api.github.com/users/deathcap/received_events",
                "repos_url": "https://api.github.com/users/deathcap/repos",
                "site_admin": false,
                "starred_url": "https://api.github.com/users/deathcap/starred{/owner}{/repo}",
                "subscriptions_url": "https://api.github.com/users/deathcap/subscriptions",
                "type": "User",
                "url": "https://api.github.com/users/deathcap"
            },
            "comments_url": "https://api.github.com/repos/PrismarineJS/minecraft-data/commits/936d4cbb174fd7fed9c2dbeae6f53ff37990a6a8/comments",
            "commit": {
                "author": {
                    "date": "2016-02-20T02:16:39Z",
                    "email": "deathcap@gmx.co.uk",
                    "name": "deathcap"
                },
                "comment_count": 0,
                "committer": {
                    "date": "2016-02-20T02:23:25Z",
                    "email": "deathcap@gmx.co.uk",
                    "name": "deathcap"
                },
                "message": "1.7: Add CoFH's SendUUID packet (packet id -26)\n\ncofhcore_senduuid is added by the CoFHCore/CoFHLib mod to synchronize player\nUUIDs. More details:\n\nhttps://github.com/CoFH/CoFHLib/blob/737cf7aee0a6de2559143ed63a8077fe40196813/src/main/java/cofh/lib/util/helpers/SecurityHelper.java#L237-L280\nhttps://github.com/SpigotMC/BungeeCord/issues/1437#issuecomment-93163354",
                "tree": {
                    "sha": "9777196f03248d1d14fb83ca3c52f8ca1c7c2549",
                    "url": "https://api.github.com/repos/PrismarineJS/minecraft-data/git/trees/9777196f03248d1d14fb83ca3c52f8ca1c7c2549"
                },
                "url": "https://api.github.com/repos/PrismarineJS/minecraft-data/git/commits/936d4cbb174fd7fed9c2dbeae6f53ff37990a6a8",
                "verification": {
                    "payload": null,
                    "reason": "unsigned",
                    "signature": null,
                    "verified": false
                }
            },
            "committer": {
                "avatar_url": "https://avatars.githubusercontent.com/u/5897956?v=4",
                "events_url": "https://api.github.com/users/deathcap/events{/privacy}",
                "followers_url": "https://api.github.com/users/deathcap/followers",
                "following_url": "https://api.github.com/users/deathcap/following{/other_user}",
                "gists_url": "https://api.github.com/users/deathcap/gists{/gist_id}",
                "gravatar_id": "",
                "html_url": "https://github.com/deathcap",
                "id": 5897956,
                "login": "deathcap",
                "node_id": "MDQ6VXNlcjU4OTc5NTY=",
                "organizations_url": "https://api.github.com/users/deathcap/orgs",
                "received_events_url": "https://api.github.com/users/deathcap/received_events",
                "repos_url": "https://api.github.com/users/deathcap/repos",
                "site_admin": false,
                "starred_url": "https://api.github.com/users/deathcap/starred{/owner}{/repo}",
                "subscriptions_url": "https://api.github.com/users/deathcap/subscriptions",
                "type": "User",
                "url": "https://api.github.com/users/deathcap"
            },
            "html_url": "https://github.com/PrismarineJS/minecraft-data/commit/936d4cbb174fd7fed9c2dbeae6f53ff37990a6a8",
            "node_id": "MDY6Q29tbWl0NTAzMTM0MTQ6OTM2ZDRjYmIxNzRmZDdmZWQ5YzJkYmVhZTZmNTNmZjM3OTkwYTZhOA==",
            "parents": [
                {
                    "html_url": "https://github.com/PrismarineJS/minecraft-data/commit/a6cdfc2c14cf3797dd9b000348303a748dafc34e",
                    "sha": "a6cdfc2c14cf3797dd9b000348303a748dafc34e",
                    "url": "https://api.github.com/repos/PrismarineJS/minecraft-data/commits/a6cdfc2c14cf3797dd9b000348303a748dafc34e"
                }
            ],
            "sha": "936d4cbb174fd7fed9c2dbeae6f53ff37990a6a8",
            "url": "https://api.github.com/repos/PrismarineJS/minecraft-data/commits/936d4cbb174fd7fed9c2dbeae6f53ff37990a6a8"
        },
        {
            "author": {
                "avatar_url": "https://avatars.githubusercontent.com/u/5897956?v=4",
                "events_url": "https://api.github.com/users/deathcap/events{/privacy}",
                "followers_url": "https://api.github.com/users/deathcap/followers",
                "following_url": "https://api.github.com/users/deathcap/following{/other_user}",
                "gists_url": "https://api.github.com/users/deathcap/gists{/gist_id}",
                "gravatar_id": "",
                "html_url": "https://github.com/deathcap",
                "id": 5897956,
                "login": "deathcap",
                "node_id": "MDQ6VXNlcjU4OTc5NTY=",
                "organizations_url": "https://api.github.com/users/deathcap/orgs",
                "received_events_url": "https://api.github.com/users/deathcap/received_events",
                "repos_url": "https://api.github.com/users/deathcap/repos",
                "site_admin": false,
                "starred_url": "https://api.github.com/users/deathcap/starred{/owner}{/repo}",
                "subscriptions_url": "https://api.github.com/users/deathcap/subscriptions",
                "type": "User",
                "url": "https://api.github.com/users/deathcap"
            },
            "comments_url": "https://api.github.com/repos/PrismarineJS/minecraft-data/commits/116ccf1e564a3cf9889db596eff3829cc4f9ee8c/comments",
            "commit": {
                "author": {
                    "date": "2016-02-20T02:44:31Z",
                    "email": "deathcap@gmx.co.uk",
                    "name": "deathcap"
                },
                "comment_count": 0,
                "committer": {
                    "date": "2016-02-20T02:44:31Z",
                    "email": "deathcap@gmx.co.uk",
                    "name": "deathcap"
                },
                "message": "Update schema to allow negative packet IDs",
                "tree": {
                    "sha": "d39c5d27ae69a3e457fb41da18faa89eba665d67",
                    "url": "https://api.github.com/repos/PrismarineJS/minecraft-data/git/trees/d39c5d27ae69a3e457fb41da18faa89eba665d67"
                },
                "url": "https://api.github.com/repos/PrismarineJS/minecraft-data/git/commits/116ccf1e564a3cf9889db596eff3829cc4f9ee8c",
                "verification": {
                    "payload": null,
                    "reason": "unsigned",
                    "signature": null,
                    "verified": false
                }
            },
            "committer": {
                "avatar_url": "https://avatars.githubusercontent.com/u/5897956?v=4",
                "events_url": "https://api.github.com/users/deathcap/events{/privacy}",
                "followers_url": "https://api.github.com/users/deathcap/followers",
                "following_url": "https://api.github.com/users/deathcap/following{/other_user}",
                "gists_url": "https://api.github.com/users/deathcap/gists{/gist_id}",
                "gravatar_id": "",
                "html_url": "https://github.com/deathcap",
                "id": 5897956,
                "login": "deathcap",
                "node_id": "MDQ6VXNlcjU4OTc5NTY=",
                "organizations_url": "https://api.github.com/users/deathcap/orgs",
                "received_events_url": "https://api.github.com/users/deathcap/received_events",
                "repos_url": "https://api.github.com/users/deathcap/repos",
                "site_admin": false,
                "starred_url": "https://api.github.com/users/deathcap/starred{/owner}{/repo}",
                "subscriptions_url": "https://api.github.com/users/deathcap/subscriptions",
                "type": "User",
                "url": "https://api.github.com/users/deathcap"
            },
            "html_url": "https://github.com/PrismarineJS/minecraft-data/commit/116ccf1e564a3cf9889db596eff3829cc4f9ee8c",
            "node_id": "MDY6Q29tbWl0NTAzMTM0MTQ6MTE2Y2NmMWU1NjRhM2NmOTg4OWRiNTk2ZWZmMzgyOWNjNGY5ZWU4Yw==",
            "parents": [
                {
                    "html_url": "https://github.com/PrismarineJS/minecraft-data/commit/936d4cbb174fd7fed9c2dbeae6f53ff37990a6a8",
                    "sha": "936d4cbb174fd7fed9c2dbeae6f53ff37990a6a8",
                    "url": "https://api.github.com/repos/PrismarineJS/minecraft-data/commits/936d4cbb174fd7fed9c2dbeae6f53ff37990a6a8"
                }
            ],
            "sha": "116ccf1e564a3cf9889db596eff3829cc4f9ee8c",
            "url": "https://api.github.com/repos/PrismarineJS/minecraft-data/commits/116ccf1e564a3cf9889db596eff3829cc4f9ee8c"
        }
    ],
    "commits": 2,
    "commits_url": "https://api.github.com/repos/PrismarineJS/minecraft-data/pulls/121/commits",
    "created_at": "2016-02-20T02:43:23Z",
    "deletions": 1,
    "diff_url": "https://github.com/PrismarineJS/minecraft-data/pull/121.diff",
    "draft": false,
    "head": {
        "label": "deathcap:mc17cofhcore",
        "ref": "mc17cofhcore",
        "repo": {
            "allow_forking": true,
            "archive_url": "https://api.github.com/repos/deathcap/minecraft-data/{archive_format}{/ref}",
            "archived": false,
            "assignees_url": "https://api.github.com/repos/deathcap/minecraft-data/assignees{/user}",
            "blobs_url": "https://api.github.com/repos/deathcap/minecraft-data/git/blobs{/sha}",
            "branches_url": "https://api.github.com/repos/deathcap/minecraft-data/branches{/branch}",
            "clone_url": "https://github.com/deathcap/minecraft-data.git",
            "collaborators_url": "https://api.github.com/repos/deathcap/minecraft-data/collaborators{/collaborator}",
            "comments_url": "https://api.github.com/repos/deathcap/minecraft-data/comments{/number}",
            "commits_url": "https://api.github.com/repos/deathcap/minecraft-data/commits{/sha}",
            "compare_url": "https://api.github.com/repos/deathcap/minecraft-data/compare/{base}...{head}",
            "contents_url": "https://api.github.com/repos/deathcap/minecraft-data/contents/{+path}",
            "contributors_url": "https://api.github.com/repos/deathcap/minecraft-data/contributors",
            "created_at": "2016-01-24T23:21:05Z",
            "default_branch": "master",
            "deployments_url": "https://api.github.com/repos/deathcap/minecraft-data/deployments",
            "description": "Language independent module providing minecraft data for minecraft clients, servers and libraries.",
            "disabled": false,
            "downloads_url": "https://api.github.com/repos/deathcap/minecraft-data/downloads",
            "events_url": "https://api.github.com/repos/deathcap/minecraft-data/events",
            "fork": true,
            "forks": 0,
            "forks_count": 0,
            "forks_url": "https://api.github.com/repos/deathcap/minecraft-data/forks",
            "full_name": "deathcap/minecraft-data",
            "git_commits_url": "https://api.github.com/repos/deathcap/minecraft-data/git/commits{/sha}",
            "git_refs_url": "https://api.github.com/repos/deathcap/minecraft-data/git/refs{/sha}",
            "git_tags_url": "https://api.github.com/repos/deathcap/minecraft-data/git/tags{/sha}",
            "git_url": "git://github.com/deathcap/minecraft-data.git",
            "has_discussions": false,
            "has_downloads": true,
            "has_issues": false,
            "has_pages": false,
            "has_projects": true,
            "has_wiki": true,
            "homepage": "http://prismarinejs.github.io/minecraft-data/",
            "hooks_url": "https://api.github.com/repos/deathcap/minecraft-data/hooks",
            "html_url": "https://github.com/deathcap/minecraft-data",
            "id": 50313414,
            "is_template": false,
            "issue_comment_url": "https://api.github.com/repos/deathcap/minecraft-data/issues/comments{/number}",
            "issue_events_url": "https://api.github.com/repos/deathcap/minecraft-data/issues/events{/number}",
            "issues_url": "https://api.github.com/repos/deathcap/minecraft-data/issues{/number}",
            "keys_url": "https://api.github.com/repos/deathcap/minecraft-data/keys{/key_id}",
            "labels_url": "https://api.github.com/repos/deathcap/minecraft-data/labels{/name}",
            "language": null,
            "languages_url": "https://api.github.com/repos/deathcap/minecraft-data/languages",
            "license": null,
            "merges_url": "https://api.github.com/repos/deathcap/minecraft-data/merges",
            "milestones_url": "https://api.github.com/repos/deathcap/minecraft-data/milestones{/number}",
            "mirror_url": null,
            "name": "minecraft-data",
            "node_id": "MDEwOlJlcG9zaXRvcnk1MDMxMzQxNA==",
            "notifications_url": "https://api.github.com/repos/deathcap/minecraft-data/notifications{?since,all,participating}",
            "open_issues": 0,
            "open_issues_count": 0,
            "owner": {
                "avatar_url": "https://avatars.githubusercontent.com/u/5897956?v=4",
                "events_url": "https://api.github.com/users/deathcap/events{/privacy}",
                "followers_url": "https://api.github.com/users/deathcap/followers",
                "following_url": "https://api.github.com/users/deathcap/following{/other_user}",
                "gists_url": "https://api.github.com/users/deathcap/gists{/gist_id}",
                "gravatar_id": "",
                "html_url": "https://github.com/deathcap",
                "id": 5897956,
                "login": "deathcap",
                "node_id": "MDQ6VXNlcjU4OTc5NTY=",
                "organizations_url": "https://api.github.com/users/deathcap/orgs",
                "received_events_url": "https://api.github.com/users/deathcap/received_events",
                "repos_url": "https://api.github.com/users/deathcap/repos",
                "site_admin": false,
                "starred_url": "https://api.github.com/users/deathcap/starred{/owner}{/repo}",
                "subscriptions_url": "https://api.github.com/users/deathcap/subscriptions",
                "type": "User",
                "url": "https://api.github.com/users/deathcap"
            },
            "private": false,
            "pulls_url": "https://api.github.com/repos/deathcap/minecraft-data/pulls{/number}",
            "pushed_at": "2016-02-20T02:44:36Z",
            "releases_url": "https://api.github.com/repos/deathcap/minecraft-data/releases{/id}",
            "size": 434,
            "ssh_url": "git@github.com:deathcap/minecraft-data.git",
            "stargazers_count": 0,
            "stargazers_url": "https://api.github.com/repos/deathcap/minecraft-data/stargazers",
            "statuses_url": "https://api.github.com/repos/deathcap/minecraft-data/statuses/{sha}",
            "subscribers_url": "https://api.github.com/repos/deathcap/minecraft-data/subscribers",
            "subscription_url": "https://api.github.com/repos/deathcap/minecraft-data/subscription",
            "svn_url": "https://github.com/deathcap/minecraft-data",
            "tags_url": "https://api.github.com/repos/deathcap/minecraft-data/tags",
            "teams_url": "https://api.github.com/repos/deathcap/minecraft-data/teams",
            "topics": [],
            "trees_url": "https://api.github.com/repos/deathcap/minecraft-data/git/trees{/sha}",
            "updated_at": "2016-01-11T19:20:38Z",
            "url": "https://api.github.com/repos/deathcap/minecraft-data",
            "visibility": "public",
            "watchers": 0,
            "watchers_count": 0,
            "web_commit_signoff_required": false
        },
        "sha": "116ccf1e564a3cf9889db596eff3829cc4f9ee8c",
        "user": {
            "avatar_url": "https://avatars.githubusercontent.com/u/5897956?v=4",
            "events_url": "https://api.github.com/users/deathcap/events{/privacy}",
            "followers_url": "https://api.github.com/users/deathcap/followers",
            "following_url": "https://api.github.com/users/deathcap/following{/other_user}",
            "gists_url": "https://api.github.com/users/deathcap/gists{/gist_id}",
            "gravatar_id": "",
            "html_url": "https://github.com/deathcap",
            "id": 5897956,
            "login": "deathcap",
            "node_id": "MDQ6VXNlcjU4OTc5NTY=",
            "organizations_url": "https://api.github.com/users/deathcap/orgs",
            "received_events_url": "https://api.github.com/users/deathcap/received_events",
            "repos_url": "https://api.github.com/users/deathcap/repos",
            "site_admin": false,
            "starred_url": "https://api.github.com/users/deathcap/starred{/owner}{/repo}",
            "subscriptions_url": "https://api.github.com/users/deathcap/subscriptions",
            "type": "User",
            "url": "https://api.github.com/users/deathcap"
        }
    },
    "html_url": "https://github.com/PrismarineJS/minecraft-data/pull/121",
    "id": 60034685,
    "issue_url": "https://api.github.com/repos/PrismarineJS/minecraft-data/issues/121",
    "labels": [],
    "locked": false,
    "maintainer_can_modify": false,
    "merge_commit_sha": "07460b510e9a053e9113cfbf8547a8c6a9c30760",
    "mergeable": false,
    "mergeable_state": "dirty",
    "merged": false,
    "merged_at": null,
    "merged_by": null,
    "milestone": null,
    "node_id": "MDExOlB1bGxSZXF1ZXN0NjAwMzQ2ODU=",
    "number": 121,
    "patch_url": "https://github.com/PrismarineJS/minecraft-data/pull/121.patch",
    "rebaseable": false,
    "requested_reviewers": [],
    "requested_teams": [],
    "review_comment_url": "https://api.github.com/repos/PrismarineJS/minecraft-data/pulls/comments{/number}",
    "review_comments": 0,
    "review_comments_url": "https://api.github.com/repos/PrismarineJS/minecraft-data/pulls/121/comments",
    "state": "closed",
    "statuses_url": "https://api.github.com/repos/PrismarineJS/minecraft-data/statuses/116ccf1e564a3cf9889db596eff3829cc4f9ee8c",
    "title": "1.7: Add CoFH's SendUUID packet (packet id -26)",
    "updated_at": "2018-01-01T12:50:43Z",
    "url": "https://api.github.com/repos/PrismarineJS/minecraft-data/pulls/121",
    "user": {
        "avatar_url": "https://avatars.githubusercontent.com/u/5897956?v=4",
        "events_url": "https://api.github.com/users/deathcap/events{/privacy}",
        "followers_url": "https://api.github.com/users/deathcap/followers",
        "following_url": "https://api.github.com/users/deathcap/following{/other_user}",
        "gists_url": "https://api.github.com/users/deathcap/gists{/gist_id}",
        "gravatar_id": "",
        "html_url": "https://github.com/deathcap",
        "id": 5897956,
        "login": "deathcap",
        "node_id": "MDQ6VXNlcjU4OTc5NTY=",
        "organizations_url": "https://api.github.com/users/deathcap/orgs",
        "received_events_url": "https://api.github.com/users/deathcap/received_events",
        "repos_url": "https://api.github.com/users/deathcap/repos",
        "site_admin": false,
        "starred_url": "https://api.github.com/users/deathcap/starred{/owner}{/repo}",
        "subscriptions_url": "https://api.github.com/users/deathcap/subscriptions",
        "type": "User",
        "url": "https://api.github.com/users/deathcap"
    }
}