{
    "_links": {
        "comments": {
            "href": "https://api.github.com/repos/PrismarineJS/minecraft-data/issues/357/comments"
        },
        "commits": {
            "href": "https://api.github.com/repos/PrismarineJS/minecraft-data/pulls/357/commits"
        },
        "html": {
            "href": "https://github.com/PrismarineJS/minecraft-data/pull/357"
        },
        "issue": {
            "href": "https://api.github.com/repos/PrismarineJS/minecraft-data/issues/357"
        },
        "review_comment": {
            "href": "https://api.github.com/repos/PrismarineJS/minecraft-data/pulls/comments{/number}"
        },
        "review_comments": {
            "href": "https://api.github.com/repos/PrismarineJS/minecraft-data/pulls/357/comments"
        },
        "self": {
            "href": "https://api.github.com/repos/PrismarineJS/minecraft-data/pulls/357"
        },
        "statuses": {
            "href": "https://api.github.com/repos/PrismarineJS/minecraft-data/statuses/317796d0195c13349aa631b385bf097a7d789ed5"
        }
    },
    "active_lock_reason": null,
    "additions": 170,
    "assignee": null,
    "assignees": [],
    "author_association": "CONTRIBUTOR",
    "auto_merge": null,
    "base": {
        "label": "PrismarineJS:master",
        "ref": "master",
        "repo": {
            "allow_forking": true,
            "archive_url": "https://api.github.com/repos/PrismarineJS/minecraft-data/{archive_format}{/ref}",
            "archived": false,
            "assignees_url": "https://api.github.com/repos/PrismarineJS/minecraft-data/assignees{/user}",
            "blobs_url": "https://api.github.com/repos/PrismarineJS/minecraft-data/git/blobs{/sha}",
            "branches_url": "https://api.github.com/repos/PrismarineJS/minecraft-data/branches{/branch}",
            "clone_url": "https://github.com/PrismarineJS/minecraft-data.git",
            "collaborators_url": "https://api.github.com/repos/PrismarineJS/minecraft-data/collaborators{/collaborator}",
            "comments_url": "https://api.github.com/repos/PrismarineJS/minecraft-data/comments{/number}",
            "commits_url": "https://api.github.com/repos/PrismarineJS/minecraft-data/commits{/sha}",
            "compare_url": "https://api.github.com/repos/PrismarineJS/minecraft-data/compare/{base}...{head}",
            "contents_url": "https://api.github.com/repos/PrismarineJS/minecraft-data/contents/{+path}",
            "contributors_url": "https://api.github.com/repos/PrismarineJS/minecraft-data/contributors",
            "created_at": "2015-03-23T15:38:19Z",
            "default_branch": "master",
            "deployments_url": "https://api.github.com/repos/PrismarineJS/minecraft-data/deployments",
            "description": "Language independent module providing minecraft data for minecraft clients, servers and libraries.",
            "disabled": false,
            "downloads_url": "https://api.github.com/repos/PrismarineJS/minecraft-data/downloads",
            "events_url": "https://api.github.com/repos/PrismarineJS/minecraft-data/events",
            "fork": false,
            "forks": 184,
            "forks_count": 184,
            "forks_url": "https://api.github.com/repos/PrismarineJS/minecraft-data/forks",
            "full_name": "PrismarineJS/minecraft-data",
            "git_commits_url": "https://api.github.com/repos/PrismarineJS/minecraft-data/git/commits{/sha}",
            "git_refs_url": "https://api.github.com/repos/PrismarineJS/minecraft-data/git/refs{/sha}",
            "git_tags_url": "https://api.github.com/repos/PrismarineJS/minecraft-data/git/tags{/sha}",
            "git_url": "git://github.com/PrismarineJS/minecraft-data.git",
            "has_discussions": false,
            "has_downloads": true,
            "has_issues": true,
            "has_pages": true,
            "has_projects": true,
            "has_wiki": true,
            "homepage": "https://prismarinejs.github.io/minecraft-data",
            "hooks_url": "https://api.github.com/repos/PrismarineJS/minecraft-data/hooks",
            "html_url": "https://github.com/PrismarineJS/minecraft-data",
            "id": 32741498,
            "is_template": false,
            "issue_comment_url": "https://api.github.com/repos/PrismarineJS/minecraft-data/issues/comments{/number}",
            "issue_events_url": "https://api.github.com/repos/PrismarineJS/minecraft-data/issues/events{/number}",
            "issues_url": "https://api.github.com/repos/PrismarineJS/minecraft-data/issues{/number}",
            "keys_url": "https://api.github.com/repos/PrismarineJS/minecraft-data/keys{/key_id}",
            "labels_url": "https://api.github.com/repos/PrismarineJS/minecraft-data/labels{/name}",
            "language": "JavaScript",
            "languages_url": "https://api.github.com/repos/PrismarineJS/minecraft-data/languages",
            "license": null,
            "merges_url": "https://api.github.com/repos/PrismarineJS/minecraft-data/merges",
            "milestones_url": "https://api.github.com/repos/PrismarineJS/minecraft-data/milestones{/number}",
            "mirror_url": null,
            "name": "minecraft-data",
            "node_id": "MDEwOlJlcG9zaXRvcnkzMjc0MTQ5OA==",
            "notifications_url": "https://api.github.com/repos/PrismarineJS/minecraft-data/notifications{?since,all,participating}",
            "open_issues": 113,
            "open_issues_count": 113,
            "owner": {
                "avatar_url": "https://avatars.githubusercontent.com/u/11053411?v=4",
                "events_url": "https://api.github.com/users/PrismarineJS/events{/privacy}",
                "followers_url": "https://api.github.com/users/PrismarineJS/followers",
                "following_url": "https://api.github.com/users/PrismarineJS/following{/other_user}",
                "gists_url": "https://api.github.com/users/PrismarineJS/gists{/gist_id}",
                "gravatar_id": "",
                "html_url": "https://github.com/PrismarineJS",
                "id": 11053411,
                "login": "PrismarineJS",
                "node_id": "MDEyOk9yZ2FuaXphdGlvbjExMDUzNDEx",
                "organizations_url": "https://api.github.com/users/PrismarineJS/orgs",
                "received_events_url": "https://api.github.com/users/PrismarineJS/received_events",
                "repos_url": "https://api.github.com/users/PrismarineJS/repos",
                "site_admin": false,
                "starred_url": "https://api.github.com/users/PrismarineJS/starred{/owner}{/repo}",
                "subscriptions_url": "https://api.github.com/users/PrismarineJS/subscriptions",
                "type": "Organization",
                "url": "https://api.github.com/users/PrismarineJS"
            },
            "private": false,
            "pulls_url": "https://api.github.com/repos/PrismarineJS/minecraft-data/pulls{/number}",
            "pushed_at": "2023-04-08T18:30:50Z",
            "releases_url": "https://api.github.com/repos/PrismarineJS/minecraft-data/releases{/id}",
            "size": 134084,
            "ssh_url": "git@github.com:PrismarineJS/minecraft-data.git",
            "stargazers_count": 473,
            "stargazers_url": "https://api.github.com/repos/PrismarineJS/minecraft-data/stargazers",
            "statuses_url": "https://api.github.com/repos/PrismarineJS/minecraft-data/statuses/{sha}",
            "subscribers_url": "https://api.github.com/repos/PrismarineJS/minecraft-data/subscribers",
            "subscription_url": "https://api.github.com/repos/PrismarineJS/minecraft-data/subscription",
            "svn_url": "https://github.com/PrismarineJS/minecraft-data",
            "tags_url": "https://api.github.com/repos/PrismarineJS/minecraft-data/tags",
            "teams_url": "https://api.github.com/repos/PrismarineJS/minecraft-data/teams",
            "topics": [
                "data",
                "minecraft"
            ],
            "trees_url": "https://api.github.com/repos/PrismarineJS/minecraft-data/git/trees{/sha}",
            "updated_at": "2023-04-24T04:11:18Z",
            "url": "https://api.github.com/repos/PrismarineJS/minecraft-data",
            "visibility": "public",
            "watchers": 473,
            "watchers_count": 473,
            "web_commit_signoff_required": false
        },
        "sha": "0c79ac952a4f85b21a1cdfaf0505f7ff0cab0133",
        "user": {
            "avatar_url": "https://avatars.githubusercontent.com/u/11053411?v=4",
            "events_url": "https://api.github.com/users/PrismarineJS/events{/privacy}",
            "followers_url": "https://api.github.com/users/PrismarineJS/followers",
            "following_url": "https://api.github.com/users/PrismarineJS/following{/other_user}",
            "gists_url": "https://api.github.com/users/PrismarineJS/gists{/gist_id}",
            "gravatar_id": "",
            "html_url": "https://github.com/PrismarineJS",
            "id": 11053411,
            "login": "PrismarineJS",
            "node_id": "MDEyOk9yZ2FuaXphdGlvbjExMDUzNDEx",
            "organizations_url": "https://api.github.com/users/PrismarineJS/orgs",
            "received_events_url": "https://api.github.com/users/PrismarineJS/received_events",
            "repos_url": "https://api.github.com/users/PrismarineJS/repos",
            "site_admin": false,
            "starred_url": "https://api.github.com/users/PrismarineJS/starred{/owner}{/repo}",
            "subscriptions_url": "https://api.github.com/users/PrismarineJS/subscriptions",
            "type": "Organization",
            "url": "https://api.github.com/users/PrismarineJS"
        }
    },
    "body": "Netherite tools weren't in materials.json, and a lot of 1.14 blocks had unknown_material. I fixed all of these except bamboo because bamboo is weird",
    "changed_files": 6,
    "closed_at": "2021-01-21T07:48:08Z",
    "comment_data": [],
    "comment_regular_data": [
        {
            "author_association": "MEMBER",
            "body": "Looks good but I think we should have a good audit material making sure the items referenced in materials are really tools.",
            "created_at": "2021-01-21T07:47:51Z",
            "html_url": "https://github.com/PrismarineJS/minecraft-data/pull/357#issuecomment-764449211",
            "id": 764449211,
            "issue_url": "https://api.github.com/repos/PrismarineJS/minecraft-data/issues/357",
            "node_id": "MDEyOklzc3VlQ29tbWVudDc2NDQ0OTIxMQ==",
            "performed_via_github_app": null,
            "reactions": {
                "+1": 0,
                "-1": 0,
                "confused": 0,
                "eyes": 0,
                "heart": 0,
                "hooray": 0,
                "laugh": 0,
                "rocket": 0,
                "total_count": 0,
                "url": "https://api.github.com/repos/PrismarineJS/minecraft-data/issues/comments/764449211/reactions"
            },
            "updated_at": "2021-01-21T07:47:51Z",
            "url": "https://api.github.com/repos/PrismarineJS/minecraft-data/issues/comments/764449211",
            "user": {
                "avatar_url": "https://avatars.githubusercontent.com/u/2346494?v=4",
                "events_url": "https://api.github.com/users/rom1504/events{/privacy}",
                "followers_url": "https://api.github.com/users/rom1504/followers",
                "following_url": "https://api.github.com/users/rom1504/following{/other_user}",
                "gists_url": "https://api.github.com/users/rom1504/gists{/gist_id}",
                "gravatar_id": "",
                "html_url": "https://github.com/rom1504",
                "id": 2346494,
                "login": "rom1504",
                "node_id": "MDQ6VXNlcjIzNDY0OTQ=",
                "organizations_url": "https://api.github.com/users/rom1504/orgs",
                "received_events_url": "https://api.github.com/users/rom1504/received_events",
                "repos_url": "https://api.github.com/users/rom1504/repos",
                "site_admin": false,
                "starred_url": "https://api.github.com/users/rom1504/starred{/owner}{/repo}",
                "subscriptions_url": "https://api.github.com/users/rom1504/subscriptions",
                "type": "User",
                "url": "https://api.github.com/users/rom1504"
            }
        }
    ],
    "comments": 1,
    "comments_url": "https://api.github.com/repos/PrismarineJS/minecraft-data/issues/357/comments",
    "commit_data": [
        {
            "author": {
                "avatar_url": "https://avatars.githubusercontent.com/u/27899617?v=4",
                "events_url": "https://api.github.com/users/mat-1/events{/privacy}",
                "followers_url": "https://api.github.com/users/mat-1/followers",
                "following_url": "https://api.github.com/users/mat-1/following{/other_user}",
                "gists_url": "https://api.github.com/users/mat-1/gists{/gist_id}",
                "gravatar_id": "",
                "html_url": "https://github.com/mat-1",
                "id": 27899617,
                "login": "mat-1",
                "node_id": "MDQ6VXNlcjI3ODk5NjE3",
                "organizations_url": "https://api.github.com/users/mat-1/orgs",
                "received_events_url": "https://api.github.com/users/mat-1/received_events",
                "repos_url": "https://api.github.com/users/mat-1/repos",
                "site_admin": false,
                "starred_url": "https://api.github.com/users/mat-1/starred{/owner}{/repo}",
                "subscriptions_url": "https://api.github.com/users/mat-1/subscriptions",
                "type": "User",
                "url": "https://api.github.com/users/mat-1"
            },
            "comments_url": "https://api.github.com/repos/PrismarineJS/minecraft-data/commits/095884e998fa61138cd86cb60432c7513f3e1c5c/comments",
            "commit": {
                "author": {
                    "date": "2021-01-18T01:54:48Z",
                    "email": "27899617+mat-1@users.noreply.github.com",
                    "name": "mat"
                },
                "comment_count": 0,
                "committer": {
                    "date": "2021-01-18T01:54:48Z",
                    "email": "27899617+mat-1@users.noreply.github.com",
                    "name": "mat"
                },
                "message": "add netherite tools to materials",
                "tree": {
                    "sha": "3a8d7f857faa714e5b7c495eaa3d2e78f2ba70e1",
                    "url": "https://api.github.com/repos/PrismarineJS/minecraft-data/git/trees/3a8d7f857faa714e5b7c495eaa3d2e78f2ba70e1"
                },
                "url": "https://api.github.com/repos/PrismarineJS/minecraft-data/git/commits/095884e998fa61138cd86cb60432c7513f3e1c5c",
                "verification": {
                    "payload": null,
                    "reason": "unsigned",
                    "signature": null,
                    "verified": false
                }
            },
            "committer": {
                "avatar_url": "https://avatars.githubusercontent.com/u/27899617?v=4",
                "events_url": "https://api.github.com/users/mat-1/events{/privacy}",
                "followers_url": "https://api.github.com/users/mat-1/followers",
                "following_url": "https://api.github.com/users/mat-1/following{/other_user}",
                "gists_url": "https://api.github.com/users/mat-1/gists{/gist_id}",
                "gravatar_id": "",
                "html_url": "https://github.com/mat-1",
                "id": 27899617,
                "login": "mat-1",
                "node_id": "MDQ6VXNlcjI3ODk5NjE3",
                "organizations_url": "https://api.github.com/users/mat-1/orgs",
                "received_events_url": "https://api.github.com/users/mat-1/received_events",
                "repos_url": "https://api.github.com/users/mat-1/repos",
                "site_admin": false,
                "starred_url": "https://api.github.com/users/mat-1/starred{/owner}{/repo}",
                "subscriptions_url": "https://api.github.com/users/mat-1/subscriptions",
                "type": "User",
                "url": "https://api.github.com/users/mat-1"
            },
            "html_url": "https://github.com/PrismarineJS/minecraft-data/commit/095884e998fa61138cd86cb60432c7513f3e1c5c",
            "node_id": "MDY6Q29tbWl0MzIwOTI3MDA4OjA5NTg4NGU5OThmYTYxMTM4Y2Q4NmNiNjA0MzJjNzUxM2YzZTFjNWM=",
            "parents": [
                {
                    "html_url": "https://github.com/PrismarineJS/minecraft-data/commit/0c79ac952a4f85b21a1cdfaf0505f7ff0cab0133",
                    "sha": "0c79ac952a4f85b21a1cdfaf0505f7ff0cab0133",
                    "url": "https://api.github.com/repos/PrismarineJS/minecraft-data/commits/0c79ac952a4f85b21a1cdfaf0505f7ff0cab0133"
                }
            ],
            "sha": "095884e998fa61138cd86cb60432c7513f3e1c5c",
            "url": "https://api.github.com/repos/PrismarineJS/minecraft-data/commits/095884e998fa61138cd86cb60432c7513f3e1c5c"
        },
        {
            "author": {
                "avatar_url": "https://avatars.githubusercontent.com/u/27899617?v=4",
                "events_url": "https://api.github.com/users/mat-1/events{/privacy}",
                "followers_url": "https://api.github.com/users/mat-1/followers",
                "following_url": "https://api.github.com/users/mat-1/following{/other_user}",
                "gists_url": "https://api.github.com/users/mat-1/gists{/gist_id}",
                "gravatar_id": "",
                "html_url": "https://github.com/mat-1",
                "id": 27899617,
                "login": "mat-1",
                "node_id": "MDQ6VXNlcjI3ODk5NjE3",
                "organizations_url": "https://api.github.com/users/mat-1/orgs",
                "received_events_url": "https://api.github.com/users/mat-1/received_events",
                "repos_url": "https://api.github.com/users/mat-1/repos",
                "site_admin": false,
                "starred_url": "https://api.github.com/users/mat-1/starred{/owner}{/repo}",
                "subscriptions_url": "https://api.github.com/users/mat-1/subscriptions",
                "type": "User",
                "url": "https://api.github.com/users/mat-1"
            },
            "comments_url": "https://api.github.com/repos/PrismarineJS/minecraft-data/commits/317796d0195c13349aa631b385bf097a7d789ed5/comments",
            "commit": {
                "author": {
                    "date": "2021-01-18T02:42:50Z",
                    "email": "27899617+mat-1@users.noreply.github.com",
                    "name": "mat"
                },
                "comment_count": 0,
                "committer": {
                    "date": "2021-01-18T02:42:50Z",
                    "email": "27899617+mat-1@users.noreply.github.com",
                    "name": "mat"
                },
                "message": "add materials for some blocks",
                "tree": {
                    "sha": "d20768c328f6ec5196dbe59ead6d6fa3abca869f",
                    "url": "https://api.github.com/repos/PrismarineJS/minecraft-data/git/trees/d20768c328f6ec5196dbe59ead6d6fa3abca869f"
                },
                "url": "https://api.github.com/repos/PrismarineJS/minecraft-data/git/commits/317796d0195c13349aa631b385bf097a7d789ed5",
                "verification": {
                    "payload": null,
                    "reason": "unsigned",
                    "signature": null,
                    "verified": false
                }
            },
            "committer": {
                "avatar_url": "https://avatars.githubusercontent.com/u/27899617?v=4",
                "events_url": "https://api.github.com/users/mat-1/events{/privacy}",
                "followers_url": "https://api.github.com/users/mat-1/followers",
                "following_url": "https://api.github.com/users/mat-1/following{/other_user}",
                "gists_url": "https://api.github.com/users/mat-1/gists{/gist_id}",
                "gravatar_id": "",
                "html_url": "https://github.com/mat-1",
                "id": 27899617,
                "login": "mat-1",
                "node_id": "MDQ6VXNlcjI3ODk5NjE3",
                "organizations_url": "https://api.github.com/users/mat-1/orgs",
                "received_events_url": "https://api.github.com/users/mat-1/received_events",
                "repos_url": "https://api.github.com/users/mat-1/repos",
                "site_admin": false,
                "starred_url": "https://api.github.com/users/mat-1/starred{/owner}{/repo}",
                "subscriptions_url": "https://api.github.com/users/mat-1/subscriptions",
                "type": "User",
                "url": "https://api.github.com/users/mat-1"
            },
            "html_url": "https://github.com/PrismarineJS/minecraft-data/commit/317796d0195c13349aa631b385bf097a7d789ed5",
            "node_id": "MDY6Q29tbWl0MzIwOTI3MDA4OjMxNzc5NmQwMTk1YzEzMzQ5YWE2MzFiMzg1YmYwOTdhN2Q3ODllZDU=",
            "parents": [
                {
                    "html_url": "https://github.com/PrismarineJS/minecraft-data/commit/095884e998fa61138cd86cb60432c7513f3e1c5c",
                    "sha": "095884e998fa61138cd86cb60432c7513f3e1c5c",
                    "url": "https://api.github.com/repos/PrismarineJS/minecraft-data/commits/095884e998fa61138cd86cb60432c7513f3e1c5c"
                }
            ],
            "sha": "317796d0195c13349aa631b385bf097a7d789ed5",
            "url": "https://api.github.com/repos/PrismarineJS/minecraft-data/commits/317796d0195c13349aa631b385bf097a7d789ed5"
        }
    ],
    "commits": 2,
    "commits_url": "https://api.github.com/repos/PrismarineJS/minecraft-data/pulls/357/commits",
    "created_at": "2021-01-18T02:44:53Z",
    "deletions": 158,
    "diff_url": "https://github.com/PrismarineJS/minecraft-data/pull/357.diff",
    "draft": false,
    "head": {
        "label": "mat-1:master",
        "ref": "master",
        "repo": {
            "allow_forking": true,
            "archive_url": "https://api.github.com/repos/mat-1/minecraft-data/{archive_format}{/ref}",
            "archived": false,
            "assignees_url": "https://api.github.com/repos/mat-1/minecraft-data/assignees{/user}",
            "blobs_url": "https://api.github.com/repos/mat-1/minecraft-data/git/blobs{/sha}",
            "branches_url": "https://api.github.com/repos/mat-1/minecraft-data/branches{/branch}",
            "clone_url": "https://github.com/mat-1/minecraft-data.git",
            "collaborators_url": "https://api.github.com/repos/mat-1/minecraft-data/collaborators{/collaborator}",
            "comments_url": "https://api.github.com/repos/mat-1/minecraft-data/comments{/number}",
            "commits_url": "https://api.github.com/repos/mat-1/minecraft-data/commits{/sha}",
            "compare_url": "https://api.github.com/repos/mat-1/minecraft-data/compare/{base}...{head}",
            "contents_url": "https://api.github.com/repos/mat-1/minecraft-data/contents/{+path}",
            "contributors_url": "https://api.github.com/repos/mat-1/minecraft-data/contributors",
            "created_at": "2020-12-12T21:24:32Z",
            "default_branch": "master",
            "deployments_url": "https://api.github.com/repos/mat-1/minecraft-data/deployments",
            "description": "Language independent module providing minecraft data for minecraft clients, servers and libraries.",
            "disabled": false,
            "downloads_url": "https://api.github.com/repos/mat-1/minecraft-data/downloads",
            "events_url": "https://api.github.com/repos/mat-1/minecraft-data/events",
            "fork": true,
            "forks": 0,
            "forks_count": 0,
            "forks_url": "https://api.github.com/repos/mat-1/minecraft-data/forks",
            "full_name": "mat-1/minecraft-data",
            "git_commits_url": "https://api.github.com/repos/mat-1/minecraft-data/git/commits{/sha}",
            "git_refs_url": "https://api.github.com/repos/mat-1/minecraft-data/git/refs{/sha}",
            "git_tags_url": "https://api.github.com/repos/mat-1/minecraft-data/git/tags{/sha}",
            "git_url": "git://github.com/mat-1/minecraft-data.git",
            "has_discussions": false,
            "has_downloads": true,
            "has_issues": false,
            "has_pages": false,
            "has_projects": true,
            "has_wiki": true,
            "homepage": "https://minecraft-data.prismarine.js.org/",
            "hooks_url": "https://api.github.com/repos/mat-1/minecraft-data/hooks",
            "html_url": "https://github.com/mat-1/minecraft-data",
            "id": 320927008,
            "is_template": false,
            "issue_comment_url": "https://api.github.com/repos/mat-1/minecraft-data/issues/comments{/number}",
            "issue_events_url": "https://api.github.com/repos/mat-1/minecraft-data/issues/events{/number}",
            "issues_url": "https://api.github.com/repos/mat-1/minecraft-data/issues{/number}",
            "keys_url": "https://api.github.com/repos/mat-1/minecraft-data/keys{/key_id}",
            "labels_url": "https://api.github.com/repos/mat-1/minecraft-data/labels{/name}",
            "language": "JavaScript",
            "languages_url": "https://api.github.com/repos/mat-1/minecraft-data/languages",
            "license": null,
            "merges_url": "https://api.github.com/repos/mat-1/minecraft-data/merges",
            "milestones_url": "https://api.github.com/repos/mat-1/minecraft-data/milestones{/number}",
            "mirror_url": null,
            "name": "minecraft-data",
            "node_id": "MDEwOlJlcG9zaXRvcnkzMjA5MjcwMDg=",
            "notifications_url": "https://api.github.com/repos/mat-1/minecraft-data/notifications{?since,all,participating}",
            "open_issues": 0,
            "open_issues_count": 0,
            "owner": {
                "avatar_url": "https://avatars.githubusercontent.com/u/27899617?v=4",
                "events_url": "https://api.github.com/users/mat-1/events{/privacy}",
                "followers_url": "https://api.github.com/users/mat-1/followers",
                "following_url": "https://api.github.com/users/mat-1/following{/other_user}",
                "gists_url": "https://api.github.com/users/mat-1/gists{/gist_id}",
                "gravatar_id": "",
                "html_url": "https://github.com/mat-1",
                "id": 27899617,
                "login": "mat-1",
                "node_id": "MDQ6VXNlcjI3ODk5NjE3",
                "organizations_url": "https://api.github.com/users/mat-1/orgs",
                "received_events_url": "https://api.github.com/users/mat-1/received_events",
                "repos_url": "https://api.github.com/users/mat-1/repos",
                "site_admin": false,
                "starred_url": "https://api.github.com/users/mat-1/starred{/owner}{/repo}",
                "subscriptions_url": "https://api.github.com/users/mat-1/subscriptions",
                "type": "User",
                "url": "https://api.github.com/users/mat-1"
            },
            "private": false,
            "pulls_url": "https://api.github.com/repos/mat-1/minecraft-data/pulls{/number}",
            "pushed_at": "2021-01-18T02:43:10Z",
            "releases_url": "https://api.github.com/repos/mat-1/minecraft-data/releases{/id}",
            "size": 9601,
            "ssh_url": "git@github.com:mat-1/minecraft-data.git",
            "stargazers_count": 0,
            "stargazers_url": "https://api.github.com/repos/mat-1/minecraft-data/stargazers",
            "statuses_url": "https://api.github.com/repos/mat-1/minecraft-data/statuses/{sha}",
            "subscribers_url": "https://api.github.com/repos/mat-1/minecraft-data/subscribers",
            "subscription_url": "https://api.github.com/repos/mat-1/minecraft-data/subscription",
            "svn_url": "https://github.com/mat-1/minecraft-data",
            "tags_url": "https://api.github.com/repos/mat-1/minecraft-data/tags",
            "teams_url": "https://api.github.com/repos/mat-1/minecraft-data/teams",
            "topics": [],
            "trees_url": "https://api.github.com/repos/mat-1/minecraft-data/git/trees{/sha}",
            "updated_at": "2021-01-18T02:43:16Z",
            "url": "https://api.github.com/repos/mat-1/minecraft-data",
            "visibility": "public",
            "watchers": 0,
            "watchers_count": 0,
            "web_commit_signoff_required": false
        },
        "sha": "317796d0195c13349aa631b385bf097a7d789ed5",
        "user": {
            "avatar_url": "https://avatars.githubusercontent.com/u/27899617?v=4",
            "events_url": "https://api.github.com/users/mat-1/events{/privacy}",
            "followers_url": "https://api.github.com/users/mat-1/followers",
            "following_url": "https://api.github.com/users/mat-1/following{/other_user}",
            "gists_url": "https://api.github.com/users/mat-1/gists{/gist_id}",
            "gravatar_id": "",
            "html_url": "https://github.com/mat-1",
            "id": 27899617,
            "login": "mat-1",
            "node_id": "MDQ6VXNlcjI3ODk5NjE3",
            "organizations_url": "https://api.github.com/users/mat-1/orgs",
            "received_events_url": "https://api.github.com/users/mat-1/received_events",
            "repos_url": "https://api.github.com/users/mat-1/repos",
            "site_admin": false,
            "starred_url": "https://api.github.com/users/mat-1/starred{/owner}{/repo}",
            "subscriptions_url": "https://api.github.com/users/mat-1/subscriptions",
            "type": "User",
            "url": "https://api.github.com/users/mat-1"
        }
    },
    "html_url": "https://github.com/PrismarineJS/minecraft-data/pull/357",
    "id": 556472486,
    "issue_url": "https://api.github.com/repos/PrismarineJS/minecraft-data/issues/357",
    "labels": [],
    "locked": false,
    "maintainer_can_modify": false,
    "merge_commit_sha": "d503be0b8624ecb153b29954e92b6f0043bcdf9a",
    "mergeable": null,
    "mergeable_state": "unknown",
    "merged": true,
    "merged_at": "2021-01-21T07:48:08Z",
    "merged_by": {
        "avatar_url": "https://avatars.githubusercontent.com/u/2346494?v=4",
        "events_url": "https://api.github.com/users/rom1504/events{/privacy}",
        "followers_url": "https://api.github.com/users/rom1504/followers",
        "following_url": "https://api.github.com/users/rom1504/following{/other_user}",
        "gists_url": "https://api.github.com/users/rom1504/gists{/gist_id}",
        "gravatar_id": "",
        "html_url": "https://github.com/rom1504",
        "id": 2346494,
        "login": "rom1504",
        "node_id": "MDQ6VXNlcjIzNDY0OTQ=",
        "organizations_url": "https://api.github.com/users/rom1504/orgs",
        "received_events_url": "https://api.github.com/users/rom1504/received_events",
        "repos_url": "https://api.github.com/users/rom1504/repos",
        "site_admin": false,
        "starred_url": "https://api.github.com/users/rom1504/starred{/owner}{/repo}",
        "subscriptions_url": "https://api.github.com/users/rom1504/subscriptions",
        "type": "User",
        "url": "https://api.github.com/users/rom1504"
    },
    "milestone": null,
    "node_id": "MDExOlB1bGxSZXF1ZXN0NTU2NDcyNDg2",
    "number": 357,
    "patch_url": "https://github.com/PrismarineJS/minecraft-data/pull/357.patch",
    "rebaseable": null,
    "requested_reviewers": [],
    "requested_teams": [],
    "review_comment_url": "https://api.github.com/repos/PrismarineJS/minecraft-data/pulls/comments{/number}",
    "review_comments": 0,
    "review_comments_url": "https://api.github.com/repos/PrismarineJS/minecraft-data/pulls/357/comments",
    "state": "closed",
    "statuses_url": "https://api.github.com/repos/PrismarineJS/minecraft-data/statuses/317796d0195c13349aa631b385bf097a7d789ed5",
    "title": "Add missing materials",
    "updated_at": "2021-01-21T07:48:08Z",
    "url": "https://api.github.com/repos/PrismarineJS/minecraft-data/pulls/357",
    "user": {
        "avatar_url": "https://avatars.githubusercontent.com/u/27899617?v=4",
        "events_url": "https://api.github.com/users/mat-1/events{/privacy}",
        "followers_url": "https://api.github.com/users/mat-1/followers",
        "following_url": "https://api.github.com/users/mat-1/following{/other_user}",
        "gists_url": "https://api.github.com/users/mat-1/gists{/gist_id}",
        "gravatar_id": "",
        "html_url": "https://github.com/mat-1",
        "id": 27899617,
        "login": "mat-1",
        "node_id": "MDQ6VXNlcjI3ODk5NjE3",
        "organizations_url": "https://api.github.com/users/mat-1/orgs",
        "received_events_url": "https://api.github.com/users/mat-1/received_events",
        "repos_url": "https://api.github.com/users/mat-1/repos",
        "site_admin": false,
        "starred_url": "https://api.github.com/users/mat-1/starred{/owner}{/repo}",
        "subscriptions_url": "https://api.github.com/users/mat-1/subscriptions",
        "type": "User",
        "url": "https://api.github.com/users/mat-1"
    }
}