{
    "_links": {
        "comments": {
            "href": "https://api.github.com/repos/PrismarineJS/minecraft-data/issues/447/comments"
        },
        "commits": {
            "href": "https://api.github.com/repos/PrismarineJS/minecraft-data/pulls/447/commits"
        },
        "html": {
            "href": "https://github.com/PrismarineJS/minecraft-data/pull/447"
        },
        "issue": {
            "href": "https://api.github.com/repos/PrismarineJS/minecraft-data/issues/447"
        },
        "review_comment": {
            "href": "https://api.github.com/repos/PrismarineJS/minecraft-data/pulls/comments{/number}"
        },
        "review_comments": {
            "href": "https://api.github.com/repos/PrismarineJS/minecraft-data/pulls/447/comments"
        },
        "self": {
            "href": "https://api.github.com/repos/PrismarineJS/minecraft-data/pulls/447"
        },
        "statuses": {
            "href": "https://api.github.com/repos/PrismarineJS/minecraft-data/statuses/065cb9dac8a2d17352b15c8b24e6c7a3be268555"
        }
    },
    "active_lock_reason": null,
    "additions": 25131,
    "assignee": null,
    "assignees": [],
    "author_association": "MEMBER",
    "auto_merge": null,
    "base": {
        "label": "PrismarineJS:master",
        "ref": "master",
        "repo": {
            "allow_forking": true,
            "archive_url": "https://api.github.com/repos/PrismarineJS/minecraft-data/{archive_format}{/ref}",
            "archived": false,
            "assignees_url": "https://api.github.com/repos/PrismarineJS/minecraft-data/assignees{/user}",
            "blobs_url": "https://api.github.com/repos/PrismarineJS/minecraft-data/git/blobs{/sha}",
            "branches_url": "https://api.github.com/repos/PrismarineJS/minecraft-data/branches{/branch}",
            "clone_url": "https://github.com/PrismarineJS/minecraft-data.git",
            "collaborators_url": "https://api.github.com/repos/PrismarineJS/minecraft-data/collaborators{/collaborator}",
            "comments_url": "https://api.github.com/repos/PrismarineJS/minecraft-data/comments{/number}",
            "commits_url": "https://api.github.com/repos/PrismarineJS/minecraft-data/commits{/sha}",
            "compare_url": "https://api.github.com/repos/PrismarineJS/minecraft-data/compare/{base}...{head}",
            "contents_url": "https://api.github.com/repos/PrismarineJS/minecraft-data/contents/{+path}",
            "contributors_url": "https://api.github.com/repos/PrismarineJS/minecraft-data/contributors",
            "created_at": "2015-03-23T15:38:19Z",
            "default_branch": "master",
            "deployments_url": "https://api.github.com/repos/PrismarineJS/minecraft-data/deployments",
            "description": "Language independent module providing minecraft data for minecraft clients, servers and libraries.",
            "disabled": false,
            "downloads_url": "https://api.github.com/repos/PrismarineJS/minecraft-data/downloads",
            "events_url": "https://api.github.com/repos/PrismarineJS/minecraft-data/events",
            "fork": false,
            "forks": 184,
            "forks_count": 184,
            "forks_url": "https://api.github.com/repos/PrismarineJS/minecraft-data/forks",
            "full_name": "PrismarineJS/minecraft-data",
            "git_commits_url": "https://api.github.com/repos/PrismarineJS/minecraft-data/git/commits{/sha}",
            "git_refs_url": "https://api.github.com/repos/PrismarineJS/minecraft-data/git/refs{/sha}",
            "git_tags_url": "https://api.github.com/repos/PrismarineJS/minecraft-data/git/tags{/sha}",
            "git_url": "git://github.com/PrismarineJS/minecraft-data.git",
            "has_discussions": false,
            "has_downloads": true,
            "has_issues": true,
            "has_pages": true,
            "has_projects": true,
            "has_wiki": true,
            "homepage": "https://prismarinejs.github.io/minecraft-data",
            "hooks_url": "https://api.github.com/repos/PrismarineJS/minecraft-data/hooks",
            "html_url": "https://github.com/PrismarineJS/minecraft-data",
            "id": 32741498,
            "is_template": false,
            "issue_comment_url": "https://api.github.com/repos/PrismarineJS/minecraft-data/issues/comments{/number}",
            "issue_events_url": "https://api.github.com/repos/PrismarineJS/minecraft-data/issues/events{/number}",
            "issues_url": "https://api.github.com/repos/PrismarineJS/minecraft-data/issues{/number}",
            "keys_url": "https://api.github.com/repos/PrismarineJS/minecraft-data/keys{/key_id}",
            "labels_url": "https://api.github.com/repos/PrismarineJS/minecraft-data/labels{/name}",
            "language": "JavaScript",
            "languages_url": "https://api.github.com/repos/PrismarineJS/minecraft-data/languages",
            "license": null,
            "merges_url": "https://api.github.com/repos/PrismarineJS/minecraft-data/merges",
            "milestones_url": "https://api.github.com/repos/PrismarineJS/minecraft-data/milestones{/number}",
            "mirror_url": null,
            "name": "minecraft-data",
            "node_id": "MDEwOlJlcG9zaXRvcnkzMjc0MTQ5OA==",
            "notifications_url": "https://api.github.com/repos/PrismarineJS/minecraft-data/notifications{?since,all,participating}",
            "open_issues": 113,
            "open_issues_count": 113,
            "owner": {
                "avatar_url": "https://avatars.githubusercontent.com/u/11053411?v=4",
                "events_url": "https://api.github.com/users/PrismarineJS/events{/privacy}",
                "followers_url": "https://api.github.com/users/PrismarineJS/followers",
                "following_url": "https://api.github.com/users/PrismarineJS/following{/other_user}",
                "gists_url": "https://api.github.com/users/PrismarineJS/gists{/gist_id}",
                "gravatar_id": "",
                "html_url": "https://github.com/PrismarineJS",
                "id": 11053411,
                "login": "PrismarineJS",
                "node_id": "MDEyOk9yZ2FuaXphdGlvbjExMDUzNDEx",
                "organizations_url": "https://api.github.com/users/PrismarineJS/orgs",
                "received_events_url": "https://api.github.com/users/PrismarineJS/received_events",
                "repos_url": "https://api.github.com/users/PrismarineJS/repos",
                "site_admin": false,
                "starred_url": "https://api.github.com/users/PrismarineJS/starred{/owner}{/repo}",
                "subscriptions_url": "https://api.github.com/users/PrismarineJS/subscriptions",
                "type": "Organization",
                "url": "https://api.github.com/users/PrismarineJS"
            },
            "private": false,
            "pulls_url": "https://api.github.com/repos/PrismarineJS/minecraft-data/pulls{/number}",
            "pushed_at": "2023-04-08T18:30:50Z",
            "releases_url": "https://api.github.com/repos/PrismarineJS/minecraft-data/releases{/id}",
            "size": 134084,
            "ssh_url": "git@github.com:PrismarineJS/minecraft-data.git",
            "stargazers_count": 473,
            "stargazers_url": "https://api.github.com/repos/PrismarineJS/minecraft-data/stargazers",
            "statuses_url": "https://api.github.com/repos/PrismarineJS/minecraft-data/statuses/{sha}",
            "subscribers_url": "https://api.github.com/repos/PrismarineJS/minecraft-data/subscribers",
            "subscription_url": "https://api.github.com/repos/PrismarineJS/minecraft-data/subscription",
            "svn_url": "https://github.com/PrismarineJS/minecraft-data",
            "tags_url": "https://api.github.com/repos/PrismarineJS/minecraft-data/tags",
            "teams_url": "https://api.github.com/repos/PrismarineJS/minecraft-data/teams",
            "topics": [
                "data",
                "minecraft"
            ],
            "trees_url": "https://api.github.com/repos/PrismarineJS/minecraft-data/git/trees{/sha}",
            "updated_at": "2023-04-24T04:11:18Z",
            "url": "https://api.github.com/repos/PrismarineJS/minecraft-data",
            "visibility": "public",
            "watchers": 473,
            "watchers_count": 473,
            "web_commit_signoff_required": false
        },
        "sha": "bc57e07d85eb564e64fb93ddfffedaed67405243",
        "user": {
            "avatar_url": "https://avatars.githubusercontent.com/u/11053411?v=4",
            "events_url": "https://api.github.com/users/PrismarineJS/events{/privacy}",
            "followers_url": "https://api.github.com/users/PrismarineJS/followers",
            "following_url": "https://api.github.com/users/PrismarineJS/following{/other_user}",
            "gists_url": "https://api.github.com/users/PrismarineJS/gists{/gist_id}",
            "gravatar_id": "",
            "html_url": "https://github.com/PrismarineJS",
            "id": 11053411,
            "login": "PrismarineJS",
            "node_id": "MDEyOk9yZ2FuaXphdGlvbjExMDUzNDEx",
            "organizations_url": "https://api.github.com/users/PrismarineJS/orgs",
            "received_events_url": "https://api.github.com/users/PrismarineJS/received_events",
            "repos_url": "https://api.github.com/users/PrismarineJS/repos",
            "site_admin": false,
            "starred_url": "https://api.github.com/users/PrismarineJS/starred{/owner}{/repo}",
            "subscriptions_url": "https://api.github.com/users/PrismarineJS/subscriptions",
            "type": "Organization",
            "url": "https://api.github.com/users/PrismarineJS"
        }
    },
    "body": null,
    "changed_files": 2,
    "closed_at": "2021-08-11T22:32:36Z",
    "comment_data": [],
    "comment_regular_data": [],
    "comments": 0,
    "comments_url": "https://api.github.com/repos/PrismarineJS/minecraft-data/issues/447/comments",
    "commit_data": [
        {
            "author": {
                "avatar_url": "https://avatars.githubusercontent.com/u/1032552?v=4",
                "events_url": "https://api.github.com/users/nickelpro/events{/privacy}",
                "followers_url": "https://api.github.com/users/nickelpro/followers",
                "following_url": "https://api.github.com/users/nickelpro/following{/other_user}",
                "gists_url": "https://api.github.com/users/nickelpro/gists{/gist_id}",
                "gravatar_id": "",
                "html_url": "https://github.com/nickelpro",
                "id": 1032552,
                "login": "nickelpro",
                "node_id": "MDQ6VXNlcjEwMzI1NTI=",
                "organizations_url": "https://api.github.com/users/nickelpro/orgs",
                "received_events_url": "https://api.github.com/users/nickelpro/received_events",
                "repos_url": "https://api.github.com/users/nickelpro/repos",
                "site_admin": false,
                "starred_url": "https://api.github.com/users/nickelpro/starred{/owner}{/repo}",
                "subscriptions_url": "https://api.github.com/users/nickelpro/subscriptions",
                "type": "User",
                "url": "https://api.github.com/users/nickelpro"
            },
            "comments_url": "https://api.github.com/repos/PrismarineJS/minecraft-data/commits/5451d0d81e054ea6f0498b0a2ef59b54ca1446c2/comments",
            "commit": {
                "author": {
                    "date": "2021-08-11T22:13:35Z",
                    "email": "vito@gamberini.email",
                    "name": "Vito Gamberini"
                },
                "comment_count": 0,
                "committer": {
                    "date": "2021-08-11T22:15:32Z",
                    "email": "vito@gamberini.email",
                    "name": "Vito Gamberini"
                },
                "message": "Add 1.17 recipes",
                "tree": {
                    "sha": "dd461468c93515eb9587c1cf924f871d6cdd00bc",
                    "url": "https://api.github.com/repos/PrismarineJS/minecraft-data/git/trees/dd461468c93515eb9587c1cf924f871d6cdd00bc"
                },
                "url": "https://api.github.com/repos/PrismarineJS/minecraft-data/git/commits/5451d0d81e054ea6f0498b0a2ef59b54ca1446c2",
                "verification": {
                    "payload": "tree dd461468c93515eb9587c1cf924f871d6cdd00bc\nparent bc57e07d85eb564e64fb93ddfffedaed67405243\nauthor Vito Gamberini <vito@gamberini.email> 1628720015 -0400\ncommitter Vito Gamberini <vito@gamberini.email> 1628720132 -0400\n\nAdd 1.17 recipes\n",
                    "reason": "valid",
                    "signature": "-----BEGIN PGP SIGNATURE-----\n\niQIzBAABCAAdFiEE4IBGI4LySzDSIkJwiyRRJA02e98FAmEUTAQACgkQiyRRJA02\ne9/f2Q//Rg6cb+ROxC5JlfUhfOUZj69QGN9bUj0vc2meYZ7TrNYQ6yzW/WE3AlZy\nLOApVUQg8CqjbF9yCKCW2J/La1KmvjxqH+mbaXGWSbIo1He0eu0KQPLfK1uy2A7W\nC8dsawUeXVUyUKEKIvWuI+O3NDQGDBe0W3SiDVi5IbWEMBTchkR08gAcI2UZgRuJ\ndr2rHVIO3wEXrqxz0Wb1RN+NUPIcSZTRS+zfCT7GG9zt7GCaBvZX69D59wqbJmGy\n30mDtR6l+ZHm+GROQIZhN7GwsuriOn69S8NBT7mlgteJgKEh6aQjXAJqd9WYgnI7\nZXB6F7ifvqs8QgYiQBngPX11D2wxExUG9f2fz6IcUlXMSsyfgftU4gKqCZ3XmTFj\nEVZiAJvVytCJgXGp2SOVi41IP3Opp6ETuOd0KZUK3T1Qdp+UFZxI8P3I7GeQL8pv\nXFf+EEKWAmS+allA6TuVqu21/UGwcllFUjhsLnZfPmUNc/UevIcY+eVQCPWR4ST2\nz7e/k1EezGs5lmqeyI7r6Typnn7wbGLHZAPQtB/hdsJ9TKab157rr9fV9Oc2023t\nXaNp/B23asJg9EoZQ5DtWaQwNtXmQKHGbAeE5YNcvllPWDO92KwqpYFrAakjNev2\nyGEis14usx35tV3DU2dL0ig6tbWWA6gFgedA3dR+Kk8jpM8zYr4=\n=CcqW\n-----END PGP SIGNATURE-----",
                    "verified": true
                }
            },
            "committer": {
                "avatar_url": "https://avatars.githubusercontent.com/u/1032552?v=4",
                "events_url": "https://api.github.com/users/nickelpro/events{/privacy}",
                "followers_url": "https://api.github.com/users/nickelpro/followers",
                "following_url": "https://api.github.com/users/nickelpro/following{/other_user}",
                "gists_url": "https://api.github.com/users/nickelpro/gists{/gist_id}",
                "gravatar_id": "",
                "html_url": "https://github.com/nickelpro",
                "id": 1032552,
                "login": "nickelpro",
                "node_id": "MDQ6VXNlcjEwMzI1NTI=",
                "organizations_url": "https://api.github.com/users/nickelpro/orgs",
                "received_events_url": "https://api.github.com/users/nickelpro/received_events",
                "repos_url": "https://api.github.com/users/nickelpro/repos",
                "site_admin": false,
                "starred_url": "https://api.github.com/users/nickelpro/starred{/owner}{/repo}",
                "subscriptions_url": "https://api.github.com/users/nickelpro/subscriptions",
                "type": "User",
                "url": "https://api.github.com/users/nickelpro"
            },
            "html_url": "https://github.com/PrismarineJS/minecraft-data/commit/5451d0d81e054ea6f0498b0a2ef59b54ca1446c2",
            "node_id": "MDY6Q29tbWl0Mzc4Nzk1NTA5OjU0NTFkMGQ4MWUwNTRlYTZmMDQ5OGIwYTJlZjU5YjU0Y2ExNDQ2YzI=",
            "parents": [
                {
                    "html_url": "https://github.com/PrismarineJS/minecraft-data/commit/bc57e07d85eb564e64fb93ddfffedaed67405243",
                    "sha": "bc57e07d85eb564e64fb93ddfffedaed67405243",
                    "url": "https://api.github.com/repos/PrismarineJS/minecraft-data/commits/bc57e07d85eb564e64fb93ddfffedaed67405243"
                }
            ],
            "sha": "5451d0d81e054ea6f0498b0a2ef59b54ca1446c2",
            "url": "https://api.github.com/repos/PrismarineJS/minecraft-data/commits/5451d0d81e054ea6f0498b0a2ef59b54ca1446c2"
        },
        {
            "author": {
                "avatar_url": "https://avatars.githubusercontent.com/u/1032552?v=4",
                "events_url": "https://api.github.com/users/nickelpro/events{/privacy}",
                "followers_url": "https://api.github.com/users/nickelpro/followers",
                "following_url": "https://api.github.com/users/nickelpro/following{/other_user}",
                "gists_url": "https://api.github.com/users/nickelpro/gists{/gist_id}",
                "gravatar_id": "",
                "html_url": "https://github.com/nickelpro",
                "id": 1032552,
                "login": "nickelpro",
                "node_id": "MDQ6VXNlcjEwMzI1NTI=",
                "organizations_url": "https://api.github.com/users/nickelpro/orgs",
                "received_events_url": "https://api.github.com/users/nickelpro/received_events",
                "repos_url": "https://api.github.com/users/nickelpro/repos",
                "site_admin": false,
                "starred_url": "https://api.github.com/users/nickelpro/starred{/owner}{/repo}",
                "subscriptions_url": "https://api.github.com/users/nickelpro/subscriptions",
                "type": "User",
                "url": "https://api.github.com/users/nickelpro"
            },
            "comments_url": "https://api.github.com/repos/PrismarineJS/minecraft-data/commits/065cb9dac8a2d17352b15c8b24e6c7a3be268555/comments",
            "commit": {
                "author": {
                    "date": "2021-08-11T22:29:38Z",
                    "email": "vito@gamberini.email",
                    "name": "Vito Gamberini"
                },
                "comment_count": 0,
                "committer": {
                    "date": "2021-08-11T22:29:38Z",
                    "email": "vito@gamberini.email",
                    "name": "Vito Gamberini"
                },
                "message": "Flip 1.17 recipes",
                "tree": {
                    "sha": "a3efc4eb888f34017aa6f717f8a88fb49bdba7c9",
                    "url": "https://api.github.com/repos/PrismarineJS/minecraft-data/git/trees/a3efc4eb888f34017aa6f717f8a88fb49bdba7c9"
                },
                "url": "https://api.github.com/repos/PrismarineJS/minecraft-data/git/commits/065cb9dac8a2d17352b15c8b24e6c7a3be268555",
                "verification": {
                    "payload": "tree a3efc4eb888f34017aa6f717f8a88fb49bdba7c9\nparent 5451d0d81e054ea6f0498b0a2ef59b54ca1446c2\nauthor Vito Gamberini <vito@gamberini.email> 1628720978 -0400\ncommitter Vito Gamberini <vito@gamberini.email> 1628720978 -0400\n\nFlip 1.17 recipes\n",
                    "reason": "valid",
                    "signature": "-----BEGIN PGP SIGNATURE-----\n\niQIzBAABCAAdFiEE4IBGI4LySzDSIkJwiyRRJA02e98FAmEUT1IACgkQiyRRJA02\ne99RHRAAu2ImmKjo3FGFhxvltwgZfMLX14xwk1KSeoP3k61MzJvK6RnNVfohGJqL\naeZTK3+8+m74TchMAW5Ou/KCad6faPJJpcKlqZJ9czUOunt6qROnOZlZzErv6Koc\n5UDYhQWaU43FfgnvYjeFfWcUDI9VOi9aDPMRcGKnWkXrldQLJFKN+cxKDZtpcZHP\nDgsRgZJuOcAF+uM+UV9WhUZoUbYbAzJaHzx8L0X/klU8Ebhoh8nQH7/nomU6KGMK\nvfGi/hWPkrz64bMbL6kNLxNzg7tv5MgxCiPIfy/Y4hAK8azmLATG2QzuFep0GG9T\nwcJROxJFOFVh0chFrS67/F2mN5XZtFD/R23XzIPnV0HHOVd+4yZiIt2ttq2TuhqL\n5vg3hgUr4qXOMx3NW1zqCXp1CShVLrvbS5e3tVzNzahsyg52eoSC5l26dscxaMwz\nW+XYedB/f7fRcxEBYHxa45dtctBjb8uJ4B7FRH6pcyZ20CVti/7MLAOB69bgZzOa\n69C0cXCbqmUygkh9UpDg9FYBDXb2JJSMKyh5o/lAifk0PR3F35AcztoMmXATiA+U\nr4rr9f8fKFVG/vjjGrkN2Qj63YR47tB/ZEVmL4qaPPFmTp81+NMfgmNIaO2/V4vM\nXGtm2IaIIO/hLw+bul8TGnZ6V4jOyW6vufLk5tKMKcLjgoEMvPk=\n=YiJR\n-----END PGP SIGNATURE-----",
                    "verified": true
                }
            },
            "committer": {
                "avatar_url": "https://avatars.githubusercontent.com/u/1032552?v=4",
                "events_url": "https://api.github.com/users/nickelpro/events{/privacy}",
                "followers_url": "https://api.github.com/users/nickelpro/followers",
                "following_url": "https://api.github.com/users/nickelpro/following{/other_user}",
                "gists_url": "https://api.github.com/users/nickelpro/gists{/gist_id}",
                "gravatar_id": "",
                "html_url": "https://github.com/nickelpro",
                "id": 1032552,
                "login": "nickelpro",
                "node_id": "MDQ6VXNlcjEwMzI1NTI=",
                "organizations_url": "https://api.github.com/users/nickelpro/orgs",
                "received_events_url": "https://api.github.com/users/nickelpro/received_events",
                "repos_url": "https://api.github.com/users/nickelpro/repos",
                "site_admin": false,
                "starred_url": "https://api.github.com/users/nickelpro/starred{/owner}{/repo}",
                "subscriptions_url": "https://api.github.com/users/nickelpro/subscriptions",
                "type": "User",
                "url": "https://api.github.com/users/nickelpro"
            },
            "html_url": "https://github.com/PrismarineJS/minecraft-data/commit/065cb9dac8a2d17352b15c8b24e6c7a3be268555",
            "node_id": "MDY6Q29tbWl0Mzc4Nzk1NTA5OjA2NWNiOWRhYzhhMmQxNzM1MmIxNWM4YjI0ZTZjN2EzYmUyNjg1NTU=",
            "parents": [
                {
                    "html_url": "https://github.com/PrismarineJS/minecraft-data/commit/5451d0d81e054ea6f0498b0a2ef59b54ca1446c2",
                    "sha": "5451d0d81e054ea6f0498b0a2ef59b54ca1446c2",
                    "url": "https://api.github.com/repos/PrismarineJS/minecraft-data/commits/5451d0d81e054ea6f0498b0a2ef59b54ca1446c2"
                }
            ],
            "sha": "065cb9dac8a2d17352b15c8b24e6c7a3be268555",
            "url": "https://api.github.com/repos/PrismarineJS/minecraft-data/commits/065cb9dac8a2d17352b15c8b24e6c7a3be268555"
        }
    ],
    "commits": 2,
    "commits_url": "https://api.github.com/repos/PrismarineJS/minecraft-data/pulls/447/commits",
    "created_at": "2021-08-11T22:16:21Z",
    "deletions": 4,
    "diff_url": "https://github.com/PrismarineJS/minecraft-data/pull/447.diff",
    "draft": false,
    "head": {
        "label": "nickelpro:master",
        "ref": "master",
        "repo": {
            "allow_forking": true,
            "archive_url": "https://api.github.com/repos/nickelpro/minecraft-data/{archive_format}{/ref}",
            "archived": false,
            "assignees_url": "https://api.github.com/repos/nickelpro/minecraft-data/assignees{/user}",
            "blobs_url": "https://api.github.com/repos/nickelpro/minecraft-data/git/blobs{/sha}",
            "branches_url": "https://api.github.com/repos/nickelpro/minecraft-data/branches{/branch}",
            "clone_url": "https://github.com/nickelpro/minecraft-data.git",
            "collaborators_url": "https://api.github.com/repos/nickelpro/minecraft-data/collaborators{/collaborator}",
            "comments_url": "https://api.github.com/repos/nickelpro/minecraft-data/comments{/number}",
            "commits_url": "https://api.github.com/repos/nickelpro/minecraft-data/commits{/sha}",
            "compare_url": "https://api.github.com/repos/nickelpro/minecraft-data/compare/{base}...{head}",
            "contents_url": "https://api.github.com/repos/nickelpro/minecraft-data/contents/{+path}",
            "contributors_url": "https://api.github.com/repos/nickelpro/minecraft-data/contributors",
            "created_at": "2021-06-21T03:27:50Z",
            "default_branch": "master",
            "deployments_url": "https://api.github.com/repos/nickelpro/minecraft-data/deployments",
            "description": "Language independent module providing minecraft data for minecraft clients, servers and libraries.",
            "disabled": false,
            "downloads_url": "https://api.github.com/repos/nickelpro/minecraft-data/downloads",
            "events_url": "https://api.github.com/repos/nickelpro/minecraft-data/events",
            "fork": true,
            "forks": 0,
            "forks_count": 0,
            "forks_url": "https://api.github.com/repos/nickelpro/minecraft-data/forks",
            "full_name": "nickelpro/minecraft-data",
            "git_commits_url": "https://api.github.com/repos/nickelpro/minecraft-data/git/commits{/sha}",
            "git_refs_url": "https://api.github.com/repos/nickelpro/minecraft-data/git/refs{/sha}",
            "git_tags_url": "https://api.github.com/repos/nickelpro/minecraft-data/git/tags{/sha}",
            "git_url": "git://github.com/nickelpro/minecraft-data.git",
            "has_discussions": false,
            "has_downloads": true,
            "has_issues": true,
            "has_pages": false,
            "has_projects": true,
            "has_wiki": true,
            "homepage": "https://minecraft-data.prismarine.js.org/",
            "hooks_url": "https://api.github.com/repos/nickelpro/minecraft-data/hooks",
            "html_url": "https://github.com/nickelpro/minecraft-data",
            "id": 378795509,
            "is_template": false,
            "issue_comment_url": "https://api.github.com/repos/nickelpro/minecraft-data/issues/comments{/number}",
            "issue_events_url": "https://api.github.com/repos/nickelpro/minecraft-data/issues/events{/number}",
            "issues_url": "https://api.github.com/repos/nickelpro/minecraft-data/issues{/number}",
            "keys_url": "https://api.github.com/repos/nickelpro/minecraft-data/keys{/key_id}",
            "labels_url": "https://api.github.com/repos/nickelpro/minecraft-data/labels{/name}",
            "language": "JavaScript",
            "languages_url": "https://api.github.com/repos/nickelpro/minecraft-data/languages",
            "license": null,
            "merges_url": "https://api.github.com/repos/nickelpro/minecraft-data/merges",
            "milestones_url": "https://api.github.com/repos/nickelpro/minecraft-data/milestones{/number}",
            "mirror_url": null,
            "name": "minecraft-data",
            "node_id": "MDEwOlJlcG9zaXRvcnkzNzg3OTU1MDk=",
            "notifications_url": "https://api.github.com/repos/nickelpro/minecraft-data/notifications{?since,all,participating}",
            "open_issues": 0,
            "open_issues_count": 0,
            "owner": {
                "avatar_url": "https://avatars.githubusercontent.com/u/1032552?v=4",
                "events_url": "https://api.github.com/users/nickelpro/events{/privacy}",
                "followers_url": "https://api.github.com/users/nickelpro/followers",
                "following_url": "https://api.github.com/users/nickelpro/following{/other_user}",
                "gists_url": "https://api.github.com/users/nickelpro/gists{/gist_id}",
                "gravatar_id": "",
                "html_url": "https://github.com/nickelpro",
                "id": 1032552,
                "login": "nickelpro",
                "node_id": "MDQ6VXNlcjEwMzI1NTI=",
                "organizations_url": "https://api.github.com/users/nickelpro/orgs",
                "received_events_url": "https://api.github.com/users/nickelpro/received_events",
                "repos_url": "https://api.github.com/users/nickelpro/repos",
                "site_admin": false,
                "starred_url": "https://api.github.com/users/nickelpro/starred{/owner}{/repo}",
                "subscriptions_url": "https://api.github.com/users/nickelpro/subscriptions",
                "type": "User",
                "url": "https://api.github.com/users/nickelpro"
            },
            "private": false,
            "pulls_url": "https://api.github.com/repos/nickelpro/minecraft-data/pulls{/number}",
            "pushed_at": "2022-03-01T22:46:45Z",
            "releases_url": "https://api.github.com/repos/nickelpro/minecraft-data/releases{/id}",
            "size": 11607,
            "ssh_url": "git@github.com:nickelpro/minecraft-data.git",
            "stargazers_count": 0,
            "stargazers_url": "https://api.github.com/repos/nickelpro/minecraft-data/stargazers",
            "statuses_url": "https://api.github.com/repos/nickelpro/minecraft-data/statuses/{sha}",
            "subscribers_url": "https://api.github.com/repos/nickelpro/minecraft-data/subscribers",
            "subscription_url": "https://api.github.com/repos/nickelpro/minecraft-data/subscription",
            "svn_url": "https://github.com/nickelpro/minecraft-data",
            "tags_url": "https://api.github.com/repos/nickelpro/minecraft-data/tags",
            "teams_url": "https://api.github.com/repos/nickelpro/minecraft-data/teams",
            "topics": [],
            "trees_url": "https://api.github.com/repos/nickelpro/minecraft-data/git/trees{/sha}",
            "updated_at": "2022-03-01T22:20:21Z",
            "url": "https://api.github.com/repos/nickelpro/minecraft-data",
            "visibility": "public",
            "watchers": 0,
            "watchers_count": 0,
            "web_commit_signoff_required": false
        },
        "sha": "065cb9dac8a2d17352b15c8b24e6c7a3be268555",
        "user": {
            "avatar_url": "https://avatars.githubusercontent.com/u/1032552?v=4",
            "events_url": "https://api.github.com/users/nickelpro/events{/privacy}",
            "followers_url": "https://api.github.com/users/nickelpro/followers",
            "following_url": "https://api.github.com/users/nickelpro/following{/other_user}",
            "gists_url": "https://api.github.com/users/nickelpro/gists{/gist_id}",
            "gravatar_id": "",
            "html_url": "https://github.com/nickelpro",
            "id": 1032552,
            "login": "nickelpro",
            "node_id": "MDQ6VXNlcjEwMzI1NTI=",
            "organizations_url": "https://api.github.com/users/nickelpro/orgs",
            "received_events_url": "https://api.github.com/users/nickelpro/received_events",
            "repos_url": "https://api.github.com/users/nickelpro/repos",
            "site_admin": false,
            "starred_url": "https://api.github.com/users/nickelpro/starred{/owner}{/repo}",
            "subscriptions_url": "https://api.github.com/users/nickelpro/subscriptions",
            "type": "User",
            "url": "https://api.github.com/users/nickelpro"
        }
    },
    "html_url": "https://github.com/PrismarineJS/minecraft-data/pull/447",
    "id": 709725115,
    "issue_url": "https://api.github.com/repos/PrismarineJS/minecraft-data/issues/447",
    "labels": [],
    "locked": false,
    "maintainer_can_modify": false,
    "merge_commit_sha": "1a4637bf4c5ba76d09ba17641df6fbe008dcdab0",
    "mergeable": null,
    "mergeable_state": "unknown",
    "merged": true,
    "merged_at": "2021-08-11T22:32:36Z",
    "merged_by": {
        "avatar_url": "https://avatars.githubusercontent.com/u/2346494?v=4",
        "events_url": "https://api.github.com/users/rom1504/events{/privacy}",
        "followers_url": "https://api.github.com/users/rom1504/followers",
        "following_url": "https://api.github.com/users/rom1504/following{/other_user}",
        "gists_url": "https://api.github.com/users/rom1504/gists{/gist_id}",
        "gravatar_id": "",
        "html_url": "https://github.com/rom1504",
        "id": 2346494,
        "login": "rom1504",
        "node_id": "MDQ6VXNlcjIzNDY0OTQ=",
        "organizations_url": "https://api.github.com/users/rom1504/orgs",
        "received_events_url": "https://api.github.com/users/rom1504/received_events",
        "repos_url": "https://api.github.com/users/rom1504/repos",
        "site_admin": false,
        "starred_url": "https://api.github.com/users/rom1504/starred{/owner}{/repo}",
        "subscriptions_url": "https://api.github.com/users/rom1504/subscriptions",
        "type": "User",
        "url": "https://api.github.com/users/rom1504"
    },
    "milestone": null,
    "node_id": "MDExOlB1bGxSZXF1ZXN0NzA5NzI1MTE1",
    "number": 447,
    "patch_url": "https://github.com/PrismarineJS/minecraft-data/pull/447.patch",
    "rebaseable": null,
    "requested_reviewers": [],
    "requested_teams": [],
    "review_comment_url": "https://api.github.com/repos/PrismarineJS/minecraft-data/pulls/comments{/number}",
    "review_comments": 0,
    "review_comments_url": "https://api.github.com/repos/PrismarineJS/minecraft-data/pulls/447/comments",
    "state": "closed",
    "statuses_url": "https://api.github.com/repos/PrismarineJS/minecraft-data/statuses/065cb9dac8a2d17352b15c8b24e6c7a3be268555",
    "title": "Add 1.17 recipes",
    "updated_at": "2021-08-11T22:32:36Z",
    "url": "https://api.github.com/repos/PrismarineJS/minecraft-data/pulls/447",
    "user": {
        "avatar_url": "https://avatars.githubusercontent.com/u/1032552?v=4",
        "events_url": "https://api.github.com/users/nickelpro/events{/privacy}",
        "followers_url": "https://api.github.com/users/nickelpro/followers",
        "following_url": "https://api.github.com/users/nickelpro/following{/other_user}",
        "gists_url": "https://api.github.com/users/nickelpro/gists{/gist_id}",
        "gravatar_id": "",
        "html_url": "https://github.com/nickelpro",
        "id": 1032552,
        "login": "nickelpro",
        "node_id": "MDQ6VXNlcjEwMzI1NTI=",
        "organizations_url": "https://api.github.com/users/nickelpro/orgs",
        "received_events_url": "https://api.github.com/users/nickelpro/received_events",
        "repos_url": "https://api.github.com/users/nickelpro/repos",
        "site_admin": false,
        "starred_url": "https://api.github.com/users/nickelpro/starred{/owner}{/repo}",
        "subscriptions_url": "https://api.github.com/users/nickelpro/subscriptions",
        "type": "User",
        "url": "https://api.github.com/users/nickelpro"
    }
}