{
    "_links": {
        "comments": {
            "href": "https://api.github.com/repos/PrismarineJS/minecraft-data/issues/490/comments"
        },
        "commits": {
            "href": "https://api.github.com/repos/PrismarineJS/minecraft-data/pulls/490/commits"
        },
        "html": {
            "href": "https://github.com/PrismarineJS/minecraft-data/pull/490"
        },
        "issue": {
            "href": "https://api.github.com/repos/PrismarineJS/minecraft-data/issues/490"
        },
        "review_comment": {
            "href": "https://api.github.com/repos/PrismarineJS/minecraft-data/pulls/comments{/number}"
        },
        "review_comments": {
            "href": "https://api.github.com/repos/PrismarineJS/minecraft-data/pulls/490/comments"
        },
        "self": {
            "href": "https://api.github.com/repos/PrismarineJS/minecraft-data/pulls/490"
        },
        "statuses": {
            "href": "https://api.github.com/repos/PrismarineJS/minecraft-data/statuses/3d9ab7f2290502026ab7d5dce5b8419c107cddac"
        }
    },
    "active_lock_reason": null,
    "additions": 857,
    "assignee": null,
    "assignees": [],
    "author_association": "MEMBER",
    "auto_merge": null,
    "base": {
        "label": "PrismarineJS:master",
        "ref": "master",
        "repo": {
            "allow_forking": true,
            "archive_url": "https://api.github.com/repos/PrismarineJS/minecraft-data/{archive_format}{/ref}",
            "archived": false,
            "assignees_url": "https://api.github.com/repos/PrismarineJS/minecraft-data/assignees{/user}",
            "blobs_url": "https://api.github.com/repos/PrismarineJS/minecraft-data/git/blobs{/sha}",
            "branches_url": "https://api.github.com/repos/PrismarineJS/minecraft-data/branches{/branch}",
            "clone_url": "https://github.com/PrismarineJS/minecraft-data.git",
            "collaborators_url": "https://api.github.com/repos/PrismarineJS/minecraft-data/collaborators{/collaborator}",
            "comments_url": "https://api.github.com/repos/PrismarineJS/minecraft-data/comments{/number}",
            "commits_url": "https://api.github.com/repos/PrismarineJS/minecraft-data/commits{/sha}",
            "compare_url": "https://api.github.com/repos/PrismarineJS/minecraft-data/compare/{base}...{head}",
            "contents_url": "https://api.github.com/repos/PrismarineJS/minecraft-data/contents/{+path}",
            "contributors_url": "https://api.github.com/repos/PrismarineJS/minecraft-data/contributors",
            "created_at": "2015-03-23T15:38:19Z",
            "default_branch": "master",
            "deployments_url": "https://api.github.com/repos/PrismarineJS/minecraft-data/deployments",
            "description": "Language independent module providing minecraft data for minecraft clients, servers and libraries.",
            "disabled": false,
            "downloads_url": "https://api.github.com/repos/PrismarineJS/minecraft-data/downloads",
            "events_url": "https://api.github.com/repos/PrismarineJS/minecraft-data/events",
            "fork": false,
            "forks": 184,
            "forks_count": 184,
            "forks_url": "https://api.github.com/repos/PrismarineJS/minecraft-data/forks",
            "full_name": "PrismarineJS/minecraft-data",
            "git_commits_url": "https://api.github.com/repos/PrismarineJS/minecraft-data/git/commits{/sha}",
            "git_refs_url": "https://api.github.com/repos/PrismarineJS/minecraft-data/git/refs{/sha}",
            "git_tags_url": "https://api.github.com/repos/PrismarineJS/minecraft-data/git/tags{/sha}",
            "git_url": "git://github.com/PrismarineJS/minecraft-data.git",
            "has_discussions": false,
            "has_downloads": true,
            "has_issues": true,
            "has_pages": true,
            "has_projects": true,
            "has_wiki": true,
            "homepage": "https://prismarinejs.github.io/minecraft-data",
            "hooks_url": "https://api.github.com/repos/PrismarineJS/minecraft-data/hooks",
            "html_url": "https://github.com/PrismarineJS/minecraft-data",
            "id": 32741498,
            "is_template": false,
            "issue_comment_url": "https://api.github.com/repos/PrismarineJS/minecraft-data/issues/comments{/number}",
            "issue_events_url": "https://api.github.com/repos/PrismarineJS/minecraft-data/issues/events{/number}",
            "issues_url": "https://api.github.com/repos/PrismarineJS/minecraft-data/issues{/number}",
            "keys_url": "https://api.github.com/repos/PrismarineJS/minecraft-data/keys{/key_id}",
            "labels_url": "https://api.github.com/repos/PrismarineJS/minecraft-data/labels{/name}",
            "language": "JavaScript",
            "languages_url": "https://api.github.com/repos/PrismarineJS/minecraft-data/languages",
            "license": null,
            "merges_url": "https://api.github.com/repos/PrismarineJS/minecraft-data/merges",
            "milestones_url": "https://api.github.com/repos/PrismarineJS/minecraft-data/milestones{/number}",
            "mirror_url": null,
            "name": "minecraft-data",
            "node_id": "MDEwOlJlcG9zaXRvcnkzMjc0MTQ5OA==",
            "notifications_url": "https://api.github.com/repos/PrismarineJS/minecraft-data/notifications{?since,all,participating}",
            "open_issues": 113,
            "open_issues_count": 113,
            "owner": {
                "avatar_url": "https://avatars.githubusercontent.com/u/11053411?v=4",
                "events_url": "https://api.github.com/users/PrismarineJS/events{/privacy}",
                "followers_url": "https://api.github.com/users/PrismarineJS/followers",
                "following_url": "https://api.github.com/users/PrismarineJS/following{/other_user}",
                "gists_url": "https://api.github.com/users/PrismarineJS/gists{/gist_id}",
                "gravatar_id": "",
                "html_url": "https://github.com/PrismarineJS",
                "id": 11053411,
                "login": "PrismarineJS",
                "node_id": "MDEyOk9yZ2FuaXphdGlvbjExMDUzNDEx",
                "organizations_url": "https://api.github.com/users/PrismarineJS/orgs",
                "received_events_url": "https://api.github.com/users/PrismarineJS/received_events",
                "repos_url": "https://api.github.com/users/PrismarineJS/repos",
                "site_admin": false,
                "starred_url": "https://api.github.com/users/PrismarineJS/starred{/owner}{/repo}",
                "subscriptions_url": "https://api.github.com/users/PrismarineJS/subscriptions",
                "type": "Organization",
                "url": "https://api.github.com/users/PrismarineJS"
            },
            "private": false,
            "pulls_url": "https://api.github.com/repos/PrismarineJS/minecraft-data/pulls{/number}",
            "pushed_at": "2023-04-08T18:30:50Z",
            "releases_url": "https://api.github.com/repos/PrismarineJS/minecraft-data/releases{/id}",
            "size": 134084,
            "ssh_url": "git@github.com:PrismarineJS/minecraft-data.git",
            "stargazers_count": 473,
            "stargazers_url": "https://api.github.com/repos/PrismarineJS/minecraft-data/stargazers",
            "statuses_url": "https://api.github.com/repos/PrismarineJS/minecraft-data/statuses/{sha}",
            "subscribers_url": "https://api.github.com/repos/PrismarineJS/minecraft-data/subscribers",
            "subscription_url": "https://api.github.com/repos/PrismarineJS/minecraft-data/subscription",
            "svn_url": "https://github.com/PrismarineJS/minecraft-data",
            "tags_url": "https://api.github.com/repos/PrismarineJS/minecraft-data/tags",
            "teams_url": "https://api.github.com/repos/PrismarineJS/minecraft-data/teams",
            "topics": [
                "data",
                "minecraft"
            ],
            "trees_url": "https://api.github.com/repos/PrismarineJS/minecraft-data/git/trees{/sha}",
            "updated_at": "2023-04-24T04:11:18Z",
            "url": "https://api.github.com/repos/PrismarineJS/minecraft-data",
            "visibility": "public",
            "watchers": 473,
            "watchers_count": 473,
            "web_commit_signoff_required": false
        },
        "sha": "209b8bca34c7bab2f6a668d9903e98218dbbd616",
        "user": {
            "avatar_url": "https://avatars.githubusercontent.com/u/11053411?v=4",
            "events_url": "https://api.github.com/users/PrismarineJS/events{/privacy}",
            "followers_url": "https://api.github.com/users/PrismarineJS/followers",
            "following_url": "https://api.github.com/users/PrismarineJS/following{/other_user}",
            "gists_url": "https://api.github.com/users/PrismarineJS/gists{/gist_id}",
            "gravatar_id": "",
            "html_url": "https://github.com/PrismarineJS",
            "id": 11053411,
            "login": "PrismarineJS",
            "node_id": "MDEyOk9yZ2FuaXphdGlvbjExMDUzNDEx",
            "organizations_url": "https://api.github.com/users/PrismarineJS/orgs",
            "received_events_url": "https://api.github.com/users/PrismarineJS/received_events",
            "repos_url": "https://api.github.com/users/PrismarineJS/repos",
            "site_admin": false,
            "starred_url": "https://api.github.com/users/PrismarineJS/starred{/owner}{/repo}",
            "subscriptions_url": "https://api.github.com/users/PrismarineJS/subscriptions",
            "type": "Organization",
            "url": "https://api.github.com/users/PrismarineJS"
        }
    },
    "body": "Made from https://github.com/extremeheat/extracted_minecraft_data/blob/client1.18.1/client/net/minecraft/client/resources/LegacyPackResourcesAdapter.java#L721",
    "changed_files": 2,
    "closed_at": "2021-12-28T16:31:50Z",
    "comment_data": [],
    "comment_regular_data": [
        {
            "author_association": "MEMBER",
            "body": "Can you say what it is in https://github.com/PrismarineJS/minecraft-data#data ?\r\n(So we don't forget in a month what this file is)",
            "created_at": "2021-12-24T21:39:20Z",
            "html_url": "https://github.com/PrismarineJS/minecraft-data/pull/490#issuecomment-1000936245",
            "id": 1000936245,
            "issue_url": "https://api.github.com/repos/PrismarineJS/minecraft-data/issues/490",
            "node_id": "IC_kwDOAfOYes47qRM1",
            "performed_via_github_app": null,
            "reactions": {
                "+1": 0,
                "-1": 0,
                "confused": 0,
                "eyes": 0,
                "heart": 0,
                "hooray": 0,
                "laugh": 0,
                "rocket": 0,
                "total_count": 0,
                "url": "https://api.github.com/repos/PrismarineJS/minecraft-data/issues/comments/1000936245/reactions"
            },
            "updated_at": "2021-12-24T21:39:20Z",
            "url": "https://api.github.com/repos/PrismarineJS/minecraft-data/issues/comments/1000936245",
            "user": {
                "avatar_url": "https://avatars.githubusercontent.com/u/2346494?v=4",
                "events_url": "https://api.github.com/users/rom1504/events{/privacy}",
                "followers_url": "https://api.github.com/users/rom1504/followers",
                "following_url": "https://api.github.com/users/rom1504/following{/other_user}",
                "gists_url": "https://api.github.com/users/rom1504/gists{/gist_id}",
                "gravatar_id": "",
                "html_url": "https://github.com/rom1504",
                "id": 2346494,
                "login": "rom1504",
                "node_id": "MDQ6VXNlcjIzNDY0OTQ=",
                "organizations_url": "https://api.github.com/users/rom1504/orgs",
                "received_events_url": "https://api.github.com/users/rom1504/received_events",
                "repos_url": "https://api.github.com/users/rom1504/repos",
                "site_admin": false,
                "starred_url": "https://api.github.com/users/rom1504/starred{/owner}{/repo}",
                "subscriptions_url": "https://api.github.com/users/rom1504/subscriptions",
                "type": "User",
                "url": "https://api.github.com/users/rom1504"
            }
        }
    ],
    "comments": 1,
    "comments_url": "https://api.github.com/repos/PrismarineJS/minecraft-data/issues/490/comments",
    "commit_data": [
        {
            "author": {
                "avatar_url": "https://avatars.githubusercontent.com/u/43508353?v=4",
                "events_url": "https://api.github.com/users/u9g/events{/privacy}",
                "followers_url": "https://api.github.com/users/u9g/followers",
                "following_url": "https://api.github.com/users/u9g/following{/other_user}",
                "gists_url": "https://api.github.com/users/u9g/gists{/gist_id}",
                "gravatar_id": "",
                "html_url": "https://github.com/u9g",
                "id": 43508353,
                "login": "u9g",
                "node_id": "MDQ6VXNlcjQzNTA4MzUz",
                "organizations_url": "https://api.github.com/users/u9g/orgs",
                "received_events_url": "https://api.github.com/users/u9g/received_events",
                "repos_url": "https://api.github.com/users/u9g/repos",
                "site_admin": false,
                "starred_url": "https://api.github.com/users/u9g/starred{/owner}{/repo}",
                "subscriptions_url": "https://api.github.com/users/u9g/subscriptions",
                "type": "User",
                "url": "https://api.github.com/users/u9g"
            },
            "comments_url": "https://api.github.com/repos/PrismarineJS/minecraft-data/commits/eab9f2d82e57953e7b1c4e93027f23112e774f23/comments",
            "commit": {
                "author": {
                    "date": "2021-12-23T00:17:03Z",
                    "email": "43508353+u9g@users.noreply.github.com",
                    "name": "u9g"
                },
                "comment_count": 0,
                "committer": {
                    "date": "2021-12-23T00:17:03Z",
                    "email": "noreply@github.com",
                    "name": "GitHub"
                },
                "message": "Create mojang_texturepack_mappings.json",
                "tree": {
                    "sha": "274ff60d54e911138cf291d416c60ca88294cbf4",
                    "url": "https://api.github.com/repos/PrismarineJS/minecraft-data/git/trees/274ff60d54e911138cf291d416c60ca88294cbf4"
                },
                "url": "https://api.github.com/repos/PrismarineJS/minecraft-data/git/commits/eab9f2d82e57953e7b1c4e93027f23112e774f23",
                "verification": {
                    "payload": "tree 274ff60d54e911138cf291d416c60ca88294cbf4\nparent 209b8bca34c7bab2f6a668d9903e98218dbbd616\nauthor u9g <43508353+u9g@users.noreply.github.com> 1640218623 -0500\ncommitter GitHub <noreply@github.com> 1640218623 -0500\n\nCreate mojang_texturepack_mappings.json",
                    "reason": "valid",
                    "signature": "-----BEGIN PGP SIGNATURE-----\n\nwsBcBAABCAAQBQJhw8AACRBK7hj4Ov3rIwAA8TwIAApHfDV6o7dAhyY50skkW5+w\nIoLPKpAWg1WwSCPN3YCaBo0j8khhyHp9ScZOW/61+VJG75vEFFTf2R+dtw1N6A1A\nIY/lQb9bosgknOzsQ6SWriftHaGIME9YKyDBy4tknre4dEosNOets1q/rvWmYYIx\ntVVYYNMn06ZWUZBj2TlpRqOM2QlaTtLK8RYB+TudC80PbBX2eF0AMVzYa3rpDnxk\nr/3COvED9QN9xEikNHliAkDm0kBk4js5ju+BuSeUhJmWIFadVN+Kc8nR4V5k+NfZ\nqaDrQ0lElPhTKaP1vy11LJ2UGXQmqSv+j8QXm88s/VyqxmWYmurSes72hFO8Z2g=\n=oVOY\n-----END PGP SIGNATURE-----\n",
                    "verified": true
                }
            },
            "committer": {
                "avatar_url": "https://avatars.githubusercontent.com/u/19864447?v=4",
                "events_url": "https://api.github.com/users/web-flow/events{/privacy}",
                "followers_url": "https://api.github.com/users/web-flow/followers",
                "following_url": "https://api.github.com/users/web-flow/following{/other_user}",
                "gists_url": "https://api.github.com/users/web-flow/gists{/gist_id}",
                "gravatar_id": "",
                "html_url": "https://github.com/web-flow",
                "id": 19864447,
                "login": "web-flow",
                "node_id": "MDQ6VXNlcjE5ODY0NDQ3",
                "organizations_url": "https://api.github.com/users/web-flow/orgs",
                "received_events_url": "https://api.github.com/users/web-flow/received_events",
                "repos_url": "https://api.github.com/users/web-flow/repos",
                "site_admin": false,
                "starred_url": "https://api.github.com/users/web-flow/starred{/owner}{/repo}",
                "subscriptions_url": "https://api.github.com/users/web-flow/subscriptions",
                "type": "User",
                "url": "https://api.github.com/users/web-flow"
            },
            "html_url": "https://github.com/PrismarineJS/minecraft-data/commit/eab9f2d82e57953e7b1c4e93027f23112e774f23",
            "node_id": "C_kwDOAfOYetoAKGVhYjlmMmQ4MmU1Nzk1M2U3YjFjNGU5MzAyN2YyMzExMmU3NzRmMjM",
            "parents": [
                {
                    "html_url": "https://github.com/PrismarineJS/minecraft-data/commit/209b8bca34c7bab2f6a668d9903e98218dbbd616",
                    "sha": "209b8bca34c7bab2f6a668d9903e98218dbbd616",
                    "url": "https://api.github.com/repos/PrismarineJS/minecraft-data/commits/209b8bca34c7bab2f6a668d9903e98218dbbd616"
                }
            ],
            "sha": "eab9f2d82e57953e7b1c4e93027f23112e774f23",
            "url": "https://api.github.com/repos/PrismarineJS/minecraft-data/commits/eab9f2d82e57953e7b1c4e93027f23112e774f23"
        },
        {
            "author": {
                "avatar_url": "https://avatars.githubusercontent.com/u/43508353?v=4",
                "events_url": "https://api.github.com/users/u9g/events{/privacy}",
                "followers_url": "https://api.github.com/users/u9g/followers",
                "following_url": "https://api.github.com/users/u9g/following{/other_user}",
                "gists_url": "https://api.github.com/users/u9g/gists{/gist_id}",
                "gravatar_id": "",
                "html_url": "https://github.com/u9g",
                "id": 43508353,
                "login": "u9g",
                "node_id": "MDQ6VXNlcjQzNTA4MzUz",
                "organizations_url": "https://api.github.com/users/u9g/orgs",
                "received_events_url": "https://api.github.com/users/u9g/received_events",
                "repos_url": "https://api.github.com/users/u9g/repos",
                "site_admin": false,
                "starred_url": "https://api.github.com/users/u9g/starred{/owner}{/repo}",
                "subscriptions_url": "https://api.github.com/users/u9g/subscriptions",
                "type": "User",
                "url": "https://api.github.com/users/u9g"
            },
            "comments_url": "https://api.github.com/repos/PrismarineJS/minecraft-data/commits/2f5dbdb20d34904fa77e3cbbcca40f8caeb99c37/comments",
            "commit": {
                "author": {
                    "date": "2021-12-23T00:18:25Z",
                    "email": "43508353+u9g@users.noreply.github.com",
                    "name": "u9g"
                },
                "comment_count": 0,
                "committer": {
                    "date": "2021-12-23T00:18:25Z",
                    "email": "noreply@github.com",
                    "name": "GitHub"
                },
                "message": "No png endings",
                "tree": {
                    "sha": "9ea1dbadb8f3c21333ed1e1ea4d4980a3d008f8d",
                    "url": "https://api.github.com/repos/PrismarineJS/minecraft-data/git/trees/9ea1dbadb8f3c21333ed1e1ea4d4980a3d008f8d"
                },
                "url": "https://api.github.com/repos/PrismarineJS/minecraft-data/git/commits/2f5dbdb20d34904fa77e3cbbcca40f8caeb99c37",
                "verification": {
                    "payload": "tree 9ea1dbadb8f3c21333ed1e1ea4d4980a3d008f8d\nparent eab9f2d82e57953e7b1c4e93027f23112e774f23\nauthor u9g <43508353+u9g@users.noreply.github.com> 1640218705 -0500\ncommitter GitHub <noreply@github.com> 1640218705 -0500\n\nNo png endings",
                    "reason": "valid",
                    "signature": "-----BEGIN PGP SIGNATURE-----\n\nwsBcBAABCAAQBQJhw8BRCRBK7hj4Ov3rIwAAbIEIADHmmLueHd83yigcOl5MJFIy\n4D8GozzhygSZ8MUut+oqJM+zsfCEZXb3G6QcNHGDgL2/GFMQPG/HCmwMUN4s0I27\nIjUMQQYHUFCfel53os95b4QSJRPmHCxOm6ynY2HBMwo7kUUaPRk+/BBzWaoDHKQJ\nEqUtrPAQeq5oGRK3c3CKiZjS4TLCLIH0P9//9kloioJOa7ictc47ymDIq5mk7HFJ\njt+ph3vCUMHytb3edML6uY+EEqosRiHOMmyZVvviUYDs5Af2tfEdujcc1LJ99jJi\nVxfnO7lcpXTVjG124xuKOen3c3yUwp85CLn/TTgiyPFGAHQJz33T97NZtUB9Uug=\n=C6Wa\n-----END PGP SIGNATURE-----\n",
                    "verified": true
                }
            },
            "committer": {
                "avatar_url": "https://avatars.githubusercontent.com/u/19864447?v=4",
                "events_url": "https://api.github.com/users/web-flow/events{/privacy}",
                "followers_url": "https://api.github.com/users/web-flow/followers",
                "following_url": "https://api.github.com/users/web-flow/following{/other_user}",
                "gists_url": "https://api.github.com/users/web-flow/gists{/gist_id}",
                "gravatar_id": "",
                "html_url": "https://github.com/web-flow",
                "id": 19864447,
                "login": "web-flow",
                "node_id": "MDQ6VXNlcjE5ODY0NDQ3",
                "organizations_url": "https://api.github.com/users/web-flow/orgs",
                "received_events_url": "https://api.github.com/users/web-flow/received_events",
                "repos_url": "https://api.github.com/users/web-flow/repos",
                "site_admin": false,
                "starred_url": "https://api.github.com/users/web-flow/starred{/owner}{/repo}",
                "subscriptions_url": "https://api.github.com/users/web-flow/subscriptions",
                "type": "User",
                "url": "https://api.github.com/users/web-flow"
            },
            "html_url": "https://github.com/PrismarineJS/minecraft-data/commit/2f5dbdb20d34904fa77e3cbbcca40f8caeb99c37",
            "node_id": "C_kwDOAfOYetoAKDJmNWRiZGIyMGQzNDkwNGZhNzdlM2NiYmNjYTQwZjhjYWViOTljMzc",
            "parents": [
                {
                    "html_url": "https://github.com/PrismarineJS/minecraft-data/commit/eab9f2d82e57953e7b1c4e93027f23112e774f23",
                    "sha": "eab9f2d82e57953e7b1c4e93027f23112e774f23",
                    "url": "https://api.github.com/repos/PrismarineJS/minecraft-data/commits/eab9f2d82e57953e7b1c4e93027f23112e774f23"
                }
            ],
            "sha": "2f5dbdb20d34904fa77e3cbbcca40f8caeb99c37",
            "url": "https://api.github.com/repos/PrismarineJS/minecraft-data/commits/2f5dbdb20d34904fa77e3cbbcca40f8caeb99c37"
        },
        {
            "author": {
                "avatar_url": "https://avatars.githubusercontent.com/u/43508353?v=4",
                "events_url": "https://api.github.com/users/u9g/events{/privacy}",
                "followers_url": "https://api.github.com/users/u9g/followers",
                "following_url": "https://api.github.com/users/u9g/following{/other_user}",
                "gists_url": "https://api.github.com/users/u9g/gists{/gist_id}",
                "gravatar_id": "",
                "html_url": "https://github.com/u9g",
                "id": 43508353,
                "login": "u9g",
                "node_id": "MDQ6VXNlcjQzNTA4MzUz",
                "organizations_url": "https://api.github.com/users/u9g/orgs",
                "received_events_url": "https://api.github.com/users/u9g/received_events",
                "repos_url": "https://api.github.com/users/u9g/repos",
                "site_admin": false,
                "starred_url": "https://api.github.com/users/u9g/starred{/owner}{/repo}",
                "subscriptions_url": "https://api.github.com/users/u9g/subscriptions",
                "type": "User",
                "url": "https://api.github.com/users/u9g"
            },
            "comments_url": "https://api.github.com/repos/PrismarineJS/minecraft-data/commits/0bce5f62bc33c90f31ce5af6e82662740b57b792/comments",
            "commit": {
                "author": {
                    "date": "2021-12-28T04:46:55Z",
                    "email": "43508353+u9g@users.noreply.github.com",
                    "name": "u9g"
                },
                "comment_count": 0,
                "committer": {
                    "date": "2021-12-28T04:46:55Z",
                    "email": "noreply@github.com",
                    "name": "GitHub"
                },
                "message": "Update README.md",
                "tree": {
                    "sha": "330bd4579fdaf813376c1131bea62e33540db269",
                    "url": "https://api.github.com/repos/PrismarineJS/minecraft-data/git/trees/330bd4579fdaf813376c1131bea62e33540db269"
                },
                "url": "https://api.github.com/repos/PrismarineJS/minecraft-data/git/commits/0bce5f62bc33c90f31ce5af6e82662740b57b792",
                "verification": {
                    "payload": "tree 330bd4579fdaf813376c1131bea62e33540db269\nparent 2f5dbdb20d34904fa77e3cbbcca40f8caeb99c37\nauthor u9g <43508353+u9g@users.noreply.github.com> 1640666815 -0500\ncommitter GitHub <noreply@github.com> 1640666815 -0500\n\nUpdate README.md",
                    "reason": "valid",
                    "signature": "-----BEGIN PGP SIGNATURE-----\n\nwsBcBAABCAAQBQJhypbACRBK7hj4Ov3rIwAAj4gIAIf6CeV5bF33HU6PrNN0uvP/\nArT8+jqpLL0e8/tFKYmuCPuo9/my9V/mY+a9lge14fn3hvC2Lvj6dFIuzY/GD1+M\npQx1FHS3z1thITSDiugoWxZvqHuCeg/1EhE4n+xPLcEpHmkpsbzt+lc9Q+cGXoKU\nKvSwOYRLCqSBxa0AAbHDGyNFZcRxy/hT3TaCGpC1mku12YQmOc8+Oj3YcJ5a4ZJl\nJQG+F4CC8cX8wwRzvGuE9TcINHqd/wEcx/8nMW/lf8WzsaUdTny+IldF+fBzm2km\n/CyrUM+HDksCv+1iFnFg5lPWLhMOs3xvt9xY0Ip57m8vZQP0HXDHsYb6DexuUE8=\n=Exor\n-----END PGP SIGNATURE-----\n",
                    "verified": true
                }
            },
            "committer": {
                "avatar_url": "https://avatars.githubusercontent.com/u/19864447?v=4",
                "events_url": "https://api.github.com/users/web-flow/events{/privacy}",
                "followers_url": "https://api.github.com/users/web-flow/followers",
                "following_url": "https://api.github.com/users/web-flow/following{/other_user}",
                "gists_url": "https://api.github.com/users/web-flow/gists{/gist_id}",
                "gravatar_id": "",
                "html_url": "https://github.com/web-flow",
                "id": 19864447,
                "login": "web-flow",
                "node_id": "MDQ6VXNlcjE5ODY0NDQ3",
                "organizations_url": "https://api.github.com/users/web-flow/orgs",
                "received_events_url": "https://api.github.com/users/web-flow/received_events",
                "repos_url": "https://api.github.com/users/web-flow/repos",
                "site_admin": false,
                "starred_url": "https://api.github.com/users/web-flow/starred{/owner}{/repo}",
                "subscriptions_url": "https://api.github.com/users/web-flow/subscriptions",
                "type": "User",
                "url": "https://api.github.com/users/web-flow"
            },
            "html_url": "https://github.com/PrismarineJS/minecraft-data/commit/0bce5f62bc33c90f31ce5af6e82662740b57b792",
            "node_id": "C_kwDOAfOYetoAKDBiY2U1ZjYyYmMzM2M5MGYzMWNlNWFmNmU4MjY2Mjc0MGI1N2I3OTI",
            "parents": [
                {
                    "html_url": "https://github.com/PrismarineJS/minecraft-data/commit/2f5dbdb20d34904fa77e3cbbcca40f8caeb99c37",
                    "sha": "2f5dbdb20d34904fa77e3cbbcca40f8caeb99c37",
                    "url": "https://api.github.com/repos/PrismarineJS/minecraft-data/commits/2f5dbdb20d34904fa77e3cbbcca40f8caeb99c37"
                }
            ],
            "sha": "0bce5f62bc33c90f31ce5af6e82662740b57b792",
            "url": "https://api.github.com/repos/PrismarineJS/minecraft-data/commits/0bce5f62bc33c90f31ce5af6e82662740b57b792"
        },
        {
            "author": {
                "avatar_url": "https://avatars.githubusercontent.com/u/43508353?v=4",
                "events_url": "https://api.github.com/users/u9g/events{/privacy}",
                "followers_url": "https://api.github.com/users/u9g/followers",
                "following_url": "https://api.github.com/users/u9g/following{/other_user}",
                "gists_url": "https://api.github.com/users/u9g/gists{/gist_id}",
                "gravatar_id": "",
                "html_url": "https://github.com/u9g",
                "id": 43508353,
                "login": "u9g",
                "node_id": "MDQ6VXNlcjQzNTA4MzUz",
                "organizations_url": "https://api.github.com/users/u9g/orgs",
                "received_events_url": "https://api.github.com/users/u9g/received_events",
                "repos_url": "https://api.github.com/users/u9g/repos",
                "site_admin": false,
                "starred_url": "https://api.github.com/users/u9g/starred{/owner}{/repo}",
                "subscriptions_url": "https://api.github.com/users/u9g/subscriptions",
                "type": "User",
                "url": "https://api.github.com/users/u9g"
            },
            "comments_url": "https://api.github.com/repos/PrismarineJS/minecraft-data/commits/3d9ab7f2290502026ab7d5dce5b8419c107cddac/comments",
            "commit": {
                "author": {
                    "date": "2021-12-28T04:47:14Z",
                    "email": "43508353+u9g@users.noreply.github.com",
                    "name": "u9g"
                },
                "comment_count": 0,
                "committer": {
                    "date": "2021-12-28T04:47:14Z",
                    "email": "noreply@github.com",
                    "name": "GitHub"
                },
                "message": "Rename mojang_texturepack_mappings.json to pre_flattening_texturepack_mappings.json",
                "tree": {
                    "sha": "f2aff0ad3ff5b3208538189fe0aaa52d42216b84",
                    "url": "https://api.github.com/repos/PrismarineJS/minecraft-data/git/trees/f2aff0ad3ff5b3208538189fe0aaa52d42216b84"
                },
                "url": "https://api.github.com/repos/PrismarineJS/minecraft-data/git/commits/3d9ab7f2290502026ab7d5dce5b8419c107cddac",
                "verification": {
                    "payload": "tree f2aff0ad3ff5b3208538189fe0aaa52d42216b84\nparent 0bce5f62bc33c90f31ce5af6e82662740b57b792\nauthor u9g <43508353+u9g@users.noreply.github.com> 1640666834 -0500\ncommitter GitHub <noreply@github.com> 1640666834 -0500\n\nRename mojang_texturepack_mappings.json to pre_flattening_texturepack_mappings.json",
                    "reason": "valid",
                    "signature": "-----BEGIN PGP SIGNATURE-----\n\nwsBcBAABCAAQBQJhypbSCRBK7hj4Ov3rIwAAQYsIALAh7vJsvtB/qQWfYxjxDxf+\n/H6OTb+KuDHB1f30tHpUjC5eZ9RFbvD4dO0DRsHc6UHHhmS1NxB90BW7YxgHQrPi\nlXrnIOe5S9DGawWyF+Klf4lS7/ZtedaEBENRiNRN+BbFIk++ogMNuleWadKPR+kz\na5n0ulpwqxQeOyQtFBCDsLOEVuGAFWJNOM164M41I5O6xdi4NT10bMRM9EhkXLyd\n3QYh8LFc2xveLOW/r0VsxJehY4Jr5HkXF17FmJYM6sAsaiEq8xSkQNSEmOu+MDbz\n0fzbVqfjUfTgPvr0kUdiScr0yRq+c17RoPKEVvnqxdbLa2XEVSVYcVPlBruAvZw=\n=+DBz\n-----END PGP SIGNATURE-----\n",
                    "verified": true
                }
            },
            "committer": {
                "avatar_url": "https://avatars.githubusercontent.com/u/19864447?v=4",
                "events_url": "https://api.github.com/users/web-flow/events{/privacy}",
                "followers_url": "https://api.github.com/users/web-flow/followers",
                "following_url": "https://api.github.com/users/web-flow/following{/other_user}",
                "gists_url": "https://api.github.com/users/web-flow/gists{/gist_id}",
                "gravatar_id": "",
                "html_url": "https://github.com/web-flow",
                "id": 19864447,
                "login": "web-flow",
                "node_id": "MDQ6VXNlcjE5ODY0NDQ3",
                "organizations_url": "https://api.github.com/users/web-flow/orgs",
                "received_events_url": "https://api.github.com/users/web-flow/received_events",
                "repos_url": "https://api.github.com/users/web-flow/repos",
                "site_admin": false,
                "starred_url": "https://api.github.com/users/web-flow/starred{/owner}{/repo}",
                "subscriptions_url": "https://api.github.com/users/web-flow/subscriptions",
                "type": "User",
                "url": "https://api.github.com/users/web-flow"
            },
            "html_url": "https://github.com/PrismarineJS/minecraft-data/commit/3d9ab7f2290502026ab7d5dce5b8419c107cddac",
            "node_id": "C_kwDOAfOYetoAKDNkOWFiN2YyMjkwNTAyMDI2YWI3ZDVkY2U1Yjg0MTljMTA3Y2RkYWM",
            "parents": [
                {
                    "html_url": "https://github.com/PrismarineJS/minecraft-data/commit/0bce5f62bc33c90f31ce5af6e82662740b57b792",
                    "sha": "0bce5f62bc33c90f31ce5af6e82662740b57b792",
                    "url": "https://api.github.com/repos/PrismarineJS/minecraft-data/commits/0bce5f62bc33c90f31ce5af6e82662740b57b792"
                }
            ],
            "sha": "3d9ab7f2290502026ab7d5dce5b8419c107cddac",
            "url": "https://api.github.com/repos/PrismarineJS/minecraft-data/commits/3d9ab7f2290502026ab7d5dce5b8419c107cddac"
        }
    ],
    "commits": 4,
    "commits_url": "https://api.github.com/repos/PrismarineJS/minecraft-data/pulls/490/commits",
    "created_at": "2021-12-23T00:17:15Z",
    "deletions": 0,
    "diff_url": "https://github.com/PrismarineJS/minecraft-data/pull/490.diff",
    "draft": false,
    "head": {
        "label": "PrismarineJS:make-moj-textures-map",
        "ref": "make-moj-textures-map",
        "repo": {
            "allow_forking": true,
            "archive_url": "https://api.github.com/repos/PrismarineJS/minecraft-data/{archive_format}{/ref}",
            "archived": false,
            "assignees_url": "https://api.github.com/repos/PrismarineJS/minecraft-data/assignees{/user}",
            "blobs_url": "https://api.github.com/repos/PrismarineJS/minecraft-data/git/blobs{/sha}",
            "branches_url": "https://api.github.com/repos/PrismarineJS/minecraft-data/branches{/branch}",
            "clone_url": "https://github.com/PrismarineJS/minecraft-data.git",
            "collaborators_url": "https://api.github.com/repos/PrismarineJS/minecraft-data/collaborators{/collaborator}",
            "comments_url": "https://api.github.com/repos/PrismarineJS/minecraft-data/comments{/number}",
            "commits_url": "https://api.github.com/repos/PrismarineJS/minecraft-data/commits{/sha}",
            "compare_url": "https://api.github.com/repos/PrismarineJS/minecraft-data/compare/{base}...{head}",
            "contents_url": "https://api.github.com/repos/PrismarineJS/minecraft-data/contents/{+path}",
            "contributors_url": "https://api.github.com/repos/PrismarineJS/minecraft-data/contributors",
            "created_at": "2015-03-23T15:38:19Z",
            "default_branch": "master",
            "deployments_url": "https://api.github.com/repos/PrismarineJS/minecraft-data/deployments",
            "description": "Language independent module providing minecraft data for minecraft clients, servers and libraries.",
            "disabled": false,
            "downloads_url": "https://api.github.com/repos/PrismarineJS/minecraft-data/downloads",
            "events_url": "https://api.github.com/repos/PrismarineJS/minecraft-data/events",
            "fork": false,
            "forks": 184,
            "forks_count": 184,
            "forks_url": "https://api.github.com/repos/PrismarineJS/minecraft-data/forks",
            "full_name": "PrismarineJS/minecraft-data",
            "git_commits_url": "https://api.github.com/repos/PrismarineJS/minecraft-data/git/commits{/sha}",
            "git_refs_url": "https://api.github.com/repos/PrismarineJS/minecraft-data/git/refs{/sha}",
            "git_tags_url": "https://api.github.com/repos/PrismarineJS/minecraft-data/git/tags{/sha}",
            "git_url": "git://github.com/PrismarineJS/minecraft-data.git",
            "has_discussions": false,
            "has_downloads": true,
            "has_issues": true,
            "has_pages": true,
            "has_projects": true,
            "has_wiki": true,
            "homepage": "https://prismarinejs.github.io/minecraft-data",
            "hooks_url": "https://api.github.com/repos/PrismarineJS/minecraft-data/hooks",
            "html_url": "https://github.com/PrismarineJS/minecraft-data",
            "id": 32741498,
            "is_template": false,
            "issue_comment_url": "https://api.github.com/repos/PrismarineJS/minecraft-data/issues/comments{/number}",
            "issue_events_url": "https://api.github.com/repos/PrismarineJS/minecraft-data/issues/events{/number}",
            "issues_url": "https://api.github.com/repos/PrismarineJS/minecraft-data/issues{/number}",
            "keys_url": "https://api.github.com/repos/PrismarineJS/minecraft-data/keys{/key_id}",
            "labels_url": "https://api.github.com/repos/PrismarineJS/minecraft-data/labels{/name}",
            "language": "JavaScript",
            "languages_url": "https://api.github.com/repos/PrismarineJS/minecraft-data/languages",
            "license": null,
            "merges_url": "https://api.github.com/repos/PrismarineJS/minecraft-data/merges",
            "milestones_url": "https://api.github.com/repos/PrismarineJS/minecraft-data/milestones{/number}",
            "mirror_url": null,
            "name": "minecraft-data",
            "node_id": "MDEwOlJlcG9zaXRvcnkzMjc0MTQ5OA==",
            "notifications_url": "https://api.github.com/repos/PrismarineJS/minecraft-data/notifications{?since,all,participating}",
            "open_issues": 113,
            "open_issues_count": 113,
            "owner": {
                "avatar_url": "https://avatars.githubusercontent.com/u/11053411?v=4",
                "events_url": "https://api.github.com/users/PrismarineJS/events{/privacy}",
                "followers_url": "https://api.github.com/users/PrismarineJS/followers",
                "following_url": "https://api.github.com/users/PrismarineJS/following{/other_user}",
                "gists_url": "https://api.github.com/users/PrismarineJS/gists{/gist_id}",
                "gravatar_id": "",
                "html_url": "https://github.com/PrismarineJS",
                "id": 11053411,
                "login": "PrismarineJS",
                "node_id": "MDEyOk9yZ2FuaXphdGlvbjExMDUzNDEx",
                "organizations_url": "https://api.github.com/users/PrismarineJS/orgs",
                "received_events_url": "https://api.github.com/users/PrismarineJS/received_events",
                "repos_url": "https://api.github.com/users/PrismarineJS/repos",
                "site_admin": false,
                "starred_url": "https://api.github.com/users/PrismarineJS/starred{/owner}{/repo}",
                "subscriptions_url": "https://api.github.com/users/PrismarineJS/subscriptions",
                "type": "Organization",
                "url": "https://api.github.com/users/PrismarineJS"
            },
            "private": false,
            "pulls_url": "https://api.github.com/repos/PrismarineJS/minecraft-data/pulls{/number}",
            "pushed_at": "2023-04-08T18:30:50Z",
            "releases_url": "https://api.github.com/repos/PrismarineJS/minecraft-data/releases{/id}",
            "size": 134084,
            "ssh_url": "git@github.com:PrismarineJS/minecraft-data.git",
            "stargazers_count": 473,
            "stargazers_url": "https://api.github.com/repos/PrismarineJS/minecraft-data/stargazers",
            "statuses_url": "https://api.github.com/repos/PrismarineJS/minecraft-data/statuses/{sha}",
            "subscribers_url": "https://api.github.com/repos/PrismarineJS/minecraft-data/subscribers",
            "subscription_url": "https://api.github.com/repos/PrismarineJS/minecraft-data/subscription",
            "svn_url": "https://github.com/PrismarineJS/minecraft-data",
            "tags_url": "https://api.github.com/repos/PrismarineJS/minecraft-data/tags",
            "teams_url": "https://api.github.com/repos/PrismarineJS/minecraft-data/teams",
            "topics": [
                "data",
                "minecraft"
            ],
            "trees_url": "https://api.github.com/repos/PrismarineJS/minecraft-data/git/trees{/sha}",
            "updated_at": "2023-04-24T04:11:18Z",
            "url": "https://api.github.com/repos/PrismarineJS/minecraft-data",
            "visibility": "public",
            "watchers": 473,
            "watchers_count": 473,
            "web_commit_signoff_required": false
        },
        "sha": "3d9ab7f2290502026ab7d5dce5b8419c107cddac",
        "user": {
            "avatar_url": "https://avatars.githubusercontent.com/u/11053411?v=4",
            "events_url": "https://api.github.com/users/PrismarineJS/events{/privacy}",
            "followers_url": "https://api.github.com/users/PrismarineJS/followers",
            "following_url": "https://api.github.com/users/PrismarineJS/following{/other_user}",
            "gists_url": "https://api.github.com/users/PrismarineJS/gists{/gist_id}",
            "gravatar_id": "",
            "html_url": "https://github.com/PrismarineJS",
            "id": 11053411,
            "login": "PrismarineJS",
            "node_id": "MDEyOk9yZ2FuaXphdGlvbjExMDUzNDEx",
            "organizations_url": "https://api.github.com/users/PrismarineJS/orgs",
            "received_events_url": "https://api.github.com/users/PrismarineJS/received_events",
            "repos_url": "https://api.github.com/users/PrismarineJS/repos",
            "site_admin": false,
            "starred_url": "https://api.github.com/users/PrismarineJS/starred{/owner}{/repo}",
            "subscriptions_url": "https://api.github.com/users/PrismarineJS/subscriptions",
            "type": "Organization",
            "url": "https://api.github.com/users/PrismarineJS"
        }
    },
    "html_url": "https://github.com/PrismarineJS/minecraft-data/pull/490",
    "id": 808784326,
    "issue_url": "https://api.github.com/repos/PrismarineJS/minecraft-data/issues/490",
    "labels": [],
    "locked": false,
    "maintainer_can_modify": false,
    "merge_commit_sha": "204f2e19dee984604b6b7f1fecad335b4493e066",
    "mergeable": null,
    "mergeable_state": "unknown",
    "merged": true,
    "merged_at": "2021-12-28T16:31:50Z",
    "merged_by": {
        "avatar_url": "https://avatars.githubusercontent.com/u/2346494?v=4",
        "events_url": "https://api.github.com/users/rom1504/events{/privacy}",
        "followers_url": "https://api.github.com/users/rom1504/followers",
        "following_url": "https://api.github.com/users/rom1504/following{/other_user}",
        "gists_url": "https://api.github.com/users/rom1504/gists{/gist_id}",
        "gravatar_id": "",
        "html_url": "https://github.com/rom1504",
        "id": 2346494,
        "login": "rom1504",
        "node_id": "MDQ6VXNlcjIzNDY0OTQ=",
        "organizations_url": "https://api.github.com/users/rom1504/orgs",
        "received_events_url": "https://api.github.com/users/rom1504/received_events",
        "repos_url": "https://api.github.com/users/rom1504/repos",
        "site_admin": false,
        "starred_url": "https://api.github.com/users/rom1504/starred{/owner}{/repo}",
        "subscriptions_url": "https://api.github.com/users/rom1504/subscriptions",
        "type": "User",
        "url": "https://api.github.com/users/rom1504"
    },
    "milestone": null,
    "node_id": "PR_kwDOAfOYes4wNRHG",
    "number": 490,
    "patch_url": "https://github.com/PrismarineJS/minecraft-data/pull/490.patch",
    "rebaseable": null,
    "requested_reviewers": [],
    "requested_teams": [],
    "review_comment_url": "https://api.github.com/repos/PrismarineJS/minecraft-data/pulls/comments{/number}",
    "review_comments": 0,
    "review_comments_url": "https://api.github.com/repos/PrismarineJS/minecraft-data/pulls/490/comments",
    "state": "closed",
    "statuses_url": "https://api.github.com/repos/PrismarineJS/minecraft-data/statuses/3d9ab7f2290502026ab7d5dce5b8419c107cddac",
    "title": "Create pre_flattening_texturepack_mappings.json",
    "updated_at": "2021-12-30T21:35:52Z",
    "url": "https://api.github.com/repos/PrismarineJS/minecraft-data/pulls/490",
    "user": {
        "avatar_url": "https://avatars.githubusercontent.com/u/43508353?v=4",
        "events_url": "https://api.github.com/users/u9g/events{/privacy}",
        "followers_url": "https://api.github.com/users/u9g/followers",
        "following_url": "https://api.github.com/users/u9g/following{/other_user}",
        "gists_url": "https://api.github.com/users/u9g/gists{/gist_id}",
        "gravatar_id": "",
        "html_url": "https://github.com/u9g",
        "id": 43508353,
        "login": "u9g",
        "node_id": "MDQ6VXNlcjQzNTA4MzUz",
        "organizations_url": "https://api.github.com/users/u9g/orgs",
        "received_events_url": "https://api.github.com/users/u9g/received_events",
        "repos_url": "https://api.github.com/users/u9g/repos",
        "site_admin": false,
        "starred_url": "https://api.github.com/users/u9g/starred{/owner}{/repo}",
        "subscriptions_url": "https://api.github.com/users/u9g/subscriptions",
        "type": "User",
        "url": "https://api.github.com/users/u9g"
    }
}