{
    "_links": {
        "comments": {
            "href": "https://api.github.com/repos/PrismarineJS/minecraft-data/issues/526/comments"
        },
        "commits": {
            "href": "https://api.github.com/repos/PrismarineJS/minecraft-data/pulls/526/commits"
        },
        "html": {
            "href": "https://github.com/PrismarineJS/minecraft-data/pull/526"
        },
        "issue": {
            "href": "https://api.github.com/repos/PrismarineJS/minecraft-data/issues/526"
        },
        "review_comment": {
            "href": "https://api.github.com/repos/PrismarineJS/minecraft-data/pulls/comments{/number}"
        },
        "review_comments": {
            "href": "https://api.github.com/repos/PrismarineJS/minecraft-data/pulls/526/comments"
        },
        "self": {
            "href": "https://api.github.com/repos/PrismarineJS/minecraft-data/pulls/526"
        },
        "statuses": {
            "href": "https://api.github.com/repos/PrismarineJS/minecraft-data/statuses/791f6074703418c40dbb807ac63da5521d5a5d50"
        }
    },
    "active_lock_reason": null,
    "additions": 77,
    "assignee": null,
    "assignees": [],
    "author_association": "MEMBER",
    "auto_merge": null,
    "base": {
        "label": "PrismarineJS:master",
        "ref": "master",
        "repo": {
            "allow_forking": true,
            "archive_url": "https://api.github.com/repos/PrismarineJS/minecraft-data/{archive_format}{/ref}",
            "archived": false,
            "assignees_url": "https://api.github.com/repos/PrismarineJS/minecraft-data/assignees{/user}",
            "blobs_url": "https://api.github.com/repos/PrismarineJS/minecraft-data/git/blobs{/sha}",
            "branches_url": "https://api.github.com/repos/PrismarineJS/minecraft-data/branches{/branch}",
            "clone_url": "https://github.com/PrismarineJS/minecraft-data.git",
            "collaborators_url": "https://api.github.com/repos/PrismarineJS/minecraft-data/collaborators{/collaborator}",
            "comments_url": "https://api.github.com/repos/PrismarineJS/minecraft-data/comments{/number}",
            "commits_url": "https://api.github.com/repos/PrismarineJS/minecraft-data/commits{/sha}",
            "compare_url": "https://api.github.com/repos/PrismarineJS/minecraft-data/compare/{base}...{head}",
            "contents_url": "https://api.github.com/repos/PrismarineJS/minecraft-data/contents/{+path}",
            "contributors_url": "https://api.github.com/repos/PrismarineJS/minecraft-data/contributors",
            "created_at": "2015-03-23T15:38:19Z",
            "default_branch": "master",
            "deployments_url": "https://api.github.com/repos/PrismarineJS/minecraft-data/deployments",
            "description": "Language independent module providing minecraft data for minecraft clients, servers and libraries.",
            "disabled": false,
            "downloads_url": "https://api.github.com/repos/PrismarineJS/minecraft-data/downloads",
            "events_url": "https://api.github.com/repos/PrismarineJS/minecraft-data/events",
            "fork": false,
            "forks": 184,
            "forks_count": 184,
            "forks_url": "https://api.github.com/repos/PrismarineJS/minecraft-data/forks",
            "full_name": "PrismarineJS/minecraft-data",
            "git_commits_url": "https://api.github.com/repos/PrismarineJS/minecraft-data/git/commits{/sha}",
            "git_refs_url": "https://api.github.com/repos/PrismarineJS/minecraft-data/git/refs{/sha}",
            "git_tags_url": "https://api.github.com/repos/PrismarineJS/minecraft-data/git/tags{/sha}",
            "git_url": "git://github.com/PrismarineJS/minecraft-data.git",
            "has_discussions": false,
            "has_downloads": true,
            "has_issues": true,
            "has_pages": true,
            "has_projects": true,
            "has_wiki": true,
            "homepage": "https://prismarinejs.github.io/minecraft-data",
            "hooks_url": "https://api.github.com/repos/PrismarineJS/minecraft-data/hooks",
            "html_url": "https://github.com/PrismarineJS/minecraft-data",
            "id": 32741498,
            "is_template": false,
            "issue_comment_url": "https://api.github.com/repos/PrismarineJS/minecraft-data/issues/comments{/number}",
            "issue_events_url": "https://api.github.com/repos/PrismarineJS/minecraft-data/issues/events{/number}",
            "issues_url": "https://api.github.com/repos/PrismarineJS/minecraft-data/issues{/number}",
            "keys_url": "https://api.github.com/repos/PrismarineJS/minecraft-data/keys{/key_id}",
            "labels_url": "https://api.github.com/repos/PrismarineJS/minecraft-data/labels{/name}",
            "language": "JavaScript",
            "languages_url": "https://api.github.com/repos/PrismarineJS/minecraft-data/languages",
            "license": null,
            "merges_url": "https://api.github.com/repos/PrismarineJS/minecraft-data/merges",
            "milestones_url": "https://api.github.com/repos/PrismarineJS/minecraft-data/milestones{/number}",
            "mirror_url": null,
            "name": "minecraft-data",
            "node_id": "MDEwOlJlcG9zaXRvcnkzMjc0MTQ5OA==",
            "notifications_url": "https://api.github.com/repos/PrismarineJS/minecraft-data/notifications{?since,all,participating}",
            "open_issues": 113,
            "open_issues_count": 113,
            "owner": {
                "avatar_url": "https://avatars.githubusercontent.com/u/11053411?v=4",
                "events_url": "https://api.github.com/users/PrismarineJS/events{/privacy}",
                "followers_url": "https://api.github.com/users/PrismarineJS/followers",
                "following_url": "https://api.github.com/users/PrismarineJS/following{/other_user}",
                "gists_url": "https://api.github.com/users/PrismarineJS/gists{/gist_id}",
                "gravatar_id": "",
                "html_url": "https://github.com/PrismarineJS",
                "id": 11053411,
                "login": "PrismarineJS",
                "node_id": "MDEyOk9yZ2FuaXphdGlvbjExMDUzNDEx",
                "organizations_url": "https://api.github.com/users/PrismarineJS/orgs",
                "received_events_url": "https://api.github.com/users/PrismarineJS/received_events",
                "repos_url": "https://api.github.com/users/PrismarineJS/repos",
                "site_admin": false,
                "starred_url": "https://api.github.com/users/PrismarineJS/starred{/owner}{/repo}",
                "subscriptions_url": "https://api.github.com/users/PrismarineJS/subscriptions",
                "type": "Organization",
                "url": "https://api.github.com/users/PrismarineJS"
            },
            "private": false,
            "pulls_url": "https://api.github.com/repos/PrismarineJS/minecraft-data/pulls{/number}",
            "pushed_at": "2023-04-08T18:30:50Z",
            "releases_url": "https://api.github.com/repos/PrismarineJS/minecraft-data/releases{/id}",
            "size": 134084,
            "ssh_url": "git@github.com:PrismarineJS/minecraft-data.git",
            "stargazers_count": 473,
            "stargazers_url": "https://api.github.com/repos/PrismarineJS/minecraft-data/stargazers",
            "statuses_url": "https://api.github.com/repos/PrismarineJS/minecraft-data/statuses/{sha}",
            "subscribers_url": "https://api.github.com/repos/PrismarineJS/minecraft-data/subscribers",
            "subscription_url": "https://api.github.com/repos/PrismarineJS/minecraft-data/subscription",
            "svn_url": "https://github.com/PrismarineJS/minecraft-data",
            "tags_url": "https://api.github.com/repos/PrismarineJS/minecraft-data/tags",
            "teams_url": "https://api.github.com/repos/PrismarineJS/minecraft-data/teams",
            "topics": [
                "data",
                "minecraft"
            ],
            "trees_url": "https://api.github.com/repos/PrismarineJS/minecraft-data/git/trees{/sha}",
            "updated_at": "2023-04-24T04:11:18Z",
            "url": "https://api.github.com/repos/PrismarineJS/minecraft-data",
            "visibility": "public",
            "watchers": 473,
            "watchers_count": 473,
            "web_commit_signoff_required": false
        },
        "sha": "de83086bd95daa0eba615a02bccdd2cfa27ce37e",
        "user": {
            "avatar_url": "https://avatars.githubusercontent.com/u/11053411?v=4",
            "events_url": "https://api.github.com/users/PrismarineJS/events{/privacy}",
            "followers_url": "https://api.github.com/users/PrismarineJS/followers",
            "following_url": "https://api.github.com/users/PrismarineJS/following{/other_user}",
            "gists_url": "https://api.github.com/users/PrismarineJS/gists{/gist_id}",
            "gravatar_id": "",
            "html_url": "https://github.com/PrismarineJS",
            "id": 11053411,
            "login": "PrismarineJS",
            "node_id": "MDEyOk9yZ2FuaXphdGlvbjExMDUzNDEx",
            "organizations_url": "https://api.github.com/users/PrismarineJS/orgs",
            "received_events_url": "https://api.github.com/users/PrismarineJS/received_events",
            "repos_url": "https://api.github.com/users/PrismarineJS/repos",
            "site_admin": false,
            "starred_url": "https://api.github.com/users/PrismarineJS/starred{/owner}{/repo}",
            "subscriptions_url": "https://api.github.com/users/PrismarineJS/subscriptions",
            "type": "Organization",
            "url": "https://api.github.com/users/PrismarineJS"
        }
    },
    "body": null,
    "changed_files": 2,
    "closed_at": "2022-03-09T17:55:38Z",
    "comment_data": [
        {
            "_links": {
                "html": {
                    "href": "https://github.com/PrismarineJS/minecraft-data/pull/526#discussion_r822286747"
                },
                "pull_request": {
                    "href": "https://api.github.com/repos/PrismarineJS/minecraft-data/pulls/526"
                },
                "self": {
                    "href": "https://api.github.com/repos/PrismarineJS/minecraft-data/pulls/comments/822286747"
                }
            },
            "author_association": "MEMBER",
            "body": "pick a feature name related to what this does (like enchant)",
            "commit_id": "791f6074703418c40dbb807ac63da5521d5a5d50",
            "created_at": "2022-03-09T04:56:56Z",
            "diff_hunk": "@@ -359,5 +359,35 @@\n         \"version\": \"1.8_major\"\n       }\n     ]\n+  },\n+  {\n+    \"name\": \"itemSerializationWillOnlyUsePresent\",\n+    \"description\": \"item serialization in [even] newer versions uses present field [exclusively] to show nullability rather than sending blockId as -1\",\n+    \"versions\": [\"1.14_major\", \"latest\"]\n+  },\n+  {\n+    \"name\": \"itemSerializationAllowsPresent\",\n+    \"description\": \"item serialization in newer versions uses present field to show nullability rather or sending blockId as -1 can be used\",\n+    \"versions\": [\"1.13_major\", \"latest\"]\n+  },\n+  {\n+    \"name\": \"itemSerializationUsesBlockId\",\n+    \"description\": \"item serialization in older versions uses blockId field to show nullability by setting blockId to -1\",\n+    \"versions\": [\"1.8_major\", \"1.12_major\"]\n+  },\n+  {\n+    \"name\": \"preFlattening\",\n+    \"description\": \"in older versions, enchant ids were used to store enchants in nbt\",\n+    \"versions\": [\"1.8_major\", \"1.12_major\"]\n+  },\n+  {\n+    \"name\": \"theFlattening\",",
            "html_url": "https://github.com/PrismarineJS/minecraft-data/pull/526#discussion_r822286747",
            "id": 822286747,
            "line": null,
            "node_id": "PRRC_kwDOAfOYes4xAxmb",
            "original_commit_id": "8c3a41ac59e6b62779e840bd75ebe0b32bd78a56",
            "original_line": 384,
            "original_position": 26,
            "original_start_line": null,
            "path": "data/pc/common/features.json",
            "position": null,
            "pull_request_review_id": 903863998,
            "pull_request_url": "https://api.github.com/repos/PrismarineJS/minecraft-data/pulls/526",
            "reactions": {
                "+1": 0,
                "-1": 0,
                "confused": 0,
                "eyes": 0,
                "heart": 0,
                "hooray": 0,
                "laugh": 0,
                "rocket": 0,
                "total_count": 0,
                "url": "https://api.github.com/repos/PrismarineJS/minecraft-data/pulls/comments/822286747/reactions"
            },
            "side": "RIGHT",
            "start_line": null,
            "start_side": null,
            "subject_type": "line",
            "updated_at": "2022-03-09T04:56:56Z",
            "url": "https://api.github.com/repos/PrismarineJS/minecraft-data/pulls/comments/822286747",
            "user": {
                "avatar_url": "https://avatars.githubusercontent.com/u/2346494?v=4",
                "events_url": "https://api.github.com/users/rom1504/events{/privacy}",
                "followers_url": "https://api.github.com/users/rom1504/followers",
                "following_url": "https://api.github.com/users/rom1504/following{/other_user}",
                "gists_url": "https://api.github.com/users/rom1504/gists{/gist_id}",
                "gravatar_id": "",
                "html_url": "https://github.com/rom1504",
                "id": 2346494,
                "login": "rom1504",
                "node_id": "MDQ6VXNlcjIzNDY0OTQ=",
                "organizations_url": "https://api.github.com/users/rom1504/orgs",
                "received_events_url": "https://api.github.com/users/rom1504/received_events",
                "repos_url": "https://api.github.com/users/rom1504/repos",
                "site_admin": false,
                "starred_url": "https://api.github.com/users/rom1504/starred{/owner}{/repo}",
                "subscriptions_url": "https://api.github.com/users/rom1504/subscriptions",
                "type": "User",
                "url": "https://api.github.com/users/rom1504"
            }
        },
        {
            "_links": {
                "html": {
                    "href": "https://github.com/PrismarineJS/minecraft-data/pull/526#discussion_r822290033"
                },
                "pull_request": {
                    "href": "https://api.github.com/repos/PrismarineJS/minecraft-data/pulls/526"
                },
                "self": {
                    "href": "https://api.github.com/repos/PrismarineJS/minecraft-data/pulls/comments/822290033"
                }
            },
            "author_association": "MEMBER",
            "body": "the flattening effected a lot of things, too many to point to one: https://minecraft.fandom.com/wiki/Java_Edition_1.13/Flattening",
            "commit_id": "791f6074703418c40dbb807ac63da5521d5a5d50",
            "created_at": "2022-03-09T05:06:37Z",
            "diff_hunk": "@@ -359,5 +359,35 @@\n         \"version\": \"1.8_major\"\n       }\n     ]\n+  },\n+  {\n+    \"name\": \"itemSerializationWillOnlyUsePresent\",\n+    \"description\": \"item serialization in [even] newer versions uses present field [exclusively] to show nullability rather than sending blockId as -1\",\n+    \"versions\": [\"1.14_major\", \"latest\"]\n+  },\n+  {\n+    \"name\": \"itemSerializationAllowsPresent\",\n+    \"description\": \"item serialization in newer versions uses present field to show nullability rather or sending blockId as -1 can be used\",\n+    \"versions\": [\"1.13_major\", \"latest\"]\n+  },\n+  {\n+    \"name\": \"itemSerializationUsesBlockId\",\n+    \"description\": \"item serialization in older versions uses blockId field to show nullability by setting blockId to -1\",\n+    \"versions\": [\"1.8_major\", \"1.12_major\"]\n+  },\n+  {\n+    \"name\": \"preFlattening\",\n+    \"description\": \"in older versions, enchant ids were used to store enchants in nbt\",\n+    \"versions\": [\"1.8_major\", \"1.12_major\"]\n+  },\n+  {\n+    \"name\": \"theFlattening\",",
            "html_url": "https://github.com/PrismarineJS/minecraft-data/pull/526#discussion_r822290033",
            "id": 822290033,
            "in_reply_to_id": 822286747,
            "line": null,
            "node_id": "PRRC_kwDOAfOYes4xAyZx",
            "original_commit_id": "8c3a41ac59e6b62779e840bd75ebe0b32bd78a56",
            "original_line": 384,
            "original_position": 26,
            "original_start_line": null,
            "path": "data/pc/common/features.json",
            "position": null,
            "pull_request_review_id": 903868443,
            "pull_request_url": "https://api.github.com/repos/PrismarineJS/minecraft-data/pulls/526",
            "reactions": {
                "+1": 0,
                "-1": 0,
                "confused": 0,
                "eyes": 0,
                "heart": 0,
                "hooray": 0,
                "laugh": 0,
                "rocket": 0,
                "total_count": 0,
                "url": "https://api.github.com/repos/PrismarineJS/minecraft-data/pulls/comments/822290033/reactions"
            },
            "side": "RIGHT",
            "start_line": null,
            "start_side": null,
            "subject_type": "line",
            "updated_at": "2022-03-09T05:06:37Z",
            "url": "https://api.github.com/repos/PrismarineJS/minecraft-data/pulls/comments/822290033",
            "user": {
                "avatar_url": "https://avatars.githubusercontent.com/u/43508353?v=4",
                "events_url": "https://api.github.com/users/u9g/events{/privacy}",
                "followers_url": "https://api.github.com/users/u9g/followers",
                "following_url": "https://api.github.com/users/u9g/following{/other_user}",
                "gists_url": "https://api.github.com/users/u9g/gists{/gist_id}",
                "gravatar_id": "",
                "html_url": "https://github.com/u9g",
                "id": 43508353,
                "login": "u9g",
                "node_id": "MDQ6VXNlcjQzNTA4MzUz",
                "organizations_url": "https://api.github.com/users/u9g/orgs",
                "received_events_url": "https://api.github.com/users/u9g/received_events",
                "repos_url": "https://api.github.com/users/u9g/repos",
                "site_admin": false,
                "starred_url": "https://api.github.com/users/u9g/starred{/owner}{/repo}",
                "subscriptions_url": "https://api.github.com/users/u9g/subscriptions",
                "type": "User",
                "url": "https://api.github.com/users/u9g"
            }
        },
        {
            "_links": {
                "html": {
                    "href": "https://github.com/PrismarineJS/minecraft-data/pull/526#discussion_r822707971"
                },
                "pull_request": {
                    "href": "https://api.github.com/repos/PrismarineJS/minecraft-data/pulls/526"
                },
                "self": {
                    "href": "https://api.github.com/repos/PrismarineJS/minecraft-data/pulls/comments/822707971"
                }
            },
            "author_association": "MEMBER",
            "body": "yes, I still think we should have one feature for one thing\r\nfeatures shouldn't be used only to identify a version range\r\n\r\nbtw I don't think this specific feature is that related with theFlattening (unlike blockStateId feature for example)",
            "commit_id": "791f6074703418c40dbb807ac63da5521d5a5d50",
            "created_at": "2022-03-09T14:30:43Z",
            "diff_hunk": "@@ -359,5 +359,35 @@\n         \"version\": \"1.8_major\"\n       }\n     ]\n+  },\n+  {\n+    \"name\": \"itemSerializationWillOnlyUsePresent\",\n+    \"description\": \"item serialization in [even] newer versions uses present field [exclusively] to show nullability rather than sending blockId as -1\",\n+    \"versions\": [\"1.14_major\", \"latest\"]\n+  },\n+  {\n+    \"name\": \"itemSerializationAllowsPresent\",\n+    \"description\": \"item serialization in newer versions uses present field to show nullability rather or sending blockId as -1 can be used\",\n+    \"versions\": [\"1.13_major\", \"latest\"]\n+  },\n+  {\n+    \"name\": \"itemSerializationUsesBlockId\",\n+    \"description\": \"item serialization in older versions uses blockId field to show nullability by setting blockId to -1\",\n+    \"versions\": [\"1.8_major\", \"1.12_major\"]\n+  },\n+  {\n+    \"name\": \"preFlattening\",\n+    \"description\": \"in older versions, enchant ids were used to store enchants in nbt\",\n+    \"versions\": [\"1.8_major\", \"1.12_major\"]\n+  },\n+  {\n+    \"name\": \"theFlattening\",",
            "html_url": "https://github.com/PrismarineJS/minecraft-data/pull/526#discussion_r822707971",
            "id": 822707971,
            "in_reply_to_id": 822286747,
            "line": null,
            "node_id": "PRRC_kwDOAfOYes4xCYcD",
            "original_commit_id": "8c3a41ac59e6b62779e840bd75ebe0b32bd78a56",
            "original_line": 384,
            "original_position": 26,
            "original_start_line": null,
            "path": "data/pc/common/features.json",
            "position": null,
            "pull_request_review_id": 904444043,
            "pull_request_url": "https://api.github.com/repos/PrismarineJS/minecraft-data/pulls/526",
            "reactions": {
                "+1": 0,
                "-1": 0,
                "confused": 0,
                "eyes": 0,
                "heart": 0,
                "hooray": 0,
                "laugh": 0,
                "rocket": 0,
                "total_count": 0,
                "url": "https://api.github.com/repos/PrismarineJS/minecraft-data/pulls/comments/822707971/reactions"
            },
            "side": "RIGHT",
            "start_line": null,
            "start_side": null,
            "subject_type": "line",
            "updated_at": "2022-03-09T14:30:43Z",
            "url": "https://api.github.com/repos/PrismarineJS/minecraft-data/pulls/comments/822707971",
            "user": {
                "avatar_url": "https://avatars.githubusercontent.com/u/2346494?v=4",
                "events_url": "https://api.github.com/users/rom1504/events{/privacy}",
                "followers_url": "https://api.github.com/users/rom1504/followers",
                "following_url": "https://api.github.com/users/rom1504/following{/other_user}",
                "gists_url": "https://api.github.com/users/rom1504/gists{/gist_id}",
                "gravatar_id": "",
                "html_url": "https://github.com/rom1504",
                "id": 2346494,
                "login": "rom1504",
                "node_id": "MDQ6VXNlcjIzNDY0OTQ=",
                "organizations_url": "https://api.github.com/users/rom1504/orgs",
                "received_events_url": "https://api.github.com/users/rom1504/received_events",
                "repos_url": "https://api.github.com/users/rom1504/repos",
                "site_admin": false,
                "starred_url": "https://api.github.com/users/rom1504/starred{/owner}{/repo}",
                "subscriptions_url": "https://api.github.com/users/rom1504/subscriptions",
                "type": "User",
                "url": "https://api.github.com/users/rom1504"
            }
        }
    ],
    "comment_regular_data": [
        {
            "author_association": "MEMBER",
            "body": "ci failed",
            "created_at": "2022-03-09T04:55:37Z",
            "html_url": "https://github.com/PrismarineJS/minecraft-data/pull/526#issuecomment-1062553881",
            "id": 1062553881,
            "issue_url": "https://api.github.com/repos/PrismarineJS/minecraft-data/issues/526",
            "node_id": "IC_kwDOAfOYes4_VUkZ",
            "performed_via_github_app": null,
            "reactions": {
                "+1": 0,
                "-1": 0,
                "confused": 0,
                "eyes": 0,
                "heart": 0,
                "hooray": 0,
                "laugh": 0,
                "rocket": 0,
                "total_count": 0,
                "url": "https://api.github.com/repos/PrismarineJS/minecraft-data/issues/comments/1062553881/reactions"
            },
            "updated_at": "2022-03-09T04:55:37Z",
            "url": "https://api.github.com/repos/PrismarineJS/minecraft-data/issues/comments/1062553881",
            "user": {
                "avatar_url": "https://avatars.githubusercontent.com/u/2346494?v=4",
                "events_url": "https://api.github.com/users/rom1504/events{/privacy}",
                "followers_url": "https://api.github.com/users/rom1504/followers",
                "following_url": "https://api.github.com/users/rom1504/following{/other_user}",
                "gists_url": "https://api.github.com/users/rom1504/gists{/gist_id}",
                "gravatar_id": "",
                "html_url": "https://github.com/rom1504",
                "id": 2346494,
                "login": "rom1504",
                "node_id": "MDQ6VXNlcjIzNDY0OTQ=",
                "organizations_url": "https://api.github.com/users/rom1504/orgs",
                "received_events_url": "https://api.github.com/users/rom1504/received_events",
                "repos_url": "https://api.github.com/users/rom1504/repos",
                "site_admin": false,
                "starred_url": "https://api.github.com/users/rom1504/starred{/owner}{/repo}",
                "subscriptions_url": "https://api.github.com/users/rom1504/subscriptions",
                "type": "User",
                "url": "https://api.github.com/users/rom1504"
            }
        }
    ],
    "comments": 1,
    "comments_url": "https://api.github.com/repos/PrismarineJS/minecraft-data/issues/526/comments",
    "commit_data": [
        {
            "author": {
                "avatar_url": "https://avatars.githubusercontent.com/u/43508353?v=4",
                "events_url": "https://api.github.com/users/u9g/events{/privacy}",
                "followers_url": "https://api.github.com/users/u9g/followers",
                "following_url": "https://api.github.com/users/u9g/following{/other_user}",
                "gists_url": "https://api.github.com/users/u9g/gists{/gist_id}",
                "gravatar_id": "",
                "html_url": "https://github.com/u9g",
                "id": 43508353,
                "login": "u9g",
                "node_id": "MDQ6VXNlcjQzNTA4MzUz",
                "organizations_url": "https://api.github.com/users/u9g/orgs",
                "received_events_url": "https://api.github.com/users/u9g/received_events",
                "repos_url": "https://api.github.com/users/u9g/repos",
                "site_admin": false,
                "starred_url": "https://api.github.com/users/u9g/starred{/owner}{/repo}",
                "subscriptions_url": "https://api.github.com/users/u9g/subscriptions",
                "type": "User",
                "url": "https://api.github.com/users/u9g"
            },
            "comments_url": "https://api.github.com/repos/PrismarineJS/minecraft-data/commits/8c3a41ac59e6b62779e840bd75ebe0b32bd78a56/comments",
            "commit": {
                "author": {
                    "date": "2022-03-09T04:20:55Z",
                    "email": "git@u9g.dev",
                    "name": "u9g"
                },
                "comment_count": 0,
                "committer": {
                    "date": "2022-03-09T04:20:55Z",
                    "email": "noreply@github.com",
                    "name": "GitHub"
                },
                "message": "Add prismarine-item features",
                "tree": {
                    "sha": "0c4c3740b3c93297f7fa7b4660049365ac9b32b0",
                    "url": "https://api.github.com/repos/PrismarineJS/minecraft-data/git/trees/0c4c3740b3c93297f7fa7b4660049365ac9b32b0"
                },
                "url": "https://api.github.com/repos/PrismarineJS/minecraft-data/git/commits/8c3a41ac59e6b62779e840bd75ebe0b32bd78a56",
                "verification": {
                    "payload": "tree 0c4c3740b3c93297f7fa7b4660049365ac9b32b0\nparent de83086bd95daa0eba615a02bccdd2cfa27ce37e\nauthor u9g <git@u9g.dev> 1646799655 -0500\ncommitter GitHub <noreply@github.com> 1646799655 -0500\n\nAdd prismarine-item features",
                    "reason": "valid",
                    "signature": "-----BEGIN PGP SIGNATURE-----\n\nwsBcBAABCAAQBQJiKCsnCRBK7hj4Ov3rIwAAX4QIABWzXEprVJSjQUeq8JK+w7M8\nMyyQE9J3PG/sCQ418/2CzppsSYArMy0ypdP4+29/v1GaHgN56NGVd5ZnnmqKJprg\njVaPn2044ez1yeUZZmQfFubrzyuHlCiIkbnDMnD1hkVNwORhKrGOP2b3EkgEWGE8\nTKqCdbZiUpANeb5+ft0++DOnPsEymgbRq2FIRG0yMoLU/5X3I9TDWJTQDgNlZ2vt\nopUQjP+N2PfJQLZOumsHO3ggodUZxzF0SXDbJCRnlgYqx3gILnTncFZerP7DOJgK\n0quUvmgPbe+TPV59f8G+UgpTYdeALJkZA4tLWdrlG0L2pG9REmqAdDs/fKpp/3Y=\n=fvto\n-----END PGP SIGNATURE-----\n",
                    "verified": true
                }
            },
            "committer": {
                "avatar_url": "https://avatars.githubusercontent.com/u/19864447?v=4",
                "events_url": "https://api.github.com/users/web-flow/events{/privacy}",
                "followers_url": "https://api.github.com/users/web-flow/followers",
                "following_url": "https://api.github.com/users/web-flow/following{/other_user}",
                "gists_url": "https://api.github.com/users/web-flow/gists{/gist_id}",
                "gravatar_id": "",
                "html_url": "https://github.com/web-flow",
                "id": 19864447,
                "login": "web-flow",
                "node_id": "MDQ6VXNlcjE5ODY0NDQ3",
                "organizations_url": "https://api.github.com/users/web-flow/orgs",
                "received_events_url": "https://api.github.com/users/web-flow/received_events",
                "repos_url": "https://api.github.com/users/web-flow/repos",
                "site_admin": false,
                "starred_url": "https://api.github.com/users/web-flow/starred{/owner}{/repo}",
                "subscriptions_url": "https://api.github.com/users/web-flow/subscriptions",
                "type": "User",
                "url": "https://api.github.com/users/web-flow"
            },
            "html_url": "https://github.com/PrismarineJS/minecraft-data/commit/8c3a41ac59e6b62779e840bd75ebe0b32bd78a56",
            "node_id": "C_kwDOAfOYetoAKDhjM2E0MWFjNTllNmI2Mjc3OWU4NDBiZDc1ZWJlMGIzMmJkNzhhNTY",
            "parents": [
                {
                    "html_url": "https://github.com/PrismarineJS/minecraft-data/commit/de83086bd95daa0eba615a02bccdd2cfa27ce37e",
                    "sha": "de83086bd95daa0eba615a02bccdd2cfa27ce37e",
                    "url": "https://api.github.com/repos/PrismarineJS/minecraft-data/commits/de83086bd95daa0eba615a02bccdd2cfa27ce37e"
                }
            ],
            "sha": "8c3a41ac59e6b62779e840bd75ebe0b32bd78a56",
            "url": "https://api.github.com/repos/PrismarineJS/minecraft-data/commits/8c3a41ac59e6b62779e840bd75ebe0b32bd78a56"
        },
        {
            "author": {
                "avatar_url": "https://avatars.githubusercontent.com/u/43508353?v=4",
                "events_url": "https://api.github.com/users/u9g/events{/privacy}",
                "followers_url": "https://api.github.com/users/u9g/followers",
                "following_url": "https://api.github.com/users/u9g/following{/other_user}",
                "gists_url": "https://api.github.com/users/u9g/gists{/gist_id}",
                "gravatar_id": "",
                "html_url": "https://github.com/u9g",
                "id": 43508353,
                "login": "u9g",
                "node_id": "MDQ6VXNlcjQzNTA4MzUz",
                "organizations_url": "https://api.github.com/users/u9g/orgs",
                "received_events_url": "https://api.github.com/users/u9g/received_events",
                "repos_url": "https://api.github.com/users/u9g/repos",
                "site_admin": false,
                "starred_url": "https://api.github.com/users/u9g/starred{/owner}{/repo}",
                "subscriptions_url": "https://api.github.com/users/u9g/subscriptions",
                "type": "User",
                "url": "https://api.github.com/users/u9g"
            },
            "comments_url": "https://api.github.com/repos/PrismarineJS/minecraft-data/commits/4c17d8c1b63d2cc7fbaac11d5ff51ba191811abb/comments",
            "commit": {
                "author": {
                    "date": "2022-03-09T05:05:49Z",
                    "email": "git@u9g.dev",
                    "name": "u9g"
                },
                "comment_count": 0,
                "committer": {
                    "date": "2022-03-09T05:05:49Z",
                    "email": "noreply@github.com",
                    "name": "GitHub"
                },
                "message": "Don’t require unique versions in the version tuple",
                "tree": {
                    "sha": "9035a055ab3b09df8335c06a3e4a09e2956c918e",
                    "url": "https://api.github.com/repos/PrismarineJS/minecraft-data/git/trees/9035a055ab3b09df8335c06a3e4a09e2956c918e"
                },
                "url": "https://api.github.com/repos/PrismarineJS/minecraft-data/git/commits/4c17d8c1b63d2cc7fbaac11d5ff51ba191811abb",
                "verification": {
                    "payload": "tree 9035a055ab3b09df8335c06a3e4a09e2956c918e\nparent 8c3a41ac59e6b62779e840bd75ebe0b32bd78a56\nauthor u9g <git@u9g.dev> 1646802349 -0500\ncommitter GitHub <noreply@github.com> 1646802349 -0500\n\nDon’t require unique versions in the version tuple",
                    "reason": "valid",
                    "signature": "-----BEGIN PGP SIGNATURE-----\n\nwsBcBAABCAAQBQJiKDWtCRBK7hj4Ov3rIwAA5EQIAEdy1BjURmLfsSibJjjX4TrT\nz+U9lilNzQZIDjtXlCELzhIdBJoltUrOoiAmDmbriE8fLreO7LAY4QWO5kqxa6/f\nceBqQskWJjYUyMJAkefz1gmVaUw2QbHFaebhyl36jJ0uODKULjJ3zHZyzAynSZrv\nAMGo9m6exuF/TD0rQ7gz21is+aFHKbAsgZn7R22HT5quTKG+ifgi6h4gAxRUgqxb\nd8ZA1D2jgButTxtmhT4YUC4VU+z44DPuZGxrwXkdfqQwkuq4N6gM2dOpGrnK12nN\nwh3RgXYKAVummvhwgd7uQK4inV4+bfmkVgq9kPjjY88N0gKae9ebEsESSSQzwGs=\n=rQSQ\n-----END PGP SIGNATURE-----\n",
                    "verified": true
                }
            },
            "committer": {
                "avatar_url": "https://avatars.githubusercontent.com/u/19864447?v=4",
                "events_url": "https://api.github.com/users/web-flow/events{/privacy}",
                "followers_url": "https://api.github.com/users/web-flow/followers",
                "following_url": "https://api.github.com/users/web-flow/following{/other_user}",
                "gists_url": "https://api.github.com/users/web-flow/gists{/gist_id}",
                "gravatar_id": "",
                "html_url": "https://github.com/web-flow",
                "id": 19864447,
                "login": "web-flow",
                "node_id": "MDQ6VXNlcjE5ODY0NDQ3",
                "organizations_url": "https://api.github.com/users/web-flow/orgs",
                "received_events_url": "https://api.github.com/users/web-flow/received_events",
                "repos_url": "https://api.github.com/users/web-flow/repos",
                "site_admin": false,
                "starred_url": "https://api.github.com/users/web-flow/starred{/owner}{/repo}",
                "subscriptions_url": "https://api.github.com/users/web-flow/subscriptions",
                "type": "User",
                "url": "https://api.github.com/users/web-flow"
            },
            "html_url": "https://github.com/PrismarineJS/minecraft-data/commit/4c17d8c1b63d2cc7fbaac11d5ff51ba191811abb",
            "node_id": "C_kwDOAfOYetoAKDRjMTdkOGMxYjYzZDJjYzdmYmFhYzExZDVmZjUxYmExOTE4MTFhYmI",
            "parents": [
                {
                    "html_url": "https://github.com/PrismarineJS/minecraft-data/commit/8c3a41ac59e6b62779e840bd75ebe0b32bd78a56",
                    "sha": "8c3a41ac59e6b62779e840bd75ebe0b32bd78a56",
                    "url": "https://api.github.com/repos/PrismarineJS/minecraft-data/commits/8c3a41ac59e6b62779e840bd75ebe0b32bd78a56"
                }
            ],
            "sha": "4c17d8c1b63d2cc7fbaac11d5ff51ba191811abb",
            "url": "https://api.github.com/repos/PrismarineJS/minecraft-data/commits/4c17d8c1b63d2cc7fbaac11d5ff51ba191811abb"
        },
        {
            "author": {
                "avatar_url": "https://avatars.githubusercontent.com/u/43508353?v=4",
                "events_url": "https://api.github.com/users/u9g/events{/privacy}",
                "followers_url": "https://api.github.com/users/u9g/followers",
                "following_url": "https://api.github.com/users/u9g/following{/other_user}",
                "gists_url": "https://api.github.com/users/u9g/gists{/gist_id}",
                "gravatar_id": "",
                "html_url": "https://github.com/u9g",
                "id": 43508353,
                "login": "u9g",
                "node_id": "MDQ6VXNlcjQzNTA4MzUz",
                "organizations_url": "https://api.github.com/users/u9g/orgs",
                "received_events_url": "https://api.github.com/users/u9g/received_events",
                "repos_url": "https://api.github.com/users/u9g/repos",
                "site_admin": false,
                "starred_url": "https://api.github.com/users/u9g/starred{/owner}{/repo}",
                "subscriptions_url": "https://api.github.com/users/u9g/subscriptions",
                "type": "User",
                "url": "https://api.github.com/users/u9g"
            },
            "comments_url": "https://api.github.com/repos/PrismarineJS/minecraft-data/commits/791f6074703418c40dbb807ac63da5521d5a5d50/comments",
            "commit": {
                "author": {
                    "date": "2022-03-09T16:24:24Z",
                    "email": "git@u9g.dev",
                    "name": "u9g"
                },
                "comment_count": 0,
                "committer": {
                    "date": "2022-03-09T16:24:24Z",
                    "email": "noreply@github.com",
                    "name": "GitHub"
                },
                "message": "Make features more explicit in what they do",
                "tree": {
                    "sha": "ec13f80e6aed02ec4bed6c68eaa9f4905cc87b37",
                    "url": "https://api.github.com/repos/PrismarineJS/minecraft-data/git/trees/ec13f80e6aed02ec4bed6c68eaa9f4905cc87b37"
                },
                "url": "https://api.github.com/repos/PrismarineJS/minecraft-data/git/commits/791f6074703418c40dbb807ac63da5521d5a5d50",
                "verification": {
                    "payload": "tree ec13f80e6aed02ec4bed6c68eaa9f4905cc87b37\nparent 4c17d8c1b63d2cc7fbaac11d5ff51ba191811abb\nauthor u9g <git@u9g.dev> 1646843064 -0500\ncommitter GitHub <noreply@github.com> 1646843064 -0500\n\nMake features more explicit in what they do",
                    "reason": "valid",
                    "signature": "-----BEGIN PGP SIGNATURE-----\n\nwsBcBAABCAAQBQJiKNS4CRBK7hj4Ov3rIwAAaZEIAGD4Ut+MYuViTwBq0y56ST3s\nkyo4c8lYrskaqYbJ9+HBwfNF/Plth7vlnvqhpoDvp9uTmIxHl9/dOF49S3Jk4c1J\nlgDn6oenkvFD76nTA1I3P+7EMKKPgvrLvKUrSCKMq4SFN+E9/Dbk9jUUH44kZzrT\nYomHXtCi1nOxbGVl8IeGaG9/+IfaAT/IhWtaaj7nJL0aQHQjI1Ypf1nlcRDMbuZn\nlutUi6FmCTcnrjx3EHBaO2OLXi64ttLz+k0PttJkmf4MwCsiRVarFEVJjPSDTnzi\ndKt5j4ocpEy9/3LqWAM5u0zwuL/DTti4W+XFYQc5OTDKan6gUzR3IPprQq/X4zI=\n=6Z51\n-----END PGP SIGNATURE-----\n",
                    "verified": true
                }
            },
            "committer": {
                "avatar_url": "https://avatars.githubusercontent.com/u/19864447?v=4",
                "events_url": "https://api.github.com/users/web-flow/events{/privacy}",
                "followers_url": "https://api.github.com/users/web-flow/followers",
                "following_url": "https://api.github.com/users/web-flow/following{/other_user}",
                "gists_url": "https://api.github.com/users/web-flow/gists{/gist_id}",
                "gravatar_id": "",
                "html_url": "https://github.com/web-flow",
                "id": 19864447,
                "login": "web-flow",
                "node_id": "MDQ6VXNlcjE5ODY0NDQ3",
                "organizations_url": "https://api.github.com/users/web-flow/orgs",
                "received_events_url": "https://api.github.com/users/web-flow/received_events",
                "repos_url": "https://api.github.com/users/web-flow/repos",
                "site_admin": false,
                "starred_url": "https://api.github.com/users/web-flow/starred{/owner}{/repo}",
                "subscriptions_url": "https://api.github.com/users/web-flow/subscriptions",
                "type": "User",
                "url": "https://api.github.com/users/web-flow"
            },
            "html_url": "https://github.com/PrismarineJS/minecraft-data/commit/791f6074703418c40dbb807ac63da5521d5a5d50",
            "node_id": "C_kwDOAfOYetoAKDc5MWY2MDc0NzAzNDE4YzQwZGJiODA3YWM2M2RhNTUyMWQ1YTVkNTA",
            "parents": [
                {
                    "html_url": "https://github.com/PrismarineJS/minecraft-data/commit/4c17d8c1b63d2cc7fbaac11d5ff51ba191811abb",
                    "sha": "4c17d8c1b63d2cc7fbaac11d5ff51ba191811abb",
                    "url": "https://api.github.com/repos/PrismarineJS/minecraft-data/commits/4c17d8c1b63d2cc7fbaac11d5ff51ba191811abb"
                }
            ],
            "sha": "791f6074703418c40dbb807ac63da5521d5a5d50",
            "url": "https://api.github.com/repos/PrismarineJS/minecraft-data/commits/791f6074703418c40dbb807ac63da5521d5a5d50"
        }
    ],
    "commits": 3,
    "commits_url": "https://api.github.com/repos/PrismarineJS/minecraft-data/pulls/526/commits",
    "created_at": "2022-03-09T04:20:58Z",
    "deletions": 1,
    "diff_url": "https://github.com/PrismarineJS/minecraft-data/pull/526.diff",
    "draft": false,
    "head": {
        "label": "PrismarineJS:pris-item-features",
        "ref": "pris-item-features",
        "repo": {
            "allow_forking": true,
            "archive_url": "https://api.github.com/repos/PrismarineJS/minecraft-data/{archive_format}{/ref}",
            "archived": false,
            "assignees_url": "https://api.github.com/repos/PrismarineJS/minecraft-data/assignees{/user}",
            "blobs_url": "https://api.github.com/repos/PrismarineJS/minecraft-data/git/blobs{/sha}",
            "branches_url": "https://api.github.com/repos/PrismarineJS/minecraft-data/branches{/branch}",
            "clone_url": "https://github.com/PrismarineJS/minecraft-data.git",
            "collaborators_url": "https://api.github.com/repos/PrismarineJS/minecraft-data/collaborators{/collaborator}",
            "comments_url": "https://api.github.com/repos/PrismarineJS/minecraft-data/comments{/number}",
            "commits_url": "https://api.github.com/repos/PrismarineJS/minecraft-data/commits{/sha}",
            "compare_url": "https://api.github.com/repos/PrismarineJS/minecraft-data/compare/{base}...{head}",
            "contents_url": "https://api.github.com/repos/PrismarineJS/minecraft-data/contents/{+path}",
            "contributors_url": "https://api.github.com/repos/PrismarineJS/minecraft-data/contributors",
            "created_at": "2015-03-23T15:38:19Z",
            "default_branch": "master",
            "deployments_url": "https://api.github.com/repos/PrismarineJS/minecraft-data/deployments",
            "description": "Language independent module providing minecraft data for minecraft clients, servers and libraries.",
            "disabled": false,
            "downloads_url": "https://api.github.com/repos/PrismarineJS/minecraft-data/downloads",
            "events_url": "https://api.github.com/repos/PrismarineJS/minecraft-data/events",
            "fork": false,
            "forks": 184,
            "forks_count": 184,
            "forks_url": "https://api.github.com/repos/PrismarineJS/minecraft-data/forks",
            "full_name": "PrismarineJS/minecraft-data",
            "git_commits_url": "https://api.github.com/repos/PrismarineJS/minecraft-data/git/commits{/sha}",
            "git_refs_url": "https://api.github.com/repos/PrismarineJS/minecraft-data/git/refs{/sha}",
            "git_tags_url": "https://api.github.com/repos/PrismarineJS/minecraft-data/git/tags{/sha}",
            "git_url": "git://github.com/PrismarineJS/minecraft-data.git",
            "has_discussions": false,
            "has_downloads": true,
            "has_issues": true,
            "has_pages": true,
            "has_projects": true,
            "has_wiki": true,
            "homepage": "https://prismarinejs.github.io/minecraft-data",
            "hooks_url": "https://api.github.com/repos/PrismarineJS/minecraft-data/hooks",
            "html_url": "https://github.com/PrismarineJS/minecraft-data",
            "id": 32741498,
            "is_template": false,
            "issue_comment_url": "https://api.github.com/repos/PrismarineJS/minecraft-data/issues/comments{/number}",
            "issue_events_url": "https://api.github.com/repos/PrismarineJS/minecraft-data/issues/events{/number}",
            "issues_url": "https://api.github.com/repos/PrismarineJS/minecraft-data/issues{/number}",
            "keys_url": "https://api.github.com/repos/PrismarineJS/minecraft-data/keys{/key_id}",
            "labels_url": "https://api.github.com/repos/PrismarineJS/minecraft-data/labels{/name}",
            "language": "JavaScript",
            "languages_url": "https://api.github.com/repos/PrismarineJS/minecraft-data/languages",
            "license": null,
            "merges_url": "https://api.github.com/repos/PrismarineJS/minecraft-data/merges",
            "milestones_url": "https://api.github.com/repos/PrismarineJS/minecraft-data/milestones{/number}",
            "mirror_url": null,
            "name": "minecraft-data",
            "node_id": "MDEwOlJlcG9zaXRvcnkzMjc0MTQ5OA==",
            "notifications_url": "https://api.github.com/repos/PrismarineJS/minecraft-data/notifications{?since,all,participating}",
            "open_issues": 113,
            "open_issues_count": 113,
            "owner": {
                "avatar_url": "https://avatars.githubusercontent.com/u/11053411?v=4",
                "events_url": "https://api.github.com/users/PrismarineJS/events{/privacy}",
                "followers_url": "https://api.github.com/users/PrismarineJS/followers",
                "following_url": "https://api.github.com/users/PrismarineJS/following{/other_user}",
                "gists_url": "https://api.github.com/users/PrismarineJS/gists{/gist_id}",
                "gravatar_id": "",
                "html_url": "https://github.com/PrismarineJS",
                "id": 11053411,
                "login": "PrismarineJS",
                "node_id": "MDEyOk9yZ2FuaXphdGlvbjExMDUzNDEx",
                "organizations_url": "https://api.github.com/users/PrismarineJS/orgs",
                "received_events_url": "https://api.github.com/users/PrismarineJS/received_events",
                "repos_url": "https://api.github.com/users/PrismarineJS/repos",
                "site_admin": false,
                "starred_url": "https://api.github.com/users/PrismarineJS/starred{/owner}{/repo}",
                "subscriptions_url": "https://api.github.com/users/PrismarineJS/subscriptions",
                "type": "Organization",
                "url": "https://api.github.com/users/PrismarineJS"
            },
            "private": false,
            "pulls_url": "https://api.github.com/repos/PrismarineJS/minecraft-data/pulls{/number}",
            "pushed_at": "2023-04-08T18:30:50Z",
            "releases_url": "https://api.github.com/repos/PrismarineJS/minecraft-data/releases{/id}",
            "size": 134084,
            "ssh_url": "git@github.com:PrismarineJS/minecraft-data.git",
            "stargazers_count": 473,
            "stargazers_url": "https://api.github.com/repos/PrismarineJS/minecraft-data/stargazers",
            "statuses_url": "https://api.github.com/repos/PrismarineJS/minecraft-data/statuses/{sha}",
            "subscribers_url": "https://api.github.com/repos/PrismarineJS/minecraft-data/subscribers",
            "subscription_url": "https://api.github.com/repos/PrismarineJS/minecraft-data/subscription",
            "svn_url": "https://github.com/PrismarineJS/minecraft-data",
            "tags_url": "https://api.github.com/repos/PrismarineJS/minecraft-data/tags",
            "teams_url": "https://api.github.com/repos/PrismarineJS/minecraft-data/teams",
            "topics": [
                "data",
                "minecraft"
            ],
            "trees_url": "https://api.github.com/repos/PrismarineJS/minecraft-data/git/trees{/sha}",
            "updated_at": "2023-04-24T04:11:18Z",
            "url": "https://api.github.com/repos/PrismarineJS/minecraft-data",
            "visibility": "public",
            "watchers": 473,
            "watchers_count": 473,
            "web_commit_signoff_required": false
        },
        "sha": "791f6074703418c40dbb807ac63da5521d5a5d50",
        "user": {
            "avatar_url": "https://avatars.githubusercontent.com/u/11053411?v=4",
            "events_url": "https://api.github.com/users/PrismarineJS/events{/privacy}",
            "followers_url": "https://api.github.com/users/PrismarineJS/followers",
            "following_url": "https://api.github.com/users/PrismarineJS/following{/other_user}",
            "gists_url": "https://api.github.com/users/PrismarineJS/gists{/gist_id}",
            "gravatar_id": "",
            "html_url": "https://github.com/PrismarineJS",
            "id": 11053411,
            "login": "PrismarineJS",
            "node_id": "MDEyOk9yZ2FuaXphdGlvbjExMDUzNDEx",
            "organizations_url": "https://api.github.com/users/PrismarineJS/orgs",
            "received_events_url": "https://api.github.com/users/PrismarineJS/received_events",
            "repos_url": "https://api.github.com/users/PrismarineJS/repos",
            "site_admin": false,
            "starred_url": "https://api.github.com/users/PrismarineJS/starred{/owner}{/repo}",
            "subscriptions_url": "https://api.github.com/users/PrismarineJS/subscriptions",
            "type": "Organization",
            "url": "https://api.github.com/users/PrismarineJS"
        }
    },
    "html_url": "https://github.com/PrismarineJS/minecraft-data/pull/526",
    "id": 874899427,
    "issue_url": "https://api.github.com/repos/PrismarineJS/minecraft-data/issues/526",
    "labels": [],
    "locked": false,
    "maintainer_can_modify": false,
    "merge_commit_sha": "e47cdd089168dd6fa0d368e2aea92df0744dddd4",
    "mergeable": null,
    "mergeable_state": "unknown",
    "merged": true,
    "merged_at": "2022-03-09T17:55:37Z",
    "merged_by": {
        "avatar_url": "https://avatars.githubusercontent.com/u/2346494?v=4",
        "events_url": "https://api.github.com/users/rom1504/events{/privacy}",
        "followers_url": "https://api.github.com/users/rom1504/followers",
        "following_url": "https://api.github.com/users/rom1504/following{/other_user}",
        "gists_url": "https://api.github.com/users/rom1504/gists{/gist_id}",
        "gravatar_id": "",
        "html_url": "https://github.com/rom1504",
        "id": 2346494,
        "login": "rom1504",
        "node_id": "MDQ6VXNlcjIzNDY0OTQ=",
        "organizations_url": "https://api.github.com/users/rom1504/orgs",
        "received_events_url": "https://api.github.com/users/rom1504/received_events",
        "repos_url": "https://api.github.com/users/rom1504/repos",
        "site_admin": false,
        "starred_url": "https://api.github.com/users/rom1504/starred{/owner}{/repo}",
        "subscriptions_url": "https://api.github.com/users/rom1504/subscriptions",
        "type": "User",
        "url": "https://api.github.com/users/rom1504"
    },
    "milestone": null,
    "node_id": "PR_kwDOAfOYes40Jefj",
    "number": 526,
    "patch_url": "https://github.com/PrismarineJS/minecraft-data/pull/526.patch",
    "rebaseable": null,
    "requested_reviewers": [],
    "requested_teams": [],
    "review_comment_url": "https://api.github.com/repos/PrismarineJS/minecraft-data/pulls/comments{/number}",
    "review_comments": 3,
    "review_comments_url": "https://api.github.com/repos/PrismarineJS/minecraft-data/pulls/526/comments",
    "state": "closed",
    "statuses_url": "https://api.github.com/repos/PrismarineJS/minecraft-data/statuses/791f6074703418c40dbb807ac63da5521d5a5d50",
    "title": "Add prismarine-item features",
    "updated_at": "2022-03-09T17:55:41Z",
    "url": "https://api.github.com/repos/PrismarineJS/minecraft-data/pulls/526",
    "user": {
        "avatar_url": "https://avatars.githubusercontent.com/u/43508353?v=4",
        "events_url": "https://api.github.com/users/u9g/events{/privacy}",
        "followers_url": "https://api.github.com/users/u9g/followers",
        "following_url": "https://api.github.com/users/u9g/following{/other_user}",
        "gists_url": "https://api.github.com/users/u9g/gists{/gist_id}",
        "gravatar_id": "",
        "html_url": "https://github.com/u9g",
        "id": 43508353,
        "login": "u9g",
        "node_id": "MDQ6VXNlcjQzNTA4MzUz",
        "organizations_url": "https://api.github.com/users/u9g/orgs",
        "received_events_url": "https://api.github.com/users/u9g/received_events",
        "repos_url": "https://api.github.com/users/u9g/repos",
        "site_admin": false,
        "starred_url": "https://api.github.com/users/u9g/starred{/owner}{/repo}",
        "subscriptions_url": "https://api.github.com/users/u9g/subscriptions",
        "type": "User",
        "url": "https://api.github.com/users/u9g"
    }
}