{
    "_links": {
        "comments": {
            "href": "https://api.github.com/repos/PrismarineJS/minecraft-data/issues/563/comments"
        },
        "commits": {
            "href": "https://api.github.com/repos/PrismarineJS/minecraft-data/pulls/563/commits"
        },
        "html": {
            "href": "https://github.com/PrismarineJS/minecraft-data/pull/563"
        },
        "issue": {
            "href": "https://api.github.com/repos/PrismarineJS/minecraft-data/issues/563"
        },
        "review_comment": {
            "href": "https://api.github.com/repos/PrismarineJS/minecraft-data/pulls/comments{/number}"
        },
        "review_comments": {
            "href": "https://api.github.com/repos/PrismarineJS/minecraft-data/pulls/563/comments"
        },
        "self": {
            "href": "https://api.github.com/repos/PrismarineJS/minecraft-data/pulls/563"
        },
        "statuses": {
            "href": "https://api.github.com/repos/PrismarineJS/minecraft-data/statuses/461ecea85c936ac69fb6f213c063dce68c4234d3"
        }
    },
    "active_lock_reason": null,
    "additions": 48,
    "assignee": null,
    "assignees": [],
    "author_association": "CONTRIBUTOR",
    "auto_merge": null,
    "base": {
        "label": "PrismarineJS:master",
        "ref": "master",
        "repo": {
            "allow_forking": true,
            "archive_url": "https://api.github.com/repos/PrismarineJS/minecraft-data/{archive_format}{/ref}",
            "archived": false,
            "assignees_url": "https://api.github.com/repos/PrismarineJS/minecraft-data/assignees{/user}",
            "blobs_url": "https://api.github.com/repos/PrismarineJS/minecraft-data/git/blobs{/sha}",
            "branches_url": "https://api.github.com/repos/PrismarineJS/minecraft-data/branches{/branch}",
            "clone_url": "https://github.com/PrismarineJS/minecraft-data.git",
            "collaborators_url": "https://api.github.com/repos/PrismarineJS/minecraft-data/collaborators{/collaborator}",
            "comments_url": "https://api.github.com/repos/PrismarineJS/minecraft-data/comments{/number}",
            "commits_url": "https://api.github.com/repos/PrismarineJS/minecraft-data/commits{/sha}",
            "compare_url": "https://api.github.com/repos/PrismarineJS/minecraft-data/compare/{base}...{head}",
            "contents_url": "https://api.github.com/repos/PrismarineJS/minecraft-data/contents/{+path}",
            "contributors_url": "https://api.github.com/repos/PrismarineJS/minecraft-data/contributors",
            "created_at": "2015-03-23T15:38:19Z",
            "default_branch": "master",
            "deployments_url": "https://api.github.com/repos/PrismarineJS/minecraft-data/deployments",
            "description": "Language independent module providing minecraft data for minecraft clients, servers and libraries.",
            "disabled": false,
            "downloads_url": "https://api.github.com/repos/PrismarineJS/minecraft-data/downloads",
            "events_url": "https://api.github.com/repos/PrismarineJS/minecraft-data/events",
            "fork": false,
            "forks": 184,
            "forks_count": 184,
            "forks_url": "https://api.github.com/repos/PrismarineJS/minecraft-data/forks",
            "full_name": "PrismarineJS/minecraft-data",
            "git_commits_url": "https://api.github.com/repos/PrismarineJS/minecraft-data/git/commits{/sha}",
            "git_refs_url": "https://api.github.com/repos/PrismarineJS/minecraft-data/git/refs{/sha}",
            "git_tags_url": "https://api.github.com/repos/PrismarineJS/minecraft-data/git/tags{/sha}",
            "git_url": "git://github.com/PrismarineJS/minecraft-data.git",
            "has_discussions": false,
            "has_downloads": true,
            "has_issues": true,
            "has_pages": true,
            "has_projects": true,
            "has_wiki": true,
            "homepage": "https://prismarinejs.github.io/minecraft-data",
            "hooks_url": "https://api.github.com/repos/PrismarineJS/minecraft-data/hooks",
            "html_url": "https://github.com/PrismarineJS/minecraft-data",
            "id": 32741498,
            "is_template": false,
            "issue_comment_url": "https://api.github.com/repos/PrismarineJS/minecraft-data/issues/comments{/number}",
            "issue_events_url": "https://api.github.com/repos/PrismarineJS/minecraft-data/issues/events{/number}",
            "issues_url": "https://api.github.com/repos/PrismarineJS/minecraft-data/issues{/number}",
            "keys_url": "https://api.github.com/repos/PrismarineJS/minecraft-data/keys{/key_id}",
            "labels_url": "https://api.github.com/repos/PrismarineJS/minecraft-data/labels{/name}",
            "language": "JavaScript",
            "languages_url": "https://api.github.com/repos/PrismarineJS/minecraft-data/languages",
            "license": null,
            "merges_url": "https://api.github.com/repos/PrismarineJS/minecraft-data/merges",
            "milestones_url": "https://api.github.com/repos/PrismarineJS/minecraft-data/milestones{/number}",
            "mirror_url": null,
            "name": "minecraft-data",
            "node_id": "MDEwOlJlcG9zaXRvcnkzMjc0MTQ5OA==",
            "notifications_url": "https://api.github.com/repos/PrismarineJS/minecraft-data/notifications{?since,all,participating}",
            "open_issues": 113,
            "open_issues_count": 113,
            "owner": {
                "avatar_url": "https://avatars.githubusercontent.com/u/11053411?v=4",
                "events_url": "https://api.github.com/users/PrismarineJS/events{/privacy}",
                "followers_url": "https://api.github.com/users/PrismarineJS/followers",
                "following_url": "https://api.github.com/users/PrismarineJS/following{/other_user}",
                "gists_url": "https://api.github.com/users/PrismarineJS/gists{/gist_id}",
                "gravatar_id": "",
                "html_url": "https://github.com/PrismarineJS",
                "id": 11053411,
                "login": "PrismarineJS",
                "node_id": "MDEyOk9yZ2FuaXphdGlvbjExMDUzNDEx",
                "organizations_url": "https://api.github.com/users/PrismarineJS/orgs",
                "received_events_url": "https://api.github.com/users/PrismarineJS/received_events",
                "repos_url": "https://api.github.com/users/PrismarineJS/repos",
                "site_admin": false,
                "starred_url": "https://api.github.com/users/PrismarineJS/starred{/owner}{/repo}",
                "subscriptions_url": "https://api.github.com/users/PrismarineJS/subscriptions",
                "type": "Organization",
                "url": "https://api.github.com/users/PrismarineJS"
            },
            "private": false,
            "pulls_url": "https://api.github.com/repos/PrismarineJS/minecraft-data/pulls{/number}",
            "pushed_at": "2023-04-08T18:30:50Z",
            "releases_url": "https://api.github.com/repos/PrismarineJS/minecraft-data/releases{/id}",
            "size": 134084,
            "ssh_url": "git@github.com:PrismarineJS/minecraft-data.git",
            "stargazers_count": 473,
            "stargazers_url": "https://api.github.com/repos/PrismarineJS/minecraft-data/stargazers",
            "statuses_url": "https://api.github.com/repos/PrismarineJS/minecraft-data/statuses/{sha}",
            "subscribers_url": "https://api.github.com/repos/PrismarineJS/minecraft-data/subscribers",
            "subscription_url": "https://api.github.com/repos/PrismarineJS/minecraft-data/subscription",
            "svn_url": "https://github.com/PrismarineJS/minecraft-data",
            "tags_url": "https://api.github.com/repos/PrismarineJS/minecraft-data/tags",
            "teams_url": "https://api.github.com/repos/PrismarineJS/minecraft-data/teams",
            "topics": [
                "data",
                "minecraft"
            ],
            "trees_url": "https://api.github.com/repos/PrismarineJS/minecraft-data/git/trees{/sha}",
            "updated_at": "2023-04-24T04:11:18Z",
            "url": "https://api.github.com/repos/PrismarineJS/minecraft-data",
            "visibility": "public",
            "watchers": 473,
            "watchers_count": 473,
            "web_commit_signoff_required": false
        },
        "sha": "bfd752d3d53813120e05215a0b970d3280b189ff",
        "user": {
            "avatar_url": "https://avatars.githubusercontent.com/u/11053411?v=4",
            "events_url": "https://api.github.com/users/PrismarineJS/events{/privacy}",
            "followers_url": "https://api.github.com/users/PrismarineJS/followers",
            "following_url": "https://api.github.com/users/PrismarineJS/following{/other_user}",
            "gists_url": "https://api.github.com/users/PrismarineJS/gists{/gist_id}",
            "gravatar_id": "",
            "html_url": "https://github.com/PrismarineJS",
            "id": 11053411,
            "login": "PrismarineJS",
            "node_id": "MDEyOk9yZ2FuaXphdGlvbjExMDUzNDEx",
            "organizations_url": "https://api.github.com/users/PrismarineJS/orgs",
            "received_events_url": "https://api.github.com/users/PrismarineJS/received_events",
            "repos_url": "https://api.github.com/users/PrismarineJS/repos",
            "site_admin": false,
            "starred_url": "https://api.github.com/users/PrismarineJS/starred{/owner}{/repo}",
            "subscriptions_url": "https://api.github.com/users/PrismarineJS/subscriptions",
            "type": "Organization",
            "url": "https://api.github.com/users/PrismarineJS"
        }
    },
    "body": "Changes stack sizes of dyed shulker boxes from 64 -> 1, and ender pearls from 64 -> 16.\r\n\r\nThis also fixes the bug outlined in [mineflayer#2641](https://github.com/PrismarineJS/mineflayer/issues/2641).\r\nIgnore my typo in the commits that then required a second commit.. hehe",
    "changed_files": 14,
    "closed_at": "2022-05-29T00:18:56Z",
    "comment_data": [],
    "comment_regular_data": [],
    "comments": 0,
    "comments_url": "https://api.github.com/repos/PrismarineJS/minecraft-data/issues/563/comments",
    "commit_data": [
        {
            "author": {
                "avatar_url": "https://avatars.githubusercontent.com/u/78880286?v=4",
                "events_url": "https://api.github.com/users/solithcy/events{/privacy}",
                "followers_url": "https://api.github.com/users/solithcy/followers",
                "following_url": "https://api.github.com/users/solithcy/following{/other_user}",
                "gists_url": "https://api.github.com/users/solithcy/gists{/gist_id}",
                "gravatar_id": "",
                "html_url": "https://github.com/solithcy",
                "id": 78880286,
                "login": "solithcy",
                "node_id": "MDQ6VXNlcjc4ODgwMjg2",
                "organizations_url": "https://api.github.com/users/solithcy/orgs",
                "received_events_url": "https://api.github.com/users/solithcy/received_events",
                "repos_url": "https://api.github.com/users/solithcy/repos",
                "site_admin": false,
                "starred_url": "https://api.github.com/users/solithcy/starred{/owner}{/repo}",
                "subscriptions_url": "https://api.github.com/users/solithcy/subscriptions",
                "type": "User",
                "url": "https://api.github.com/users/solithcy"
            },
            "comments_url": "https://api.github.com/repos/PrismarineJS/minecraft-data/commits/d4315eccd4f3854a0788437e56db21a8e56e9a84/comments",
            "commit": {
                "author": {
                    "date": "2022-05-28T23:23:27Z",
                    "email": "rosechilds09@gmail.com",
                    "name": "RoseChilds"
                },
                "comment_count": 0,
                "committer": {
                    "date": "2022-05-28T23:23:27Z",
                    "email": "rosechilds09@gmail.com",
                    "name": "RoseChilds"
                },
                "message": "Fix shulker box and ender pearl stack sizes",
                "tree": {
                    "sha": "0fb1febf7383bcd36173f4e5b4d78239355e271b",
                    "url": "https://api.github.com/repos/PrismarineJS/minecraft-data/git/trees/0fb1febf7383bcd36173f4e5b4d78239355e271b"
                },
                "url": "https://api.github.com/repos/PrismarineJS/minecraft-data/git/commits/d4315eccd4f3854a0788437e56db21a8e56e9a84",
                "verification": {
                    "payload": null,
                    "reason": "unsigned",
                    "signature": null,
                    "verified": false
                }
            },
            "committer": {
                "avatar_url": "https://avatars.githubusercontent.com/u/78880286?v=4",
                "events_url": "https://api.github.com/users/solithcy/events{/privacy}",
                "followers_url": "https://api.github.com/users/solithcy/followers",
                "following_url": "https://api.github.com/users/solithcy/following{/other_user}",
                "gists_url": "https://api.github.com/users/solithcy/gists{/gist_id}",
                "gravatar_id": "",
                "html_url": "https://github.com/solithcy",
                "id": 78880286,
                "login": "solithcy",
                "node_id": "MDQ6VXNlcjc4ODgwMjg2",
                "organizations_url": "https://api.github.com/users/solithcy/orgs",
                "received_events_url": "https://api.github.com/users/solithcy/received_events",
                "repos_url": "https://api.github.com/users/solithcy/repos",
                "site_admin": false,
                "starred_url": "https://api.github.com/users/solithcy/starred{/owner}{/repo}",
                "subscriptions_url": "https://api.github.com/users/solithcy/subscriptions",
                "type": "User",
                "url": "https://api.github.com/users/solithcy"
            },
            "html_url": "https://github.com/PrismarineJS/minecraft-data/commit/d4315eccd4f3854a0788437e56db21a8e56e9a84",
            "node_id": "C_kwDOHaZv2toAKGQ0MzE1ZWNjZDRmMzg1NGEwNzg4NDM3ZTU2ZGIyMWE4ZTU2ZTlhODQ",
            "parents": [
                {
                    "html_url": "https://github.com/PrismarineJS/minecraft-data/commit/bfd752d3d53813120e05215a0b970d3280b189ff",
                    "sha": "bfd752d3d53813120e05215a0b970d3280b189ff",
                    "url": "https://api.github.com/repos/PrismarineJS/minecraft-data/commits/bfd752d3d53813120e05215a0b970d3280b189ff"
                }
            ],
            "sha": "d4315eccd4f3854a0788437e56db21a8e56e9a84",
            "url": "https://api.github.com/repos/PrismarineJS/minecraft-data/commits/d4315eccd4f3854a0788437e56db21a8e56e9a84"
        },
        {
            "author": {
                "avatar_url": "https://avatars.githubusercontent.com/u/78880286?v=4",
                "events_url": "https://api.github.com/users/solithcy/events{/privacy}",
                "followers_url": "https://api.github.com/users/solithcy/followers",
                "following_url": "https://api.github.com/users/solithcy/following{/other_user}",
                "gists_url": "https://api.github.com/users/solithcy/gists{/gist_id}",
                "gravatar_id": "",
                "html_url": "https://github.com/solithcy",
                "id": 78880286,
                "login": "solithcy",
                "node_id": "MDQ6VXNlcjc4ODgwMjg2",
                "organizations_url": "https://api.github.com/users/solithcy/orgs",
                "received_events_url": "https://api.github.com/users/solithcy/received_events",
                "repos_url": "https://api.github.com/users/solithcy/repos",
                "site_admin": false,
                "starred_url": "https://api.github.com/users/solithcy/starred{/owner}{/repo}",
                "subscriptions_url": "https://api.github.com/users/solithcy/subscriptions",
                "type": "User",
                "url": "https://api.github.com/users/solithcy"
            },
            "comments_url": "https://api.github.com/repos/PrismarineJS/minecraft-data/commits/461ecea85c936ac69fb6f213c063dce68c4234d3/comments",
            "commit": {
                "author": {
                    "date": "2022-05-28T23:27:10Z",
                    "email": "rosechilds09@gmail.com",
                    "name": "RoseChilds"
                },
                "comment_count": 0,
                "committer": {
                    "date": "2022-05-28T23:27:10Z",
                    "email": "rosechilds09@gmail.com",
                    "name": "RoseChilds"
                },
                "message": "Accidentally ammended the wrong property :p",
                "tree": {
                    "sha": "6946a445ba027eeeda48eec5ddf5317a511f810d",
                    "url": "https://api.github.com/repos/PrismarineJS/minecraft-data/git/trees/6946a445ba027eeeda48eec5ddf5317a511f810d"
                },
                "url": "https://api.github.com/repos/PrismarineJS/minecraft-data/git/commits/461ecea85c936ac69fb6f213c063dce68c4234d3",
                "verification": {
                    "payload": null,
                    "reason": "unsigned",
                    "signature": null,
                    "verified": false
                }
            },
            "committer": {
                "avatar_url": "https://avatars.githubusercontent.com/u/78880286?v=4",
                "events_url": "https://api.github.com/users/solithcy/events{/privacy}",
                "followers_url": "https://api.github.com/users/solithcy/followers",
                "following_url": "https://api.github.com/users/solithcy/following{/other_user}",
                "gists_url": "https://api.github.com/users/solithcy/gists{/gist_id}",
                "gravatar_id": "",
                "html_url": "https://github.com/solithcy",
                "id": 78880286,
                "login": "solithcy",
                "node_id": "MDQ6VXNlcjc4ODgwMjg2",
                "organizations_url": "https://api.github.com/users/solithcy/orgs",
                "received_events_url": "https://api.github.com/users/solithcy/received_events",
                "repos_url": "https://api.github.com/users/solithcy/repos",
                "site_admin": false,
                "starred_url": "https://api.github.com/users/solithcy/starred{/owner}{/repo}",
                "subscriptions_url": "https://api.github.com/users/solithcy/subscriptions",
                "type": "User",
                "url": "https://api.github.com/users/solithcy"
            },
            "html_url": "https://github.com/PrismarineJS/minecraft-data/commit/461ecea85c936ac69fb6f213c063dce68c4234d3",
            "node_id": "C_kwDOHaZv2toAKDQ2MWVjZWE4NWM5MzZhYzY5ZmI2ZjIxM2MwNjNkY2U2OGM0MjM0ZDM",
            "parents": [
                {
                    "html_url": "https://github.com/PrismarineJS/minecraft-data/commit/d4315eccd4f3854a0788437e56db21a8e56e9a84",
                    "sha": "d4315eccd4f3854a0788437e56db21a8e56e9a84",
                    "url": "https://api.github.com/repos/PrismarineJS/minecraft-data/commits/d4315eccd4f3854a0788437e56db21a8e56e9a84"
                }
            ],
            "sha": "461ecea85c936ac69fb6f213c063dce68c4234d3",
            "url": "https://api.github.com/repos/PrismarineJS/minecraft-data/commits/461ecea85c936ac69fb6f213c063dce68c4234d3"
        }
    ],
    "commits": 2,
    "commits_url": "https://api.github.com/repos/PrismarineJS/minecraft-data/pulls/563/commits",
    "created_at": "2022-05-28T23:29:08Z",
    "deletions": 49,
    "diff_url": "https://github.com/PrismarineJS/minecraft-data/pull/563.diff",
    "draft": false,
    "head": {
        "label": "solithcy:master",
        "ref": "master",
        "repo": {
            "allow_forking": true,
            "archive_url": "https://api.github.com/repos/solithcy/minecraft-data/{archive_format}{/ref}",
            "archived": false,
            "assignees_url": "https://api.github.com/repos/solithcy/minecraft-data/assignees{/user}",
            "blobs_url": "https://api.github.com/repos/solithcy/minecraft-data/git/blobs{/sha}",
            "branches_url": "https://api.github.com/repos/solithcy/minecraft-data/branches{/branch}",
            "clone_url": "https://github.com/solithcy/minecraft-data.git",
            "collaborators_url": "https://api.github.com/repos/solithcy/minecraft-data/collaborators{/collaborator}",
            "comments_url": "https://api.github.com/repos/solithcy/minecraft-data/comments{/number}",
            "commits_url": "https://api.github.com/repos/solithcy/minecraft-data/commits{/sha}",
            "compare_url": "https://api.github.com/repos/solithcy/minecraft-data/compare/{base}...{head}",
            "contents_url": "https://api.github.com/repos/solithcy/minecraft-data/contents/{+path}",
            "contributors_url": "https://api.github.com/repos/solithcy/minecraft-data/contributors",
            "created_at": "2022-05-28T23:16:19Z",
            "default_branch": "master",
            "deployments_url": "https://api.github.com/repos/solithcy/minecraft-data/deployments",
            "description": "Language independent module providing minecraft data for minecraft clients, servers and libraries.",
            "disabled": false,
            "downloads_url": "https://api.github.com/repos/solithcy/minecraft-data/downloads",
            "events_url": "https://api.github.com/repos/solithcy/minecraft-data/events",
            "fork": true,
            "forks": 0,
            "forks_count": 0,
            "forks_url": "https://api.github.com/repos/solithcy/minecraft-data/forks",
            "full_name": "solithcy/minecraft-data",
            "git_commits_url": "https://api.github.com/repos/solithcy/minecraft-data/git/commits{/sha}",
            "git_refs_url": "https://api.github.com/repos/solithcy/minecraft-data/git/refs{/sha}",
            "git_tags_url": "https://api.github.com/repos/solithcy/minecraft-data/git/tags{/sha}",
            "git_url": "git://github.com/solithcy/minecraft-data.git",
            "has_discussions": false,
            "has_downloads": true,
            "has_issues": false,
            "has_pages": false,
            "has_projects": true,
            "has_wiki": true,
            "homepage": "https://minecraft-data.prismarine.js.org/",
            "hooks_url": "https://api.github.com/repos/solithcy/minecraft-data/hooks",
            "html_url": "https://github.com/solithcy/minecraft-data",
            "id": 497446874,
            "is_template": false,
            "issue_comment_url": "https://api.github.com/repos/solithcy/minecraft-data/issues/comments{/number}",
            "issue_events_url": "https://api.github.com/repos/solithcy/minecraft-data/issues/events{/number}",
            "issues_url": "https://api.github.com/repos/solithcy/minecraft-data/issues{/number}",
            "keys_url": "https://api.github.com/repos/solithcy/minecraft-data/keys{/key_id}",
            "labels_url": "https://api.github.com/repos/solithcy/minecraft-data/labels{/name}",
            "language": "JavaScript",
            "languages_url": "https://api.github.com/repos/solithcy/minecraft-data/languages",
            "license": null,
            "merges_url": "https://api.github.com/repos/solithcy/minecraft-data/merges",
            "milestones_url": "https://api.github.com/repos/solithcy/minecraft-data/milestones{/number}",
            "mirror_url": null,
            "name": "minecraft-data",
            "node_id": "R_kgDOHaZv2g",
            "notifications_url": "https://api.github.com/repos/solithcy/minecraft-data/notifications{?since,all,participating}",
            "open_issues": 0,
            "open_issues_count": 0,
            "owner": {
                "avatar_url": "https://avatars.githubusercontent.com/u/78880286?v=4",
                "events_url": "https://api.github.com/users/solithcy/events{/privacy}",
                "followers_url": "https://api.github.com/users/solithcy/followers",
                "following_url": "https://api.github.com/users/solithcy/following{/other_user}",
                "gists_url": "https://api.github.com/users/solithcy/gists{/gist_id}",
                "gravatar_id": "",
                "html_url": "https://github.com/solithcy",
                "id": 78880286,
                "login": "solithcy",
                "node_id": "MDQ6VXNlcjc4ODgwMjg2",
                "organizations_url": "https://api.github.com/users/solithcy/orgs",
                "received_events_url": "https://api.github.com/users/solithcy/received_events",
                "repos_url": "https://api.github.com/users/solithcy/repos",
                "site_admin": false,
                "starred_url": "https://api.github.com/users/solithcy/starred{/owner}{/repo}",
                "subscriptions_url": "https://api.github.com/users/solithcy/subscriptions",
                "type": "User",
                "url": "https://api.github.com/users/solithcy"
            },
            "private": false,
            "pulls_url": "https://api.github.com/repos/solithcy/minecraft-data/pulls{/number}",
            "pushed_at": "2022-05-28T23:27:11Z",
            "releases_url": "https://api.github.com/repos/solithcy/minecraft-data/releases{/id}",
            "size": 30863,
            "ssh_url": "git@github.com:solithcy/minecraft-data.git",
            "stargazers_count": 0,
            "stargazers_url": "https://api.github.com/repos/solithcy/minecraft-data/stargazers",
            "statuses_url": "https://api.github.com/repos/solithcy/minecraft-data/statuses/{sha}",
            "subscribers_url": "https://api.github.com/repos/solithcy/minecraft-data/subscribers",
            "subscription_url": "https://api.github.com/repos/solithcy/minecraft-data/subscription",
            "svn_url": "https://github.com/solithcy/minecraft-data",
            "tags_url": "https://api.github.com/repos/solithcy/minecraft-data/tags",
            "teams_url": "https://api.github.com/repos/solithcy/minecraft-data/teams",
            "topics": [],
            "trees_url": "https://api.github.com/repos/solithcy/minecraft-data/git/trees{/sha}",
            "updated_at": "2022-05-28T23:24:17Z",
            "url": "https://api.github.com/repos/solithcy/minecraft-data",
            "visibility": "public",
            "watchers": 0,
            "watchers_count": 0,
            "web_commit_signoff_required": false
        },
        "sha": "461ecea85c936ac69fb6f213c063dce68c4234d3",
        "user": {
            "avatar_url": "https://avatars.githubusercontent.com/u/78880286?v=4",
            "events_url": "https://api.github.com/users/solithcy/events{/privacy}",
            "followers_url": "https://api.github.com/users/solithcy/followers",
            "following_url": "https://api.github.com/users/solithcy/following{/other_user}",
            "gists_url": "https://api.github.com/users/solithcy/gists{/gist_id}",
            "gravatar_id": "",
            "html_url": "https://github.com/solithcy",
            "id": 78880286,
            "login": "solithcy",
            "node_id": "MDQ6VXNlcjc4ODgwMjg2",
            "organizations_url": "https://api.github.com/users/solithcy/orgs",
            "received_events_url": "https://api.github.com/users/solithcy/received_events",
            "repos_url": "https://api.github.com/users/solithcy/repos",
            "site_admin": false,
            "starred_url": "https://api.github.com/users/solithcy/starred{/owner}{/repo}",
            "subscriptions_url": "https://api.github.com/users/solithcy/subscriptions",
            "type": "User",
            "url": "https://api.github.com/users/solithcy"
        }
    },
    "html_url": "https://github.com/PrismarineJS/minecraft-data/pull/563",
    "id": 950151363,
    "issue_url": "https://api.github.com/repos/PrismarineJS/minecraft-data/issues/563",
    "labels": [],
    "locked": false,
    "maintainer_can_modify": false,
    "merge_commit_sha": "0a77203b5f3dec1ddeec258bcc1b491e6c1b60ce",
    "mergeable": null,
    "mergeable_state": "unknown",
    "merged": true,
    "merged_at": "2022-05-29T00:18:56Z",
    "merged_by": {
        "avatar_url": "https://avatars.githubusercontent.com/u/2346494?v=4",
        "events_url": "https://api.github.com/users/rom1504/events{/privacy}",
        "followers_url": "https://api.github.com/users/rom1504/followers",
        "following_url": "https://api.github.com/users/rom1504/following{/other_user}",
        "gists_url": "https://api.github.com/users/rom1504/gists{/gist_id}",
        "gravatar_id": "",
        "html_url": "https://github.com/rom1504",
        "id": 2346494,
        "login": "rom1504",
        "node_id": "MDQ6VXNlcjIzNDY0OTQ=",
        "organizations_url": "https://api.github.com/users/rom1504/orgs",
        "received_events_url": "https://api.github.com/users/rom1504/received_events",
        "repos_url": "https://api.github.com/users/rom1504/repos",
        "site_admin": false,
        "starred_url": "https://api.github.com/users/rom1504/starred{/owner}{/repo}",
        "subscriptions_url": "https://api.github.com/users/rom1504/subscriptions",
        "type": "User",
        "url": "https://api.github.com/users/rom1504"
    },
    "milestone": null,
    "node_id": "PR_kwDOAfOYes44oijD",
    "number": 563,
    "patch_url": "https://github.com/PrismarineJS/minecraft-data/pull/563.patch",
    "rebaseable": null,
    "requested_reviewers": [],
    "requested_teams": [],
    "review_comment_url": "https://api.github.com/repos/PrismarineJS/minecraft-data/pulls/comments{/number}",
    "review_comments": 0,
    "review_comments_url": "https://api.github.com/repos/PrismarineJS/minecraft-data/pulls/563/comments",
    "state": "closed",
    "statuses_url": "https://api.github.com/repos/PrismarineJS/minecraft-data/statuses/461ecea85c936ac69fb6f213c063dce68c4234d3",
    "title": "Fix shulker box and ender pearl stack sizes",
    "updated_at": "2022-05-29T00:18:56Z",
    "url": "https://api.github.com/repos/PrismarineJS/minecraft-data/pulls/563",
    "user": {
        "avatar_url": "https://avatars.githubusercontent.com/u/78880286?v=4",
        "events_url": "https://api.github.com/users/solithcy/events{/privacy}",
        "followers_url": "https://api.github.com/users/solithcy/followers",
        "following_url": "https://api.github.com/users/solithcy/following{/other_user}",
        "gists_url": "https://api.github.com/users/solithcy/gists{/gist_id}",
        "gravatar_id": "",
        "html_url": "https://github.com/solithcy",
        "id": 78880286,
        "login": "solithcy",
        "node_id": "MDQ6VXNlcjc4ODgwMjg2",
        "organizations_url": "https://api.github.com/users/solithcy/orgs",
        "received_events_url": "https://api.github.com/users/solithcy/received_events",
        "repos_url": "https://api.github.com/users/solithcy/repos",
        "site_admin": false,
        "starred_url": "https://api.github.com/users/solithcy/starred{/owner}{/repo}",
        "subscriptions_url": "https://api.github.com/users/solithcy/subscriptions",
        "type": "User",
        "url": "https://api.github.com/users/solithcy"
    }
}