{
    "_links": {
        "comments": {
            "href": "https://api.github.com/repos/PrismarineJS/minecraft-data/issues/61/comments"
        },
        "commits": {
            "href": "https://api.github.com/repos/PrismarineJS/minecraft-data/pulls/61/commits"
        },
        "html": {
            "href": "https://github.com/PrismarineJS/minecraft-data/pull/61"
        },
        "issue": {
            "href": "https://api.github.com/repos/PrismarineJS/minecraft-data/issues/61"
        },
        "review_comment": {
            "href": "https://api.github.com/repos/PrismarineJS/minecraft-data/pulls/comments{/number}"
        },
        "review_comments": {
            "href": "https://api.github.com/repos/PrismarineJS/minecraft-data/pulls/61/comments"
        },
        "self": {
            "href": "https://api.github.com/repos/PrismarineJS/minecraft-data/pulls/61"
        },
        "statuses": {
            "href": "https://api.github.com/repos/PrismarineJS/minecraft-data/statuses/9bf60ce2787dc62fa5e3018a0bcbfc228d7230fa"
        }
    },
    "active_lock_reason": null,
    "additions": 2,
    "assignee": null,
    "assignees": [],
    "author_association": "MEMBER",
    "auto_merge": null,
    "base": {
        "label": "PrismarineJS:1.8",
        "ref": "1.8",
        "repo": {
            "allow_forking": true,
            "archive_url": "https://api.github.com/repos/PrismarineJS/minecraft-data/{archive_format}{/ref}",
            "archived": false,
            "assignees_url": "https://api.github.com/repos/PrismarineJS/minecraft-data/assignees{/user}",
            "blobs_url": "https://api.github.com/repos/PrismarineJS/minecraft-data/git/blobs{/sha}",
            "branches_url": "https://api.github.com/repos/PrismarineJS/minecraft-data/branches{/branch}",
            "clone_url": "https://github.com/PrismarineJS/minecraft-data.git",
            "collaborators_url": "https://api.github.com/repos/PrismarineJS/minecraft-data/collaborators{/collaborator}",
            "comments_url": "https://api.github.com/repos/PrismarineJS/minecraft-data/comments{/number}",
            "commits_url": "https://api.github.com/repos/PrismarineJS/minecraft-data/commits{/sha}",
            "compare_url": "https://api.github.com/repos/PrismarineJS/minecraft-data/compare/{base}...{head}",
            "contents_url": "https://api.github.com/repos/PrismarineJS/minecraft-data/contents/{+path}",
            "contributors_url": "https://api.github.com/repos/PrismarineJS/minecraft-data/contributors",
            "created_at": "2015-03-23T15:38:19Z",
            "default_branch": "master",
            "deployments_url": "https://api.github.com/repos/PrismarineJS/minecraft-data/deployments",
            "description": "Language independent module providing minecraft data for minecraft clients, servers and libraries.",
            "disabled": false,
            "downloads_url": "https://api.github.com/repos/PrismarineJS/minecraft-data/downloads",
            "events_url": "https://api.github.com/repos/PrismarineJS/minecraft-data/events",
            "fork": false,
            "forks": 184,
            "forks_count": 184,
            "forks_url": "https://api.github.com/repos/PrismarineJS/minecraft-data/forks",
            "full_name": "PrismarineJS/minecraft-data",
            "git_commits_url": "https://api.github.com/repos/PrismarineJS/minecraft-data/git/commits{/sha}",
            "git_refs_url": "https://api.github.com/repos/PrismarineJS/minecraft-data/git/refs{/sha}",
            "git_tags_url": "https://api.github.com/repos/PrismarineJS/minecraft-data/git/tags{/sha}",
            "git_url": "git://github.com/PrismarineJS/minecraft-data.git",
            "has_discussions": false,
            "has_downloads": true,
            "has_issues": true,
            "has_pages": true,
            "has_projects": true,
            "has_wiki": true,
            "homepage": "https://prismarinejs.github.io/minecraft-data",
            "hooks_url": "https://api.github.com/repos/PrismarineJS/minecraft-data/hooks",
            "html_url": "https://github.com/PrismarineJS/minecraft-data",
            "id": 32741498,
            "is_template": false,
            "issue_comment_url": "https://api.github.com/repos/PrismarineJS/minecraft-data/issues/comments{/number}",
            "issue_events_url": "https://api.github.com/repos/PrismarineJS/minecraft-data/issues/events{/number}",
            "issues_url": "https://api.github.com/repos/PrismarineJS/minecraft-data/issues{/number}",
            "keys_url": "https://api.github.com/repos/PrismarineJS/minecraft-data/keys{/key_id}",
            "labels_url": "https://api.github.com/repos/PrismarineJS/minecraft-data/labels{/name}",
            "language": "JavaScript",
            "languages_url": "https://api.github.com/repos/PrismarineJS/minecraft-data/languages",
            "license": null,
            "merges_url": "https://api.github.com/repos/PrismarineJS/minecraft-data/merges",
            "milestones_url": "https://api.github.com/repos/PrismarineJS/minecraft-data/milestones{/number}",
            "mirror_url": null,
            "name": "minecraft-data",
            "node_id": "MDEwOlJlcG9zaXRvcnkzMjc0MTQ5OA==",
            "notifications_url": "https://api.github.com/repos/PrismarineJS/minecraft-data/notifications{?since,all,participating}",
            "open_issues": 113,
            "open_issues_count": 113,
            "owner": {
                "avatar_url": "https://avatars.githubusercontent.com/u/11053411?v=4",
                "events_url": "https://api.github.com/users/PrismarineJS/events{/privacy}",
                "followers_url": "https://api.github.com/users/PrismarineJS/followers",
                "following_url": "https://api.github.com/users/PrismarineJS/following{/other_user}",
                "gists_url": "https://api.github.com/users/PrismarineJS/gists{/gist_id}",
                "gravatar_id": "",
                "html_url": "https://github.com/PrismarineJS",
                "id": 11053411,
                "login": "PrismarineJS",
                "node_id": "MDEyOk9yZ2FuaXphdGlvbjExMDUzNDEx",
                "organizations_url": "https://api.github.com/users/PrismarineJS/orgs",
                "received_events_url": "https://api.github.com/users/PrismarineJS/received_events",
                "repos_url": "https://api.github.com/users/PrismarineJS/repos",
                "site_admin": false,
                "starred_url": "https://api.github.com/users/PrismarineJS/starred{/owner}{/repo}",
                "subscriptions_url": "https://api.github.com/users/PrismarineJS/subscriptions",
                "type": "Organization",
                "url": "https://api.github.com/users/PrismarineJS"
            },
            "private": false,
            "pulls_url": "https://api.github.com/repos/PrismarineJS/minecraft-data/pulls{/number}",
            "pushed_at": "2023-04-08T18:30:50Z",
            "releases_url": "https://api.github.com/repos/PrismarineJS/minecraft-data/releases{/id}",
            "size": 134084,
            "ssh_url": "git@github.com:PrismarineJS/minecraft-data.git",
            "stargazers_count": 473,
            "stargazers_url": "https://api.github.com/repos/PrismarineJS/minecraft-data/stargazers",
            "statuses_url": "https://api.github.com/repos/PrismarineJS/minecraft-data/statuses/{sha}",
            "subscribers_url": "https://api.github.com/repos/PrismarineJS/minecraft-data/subscribers",
            "subscription_url": "https://api.github.com/repos/PrismarineJS/minecraft-data/subscription",
            "svn_url": "https://github.com/PrismarineJS/minecraft-data",
            "tags_url": "https://api.github.com/repos/PrismarineJS/minecraft-data/tags",
            "teams_url": "https://api.github.com/repos/PrismarineJS/minecraft-data/teams",
            "topics": [
                "data",
                "minecraft"
            ],
            "trees_url": "https://api.github.com/repos/PrismarineJS/minecraft-data/git/trees{/sha}",
            "updated_at": "2023-04-24T04:11:18Z",
            "url": "https://api.github.com/repos/PrismarineJS/minecraft-data",
            "visibility": "public",
            "watchers": 473,
            "watchers_count": 473,
            "web_commit_signoff_required": false
        },
        "sha": "204a494e56cfd93b309a89fa4089e5d5d680c188",
        "user": {
            "avatar_url": "https://avatars.githubusercontent.com/u/11053411?v=4",
            "events_url": "https://api.github.com/users/PrismarineJS/events{/privacy}",
            "followers_url": "https://api.github.com/users/PrismarineJS/followers",
            "following_url": "https://api.github.com/users/PrismarineJS/following{/other_user}",
            "gists_url": "https://api.github.com/users/PrismarineJS/gists{/gist_id}",
            "gravatar_id": "",
            "html_url": "https://github.com/PrismarineJS",
            "id": 11053411,
            "login": "PrismarineJS",
            "node_id": "MDEyOk9yZ2FuaXphdGlvbjExMDUzNDEx",
            "organizations_url": "https://api.github.com/users/PrismarineJS/orgs",
            "received_events_url": "https://api.github.com/users/PrismarineJS/received_events",
            "repos_url": "https://api.github.com/users/PrismarineJS/repos",
            "site_admin": false,
            "starred_url": "https://api.github.com/users/PrismarineJS/starred{/owner}{/repo}",
            "subscriptions_url": "https://api.github.com/users/PrismarineJS/subscriptions",
            "type": "Organization",
            "url": "https://api.github.com/users/PrismarineJS"
        }
    },
    "body": "```\ngrid -> craft grid\nresult -> craft result\n```\n\nIt makes no sense to name them differently than in the player inventory.\n",
    "changed_files": 1,
    "closed_at": "2015-09-04T17:47:04Z",
    "comment_data": [],
    "comment_regular_data": [],
    "comments": 0,
    "comments_url": "https://api.github.com/repos/PrismarineJS/minecraft-data/issues/61/comments",
    "commit_data": [
        {
            "author": {
                "avatar_url": "https://avatars.githubusercontent.com/u/2612164?v=4",
                "events_url": "https://api.github.com/users/Gjum/events{/privacy}",
                "followers_url": "https://api.github.com/users/Gjum/followers",
                "following_url": "https://api.github.com/users/Gjum/following{/other_user}",
                "gists_url": "https://api.github.com/users/Gjum/gists{/gist_id}",
                "gravatar_id": "",
                "html_url": "https://github.com/Gjum",
                "id": 2612164,
                "login": "Gjum",
                "node_id": "MDQ6VXNlcjI2MTIxNjQ=",
                "organizations_url": "https://api.github.com/users/Gjum/orgs",
                "received_events_url": "https://api.github.com/users/Gjum/received_events",
                "repos_url": "https://api.github.com/users/Gjum/repos",
                "site_admin": false,
                "starred_url": "https://api.github.com/users/Gjum/starred{/owner}{/repo}",
                "subscriptions_url": "https://api.github.com/users/Gjum/subscriptions",
                "type": "User",
                "url": "https://api.github.com/users/Gjum"
            },
            "comments_url": "https://api.github.com/repos/PrismarineJS/minecraft-data/commits/9bf60ce2787dc62fa5e3018a0bcbfc228d7230fa/comments",
            "commit": {
                "author": {
                    "date": "2015-09-04T17:37:27Z",
                    "email": "Gjum@users.noreply.github.com",
                    "name": "Gjum"
                },
                "comment_count": 0,
                "committer": {
                    "date": "2015-09-04T17:37:27Z",
                    "email": "Gjum@users.noreply.github.com",
                    "name": "Gjum"
                },
                "message": "Change slot range names of crafting table\n\ngrid -> craft grid\r\nresult -> craft result",
                "tree": {
                    "sha": "012e75440f4c6cc58f0c21a5ae2396965d3f2c0a",
                    "url": "https://api.github.com/repos/PrismarineJS/minecraft-data/git/trees/012e75440f4c6cc58f0c21a5ae2396965d3f2c0a"
                },
                "url": "https://api.github.com/repos/PrismarineJS/minecraft-data/git/commits/9bf60ce2787dc62fa5e3018a0bcbfc228d7230fa",
                "verification": {
                    "payload": null,
                    "reason": "unsigned",
                    "signature": null,
                    "verified": false
                }
            },
            "committer": {
                "avatar_url": "https://avatars.githubusercontent.com/u/2612164?v=4",
                "events_url": "https://api.github.com/users/Gjum/events{/privacy}",
                "followers_url": "https://api.github.com/users/Gjum/followers",
                "following_url": "https://api.github.com/users/Gjum/following{/other_user}",
                "gists_url": "https://api.github.com/users/Gjum/gists{/gist_id}",
                "gravatar_id": "",
                "html_url": "https://github.com/Gjum",
                "id": 2612164,
                "login": "Gjum",
                "node_id": "MDQ6VXNlcjI2MTIxNjQ=",
                "organizations_url": "https://api.github.com/users/Gjum/orgs",
                "received_events_url": "https://api.github.com/users/Gjum/received_events",
                "repos_url": "https://api.github.com/users/Gjum/repos",
                "site_admin": false,
                "starred_url": "https://api.github.com/users/Gjum/starred{/owner}{/repo}",
                "subscriptions_url": "https://api.github.com/users/Gjum/subscriptions",
                "type": "User",
                "url": "https://api.github.com/users/Gjum"
            },
            "html_url": "https://github.com/PrismarineJS/minecraft-data/commit/9bf60ce2787dc62fa5e3018a0bcbfc228d7230fa",
            "node_id": "MDY6Q29tbWl0MzI4MTg5NDQ6OWJmNjBjZTI3ODdkYzYyZmE1ZTMwMThhMGJjYmZjMjI4ZDcyMzBmYQ==",
            "parents": [
                {
                    "html_url": "https://github.com/PrismarineJS/minecraft-data/commit/204a494e56cfd93b309a89fa4089e5d5d680c188",
                    "sha": "204a494e56cfd93b309a89fa4089e5d5d680c188",
                    "url": "https://api.github.com/repos/PrismarineJS/minecraft-data/commits/204a494e56cfd93b309a89fa4089e5d5d680c188"
                }
            ],
            "sha": "9bf60ce2787dc62fa5e3018a0bcbfc228d7230fa",
            "url": "https://api.github.com/repos/PrismarineJS/minecraft-data/commits/9bf60ce2787dc62fa5e3018a0bcbfc228d7230fa"
        }
    ],
    "commits": 1,
    "commits_url": "https://api.github.com/repos/PrismarineJS/minecraft-data/pulls/61/commits",
    "created_at": "2015-09-04T17:39:10Z",
    "deletions": 2,
    "diff_url": "https://github.com/PrismarineJS/minecraft-data/pull/61.diff",
    "draft": false,
    "head": {
        "label": "Gjum:patch-1",
        "ref": "patch-1",
        "repo": {
            "allow_forking": true,
            "archive_url": "https://api.github.com/repos/Gjum/minecraft-data/{archive_format}{/ref}",
            "archived": false,
            "assignees_url": "https://api.github.com/repos/Gjum/minecraft-data/assignees{/user}",
            "blobs_url": "https://api.github.com/repos/Gjum/minecraft-data/git/blobs{/sha}",
            "branches_url": "https://api.github.com/repos/Gjum/minecraft-data/branches{/branch}",
            "clone_url": "https://github.com/Gjum/minecraft-data.git",
            "collaborators_url": "https://api.github.com/repos/Gjum/minecraft-data/collaborators{/collaborator}",
            "comments_url": "https://api.github.com/repos/Gjum/minecraft-data/comments{/number}",
            "commits_url": "https://api.github.com/repos/Gjum/minecraft-data/commits{/sha}",
            "compare_url": "https://api.github.com/repos/Gjum/minecraft-data/compare/{base}...{head}",
            "contents_url": "https://api.github.com/repos/Gjum/minecraft-data/contents/{+path}",
            "contributors_url": "https://api.github.com/repos/Gjum/minecraft-data/contributors",
            "created_at": "2015-03-24T19:03:34Z",
            "default_branch": "master",
            "deployments_url": "https://api.github.com/repos/Gjum/minecraft-data/deployments",
            "description": "Provide minecraft data for minecraft clients, servers and libraries.",
            "disabled": false,
            "downloads_url": "https://api.github.com/repos/Gjum/minecraft-data/downloads",
            "events_url": "https://api.github.com/repos/Gjum/minecraft-data/events",
            "fork": true,
            "forks": 0,
            "forks_count": 0,
            "forks_url": "https://api.github.com/repos/Gjum/minecraft-data/forks",
            "full_name": "Gjum/minecraft-data",
            "git_commits_url": "https://api.github.com/repos/Gjum/minecraft-data/git/commits{/sha}",
            "git_refs_url": "https://api.github.com/repos/Gjum/minecraft-data/git/refs{/sha}",
            "git_tags_url": "https://api.github.com/repos/Gjum/minecraft-data/git/tags{/sha}",
            "git_url": "git://github.com/Gjum/minecraft-data.git",
            "has_discussions": false,
            "has_downloads": true,
            "has_issues": false,
            "has_pages": false,
            "has_projects": true,
            "has_wiki": true,
            "homepage": "",
            "hooks_url": "https://api.github.com/repos/Gjum/minecraft-data/hooks",
            "html_url": "https://github.com/Gjum/minecraft-data",
            "id": 32818944,
            "is_template": false,
            "issue_comment_url": "https://api.github.com/repos/Gjum/minecraft-data/issues/comments{/number}",
            "issue_events_url": "https://api.github.com/repos/Gjum/minecraft-data/issues/events{/number}",
            "issues_url": "https://api.github.com/repos/Gjum/minecraft-data/issues{/number}",
            "keys_url": "https://api.github.com/repos/Gjum/minecraft-data/keys{/key_id}",
            "labels_url": "https://api.github.com/repos/Gjum/minecraft-data/labels{/name}",
            "language": "JavaScript",
            "languages_url": "https://api.github.com/repos/Gjum/minecraft-data/languages",
            "license": null,
            "merges_url": "https://api.github.com/repos/Gjum/minecraft-data/merges",
            "milestones_url": "https://api.github.com/repos/Gjum/minecraft-data/milestones{/number}",
            "mirror_url": null,
            "name": "minecraft-data",
            "node_id": "MDEwOlJlcG9zaXRvcnkzMjgxODk0NA==",
            "notifications_url": "https://api.github.com/repos/Gjum/minecraft-data/notifications{?since,all,participating}",
            "open_issues": 0,
            "open_issues_count": 0,
            "owner": {
                "avatar_url": "https://avatars.githubusercontent.com/u/2612164?v=4",
                "events_url": "https://api.github.com/users/Gjum/events{/privacy}",
                "followers_url": "https://api.github.com/users/Gjum/followers",
                "following_url": "https://api.github.com/users/Gjum/following{/other_user}",
                "gists_url": "https://api.github.com/users/Gjum/gists{/gist_id}",
                "gravatar_id": "",
                "html_url": "https://github.com/Gjum",
                "id": 2612164,
                "login": "Gjum",
                "node_id": "MDQ6VXNlcjI2MTIxNjQ=",
                "organizations_url": "https://api.github.com/users/Gjum/orgs",
                "received_events_url": "https://api.github.com/users/Gjum/received_events",
                "repos_url": "https://api.github.com/users/Gjum/repos",
                "site_admin": false,
                "starred_url": "https://api.github.com/users/Gjum/starred{/owner}{/repo}",
                "subscriptions_url": "https://api.github.com/users/Gjum/subscriptions",
                "type": "User",
                "url": "https://api.github.com/users/Gjum"
            },
            "private": false,
            "pulls_url": "https://api.github.com/repos/Gjum/minecraft-data/pulls{/number}",
            "pushed_at": "2021-06-16T21:34:12Z",
            "releases_url": "https://api.github.com/repos/Gjum/minecraft-data/releases{/id}",
            "size": 1566,
            "ssh_url": "git@github.com:Gjum/minecraft-data.git",
            "stargazers_count": 0,
            "stargazers_url": "https://api.github.com/repos/Gjum/minecraft-data/stargazers",
            "statuses_url": "https://api.github.com/repos/Gjum/minecraft-data/statuses/{sha}",
            "subscribers_url": "https://api.github.com/repos/Gjum/minecraft-data/subscribers",
            "subscription_url": "https://api.github.com/repos/Gjum/minecraft-data/subscription",
            "svn_url": "https://github.com/Gjum/minecraft-data",
            "tags_url": "https://api.github.com/repos/Gjum/minecraft-data/tags",
            "teams_url": "https://api.github.com/repos/Gjum/minecraft-data/teams",
            "topics": [],
            "trees_url": "https://api.github.com/repos/Gjum/minecraft-data/git/trees{/sha}",
            "updated_at": "2020-04-21T21:37:25Z",
            "url": "https://api.github.com/repos/Gjum/minecraft-data",
            "visibility": "public",
            "watchers": 0,
            "watchers_count": 0,
            "web_commit_signoff_required": false
        },
        "sha": "9bf60ce2787dc62fa5e3018a0bcbfc228d7230fa",
        "user": {
            "avatar_url": "https://avatars.githubusercontent.com/u/2612164?v=4",
            "events_url": "https://api.github.com/users/Gjum/events{/privacy}",
            "followers_url": "https://api.github.com/users/Gjum/followers",
            "following_url": "https://api.github.com/users/Gjum/following{/other_user}",
            "gists_url": "https://api.github.com/users/Gjum/gists{/gist_id}",
            "gravatar_id": "",
            "html_url": "https://github.com/Gjum",
            "id": 2612164,
            "login": "Gjum",
            "node_id": "MDQ6VXNlcjI2MTIxNjQ=",
            "organizations_url": "https://api.github.com/users/Gjum/orgs",
            "received_events_url": "https://api.github.com/users/Gjum/received_events",
            "repos_url": "https://api.github.com/users/Gjum/repos",
            "site_admin": false,
            "starred_url": "https://api.github.com/users/Gjum/starred{/owner}{/repo}",
            "subscriptions_url": "https://api.github.com/users/Gjum/subscriptions",
            "type": "User",
            "url": "https://api.github.com/users/Gjum"
        }
    },
    "html_url": "https://github.com/PrismarineJS/minecraft-data/pull/61",
    "id": 44243154,
    "issue_url": "https://api.github.com/repos/PrismarineJS/minecraft-data/issues/61",
    "labels": [],
    "locked": false,
    "maintainer_can_modify": false,
    "merge_commit_sha": "88f3b7b015cc9f442891ae9c5d9a7613ea7de863",
    "mergeable": false,
    "mergeable_state": "dirty",
    "merged": true,
    "merged_at": "2015-09-04T17:47:04Z",
    "merged_by": {
        "avatar_url": "https://avatars.githubusercontent.com/u/2346494?v=4",
        "events_url": "https://api.github.com/users/rom1504/events{/privacy}",
        "followers_url": "https://api.github.com/users/rom1504/followers",
        "following_url": "https://api.github.com/users/rom1504/following{/other_user}",
        "gists_url": "https://api.github.com/users/rom1504/gists{/gist_id}",
        "gravatar_id": "",
        "html_url": "https://github.com/rom1504",
        "id": 2346494,
        "login": "rom1504",
        "node_id": "MDQ6VXNlcjIzNDY0OTQ=",
        "organizations_url": "https://api.github.com/users/rom1504/orgs",
        "received_events_url": "https://api.github.com/users/rom1504/received_events",
        "repos_url": "https://api.github.com/users/rom1504/repos",
        "site_admin": false,
        "starred_url": "https://api.github.com/users/rom1504/starred{/owner}{/repo}",
        "subscriptions_url": "https://api.github.com/users/rom1504/subscriptions",
        "type": "User",
        "url": "https://api.github.com/users/rom1504"
    },
    "milestone": null,
    "node_id": "MDExOlB1bGxSZXF1ZXN0NDQyNDMxNTQ=",
    "number": 61,
    "patch_url": "https://github.com/PrismarineJS/minecraft-data/pull/61.patch",
    "rebaseable": false,
    "requested_reviewers": [],
    "requested_teams": [],
    "review_comment_url": "https://api.github.com/repos/PrismarineJS/minecraft-data/pulls/comments{/number}",
    "review_comments": 0,
    "review_comments_url": "https://api.github.com/repos/PrismarineJS/minecraft-data/pulls/61/comments",
    "state": "closed",
    "statuses_url": "https://api.github.com/repos/PrismarineJS/minecraft-data/statuses/9bf60ce2787dc62fa5e3018a0bcbfc228d7230fa",
    "title": "Change slot range names of crafting table",
    "updated_at": "2016-01-01T00:44:07Z",
    "url": "https://api.github.com/repos/PrismarineJS/minecraft-data/pulls/61",
    "user": {
        "avatar_url": "https://avatars.githubusercontent.com/u/2612164?v=4",
        "events_url": "https://api.github.com/users/Gjum/events{/privacy}",
        "followers_url": "https://api.github.com/users/Gjum/followers",
        "following_url": "https://api.github.com/users/Gjum/following{/other_user}",
        "gists_url": "https://api.github.com/users/Gjum/gists{/gist_id}",
        "gravatar_id": "",
        "html_url": "https://github.com/Gjum",
        "id": 2612164,
        "login": "Gjum",
        "node_id": "MDQ6VXNlcjI2MTIxNjQ=",
        "organizations_url": "https://api.github.com/users/Gjum/orgs",
        "received_events_url": "https://api.github.com/users/Gjum/received_events",
        "repos_url": "https://api.github.com/users/Gjum/repos",
        "site_admin": false,
        "starred_url": "https://api.github.com/users/Gjum/starred{/owner}{/repo}",
        "subscriptions_url": "https://api.github.com/users/Gjum/subscriptions",
        "type": "User",
        "url": "https://api.github.com/users/Gjum"
    }
}