{
    "_links": {
        "comments": {
            "href": "https://api.github.com/repos/PrismarineJS/minecraft-data/issues/727/comments"
        },
        "commits": {
            "href": "https://api.github.com/repos/PrismarineJS/minecraft-data/pulls/727/commits"
        },
        "html": {
            "href": "https://github.com/PrismarineJS/minecraft-data/pull/727"
        },
        "issue": {
            "href": "https://api.github.com/repos/PrismarineJS/minecraft-data/issues/727"
        },
        "review_comment": {
            "href": "https://api.github.com/repos/PrismarineJS/minecraft-data/pulls/comments{/number}"
        },
        "review_comments": {
            "href": "https://api.github.com/repos/PrismarineJS/minecraft-data/pulls/727/comments"
        },
        "self": {
            "href": "https://api.github.com/repos/PrismarineJS/minecraft-data/pulls/727"
        },
        "statuses": {
            "href": "https://api.github.com/repos/PrismarineJS/minecraft-data/statuses/cd65aca47ac8149395dfcb2cbb25bb4305873f53"
        }
    },
    "active_lock_reason": null,
    "additions": 22,
    "assignee": null,
    "assignees": [],
    "author_association": "MEMBER",
    "auto_merge": null,
    "base": {
        "label": "PrismarineJS:master",
        "ref": "master",
        "repo": {
            "allow_forking": true,
            "archive_url": "https://api.github.com/repos/PrismarineJS/minecraft-data/{archive_format}{/ref}",
            "archived": false,
            "assignees_url": "https://api.github.com/repos/PrismarineJS/minecraft-data/assignees{/user}",
            "blobs_url": "https://api.github.com/repos/PrismarineJS/minecraft-data/git/blobs{/sha}",
            "branches_url": "https://api.github.com/repos/PrismarineJS/minecraft-data/branches{/branch}",
            "clone_url": "https://github.com/PrismarineJS/minecraft-data.git",
            "collaborators_url": "https://api.github.com/repos/PrismarineJS/minecraft-data/collaborators{/collaborator}",
            "comments_url": "https://api.github.com/repos/PrismarineJS/minecraft-data/comments{/number}",
            "commits_url": "https://api.github.com/repos/PrismarineJS/minecraft-data/commits{/sha}",
            "compare_url": "https://api.github.com/repos/PrismarineJS/minecraft-data/compare/{base}...{head}",
            "contents_url": "https://api.github.com/repos/PrismarineJS/minecraft-data/contents/{+path}",
            "contributors_url": "https://api.github.com/repos/PrismarineJS/minecraft-data/contributors",
            "created_at": "2015-03-23T15:38:19Z",
            "default_branch": "master",
            "deployments_url": "https://api.github.com/repos/PrismarineJS/minecraft-data/deployments",
            "description": "Language independent module providing minecraft data for minecraft clients, servers and libraries.",
            "disabled": false,
            "downloads_url": "https://api.github.com/repos/PrismarineJS/minecraft-data/downloads",
            "events_url": "https://api.github.com/repos/PrismarineJS/minecraft-data/events",
            "fork": false,
            "forks": 192,
            "forks_count": 192,
            "forks_url": "https://api.github.com/repos/PrismarineJS/minecraft-data/forks",
            "full_name": "PrismarineJS/minecraft-data",
            "git_commits_url": "https://api.github.com/repos/PrismarineJS/minecraft-data/git/commits{/sha}",
            "git_refs_url": "https://api.github.com/repos/PrismarineJS/minecraft-data/git/refs{/sha}",
            "git_tags_url": "https://api.github.com/repos/PrismarineJS/minecraft-data/git/tags{/sha}",
            "git_url": "git://github.com/PrismarineJS/minecraft-data.git",
            "has_discussions": false,
            "has_downloads": true,
            "has_issues": true,
            "has_pages": true,
            "has_projects": true,
            "has_wiki": true,
            "homepage": "https://prismarinejs.github.io/minecraft-data",
            "hooks_url": "https://api.github.com/repos/PrismarineJS/minecraft-data/hooks",
            "html_url": "https://github.com/PrismarineJS/minecraft-data",
            "id": 32741498,
            "is_template": false,
            "issue_comment_url": "https://api.github.com/repos/PrismarineJS/minecraft-data/issues/comments{/number}",
            "issue_events_url": "https://api.github.com/repos/PrismarineJS/minecraft-data/issues/events{/number}",
            "issues_url": "https://api.github.com/repos/PrismarineJS/minecraft-data/issues{/number}",
            "keys_url": "https://api.github.com/repos/PrismarineJS/minecraft-data/keys{/key_id}",
            "labels_url": "https://api.github.com/repos/PrismarineJS/minecraft-data/labels{/name}",
            "language": "JavaScript",
            "languages_url": "https://api.github.com/repos/PrismarineJS/minecraft-data/languages",
            "license": null,
            "merges_url": "https://api.github.com/repos/PrismarineJS/minecraft-data/merges",
            "milestones_url": "https://api.github.com/repos/PrismarineJS/minecraft-data/milestones{/number}",
            "mirror_url": null,
            "name": "minecraft-data",
            "node_id": "MDEwOlJlcG9zaXRvcnkzMjc0MTQ5OA==",
            "notifications_url": "https://api.github.com/repos/PrismarineJS/minecraft-data/notifications{?since,all,participating}",
            "open_issues": 120,
            "open_issues_count": 120,
            "owner": {
                "avatar_url": "https://avatars.githubusercontent.com/u/11053411?v=4",
                "events_url": "https://api.github.com/users/PrismarineJS/events{/privacy}",
                "followers_url": "https://api.github.com/users/PrismarineJS/followers",
                "following_url": "https://api.github.com/users/PrismarineJS/following{/other_user}",
                "gists_url": "https://api.github.com/users/PrismarineJS/gists{/gist_id}",
                "gravatar_id": "",
                "html_url": "https://github.com/PrismarineJS",
                "id": 11053411,
                "login": "PrismarineJS",
                "node_id": "MDEyOk9yZ2FuaXphdGlvbjExMDUzNDEx",
                "organizations_url": "https://api.github.com/users/PrismarineJS/orgs",
                "received_events_url": "https://api.github.com/users/PrismarineJS/received_events",
                "repos_url": "https://api.github.com/users/PrismarineJS/repos",
                "site_admin": false,
                "starred_url": "https://api.github.com/users/PrismarineJS/starred{/owner}{/repo}",
                "subscriptions_url": "https://api.github.com/users/PrismarineJS/subscriptions",
                "type": "Organization",
                "url": "https://api.github.com/users/PrismarineJS"
            },
            "private": false,
            "pulls_url": "https://api.github.com/repos/PrismarineJS/minecraft-data/pulls{/number}",
            "pushed_at": "2023-07-03T20:37:46Z",
            "releases_url": "https://api.github.com/repos/PrismarineJS/minecraft-data/releases{/id}",
            "size": 153723,
            "ssh_url": "git@github.com:PrismarineJS/minecraft-data.git",
            "stargazers_count": 508,
            "stargazers_url": "https://api.github.com/repos/PrismarineJS/minecraft-data/stargazers",
            "statuses_url": "https://api.github.com/repos/PrismarineJS/minecraft-data/statuses/{sha}",
            "subscribers_url": "https://api.github.com/repos/PrismarineJS/minecraft-data/subscribers",
            "subscription_url": "https://api.github.com/repos/PrismarineJS/minecraft-data/subscription",
            "svn_url": "https://github.com/PrismarineJS/minecraft-data",
            "tags_url": "https://api.github.com/repos/PrismarineJS/minecraft-data/tags",
            "teams_url": "https://api.github.com/repos/PrismarineJS/minecraft-data/teams",
            "topics": [
                "data",
                "minecraft"
            ],
            "trees_url": "https://api.github.com/repos/PrismarineJS/minecraft-data/git/trees{/sha}",
            "updated_at": "2023-07-02T14:11:34Z",
            "url": "https://api.github.com/repos/PrismarineJS/minecraft-data",
            "visibility": "public",
            "watchers": 508,
            "watchers_count": 508,
            "web_commit_signoff_required": false
        },
        "sha": "57e5888d8876a16a6011757065a1e7494ac25483",
        "user": {
            "avatar_url": "https://avatars.githubusercontent.com/u/11053411?v=4",
            "events_url": "https://api.github.com/users/PrismarineJS/events{/privacy}",
            "followers_url": "https://api.github.com/users/PrismarineJS/followers",
            "following_url": "https://api.github.com/users/PrismarineJS/following{/other_user}",
            "gists_url": "https://api.github.com/users/PrismarineJS/gists{/gist_id}",
            "gravatar_id": "",
            "html_url": "https://github.com/PrismarineJS",
            "id": 11053411,
            "login": "PrismarineJS",
            "node_id": "MDEyOk9yZ2FuaXphdGlvbjExMDUzNDEx",
            "organizations_url": "https://api.github.com/users/PrismarineJS/orgs",
            "received_events_url": "https://api.github.com/users/PrismarineJS/received_events",
            "repos_url": "https://api.github.com/users/PrismarineJS/repos",
            "site_admin": false,
            "starred_url": "https://api.github.com/users/PrismarineJS/starred{/owner}{/repo}",
            "subscriptions_url": "https://api.github.com/users/PrismarineJS/subscriptions",
            "type": "Organization",
            "url": "https://api.github.com/users/PrismarineJS"
        }
    },
    "body": null,
    "changed_files": 1,
    "closed_at": "2023-07-02T22:53:28Z",
    "comment_data": [
        {
            "_links": {
                "html": {
                    "href": "https://github.com/PrismarineJS/minecraft-data/pull/727#discussion_r1249810336"
                },
                "pull_request": {
                    "href": "https://api.github.com/repos/PrismarineJS/minecraft-data/pulls/727"
                },
                "self": {
                    "href": "https://api.github.com/repos/PrismarineJS/minecraft-data/pulls/comments/1249810336"
                }
            },
            "author_association": "MEMBER",
            "body": "are you sure this will work here?\r\n\r\nmcdata is a bit different from all other repos\r\n\r\nthere's tools/js for package.json stuff\r\n\r\nand for releases there's only HISTORY.md , no package.json",
            "commit_id": "cd65aca47ac8149395dfcb2cbb25bb4305873f53",
            "created_at": "2023-07-02T21:48:56Z",
            "diff_hunk": "@@ -0,0 +1,22 @@\n+name: Repo Commands\n+\n+on:\n+  issue_comment:        # Handle comment commands\n+    types: [created]\n+  pull_request:         # Handle renamed PRs\n+    types: [edited]\n+\n+jobs:\n+  comment-trigger:\n+    runs-on: ubuntu-latest\n+    steps:\n+    - name: Check out repository\n+      uses: actions/checkout@v3\n+    - name: Run command handlers\n+      uses: PrismarineJS/prismarine-repo-actions@master\n+      with:\n+        # NOTE: You must specify a Personal Access Token (PAT) with repo access here. While you can use the default GITHUB_TOKEN, actions taken with it will not trigger other actions, so if you have a CI workflow, commits created by this action will not trigger it.\n+        token: ${{ secrets.PAT_PASSWORD }}\n+        # See `Options` section below for more info on these options\n+        install-command: npm install\n+        /fixlint.fix-command: npm run fix",
            "html_url": "https://github.com/PrismarineJS/minecraft-data/pull/727#discussion_r1249810336",
            "id": 1249810336,
            "line": null,
            "node_id": "PRRC_kwDOAfOYes5Kfpeg",
            "original_commit_id": "5785726ae34ef84b2fcd478610f2b0157dc81ce3",
            "original_line": 22,
            "original_position": 22,
            "original_start_line": null,
            "path": ".github/workflows/commands.yml",
            "position": null,
            "pull_request_review_id": 1509734268,
            "pull_request_url": "https://api.github.com/repos/PrismarineJS/minecraft-data/pulls/727",
            "reactions": {
                "+1": 0,
                "-1": 0,
                "confused": 0,
                "eyes": 0,
                "heart": 0,
                "hooray": 0,
                "laugh": 0,
                "rocket": 0,
                "total_count": 0,
                "url": "https://api.github.com/repos/PrismarineJS/minecraft-data/pulls/comments/1249810336/reactions"
            },
            "side": "RIGHT",
            "start_line": null,
            "start_side": null,
            "subject_type": "line",
            "updated_at": "2023-07-02T21:48:56Z",
            "url": "https://api.github.com/repos/PrismarineJS/minecraft-data/pulls/comments/1249810336",
            "user": {
                "avatar_url": "https://avatars.githubusercontent.com/u/2346494?v=4",
                "events_url": "https://api.github.com/users/rom1504/events{/privacy}",
                "followers_url": "https://api.github.com/users/rom1504/followers",
                "following_url": "https://api.github.com/users/rom1504/following{/other_user}",
                "gists_url": "https://api.github.com/users/rom1504/gists{/gist_id}",
                "gravatar_id": "",
                "html_url": "https://github.com/rom1504",
                "id": 2346494,
                "login": "rom1504",
                "node_id": "MDQ6VXNlcjIzNDY0OTQ=",
                "organizations_url": "https://api.github.com/users/rom1504/orgs",
                "received_events_url": "https://api.github.com/users/rom1504/received_events",
                "repos_url": "https://api.github.com/users/rom1504/repos",
                "site_admin": false,
                "starred_url": "https://api.github.com/users/rom1504/starred{/owner}{/repo}",
                "subscriptions_url": "https://api.github.com/users/rom1504/subscriptions",
                "type": "User",
                "url": "https://api.github.com/users/rom1504"
            }
        },
        {
            "_links": {
                "html": {
                    "href": "https://github.com/PrismarineJS/minecraft-data/pull/727#discussion_r1249826827"
                },
                "pull_request": {
                    "href": "https://api.github.com/repos/PrismarineJS/minecraft-data/pulls/727"
                },
                "self": {
                    "href": "https://api.github.com/repos/PrismarineJS/minecraft-data/pulls/comments/1249826827"
                }
            },
            "author_association": "MEMBER",
            "body": "Yeah, the package.json is optional, it can read the version from just the history https://github.com/extremeheat/minecraft-data/pull/17",
            "commit_id": "cd65aca47ac8149395dfcb2cbb25bb4305873f53",
            "created_at": "2023-07-02T22:03:25Z",
            "diff_hunk": "@@ -0,0 +1,22 @@\n+name: Repo Commands\n+\n+on:\n+  issue_comment:        # Handle comment commands\n+    types: [created]\n+  pull_request:         # Handle renamed PRs\n+    types: [edited]\n+\n+jobs:\n+  comment-trigger:\n+    runs-on: ubuntu-latest\n+    steps:\n+    - name: Check out repository\n+      uses: actions/checkout@v3\n+    - name: Run command handlers\n+      uses: PrismarineJS/prismarine-repo-actions@master\n+      with:\n+        # NOTE: You must specify a Personal Access Token (PAT) with repo access here. While you can use the default GITHUB_TOKEN, actions taken with it will not trigger other actions, so if you have a CI workflow, commits created by this action will not trigger it.\n+        token: ${{ secrets.PAT_PASSWORD }}\n+        # See `Options` section below for more info on these options\n+        install-command: npm install\n+        /fixlint.fix-command: npm run fix",
            "html_url": "https://github.com/PrismarineJS/minecraft-data/pull/727#discussion_r1249826827",
            "id": 1249826827,
            "in_reply_to_id": 1249810336,
            "line": null,
            "node_id": "PRRC_kwDOAfOYes5KftgL",
            "original_commit_id": "5785726ae34ef84b2fcd478610f2b0157dc81ce3",
            "original_line": 22,
            "original_position": 22,
            "original_start_line": null,
            "path": ".github/workflows/commands.yml",
            "position": null,
            "pull_request_review_id": 1509746620,
            "pull_request_url": "https://api.github.com/repos/PrismarineJS/minecraft-data/pulls/727",
            "reactions": {
                "+1": 0,
                "-1": 0,
                "confused": 0,
                "eyes": 0,
                "heart": 0,
                "hooray": 0,
                "laugh": 0,
                "rocket": 0,
                "total_count": 0,
                "url": "https://api.github.com/repos/PrismarineJS/minecraft-data/pulls/comments/1249826827/reactions"
            },
            "side": "RIGHT",
            "start_line": null,
            "start_side": null,
            "subject_type": "line",
            "updated_at": "2023-07-02T22:03:26Z",
            "url": "https://api.github.com/repos/PrismarineJS/minecraft-data/pulls/comments/1249826827",
            "user": {
                "avatar_url": "https://avatars.githubusercontent.com/u/13713600?v=4",
                "events_url": "https://api.github.com/users/extremeheat/events{/privacy}",
                "followers_url": "https://api.github.com/users/extremeheat/followers",
                "following_url": "https://api.github.com/users/extremeheat/following{/other_user}",
                "gists_url": "https://api.github.com/users/extremeheat/gists{/gist_id}",
                "gravatar_id": "",
                "html_url": "https://github.com/extremeheat",
                "id": 13713600,
                "login": "extremeheat",
                "node_id": "MDQ6VXNlcjEzNzEzNjAw",
                "organizations_url": "https://api.github.com/users/extremeheat/orgs",
                "received_events_url": "https://api.github.com/users/extremeheat/received_events",
                "repos_url": "https://api.github.com/users/extremeheat/repos",
                "site_admin": false,
                "starred_url": "https://api.github.com/users/extremeheat/starred{/owner}{/repo}",
                "subscriptions_url": "https://api.github.com/users/extremeheat/subscriptions",
                "type": "User",
                "url": "https://api.github.com/users/extremeheat"
            }
        },
        {
            "_links": {
                "html": {
                    "href": "https://github.com/PrismarineJS/minecraft-data/pull/727#discussion_r1249838861"
                },
                "pull_request": {
                    "href": "https://api.github.com/repos/PrismarineJS/minecraft-data/pulls/727"
                },
                "self": {
                    "href": "https://api.github.com/repos/PrismarineJS/minecraft-data/pulls/comments/1249838861"
                }
            },
            "author_association": "MEMBER",
            "body": "how does it know where to run npm run fix ?",
            "commit_id": "cd65aca47ac8149395dfcb2cbb25bb4305873f53",
            "created_at": "2023-07-02T22:18:34Z",
            "diff_hunk": "@@ -0,0 +1,22 @@\n+name: Repo Commands\n+\n+on:\n+  issue_comment:        # Handle comment commands\n+    types: [created]\n+  pull_request:         # Handle renamed PRs\n+    types: [edited]\n+\n+jobs:\n+  comment-trigger:\n+    runs-on: ubuntu-latest\n+    steps:\n+    - name: Check out repository\n+      uses: actions/checkout@v3\n+    - name: Run command handlers\n+      uses: PrismarineJS/prismarine-repo-actions@master\n+      with:\n+        # NOTE: You must specify a Personal Access Token (PAT) with repo access here. While you can use the default GITHUB_TOKEN, actions taken with it will not trigger other actions, so if you have a CI workflow, commits created by this action will not trigger it.\n+        token: ${{ secrets.PAT_PASSWORD }}\n+        # See `Options` section below for more info on these options\n+        install-command: npm install\n+        /fixlint.fix-command: npm run fix",
            "html_url": "https://github.com/PrismarineJS/minecraft-data/pull/727#discussion_r1249838861",
            "id": 1249838861,
            "in_reply_to_id": 1249810336,
            "line": null,
            "node_id": "PRRC_kwDOAfOYes5KfwcN",
            "original_commit_id": "5785726ae34ef84b2fcd478610f2b0157dc81ce3",
            "original_line": 22,
            "original_position": 22,
            "original_start_line": null,
            "path": ".github/workflows/commands.yml",
            "position": null,
            "pull_request_review_id": 1509761806,
            "pull_request_url": "https://api.github.com/repos/PrismarineJS/minecraft-data/pulls/727",
            "reactions": {
                "+1": 0,
                "-1": 0,
                "confused": 0,
                "eyes": 0,
                "heart": 0,
                "hooray": 0,
                "laugh": 0,
                "rocket": 0,
                "total_count": 0,
                "url": "https://api.github.com/repos/PrismarineJS/minecraft-data/pulls/comments/1249838861/reactions"
            },
            "side": "RIGHT",
            "start_line": null,
            "start_side": null,
            "subject_type": "line",
            "updated_at": "2023-07-02T22:18:34Z",
            "url": "https://api.github.com/repos/PrismarineJS/minecraft-data/pulls/comments/1249838861",
            "user": {
                "avatar_url": "https://avatars.githubusercontent.com/u/2346494?v=4",
                "events_url": "https://api.github.com/users/rom1504/events{/privacy}",
                "followers_url": "https://api.github.com/users/rom1504/followers",
                "following_url": "https://api.github.com/users/rom1504/following{/other_user}",
                "gists_url": "https://api.github.com/users/rom1504/gists{/gist_id}",
                "gravatar_id": "",
                "html_url": "https://github.com/rom1504",
                "id": 2346494,
                "login": "rom1504",
                "node_id": "MDQ6VXNlcjIzNDY0OTQ=",
                "organizations_url": "https://api.github.com/users/rom1504/orgs",
                "received_events_url": "https://api.github.com/users/rom1504/received_events",
                "repos_url": "https://api.github.com/users/rom1504/repos",
                "site_admin": false,
                "starred_url": "https://api.github.com/users/rom1504/starred{/owner}{/repo}",
                "subscriptions_url": "https://api.github.com/users/rom1504/subscriptions",
                "type": "User",
                "url": "https://api.github.com/users/rom1504"
            }
        },
        {
            "_links": {
                "html": {
                    "href": "https://github.com/PrismarineJS/minecraft-data/pull/727#discussion_r1249841593"
                },
                "pull_request": {
                    "href": "https://api.github.com/repos/PrismarineJS/minecraft-data/pulls/727"
                },
                "self": {
                    "href": "https://api.github.com/repos/PrismarineJS/minecraft-data/pulls/comments/1249841593"
                }
            },
            "author_association": "MEMBER",
            "body": "It runs the commands specified in the workflow options at the root of the repo. But yeah it was missing the “cd tools/js” step, fixed that in the workflow options",
            "commit_id": "cd65aca47ac8149395dfcb2cbb25bb4305873f53",
            "created_at": "2023-07-02T22:23:53Z",
            "diff_hunk": "@@ -0,0 +1,22 @@\n+name: Repo Commands\n+\n+on:\n+  issue_comment:        # Handle comment commands\n+    types: [created]\n+  pull_request:         # Handle renamed PRs\n+    types: [edited]\n+\n+jobs:\n+  comment-trigger:\n+    runs-on: ubuntu-latest\n+    steps:\n+    - name: Check out repository\n+      uses: actions/checkout@v3\n+    - name: Run command handlers\n+      uses: PrismarineJS/prismarine-repo-actions@master\n+      with:\n+        # NOTE: You must specify a Personal Access Token (PAT) with repo access here. While you can use the default GITHUB_TOKEN, actions taken with it will not trigger other actions, so if you have a CI workflow, commits created by this action will not trigger it.\n+        token: ${{ secrets.PAT_PASSWORD }}\n+        # See `Options` section below for more info on these options\n+        install-command: npm install\n+        /fixlint.fix-command: npm run fix",
            "html_url": "https://github.com/PrismarineJS/minecraft-data/pull/727#discussion_r1249841593",
            "id": 1249841593,
            "in_reply_to_id": 1249810336,
            "line": null,
            "node_id": "PRRC_kwDOAfOYes5KfxG5",
            "original_commit_id": "5785726ae34ef84b2fcd478610f2b0157dc81ce3",
            "original_line": 22,
            "original_position": 22,
            "original_start_line": null,
            "path": ".github/workflows/commands.yml",
            "position": null,
            "pull_request_review_id": 1509769355,
            "pull_request_url": "https://api.github.com/repos/PrismarineJS/minecraft-data/pulls/727",
            "reactions": {
                "+1": 0,
                "-1": 0,
                "confused": 0,
                "eyes": 0,
                "heart": 0,
                "hooray": 0,
                "laugh": 0,
                "rocket": 0,
                "total_count": 0,
                "url": "https://api.github.com/repos/PrismarineJS/minecraft-data/pulls/comments/1249841593/reactions"
            },
            "side": "RIGHT",
            "start_line": null,
            "start_side": null,
            "subject_type": "line",
            "updated_at": "2023-07-02T22:23:53Z",
            "url": "https://api.github.com/repos/PrismarineJS/minecraft-data/pulls/comments/1249841593",
            "user": {
                "avatar_url": "https://avatars.githubusercontent.com/u/13713600?v=4",
                "events_url": "https://api.github.com/users/extremeheat/events{/privacy}",
                "followers_url": "https://api.github.com/users/extremeheat/followers",
                "following_url": "https://api.github.com/users/extremeheat/following{/other_user}",
                "gists_url": "https://api.github.com/users/extremeheat/gists{/gist_id}",
                "gravatar_id": "",
                "html_url": "https://github.com/extremeheat",
                "id": 13713600,
                "login": "extremeheat",
                "node_id": "MDQ6VXNlcjEzNzEzNjAw",
                "organizations_url": "https://api.github.com/users/extremeheat/orgs",
                "received_events_url": "https://api.github.com/users/extremeheat/received_events",
                "repos_url": "https://api.github.com/users/extremeheat/repos",
                "site_admin": false,
                "starred_url": "https://api.github.com/users/extremeheat/starred{/owner}{/repo}",
                "subscriptions_url": "https://api.github.com/users/extremeheat/subscriptions",
                "type": "User",
                "url": "https://api.github.com/users/extremeheat"
            }
        }
    ],
    "comment_regular_data": [
        {
            "author_association": "MEMBER",
            "body": "nice, seems to work\r\n\r\nmaybe let's add it in prismarine template\r\nand let's use https://github.com/PrismarineJS/prismarine-meta to open PRs to add it everywhere",
            "created_at": "2023-07-02T22:57:52Z",
            "html_url": "https://github.com/PrismarineJS/minecraft-data/pull/727#issuecomment-1616928754",
            "id": 1616928754,
            "issue_url": "https://api.github.com/repos/PrismarineJS/minecraft-data/issues/727",
            "node_id": "IC_kwDOAfOYes5gYF_y",
            "performed_via_github_app": null,
            "reactions": {
                "+1": 0,
                "-1": 0,
                "confused": 0,
                "eyes": 0,
                "heart": 0,
                "hooray": 0,
                "laugh": 0,
                "rocket": 0,
                "total_count": 0,
                "url": "https://api.github.com/repos/PrismarineJS/minecraft-data/issues/comments/1616928754/reactions"
            },
            "updated_at": "2023-07-02T22:57:52Z",
            "url": "https://api.github.com/repos/PrismarineJS/minecraft-data/issues/comments/1616928754",
            "user": {
                "avatar_url": "https://avatars.githubusercontent.com/u/2346494?v=4",
                "events_url": "https://api.github.com/users/rom1504/events{/privacy}",
                "followers_url": "https://api.github.com/users/rom1504/followers",
                "following_url": "https://api.github.com/users/rom1504/following{/other_user}",
                "gists_url": "https://api.github.com/users/rom1504/gists{/gist_id}",
                "gravatar_id": "",
                "html_url": "https://github.com/rom1504",
                "id": 2346494,
                "login": "rom1504",
                "node_id": "MDQ6VXNlcjIzNDY0OTQ=",
                "organizations_url": "https://api.github.com/users/rom1504/orgs",
                "received_events_url": "https://api.github.com/users/rom1504/received_events",
                "repos_url": "https://api.github.com/users/rom1504/repos",
                "site_admin": false,
                "starred_url": "https://api.github.com/users/rom1504/starred{/owner}{/repo}",
                "subscriptions_url": "https://api.github.com/users/rom1504/subscriptions",
                "type": "User",
                "url": "https://api.github.com/users/rom1504"
            }
        },
        {
            "author_association": "MEMBER",
            "body": "btw I created https://github.com/PrismarineJS/minecraft-data/issues/728 to issue the commands\r\n\r\ndoes that make sense? should we do this everywhere?",
            "created_at": "2023-07-02T22:58:29Z",
            "html_url": "https://github.com/PrismarineJS/minecraft-data/pull/727#issuecomment-1616929462",
            "id": 1616929462,
            "issue_url": "https://api.github.com/repos/PrismarineJS/minecraft-data/issues/727",
            "node_id": "IC_kwDOAfOYes5gYGK2",
            "performed_via_github_app": null,
            "reactions": {
                "+1": 0,
                "-1": 0,
                "confused": 0,
                "eyes": 0,
                "heart": 0,
                "hooray": 0,
                "laugh": 0,
                "rocket": 0,
                "total_count": 0,
                "url": "https://api.github.com/repos/PrismarineJS/minecraft-data/issues/comments/1616929462/reactions"
            },
            "updated_at": "2023-07-02T22:58:29Z",
            "url": "https://api.github.com/repos/PrismarineJS/minecraft-data/issues/comments/1616929462",
            "user": {
                "avatar_url": "https://avatars.githubusercontent.com/u/2346494?v=4",
                "events_url": "https://api.github.com/users/rom1504/events{/privacy}",
                "followers_url": "https://api.github.com/users/rom1504/followers",
                "following_url": "https://api.github.com/users/rom1504/following{/other_user}",
                "gists_url": "https://api.github.com/users/rom1504/gists{/gist_id}",
                "gravatar_id": "",
                "html_url": "https://github.com/rom1504",
                "id": 2346494,
                "login": "rom1504",
                "node_id": "MDQ6VXNlcjIzNDY0OTQ=",
                "organizations_url": "https://api.github.com/users/rom1504/orgs",
                "received_events_url": "https://api.github.com/users/rom1504/received_events",
                "repos_url": "https://api.github.com/users/rom1504/repos",
                "site_admin": false,
                "starred_url": "https://api.github.com/users/rom1504/starred{/owner}{/repo}",
                "subscriptions_url": "https://api.github.com/users/rom1504/subscriptions",
                "type": "User",
                "url": "https://api.github.com/users/rom1504"
            }
        },
        {
            "author_association": "MEMBER",
            "body": "Yeah, it can be added probably to most of the repos. It's not required to make a new issue, it should work in any issue or PR comment if the user is the author or has commit permissions on the repo. ",
            "created_at": "2023-07-04T11:26:53Z",
            "html_url": "https://github.com/PrismarineJS/minecraft-data/pull/727#issuecomment-1620069987",
            "id": 1620069987,
            "issue_url": "https://api.github.com/repos/PrismarineJS/minecraft-data/issues/727",
            "node_id": "IC_kwDOAfOYes5gkE5j",
            "performed_via_github_app": null,
            "reactions": {
                "+1": 0,
                "-1": 0,
                "confused": 0,
                "eyes": 0,
                "heart": 0,
                "hooray": 0,
                "laugh": 0,
                "rocket": 0,
                "total_count": 0,
                "url": "https://api.github.com/repos/PrismarineJS/minecraft-data/issues/comments/1620069987/reactions"
            },
            "updated_at": "2023-07-04T11:26:53Z",
            "url": "https://api.github.com/repos/PrismarineJS/minecraft-data/issues/comments/1620069987",
            "user": {
                "avatar_url": "https://avatars.githubusercontent.com/u/13713600?v=4",
                "events_url": "https://api.github.com/users/extremeheat/events{/privacy}",
                "followers_url": "https://api.github.com/users/extremeheat/followers",
                "following_url": "https://api.github.com/users/extremeheat/following{/other_user}",
                "gists_url": "https://api.github.com/users/extremeheat/gists{/gist_id}",
                "gravatar_id": "",
                "html_url": "https://github.com/extremeheat",
                "id": 13713600,
                "login": "extremeheat",
                "node_id": "MDQ6VXNlcjEzNzEzNjAw",
                "organizations_url": "https://api.github.com/users/extremeheat/orgs",
                "received_events_url": "https://api.github.com/users/extremeheat/received_events",
                "repos_url": "https://api.github.com/users/extremeheat/repos",
                "site_admin": false,
                "starred_url": "https://api.github.com/users/extremeheat/starred{/owner}{/repo}",
                "subscriptions_url": "https://api.github.com/users/extremeheat/subscriptions",
                "type": "User",
                "url": "https://api.github.com/users/extremeheat"
            }
        }
    ],
    "comments": 3,
    "comments_url": "https://api.github.com/repos/PrismarineJS/minecraft-data/issues/727/comments",
    "commit_data": [
        {
            "author": {
                "avatar_url": "https://avatars.githubusercontent.com/u/13713600?v=4",
                "events_url": "https://api.github.com/users/extremeheat/events{/privacy}",
                "followers_url": "https://api.github.com/users/extremeheat/followers",
                "following_url": "https://api.github.com/users/extremeheat/following{/other_user}",
                "gists_url": "https://api.github.com/users/extremeheat/gists{/gist_id}",
                "gravatar_id": "",
                "html_url": "https://github.com/extremeheat",
                "id": 13713600,
                "login": "extremeheat",
                "node_id": "MDQ6VXNlcjEzNzEzNjAw",
                "organizations_url": "https://api.github.com/users/extremeheat/orgs",
                "received_events_url": "https://api.github.com/users/extremeheat/received_events",
                "repos_url": "https://api.github.com/users/extremeheat/repos",
                "site_admin": false,
                "starred_url": "https://api.github.com/users/extremeheat/starred{/owner}{/repo}",
                "subscriptions_url": "https://api.github.com/users/extremeheat/subscriptions",
                "type": "User",
                "url": "https://api.github.com/users/extremeheat"
            },
            "comments_url": "https://api.github.com/repos/PrismarineJS/minecraft-data/commits/7d44a3e56ed69f672767ad2f250ba466a18cf35e/comments",
            "commit": {
                "author": {
                    "date": "2023-07-02T20:39:06Z",
                    "email": "extreme@protonmail.ch",
                    "name": "extremeheat"
                },
                "comment_count": 0,
                "committer": {
                    "date": "2023-07-02T20:39:06Z",
                    "email": "noreply@github.com",
                    "name": "GitHub"
                },
                "message": "Create commands.yml",
                "tree": {
                    "sha": "801444264312a9f7e8d672035c6403aaf73eeda1",
                    "url": "https://api.github.com/repos/PrismarineJS/minecraft-data/git/trees/801444264312a9f7e8d672035c6403aaf73eeda1"
                },
                "url": "https://api.github.com/repos/PrismarineJS/minecraft-data/git/commits/7d44a3e56ed69f672767ad2f250ba466a18cf35e",
                "verification": {
                    "payload": "tree 801444264312a9f7e8d672035c6403aaf73eeda1\nparent 57e5888d8876a16a6011757065a1e7494ac25483\nauthor extremeheat <extreme@protonmail.ch> 1688330346 -0400\ncommitter GitHub <noreply@github.com> 1688330346 -0400\n\nCreate commands.yml",
                    "reason": "valid",
                    "signature": "-----BEGIN PGP SIGNATURE-----\n\nwsBcBAABCAAQBQJkoeBqCRBK7hj4Ov3rIwAA/RUIAKnkhQGTpQnDR1+x30WPRITF\nu7GNq3E1BUeOkhraEZzzVwMTFLMdOHSkYZ8KqWVEPAPEGSuoDy8+bjhOwRb4O/Y9\n8Iy1HnPP5BGz4NtkehuppLqCY0AUD0ObD2RjB76F6d2Tj6+OpiZFH/s0ZzyqjdSP\nWGxxoJTqiJ5nUqCYkKAXllPOKVrbLWVwjjZQCoq0YAC5bFyq0BWzezYH59yaQDBf\nu7R1D/CrBfX02AjAfcHHrjZZEZ3YmVzOUpD7vUfCMKIaVRnG3Pe4lu8IMP3Wsc+9\nIENHPMc/GjWm97Bk0clWydNDm3bPe6iUHGki2Oj1NWFaYk4szQlYl6UwuYwwvQg=\n=UmUB\n-----END PGP SIGNATURE-----\n",
                    "verified": true
                }
            },
            "committer": {
                "avatar_url": "https://avatars.githubusercontent.com/u/19864447?v=4",
                "events_url": "https://api.github.com/users/web-flow/events{/privacy}",
                "followers_url": "https://api.github.com/users/web-flow/followers",
                "following_url": "https://api.github.com/users/web-flow/following{/other_user}",
                "gists_url": "https://api.github.com/users/web-flow/gists{/gist_id}",
                "gravatar_id": "",
                "html_url": "https://github.com/web-flow",
                "id": 19864447,
                "login": "web-flow",
                "node_id": "MDQ6VXNlcjE5ODY0NDQ3",
                "organizations_url": "https://api.github.com/users/web-flow/orgs",
                "received_events_url": "https://api.github.com/users/web-flow/received_events",
                "repos_url": "https://api.github.com/users/web-flow/repos",
                "site_admin": false,
                "starred_url": "https://api.github.com/users/web-flow/starred{/owner}{/repo}",
                "subscriptions_url": "https://api.github.com/users/web-flow/subscriptions",
                "type": "User",
                "url": "https://api.github.com/users/web-flow"
            },
            "html_url": "https://github.com/PrismarineJS/minecraft-data/commit/7d44a3e56ed69f672767ad2f250ba466a18cf35e",
            "node_id": "C_kwDOFfz0QtoAKDdkNDRhM2U1NmVkNjlmNjcyNzY3YWQyZjI1MGJhNDY2YTE4Y2YzNWU",
            "parents": [
                {
                    "html_url": "https://github.com/PrismarineJS/minecraft-data/commit/57e5888d8876a16a6011757065a1e7494ac25483",
                    "sha": "57e5888d8876a16a6011757065a1e7494ac25483",
                    "url": "https://api.github.com/repos/PrismarineJS/minecraft-data/commits/57e5888d8876a16a6011757065a1e7494ac25483"
                }
            ],
            "sha": "7d44a3e56ed69f672767ad2f250ba466a18cf35e",
            "url": "https://api.github.com/repos/PrismarineJS/minecraft-data/commits/7d44a3e56ed69f672767ad2f250ba466a18cf35e"
        },
        {
            "author": {
                "avatar_url": "https://avatars.githubusercontent.com/u/13713600?v=4",
                "events_url": "https://api.github.com/users/extremeheat/events{/privacy}",
                "followers_url": "https://api.github.com/users/extremeheat/followers",
                "following_url": "https://api.github.com/users/extremeheat/following{/other_user}",
                "gists_url": "https://api.github.com/users/extremeheat/gists{/gist_id}",
                "gravatar_id": "",
                "html_url": "https://github.com/extremeheat",
                "id": 13713600,
                "login": "extremeheat",
                "node_id": "MDQ6VXNlcjEzNzEzNjAw",
                "organizations_url": "https://api.github.com/users/extremeheat/orgs",
                "received_events_url": "https://api.github.com/users/extremeheat/received_events",
                "repos_url": "https://api.github.com/users/extremeheat/repos",
                "site_admin": false,
                "starred_url": "https://api.github.com/users/extremeheat/starred{/owner}{/repo}",
                "subscriptions_url": "https://api.github.com/users/extremeheat/subscriptions",
                "type": "User",
                "url": "https://api.github.com/users/extremeheat"
            },
            "comments_url": "https://api.github.com/repos/PrismarineJS/minecraft-data/commits/f3ce7ba1f18191f9d7168a11afcc2a36b4bf21a1/comments",
            "commit": {
                "author": {
                    "date": "2023-07-02T20:42:36Z",
                    "email": "extreme@protonmail.ch",
                    "name": "extremeheat"
                },
                "comment_count": 0,
                "committer": {
                    "date": "2023-07-02T20:42:36Z",
                    "email": "noreply@github.com",
                    "name": "GitHub"
                },
                "message": "Update commands.yml to use GITHUB TOKEN for test",
                "tree": {
                    "sha": "a4ee9074235a977fa1512c5e0e91b117c9e4e555",
                    "url": "https://api.github.com/repos/PrismarineJS/minecraft-data/git/trees/a4ee9074235a977fa1512c5e0e91b117c9e4e555"
                },
                "url": "https://api.github.com/repos/PrismarineJS/minecraft-data/git/commits/f3ce7ba1f18191f9d7168a11afcc2a36b4bf21a1",
                "verification": {
                    "payload": "tree a4ee9074235a977fa1512c5e0e91b117c9e4e555\nparent 7d44a3e56ed69f672767ad2f250ba466a18cf35e\nauthor extremeheat <extreme@protonmail.ch> 1688330556 -0400\ncommitter GitHub <noreply@github.com> 1688330556 -0400\n\nUpdate commands.yml to use GITHUB TOKEN for test",
                    "reason": "valid",
                    "signature": "-----BEGIN PGP SIGNATURE-----\n\nwsBcBAABCAAQBQJkoeE8CRBK7hj4Ov3rIwAASQwIAIBSO0EIIWeY8pKOfKkcuVt3\ny5Yx5zXgfosbqeojW3STwt7y5hhNMIp/K64d6N5hQdwGPUsPZIqNmRjlgtbEX6Sy\nbGiaDlUKEpMyJSdrpFDblDjT/PSyCCheU7RYYpmgBWgj+J/typTwa5gYflSI5hHA\n0YKmcVk60XwBa5LI7ip32sV3kIx4RPyCq+oN9qU7KgTGgQ+1eHXgufwVbxrZRMJ5\nRuJdiUkfjzLVK/YaUduIPI1JpK+PiCAraXpN6nA7Uy/gKF+E4bSHjSppeZxqJFzR\ntoR4Mk4/rTlfsu80ftuo5wEuyKfewyZKuyw4IjD+xiIZtZdrKSepP0AvtaiX8aA=\n=WR/7\n-----END PGP SIGNATURE-----\n",
                    "verified": true
                }
            },
            "committer": {
                "avatar_url": "https://avatars.githubusercontent.com/u/19864447?v=4",
                "events_url": "https://api.github.com/users/web-flow/events{/privacy}",
                "followers_url": "https://api.github.com/users/web-flow/followers",
                "following_url": "https://api.github.com/users/web-flow/following{/other_user}",
                "gists_url": "https://api.github.com/users/web-flow/gists{/gist_id}",
                "gravatar_id": "",
                "html_url": "https://github.com/web-flow",
                "id": 19864447,
                "login": "web-flow",
                "node_id": "MDQ6VXNlcjE5ODY0NDQ3",
                "organizations_url": "https://api.github.com/users/web-flow/orgs",
                "received_events_url": "https://api.github.com/users/web-flow/received_events",
                "repos_url": "https://api.github.com/users/web-flow/repos",
                "site_admin": false,
                "starred_url": "https://api.github.com/users/web-flow/starred{/owner}{/repo}",
                "subscriptions_url": "https://api.github.com/users/web-flow/subscriptions",
                "type": "User",
                "url": "https://api.github.com/users/web-flow"
            },
            "html_url": "https://github.com/PrismarineJS/minecraft-data/commit/f3ce7ba1f18191f9d7168a11afcc2a36b4bf21a1",
            "node_id": "C_kwDOFfz0QtoAKGYzY2U3YmExZjE4MTkxZjlkNzE2OGExMWFmY2MyYTM2YjRiZjIxYTE",
            "parents": [
                {
                    "html_url": "https://github.com/PrismarineJS/minecraft-data/commit/7d44a3e56ed69f672767ad2f250ba466a18cf35e",
                    "sha": "7d44a3e56ed69f672767ad2f250ba466a18cf35e",
                    "url": "https://api.github.com/repos/PrismarineJS/minecraft-data/commits/7d44a3e56ed69f672767ad2f250ba466a18cf35e"
                }
            ],
            "sha": "f3ce7ba1f18191f9d7168a11afcc2a36b4bf21a1",
            "url": "https://api.github.com/repos/PrismarineJS/minecraft-data/commits/f3ce7ba1f18191f9d7168a11afcc2a36b4bf21a1"
        },
        {
            "author": {
                "avatar_url": "https://avatars.githubusercontent.com/u/13713600?v=4",
                "events_url": "https://api.github.com/users/extremeheat/events{/privacy}",
                "followers_url": "https://api.github.com/users/extremeheat/followers",
                "following_url": "https://api.github.com/users/extremeheat/following{/other_user}",
                "gists_url": "https://api.github.com/users/extremeheat/gists{/gist_id}",
                "gravatar_id": "",
                "html_url": "https://github.com/extremeheat",
                "id": 13713600,
                "login": "extremeheat",
                "node_id": "MDQ6VXNlcjEzNzEzNjAw",
                "organizations_url": "https://api.github.com/users/extremeheat/orgs",
                "received_events_url": "https://api.github.com/users/extremeheat/received_events",
                "repos_url": "https://api.github.com/users/extremeheat/repos",
                "site_admin": false,
                "starred_url": "https://api.github.com/users/extremeheat/starred{/owner}{/repo}",
                "subscriptions_url": "https://api.github.com/users/extremeheat/subscriptions",
                "type": "User",
                "url": "https://api.github.com/users/extremeheat"
            },
            "comments_url": "https://api.github.com/repos/PrismarineJS/minecraft-data/commits/8706a8d0e0427521a9c7a2544fc345d72572d21c/comments",
            "commit": {
                "author": {
                    "date": "2023-07-02T20:51:18Z",
                    "email": "extreme@protonmail.ch",
                    "name": "extremeheat"
                },
                "comment_count": 0,
                "committer": {
                    "date": "2023-07-02T20:51:18Z",
                    "email": "noreply@github.com",
                    "name": "GitHub"
                },
                "message": "Update commands.yml",
                "tree": {
                    "sha": "ac72ded513a8dbfdeedd0a50106f9d4770f5ff6f",
                    "url": "https://api.github.com/repos/PrismarineJS/minecraft-data/git/trees/ac72ded513a8dbfdeedd0a50106f9d4770f5ff6f"
                },
                "url": "https://api.github.com/repos/PrismarineJS/minecraft-data/git/commits/8706a8d0e0427521a9c7a2544fc345d72572d21c",
                "verification": {
                    "payload": "tree ac72ded513a8dbfdeedd0a50106f9d4770f5ff6f\nparent f3ce7ba1f18191f9d7168a11afcc2a36b4bf21a1\nauthor extremeheat <extreme@protonmail.ch> 1688331078 -0400\ncommitter GitHub <noreply@github.com> 1688331078 -0400\n\nUpdate commands.yml",
                    "reason": "valid",
                    "signature": "-----BEGIN PGP SIGNATURE-----\n\nwsBcBAABCAAQBQJkoeNGCRBK7hj4Ov3rIwAA7z8IAE77IT90ON6/LeB2MrcoBYzc\nE3yR/EsKP7MF6O7HlAtnt2Rt8cu4qD6FhFpHllx3+6juDdQ/qDDMA319En8r1ED7\nCYnExeLqXFIhLLQ3j+vf4D5/Taj7nJhLcJIxK6CNA+bSr7VKFwdUAqreHKCKfQJ2\nBOnwhfqmVJwO5QtlsMfrsmZj9qkbtjVFndlGPzK0hAQQ9FgxjIUAdmIOR0agoci5\nK5p4pUhZ34+MUbaSQesmy45GNGvt1CjqjCley2iqHWQGVSfgnmPrxL2bqwKBIFWw\nyaIHzpCCNJY8QFm6lYoP2ilvrqK3iivxkQ2AB7uAuYo0NFeP7AKgNSbnpWe5aqs=\n=cve7\n-----END PGP SIGNATURE-----\n",
                    "verified": true
                }
            },
            "committer": {
                "avatar_url": "https://avatars.githubusercontent.com/u/19864447?v=4",
                "events_url": "https://api.github.com/users/web-flow/events{/privacy}",
                "followers_url": "https://api.github.com/users/web-flow/followers",
                "following_url": "https://api.github.com/users/web-flow/following{/other_user}",
                "gists_url": "https://api.github.com/users/web-flow/gists{/gist_id}",
                "gravatar_id": "",
                "html_url": "https://github.com/web-flow",
                "id": 19864447,
                "login": "web-flow",
                "node_id": "MDQ6VXNlcjE5ODY0NDQ3",
                "organizations_url": "https://api.github.com/users/web-flow/orgs",
                "received_events_url": "https://api.github.com/users/web-flow/received_events",
                "repos_url": "https://api.github.com/users/web-flow/repos",
                "site_admin": false,
                "starred_url": "https://api.github.com/users/web-flow/starred{/owner}{/repo}",
                "subscriptions_url": "https://api.github.com/users/web-flow/subscriptions",
                "type": "User",
                "url": "https://api.github.com/users/web-flow"
            },
            "html_url": "https://github.com/PrismarineJS/minecraft-data/commit/8706a8d0e0427521a9c7a2544fc345d72572d21c",
            "node_id": "C_kwDOFfz0QtoAKDg3MDZhOGQwZTA0Mjc1MjFhOWM3YTI1NDRmYzM0NWQ3MjU3MmQyMWM",
            "parents": [
                {
                    "html_url": "https://github.com/PrismarineJS/minecraft-data/commit/f3ce7ba1f18191f9d7168a11afcc2a36b4bf21a1",
                    "sha": "f3ce7ba1f18191f9d7168a11afcc2a36b4bf21a1",
                    "url": "https://api.github.com/repos/PrismarineJS/minecraft-data/commits/f3ce7ba1f18191f9d7168a11afcc2a36b4bf21a1"
                }
            ],
            "sha": "8706a8d0e0427521a9c7a2544fc345d72572d21c",
            "url": "https://api.github.com/repos/PrismarineJS/minecraft-data/commits/8706a8d0e0427521a9c7a2544fc345d72572d21c"
        },
        {
            "author": {
                "avatar_url": "https://avatars.githubusercontent.com/u/13713600?v=4",
                "events_url": "https://api.github.com/users/extremeheat/events{/privacy}",
                "followers_url": "https://api.github.com/users/extremeheat/followers",
                "following_url": "https://api.github.com/users/extremeheat/following{/other_user}",
                "gists_url": "https://api.github.com/users/extremeheat/gists{/gist_id}",
                "gravatar_id": "",
                "html_url": "https://github.com/extremeheat",
                "id": 13713600,
                "login": "extremeheat",
                "node_id": "MDQ6VXNlcjEzNzEzNjAw",
                "organizations_url": "https://api.github.com/users/extremeheat/orgs",
                "received_events_url": "https://api.github.com/users/extremeheat/received_events",
                "repos_url": "https://api.github.com/users/extremeheat/repos",
                "site_admin": false,
                "starred_url": "https://api.github.com/users/extremeheat/starred{/owner}{/repo}",
                "subscriptions_url": "https://api.github.com/users/extremeheat/subscriptions",
                "type": "User",
                "url": "https://api.github.com/users/extremeheat"
            },
            "comments_url": "https://api.github.com/repos/PrismarineJS/minecraft-data/commits/5785726ae34ef84b2fcd478610f2b0157dc81ce3/comments",
            "commit": {
                "author": {
                    "date": "2023-07-02T20:53:57Z",
                    "email": "extreme@protonmail.ch",
                    "name": "extremeheat"
                },
                "comment_count": 0,
                "committer": {
                    "date": "2023-07-02T20:53:57Z",
                    "email": "noreply@github.com",
                    "name": "GitHub"
                },
                "message": "Update commands.yml",
                "tree": {
                    "sha": "801444264312a9f7e8d672035c6403aaf73eeda1",
                    "url": "https://api.github.com/repos/PrismarineJS/minecraft-data/git/trees/801444264312a9f7e8d672035c6403aaf73eeda1"
                },
                "url": "https://api.github.com/repos/PrismarineJS/minecraft-data/git/commits/5785726ae34ef84b2fcd478610f2b0157dc81ce3",
                "verification": {
                    "payload": "tree 801444264312a9f7e8d672035c6403aaf73eeda1\nparent 8706a8d0e0427521a9c7a2544fc345d72572d21c\nauthor extremeheat <extreme@protonmail.ch> 1688331237 -0400\ncommitter GitHub <noreply@github.com> 1688331237 -0400\n\nUpdate commands.yml",
                    "reason": "valid",
                    "signature": "-----BEGIN PGP SIGNATURE-----\n\nwsBcBAABCAAQBQJkoePlCRBK7hj4Ov3rIwAAVSMIALCUlZL/GiNnlZ51t2lpZyd1\n7OrdoIRU7Gvg3Rz6MdKGaMa4LmcBfI8fIlnYTjv5wgvvRsmkX3CuxIfWrnt4glS1\nppedHBVG9PlCLfVozp6Wy8kRsrgV9DmX/e31o2DciXzUZrAYOlZSWG12yQbKXGS9\n6fBsyhm/UJd0atO43n/MghalWWI5BkOLByayWZ4qOYMNRmu5B7YeE0wPFXeDSEAs\nzGO/VznY9sLIGW40Fqjbhr3stR4PCj5jhHlcMIAQJ9miZ7XpuBLoCOBMDpYrQPJQ\n/olFnGf0x+1ShVGrvaLT84pPmNrVZ1DSriTM5VI1Sczr2yijw7B4t6H5zKiVGSA=\n=GYzo\n-----END PGP SIGNATURE-----\n",
                    "verified": true
                }
            },
            "committer": {
                "avatar_url": "https://avatars.githubusercontent.com/u/19864447?v=4",
                "events_url": "https://api.github.com/users/web-flow/events{/privacy}",
                "followers_url": "https://api.github.com/users/web-flow/followers",
                "following_url": "https://api.github.com/users/web-flow/following{/other_user}",
                "gists_url": "https://api.github.com/users/web-flow/gists{/gist_id}",
                "gravatar_id": "",
                "html_url": "https://github.com/web-flow",
                "id": 19864447,
                "login": "web-flow",
                "node_id": "MDQ6VXNlcjE5ODY0NDQ3",
                "organizations_url": "https://api.github.com/users/web-flow/orgs",
                "received_events_url": "https://api.github.com/users/web-flow/received_events",
                "repos_url": "https://api.github.com/users/web-flow/repos",
                "site_admin": false,
                "starred_url": "https://api.github.com/users/web-flow/starred{/owner}{/repo}",
                "subscriptions_url": "https://api.github.com/users/web-flow/subscriptions",
                "type": "User",
                "url": "https://api.github.com/users/web-flow"
            },
            "html_url": "https://github.com/PrismarineJS/minecraft-data/commit/5785726ae34ef84b2fcd478610f2b0157dc81ce3",
            "node_id": "C_kwDOFfz0QtoAKDU3ODU3MjZhZTM0ZWY4NGIyZmNkNDc4NjEwZjJiMDE1N2RjODFjZTM",
            "parents": [
                {
                    "html_url": "https://github.com/PrismarineJS/minecraft-data/commit/8706a8d0e0427521a9c7a2544fc345d72572d21c",
                    "sha": "8706a8d0e0427521a9c7a2544fc345d72572d21c",
                    "url": "https://api.github.com/repos/PrismarineJS/minecraft-data/commits/8706a8d0e0427521a9c7a2544fc345d72572d21c"
                }
            ],
            "sha": "5785726ae34ef84b2fcd478610f2b0157dc81ce3",
            "url": "https://api.github.com/repos/PrismarineJS/minecraft-data/commits/5785726ae34ef84b2fcd478610f2b0157dc81ce3"
        },
        {
            "author": {
                "avatar_url": "https://avatars.githubusercontent.com/u/13713600?v=4",
                "events_url": "https://api.github.com/users/extremeheat/events{/privacy}",
                "followers_url": "https://api.github.com/users/extremeheat/followers",
                "following_url": "https://api.github.com/users/extremeheat/following{/other_user}",
                "gists_url": "https://api.github.com/users/extremeheat/gists{/gist_id}",
                "gravatar_id": "",
                "html_url": "https://github.com/extremeheat",
                "id": 13713600,
                "login": "extremeheat",
                "node_id": "MDQ6VXNlcjEzNzEzNjAw",
                "organizations_url": "https://api.github.com/users/extremeheat/orgs",
                "received_events_url": "https://api.github.com/users/extremeheat/received_events",
                "repos_url": "https://api.github.com/users/extremeheat/repos",
                "site_admin": false,
                "starred_url": "https://api.github.com/users/extremeheat/starred{/owner}{/repo}",
                "subscriptions_url": "https://api.github.com/users/extremeheat/subscriptions",
                "type": "User",
                "url": "https://api.github.com/users/extremeheat"
            },
            "comments_url": "https://api.github.com/repos/PrismarineJS/minecraft-data/commits/cd65aca47ac8149395dfcb2cbb25bb4305873f53/comments",
            "commit": {
                "author": {
                    "date": "2023-07-02T22:22:24Z",
                    "email": "extreme@protonmail.ch",
                    "name": "extremeheat"
                },
                "comment_count": 0,
                "committer": {
                    "date": "2023-07-02T22:22:24Z",
                    "email": "noreply@github.com",
                    "name": "GitHub"
                },
                "message": "Fix install and lint commands folder",
                "tree": {
                    "sha": "08685942d927430dec15338a25ea7ae7701763ae",
                    "url": "https://api.github.com/repos/PrismarineJS/minecraft-data/git/trees/08685942d927430dec15338a25ea7ae7701763ae"
                },
                "url": "https://api.github.com/repos/PrismarineJS/minecraft-data/git/commits/cd65aca47ac8149395dfcb2cbb25bb4305873f53",
                "verification": {
                    "payload": "tree 08685942d927430dec15338a25ea7ae7701763ae\nparent 5785726ae34ef84b2fcd478610f2b0157dc81ce3\nauthor extremeheat <extreme@protonmail.ch> 1688336544 -0230\ncommitter GitHub <noreply@github.com> 1688336544 -0230\n\nFix install and lint commands folder",
                    "reason": "valid",
                    "signature": "-----BEGIN PGP SIGNATURE-----\n\nwsBcBAABCAAQBQJkofigCRBK7hj4Ov3rIwAAOW8IAB7tkgMs9qqHBIyhW5KSPmO3\nuvz7ujCDAuFpfx5m/+j/eUC24LXla/3qYJyBHmax2z066Y3HlN7LZnagTZedCUfZ\n5n8AVJp4vWw6dcd6EJGXvnsXyL9Q/gvzpu9ro0Sz2qYSelmO31/lsbsNQTfB2AOS\nb9ao/nH05U5anMUEKgJJPSUD5PT1A69iCRTIAFFdx40r6XX/mUKJ4doeBzMetIby\nz1yGwTRBk/IN9kkk2DlfAN23brLy/xGLVplZxk+dqE6zZ/0DdiYVvSOLzFoBD6ze\nPjjxfzizk/qtDUVp4jDcMRUzm8QA2EKZkO/BKgTVpomN3ulLqQCW1+g7DBnMNgA=\n=xZf4\n-----END PGP SIGNATURE-----\n",
                    "verified": true
                }
            },
            "committer": {
                "avatar_url": "https://avatars.githubusercontent.com/u/19864447?v=4",
                "events_url": "https://api.github.com/users/web-flow/events{/privacy}",
                "followers_url": "https://api.github.com/users/web-flow/followers",
                "following_url": "https://api.github.com/users/web-flow/following{/other_user}",
                "gists_url": "https://api.github.com/users/web-flow/gists{/gist_id}",
                "gravatar_id": "",
                "html_url": "https://github.com/web-flow",
                "id": 19864447,
                "login": "web-flow",
                "node_id": "MDQ6VXNlcjE5ODY0NDQ3",
                "organizations_url": "https://api.github.com/users/web-flow/orgs",
                "received_events_url": "https://api.github.com/users/web-flow/received_events",
                "repos_url": "https://api.github.com/users/web-flow/repos",
                "site_admin": false,
                "starred_url": "https://api.github.com/users/web-flow/starred{/owner}{/repo}",
                "subscriptions_url": "https://api.github.com/users/web-flow/subscriptions",
                "type": "User",
                "url": "https://api.github.com/users/web-flow"
            },
            "html_url": "https://github.com/PrismarineJS/minecraft-data/commit/cd65aca47ac8149395dfcb2cbb25bb4305873f53",
            "node_id": "C_kwDOFfz0QtoAKGNkNjVhY2E0N2FjODE0OTM5NWRmY2IyY2JiMjViYjQzMDU4NzNmNTM",
            "parents": [
                {
                    "html_url": "https://github.com/PrismarineJS/minecraft-data/commit/5785726ae34ef84b2fcd478610f2b0157dc81ce3",
                    "sha": "5785726ae34ef84b2fcd478610f2b0157dc81ce3",
                    "url": "https://api.github.com/repos/PrismarineJS/minecraft-data/commits/5785726ae34ef84b2fcd478610f2b0157dc81ce3"
                }
            ],
            "sha": "cd65aca47ac8149395dfcb2cbb25bb4305873f53",
            "url": "https://api.github.com/repos/PrismarineJS/minecraft-data/commits/cd65aca47ac8149395dfcb2cbb25bb4305873f53"
        }
    ],
    "commits": 5,
    "commits_url": "https://api.github.com/repos/PrismarineJS/minecraft-data/pulls/727/commits",
    "created_at": "2023-07-02T20:58:33Z",
    "deletions": 0,
    "diff_url": "https://github.com/PrismarineJS/minecraft-data/pull/727.diff",
    "draft": false,
    "head": {
        "label": "extremeheat:commands-workflow",
        "ref": "commands-workflow",
        "repo": {
            "allow_forking": true,
            "archive_url": "https://api.github.com/repos/extremeheat/minecraft-data/{archive_format}{/ref}",
            "archived": false,
            "assignees_url": "https://api.github.com/repos/extremeheat/minecraft-data/assignees{/user}",
            "blobs_url": "https://api.github.com/repos/extremeheat/minecraft-data/git/blobs{/sha}",
            "branches_url": "https://api.github.com/repos/extremeheat/minecraft-data/branches{/branch}",
            "clone_url": "https://github.com/extremeheat/minecraft-data.git",
            "collaborators_url": "https://api.github.com/repos/extremeheat/minecraft-data/collaborators{/collaborator}",
            "comments_url": "https://api.github.com/repos/extremeheat/minecraft-data/comments{/number}",
            "commits_url": "https://api.github.com/repos/extremeheat/minecraft-data/commits{/sha}",
            "compare_url": "https://api.github.com/repos/extremeheat/minecraft-data/compare/{base}...{head}",
            "contents_url": "https://api.github.com/repos/extremeheat/minecraft-data/contents/{+path}",
            "contributors_url": "https://api.github.com/repos/extremeheat/minecraft-data/contributors",
            "created_at": "2021-05-19T14:32:54Z",
            "default_branch": "commands-workflow",
            "deployments_url": "https://api.github.com/repos/extremeheat/minecraft-data/deployments",
            "description": "Language independent module providing minecraft data for minecraft clients, servers and libraries.",
            "disabled": false,
            "downloads_url": "https://api.github.com/repos/extremeheat/minecraft-data/downloads",
            "events_url": "https://api.github.com/repos/extremeheat/minecraft-data/events",
            "fork": true,
            "forks": 0,
            "forks_count": 0,
            "forks_url": "https://api.github.com/repos/extremeheat/minecraft-data/forks",
            "full_name": "extremeheat/minecraft-data",
            "git_commits_url": "https://api.github.com/repos/extremeheat/minecraft-data/git/commits{/sha}",
            "git_refs_url": "https://api.github.com/repos/extremeheat/minecraft-data/git/refs{/sha}",
            "git_tags_url": "https://api.github.com/repos/extremeheat/minecraft-data/git/tags{/sha}",
            "git_url": "git://github.com/extremeheat/minecraft-data.git",
            "has_discussions": false,
            "has_downloads": true,
            "has_issues": true,
            "has_pages": true,
            "has_projects": true,
            "has_wiki": true,
            "homepage": "https://minecraft-data.prismarine.js.org/",
            "hooks_url": "https://api.github.com/repos/extremeheat/minecraft-data/hooks",
            "html_url": "https://github.com/extremeheat/minecraft-data",
            "id": 368899138,
            "is_template": false,
            "issue_comment_url": "https://api.github.com/repos/extremeheat/minecraft-data/issues/comments{/number}",
            "issue_events_url": "https://api.github.com/repos/extremeheat/minecraft-data/issues/events{/number}",
            "issues_url": "https://api.github.com/repos/extremeheat/minecraft-data/issues{/number}",
            "keys_url": "https://api.github.com/repos/extremeheat/minecraft-data/keys{/key_id}",
            "labels_url": "https://api.github.com/repos/extremeheat/minecraft-data/labels{/name}",
            "language": "JavaScript",
            "languages_url": "https://api.github.com/repos/extremeheat/minecraft-data/languages",
            "license": null,
            "merges_url": "https://api.github.com/repos/extremeheat/minecraft-data/merges",
            "milestones_url": "https://api.github.com/repos/extremeheat/minecraft-data/milestones{/number}",
            "mirror_url": null,
            "name": "minecraft-data",
            "node_id": "MDEwOlJlcG9zaXRvcnkzNjg4OTkxMzg=",
            "notifications_url": "https://api.github.com/repos/extremeheat/minecraft-data/notifications{?since,all,participating}",
            "open_issues": 5,
            "open_issues_count": 5,
            "owner": {
                "avatar_url": "https://avatars.githubusercontent.com/u/13713600?v=4",
                "events_url": "https://api.github.com/users/extremeheat/events{/privacy}",
                "followers_url": "https://api.github.com/users/extremeheat/followers",
                "following_url": "https://api.github.com/users/extremeheat/following{/other_user}",
                "gists_url": "https://api.github.com/users/extremeheat/gists{/gist_id}",
                "gravatar_id": "",
                "html_url": "https://github.com/extremeheat",
                "id": 13713600,
                "login": "extremeheat",
                "node_id": "MDQ6VXNlcjEzNzEzNjAw",
                "organizations_url": "https://api.github.com/users/extremeheat/orgs",
                "received_events_url": "https://api.github.com/users/extremeheat/received_events",
                "repos_url": "https://api.github.com/users/extremeheat/repos",
                "site_admin": false,
                "starred_url": "https://api.github.com/users/extremeheat/starred{/owner}{/repo}",
                "subscriptions_url": "https://api.github.com/users/extremeheat/subscriptions",
                "type": "User",
                "url": "https://api.github.com/users/extremeheat"
            },
            "private": false,
            "pulls_url": "https://api.github.com/repos/extremeheat/minecraft-data/pulls{/number}",
            "pushed_at": "2023-07-02T22:22:24Z",
            "releases_url": "https://api.github.com/repos/extremeheat/minecraft-data/releases{/id}",
            "size": 135138,
            "ssh_url": "git@github.com:extremeheat/minecraft-data.git",
            "stargazers_count": 0,
            "stargazers_url": "https://api.github.com/repos/extremeheat/minecraft-data/stargazers",
            "statuses_url": "https://api.github.com/repos/extremeheat/minecraft-data/statuses/{sha}",
            "subscribers_url": "https://api.github.com/repos/extremeheat/minecraft-data/subscribers",
            "subscription_url": "https://api.github.com/repos/extremeheat/minecraft-data/subscription",
            "svn_url": "https://github.com/extremeheat/minecraft-data",
            "tags_url": "https://api.github.com/repos/extremeheat/minecraft-data/tags",
            "teams_url": "https://api.github.com/repos/extremeheat/minecraft-data/teams",
            "topics": [],
            "trees_url": "https://api.github.com/repos/extremeheat/minecraft-data/git/trees{/sha}",
            "updated_at": "2023-03-18T19:30:56Z",
            "url": "https://api.github.com/repos/extremeheat/minecraft-data",
            "visibility": "public",
            "watchers": 0,
            "watchers_count": 0,
            "web_commit_signoff_required": false
        },
        "sha": "cd65aca47ac8149395dfcb2cbb25bb4305873f53",
        "user": {
            "avatar_url": "https://avatars.githubusercontent.com/u/13713600?v=4",
            "events_url": "https://api.github.com/users/extremeheat/events{/privacy}",
            "followers_url": "https://api.github.com/users/extremeheat/followers",
            "following_url": "https://api.github.com/users/extremeheat/following{/other_user}",
            "gists_url": "https://api.github.com/users/extremeheat/gists{/gist_id}",
            "gravatar_id": "",
            "html_url": "https://github.com/extremeheat",
            "id": 13713600,
            "login": "extremeheat",
            "node_id": "MDQ6VXNlcjEzNzEzNjAw",
            "organizations_url": "https://api.github.com/users/extremeheat/orgs",
            "received_events_url": "https://api.github.com/users/extremeheat/received_events",
            "repos_url": "https://api.github.com/users/extremeheat/repos",
            "site_admin": false,
            "starred_url": "https://api.github.com/users/extremeheat/starred{/owner}{/repo}",
            "subscriptions_url": "https://api.github.com/users/extremeheat/subscriptions",
            "type": "User",
            "url": "https://api.github.com/users/extremeheat"
        }
    },
    "html_url": "https://github.com/PrismarineJS/minecraft-data/pull/727",
    "id": 1416923979,
    "issue_url": "https://api.github.com/repos/PrismarineJS/minecraft-data/issues/727",
    "labels": [],
    "locked": false,
    "maintainer_can_modify": false,
    "merge_commit_sha": "ecc33128220bdb20dc813b484d5374a9bdd26d40",
    "mergeable": null,
    "mergeable_state": "unknown",
    "merged": true,
    "merged_at": "2023-07-02T22:53:28Z",
    "merged_by": {
        "avatar_url": "https://avatars.githubusercontent.com/u/2346494?v=4",
        "events_url": "https://api.github.com/users/rom1504/events{/privacy}",
        "followers_url": "https://api.github.com/users/rom1504/followers",
        "following_url": "https://api.github.com/users/rom1504/following{/other_user}",
        "gists_url": "https://api.github.com/users/rom1504/gists{/gist_id}",
        "gravatar_id": "",
        "html_url": "https://github.com/rom1504",
        "id": 2346494,
        "login": "rom1504",
        "node_id": "MDQ6VXNlcjIzNDY0OTQ=",
        "organizations_url": "https://api.github.com/users/rom1504/orgs",
        "received_events_url": "https://api.github.com/users/rom1504/received_events",
        "repos_url": "https://api.github.com/users/rom1504/repos",
        "site_admin": false,
        "starred_url": "https://api.github.com/users/rom1504/starred{/owner}{/repo}",
        "subscriptions_url": "https://api.github.com/users/rom1504/subscriptions",
        "type": "User",
        "url": "https://api.github.com/users/rom1504"
    },
    "milestone": null,
    "node_id": "PR_kwDOAfOYes5UdItL",
    "number": 727,
    "patch_url": "https://github.com/PrismarineJS/minecraft-data/pull/727.patch",
    "rebaseable": null,
    "requested_reviewers": [],
    "requested_teams": [],
    "review_comment_url": "https://api.github.com/repos/PrismarineJS/minecraft-data/pulls/comments{/number}",
    "review_comments": 4,
    "review_comments_url": "https://api.github.com/repos/PrismarineJS/minecraft-data/pulls/727/comments",
    "state": "closed",
    "statuses_url": "https://api.github.com/repos/PrismarineJS/minecraft-data/statuses/cd65aca47ac8149395dfcb2cbb25bb4305873f53",
    "title": "Add commands workflow",
    "updated_at": "2023-07-04T11:26:53Z",
    "url": "https://api.github.com/repos/PrismarineJS/minecraft-data/pulls/727",
    "user": {
        "avatar_url": "https://avatars.githubusercontent.com/u/13713600?v=4",
        "events_url": "https://api.github.com/users/extremeheat/events{/privacy}",
        "followers_url": "https://api.github.com/users/extremeheat/followers",
        "following_url": "https://api.github.com/users/extremeheat/following{/other_user}",
        "gists_url": "https://api.github.com/users/extremeheat/gists{/gist_id}",
        "gravatar_id": "",
        "html_url": "https://github.com/extremeheat",
        "id": 13713600,
        "login": "extremeheat",
        "node_id": "MDQ6VXNlcjEzNzEzNjAw",
        "organizations_url": "https://api.github.com/users/extremeheat/orgs",
        "received_events_url": "https://api.github.com/users/extremeheat/received_events",
        "repos_url": "https://api.github.com/users/extremeheat/repos",
        "site_admin": false,
        "starred_url": "https://api.github.com/users/extremeheat/starred{/owner}{/repo}",
        "subscriptions_url": "https://api.github.com/users/extremeheat/subscriptions",
        "type": "User",
        "url": "https://api.github.com/users/extremeheat"
    }
}