{
    "_links": {
        "comments": {
            "href": "https://api.github.com/repos/PrismarineJS/minecraft-data/issues/859/comments"
        },
        "commits": {
            "href": "https://api.github.com/repos/PrismarineJS/minecraft-data/pulls/859/commits"
        },
        "html": {
            "href": "https://github.com/PrismarineJS/minecraft-data/pull/859"
        },
        "issue": {
            "href": "https://api.github.com/repos/PrismarineJS/minecraft-data/issues/859"
        },
        "review_comment": {
            "href": "https://api.github.com/repos/PrismarineJS/minecraft-data/pulls/comments{/number}"
        },
        "review_comments": {
            "href": "https://api.github.com/repos/PrismarineJS/minecraft-data/pulls/859/comments"
        },
        "self": {
            "href": "https://api.github.com/repos/PrismarineJS/minecraft-data/pulls/859"
        },
        "statuses": {
            "href": "https://api.github.com/repos/PrismarineJS/minecraft-data/statuses/0aa0e385a54c2ecea7044707aaa7d39e5e9895cb"
        }
    },
    "active_lock_reason": null,
    "additions": 5,
    "assignee": null,
    "assignees": [],
    "author_association": "MEMBER",
    "auto_merge": null,
    "base": {
        "label": "PrismarineJS:master",
        "ref": "master",
        "repo": {
            "allow_forking": true,
            "archive_url": "https://api.github.com/repos/PrismarineJS/minecraft-data/{archive_format}{/ref}",
            "archived": false,
            "assignees_url": "https://api.github.com/repos/PrismarineJS/minecraft-data/assignees{/user}",
            "blobs_url": "https://api.github.com/repos/PrismarineJS/minecraft-data/git/blobs{/sha}",
            "branches_url": "https://api.github.com/repos/PrismarineJS/minecraft-data/branches{/branch}",
            "clone_url": "https://github.com/PrismarineJS/minecraft-data.git",
            "collaborators_url": "https://api.github.com/repos/PrismarineJS/minecraft-data/collaborators{/collaborator}",
            "comments_url": "https://api.github.com/repos/PrismarineJS/minecraft-data/comments{/number}",
            "commits_url": "https://api.github.com/repos/PrismarineJS/minecraft-data/commits{/sha}",
            "compare_url": "https://api.github.com/repos/PrismarineJS/minecraft-data/compare/{base}...{head}",
            "contents_url": "https://api.github.com/repos/PrismarineJS/minecraft-data/contents/{+path}",
            "contributors_url": "https://api.github.com/repos/PrismarineJS/minecraft-data/contributors",
            "created_at": "2015-03-23T15:38:19Z",
            "default_branch": "master",
            "deployments_url": "https://api.github.com/repos/PrismarineJS/minecraft-data/deployments",
            "description": "Language independent module providing minecraft data for minecraft clients, servers and libraries.",
            "disabled": false,
            "downloads_url": "https://api.github.com/repos/PrismarineJS/minecraft-data/downloads",
            "events_url": "https://api.github.com/repos/PrismarineJS/minecraft-data/events",
            "fork": false,
            "forks": 203,
            "forks_count": 203,
            "forks_url": "https://api.github.com/repos/PrismarineJS/minecraft-data/forks",
            "full_name": "PrismarineJS/minecraft-data",
            "git_commits_url": "https://api.github.com/repos/PrismarineJS/minecraft-data/git/commits{/sha}",
            "git_refs_url": "https://api.github.com/repos/PrismarineJS/minecraft-data/git/refs{/sha}",
            "git_tags_url": "https://api.github.com/repos/PrismarineJS/minecraft-data/git/tags{/sha}",
            "git_url": "git://github.com/PrismarineJS/minecraft-data.git",
            "has_discussions": false,
            "has_downloads": true,
            "has_issues": true,
            "has_pages": true,
            "has_projects": true,
            "has_wiki": true,
            "homepage": "https://prismarinejs.github.io/minecraft-data",
            "hooks_url": "https://api.github.com/repos/PrismarineJS/minecraft-data/hooks",
            "html_url": "https://github.com/PrismarineJS/minecraft-data",
            "id": 32741498,
            "is_template": false,
            "issue_comment_url": "https://api.github.com/repos/PrismarineJS/minecraft-data/issues/comments{/number}",
            "issue_events_url": "https://api.github.com/repos/PrismarineJS/minecraft-data/issues/events{/number}",
            "issues_url": "https://api.github.com/repos/PrismarineJS/minecraft-data/issues{/number}",
            "keys_url": "https://api.github.com/repos/PrismarineJS/minecraft-data/keys{/key_id}",
            "labels_url": "https://api.github.com/repos/PrismarineJS/minecraft-data/labels{/name}",
            "language": "JavaScript",
            "languages_url": "https://api.github.com/repos/PrismarineJS/minecraft-data/languages",
            "license": null,
            "merges_url": "https://api.github.com/repos/PrismarineJS/minecraft-data/merges",
            "milestones_url": "https://api.github.com/repos/PrismarineJS/minecraft-data/milestones{/number}",
            "mirror_url": null,
            "name": "minecraft-data",
            "node_id": "MDEwOlJlcG9zaXRvcnkzMjc0MTQ5OA==",
            "notifications_url": "https://api.github.com/repos/PrismarineJS/minecraft-data/notifications{?since,all,participating}",
            "open_issues": 128,
            "open_issues_count": 128,
            "owner": {
                "avatar_url": "https://avatars.githubusercontent.com/u/11053411?v=4",
                "events_url": "https://api.github.com/users/PrismarineJS/events{/privacy}",
                "followers_url": "https://api.github.com/users/PrismarineJS/followers",
                "following_url": "https://api.github.com/users/PrismarineJS/following{/other_user}",
                "gists_url": "https://api.github.com/users/PrismarineJS/gists{/gist_id}",
                "gravatar_id": "",
                "html_url": "https://github.com/PrismarineJS",
                "id": 11053411,
                "login": "PrismarineJS",
                "node_id": "MDEyOk9yZ2FuaXphdGlvbjExMDUzNDEx",
                "organizations_url": "https://api.github.com/users/PrismarineJS/orgs",
                "received_events_url": "https://api.github.com/users/PrismarineJS/received_events",
                "repos_url": "https://api.github.com/users/PrismarineJS/repos",
                "site_admin": false,
                "starred_url": "https://api.github.com/users/PrismarineJS/starred{/owner}{/repo}",
                "subscriptions_url": "https://api.github.com/users/PrismarineJS/subscriptions",
                "type": "Organization",
                "url": "https://api.github.com/users/PrismarineJS"
            },
            "private": false,
            "pulls_url": "https://api.github.com/repos/PrismarineJS/minecraft-data/pulls{/number}",
            "pushed_at": "2024-03-23T17:37:28Z",
            "releases_url": "https://api.github.com/repos/PrismarineJS/minecraft-data/releases{/id}",
            "size": 183169,
            "ssh_url": "git@github.com:PrismarineJS/minecraft-data.git",
            "stargazers_count": 590,
            "stargazers_url": "https://api.github.com/repos/PrismarineJS/minecraft-data/stargazers",
            "statuses_url": "https://api.github.com/repos/PrismarineJS/minecraft-data/statuses/{sha}",
            "subscribers_url": "https://api.github.com/repos/PrismarineJS/minecraft-data/subscribers",
            "subscription_url": "https://api.github.com/repos/PrismarineJS/minecraft-data/subscription",
            "svn_url": "https://github.com/PrismarineJS/minecraft-data",
            "tags_url": "https://api.github.com/repos/PrismarineJS/minecraft-data/tags",
            "teams_url": "https://api.github.com/repos/PrismarineJS/minecraft-data/teams",
            "topics": [
                "data",
                "minecraft"
            ],
            "trees_url": "https://api.github.com/repos/PrismarineJS/minecraft-data/git/trees{/sha}",
            "updated_at": "2024-03-23T07:30:24Z",
            "url": "https://api.github.com/repos/PrismarineJS/minecraft-data",
            "visibility": "public",
            "watchers": 590,
            "watchers_count": 590,
            "web_commit_signoff_required": false
        },
        "sha": "fc0aac53acb683cba83f3d692cbf053094f49108",
        "user": {
            "avatar_url": "https://avatars.githubusercontent.com/u/11053411?v=4",
            "events_url": "https://api.github.com/users/PrismarineJS/events{/privacy}",
            "followers_url": "https://api.github.com/users/PrismarineJS/followers",
            "following_url": "https://api.github.com/users/PrismarineJS/following{/other_user}",
            "gists_url": "https://api.github.com/users/PrismarineJS/gists{/gist_id}",
            "gravatar_id": "",
            "html_url": "https://github.com/PrismarineJS",
            "id": 11053411,
            "login": "PrismarineJS",
            "node_id": "MDEyOk9yZ2FuaXphdGlvbjExMDUzNDEx",
            "organizations_url": "https://api.github.com/users/PrismarineJS/orgs",
            "received_events_url": "https://api.github.com/users/PrismarineJS/received_events",
            "repos_url": "https://api.github.com/users/PrismarineJS/repos",
            "site_admin": false,
            "starred_url": "https://api.github.com/users/PrismarineJS/starred{/owner}{/repo}",
            "subscriptions_url": "https://api.github.com/users/PrismarineJS/subscriptions",
            "type": "Organization",
            "url": "https://api.github.com/users/PrismarineJS"
        }
    },
    "body": "Triggered on behalf of extremeheat in <a href=\"https://github.com/PrismarineJS/minecraft-data/pull/858#issuecomment-1996310235\">this comment</a>.\n\n<em>Note: Changes to the PR maybe needed to remove commits unrelated to library usage.</em>\n<hr/>🤖 I'm a bot. You can rename this PR or run <code>/makerelease [version]</code> again to change the version.",
    "changed_files": 1,
    "closed_at": "2024-03-14T03:14:23Z",
    "comment_data": [],
    "comment_regular_data": [
        {
            "author_association": "MEMBER",
            "body": "/makerelease 3.64.1",
            "created_at": "2024-03-23T17:37:13Z",
            "html_url": "https://github.com/PrismarineJS/minecraft-data/pull/859#issuecomment-2016556695",
            "id": 2016556695,
            "issue_url": "https://api.github.com/repos/PrismarineJS/minecraft-data/issues/859",
            "node_id": "IC_kwDOAfOYes54MjaX",
            "performed_via_github_app": null,
            "reactions": {
                "+1": 0,
                "-1": 0,
                "confused": 0,
                "eyes": 1,
                "heart": 0,
                "hooray": 0,
                "laugh": 0,
                "rocket": 0,
                "total_count": 1,
                "url": "https://api.github.com/repos/PrismarineJS/minecraft-data/issues/comments/2016556695/reactions"
            },
            "updated_at": "2024-03-23T17:37:13Z",
            "url": "https://api.github.com/repos/PrismarineJS/minecraft-data/issues/comments/2016556695",
            "user": {
                "avatar_url": "https://avatars.githubusercontent.com/u/13713600?v=4",
                "events_url": "https://api.github.com/users/extremeheat/events{/privacy}",
                "followers_url": "https://api.github.com/users/extremeheat/followers",
                "following_url": "https://api.github.com/users/extremeheat/following{/other_user}",
                "gists_url": "https://api.github.com/users/extremeheat/gists{/gist_id}",
                "gravatar_id": "",
                "html_url": "https://github.com/extremeheat",
                "id": 13713600,
                "login": "extremeheat",
                "node_id": "MDQ6VXNlcjEzNzEzNjAw",
                "organizations_url": "https://api.github.com/users/extremeheat/orgs",
                "received_events_url": "https://api.github.com/users/extremeheat/received_events",
                "repos_url": "https://api.github.com/users/extremeheat/repos",
                "site_admin": false,
                "starred_url": "https://api.github.com/users/extremeheat/starred{/owner}{/repo}",
                "subscriptions_url": "https://api.github.com/users/extremeheat/subscriptions",
                "type": "User",
                "url": "https://api.github.com/users/extremeheat"
            }
        }
    ],
    "comments": 1,
    "comments_url": "https://api.github.com/repos/PrismarineJS/minecraft-data/issues/859/comments",
    "commit_data": [
        {
            "author": {
                "avatar_url": "https://avatars.githubusercontent.com/in/15368?v=4",
                "events_url": "https://api.github.com/users/github-actions%5Bbot%5D/events{/privacy}",
                "followers_url": "https://api.github.com/users/github-actions%5Bbot%5D/followers",
                "following_url": "https://api.github.com/users/github-actions%5Bbot%5D/following{/other_user}",
                "gists_url": "https://api.github.com/users/github-actions%5Bbot%5D/gists{/gist_id}",
                "gravatar_id": "",
                "html_url": "https://github.com/apps/github-actions",
                "id": 41898282,
                "login": "github-actions[bot]",
                "node_id": "MDM6Qm90NDE4OTgyODI=",
                "organizations_url": "https://api.github.com/users/github-actions%5Bbot%5D/orgs",
                "received_events_url": "https://api.github.com/users/github-actions%5Bbot%5D/received_events",
                "repos_url": "https://api.github.com/users/github-actions%5Bbot%5D/repos",
                "site_admin": false,
                "starred_url": "https://api.github.com/users/github-actions%5Bbot%5D/starred{/owner}{/repo}",
                "subscriptions_url": "https://api.github.com/users/github-actions%5Bbot%5D/subscriptions",
                "type": "Bot",
                "url": "https://api.github.com/users/github-actions%5Bbot%5D"
            },
            "comments_url": "https://api.github.com/repos/PrismarineJS/minecraft-data/commits/e7816e51a4971d3b5fba7f368a6946aeaa5558e0/comments",
            "commit": {
                "author": {
                    "date": "2024-03-14T03:10:45Z",
                    "email": "41898282+github-actions[bot]@users.noreply.github.com",
                    "name": "github-actions[bot]"
                },
                "comment_count": 0,
                "committer": {
                    "date": "2024-03-14T03:10:45Z",
                    "email": "41898282+github-actions[bot]@users.noreply.github.com",
                    "name": "github-actions[bot]"
                },
                "message": "Release 3.63.0",
                "tree": {
                    "sha": "b67ee1fe96b10fa83cc93d504b797deeb3e12168",
                    "url": "https://api.github.com/repos/PrismarineJS/minecraft-data/git/trees/b67ee1fe96b10fa83cc93d504b797deeb3e12168"
                },
                "url": "https://api.github.com/repos/PrismarineJS/minecraft-data/git/commits/e7816e51a4971d3b5fba7f368a6946aeaa5558e0",
                "verification": {
                    "payload": null,
                    "reason": "unsigned",
                    "signature": null,
                    "verified": false
                }
            },
            "committer": {
                "avatar_url": "https://avatars.githubusercontent.com/in/15368?v=4",
                "events_url": "https://api.github.com/users/github-actions%5Bbot%5D/events{/privacy}",
                "followers_url": "https://api.github.com/users/github-actions%5Bbot%5D/followers",
                "following_url": "https://api.github.com/users/github-actions%5Bbot%5D/following{/other_user}",
                "gists_url": "https://api.github.com/users/github-actions%5Bbot%5D/gists{/gist_id}",
                "gravatar_id": "",
                "html_url": "https://github.com/apps/github-actions",
                "id": 41898282,
                "login": "github-actions[bot]",
                "node_id": "MDM6Qm90NDE4OTgyODI=",
                "organizations_url": "https://api.github.com/users/github-actions%5Bbot%5D/orgs",
                "received_events_url": "https://api.github.com/users/github-actions%5Bbot%5D/received_events",
                "repos_url": "https://api.github.com/users/github-actions%5Bbot%5D/repos",
                "site_admin": false,
                "starred_url": "https://api.github.com/users/github-actions%5Bbot%5D/starred{/owner}{/repo}",
                "subscriptions_url": "https://api.github.com/users/github-actions%5Bbot%5D/subscriptions",
                "type": "Bot",
                "url": "https://api.github.com/users/github-actions%5Bbot%5D"
            },
            "html_url": "https://github.com/PrismarineJS/minecraft-data/commit/e7816e51a4971d3b5fba7f368a6946aeaa5558e0",
            "node_id": "C_kwDOAfOYetoAKGU3ODE2ZTUxYTQ5NzFkM2I1ZmJhN2YzNjhhNjk0NmFlYWE1NTU4ZTA",
            "parents": [
                {
                    "html_url": "https://github.com/PrismarineJS/minecraft-data/commit/fc0aac53acb683cba83f3d692cbf053094f49108",
                    "sha": "fc0aac53acb683cba83f3d692cbf053094f49108",
                    "url": "https://api.github.com/repos/PrismarineJS/minecraft-data/commits/fc0aac53acb683cba83f3d692cbf053094f49108"
                }
            ],
            "sha": "e7816e51a4971d3b5fba7f368a6946aeaa5558e0",
            "url": "https://api.github.com/repos/PrismarineJS/minecraft-data/commits/e7816e51a4971d3b5fba7f368a6946aeaa5558e0"
        },
        {
            "author": {
                "avatar_url": "https://avatars.githubusercontent.com/u/13713600?v=4",
                "events_url": "https://api.github.com/users/extremeheat/events{/privacy}",
                "followers_url": "https://api.github.com/users/extremeheat/followers",
                "following_url": "https://api.github.com/users/extremeheat/following{/other_user}",
                "gists_url": "https://api.github.com/users/extremeheat/gists{/gist_id}",
                "gravatar_id": "",
                "html_url": "https://github.com/extremeheat",
                "id": 13713600,
                "login": "extremeheat",
                "node_id": "MDQ6VXNlcjEzNzEzNjAw",
                "organizations_url": "https://api.github.com/users/extremeheat/orgs",
                "received_events_url": "https://api.github.com/users/extremeheat/received_events",
                "repos_url": "https://api.github.com/users/extremeheat/repos",
                "site_admin": false,
                "starred_url": "https://api.github.com/users/extremeheat/starred{/owner}{/repo}",
                "subscriptions_url": "https://api.github.com/users/extremeheat/subscriptions",
                "type": "User",
                "url": "https://api.github.com/users/extremeheat"
            },
            "comments_url": "https://api.github.com/repos/PrismarineJS/minecraft-data/commits/0aa0e385a54c2ecea7044707aaa7d39e5e9895cb/comments",
            "commit": {
                "author": {
                    "date": "2024-03-14T03:11:54Z",
                    "email": "extreme@protonmail.ch",
                    "name": "extremeheat"
                },
                "comment_count": 0,
                "committer": {
                    "date": "2024-03-14T03:11:54Z",
                    "email": "noreply@github.com",
                    "name": "GitHub"
                },
                "message": "Update history.md",
                "tree": {
                    "sha": "08f6ca4b156163b5b724ff2e8b1a8272eb236395",
                    "url": "https://api.github.com/repos/PrismarineJS/minecraft-data/git/trees/08f6ca4b156163b5b724ff2e8b1a8272eb236395"
                },
                "url": "https://api.github.com/repos/PrismarineJS/minecraft-data/git/commits/0aa0e385a54c2ecea7044707aaa7d39e5e9895cb",
                "verification": {
                    "payload": "tree 08f6ca4b156163b5b724ff2e8b1a8272eb236395\nparent e7816e51a4971d3b5fba7f368a6946aeaa5558e0\nauthor extremeheat <extreme@protonmail.ch> 1710385914 -0400\ncommitter GitHub <noreply@github.com> 1710385914 -0400\n\nUpdate history.md",
                    "reason": "valid",
                    "signature": "-----BEGIN PGP SIGNATURE-----\n\nwsFcBAABCAAQBQJl8mr6CRC1aQ7uu5UhlAAAJccQAItvKx8LPImoidNZXSdKU7Y/\n8uOINyMWd3/oWWWtoHlCbsxKtwQwLrIPshxb7lI08Y6hHvqYsdpsRihk1ubhjIwL\n4u0Vk2sUVhexDoN4m/O0Emeqkub6t3keQTkf4iN3vy73jdnl1EaAMlHQmmGzx2Bh\nSfDDLGjugS8kbdc1+AS6Y9d0KndHEdswMtllFg8hsFMyUVjWfCMr6vfZH+ZY0wUO\ndRyMjNIW4ZU/DFW4Uo80BgCuzyoRK/WtM64bBQzRe1XsYyzBbfdlmdDl372PMHEH\nMmKMwEFYl88wsr2ZZFxmPVwmvxBFETffbl4qiXlB0rzVNNd8yS7ORltt3XVAtPtz\nYGUgtzYP8adVBcLtFCn/2d1usP0tiTROykAYnaJRoRRqzi9YBayECj86Mpuptcit\nkNZSTGw0qx7sYyryzvH+4SSHWfFRgre5VpX6oGUD7zxCUo36b3/WTNUnjKIfJ2x3\nq2ey3F2gL1xLhI/UizgG0T9qBYd7iwp/2TKZjJleTkLSuT1sFx6PtD8ni6Z/43nQ\nr0WHDz8XJWRxc5C5UQMlRggfToa8gIV4Oo/XGU7nQTHLAnQPLNjSPnxppCpa1T3+\nKJpq6XwWmKrYKzC8YqBNMd2/vrEFYlsipq0QqqmfbWsGCFF4VfYFgH4qUnXVzby0\nJgOHbr9kmGfnJDZed4qu\n=F/2e\n-----END PGP SIGNATURE-----\n",
                    "verified": true
                }
            },
            "committer": {
                "avatar_url": "https://avatars.githubusercontent.com/u/19864447?v=4",
                "events_url": "https://api.github.com/users/web-flow/events{/privacy}",
                "followers_url": "https://api.github.com/users/web-flow/followers",
                "following_url": "https://api.github.com/users/web-flow/following{/other_user}",
                "gists_url": "https://api.github.com/users/web-flow/gists{/gist_id}",
                "gravatar_id": "",
                "html_url": "https://github.com/web-flow",
                "id": 19864447,
                "login": "web-flow",
                "node_id": "MDQ6VXNlcjE5ODY0NDQ3",
                "organizations_url": "https://api.github.com/users/web-flow/orgs",
                "received_events_url": "https://api.github.com/users/web-flow/received_events",
                "repos_url": "https://api.github.com/users/web-flow/repos",
                "site_admin": false,
                "starred_url": "https://api.github.com/users/web-flow/starred{/owner}{/repo}",
                "subscriptions_url": "https://api.github.com/users/web-flow/subscriptions",
                "type": "User",
                "url": "https://api.github.com/users/web-flow"
            },
            "html_url": "https://github.com/PrismarineJS/minecraft-data/commit/0aa0e385a54c2ecea7044707aaa7d39e5e9895cb",
            "node_id": "C_kwDOAfOYetoAKDBhYTBlMzg1YTU0YzJlY2VhNzA0NDcwN2FhYTdkMzllNWU5ODk1Y2I",
            "parents": [
                {
                    "html_url": "https://github.com/PrismarineJS/minecraft-data/commit/e7816e51a4971d3b5fba7f368a6946aeaa5558e0",
                    "sha": "e7816e51a4971d3b5fba7f368a6946aeaa5558e0",
                    "url": "https://api.github.com/repos/PrismarineJS/minecraft-data/commits/e7816e51a4971d3b5fba7f368a6946aeaa5558e0"
                }
            ],
            "sha": "0aa0e385a54c2ecea7044707aaa7d39e5e9895cb",
            "url": "https://api.github.com/repos/PrismarineJS/minecraft-data/commits/0aa0e385a54c2ecea7044707aaa7d39e5e9895cb"
        }
    ],
    "commits": 2,
    "commits_url": "https://api.github.com/repos/PrismarineJS/minecraft-data/pulls/859/commits",
    "created_at": "2024-03-14T03:10:46Z",
    "deletions": 0,
    "diff_url": "https://github.com/PrismarineJS/minecraft-data/pull/859.diff",
    "draft": false,
    "head": {
        "label": "PrismarineJS:rel-actions-bot",
        "ref": "rel-actions-bot",
        "repo": {
            "allow_forking": true,
            "archive_url": "https://api.github.com/repos/PrismarineJS/minecraft-data/{archive_format}{/ref}",
            "archived": false,
            "assignees_url": "https://api.github.com/repos/PrismarineJS/minecraft-data/assignees{/user}",
            "blobs_url": "https://api.github.com/repos/PrismarineJS/minecraft-data/git/blobs{/sha}",
            "branches_url": "https://api.github.com/repos/PrismarineJS/minecraft-data/branches{/branch}",
            "clone_url": "https://github.com/PrismarineJS/minecraft-data.git",
            "collaborators_url": "https://api.github.com/repos/PrismarineJS/minecraft-data/collaborators{/collaborator}",
            "comments_url": "https://api.github.com/repos/PrismarineJS/minecraft-data/comments{/number}",
            "commits_url": "https://api.github.com/repos/PrismarineJS/minecraft-data/commits{/sha}",
            "compare_url": "https://api.github.com/repos/PrismarineJS/minecraft-data/compare/{base}...{head}",
            "contents_url": "https://api.github.com/repos/PrismarineJS/minecraft-data/contents/{+path}",
            "contributors_url": "https://api.github.com/repos/PrismarineJS/minecraft-data/contributors",
            "created_at": "2015-03-23T15:38:19Z",
            "default_branch": "master",
            "deployments_url": "https://api.github.com/repos/PrismarineJS/minecraft-data/deployments",
            "description": "Language independent module providing minecraft data for minecraft clients, servers and libraries.",
            "disabled": false,
            "downloads_url": "https://api.github.com/repos/PrismarineJS/minecraft-data/downloads",
            "events_url": "https://api.github.com/repos/PrismarineJS/minecraft-data/events",
            "fork": false,
            "forks": 203,
            "forks_count": 203,
            "forks_url": "https://api.github.com/repos/PrismarineJS/minecraft-data/forks",
            "full_name": "PrismarineJS/minecraft-data",
            "git_commits_url": "https://api.github.com/repos/PrismarineJS/minecraft-data/git/commits{/sha}",
            "git_refs_url": "https://api.github.com/repos/PrismarineJS/minecraft-data/git/refs{/sha}",
            "git_tags_url": "https://api.github.com/repos/PrismarineJS/minecraft-data/git/tags{/sha}",
            "git_url": "git://github.com/PrismarineJS/minecraft-data.git",
            "has_discussions": false,
            "has_downloads": true,
            "has_issues": true,
            "has_pages": true,
            "has_projects": true,
            "has_wiki": true,
            "homepage": "https://prismarinejs.github.io/minecraft-data",
            "hooks_url": "https://api.github.com/repos/PrismarineJS/minecraft-data/hooks",
            "html_url": "https://github.com/PrismarineJS/minecraft-data",
            "id": 32741498,
            "is_template": false,
            "issue_comment_url": "https://api.github.com/repos/PrismarineJS/minecraft-data/issues/comments{/number}",
            "issue_events_url": "https://api.github.com/repos/PrismarineJS/minecraft-data/issues/events{/number}",
            "issues_url": "https://api.github.com/repos/PrismarineJS/minecraft-data/issues{/number}",
            "keys_url": "https://api.github.com/repos/PrismarineJS/minecraft-data/keys{/key_id}",
            "labels_url": "https://api.github.com/repos/PrismarineJS/minecraft-data/labels{/name}",
            "language": "JavaScript",
            "languages_url": "https://api.github.com/repos/PrismarineJS/minecraft-data/languages",
            "license": null,
            "merges_url": "https://api.github.com/repos/PrismarineJS/minecraft-data/merges",
            "milestones_url": "https://api.github.com/repos/PrismarineJS/minecraft-data/milestones{/number}",
            "mirror_url": null,
            "name": "minecraft-data",
            "node_id": "MDEwOlJlcG9zaXRvcnkzMjc0MTQ5OA==",
            "notifications_url": "https://api.github.com/repos/PrismarineJS/minecraft-data/notifications{?since,all,participating}",
            "open_issues": 128,
            "open_issues_count": 128,
            "owner": {
                "avatar_url": "https://avatars.githubusercontent.com/u/11053411?v=4",
                "events_url": "https://api.github.com/users/PrismarineJS/events{/privacy}",
                "followers_url": "https://api.github.com/users/PrismarineJS/followers",
                "following_url": "https://api.github.com/users/PrismarineJS/following{/other_user}",
                "gists_url": "https://api.github.com/users/PrismarineJS/gists{/gist_id}",
                "gravatar_id": "",
                "html_url": "https://github.com/PrismarineJS",
                "id": 11053411,
                "login": "PrismarineJS",
                "node_id": "MDEyOk9yZ2FuaXphdGlvbjExMDUzNDEx",
                "organizations_url": "https://api.github.com/users/PrismarineJS/orgs",
                "received_events_url": "https://api.github.com/users/PrismarineJS/received_events",
                "repos_url": "https://api.github.com/users/PrismarineJS/repos",
                "site_admin": false,
                "starred_url": "https://api.github.com/users/PrismarineJS/starred{/owner}{/repo}",
                "subscriptions_url": "https://api.github.com/users/PrismarineJS/subscriptions",
                "type": "Organization",
                "url": "https://api.github.com/users/PrismarineJS"
            },
            "private": false,
            "pulls_url": "https://api.github.com/repos/PrismarineJS/minecraft-data/pulls{/number}",
            "pushed_at": "2024-03-23T17:37:28Z",
            "releases_url": "https://api.github.com/repos/PrismarineJS/minecraft-data/releases{/id}",
            "size": 183169,
            "ssh_url": "git@github.com:PrismarineJS/minecraft-data.git",
            "stargazers_count": 590,
            "stargazers_url": "https://api.github.com/repos/PrismarineJS/minecraft-data/stargazers",
            "statuses_url": "https://api.github.com/repos/PrismarineJS/minecraft-data/statuses/{sha}",
            "subscribers_url": "https://api.github.com/repos/PrismarineJS/minecraft-data/subscribers",
            "subscription_url": "https://api.github.com/repos/PrismarineJS/minecraft-data/subscription",
            "svn_url": "https://github.com/PrismarineJS/minecraft-data",
            "tags_url": "https://api.github.com/repos/PrismarineJS/minecraft-data/tags",
            "teams_url": "https://api.github.com/repos/PrismarineJS/minecraft-data/teams",
            "topics": [
                "data",
                "minecraft"
            ],
            "trees_url": "https://api.github.com/repos/PrismarineJS/minecraft-data/git/trees{/sha}",
            "updated_at": "2024-03-23T07:30:24Z",
            "url": "https://api.github.com/repos/PrismarineJS/minecraft-data",
            "visibility": "public",
            "watchers": 590,
            "watchers_count": 590,
            "web_commit_signoff_required": false
        },
        "sha": "0aa0e385a54c2ecea7044707aaa7d39e5e9895cb",
        "user": {
            "avatar_url": "https://avatars.githubusercontent.com/u/11053411?v=4",
            "events_url": "https://api.github.com/users/PrismarineJS/events{/privacy}",
            "followers_url": "https://api.github.com/users/PrismarineJS/followers",
            "following_url": "https://api.github.com/users/PrismarineJS/following{/other_user}",
            "gists_url": "https://api.github.com/users/PrismarineJS/gists{/gist_id}",
            "gravatar_id": "",
            "html_url": "https://github.com/PrismarineJS",
            "id": 11053411,
            "login": "PrismarineJS",
            "node_id": "MDEyOk9yZ2FuaXphdGlvbjExMDUzNDEx",
            "organizations_url": "https://api.github.com/users/PrismarineJS/orgs",
            "received_events_url": "https://api.github.com/users/PrismarineJS/received_events",
            "repos_url": "https://api.github.com/users/PrismarineJS/repos",
            "site_admin": false,
            "starred_url": "https://api.github.com/users/PrismarineJS/starred{/owner}{/repo}",
            "subscriptions_url": "https://api.github.com/users/PrismarineJS/subscriptions",
            "type": "Organization",
            "url": "https://api.github.com/users/PrismarineJS"
        }
    },
    "html_url": "https://github.com/PrismarineJS/minecraft-data/pull/859",
    "id": 1771252882,
    "issue_url": "https://api.github.com/repos/PrismarineJS/minecraft-data/issues/859",
    "labels": [],
    "locked": false,
    "maintainer_can_modify": false,
    "merge_commit_sha": "92418dc59ff5820b14aa8b47e1224b8ea1fcee76",
    "mergeable": null,
    "mergeable_state": "unknown",
    "merged": true,
    "merged_at": "2024-03-14T03:14:22Z",
    "merged_by": {
        "avatar_url": "https://avatars.githubusercontent.com/u/13713600?v=4",
        "events_url": "https://api.github.com/users/extremeheat/events{/privacy}",
        "followers_url": "https://api.github.com/users/extremeheat/followers",
        "following_url": "https://api.github.com/users/extremeheat/following{/other_user}",
        "gists_url": "https://api.github.com/users/extremeheat/gists{/gist_id}",
        "gravatar_id": "",
        "html_url": "https://github.com/extremeheat",
        "id": 13713600,
        "login": "extremeheat",
        "node_id": "MDQ6VXNlcjEzNzEzNjAw",
        "organizations_url": "https://api.github.com/users/extremeheat/orgs",
        "received_events_url": "https://api.github.com/users/extremeheat/received_events",
        "repos_url": "https://api.github.com/users/extremeheat/repos",
        "site_admin": false,
        "starred_url": "https://api.github.com/users/extremeheat/starred{/owner}{/repo}",
        "subscriptions_url": "https://api.github.com/users/extremeheat/subscriptions",
        "type": "User",
        "url": "https://api.github.com/users/extremeheat"
    },
    "milestone": null,
    "node_id": "PR_kwDOAfOYes5pkyyS",
    "number": 859,
    "patch_url": "https://github.com/PrismarineJS/minecraft-data/pull/859.patch",
    "rebaseable": null,
    "requested_reviewers": [],
    "requested_teams": [],
    "review_comment_url": "https://api.github.com/repos/PrismarineJS/minecraft-data/pulls/comments{/number}",
    "review_comments": 0,
    "review_comments_url": "https://api.github.com/repos/PrismarineJS/minecraft-data/pulls/859/comments",
    "state": "closed",
    "statuses_url": "https://api.github.com/repos/PrismarineJS/minecraft-data/statuses/0aa0e385a54c2ecea7044707aaa7d39e5e9895cb",
    "title": "Release 3.63.0",
    "updated_at": "2024-03-23T17:37:13Z",
    "url": "https://api.github.com/repos/PrismarineJS/minecraft-data/pulls/859",
    "user": {
        "avatar_url": "https://avatars.githubusercontent.com/u/15970751?v=4",
        "events_url": "https://api.github.com/users/rom1504bot/events{/privacy}",
        "followers_url": "https://api.github.com/users/rom1504bot/followers",
        "following_url": "https://api.github.com/users/rom1504bot/following{/other_user}",
        "gists_url": "https://api.github.com/users/rom1504bot/gists{/gist_id}",
        "gravatar_id": "",
        "html_url": "https://github.com/rom1504bot",
        "id": 15970751,
        "login": "rom1504bot",
        "node_id": "MDQ6VXNlcjE1OTcwNzUx",
        "organizations_url": "https://api.github.com/users/rom1504bot/orgs",
        "received_events_url": "https://api.github.com/users/rom1504bot/received_events",
        "repos_url": "https://api.github.com/users/rom1504bot/repos",
        "site_admin": false,
        "starred_url": "https://api.github.com/users/rom1504bot/starred{/owner}{/repo}",
        "subscriptions_url": "https://api.github.com/users/rom1504bot/subscriptions",
        "type": "User",
        "url": "https://api.github.com/users/rom1504bot"
    }
}