{
    "_links": {
        "comments": {
            "href": "https://api.github.com/repos/PrismarineJS/minecraft-data/issues/885/comments"
        },
        "commits": {
            "href": "https://api.github.com/repos/PrismarineJS/minecraft-data/pulls/885/commits"
        },
        "html": {
            "href": "https://github.com/PrismarineJS/minecraft-data/pull/885"
        },
        "issue": {
            "href": "https://api.github.com/repos/PrismarineJS/minecraft-data/issues/885"
        },
        "review_comment": {
            "href": "https://api.github.com/repos/PrismarineJS/minecraft-data/pulls/comments{/number}"
        },
        "review_comments": {
            "href": "https://api.github.com/repos/PrismarineJS/minecraft-data/pulls/885/comments"
        },
        "self": {
            "href": "https://api.github.com/repos/PrismarineJS/minecraft-data/pulls/885"
        },
        "statuses": {
            "href": "https://api.github.com/repos/PrismarineJS/minecraft-data/statuses/6fb186658e3969cb196704dcfe497b3885766744"
        }
    },
    "active_lock_reason": null,
    "additions": 13600,
    "assignee": null,
    "assignees": [],
    "author_association": "MEMBER",
    "auto_merge": null,
    "base": {
        "label": "PrismarineJS:master",
        "ref": "master",
        "repo": {
            "allow_forking": true,
            "archive_url": "https://api.github.com/repos/PrismarineJS/minecraft-data/{archive_format}{/ref}",
            "archived": false,
            "assignees_url": "https://api.github.com/repos/PrismarineJS/minecraft-data/assignees{/user}",
            "blobs_url": "https://api.github.com/repos/PrismarineJS/minecraft-data/git/blobs{/sha}",
            "branches_url": "https://api.github.com/repos/PrismarineJS/minecraft-data/branches{/branch}",
            "clone_url": "https://github.com/PrismarineJS/minecraft-data.git",
            "collaborators_url": "https://api.github.com/repos/PrismarineJS/minecraft-data/collaborators{/collaborator}",
            "comments_url": "https://api.github.com/repos/PrismarineJS/minecraft-data/comments{/number}",
            "commits_url": "https://api.github.com/repos/PrismarineJS/minecraft-data/commits{/sha}",
            "compare_url": "https://api.github.com/repos/PrismarineJS/minecraft-data/compare/{base}...{head}",
            "contents_url": "https://api.github.com/repos/PrismarineJS/minecraft-data/contents/{+path}",
            "contributors_url": "https://api.github.com/repos/PrismarineJS/minecraft-data/contributors",
            "created_at": "2015-03-23T15:38:19Z",
            "default_branch": "master",
            "deployments_url": "https://api.github.com/repos/PrismarineJS/minecraft-data/deployments",
            "description": "Language independent module providing minecraft data for minecraft clients, servers and libraries.",
            "disabled": false,
            "downloads_url": "https://api.github.com/repos/PrismarineJS/minecraft-data/downloads",
            "events_url": "https://api.github.com/repos/PrismarineJS/minecraft-data/events",
            "fork": false,
            "forks": 214,
            "forks_count": 214,
            "forks_url": "https://api.github.com/repos/PrismarineJS/minecraft-data/forks",
            "full_name": "PrismarineJS/minecraft-data",
            "git_commits_url": "https://api.github.com/repos/PrismarineJS/minecraft-data/git/commits{/sha}",
            "git_refs_url": "https://api.github.com/repos/PrismarineJS/minecraft-data/git/refs{/sha}",
            "git_tags_url": "https://api.github.com/repos/PrismarineJS/minecraft-data/git/tags{/sha}",
            "git_url": "git://github.com/PrismarineJS/minecraft-data.git",
            "has_discussions": false,
            "has_downloads": true,
            "has_issues": true,
            "has_pages": true,
            "has_projects": true,
            "has_wiki": true,
            "homepage": "https://prismarinejs.github.io/minecraft-data",
            "hooks_url": "https://api.github.com/repos/PrismarineJS/minecraft-data/hooks",
            "html_url": "https://github.com/PrismarineJS/minecraft-data",
            "id": 32741498,
            "is_template": false,
            "issue_comment_url": "https://api.github.com/repos/PrismarineJS/minecraft-data/issues/comments{/number}",
            "issue_events_url": "https://api.github.com/repos/PrismarineJS/minecraft-data/issues/events{/number}",
            "issues_url": "https://api.github.com/repos/PrismarineJS/minecraft-data/issues{/number}",
            "keys_url": "https://api.github.com/repos/PrismarineJS/minecraft-data/keys{/key_id}",
            "labels_url": "https://api.github.com/repos/PrismarineJS/minecraft-data/labels{/name}",
            "language": "JavaScript",
            "languages_url": "https://api.github.com/repos/PrismarineJS/minecraft-data/languages",
            "license": null,
            "merges_url": "https://api.github.com/repos/PrismarineJS/minecraft-data/merges",
            "milestones_url": "https://api.github.com/repos/PrismarineJS/minecraft-data/milestones{/number}",
            "mirror_url": null,
            "name": "minecraft-data",
            "node_id": "MDEwOlJlcG9zaXRvcnkzMjc0MTQ5OA==",
            "notifications_url": "https://api.github.com/repos/PrismarineJS/minecraft-data/notifications{?since,all,participating}",
            "open_issues": 131,
            "open_issues_count": 131,
            "owner": {
                "avatar_url": "https://avatars.githubusercontent.com/u/11053411?v=4",
                "events_url": "https://api.github.com/users/PrismarineJS/events{/privacy}",
                "followers_url": "https://api.github.com/users/PrismarineJS/followers",
                "following_url": "https://api.github.com/users/PrismarineJS/following{/other_user}",
                "gists_url": "https://api.github.com/users/PrismarineJS/gists{/gist_id}",
                "gravatar_id": "",
                "html_url": "https://github.com/PrismarineJS",
                "id": 11053411,
                "login": "PrismarineJS",
                "node_id": "MDEyOk9yZ2FuaXphdGlvbjExMDUzNDEx",
                "organizations_url": "https://api.github.com/users/PrismarineJS/orgs",
                "received_events_url": "https://api.github.com/users/PrismarineJS/received_events",
                "repos_url": "https://api.github.com/users/PrismarineJS/repos",
                "site_admin": false,
                "starred_url": "https://api.github.com/users/PrismarineJS/starred{/owner}{/repo}",
                "subscriptions_url": "https://api.github.com/users/PrismarineJS/subscriptions",
                "type": "Organization",
                "url": "https://api.github.com/users/PrismarineJS"
            },
            "private": false,
            "pulls_url": "https://api.github.com/repos/PrismarineJS/minecraft-data/pulls{/number}",
            "pushed_at": "2024-06-23T04:23:26Z",
            "releases_url": "https://api.github.com/repos/PrismarineJS/minecraft-data/releases{/id}",
            "size": 199209,
            "ssh_url": "git@github.com:PrismarineJS/minecraft-data.git",
            "stargazers_count": 617,
            "stargazers_url": "https://api.github.com/repos/PrismarineJS/minecraft-data/stargazers",
            "statuses_url": "https://api.github.com/repos/PrismarineJS/minecraft-data/statuses/{sha}",
            "subscribers_url": "https://api.github.com/repos/PrismarineJS/minecraft-data/subscribers",
            "subscription_url": "https://api.github.com/repos/PrismarineJS/minecraft-data/subscription",
            "svn_url": "https://github.com/PrismarineJS/minecraft-data",
            "tags_url": "https://api.github.com/repos/PrismarineJS/minecraft-data/tags",
            "teams_url": "https://api.github.com/repos/PrismarineJS/minecraft-data/teams",
            "topics": [
                "data",
                "minecraft"
            ],
            "trees_url": "https://api.github.com/repos/PrismarineJS/minecraft-data/git/trees{/sha}",
            "updated_at": "2024-06-23T03:12:38Z",
            "url": "https://api.github.com/repos/PrismarineJS/minecraft-data",
            "visibility": "public",
            "watchers": 617,
            "watchers_count": 617,
            "web_commit_signoff_required": false
        },
        "sha": "a9e61a067b939da88afa3e106f036b6da8f41970",
        "user": {
            "avatar_url": "https://avatars.githubusercontent.com/u/11053411?v=4",
            "events_url": "https://api.github.com/users/PrismarineJS/events{/privacy}",
            "followers_url": "https://api.github.com/users/PrismarineJS/followers",
            "following_url": "https://api.github.com/users/PrismarineJS/following{/other_user}",
            "gists_url": "https://api.github.com/users/PrismarineJS/gists{/gist_id}",
            "gravatar_id": "",
            "html_url": "https://github.com/PrismarineJS",
            "id": 11053411,
            "login": "PrismarineJS",
            "node_id": "MDEyOk9yZ2FuaXphdGlvbjExMDUzNDEx",
            "organizations_url": "https://api.github.com/users/PrismarineJS/orgs",
            "received_events_url": "https://api.github.com/users/PrismarineJS/received_events",
            "repos_url": "https://api.github.com/users/PrismarineJS/repos",
            "site_admin": false,
            "starred_url": "https://api.github.com/users/PrismarineJS/starred{/owner}{/repo}",
            "subscriptions_url": "https://api.github.com/users/PrismarineJS/subscriptions",
            "type": "Organization",
            "url": "https://api.github.com/users/PrismarineJS"
        }
    },
    "body": "* Implement protodef-yaml for mcpc\r\n* support pc in  incrementVersion script",
    "changed_files": 36,
    "closed_at": "2024-06-23T04:24:21Z",
    "comment_data": [],
    "comment_regular_data": [
        {
            "author_association": "MEMBER",
            "body": "Closing for #886 so 1.20.5 changes can be applied against it",
            "created_at": "2024-06-23T04:24:21Z",
            "html_url": "https://github.com/PrismarineJS/minecraft-data/pull/885#issuecomment-2184501560",
            "id": 2184501560,
            "issue_url": "https://api.github.com/repos/PrismarineJS/minecraft-data/issues/885",
            "node_id": "IC_kwDOAfOYes6CNNk4",
            "performed_via_github_app": null,
            "reactions": {
                "+1": 0,
                "-1": 0,
                "confused": 0,
                "eyes": 0,
                "heart": 0,
                "hooray": 0,
                "laugh": 0,
                "rocket": 0,
                "total_count": 0,
                "url": "https://api.github.com/repos/PrismarineJS/minecraft-data/issues/comments/2184501560/reactions"
            },
            "updated_at": "2024-06-23T04:24:21Z",
            "url": "https://api.github.com/repos/PrismarineJS/minecraft-data/issues/comments/2184501560",
            "user": {
                "avatar_url": "https://avatars.githubusercontent.com/u/13713600?v=4",
                "events_url": "https://api.github.com/users/extremeheat/events{/privacy}",
                "followers_url": "https://api.github.com/users/extremeheat/followers",
                "following_url": "https://api.github.com/users/extremeheat/following{/other_user}",
                "gists_url": "https://api.github.com/users/extremeheat/gists{/gist_id}",
                "gravatar_id": "",
                "html_url": "https://github.com/extremeheat",
                "id": 13713600,
                "login": "extremeheat",
                "node_id": "MDQ6VXNlcjEzNzEzNjAw",
                "organizations_url": "https://api.github.com/users/extremeheat/orgs",
                "received_events_url": "https://api.github.com/users/extremeheat/received_events",
                "repos_url": "https://api.github.com/users/extremeheat/repos",
                "site_admin": false,
                "starred_url": "https://api.github.com/users/extremeheat/starred{/owner}{/repo}",
                "subscriptions_url": "https://api.github.com/users/extremeheat/subscriptions",
                "type": "User",
                "url": "https://api.github.com/users/extremeheat"
            }
        }
    ],
    "comments": 1,
    "comments_url": "https://api.github.com/repos/PrismarineJS/minecraft-data/issues/885/comments",
    "commit_data": [
        {
            "author": {
                "avatar_url": "https://avatars.githubusercontent.com/u/13713600?v=4",
                "events_url": "https://api.github.com/users/extremeheat/events{/privacy}",
                "followers_url": "https://api.github.com/users/extremeheat/followers",
                "following_url": "https://api.github.com/users/extremeheat/following{/other_user}",
                "gists_url": "https://api.github.com/users/extremeheat/gists{/gist_id}",
                "gravatar_id": "",
                "html_url": "https://github.com/extremeheat",
                "id": 13713600,
                "login": "extremeheat",
                "node_id": "MDQ6VXNlcjEzNzEzNjAw",
                "organizations_url": "https://api.github.com/users/extremeheat/orgs",
                "received_events_url": "https://api.github.com/users/extremeheat/received_events",
                "repos_url": "https://api.github.com/users/extremeheat/repos",
                "site_admin": false,
                "starred_url": "https://api.github.com/users/extremeheat/starred{/owner}{/repo}",
                "subscriptions_url": "https://api.github.com/users/extremeheat/subscriptions",
                "type": "User",
                "url": "https://api.github.com/users/extremeheat"
            },
            "comments_url": "https://api.github.com/repos/PrismarineJS/minecraft-data/commits/25f863c0085ff086dd36fb06fd0542ca7afdf30a/comments",
            "commit": {
                "author": {
                    "date": "2024-06-23T01:45:57Z",
                    "email": "extreme@protonmail.ch",
                    "name": "extremeheat"
                },
                "comment_count": 0,
                "committer": {
                    "date": "2024-06-23T01:45:57Z",
                    "email": "extreme@protonmail.ch",
                    "name": "extremeheat"
                },
                "message": "Add yaml protocol data for mcpc",
                "tree": {
                    "sha": "f78d25bb138447de879a5ebacbffbf2bdf8085fd",
                    "url": "https://api.github.com/repos/PrismarineJS/minecraft-data/git/trees/f78d25bb138447de879a5ebacbffbf2bdf8085fd"
                },
                "url": "https://api.github.com/repos/PrismarineJS/minecraft-data/git/commits/25f863c0085ff086dd36fb06fd0542ca7afdf30a",
                "verification": {
                    "payload": null,
                    "reason": "unsigned",
                    "signature": null,
                    "verified": false
                }
            },
            "committer": {
                "avatar_url": "https://avatars.githubusercontent.com/u/13713600?v=4",
                "events_url": "https://api.github.com/users/extremeheat/events{/privacy}",
                "followers_url": "https://api.github.com/users/extremeheat/followers",
                "following_url": "https://api.github.com/users/extremeheat/following{/other_user}",
                "gists_url": "https://api.github.com/users/extremeheat/gists{/gist_id}",
                "gravatar_id": "",
                "html_url": "https://github.com/extremeheat",
                "id": 13713600,
                "login": "extremeheat",
                "node_id": "MDQ6VXNlcjEzNzEzNjAw",
                "organizations_url": "https://api.github.com/users/extremeheat/orgs",
                "received_events_url": "https://api.github.com/users/extremeheat/received_events",
                "repos_url": "https://api.github.com/users/extremeheat/repos",
                "site_admin": false,
                "starred_url": "https://api.github.com/users/extremeheat/starred{/owner}{/repo}",
                "subscriptions_url": "https://api.github.com/users/extremeheat/subscriptions",
                "type": "User",
                "url": "https://api.github.com/users/extremeheat"
            },
            "html_url": "https://github.com/PrismarineJS/minecraft-data/commit/25f863c0085ff086dd36fb06fd0542ca7afdf30a",
            "node_id": "C_kwDOFfz0QtoAKDI1Zjg2M2MwMDg1ZmYwODZkZDM2ZmIwNmZkMDU0MmNhN2FmZGYzMGE",
            "parents": [
                {
                    "html_url": "https://github.com/PrismarineJS/minecraft-data/commit/a9e61a067b939da88afa3e106f036b6da8f41970",
                    "sha": "a9e61a067b939da88afa3e106f036b6da8f41970",
                    "url": "https://api.github.com/repos/PrismarineJS/minecraft-data/commits/a9e61a067b939da88afa3e106f036b6da8f41970"
                }
            ],
            "sha": "25f863c0085ff086dd36fb06fd0542ca7afdf30a",
            "url": "https://api.github.com/repos/PrismarineJS/minecraft-data/commits/25f863c0085ff086dd36fb06fd0542ca7afdf30a"
        },
        {
            "author": {
                "avatar_url": "https://avatars.githubusercontent.com/u/13713600?v=4",
                "events_url": "https://api.github.com/users/extremeheat/events{/privacy}",
                "followers_url": "https://api.github.com/users/extremeheat/followers",
                "following_url": "https://api.github.com/users/extremeheat/following{/other_user}",
                "gists_url": "https://api.github.com/users/extremeheat/gists{/gist_id}",
                "gravatar_id": "",
                "html_url": "https://github.com/extremeheat",
                "id": 13713600,
                "login": "extremeheat",
                "node_id": "MDQ6VXNlcjEzNzEzNjAw",
                "organizations_url": "https://api.github.com/users/extremeheat/orgs",
                "received_events_url": "https://api.github.com/users/extremeheat/received_events",
                "repos_url": "https://api.github.com/users/extremeheat/repos",
                "site_admin": false,
                "starred_url": "https://api.github.com/users/extremeheat/starred{/owner}{/repo}",
                "subscriptions_url": "https://api.github.com/users/extremeheat/subscriptions",
                "type": "User",
                "url": "https://api.github.com/users/extremeheat"
            },
            "comments_url": "https://api.github.com/repos/PrismarineJS/minecraft-data/commits/7da82650113129cd276527f5a60b1cc48815a49f/comments",
            "commit": {
                "author": {
                    "date": "2024-06-23T01:52:15Z",
                    "email": "extreme@protonmail.ch",
                    "name": "extremeheat"
                },
                "comment_count": 0,
                "committer": {
                    "date": "2024-06-23T01:52:15Z",
                    "email": "extreme@protonmail.ch",
                    "name": "extremeheat"
                },
                "message": "update bedrock protocol data for latest protodef-yaml changes\nChanges only to sorting",
                "tree": {
                    "sha": "68ac7fc550bfc41b97d02b690d5be26347b37d8a",
                    "url": "https://api.github.com/repos/PrismarineJS/minecraft-data/git/trees/68ac7fc550bfc41b97d02b690d5be26347b37d8a"
                },
                "url": "https://api.github.com/repos/PrismarineJS/minecraft-data/git/commits/7da82650113129cd276527f5a60b1cc48815a49f",
                "verification": {
                    "payload": null,
                    "reason": "unsigned",
                    "signature": null,
                    "verified": false
                }
            },
            "committer": {
                "avatar_url": "https://avatars.githubusercontent.com/u/13713600?v=4",
                "events_url": "https://api.github.com/users/extremeheat/events{/privacy}",
                "followers_url": "https://api.github.com/users/extremeheat/followers",
                "following_url": "https://api.github.com/users/extremeheat/following{/other_user}",
                "gists_url": "https://api.github.com/users/extremeheat/gists{/gist_id}",
                "gravatar_id": "",
                "html_url": "https://github.com/extremeheat",
                "id": 13713600,
                "login": "extremeheat",
                "node_id": "MDQ6VXNlcjEzNzEzNjAw",
                "organizations_url": "https://api.github.com/users/extremeheat/orgs",
                "received_events_url": "https://api.github.com/users/extremeheat/received_events",
                "repos_url": "https://api.github.com/users/extremeheat/repos",
                "site_admin": false,
                "starred_url": "https://api.github.com/users/extremeheat/starred{/owner}{/repo}",
                "subscriptions_url": "https://api.github.com/users/extremeheat/subscriptions",
                "type": "User",
                "url": "https://api.github.com/users/extremeheat"
            },
            "html_url": "https://github.com/PrismarineJS/minecraft-data/commit/7da82650113129cd276527f5a60b1cc48815a49f",
            "node_id": "C_kwDOFfz0QtoAKDdkYTgyNjUwMTEzMTI5Y2QyNzY1MjdmNWE2MGIxY2M0ODgxNWE0OWY",
            "parents": [
                {
                    "html_url": "https://github.com/PrismarineJS/minecraft-data/commit/25f863c0085ff086dd36fb06fd0542ca7afdf30a",
                    "sha": "25f863c0085ff086dd36fb06fd0542ca7afdf30a",
                    "url": "https://api.github.com/repos/PrismarineJS/minecraft-data/commits/25f863c0085ff086dd36fb06fd0542ca7afdf30a"
                }
            ],
            "sha": "7da82650113129cd276527f5a60b1cc48815a49f",
            "url": "https://api.github.com/repos/PrismarineJS/minecraft-data/commits/7da82650113129cd276527f5a60b1cc48815a49f"
        },
        {
            "author": {
                "avatar_url": "https://avatars.githubusercontent.com/u/13713600?v=4",
                "events_url": "https://api.github.com/users/extremeheat/events{/privacy}",
                "followers_url": "https://api.github.com/users/extremeheat/followers",
                "following_url": "https://api.github.com/users/extremeheat/following{/other_user}",
                "gists_url": "https://api.github.com/users/extremeheat/gists{/gist_id}",
                "gravatar_id": "",
                "html_url": "https://github.com/extremeheat",
                "id": 13713600,
                "login": "extremeheat",
                "node_id": "MDQ6VXNlcjEzNzEzNjAw",
                "organizations_url": "https://api.github.com/users/extremeheat/orgs",
                "received_events_url": "https://api.github.com/users/extremeheat/received_events",
                "repos_url": "https://api.github.com/users/extremeheat/repos",
                "site_admin": false,
                "starred_url": "https://api.github.com/users/extremeheat/starred{/owner}{/repo}",
                "subscriptions_url": "https://api.github.com/users/extremeheat/subscriptions",
                "type": "User",
                "url": "https://api.github.com/users/extremeheat"
            },
            "comments_url": "https://api.github.com/repos/PrismarineJS/minecraft-data/commits/6fb186658e3969cb196704dcfe497b3885766744/comments",
            "commit": {
                "author": {
                    "date": "2024-06-23T02:47:32Z",
                    "email": "extreme@protonmail.ch",
                    "name": "extremeheat"
                },
                "comment_count": 0,
                "committer": {
                    "date": "2024-06-23T02:47:32Z",
                    "email": "extreme@protonmail.ch",
                    "name": "extremeheat"
                },
                "message": "add pc support to incrementVersion script",
                "tree": {
                    "sha": "0f08708fc2d582444bdfaaf48de8cbc98c79ec5d",
                    "url": "https://api.github.com/repos/PrismarineJS/minecraft-data/git/trees/0f08708fc2d582444bdfaaf48de8cbc98c79ec5d"
                },
                "url": "https://api.github.com/repos/PrismarineJS/minecraft-data/git/commits/6fb186658e3969cb196704dcfe497b3885766744",
                "verification": {
                    "payload": null,
                    "reason": "unsigned",
                    "signature": null,
                    "verified": false
                }
            },
            "committer": {
                "avatar_url": "https://avatars.githubusercontent.com/u/13713600?v=4",
                "events_url": "https://api.github.com/users/extremeheat/events{/privacy}",
                "followers_url": "https://api.github.com/users/extremeheat/followers",
                "following_url": "https://api.github.com/users/extremeheat/following{/other_user}",
                "gists_url": "https://api.github.com/users/extremeheat/gists{/gist_id}",
                "gravatar_id": "",
                "html_url": "https://github.com/extremeheat",
                "id": 13713600,
                "login": "extremeheat",
                "node_id": "MDQ6VXNlcjEzNzEzNjAw",
                "organizations_url": "https://api.github.com/users/extremeheat/orgs",
                "received_events_url": "https://api.github.com/users/extremeheat/received_events",
                "repos_url": "https://api.github.com/users/extremeheat/repos",
                "site_admin": false,
                "starred_url": "https://api.github.com/users/extremeheat/starred{/owner}{/repo}",
                "subscriptions_url": "https://api.github.com/users/extremeheat/subscriptions",
                "type": "User",
                "url": "https://api.github.com/users/extremeheat"
            },
            "html_url": "https://github.com/PrismarineJS/minecraft-data/commit/6fb186658e3969cb196704dcfe497b3885766744",
            "node_id": "C_kwDOFfz0QtoAKDZmYjE4NjY1OGUzOTY5Y2IxOTY3MDRkY2ZlNDk3YjM4ODU3NjY3NDQ",
            "parents": [
                {
                    "html_url": "https://github.com/PrismarineJS/minecraft-data/commit/7da82650113129cd276527f5a60b1cc48815a49f",
                    "sha": "7da82650113129cd276527f5a60b1cc48815a49f",
                    "url": "https://api.github.com/repos/PrismarineJS/minecraft-data/commits/7da82650113129cd276527f5a60b1cc48815a49f"
                }
            ],
            "sha": "6fb186658e3969cb196704dcfe497b3885766744",
            "url": "https://api.github.com/repos/PrismarineJS/minecraft-data/commits/6fb186658e3969cb196704dcfe497b3885766744"
        }
    ],
    "commits": 3,
    "commits_url": "https://api.github.com/repos/PrismarineJS/minecraft-data/pulls/885/commits",
    "created_at": "2024-06-23T03:35:52Z",
    "deletions": 11053,
    "diff_url": "https://github.com/PrismarineJS/minecraft-data/pull/885.diff",
    "draft": true,
    "head": {
        "label": "extremeheat:pc-yaml",
        "ref": "pc-yaml",
        "repo": {
            "allow_forking": true,
            "archive_url": "https://api.github.com/repos/extremeheat/minecraft-data/{archive_format}{/ref}",
            "archived": false,
            "assignees_url": "https://api.github.com/repos/extremeheat/minecraft-data/assignees{/user}",
            "blobs_url": "https://api.github.com/repos/extremeheat/minecraft-data/git/blobs{/sha}",
            "branches_url": "https://api.github.com/repos/extremeheat/minecraft-data/branches{/branch}",
            "clone_url": "https://github.com/extremeheat/minecraft-data.git",
            "collaborators_url": "https://api.github.com/repos/extremeheat/minecraft-data/collaborators{/collaborator}",
            "comments_url": "https://api.github.com/repos/extremeheat/minecraft-data/comments{/number}",
            "commits_url": "https://api.github.com/repos/extremeheat/minecraft-data/commits{/sha}",
            "compare_url": "https://api.github.com/repos/extremeheat/minecraft-data/compare/{base}...{head}",
            "contents_url": "https://api.github.com/repos/extremeheat/minecraft-data/contents/{+path}",
            "contributors_url": "https://api.github.com/repos/extremeheat/minecraft-data/contributors",
            "created_at": "2021-05-19T14:32:54Z",
            "default_branch": "master",
            "deployments_url": "https://api.github.com/repos/extremeheat/minecraft-data/deployments",
            "description": "Language independent module providing minecraft data for minecraft clients, servers and libraries.",
            "disabled": false,
            "downloads_url": "https://api.github.com/repos/extremeheat/minecraft-data/downloads",
            "events_url": "https://api.github.com/repos/extremeheat/minecraft-data/events",
            "fork": true,
            "forks": 0,
            "forks_count": 0,
            "forks_url": "https://api.github.com/repos/extremeheat/minecraft-data/forks",
            "full_name": "extremeheat/minecraft-data",
            "git_commits_url": "https://api.github.com/repos/extremeheat/minecraft-data/git/commits{/sha}",
            "git_refs_url": "https://api.github.com/repos/extremeheat/minecraft-data/git/refs{/sha}",
            "git_tags_url": "https://api.github.com/repos/extremeheat/minecraft-data/git/tags{/sha}",
            "git_url": "git://github.com/extremeheat/minecraft-data.git",
            "has_discussions": false,
            "has_downloads": true,
            "has_issues": true,
            "has_pages": true,
            "has_projects": true,
            "has_wiki": true,
            "homepage": "https://minecraft-data.prismarine.js.org/",
            "hooks_url": "https://api.github.com/repos/extremeheat/minecraft-data/hooks",
            "html_url": "https://github.com/extremeheat/minecraft-data",
            "id": 368899138,
            "is_template": false,
            "issue_comment_url": "https://api.github.com/repos/extremeheat/minecraft-data/issues/comments{/number}",
            "issue_events_url": "https://api.github.com/repos/extremeheat/minecraft-data/issues/events{/number}",
            "issues_url": "https://api.github.com/repos/extremeheat/minecraft-data/issues{/number}",
            "keys_url": "https://api.github.com/repos/extremeheat/minecraft-data/keys{/key_id}",
            "labels_url": "https://api.github.com/repos/extremeheat/minecraft-data/labels{/name}",
            "language": "JavaScript",
            "languages_url": "https://api.github.com/repos/extremeheat/minecraft-data/languages",
            "license": null,
            "merges_url": "https://api.github.com/repos/extremeheat/minecraft-data/merges",
            "milestones_url": "https://api.github.com/repos/extremeheat/minecraft-data/milestones{/number}",
            "mirror_url": null,
            "name": "minecraft-data",
            "node_id": "MDEwOlJlcG9zaXRvcnkzNjg4OTkxMzg=",
            "notifications_url": "https://api.github.com/repos/extremeheat/minecraft-data/notifications{?since,all,participating}",
            "open_issues": 8,
            "open_issues_count": 8,
            "owner": {
                "avatar_url": "https://avatars.githubusercontent.com/u/13713600?v=4",
                "events_url": "https://api.github.com/users/extremeheat/events{/privacy}",
                "followers_url": "https://api.github.com/users/extremeheat/followers",
                "following_url": "https://api.github.com/users/extremeheat/following{/other_user}",
                "gists_url": "https://api.github.com/users/extremeheat/gists{/gist_id}",
                "gravatar_id": "",
                "html_url": "https://github.com/extremeheat",
                "id": 13713600,
                "login": "extremeheat",
                "node_id": "MDQ6VXNlcjEzNzEzNjAw",
                "organizations_url": "https://api.github.com/users/extremeheat/orgs",
                "received_events_url": "https://api.github.com/users/extremeheat/received_events",
                "repos_url": "https://api.github.com/users/extremeheat/repos",
                "site_admin": false,
                "starred_url": "https://api.github.com/users/extremeheat/starred{/owner}{/repo}",
                "subscriptions_url": "https://api.github.com/users/extremeheat/subscriptions",
                "type": "User",
                "url": "https://api.github.com/users/extremeheat"
            },
            "private": false,
            "pulls_url": "https://api.github.com/repos/extremeheat/minecraft-data/pulls{/number}",
            "pushed_at": "2024-06-23T02:47:57Z",
            "releases_url": "https://api.github.com/repos/extremeheat/minecraft-data/releases{/id}",
            "size": 136974,
            "ssh_url": "git@github.com:extremeheat/minecraft-data.git",
            "stargazers_count": 0,
            "stargazers_url": "https://api.github.com/repos/extremeheat/minecraft-data/stargazers",
            "statuses_url": "https://api.github.com/repos/extremeheat/minecraft-data/statuses/{sha}",
            "subscribers_url": "https://api.github.com/repos/extremeheat/minecraft-data/subscribers",
            "subscription_url": "https://api.github.com/repos/extremeheat/minecraft-data/subscription",
            "svn_url": "https://github.com/extremeheat/minecraft-data",
            "tags_url": "https://api.github.com/repos/extremeheat/minecraft-data/tags",
            "teams_url": "https://api.github.com/repos/extremeheat/minecraft-data/teams",
            "topics": [],
            "trees_url": "https://api.github.com/repos/extremeheat/minecraft-data/git/trees{/sha}",
            "updated_at": "2024-06-21T02:50:15Z",
            "url": "https://api.github.com/repos/extremeheat/minecraft-data",
            "visibility": "public",
            "watchers": 0,
            "watchers_count": 0,
            "web_commit_signoff_required": false
        },
        "sha": "6fb186658e3969cb196704dcfe497b3885766744",
        "user": {
            "avatar_url": "https://avatars.githubusercontent.com/u/13713600?v=4",
            "events_url": "https://api.github.com/users/extremeheat/events{/privacy}",
            "followers_url": "https://api.github.com/users/extremeheat/followers",
            "following_url": "https://api.github.com/users/extremeheat/following{/other_user}",
            "gists_url": "https://api.github.com/users/extremeheat/gists{/gist_id}",
            "gravatar_id": "",
            "html_url": "https://github.com/extremeheat",
            "id": 13713600,
            "login": "extremeheat",
            "node_id": "MDQ6VXNlcjEzNzEzNjAw",
            "organizations_url": "https://api.github.com/users/extremeheat/orgs",
            "received_events_url": "https://api.github.com/users/extremeheat/received_events",
            "repos_url": "https://api.github.com/users/extremeheat/repos",
            "site_admin": false,
            "starred_url": "https://api.github.com/users/extremeheat/starred{/owner}{/repo}",
            "subscriptions_url": "https://api.github.com/users/extremeheat/subscriptions",
            "type": "User",
            "url": "https://api.github.com/users/extremeheat"
        }
    },
    "html_url": "https://github.com/PrismarineJS/minecraft-data/pull/885",
    "id": 1933871178,
    "issue_url": "https://api.github.com/repos/PrismarineJS/minecraft-data/issues/885",
    "labels": [],
    "locked": false,
    "maintainer_can_modify": false,
    "merge_commit_sha": "6aafa851a172de89608b0f9b6a40b4f5b7388109",
    "mergeable": true,
    "mergeable_state": "unstable",
    "merged": false,
    "merged_at": null,
    "merged_by": null,
    "milestone": null,
    "node_id": "PR_kwDOAfOYes5zRIhK",
    "number": 885,
    "patch_url": "https://github.com/PrismarineJS/minecraft-data/pull/885.patch",
    "rebaseable": false,
    "requested_reviewers": [],
    "requested_teams": [],
    "review_comment_url": "https://api.github.com/repos/PrismarineJS/minecraft-data/pulls/comments{/number}",
    "review_comments": 0,
    "review_comments_url": "https://api.github.com/repos/PrismarineJS/minecraft-data/pulls/885/comments",
    "state": "closed",
    "statuses_url": "https://api.github.com/repos/PrismarineJS/minecraft-data/statuses/6fb186658e3969cb196704dcfe497b3885766744",
    "title": "Implement protodef-yaml for mcpc",
    "updated_at": "2024-06-23T04:24:21Z",
    "url": "https://api.github.com/repos/PrismarineJS/minecraft-data/pulls/885",
    "user": {
        "avatar_url": "https://avatars.githubusercontent.com/u/13713600?v=4",
        "events_url": "https://api.github.com/users/extremeheat/events{/privacy}",
        "followers_url": "https://api.github.com/users/extremeheat/followers",
        "following_url": "https://api.github.com/users/extremeheat/following{/other_user}",
        "gists_url": "https://api.github.com/users/extremeheat/gists{/gist_id}",
        "gravatar_id": "",
        "html_url": "https://github.com/extremeheat",
        "id": 13713600,
        "login": "extremeheat",
        "node_id": "MDQ6VXNlcjEzNzEzNjAw",
        "organizations_url": "https://api.github.com/users/extremeheat/orgs",
        "received_events_url": "https://api.github.com/users/extremeheat/received_events",
        "repos_url": "https://api.github.com/users/extremeheat/repos",
        "site_admin": false,
        "starred_url": "https://api.github.com/users/extremeheat/starred{/owner}{/repo}",
        "subscriptions_url": "https://api.github.com/users/extremeheat/subscriptions",
        "type": "User",
        "url": "https://api.github.com/users/extremeheat"
    }
}