{
    "_links": {
        "comments": {
            "href": "https://api.github.com/repos/PrismarineJS/minecraft-data/issues/906/comments"
        },
        "commits": {
            "href": "https://api.github.com/repos/PrismarineJS/minecraft-data/pulls/906/commits"
        },
        "html": {
            "href": "https://github.com/PrismarineJS/minecraft-data/pull/906"
        },
        "issue": {
            "href": "https://api.github.com/repos/PrismarineJS/minecraft-data/issues/906"
        },
        "review_comment": {
            "href": "https://api.github.com/repos/PrismarineJS/minecraft-data/pulls/comments{/number}"
        },
        "review_comments": {
            "href": "https://api.github.com/repos/PrismarineJS/minecraft-data/pulls/906/comments"
        },
        "self": {
            "href": "https://api.github.com/repos/PrismarineJS/minecraft-data/pulls/906"
        },
        "statuses": {
            "href": "https://api.github.com/repos/PrismarineJS/minecraft-data/statuses/e36ac25037fd0b8d82ab78fa215c8f43d425d760"
        }
    },
    "active_lock_reason": null,
    "additions": 103,
    "assignee": null,
    "assignees": [],
    "author_association": "NONE",
    "auto_merge": null,
    "base": {
        "label": "PrismarineJS:master",
        "ref": "master",
        "repo": {
            "allow_forking": true,
            "archive_url": "https://api.github.com/repos/PrismarineJS/minecraft-data/{archive_format}{/ref}",
            "archived": false,
            "assignees_url": "https://api.github.com/repos/PrismarineJS/minecraft-data/assignees{/user}",
            "blobs_url": "https://api.github.com/repos/PrismarineJS/minecraft-data/git/blobs{/sha}",
            "branches_url": "https://api.github.com/repos/PrismarineJS/minecraft-data/branches{/branch}",
            "clone_url": "https://github.com/PrismarineJS/minecraft-data.git",
            "collaborators_url": "https://api.github.com/repos/PrismarineJS/minecraft-data/collaborators{/collaborator}",
            "comments_url": "https://api.github.com/repos/PrismarineJS/minecraft-data/comments{/number}",
            "commits_url": "https://api.github.com/repos/PrismarineJS/minecraft-data/commits{/sha}",
            "compare_url": "https://api.github.com/repos/PrismarineJS/minecraft-data/compare/{base}...{head}",
            "contents_url": "https://api.github.com/repos/PrismarineJS/minecraft-data/contents/{+path}",
            "contributors_url": "https://api.github.com/repos/PrismarineJS/minecraft-data/contributors",
            "created_at": "2015-03-23T15:38:19Z",
            "default_branch": "master",
            "deployments_url": "https://api.github.com/repos/PrismarineJS/minecraft-data/deployments",
            "description": "Language independent module providing minecraft data for minecraft clients, servers and libraries.",
            "disabled": false,
            "downloads_url": "https://api.github.com/repos/PrismarineJS/minecraft-data/downloads",
            "events_url": "https://api.github.com/repos/PrismarineJS/minecraft-data/events",
            "fork": false,
            "forks": 223,
            "forks_count": 223,
            "forks_url": "https://api.github.com/repos/PrismarineJS/minecraft-data/forks",
            "full_name": "PrismarineJS/minecraft-data",
            "git_commits_url": "https://api.github.com/repos/PrismarineJS/minecraft-data/git/commits{/sha}",
            "git_refs_url": "https://api.github.com/repos/PrismarineJS/minecraft-data/git/refs{/sha}",
            "git_tags_url": "https://api.github.com/repos/PrismarineJS/minecraft-data/git/tags{/sha}",
            "git_url": "git://github.com/PrismarineJS/minecraft-data.git",
            "has_discussions": false,
            "has_downloads": true,
            "has_issues": true,
            "has_pages": true,
            "has_projects": true,
            "has_wiki": true,
            "homepage": "https://prismarinejs.github.io/minecraft-data",
            "hooks_url": "https://api.github.com/repos/PrismarineJS/minecraft-data/hooks",
            "html_url": "https://github.com/PrismarineJS/minecraft-data",
            "id": 32741498,
            "is_template": false,
            "issue_comment_url": "https://api.github.com/repos/PrismarineJS/minecraft-data/issues/comments{/number}",
            "issue_events_url": "https://api.github.com/repos/PrismarineJS/minecraft-data/issues/events{/number}",
            "issues_url": "https://api.github.com/repos/PrismarineJS/minecraft-data/issues{/number}",
            "keys_url": "https://api.github.com/repos/PrismarineJS/minecraft-data/keys{/key_id}",
            "labels_url": "https://api.github.com/repos/PrismarineJS/minecraft-data/labels{/name}",
            "language": "JavaScript",
            "languages_url": "https://api.github.com/repos/PrismarineJS/minecraft-data/languages",
            "license": null,
            "merges_url": "https://api.github.com/repos/PrismarineJS/minecraft-data/merges",
            "milestones_url": "https://api.github.com/repos/PrismarineJS/minecraft-data/milestones{/number}",
            "mirror_url": null,
            "name": "minecraft-data",
            "node_id": "MDEwOlJlcG9zaXRvcnkzMjc0MTQ5OA==",
            "notifications_url": "https://api.github.com/repos/PrismarineJS/minecraft-data/notifications{?since,all,participating}",
            "open_issues": 143,
            "open_issues_count": 143,
            "owner": {
                "avatar_url": "https://avatars.githubusercontent.com/u/11053411?v=4",
                "events_url": "https://api.github.com/users/PrismarineJS/events{/privacy}",
                "followers_url": "https://api.github.com/users/PrismarineJS/followers",
                "following_url": "https://api.github.com/users/PrismarineJS/following{/other_user}",
                "gists_url": "https://api.github.com/users/PrismarineJS/gists{/gist_id}",
                "gravatar_id": "",
                "html_url": "https://github.com/PrismarineJS",
                "id": 11053411,
                "login": "PrismarineJS",
                "node_id": "MDEyOk9yZ2FuaXphdGlvbjExMDUzNDEx",
                "organizations_url": "https://api.github.com/users/PrismarineJS/orgs",
                "received_events_url": "https://api.github.com/users/PrismarineJS/received_events",
                "repos_url": "https://api.github.com/users/PrismarineJS/repos",
                "site_admin": false,
                "starred_url": "https://api.github.com/users/PrismarineJS/starred{/owner}{/repo}",
                "subscriptions_url": "https://api.github.com/users/PrismarineJS/subscriptions",
                "type": "Organization",
                "url": "https://api.github.com/users/PrismarineJS",
                "user_view_type": "public"
            },
            "private": false,
            "pulls_url": "https://api.github.com/repos/PrismarineJS/minecraft-data/pulls{/number}",
            "pushed_at": "2025-01-22T14:16:08Z",
            "releases_url": "https://api.github.com/repos/PrismarineJS/minecraft-data/releases{/id}",
            "size": 241239,
            "ssh_url": "git@github.com:PrismarineJS/minecraft-data.git",
            "stargazers_count": 697,
            "stargazers_url": "https://api.github.com/repos/PrismarineJS/minecraft-data/stargazers",
            "statuses_url": "https://api.github.com/repos/PrismarineJS/minecraft-data/statuses/{sha}",
            "subscribers_url": "https://api.github.com/repos/PrismarineJS/minecraft-data/subscribers",
            "subscription_url": "https://api.github.com/repos/PrismarineJS/minecraft-data/subscription",
            "svn_url": "https://github.com/PrismarineJS/minecraft-data",
            "tags_url": "https://api.github.com/repos/PrismarineJS/minecraft-data/tags",
            "teams_url": "https://api.github.com/repos/PrismarineJS/minecraft-data/teams",
            "topics": [
                "data",
                "minecraft"
            ],
            "trees_url": "https://api.github.com/repos/PrismarineJS/minecraft-data/git/trees{/sha}",
            "updated_at": "2025-01-24T04:04:29Z",
            "url": "https://api.github.com/repos/PrismarineJS/minecraft-data",
            "visibility": "public",
            "watchers": 697,
            "watchers_count": 697,
            "web_commit_signoff_required": false
        },
        "sha": "8fc7c59c1a27f90a31db748dae2a16c7fb4ecf88",
        "user": {
            "avatar_url": "https://avatars.githubusercontent.com/u/11053411?v=4",
            "events_url": "https://api.github.com/users/PrismarineJS/events{/privacy}",
            "followers_url": "https://api.github.com/users/PrismarineJS/followers",
            "following_url": "https://api.github.com/users/PrismarineJS/following{/other_user}",
            "gists_url": "https://api.github.com/users/PrismarineJS/gists{/gist_id}",
            "gravatar_id": "",
            "html_url": "https://github.com/PrismarineJS",
            "id": 11053411,
            "login": "PrismarineJS",
            "node_id": "MDEyOk9yZ2FuaXphdGlvbjExMDUzNDEx",
            "organizations_url": "https://api.github.com/users/PrismarineJS/orgs",
            "received_events_url": "https://api.github.com/users/PrismarineJS/received_events",
            "repos_url": "https://api.github.com/users/PrismarineJS/repos",
            "site_admin": false,
            "starred_url": "https://api.github.com/users/PrismarineJS/starred{/owner}{/repo}",
            "subscriptions_url": "https://api.github.com/users/PrismarineJS/subscriptions",
            "type": "Organization",
            "url": "https://api.github.com/users/PrismarineJS",
            "user_view_type": "public"
        }
    },
    "body": "I have no idea why this was not like this before?\r\n",
    "changed_files": 53,
    "closed_at": "2025-01-24T22:01:23Z",
    "comment_data": [],
    "comment_regular_data": [
        {
            "author_association": "MEMBER",
            "body": "CI failing",
            "created_at": "2024-08-24T19:19:03Z",
            "html_url": "https://github.com/PrismarineJS/minecraft-data/pull/906#issuecomment-2308505247",
            "id": 2308505247,
            "issue_url": "https://api.github.com/repos/PrismarineJS/minecraft-data/issues/906",
            "node_id": "IC_kwDOAfOYes6JmP6f",
            "performed_via_github_app": null,
            "reactions": {
                "+1": 0,
                "-1": 0,
                "confused": 0,
                "eyes": 0,
                "heart": 0,
                "hooray": 0,
                "laugh": 0,
                "rocket": 0,
                "total_count": 0,
                "url": "https://api.github.com/repos/PrismarineJS/minecraft-data/issues/comments/2308505247/reactions"
            },
            "updated_at": "2024-08-24T19:19:03Z",
            "url": "https://api.github.com/repos/PrismarineJS/minecraft-data/issues/comments/2308505247",
            "user": {
                "avatar_url": "https://avatars.githubusercontent.com/u/13713600?v=4",
                "events_url": "https://api.github.com/users/extremeheat/events{/privacy}",
                "followers_url": "https://api.github.com/users/extremeheat/followers",
                "following_url": "https://api.github.com/users/extremeheat/following{/other_user}",
                "gists_url": "https://api.github.com/users/extremeheat/gists{/gist_id}",
                "gravatar_id": "",
                "html_url": "https://github.com/extremeheat",
                "id": 13713600,
                "login": "extremeheat",
                "node_id": "MDQ6VXNlcjEzNzEzNjAw",
                "organizations_url": "https://api.github.com/users/extremeheat/orgs",
                "received_events_url": "https://api.github.com/users/extremeheat/received_events",
                "repos_url": "https://api.github.com/users/extremeheat/repos",
                "site_admin": false,
                "starred_url": "https://api.github.com/users/extremeheat/starred{/owner}{/repo}",
                "subscriptions_url": "https://api.github.com/users/extremeheat/subscriptions",
                "type": "User",
                "url": "https://api.github.com/users/extremeheat",
                "user_view_type": "public"
            }
        }
    ],
    "comments": 1,
    "comments_url": "https://api.github.com/repos/PrismarineJS/minecraft-data/issues/906/comments",
    "commit_data": [
        {
            "author": {
                "avatar_url": "https://avatars.githubusercontent.com/u/74665496?v=4",
                "events_url": "https://api.github.com/users/admin-else/events{/privacy}",
                "followers_url": "https://api.github.com/users/admin-else/followers",
                "following_url": "https://api.github.com/users/admin-else/following{/other_user}",
                "gists_url": "https://api.github.com/users/admin-else/gists{/gist_id}",
                "gravatar_id": "",
                "html_url": "https://github.com/admin-else",
                "id": 74665496,
                "login": "admin-else",
                "node_id": "MDQ6VXNlcjc0NjY1NDk2",
                "organizations_url": "https://api.github.com/users/admin-else/orgs",
                "received_events_url": "https://api.github.com/users/admin-else/received_events",
                "repos_url": "https://api.github.com/users/admin-else/repos",
                "site_admin": false,
                "starred_url": "https://api.github.com/users/admin-else/starred{/owner}{/repo}",
                "subscriptions_url": "https://api.github.com/users/admin-else/subscriptions",
                "type": "User",
                "url": "https://api.github.com/users/admin-else",
                "user_view_type": "public"
            },
            "comments_url": "https://api.github.com/repos/PrismarineJS/minecraft-data/commits/1358f1069d7f3acc3de51f218584de9ddaa8c3fa/comments",
            "commit": {
                "author": {
                    "date": "2024-08-23T17:19:33Z",
                    "email": "adman.else@gmail.com",
                    "name": "admin-else"
                },
                "comment_count": 0,
                "committer": {
                    "date": "2024-08-23T17:19:33Z",
                    "email": "adman.else@gmail.com",
                    "name": "admin-else"
                },
                "message": "Define mapper as native",
                "tree": {
                    "sha": "e093fa2148868496826b4b8908889c084238a574",
                    "url": "https://api.github.com/repos/PrismarineJS/minecraft-data/git/trees/e093fa2148868496826b4b8908889c084238a574"
                },
                "url": "https://api.github.com/repos/PrismarineJS/minecraft-data/git/commits/1358f1069d7f3acc3de51f218584de9ddaa8c3fa",
                "verification": {
                    "payload": null,
                    "reason": "unsigned",
                    "signature": null,
                    "verified": false,
                    "verified_at": null
                }
            },
            "committer": {
                "avatar_url": "https://avatars.githubusercontent.com/u/74665496?v=4",
                "events_url": "https://api.github.com/users/admin-else/events{/privacy}",
                "followers_url": "https://api.github.com/users/admin-else/followers",
                "following_url": "https://api.github.com/users/admin-else/following{/other_user}",
                "gists_url": "https://api.github.com/users/admin-else/gists{/gist_id}",
                "gravatar_id": "",
                "html_url": "https://github.com/admin-else",
                "id": 74665496,
                "login": "admin-else",
                "node_id": "MDQ6VXNlcjc0NjY1NDk2",
                "organizations_url": "https://api.github.com/users/admin-else/orgs",
                "received_events_url": "https://api.github.com/users/admin-else/received_events",
                "repos_url": "https://api.github.com/users/admin-else/repos",
                "site_admin": false,
                "starred_url": "https://api.github.com/users/admin-else/starred{/owner}{/repo}",
                "subscriptions_url": "https://api.github.com/users/admin-else/subscriptions",
                "type": "User",
                "url": "https://api.github.com/users/admin-else",
                "user_view_type": "public"
            },
            "html_url": "https://github.com/PrismarineJS/minecraft-data/commit/1358f1069d7f3acc3de51f218584de9ddaa8c3fa",
            "node_id": "C_kwDOMnbsQdoAKDEzNThmMTA2OWQ3ZjNhY2MzZGU1MWYyMTg1ODRkZTlkZGFhOGMzZmE",
            "parents": [
                {
                    "html_url": "https://github.com/PrismarineJS/minecraft-data/commit/343a3c1c4b414a353e1a19d08144c5be699a6015",
                    "sha": "343a3c1c4b414a353e1a19d08144c5be699a6015",
                    "url": "https://api.github.com/repos/PrismarineJS/minecraft-data/commits/343a3c1c4b414a353e1a19d08144c5be699a6015"
                }
            ],
            "sha": "1358f1069d7f3acc3de51f218584de9ddaa8c3fa",
            "url": "https://api.github.com/repos/PrismarineJS/minecraft-data/commits/1358f1069d7f3acc3de51f218584de9ddaa8c3fa"
        },
        {
            "author": {
                "avatar_url": "https://avatars.githubusercontent.com/u/74665496?v=4",
                "events_url": "https://api.github.com/users/admin-else/events{/privacy}",
                "followers_url": "https://api.github.com/users/admin-else/followers",
                "following_url": "https://api.github.com/users/admin-else/following{/other_user}",
                "gists_url": "https://api.github.com/users/admin-else/gists{/gist_id}",
                "gravatar_id": "",
                "html_url": "https://github.com/admin-else",
                "id": 74665496,
                "login": "admin-else",
                "node_id": "MDQ6VXNlcjc0NjY1NDk2",
                "organizations_url": "https://api.github.com/users/admin-else/orgs",
                "received_events_url": "https://api.github.com/users/admin-else/received_events",
                "repos_url": "https://api.github.com/users/admin-else/repos",
                "site_admin": false,
                "starred_url": "https://api.github.com/users/admin-else/starred{/owner}{/repo}",
                "subscriptions_url": "https://api.github.com/users/admin-else/subscriptions",
                "type": "User",
                "url": "https://api.github.com/users/admin-else",
                "user_view_type": "public"
            },
            "comments_url": "https://api.github.com/repos/PrismarineJS/minecraft-data/commits/e36ac25037fd0b8d82ab78fa215c8f43d425d760/comments",
            "commit": {
                "author": {
                    "date": "2024-09-01T16:14:03Z",
                    "email": "adman.else@gmail.com",
                    "name": "admin-else"
                },
                "comment_count": 0,
                "committer": {
                    "date": "2024-09-01T16:14:03Z",
                    "email": "noreply@github.com",
                    "name": "GitHub"
                },
                "message": "Merge branch 'PrismarineJS:master' into master",
                "tree": {
                    "sha": "927912fdfb0de9ad1f90c3a513afb157435cb047",
                    "url": "https://api.github.com/repos/PrismarineJS/minecraft-data/git/trees/927912fdfb0de9ad1f90c3a513afb157435cb047"
                },
                "url": "https://api.github.com/repos/PrismarineJS/minecraft-data/git/commits/e36ac25037fd0b8d82ab78fa215c8f43d425d760",
                "verification": {
                    "payload": "tree 927912fdfb0de9ad1f90c3a513afb157435cb047\nparent 1358f1069d7f3acc3de51f218584de9ddaa8c3fa\nparent 8fc7c59c1a27f90a31db748dae2a16c7fb4ecf88\nauthor admin-else <adman.else@gmail.com> 1725207243 +0200\ncommitter GitHub <noreply@github.com> 1725207243 +0200\n\nMerge branch 'PrismarineJS:master' into master\n",
                    "reason": "valid",
                    "signature": "-----BEGIN PGP SIGNATURE-----\n\nwsFcBAABCAAQBQJm1JLLCRC1aQ7uu5UhlAAAIc4QAJngryp2pPFfOhPE+jVNrWr1\nA6iesqglURfmd3pFHSmzGXJRauuAATt0LbrL0iXwuwPvLilLwHkTvkIw+WGAcmlF\nKFEv8O4FNMRTyQOD8W6tBx+Kohzdy56ZE/glAJu96aKQ8/DAOcJmC9awOOaFVy3b\ngnzvfeEn6OLF4AT2aH3jSXLqT8+m+byAaROogLCuts4erLyVgpRCl1yMHgqb1Y8E\nNK152n9LhU/ugsXl8QSRRc7kI8wtdPJREI6A2Ee9fVyMIy4gDHDYrH3T4dhCqiry\nzRQlyBFER+zGbbMG5PwW0rw5vhO8sWR76lb2qVT7og/AYG/1ON4K/nIr0ynuwj4b\nq79NxuSdcaofnxeQ2N1I0m/77k69v2sDMMBfpzNW1BIykRsZtZHl3zgVsG1ar6yJ\nSXYFvXMEXlbIcDA/0DsCIpIjg2/St86BVqKRP36Ns5RN0Yk+J9gRrjeAiUfX2GGq\nRfYH2Mk0xfhgCgT30LI6B5XoJJ6lld0NUDTjyDbXNwHJK9QZQP4mSHbzkv+iFoxe\nX3fnZGpClhnMtSszl59JYR3fm2zlAdQ3eGdsIiojf8wjDPA8ytp1CPQx4PVE8bT3\nRynfygaDF7Bs4tMKIFoWId/k8d81TIhC+PUIHVVFFigVoqdkIl+LM+xcbZ7O6d+n\nSwd6tFzU6e9OTZEEJuxt\n=xu0d\n-----END PGP SIGNATURE-----\n",
                    "verified": true,
                    "verified_at": "2024-11-08T22:05:52Z"
                }
            },
            "committer": {
                "avatar_url": "https://avatars.githubusercontent.com/u/19864447?v=4",
                "events_url": "https://api.github.com/users/web-flow/events{/privacy}",
                "followers_url": "https://api.github.com/users/web-flow/followers",
                "following_url": "https://api.github.com/users/web-flow/following{/other_user}",
                "gists_url": "https://api.github.com/users/web-flow/gists{/gist_id}",
                "gravatar_id": "",
                "html_url": "https://github.com/web-flow",
                "id": 19864447,
                "login": "web-flow",
                "node_id": "MDQ6VXNlcjE5ODY0NDQ3",
                "organizations_url": "https://api.github.com/users/web-flow/orgs",
                "received_events_url": "https://api.github.com/users/web-flow/received_events",
                "repos_url": "https://api.github.com/users/web-flow/repos",
                "site_admin": false,
                "starred_url": "https://api.github.com/users/web-flow/starred{/owner}{/repo}",
                "subscriptions_url": "https://api.github.com/users/web-flow/subscriptions",
                "type": "User",
                "url": "https://api.github.com/users/web-flow",
                "user_view_type": "public"
            },
            "html_url": "https://github.com/PrismarineJS/minecraft-data/commit/e36ac25037fd0b8d82ab78fa215c8f43d425d760",
            "node_id": "C_kwDOMnbsQdoAKGUzNmFjMjUwMzdmZDBiOGQ4MmFiNzhmYTIxNWM4ZjQzZDQyNWQ3NjA",
            "parents": [
                {
                    "html_url": "https://github.com/PrismarineJS/minecraft-data/commit/1358f1069d7f3acc3de51f218584de9ddaa8c3fa",
                    "sha": "1358f1069d7f3acc3de51f218584de9ddaa8c3fa",
                    "url": "https://api.github.com/repos/PrismarineJS/minecraft-data/commits/1358f1069d7f3acc3de51f218584de9ddaa8c3fa"
                },
                {
                    "html_url": "https://github.com/PrismarineJS/minecraft-data/commit/8fc7c59c1a27f90a31db748dae2a16c7fb4ecf88",
                    "sha": "8fc7c59c1a27f90a31db748dae2a16c7fb4ecf88",
                    "url": "https://api.github.com/repos/PrismarineJS/minecraft-data/commits/8fc7c59c1a27f90a31db748dae2a16c7fb4ecf88"
                }
            ],
            "sha": "e36ac25037fd0b8d82ab78fa215c8f43d425d760",
            "url": "https://api.github.com/repos/PrismarineJS/minecraft-data/commits/e36ac25037fd0b8d82ab78fa215c8f43d425d760"
        }
    ],
    "commits": 2,
    "commits_url": "https://api.github.com/repos/PrismarineJS/minecraft-data/pulls/906/commits",
    "created_at": "2024-08-23T17:21:07Z",
    "deletions": 50,
    "diff_url": "https://github.com/PrismarineJS/minecraft-data/pull/906.diff",
    "draft": false,
    "head": {
        "label": "admin-else:master",
        "ref": "master",
        "repo": {
            "allow_forking": true,
            "archive_url": "https://api.github.com/repos/admin-else/minecraft-data/{archive_format}{/ref}",
            "archived": false,
            "assignees_url": "https://api.github.com/repos/admin-else/minecraft-data/assignees{/user}",
            "blobs_url": "https://api.github.com/repos/admin-else/minecraft-data/git/blobs{/sha}",
            "branches_url": "https://api.github.com/repos/admin-else/minecraft-data/branches{/branch}",
            "clone_url": "https://github.com/admin-else/minecraft-data.git",
            "collaborators_url": "https://api.github.com/repos/admin-else/minecraft-data/collaborators{/collaborator}",
            "comments_url": "https://api.github.com/repos/admin-else/minecraft-data/comments{/number}",
            "commits_url": "https://api.github.com/repos/admin-else/minecraft-data/commits{/sha}",
            "compare_url": "https://api.github.com/repos/admin-else/minecraft-data/compare/{base}...{head}",
            "contents_url": "https://api.github.com/repos/admin-else/minecraft-data/contents/{+path}",
            "contributors_url": "https://api.github.com/repos/admin-else/minecraft-data/contributors",
            "created_at": "2024-08-23T17:03:35Z",
            "default_branch": "master",
            "deployments_url": "https://api.github.com/repos/admin-else/minecraft-data/deployments",
            "description": "Language independent module providing minecraft data for minecraft clients, servers and libraries.",
            "disabled": false,
            "downloads_url": "https://api.github.com/repos/admin-else/minecraft-data/downloads",
            "events_url": "https://api.github.com/repos/admin-else/minecraft-data/events",
            "fork": true,
            "forks": 0,
            "forks_count": 0,
            "forks_url": "https://api.github.com/repos/admin-else/minecraft-data/forks",
            "full_name": "admin-else/minecraft-data",
            "git_commits_url": "https://api.github.com/repos/admin-else/minecraft-data/git/commits{/sha}",
            "git_refs_url": "https://api.github.com/repos/admin-else/minecraft-data/git/refs{/sha}",
            "git_tags_url": "https://api.github.com/repos/admin-else/minecraft-data/git/tags{/sha}",
            "git_url": "git://github.com/admin-else/minecraft-data.git",
            "has_discussions": false,
            "has_downloads": true,
            "has_issues": false,
            "has_pages": false,
            "has_projects": true,
            "has_wiki": true,
            "homepage": "https://prismarinejs.github.io/minecraft-data",
            "hooks_url": "https://api.github.com/repos/admin-else/minecraft-data/hooks",
            "html_url": "https://github.com/admin-else/minecraft-data",
            "id": 846654529,
            "is_template": false,
            "issue_comment_url": "https://api.github.com/repos/admin-else/minecraft-data/issues/comments{/number}",
            "issue_events_url": "https://api.github.com/repos/admin-else/minecraft-data/issues/events{/number}",
            "issues_url": "https://api.github.com/repos/admin-else/minecraft-data/issues{/number}",
            "keys_url": "https://api.github.com/repos/admin-else/minecraft-data/keys{/key_id}",
            "labels_url": "https://api.github.com/repos/admin-else/minecraft-data/labels{/name}",
            "language": "JavaScript",
            "languages_url": "https://api.github.com/repos/admin-else/minecraft-data/languages",
            "license": null,
            "merges_url": "https://api.github.com/repos/admin-else/minecraft-data/merges",
            "milestones_url": "https://api.github.com/repos/admin-else/minecraft-data/milestones{/number}",
            "mirror_url": null,
            "name": "minecraft-data",
            "node_id": "R_kgDOMnbsQQ",
            "notifications_url": "https://api.github.com/repos/admin-else/minecraft-data/notifications{?since,all,participating}",
            "open_issues": 0,
            "open_issues_count": 0,
            "owner": {
                "avatar_url": "https://avatars.githubusercontent.com/u/74665496?v=4",
                "events_url": "https://api.github.com/users/admin-else/events{/privacy}",
                "followers_url": "https://api.github.com/users/admin-else/followers",
                "following_url": "https://api.github.com/users/admin-else/following{/other_user}",
                "gists_url": "https://api.github.com/users/admin-else/gists{/gist_id}",
                "gravatar_id": "",
                "html_url": "https://github.com/admin-else",
                "id": 74665496,
                "login": "admin-else",
                "node_id": "MDQ6VXNlcjc0NjY1NDk2",
                "organizations_url": "https://api.github.com/users/admin-else/orgs",
                "received_events_url": "https://api.github.com/users/admin-else/received_events",
                "repos_url": "https://api.github.com/users/admin-else/repos",
                "site_admin": false,
                "starred_url": "https://api.github.com/users/admin-else/starred{/owner}{/repo}",
                "subscriptions_url": "https://api.github.com/users/admin-else/subscriptions",
                "type": "User",
                "url": "https://api.github.com/users/admin-else",
                "user_view_type": "public"
            },
            "private": false,
            "pulls_url": "https://api.github.com/repos/admin-else/minecraft-data/pulls{/number}",
            "pushed_at": "2024-09-01T16:14:03Z",
            "releases_url": "https://api.github.com/repos/admin-else/minecraft-data/releases{/id}",
            "size": 9993,
            "ssh_url": "git@github.com:admin-else/minecraft-data.git",
            "stargazers_count": 0,
            "stargazers_url": "https://api.github.com/repos/admin-else/minecraft-data/stargazers",
            "statuses_url": "https://api.github.com/repos/admin-else/minecraft-data/statuses/{sha}",
            "subscribers_url": "https://api.github.com/repos/admin-else/minecraft-data/subscribers",
            "subscription_url": "https://api.github.com/repos/admin-else/minecraft-data/subscription",
            "svn_url": "https://github.com/admin-else/minecraft-data",
            "tags_url": "https://api.github.com/repos/admin-else/minecraft-data/tags",
            "teams_url": "https://api.github.com/repos/admin-else/minecraft-data/teams",
            "topics": [],
            "trees_url": "https://api.github.com/repos/admin-else/minecraft-data/git/trees{/sha}",
            "updated_at": "2024-09-01T16:14:06Z",
            "url": "https://api.github.com/repos/admin-else/minecraft-data",
            "visibility": "public",
            "watchers": 0,
            "watchers_count": 0,
            "web_commit_signoff_required": false
        },
        "sha": "e36ac25037fd0b8d82ab78fa215c8f43d425d760",
        "user": {
            "avatar_url": "https://avatars.githubusercontent.com/u/74665496?v=4",
            "events_url": "https://api.github.com/users/admin-else/events{/privacy}",
            "followers_url": "https://api.github.com/users/admin-else/followers",
            "following_url": "https://api.github.com/users/admin-else/following{/other_user}",
            "gists_url": "https://api.github.com/users/admin-else/gists{/gist_id}",
            "gravatar_id": "",
            "html_url": "https://github.com/admin-else",
            "id": 74665496,
            "login": "admin-else",
            "node_id": "MDQ6VXNlcjc0NjY1NDk2",
            "organizations_url": "https://api.github.com/users/admin-else/orgs",
            "received_events_url": "https://api.github.com/users/admin-else/received_events",
            "repos_url": "https://api.github.com/users/admin-else/repos",
            "site_admin": false,
            "starred_url": "https://api.github.com/users/admin-else/starred{/owner}{/repo}",
            "subscriptions_url": "https://api.github.com/users/admin-else/subscriptions",
            "type": "User",
            "url": "https://api.github.com/users/admin-else",
            "user_view_type": "public"
        }
    },
    "html_url": "https://github.com/PrismarineJS/minecraft-data/pull/906",
    "id": 2034564143,
    "issue_url": "https://api.github.com/repos/PrismarineJS/minecraft-data/issues/906",
    "labels": [],
    "locked": false,
    "maintainer_can_modify": false,
    "merge_commit_sha": null,
    "mergeable": false,
    "mergeable_state": "dirty",
    "merged": false,
    "merged_at": null,
    "merged_by": null,
    "milestone": null,
    "node_id": "PR_kwDOAfOYes55RPwv",
    "number": 906,
    "patch_url": "https://github.com/PrismarineJS/minecraft-data/pull/906.patch",
    "rebaseable": false,
    "requested_reviewers": [],
    "requested_teams": [],
    "review_comment_url": "https://api.github.com/repos/PrismarineJS/minecraft-data/pulls/comments{/number}",
    "review_comments": 0,
    "review_comments_url": "https://api.github.com/repos/PrismarineJS/minecraft-data/pulls/906/comments",
    "state": "closed",
    "statuses_url": "https://api.github.com/repos/PrismarineJS/minecraft-data/statuses/e36ac25037fd0b8d82ab78fa215c8f43d425d760",
    "title": "Define mapper as native",
    "updated_at": "2025-01-24T22:01:23Z",
    "url": "https://api.github.com/repos/PrismarineJS/minecraft-data/pulls/906",
    "user": {
        "avatar_url": "https://avatars.githubusercontent.com/u/74665496?v=4",
        "events_url": "https://api.github.com/users/admin-else/events{/privacy}",
        "followers_url": "https://api.github.com/users/admin-else/followers",
        "following_url": "https://api.github.com/users/admin-else/following{/other_user}",
        "gists_url": "https://api.github.com/users/admin-else/gists{/gist_id}",
        "gravatar_id": "",
        "html_url": "https://github.com/admin-else",
        "id": 74665496,
        "login": "admin-else",
        "node_id": "MDQ6VXNlcjc0NjY1NDk2",
        "organizations_url": "https://api.github.com/users/admin-else/orgs",
        "received_events_url": "https://api.github.com/users/admin-else/received_events",
        "repos_url": "https://api.github.com/users/admin-else/repos",
        "site_admin": false,
        "starred_url": "https://api.github.com/users/admin-else/starred{/owner}{/repo}",
        "subscriptions_url": "https://api.github.com/users/admin-else/subscriptions",
        "type": "User",
        "url": "https://api.github.com/users/admin-else",
        "user_view_type": "public"
    }
}