{
    "_links": {
        "comments": {
            "href": "https://api.github.com/repos/PrismarineJS/minecraft-data/issues/988/comments"
        },
        "commits": {
            "href": "https://api.github.com/repos/PrismarineJS/minecraft-data/pulls/988/commits"
        },
        "html": {
            "href": "https://github.com/PrismarineJS/minecraft-data/pull/988"
        },
        "issue": {
            "href": "https://api.github.com/repos/PrismarineJS/minecraft-data/issues/988"
        },
        "review_comment": {
            "href": "https://api.github.com/repos/PrismarineJS/minecraft-data/pulls/comments{/number}"
        },
        "review_comments": {
            "href": "https://api.github.com/repos/PrismarineJS/minecraft-data/pulls/988/comments"
        },
        "self": {
            "href": "https://api.github.com/repos/PrismarineJS/minecraft-data/pulls/988"
        },
        "statuses": {
            "href": "https://api.github.com/repos/PrismarineJS/minecraft-data/statuses/0b173ba0922957721fc707eb37a3837cfc753211"
        }
    },
    "active_lock_reason": null,
    "additions": 26,
    "assignee": null,
    "assignees": [],
    "author_association": "CONTRIBUTOR",
    "auto_merge": null,
    "base": {
        "label": "PrismarineJS:master",
        "ref": "master",
        "repo": {
            "allow_forking": true,
            "archive_url": "https://api.github.com/repos/PrismarineJS/minecraft-data/{archive_format}{/ref}",
            "archived": false,
            "assignees_url": "https://api.github.com/repos/PrismarineJS/minecraft-data/assignees{/user}",
            "blobs_url": "https://api.github.com/repos/PrismarineJS/minecraft-data/git/blobs{/sha}",
            "branches_url": "https://api.github.com/repos/PrismarineJS/minecraft-data/branches{/branch}",
            "clone_url": "https://github.com/PrismarineJS/minecraft-data.git",
            "collaborators_url": "https://api.github.com/repos/PrismarineJS/minecraft-data/collaborators{/collaborator}",
            "comments_url": "https://api.github.com/repos/PrismarineJS/minecraft-data/comments{/number}",
            "commits_url": "https://api.github.com/repos/PrismarineJS/minecraft-data/commits{/sha}",
            "compare_url": "https://api.github.com/repos/PrismarineJS/minecraft-data/compare/{base}...{head}",
            "contents_url": "https://api.github.com/repos/PrismarineJS/minecraft-data/contents/{+path}",
            "contributors_url": "https://api.github.com/repos/PrismarineJS/minecraft-data/contributors",
            "created_at": "2015-03-23T15:38:19Z",
            "default_branch": "master",
            "deployments_url": "https://api.github.com/repos/PrismarineJS/minecraft-data/deployments",
            "description": "Language independent module providing minecraft data for minecraft clients, servers and libraries.",
            "disabled": false,
            "downloads_url": "https://api.github.com/repos/PrismarineJS/minecraft-data/downloads",
            "events_url": "https://api.github.com/repos/PrismarineJS/minecraft-data/events",
            "fork": false,
            "forks": 224,
            "forks_count": 224,
            "forks_url": "https://api.github.com/repos/PrismarineJS/minecraft-data/forks",
            "full_name": "PrismarineJS/minecraft-data",
            "git_commits_url": "https://api.github.com/repos/PrismarineJS/minecraft-data/git/commits{/sha}",
            "git_refs_url": "https://api.github.com/repos/PrismarineJS/minecraft-data/git/refs{/sha}",
            "git_tags_url": "https://api.github.com/repos/PrismarineJS/minecraft-data/git/tags{/sha}",
            "git_url": "git://github.com/PrismarineJS/minecraft-data.git",
            "has_discussions": false,
            "has_downloads": true,
            "has_issues": true,
            "has_pages": true,
            "has_projects": true,
            "has_wiki": true,
            "homepage": "https://prismarinejs.github.io/minecraft-data",
            "hooks_url": "https://api.github.com/repos/PrismarineJS/minecraft-data/hooks",
            "html_url": "https://github.com/PrismarineJS/minecraft-data",
            "id": 32741498,
            "is_template": false,
            "issue_comment_url": "https://api.github.com/repos/PrismarineJS/minecraft-data/issues/comments{/number}",
            "issue_events_url": "https://api.github.com/repos/PrismarineJS/minecraft-data/issues/events{/number}",
            "issues_url": "https://api.github.com/repos/PrismarineJS/minecraft-data/issues{/number}",
            "keys_url": "https://api.github.com/repos/PrismarineJS/minecraft-data/keys{/key_id}",
            "labels_url": "https://api.github.com/repos/PrismarineJS/minecraft-data/labels{/name}",
            "language": "JavaScript",
            "languages_url": "https://api.github.com/repos/PrismarineJS/minecraft-data/languages",
            "license": null,
            "merges_url": "https://api.github.com/repos/PrismarineJS/minecraft-data/merges",
            "milestones_url": "https://api.github.com/repos/PrismarineJS/minecraft-data/milestones{/number}",
            "mirror_url": null,
            "name": "minecraft-data",
            "node_id": "MDEwOlJlcG9zaXRvcnkzMjc0MTQ5OA==",
            "notifications_url": "https://api.github.com/repos/PrismarineJS/minecraft-data/notifications{?since,all,participating}",
            "open_issues": 148,
            "open_issues_count": 148,
            "owner": {
                "avatar_url": "https://avatars.githubusercontent.com/u/11053411?v=4",
                "events_url": "https://api.github.com/users/PrismarineJS/events{/privacy}",
                "followers_url": "https://api.github.com/users/PrismarineJS/followers",
                "following_url": "https://api.github.com/users/PrismarineJS/following{/other_user}",
                "gists_url": "https://api.github.com/users/PrismarineJS/gists{/gist_id}",
                "gravatar_id": "",
                "html_url": "https://github.com/PrismarineJS",
                "id": 11053411,
                "login": "PrismarineJS",
                "node_id": "MDEyOk9yZ2FuaXphdGlvbjExMDUzNDEx",
                "organizations_url": "https://api.github.com/users/PrismarineJS/orgs",
                "received_events_url": "https://api.github.com/users/PrismarineJS/received_events",
                "repos_url": "https://api.github.com/users/PrismarineJS/repos",
                "site_admin": false,
                "starred_url": "https://api.github.com/users/PrismarineJS/starred{/owner}{/repo}",
                "subscriptions_url": "https://api.github.com/users/PrismarineJS/subscriptions",
                "type": "Organization",
                "url": "https://api.github.com/users/PrismarineJS",
                "user_view_type": "public"
            },
            "private": false,
            "pulls_url": "https://api.github.com/repos/PrismarineJS/minecraft-data/pulls{/number}",
            "pushed_at": "2025-02-26T16:22:48Z",
            "releases_url": "https://api.github.com/repos/PrismarineJS/minecraft-data/releases{/id}",
            "size": 213556,
            "ssh_url": "git@github.com:PrismarineJS/minecraft-data.git",
            "stargazers_count": 708,
            "stargazers_url": "https://api.github.com/repos/PrismarineJS/minecraft-data/stargazers",
            "statuses_url": "https://api.github.com/repos/PrismarineJS/minecraft-data/statuses/{sha}",
            "subscribers_url": "https://api.github.com/repos/PrismarineJS/minecraft-data/subscribers",
            "subscription_url": "https://api.github.com/repos/PrismarineJS/minecraft-data/subscription",
            "svn_url": "https://github.com/PrismarineJS/minecraft-data",
            "tags_url": "https://api.github.com/repos/PrismarineJS/minecraft-data/tags",
            "teams_url": "https://api.github.com/repos/PrismarineJS/minecraft-data/teams",
            "topics": [
                "data",
                "minecraft"
            ],
            "trees_url": "https://api.github.com/repos/PrismarineJS/minecraft-data/git/trees{/sha}",
            "updated_at": "2025-02-26T16:22:52Z",
            "url": "https://api.github.com/repos/PrismarineJS/minecraft-data",
            "visibility": "public",
            "watchers": 708,
            "watchers_count": 708,
            "web_commit_signoff_required": false
        },
        "sha": "fe984d9f4430aba240d727ea9e8cacef6ffa2e56",
        "user": {
            "avatar_url": "https://avatars.githubusercontent.com/u/11053411?v=4",
            "events_url": "https://api.github.com/users/PrismarineJS/events{/privacy}",
            "followers_url": "https://api.github.com/users/PrismarineJS/followers",
            "following_url": "https://api.github.com/users/PrismarineJS/following{/other_user}",
            "gists_url": "https://api.github.com/users/PrismarineJS/gists{/gist_id}",
            "gravatar_id": "",
            "html_url": "https://github.com/PrismarineJS",
            "id": 11053411,
            "login": "PrismarineJS",
            "node_id": "MDEyOk9yZ2FuaXphdGlvbjExMDUzNDEx",
            "organizations_url": "https://api.github.com/users/PrismarineJS/orgs",
            "received_events_url": "https://api.github.com/users/PrismarineJS/received_events",
            "repos_url": "https://api.github.com/users/PrismarineJS/repos",
            "site_admin": false,
            "starred_url": "https://api.github.com/users/PrismarineJS/starred{/owner}{/repo}",
            "subscriptions_url": "https://api.github.com/users/PrismarineJS/subscriptions",
            "type": "Organization",
            "url": "https://api.github.com/users/PrismarineJS",
            "user_view_type": "public"
        }
    },
    "body": "In the Bedrock protocol the ItemStackRequest type is missing two `times_crafted` fields in `craft_grindstone_request` and `craft_loom_request` ([Reference](https://github.com/Sandertv/gophertunnel/blob/bfe0892926356f3aeb922df94a2e909804ea007e/minecraft/protocol/item_stack.go))\r\n\r\nUnrelated question, is there any way to change all effected versions any other way rather than changing each file one by one? Apologies if I'm asking a silly question, I am not too familiar with github features.",
    "changed_files": 4,
    "closed_at": null,
    "comment_data": [],
    "comment_regular_data": [],
    "comments": 0,
    "comments_url": "https://api.github.com/repos/PrismarineJS/minecraft-data/issues/988/comments",
    "commit_data": [
        {
            "author": {
                "avatar_url": "https://avatars.githubusercontent.com/u/137791538?v=4",
                "events_url": "https://api.github.com/users/JSbETms/events{/privacy}",
                "followers_url": "https://api.github.com/users/JSbETms/followers",
                "following_url": "https://api.github.com/users/JSbETms/following{/other_user}",
                "gists_url": "https://api.github.com/users/JSbETms/gists{/gist_id}",
                "gravatar_id": "",
                "html_url": "https://github.com/JSbETms",
                "id": 137791538,
                "login": "JSbETms",
                "node_id": "U_kgDOCDaIMg",
                "organizations_url": "https://api.github.com/users/JSbETms/orgs",
                "received_events_url": "https://api.github.com/users/JSbETms/received_events",
                "repos_url": "https://api.github.com/users/JSbETms/repos",
                "site_admin": false,
                "starred_url": "https://api.github.com/users/JSbETms/starred{/owner}{/repo}",
                "subscriptions_url": "https://api.github.com/users/JSbETms/subscriptions",
                "type": "User",
                "url": "https://api.github.com/users/JSbETms",
                "user_view_type": "public"
            },
            "comments_url": "https://api.github.com/repos/PrismarineJS/minecraft-data/commits/cd2cd6dc35f9974c82de721bbb1bb35ca01ab9c8/comments",
            "commit": {
                "author": {
                    "date": "2025-02-26T15:38:02Z",
                    "email": "137791538+JSbETms@users.noreply.github.com",
                    "name": "JSbETms"
                },
                "comment_count": 0,
                "committer": {
                    "date": "2025-02-26T15:38:02Z",
                    "email": "noreply@github.com",
                    "name": "GitHub"
                },
                "message": "Update protocol.json 1.21.60",
                "tree": {
                    "sha": "7448acb08e8efb7c0844ec8d2afe5ccfc39cc87c",
                    "url": "https://api.github.com/repos/PrismarineJS/minecraft-data/git/trees/7448acb08e8efb7c0844ec8d2afe5ccfc39cc87c"
                },
                "url": "https://api.github.com/repos/PrismarineJS/minecraft-data/git/commits/cd2cd6dc35f9974c82de721bbb1bb35ca01ab9c8",
                "verification": {
                    "payload": "tree 7448acb08e8efb7c0844ec8d2afe5ccfc39cc87c\nparent fe984d9f4430aba240d727ea9e8cacef6ffa2e56\nauthor JSbETms <137791538+JSbETms@users.noreply.github.com> 1740584282 +0000\ncommitter GitHub <noreply@github.com> 1740584282 +0000\n\nUpdate protocol.json 1.21.60",
                    "reason": "valid",
                    "signature": "-----BEGIN PGP SIGNATURE-----\n\nwsFcBAABCAAQBQJnvzVaCRC1aQ7uu5UhlAAAS18QALGtYD/TAb3CgtulX9v6MPti\nPxidAtZTRkRYwIanD4efAjOARGJ66K8KpydgYZrsaQkZlUXnGkK7RGCCarwwYMt1\nAZyscxB4rVXoDG423vPnbDAE3n8sP31UPHP0OhALS8+y3yU/XdhT21m1pn2qEdaj\nbLTIxrRoiIvblLVbZZu9pkx4ovPRc19SspS/BJRQYDTk/iMtZMC4gorKTHYVqal/\nbUGd3r+vOiTHeKODcmDeSaHyIXdjUTewplRDkk2H3LItjZ482lWboLc/XNHwKxuL\n0Y63DHT3s8s672S2VhDx/86lWZEy1Iuu0TWKnD177s8YlFi1pRL1uSjE1rdq9kqE\n3W2QKf7wuMBsyBFZBE+8isRsiRbjcktlI3x8EK//WnNufY6qdG4jvyJVwb06D1Sr\nnX1ads/03Gs05cYpbGJiJKO4b0O5FcxJNvoHGg7Ucn5FGOvCMHgS3cfs2ZNNCl3g\nX44QxQfnJj/4JU3rDp0d5kKwqRMK9SpyNz0q0VNrEdfgWJYIU/jpzmhuoisK9/tN\nr3jltyFQYn5YtCIzmptTOr40nFbxfdunKaf0K3p+S28KuJBtO2j0ciPrP+ozsLGK\n9jpWaND9uarqxobLk+HkTcX7IWR0ulYQH3lxHmY398CQ8nV3pQkVmrgp120/Q+81\n9YUIWNyHM6A2vpXAG+d0\n=nlFw\n-----END PGP SIGNATURE-----\n",
                    "verified": true,
                    "verified_at": "2025-02-26T15:43:03Z"
                }
            },
            "committer": {
                "avatar_url": "https://avatars.githubusercontent.com/u/19864447?v=4",
                "events_url": "https://api.github.com/users/web-flow/events{/privacy}",
                "followers_url": "https://api.github.com/users/web-flow/followers",
                "following_url": "https://api.github.com/users/web-flow/following{/other_user}",
                "gists_url": "https://api.github.com/users/web-flow/gists{/gist_id}",
                "gravatar_id": "",
                "html_url": "https://github.com/web-flow",
                "id": 19864447,
                "login": "web-flow",
                "node_id": "MDQ6VXNlcjE5ODY0NDQ3",
                "organizations_url": "https://api.github.com/users/web-flow/orgs",
                "received_events_url": "https://api.github.com/users/web-flow/received_events",
                "repos_url": "https://api.github.com/users/web-flow/repos",
                "site_admin": false,
                "starred_url": "https://api.github.com/users/web-flow/starred{/owner}{/repo}",
                "subscriptions_url": "https://api.github.com/users/web-flow/subscriptions",
                "type": "User",
                "url": "https://api.github.com/users/web-flow",
                "user_view_type": "public"
            },
            "html_url": "https://github.com/PrismarineJS/minecraft-data/commit/cd2cd6dc35f9974c82de721bbb1bb35ca01ab9c8",
            "node_id": "C_kwDON_8RhNoAKGNkMmNkNmRjMzVmOTk3NGM4MmRlNzIxYmJiMWJiMzVjYTAxYWI5Yzg",
            "parents": [
                {
                    "html_url": "https://github.com/PrismarineJS/minecraft-data/commit/fe984d9f4430aba240d727ea9e8cacef6ffa2e56",
                    "sha": "fe984d9f4430aba240d727ea9e8cacef6ffa2e56",
                    "url": "https://api.github.com/repos/PrismarineJS/minecraft-data/commits/fe984d9f4430aba240d727ea9e8cacef6ffa2e56"
                }
            ],
            "sha": "cd2cd6dc35f9974c82de721bbb1bb35ca01ab9c8",
            "url": "https://api.github.com/repos/PrismarineJS/minecraft-data/commits/cd2cd6dc35f9974c82de721bbb1bb35ca01ab9c8"
        },
        {
            "author": {
                "avatar_url": "https://avatars.githubusercontent.com/u/137791538?v=4",
                "events_url": "https://api.github.com/users/JSbETms/events{/privacy}",
                "followers_url": "https://api.github.com/users/JSbETms/followers",
                "following_url": "https://api.github.com/users/JSbETms/following{/other_user}",
                "gists_url": "https://api.github.com/users/JSbETms/gists{/gist_id}",
                "gravatar_id": "",
                "html_url": "https://github.com/JSbETms",
                "id": 137791538,
                "login": "JSbETms",
                "node_id": "U_kgDOCDaIMg",
                "organizations_url": "https://api.github.com/users/JSbETms/orgs",
                "received_events_url": "https://api.github.com/users/JSbETms/received_events",
                "repos_url": "https://api.github.com/users/JSbETms/repos",
                "site_admin": false,
                "starred_url": "https://api.github.com/users/JSbETms/starred{/owner}{/repo}",
                "subscriptions_url": "https://api.github.com/users/JSbETms/subscriptions",
                "type": "User",
                "url": "https://api.github.com/users/JSbETms",
                "user_view_type": "public"
            },
            "comments_url": "https://api.github.com/repos/PrismarineJS/minecraft-data/commits/2b24633750cf9887f95f405a17bc1125085c3cf7/comments",
            "commit": {
                "author": {
                    "date": "2025-02-26T15:44:24Z",
                    "email": "137791538+JSbETms@users.noreply.github.com",
                    "name": "JSbETms"
                },
                "comment_count": 0,
                "committer": {
                    "date": "2025-02-26T15:44:24Z",
                    "email": "noreply@github.com",
                    "name": "GitHub"
                },
                "message": "Update types.yml Latest",
                "tree": {
                    "sha": "4b09cbb61fcca5d3474284faf1dcc6f895af9eec",
                    "url": "https://api.github.com/repos/PrismarineJS/minecraft-data/git/trees/4b09cbb61fcca5d3474284faf1dcc6f895af9eec"
                },
                "url": "https://api.github.com/repos/PrismarineJS/minecraft-data/git/commits/2b24633750cf9887f95f405a17bc1125085c3cf7",
                "verification": {
                    "payload": "tree 4b09cbb61fcca5d3474284faf1dcc6f895af9eec\nparent cd2cd6dc35f9974c82de721bbb1bb35ca01ab9c8\nauthor JSbETms <137791538+JSbETms@users.noreply.github.com> 1740584664 +0000\ncommitter GitHub <noreply@github.com> 1740584664 +0000\n\nUpdate types.yml Latest",
                    "reason": "valid",
                    "signature": "-----BEGIN PGP SIGNATURE-----\n\nwsFcBAABCAAQBQJnvzbYCRC1aQ7uu5UhlAAAHeEQAI2hoDtJihx9t3mkNbJzBE3T\nKWsRhfsWbXbn0btpViHkCeRs0Jo7Kz+JVMStZc8ak1wbitWf755KnWmUy85Ufawq\nvE6AE5EzfX94jwoq27uV6xK5BqRUg0hLnY/h2+hGmxsRopYLFlc66/oLZqx6HyqZ\n5nzxK8QqV3P7PurvhIyLWRFrg6UeHn1KPo1XIZRQO5UKwO9hcPp+IvDW6nktaHmf\nVg2Ll/+BA1gOB6TM2g3vNslBNpXwLBs9X+AtQfIL6Tu8ndimtAtJBM0dY5a5BAqv\no5MVsGeyJlO/5Pe/lJSPq9C+KQ/zlN1yaxbMRY/sfIgXYGqhutOrIt9ysgI56jvo\nIXqEljY9ebBlUJH/ybru2NBOZlXn17dXtE6pcTAwmEcqpKOo/k4Fxkj+b854BQ5C\nhCSCvuKS2jyLvxRQ/C/1PtaJzbXLImmWNByj5/FrLiLsAQPbE1j/nhb1rsuRyIcp\ng5n177Pyq/fPwW2c3M/+AYTkKsPmaK7pS68DpyiDEjsUcbwGmadkbhTAYiZuVKgT\ndtrL8i8ezws7FJ0ruVkX/33s0he1MQr9x5RuoDjkGd+wgh4gey2ExkycZcEMr2ez\nww6yHdUaqYu0NumxuJOHa1m69V0uIAUP9owptka7oJeqlbLr+eHbiIx9T7xmEtk/\nwbfCkdD6RfAHLJRe0aQk\n=EQRg\n-----END PGP SIGNATURE-----\n",
                    "verified": true,
                    "verified_at": "2025-02-26T15:49:26Z"
                }
            },
            "committer": {
                "avatar_url": "https://avatars.githubusercontent.com/u/19864447?v=4",
                "events_url": "https://api.github.com/users/web-flow/events{/privacy}",
                "followers_url": "https://api.github.com/users/web-flow/followers",
                "following_url": "https://api.github.com/users/web-flow/following{/other_user}",
                "gists_url": "https://api.github.com/users/web-flow/gists{/gist_id}",
                "gravatar_id": "",
                "html_url": "https://github.com/web-flow",
                "id": 19864447,
                "login": "web-flow",
                "node_id": "MDQ6VXNlcjE5ODY0NDQ3",
                "organizations_url": "https://api.github.com/users/web-flow/orgs",
                "received_events_url": "https://api.github.com/users/web-flow/received_events",
                "repos_url": "https://api.github.com/users/web-flow/repos",
                "site_admin": false,
                "starred_url": "https://api.github.com/users/web-flow/starred{/owner}{/repo}",
                "subscriptions_url": "https://api.github.com/users/web-flow/subscriptions",
                "type": "User",
                "url": "https://api.github.com/users/web-flow",
                "user_view_type": "public"
            },
            "html_url": "https://github.com/PrismarineJS/minecraft-data/commit/2b24633750cf9887f95f405a17bc1125085c3cf7",
            "node_id": "C_kwDON_8RhNoAKDJiMjQ2MzM3NTBjZjk4ODdmOTVmNDA1YTE3YmMxMTI1MDg1YzNjZjc",
            "parents": [
                {
                    "html_url": "https://github.com/PrismarineJS/minecraft-data/commit/cd2cd6dc35f9974c82de721bbb1bb35ca01ab9c8",
                    "sha": "cd2cd6dc35f9974c82de721bbb1bb35ca01ab9c8",
                    "url": "https://api.github.com/repos/PrismarineJS/minecraft-data/commits/cd2cd6dc35f9974c82de721bbb1bb35ca01ab9c8"
                }
            ],
            "sha": "2b24633750cf9887f95f405a17bc1125085c3cf7",
            "url": "https://api.github.com/repos/PrismarineJS/minecraft-data/commits/2b24633750cf9887f95f405a17bc1125085c3cf7"
        },
        {
            "author": {
                "avatar_url": "https://avatars.githubusercontent.com/u/137791538?v=4",
                "events_url": "https://api.github.com/users/JSbETms/events{/privacy}",
                "followers_url": "https://api.github.com/users/JSbETms/followers",
                "following_url": "https://api.github.com/users/JSbETms/following{/other_user}",
                "gists_url": "https://api.github.com/users/JSbETms/gists{/gist_id}",
                "gravatar_id": "",
                "html_url": "https://github.com/JSbETms",
                "id": 137791538,
                "login": "JSbETms",
                "node_id": "U_kgDOCDaIMg",
                "organizations_url": "https://api.github.com/users/JSbETms/orgs",
                "received_events_url": "https://api.github.com/users/JSbETms/received_events",
                "repos_url": "https://api.github.com/users/JSbETms/repos",
                "site_admin": false,
                "starred_url": "https://api.github.com/users/JSbETms/starred{/owner}{/repo}",
                "subscriptions_url": "https://api.github.com/users/JSbETms/subscriptions",
                "type": "User",
                "url": "https://api.github.com/users/JSbETms",
                "user_view_type": "public"
            },
            "comments_url": "https://api.github.com/repos/PrismarineJS/minecraft-data/commits/4d9c1ac21c4575f7169918a2b847d324f5735868/comments",
            "commit": {
                "author": {
                    "date": "2025-02-26T15:49:14Z",
                    "email": "137791538+JSbETms@users.noreply.github.com",
                    "name": "JSbETms"
                },
                "comment_count": 0,
                "committer": {
                    "date": "2025-02-26T15:49:14Z",
                    "email": "noreply@github.com",
                    "name": "GitHub"
                },
                "message": "Update protocol.json 1.21.50",
                "tree": {
                    "sha": "0797384bf44fc88fa241c9b23cb2a745457feae7",
                    "url": "https://api.github.com/repos/PrismarineJS/minecraft-data/git/trees/0797384bf44fc88fa241c9b23cb2a745457feae7"
                },
                "url": "https://api.github.com/repos/PrismarineJS/minecraft-data/git/commits/4d9c1ac21c4575f7169918a2b847d324f5735868",
                "verification": {
                    "payload": "tree 0797384bf44fc88fa241c9b23cb2a745457feae7\nparent 2b24633750cf9887f95f405a17bc1125085c3cf7\nauthor JSbETms <137791538+JSbETms@users.noreply.github.com> 1740584954 +0000\ncommitter GitHub <noreply@github.com> 1740584954 +0000\n\nUpdate protocol.json 1.21.50",
                    "reason": "valid",
                    "signature": "-----BEGIN PGP SIGNATURE-----\n\nwsFcBAABCAAQBQJnvzf6CRC1aQ7uu5UhlAAAddIQAGkTMRf0Mxwnm3psBg8/gSSX\nMq4Cy2a1q2EigYN+P9LCd0McAh5MUjz1U0A+qqi7tE30oJEKfEW3dtxQSfiJv6qg\nfshvDEym1xOTYDOiiqeZzyKkWJT2A5bM6928XmlsdPZRjdML6jeyW3frWjqkoL9j\nWID2/8GYBLWtJqT3wJdsWdsOvzMidFWfYhCFjZBIuuNc47UXLFcj4+CGzWYmWADt\nb00Rt4m3oa6c0wVWF6OVFRUEuYZDn8WAD2W+tgCbWzfd3DTO4l0gYjx0QzYbC8Gf\nzHwEevCh7COh8GKeiNdrYZf2YrhkiznLLfw83ECohw4PuFGfYT96ySMuoKj24iFV\nNtqcM1L6sUKIbaN+n+pEepXJwCikFL2aD0tWNNwXd1J9+uMGj6+b07gECGq0Wn4J\n+pR5o3KNeKLVPzLcD504RoD/c/7M7Gfc1n6TQgEa/Rvdbez6S9OudlnSa1QWNwgu\nNNn0w5ICLnErpc/aJ2bHK9krFEYg5MLdevOfCcDijfjykbsiIuwFh7+3h0Db+Wb1\nIq8lTVISaIbEIf74oWDb0Dzii+tkJBbE8ha1ICsfeR3T+EbXPhRYHdbVKmgmYjQd\nuseGFPDKT+3Ab35gdpwbWDlWA71qFbmPjE9or9jD35DB3pFRlVvT9q/BQmdaqmyN\nhQM4guHJqiU3DUMTZhby\n=gb0B\n-----END PGP SIGNATURE-----\n",
                    "verified": true,
                    "verified_at": "2025-02-26T15:54:16Z"
                }
            },
            "committer": {
                "avatar_url": "https://avatars.githubusercontent.com/u/19864447?v=4",
                "events_url": "https://api.github.com/users/web-flow/events{/privacy}",
                "followers_url": "https://api.github.com/users/web-flow/followers",
                "following_url": "https://api.github.com/users/web-flow/following{/other_user}",
                "gists_url": "https://api.github.com/users/web-flow/gists{/gist_id}",
                "gravatar_id": "",
                "html_url": "https://github.com/web-flow",
                "id": 19864447,
                "login": "web-flow",
                "node_id": "MDQ6VXNlcjE5ODY0NDQ3",
                "organizations_url": "https://api.github.com/users/web-flow/orgs",
                "received_events_url": "https://api.github.com/users/web-flow/received_events",
                "repos_url": "https://api.github.com/users/web-flow/repos",
                "site_admin": false,
                "starred_url": "https://api.github.com/users/web-flow/starred{/owner}{/repo}",
                "subscriptions_url": "https://api.github.com/users/web-flow/subscriptions",
                "type": "User",
                "url": "https://api.github.com/users/web-flow",
                "user_view_type": "public"
            },
            "html_url": "https://github.com/PrismarineJS/minecraft-data/commit/4d9c1ac21c4575f7169918a2b847d324f5735868",
            "node_id": "C_kwDON_8RhNoAKDRkOWMxYWMyMWM0NTc1ZjcxNjk5MThhMmI4NDdkMzI0ZjU3MzU4Njg",
            "parents": [
                {
                    "html_url": "https://github.com/PrismarineJS/minecraft-data/commit/2b24633750cf9887f95f405a17bc1125085c3cf7",
                    "sha": "2b24633750cf9887f95f405a17bc1125085c3cf7",
                    "url": "https://api.github.com/repos/PrismarineJS/minecraft-data/commits/2b24633750cf9887f95f405a17bc1125085c3cf7"
                }
            ],
            "sha": "4d9c1ac21c4575f7169918a2b847d324f5735868",
            "url": "https://api.github.com/repos/PrismarineJS/minecraft-data/commits/4d9c1ac21c4575f7169918a2b847d324f5735868"
        },
        {
            "author": {
                "avatar_url": "https://avatars.githubusercontent.com/u/137791538?v=4",
                "events_url": "https://api.github.com/users/JSbETms/events{/privacy}",
                "followers_url": "https://api.github.com/users/JSbETms/followers",
                "following_url": "https://api.github.com/users/JSbETms/following{/other_user}",
                "gists_url": "https://api.github.com/users/JSbETms/gists{/gist_id}",
                "gravatar_id": "",
                "html_url": "https://github.com/JSbETms",
                "id": 137791538,
                "login": "JSbETms",
                "node_id": "U_kgDOCDaIMg",
                "organizations_url": "https://api.github.com/users/JSbETms/orgs",
                "received_events_url": "https://api.github.com/users/JSbETms/received_events",
                "repos_url": "https://api.github.com/users/JSbETms/repos",
                "site_admin": false,
                "starred_url": "https://api.github.com/users/JSbETms/starred{/owner}{/repo}",
                "subscriptions_url": "https://api.github.com/users/JSbETms/subscriptions",
                "type": "User",
                "url": "https://api.github.com/users/JSbETms",
                "user_view_type": "public"
            },
            "comments_url": "https://api.github.com/repos/PrismarineJS/minecraft-data/commits/0b1ac7f206ec280fdb4df2f2c85846cd9e9fb03b/comments",
            "commit": {
                "author": {
                    "date": "2025-02-26T15:50:28Z",
                    "email": "137791538+JSbETms@users.noreply.github.com",
                    "name": "JSbETms"
                },
                "comment_count": 0,
                "committer": {
                    "date": "2025-02-26T15:50:28Z",
                    "email": "noreply@github.com",
                    "name": "GitHub"
                },
                "message": "Update types.yml 1.21.50",
                "tree": {
                    "sha": "e647c9ae51193d92c4ca5889a8e57d7f3860b580",
                    "url": "https://api.github.com/repos/PrismarineJS/minecraft-data/git/trees/e647c9ae51193d92c4ca5889a8e57d7f3860b580"
                },
                "url": "https://api.github.com/repos/PrismarineJS/minecraft-data/git/commits/0b1ac7f206ec280fdb4df2f2c85846cd9e9fb03b",
                "verification": {
                    "payload": "tree e647c9ae51193d92c4ca5889a8e57d7f3860b580\nparent 4d9c1ac21c4575f7169918a2b847d324f5735868\nauthor JSbETms <137791538+JSbETms@users.noreply.github.com> 1740585028 +0000\ncommitter GitHub <noreply@github.com> 1740585028 +0000\n\nUpdate types.yml 1.21.50",
                    "reason": "valid",
                    "signature": "-----BEGIN PGP SIGNATURE-----\n\nwsFcBAABCAAQBQJnvzhFCRC1aQ7uu5UhlAAAYDwQAA44SaW8Bu9pQPcNSVYeLobc\nYbZ5UZwfzOO/YV8BuZtEl9UV9fYstjMVrZG2nbRXl4uvGTK42CbE+J8TuCIpbJq4\nLplsGgMZl5tWrc7GoedrSUEDbIwRyLXFDWtlyzgwrWVKaxgM05Z5d/WQwFT+Q0tq\nK5TwWNOw4Uf9WZlUa7Hbwh4OzD7otikhVVuqw0Bh9NLyaegxK092U29GKYNYec1Q\nDILWgBZmFQQOJFIvjl4tdHcAofvQNm9sXH+8qWfaup+zQPeVJtnXW7VtoL1d1Nen\ndP1y70r3x+OVO4HfQtuWZwh9XcPU4ZYroDcfp2naPwfnWEJWQD9v9ou8TAp1gP7A\np1aSZJZrQSJL6ie42KoWvveT7ugXtH4IJXVu7K4myPpGI8MIFHkRi1hKCR4ZNpGh\nDPUpYncyeCkGgRjCDYXtLmuUBx1n9ShhrgJGgIPlRFcAp9jSI+nC9vC85CAooQzc\ng5OSQcckbOWHTan0e75WnuGycdGkfsOLSpulQmAFFF4FRKLlg13YUSg/XS5mwmJE\nVWK1ND0jFK65SUGsLfxIrL6JWczFwDE90ptw76/b4JVSboWzYNfNSNX2WzJjqtyF\ntOrf3ASwp4HaHeqirAMqw2A9eRQfAa59Yh+hY16+Lb4mOTdfxmKlsiFwSukAN3iV\nv8vTM1hHjV+y+8uJ0SQS\n=4iSQ\n-----END PGP SIGNATURE-----\n",
                    "verified": true,
                    "verified_at": "2025-02-26T15:55:32Z"
                }
            },
            "committer": {
                "avatar_url": "https://avatars.githubusercontent.com/u/19864447?v=4",
                "events_url": "https://api.github.com/users/web-flow/events{/privacy}",
                "followers_url": "https://api.github.com/users/web-flow/followers",
                "following_url": "https://api.github.com/users/web-flow/following{/other_user}",
                "gists_url": "https://api.github.com/users/web-flow/gists{/gist_id}",
                "gravatar_id": "",
                "html_url": "https://github.com/web-flow",
                "id": 19864447,
                "login": "web-flow",
                "node_id": "MDQ6VXNlcjE5ODY0NDQ3",
                "organizations_url": "https://api.github.com/users/web-flow/orgs",
                "received_events_url": "https://api.github.com/users/web-flow/received_events",
                "repos_url": "https://api.github.com/users/web-flow/repos",
                "site_admin": false,
                "starred_url": "https://api.github.com/users/web-flow/starred{/owner}{/repo}",
                "subscriptions_url": "https://api.github.com/users/web-flow/subscriptions",
                "type": "User",
                "url": "https://api.github.com/users/web-flow",
                "user_view_type": "public"
            },
            "html_url": "https://github.com/PrismarineJS/minecraft-data/commit/0b1ac7f206ec280fdb4df2f2c85846cd9e9fb03b",
            "node_id": "C_kwDON_8RhNoAKDBiMWFjN2YyMDZlYzI4MGZkYjRkZjJmMmM4NTg0NmNkOWU5ZmIwM2I",
            "parents": [
                {
                    "html_url": "https://github.com/PrismarineJS/minecraft-data/commit/4d9c1ac21c4575f7169918a2b847d324f5735868",
                    "sha": "4d9c1ac21c4575f7169918a2b847d324f5735868",
                    "url": "https://api.github.com/repos/PrismarineJS/minecraft-data/commits/4d9c1ac21c4575f7169918a2b847d324f5735868"
                }
            ],
            "sha": "0b1ac7f206ec280fdb4df2f2c85846cd9e9fb03b",
            "url": "https://api.github.com/repos/PrismarineJS/minecraft-data/commits/0b1ac7f206ec280fdb4df2f2c85846cd9e9fb03b"
        },
        {
            "author": {
                "avatar_url": "https://avatars.githubusercontent.com/u/137791538?v=4",
                "events_url": "https://api.github.com/users/JSbETms/events{/privacy}",
                "followers_url": "https://api.github.com/users/JSbETms/followers",
                "following_url": "https://api.github.com/users/JSbETms/following{/other_user}",
                "gists_url": "https://api.github.com/users/JSbETms/gists{/gist_id}",
                "gravatar_id": "",
                "html_url": "https://github.com/JSbETms",
                "id": 137791538,
                "login": "JSbETms",
                "node_id": "U_kgDOCDaIMg",
                "organizations_url": "https://api.github.com/users/JSbETms/orgs",
                "received_events_url": "https://api.github.com/users/JSbETms/received_events",
                "repos_url": "https://api.github.com/users/JSbETms/repos",
                "site_admin": false,
                "starred_url": "https://api.github.com/users/JSbETms/starred{/owner}{/repo}",
                "subscriptions_url": "https://api.github.com/users/JSbETms/subscriptions",
                "type": "User",
                "url": "https://api.github.com/users/JSbETms",
                "user_view_type": "public"
            },
            "comments_url": "https://api.github.com/repos/PrismarineJS/minecraft-data/commits/d4c99e1fbf33e72e5acf750f2e13c2520be1f469/comments",
            "commit": {
                "author": {
                    "date": "2025-02-26T15:52:25Z",
                    "email": "137791538+JSbETms@users.noreply.github.com",
                    "name": "JSbETms"
                },
                "comment_count": 0,
                "committer": {
                    "date": "2025-02-26T15:52:25Z",
                    "email": "noreply@github.com",
                    "name": "GitHub"
                },
                "message": "Update types.yml 1.21.50",
                "tree": {
                    "sha": "261f5ba680c963a4038c0c9af64e8502b7a9baa0",
                    "url": "https://api.github.com/repos/PrismarineJS/minecraft-data/git/trees/261f5ba680c963a4038c0c9af64e8502b7a9baa0"
                },
                "url": "https://api.github.com/repos/PrismarineJS/minecraft-data/git/commits/d4c99e1fbf33e72e5acf750f2e13c2520be1f469",
                "verification": {
                    "payload": "tree 261f5ba680c963a4038c0c9af64e8502b7a9baa0\nparent 0b1ac7f206ec280fdb4df2f2c85846cd9e9fb03b\nauthor JSbETms <137791538+JSbETms@users.noreply.github.com> 1740585145 +0000\ncommitter GitHub <noreply@github.com> 1740585145 +0000\n\nUpdate types.yml 1.21.50",
                    "reason": "valid",
                    "signature": "-----BEGIN PGP SIGNATURE-----\n\nwsFcBAABCAAQBQJnvzi5CRC1aQ7uu5UhlAAArMIQAKuxjTXIeuwhs4KOjZVpAhNd\nUz2v2B2WdxsIrrlu/uFUNah+aFXbfNXEgL3xC+uQTP2Uu55z+RO7xyz7j6k4uVWM\naoqKzq8oGYxYeSBcdgiQSeW8AUVRIkb7vbYKPc+HB0pf8ZVxi11htNT8Oi6J0ezK\nJQGGQfvNEofRWu6gbVTwQHjJoknH67P2l98U5XgK0Cv/2lpBAyjUAaL1uARPwl01\nyR9gocWGZAoFZF5gO+Dg6RnF0b+bt6ct2JiAR7AQreo1LUo2o2eyMq4E4j/Slx+w\n6gfvL1GtQG0BiZRI3ONv7NnE86ZngTY0/diMZBe1EL5s6wMHOq+0swDjab3NtlaF\nA0SYuQXGdRxlZpyh2/OTriOP5e7rjP1pUfEBKQ5/xSltMtZ8+dA9X8Eqnf64FylN\nRFeMhUzmf6lWlcYFy5TUBcFF9sJ77c5dgX0ff2Jwiq+oyUF7XrCfqYrQnKEGaC46\nLB2u/392nc6G5ZmgCzvjLz/mHVgLfrTWfUY5JmaiAjSAHPIl8u9//0bfLaOFXncp\nfoRmfBEtN/glJy7cDWI/vXMwBGrGtAjs6AdI7hkoj3xYmlBqOmfO2qbeNBnTUrjn\n8JFAVA7lVvU0WBYOZQS6IrArJYX+MAf2ZyCIKgPG0iwBW7BQUJpJxDRLOHNoTWQp\nnLujs+3Mh4ab5rSfJTU2\n=mbxd\n-----END PGP SIGNATURE-----\n",
                    "verified": true,
                    "verified_at": "2025-02-26T15:57:27Z"
                }
            },
            "committer": {
                "avatar_url": "https://avatars.githubusercontent.com/u/19864447?v=4",
                "events_url": "https://api.github.com/users/web-flow/events{/privacy}",
                "followers_url": "https://api.github.com/users/web-flow/followers",
                "following_url": "https://api.github.com/users/web-flow/following{/other_user}",
                "gists_url": "https://api.github.com/users/web-flow/gists{/gist_id}",
                "gravatar_id": "",
                "html_url": "https://github.com/web-flow",
                "id": 19864447,
                "login": "web-flow",
                "node_id": "MDQ6VXNlcjE5ODY0NDQ3",
                "organizations_url": "https://api.github.com/users/web-flow/orgs",
                "received_events_url": "https://api.github.com/users/web-flow/received_events",
                "repos_url": "https://api.github.com/users/web-flow/repos",
                "site_admin": false,
                "starred_url": "https://api.github.com/users/web-flow/starred{/owner}{/repo}",
                "subscriptions_url": "https://api.github.com/users/web-flow/subscriptions",
                "type": "User",
                "url": "https://api.github.com/users/web-flow",
                "user_view_type": "public"
            },
            "html_url": "https://github.com/PrismarineJS/minecraft-data/commit/d4c99e1fbf33e72e5acf750f2e13c2520be1f469",
            "node_id": "C_kwDON_8RhNoAKGQ0Yzk5ZTFmYmYzM2U3MmU1YWNmNzUwZjJlMTNjMjUyMGJlMWY0Njk",
            "parents": [
                {
                    "html_url": "https://github.com/PrismarineJS/minecraft-data/commit/0b1ac7f206ec280fdb4df2f2c85846cd9e9fb03b",
                    "sha": "0b1ac7f206ec280fdb4df2f2c85846cd9e9fb03b",
                    "url": "https://api.github.com/repos/PrismarineJS/minecraft-data/commits/0b1ac7f206ec280fdb4df2f2c85846cd9e9fb03b"
                }
            ],
            "sha": "d4c99e1fbf33e72e5acf750f2e13c2520be1f469",
            "url": "https://api.github.com/repos/PrismarineJS/minecraft-data/commits/d4c99e1fbf33e72e5acf750f2e13c2520be1f469"
        },
        {
            "author": {
                "avatar_url": "https://avatars.githubusercontent.com/u/137791538?v=4",
                "events_url": "https://api.github.com/users/JSbETms/events{/privacy}",
                "followers_url": "https://api.github.com/users/JSbETms/followers",
                "following_url": "https://api.github.com/users/JSbETms/following{/other_user}",
                "gists_url": "https://api.github.com/users/JSbETms/gists{/gist_id}",
                "gravatar_id": "",
                "html_url": "https://github.com/JSbETms",
                "id": 137791538,
                "login": "JSbETms",
                "node_id": "U_kgDOCDaIMg",
                "organizations_url": "https://api.github.com/users/JSbETms/orgs",
                "received_events_url": "https://api.github.com/users/JSbETms/received_events",
                "repos_url": "https://api.github.com/users/JSbETms/repos",
                "site_admin": false,
                "starred_url": "https://api.github.com/users/JSbETms/starred{/owner}{/repo}",
                "subscriptions_url": "https://api.github.com/users/JSbETms/subscriptions",
                "type": "User",
                "url": "https://api.github.com/users/JSbETms",
                "user_view_type": "public"
            },
            "comments_url": "https://api.github.com/repos/PrismarineJS/minecraft-data/commits/0b173ba0922957721fc707eb37a3837cfc753211/comments",
            "commit": {
                "author": {
                    "date": "2025-02-26T15:53:56Z",
                    "email": "137791538+JSbETms@users.noreply.github.com",
                    "name": "JSbETms"
                },
                "comment_count": 0,
                "committer": {
                    "date": "2025-02-26T15:53:56Z",
                    "email": "noreply@github.com",
                    "name": "GitHub"
                },
                "message": "Update types.yml Latest",
                "tree": {
                    "sha": "be3bb49f73725847934740108fc9290aadc7524d",
                    "url": "https://api.github.com/repos/PrismarineJS/minecraft-data/git/trees/be3bb49f73725847934740108fc9290aadc7524d"
                },
                "url": "https://api.github.com/repos/PrismarineJS/minecraft-data/git/commits/0b173ba0922957721fc707eb37a3837cfc753211",
                "verification": {
                    "payload": "tree be3bb49f73725847934740108fc9290aadc7524d\nparent d4c99e1fbf33e72e5acf750f2e13c2520be1f469\nauthor JSbETms <137791538+JSbETms@users.noreply.github.com> 1740585236 +0000\ncommitter GitHub <noreply@github.com> 1740585236 +0000\n\nUpdate types.yml Latest",
                    "reason": "valid",
                    "signature": "-----BEGIN PGP SIGNATURE-----\n\nwsFcBAABCAAQBQJnvzkUCRC1aQ7uu5UhlAAA8KcQAGgZ19FUySKMbgLhtDjDrY3W\nIxCgK6nmOxCDSS//nCmEr1vzMdXGCyVF2UvAoLNdsq8sbJtZfUgU2WOjeY1MQ503\ntvIvx+8yJ4W9YOM9gPhZr0kWOOXyuBUAQTxLKz99hoI11vxzB7fRB2cYLAEevEX2\nFjjmEoFO1CkENV2NM6LrCEpuN7h/idU2GkWN7t4venAyswZqHYC/p+PK67xiaNRk\npaxEe9UCG73Ed5jTZMQtzDT15PFNBjq6tsgFZ99RbPX+nxXg9IXVDGcE3us7itK1\ngYairM7063mK6+7tAWPOYktuWt+FDnslv8UPhJmiOG9jr89gHmoSubr0x25A4bCZ\nbVYGwLO0AUopPjzoqjoennNAHWLl8XCOjmFmiOeT2iBEIAu30DK9+edupGiRgI9s\n03GnZCOEJLd+5y7g4bKZTnXQz2tM5gaLtGI9jGRf4fq0ou5YU3D3hcn7uXoLScKf\n57jqeD3AxVtsKc8iNObComuyQs9Rz0FfUaypPdtSjeGES+S/54Xj+w2jSXz1st2B\nKRW//AYaGH140WqICTZszyEjpHXvCQfnoG7MZNvbD22NYOdmwr7R9Y2RLIT2DoZd\n/BoZsBOZ93GT9bO4+TdpEi1ydwldNHOD48UQacjnrC9pBIPiClNit7d4lLtejejV\nABlH/0lvPuJ26S6pWjNL\n=z++4\n-----END PGP SIGNATURE-----\n",
                    "verified": true,
                    "verified_at": "2025-02-26T15:58:58Z"
                }
            },
            "committer": {
                "avatar_url": "https://avatars.githubusercontent.com/u/19864447?v=4",
                "events_url": "https://api.github.com/users/web-flow/events{/privacy}",
                "followers_url": "https://api.github.com/users/web-flow/followers",
                "following_url": "https://api.github.com/users/web-flow/following{/other_user}",
                "gists_url": "https://api.github.com/users/web-flow/gists{/gist_id}",
                "gravatar_id": "",
                "html_url": "https://github.com/web-flow",
                "id": 19864447,
                "login": "web-flow",
                "node_id": "MDQ6VXNlcjE5ODY0NDQ3",
                "organizations_url": "https://api.github.com/users/web-flow/orgs",
                "received_events_url": "https://api.github.com/users/web-flow/received_events",
                "repos_url": "https://api.github.com/users/web-flow/repos",
                "site_admin": false,
                "starred_url": "https://api.github.com/users/web-flow/starred{/owner}{/repo}",
                "subscriptions_url": "https://api.github.com/users/web-flow/subscriptions",
                "type": "User",
                "url": "https://api.github.com/users/web-flow",
                "user_view_type": "public"
            },
            "html_url": "https://github.com/PrismarineJS/minecraft-data/commit/0b173ba0922957721fc707eb37a3837cfc753211",
            "node_id": "C_kwDON_8RhNoAKDBiMTczYmEwOTIyOTU3NzIxZmM3MDdlYjM3YTM4MzdjZmM3NTMyMTE",
            "parents": [
                {
                    "html_url": "https://github.com/PrismarineJS/minecraft-data/commit/d4c99e1fbf33e72e5acf750f2e13c2520be1f469",
                    "sha": "d4c99e1fbf33e72e5acf750f2e13c2520be1f469",
                    "url": "https://api.github.com/repos/PrismarineJS/minecraft-data/commits/d4c99e1fbf33e72e5acf750f2e13c2520be1f469"
                }
            ],
            "sha": "0b173ba0922957721fc707eb37a3837cfc753211",
            "url": "https://api.github.com/repos/PrismarineJS/minecraft-data/commits/0b173ba0922957721fc707eb37a3837cfc753211"
        }
    ],
    "commits": 6,
    "commits_url": "https://api.github.com/repos/PrismarineJS/minecraft-data/pulls/988/commits",
    "created_at": "2025-02-26T16:19:51Z",
    "deletions": 0,
    "diff_url": "https://github.com/PrismarineJS/minecraft-data/pull/988.diff",
    "draft": false,
    "head": {
        "label": "JSbETms:master",
        "ref": "master",
        "repo": {
            "allow_forking": true,
            "archive_url": "https://api.github.com/repos/JSbETms/minecraft-data-patch/{archive_format}{/ref}",
            "archived": false,
            "assignees_url": "https://api.github.com/repos/JSbETms/minecraft-data-patch/assignees{/user}",
            "blobs_url": "https://api.github.com/repos/JSbETms/minecraft-data-patch/git/blobs{/sha}",
            "branches_url": "https://api.github.com/repos/JSbETms/minecraft-data-patch/branches{/branch}",
            "clone_url": "https://github.com/JSbETms/minecraft-data-patch.git",
            "collaborators_url": "https://api.github.com/repos/JSbETms/minecraft-data-patch/collaborators{/collaborator}",
            "comments_url": "https://api.github.com/repos/JSbETms/minecraft-data-patch/comments{/number}",
            "commits_url": "https://api.github.com/repos/JSbETms/minecraft-data-patch/commits{/sha}",
            "compare_url": "https://api.github.com/repos/JSbETms/minecraft-data-patch/compare/{base}...{head}",
            "contents_url": "https://api.github.com/repos/JSbETms/minecraft-data-patch/contents/{+path}",
            "contributors_url": "https://api.github.com/repos/JSbETms/minecraft-data-patch/contributors",
            "created_at": "2025-02-26T15:25:37Z",
            "default_branch": "master",
            "deployments_url": "https://api.github.com/repos/JSbETms/minecraft-data-patch/deployments",
            "description": null,
            "disabled": false,
            "downloads_url": "https://api.github.com/repos/JSbETms/minecraft-data-patch/downloads",
            "events_url": "https://api.github.com/repos/JSbETms/minecraft-data-patch/events",
            "fork": true,
            "forks": 0,
            "forks_count": 0,
            "forks_url": "https://api.github.com/repos/JSbETms/minecraft-data-patch/forks",
            "full_name": "JSbETms/minecraft-data-patch",
            "git_commits_url": "https://api.github.com/repos/JSbETms/minecraft-data-patch/git/commits{/sha}",
            "git_refs_url": "https://api.github.com/repos/JSbETms/minecraft-data-patch/git/refs{/sha}",
            "git_tags_url": "https://api.github.com/repos/JSbETms/minecraft-data-patch/git/tags{/sha}",
            "git_url": "git://github.com/JSbETms/minecraft-data-patch.git",
            "has_discussions": false,
            "has_downloads": true,
            "has_issues": false,
            "has_pages": false,
            "has_projects": true,
            "has_wiki": true,
            "homepage": "https://prismarinejs.github.io/minecraft-data",
            "hooks_url": "https://api.github.com/repos/JSbETms/minecraft-data-patch/hooks",
            "html_url": "https://github.com/JSbETms/minecraft-data-patch",
            "id": 939463044,
            "is_template": false,
            "issue_comment_url": "https://api.github.com/repos/JSbETms/minecraft-data-patch/issues/comments{/number}",
            "issue_events_url": "https://api.github.com/repos/JSbETms/minecraft-data-patch/issues/events{/number}",
            "issues_url": "https://api.github.com/repos/JSbETms/minecraft-data-patch/issues{/number}",
            "keys_url": "https://api.github.com/repos/JSbETms/minecraft-data-patch/keys{/key_id}",
            "labels_url": "https://api.github.com/repos/JSbETms/minecraft-data-patch/labels{/name}",
            "language": "JavaScript",
            "languages_url": "https://api.github.com/repos/JSbETms/minecraft-data-patch/languages",
            "license": null,
            "merges_url": "https://api.github.com/repos/JSbETms/minecraft-data-patch/merges",
            "milestones_url": "https://api.github.com/repos/JSbETms/minecraft-data-patch/milestones{/number}",
            "mirror_url": null,
            "name": "minecraft-data-patch",
            "node_id": "R_kgDON_8RhA",
            "notifications_url": "https://api.github.com/repos/JSbETms/minecraft-data-patch/notifications{?since,all,participating}",
            "open_issues": 0,
            "open_issues_count": 0,
            "owner": {
                "avatar_url": "https://avatars.githubusercontent.com/u/137791538?v=4",
                "events_url": "https://api.github.com/users/JSbETms/events{/privacy}",
                "followers_url": "https://api.github.com/users/JSbETms/followers",
                "following_url": "https://api.github.com/users/JSbETms/following{/other_user}",
                "gists_url": "https://api.github.com/users/JSbETms/gists{/gist_id}",
                "gravatar_id": "",
                "html_url": "https://github.com/JSbETms",
                "id": 137791538,
                "login": "JSbETms",
                "node_id": "U_kgDOCDaIMg",
                "organizations_url": "https://api.github.com/users/JSbETms/orgs",
                "received_events_url": "https://api.github.com/users/JSbETms/received_events",
                "repos_url": "https://api.github.com/users/JSbETms/repos",
                "site_admin": false,
                "starred_url": "https://api.github.com/users/JSbETms/starred{/owner}{/repo}",
                "subscriptions_url": "https://api.github.com/users/JSbETms/subscriptions",
                "type": "User",
                "url": "https://api.github.com/users/JSbETms",
                "user_view_type": "public"
            },
            "private": false,
            "pulls_url": "https://api.github.com/repos/JSbETms/minecraft-data-patch/pulls{/number}",
            "pushed_at": "2025-02-26T15:53:57Z",
            "releases_url": "https://api.github.com/repos/JSbETms/minecraft-data-patch/releases{/id}",
            "size": 213556,
            "ssh_url": "git@github.com:JSbETms/minecraft-data-patch.git",
            "stargazers_count": 0,
            "stargazers_url": "https://api.github.com/repos/JSbETms/minecraft-data-patch/stargazers",
            "statuses_url": "https://api.github.com/repos/JSbETms/minecraft-data-patch/statuses/{sha}",
            "subscribers_url": "https://api.github.com/repos/JSbETms/minecraft-data-patch/subscribers",
            "subscription_url": "https://api.github.com/repos/JSbETms/minecraft-data-patch/subscription",
            "svn_url": "https://github.com/JSbETms/minecraft-data-patch",
            "tags_url": "https://api.github.com/repos/JSbETms/minecraft-data-patch/tags",
            "teams_url": "https://api.github.com/repos/JSbETms/minecraft-data-patch/teams",
            "topics": [],
            "trees_url": "https://api.github.com/repos/JSbETms/minecraft-data-patch/git/trees{/sha}",
            "updated_at": "2025-02-26T15:54:00Z",
            "url": "https://api.github.com/repos/JSbETms/minecraft-data-patch",
            "visibility": "public",
            "watchers": 0,
            "watchers_count": 0,
            "web_commit_signoff_required": false
        },
        "sha": "0b173ba0922957721fc707eb37a3837cfc753211",
        "user": {
            "avatar_url": "https://avatars.githubusercontent.com/u/137791538?v=4",
            "events_url": "https://api.github.com/users/JSbETms/events{/privacy}",
            "followers_url": "https://api.github.com/users/JSbETms/followers",
            "following_url": "https://api.github.com/users/JSbETms/following{/other_user}",
            "gists_url": "https://api.github.com/users/JSbETms/gists{/gist_id}",
            "gravatar_id": "",
            "html_url": "https://github.com/JSbETms",
            "id": 137791538,
            "login": "JSbETms",
            "node_id": "U_kgDOCDaIMg",
            "organizations_url": "https://api.github.com/users/JSbETms/orgs",
            "received_events_url": "https://api.github.com/users/JSbETms/received_events",
            "repos_url": "https://api.github.com/users/JSbETms/repos",
            "site_admin": false,
            "starred_url": "https://api.github.com/users/JSbETms/starred{/owner}{/repo}",
            "subscriptions_url": "https://api.github.com/users/JSbETms/subscriptions",
            "type": "User",
            "url": "https://api.github.com/users/JSbETms",
            "user_view_type": "public"
        }
    },
    "html_url": "https://github.com/PrismarineJS/minecraft-data/pull/988",
    "id": 2360094179,
    "issue_url": "https://api.github.com/repos/PrismarineJS/minecraft-data/issues/988",
    "labels": [],
    "locked": false,
    "maintainer_can_modify": true,
    "merge_commit_sha": "ec4ca2d6384b2fef39de9cac5980dbaf9d40648c",
    "mergeable": true,
    "mergeable_state": "clean",
    "merged": false,
    "merged_at": null,
    "merged_by": null,
    "milestone": null,
    "node_id": "PR_kwDOAfOYes6MrC3j",
    "number": 988,
    "patch_url": "https://github.com/PrismarineJS/minecraft-data/pull/988.patch",
    "rebaseable": true,
    "requested_reviewers": [],
    "requested_teams": [],
    "review_comment_url": "https://api.github.com/repos/PrismarineJS/minecraft-data/pulls/comments{/number}",
    "review_comments": 0,
    "review_comments_url": "https://api.github.com/repos/PrismarineJS/minecraft-data/pulls/988/comments",
    "state": "open",
    "statuses_url": "https://api.github.com/repos/PrismarineJS/minecraft-data/statuses/0b173ba0922957721fc707eb37a3837cfc753211",
    "title": "Bedrock ItemStackRequest missing some \"times_crafted\" fields",
    "updated_at": "2025-02-26T16:19:51Z",
    "url": "https://api.github.com/repos/PrismarineJS/minecraft-data/pulls/988",
    "user": {
        "avatar_url": "https://avatars.githubusercontent.com/u/137791538?v=4",
        "events_url": "https://api.github.com/users/JSbETms/events{/privacy}",
        "followers_url": "https://api.github.com/users/JSbETms/followers",
        "following_url": "https://api.github.com/users/JSbETms/following{/other_user}",
        "gists_url": "https://api.github.com/users/JSbETms/gists{/gist_id}",
        "gravatar_id": "",
        "html_url": "https://github.com/JSbETms",
        "id": 137791538,
        "login": "JSbETms",
        "node_id": "U_kgDOCDaIMg",
        "organizations_url": "https://api.github.com/users/JSbETms/orgs",
        "received_events_url": "https://api.github.com/users/JSbETms/received_events",
        "repos_url": "https://api.github.com/users/JSbETms/repos",
        "site_admin": false,
        "starred_url": "https://api.github.com/users/JSbETms/starred{/owner}{/repo}",
        "subscriptions_url": "https://api.github.com/users/JSbETms/subscriptions",
        "type": "User",
        "url": "https://api.github.com/users/JSbETms",
        "user_view_type": "public"
    }
}