{
    "active_lock_reason": null,
    "assignee": null,
    "assignees": [],
    "author_association": "MEMBER",
    "body": "will be possible when https://github.com/PrismarineJS/mineflayer/issues/334 is done\r\n",
    "closed_at": null,
    "comment_data": [],
    "comments": 0,
    "comments_url": "https://api.github.com/repos/PrismarineJS/prismarine-world/issues/89/comments",
    "created_at": "2022-01-06T22:39:53Z",
    "event_data": [],
    "events_url": "https://api.github.com/repos/PrismarineJS/prismarine-world/issues/89/events",
    "html_url": "https://github.com/PrismarineJS/prismarine-world/issues/89",
    "id": 1095763512,
    "labels": [],
    "labels_url": "https://api.github.com/repos/PrismarineJS/prismarine-world/issues/89/labels{/name}",
    "locked": false,
    "milestone": null,
    "node_id": "I_kwDOAeKatM5BUAY4",
    "number": 89,
    "performed_via_github_app": null,
    "reactions": {
        "+1": 0,
        "-1": 0,
        "confused": 0,
        "eyes": 0,
        "heart": 0,
        "hooray": 0,
        "laugh": 0,
        "rocket": 0,
        "total_count": 0,
        "url": "https://api.github.com/repos/PrismarineJS/prismarine-world/issues/89/reactions"
    },
    "repository_url": "https://api.github.com/repos/PrismarineJS/prismarine-world",
    "state": "open",
    "state_reason": null,
    "timeline_url": "https://api.github.com/repos/PrismarineJS/prismarine-world/issues/89/timeline",
    "title": "implement find block here",
    "updated_at": "2022-01-06T22:39:53Z",
    "url": "https://api.github.com/repos/PrismarineJS/prismarine-world/issues/89",
    "user": {
        "avatar_url": "https://avatars.githubusercontent.com/u/2346494?v=4",
        "events_url": "https://api.github.com/users/rom1504/events{/privacy}",
        "followers_url": "https://api.github.com/users/rom1504/followers",
        "following_url": "https://api.github.com/users/rom1504/following{/other_user}",
        "gists_url": "https://api.github.com/users/rom1504/gists{/gist_id}",
        "gravatar_id": "",
        "html_url": "https://github.com/rom1504",
        "id": 2346494,
        "login": "rom1504",
        "node_id": "MDQ6VXNlcjIzNDY0OTQ=",
        "organizations_url": "https://api.github.com/users/rom1504/orgs",
        "received_events_url": "https://api.github.com/users/rom1504/received_events",
        "repos_url": "https://api.github.com/users/rom1504/repos",
        "site_admin": false,
        "starred_url": "https://api.github.com/users/rom1504/starred{/owner}{/repo}",
        "subscriptions_url": "https://api.github.com/users/rom1504/subscriptions",
        "type": "User",
        "url": "https://api.github.com/users/rom1504"
    }
}