[
    {
        "color": "fc2929",
        "default": true,
        "description": null,
        "id": 260239016,
        "name": "bug",
        "node_id": "MDU6TGFiZWwyNjAyMzkwMTY=",
        "url": "https://api.github.com/repos/PrismarineJS/node-minecraft-wrap/labels/bug"
    },
    {
        "color": "0366d6",
        "default": false,
        "description": "Pull requests that update a dependency file",
        "id": 2067070758,
        "name": "dependencies",
        "node_id": "MDU6TGFiZWwyMDY3MDcwNzU4",
        "url": "https://api.github.com/repos/PrismarineJS/node-minecraft-wrap/labels/dependencies"
    },
    {
        "color": "cccccc",
        "default": true,
        "description": null,
        "id": 260239017,
        "name": "duplicate",
        "node_id": "MDU6TGFiZWwyNjAyMzkwMTc=",
        "url": "https://api.github.com/repos/PrismarineJS/node-minecraft-wrap/labels/duplicate"
    },
    {
        "color": "84b6eb",
        "default": true,
        "description": null,
        "id": 260239018,
        "name": "enhancement",
        "node_id": "MDU6TGFiZWwyNjAyMzkwMTg=",
        "url": "https://api.github.com/repos/PrismarineJS/node-minecraft-wrap/labels/enhancement"
    },
    {
        "color": "159818",
        "default": true,
        "description": null,
        "id": 260239019,
        "name": "help wanted",
        "node_id": "MDU6TGFiZWwyNjAyMzkwMTk=",
        "url": "https://api.github.com/repos/PrismarineJS/node-minecraft-wrap/labels/help%20wanted"
    },
    {
        "color": "e6e6e6",
        "default": true,
        "description": null,
        "id": 260239020,
        "name": "invalid",
        "node_id": "MDU6TGFiZWwyNjAyMzkwMjA=",
        "url": "https://api.github.com/repos/PrismarineJS/node-minecraft-wrap/labels/invalid"
    },
    {
        "color": "cc317c",
        "default": true,
        "description": null,
        "id": 260239021,
        "name": "question",
        "node_id": "MDU6TGFiZWwyNjAyMzkwMjE=",
        "url": "https://api.github.com/repos/PrismarineJS/node-minecraft-wrap/labels/question"
    },
    {
        "color": "ffffff",
        "default": true,
        "description": null,
        "id": 260239022,
        "name": "wontfix",
        "node_id": "MDU6TGFiZWwyNjAyMzkwMjI=",
        "url": "https://api.github.com/repos/PrismarineJS/node-minecraft-wrap/labels/wontfix"
    }
]