{
    "_links": {
        "comments": {
            "href": "https://api.github.com/repos/PrismarineJS/prismarine-viewer/issues/13/comments"
        },
        "commits": {
            "href": "https://api.github.com/repos/PrismarineJS/prismarine-viewer/pulls/13/commits"
        },
        "html": {
            "href": "https://github.com/PrismarineJS/prismarine-viewer/pull/13"
        },
        "issue": {
            "href": "https://api.github.com/repos/PrismarineJS/prismarine-viewer/issues/13"
        },
        "review_comment": {
            "href": "https://api.github.com/repos/PrismarineJS/prismarine-viewer/pulls/comments{/number}"
        },
        "review_comments": {
            "href": "https://api.github.com/repos/PrismarineJS/prismarine-viewer/pulls/13/comments"
        },
        "self": {
            "href": "https://api.github.com/repos/PrismarineJS/prismarine-viewer/pulls/13"
        },
        "statuses": {
            "href": "https://api.github.com/repos/PrismarineJS/prismarine-viewer/statuses/dfacdcef5af1ee2a0eab8bbcec8914eb6e5bfe90"
        }
    },
    "active_lock_reason": null,
    "additions": 6,
    "assignee": null,
    "assignees": [],
    "author_association": "CONTRIBUTOR",
    "auto_merge": null,
    "base": {
        "label": "PrismarineJS:master",
        "ref": "master",
        "repo": {
            "allow_forking": true,
            "archive_url": "https://api.github.com/repos/PrismarineJS/prismarine-viewer/{archive_format}{/ref}",
            "archived": false,
            "assignees_url": "https://api.github.com/repos/PrismarineJS/prismarine-viewer/assignees{/user}",
            "blobs_url": "https://api.github.com/repos/PrismarineJS/prismarine-viewer/git/blobs{/sha}",
            "branches_url": "https://api.github.com/repos/PrismarineJS/prismarine-viewer/branches{/branch}",
            "clone_url": "https://github.com/PrismarineJS/prismarine-viewer.git",
            "collaborators_url": "https://api.github.com/repos/PrismarineJS/prismarine-viewer/collaborators{/collaborator}",
            "comments_url": "https://api.github.com/repos/PrismarineJS/prismarine-viewer/comments{/number}",
            "commits_url": "https://api.github.com/repos/PrismarineJS/prismarine-viewer/commits{/sha}",
            "compare_url": "https://api.github.com/repos/PrismarineJS/prismarine-viewer/compare/{base}...{head}",
            "contents_url": "https://api.github.com/repos/PrismarineJS/prismarine-viewer/contents/{+path}",
            "contributors_url": "https://api.github.com/repos/PrismarineJS/prismarine-viewer/contributors",
            "created_at": "2020-06-10T21:05:49Z",
            "default_branch": "master",
            "deployments_url": "https://api.github.com/repos/PrismarineJS/prismarine-viewer/deployments",
            "description": "Web based viewer for servers and bots",
            "disabled": false,
            "downloads_url": "https://api.github.com/repos/PrismarineJS/prismarine-viewer/downloads",
            "events_url": "https://api.github.com/repos/PrismarineJS/prismarine-viewer/events",
            "fork": false,
            "forks": 57,
            "forks_count": 57,
            "forks_url": "https://api.github.com/repos/PrismarineJS/prismarine-viewer/forks",
            "full_name": "PrismarineJS/prismarine-viewer",
            "git_commits_url": "https://api.github.com/repos/PrismarineJS/prismarine-viewer/git/commits{/sha}",
            "git_refs_url": "https://api.github.com/repos/PrismarineJS/prismarine-viewer/git/refs{/sha}",
            "git_tags_url": "https://api.github.com/repos/PrismarineJS/prismarine-viewer/git/tags{/sha}",
            "git_url": "git://github.com/PrismarineJS/prismarine-viewer.git",
            "has_discussions": false,
            "has_downloads": true,
            "has_issues": true,
            "has_pages": true,
            "has_projects": true,
            "has_wiki": true,
            "homepage": "https://prismarinejs.github.io/prismarine-viewer/",
            "hooks_url": "https://api.github.com/repos/PrismarineJS/prismarine-viewer/hooks",
            "html_url": "https://github.com/PrismarineJS/prismarine-viewer",
            "id": 271385423,
            "is_template": false,
            "issue_comment_url": "https://api.github.com/repos/PrismarineJS/prismarine-viewer/issues/comments{/number}",
            "issue_events_url": "https://api.github.com/repos/PrismarineJS/prismarine-viewer/issues/events{/number}",
            "issues_url": "https://api.github.com/repos/PrismarineJS/prismarine-viewer/issues{/number}",
            "keys_url": "https://api.github.com/repos/PrismarineJS/prismarine-viewer/keys{/key_id}",
            "labels_url": "https://api.github.com/repos/PrismarineJS/prismarine-viewer/labels{/name}",
            "language": "JavaScript",
            "languages_url": "https://api.github.com/repos/PrismarineJS/prismarine-viewer/languages",
            "license": {
                "key": "mit",
                "name": "MIT License",
                "node_id": "MDc6TGljZW5zZTEz",
                "spdx_id": "MIT",
                "url": "https://api.github.com/licenses/mit"
            },
            "merges_url": "https://api.github.com/repos/PrismarineJS/prismarine-viewer/merges",
            "milestones_url": "https://api.github.com/repos/PrismarineJS/prismarine-viewer/milestones{/number}",
            "mirror_url": null,
            "name": "prismarine-viewer",
            "node_id": "MDEwOlJlcG9zaXRvcnkyNzEzODU0MjM=",
            "notifications_url": "https://api.github.com/repos/PrismarineJS/prismarine-viewer/notifications{?since,all,participating}",
            "open_issues": 69,
            "open_issues_count": 69,
            "owner": {
                "avatar_url": "https://avatars.githubusercontent.com/u/11053411?v=4",
                "events_url": "https://api.github.com/users/PrismarineJS/events{/privacy}",
                "followers_url": "https://api.github.com/users/PrismarineJS/followers",
                "following_url": "https://api.github.com/users/PrismarineJS/following{/other_user}",
                "gists_url": "https://api.github.com/users/PrismarineJS/gists{/gist_id}",
                "gravatar_id": "",
                "html_url": "https://github.com/PrismarineJS",
                "id": 11053411,
                "login": "PrismarineJS",
                "node_id": "MDEyOk9yZ2FuaXphdGlvbjExMDUzNDEx",
                "organizations_url": "https://api.github.com/users/PrismarineJS/orgs",
                "received_events_url": "https://api.github.com/users/PrismarineJS/received_events",
                "repos_url": "https://api.github.com/users/PrismarineJS/repos",
                "site_admin": false,
                "starred_url": "https://api.github.com/users/PrismarineJS/starred{/owner}{/repo}",
                "subscriptions_url": "https://api.github.com/users/PrismarineJS/subscriptions",
                "type": "Organization",
                "url": "https://api.github.com/users/PrismarineJS"
            },
            "private": false,
            "pulls_url": "https://api.github.com/repos/PrismarineJS/prismarine-viewer/pulls{/number}",
            "pushed_at": "2023-04-25T00:59:53Z",
            "releases_url": "https://api.github.com/repos/PrismarineJS/prismarine-viewer/releases{/id}",
            "size": 309473,
            "ssh_url": "git@github.com:PrismarineJS/prismarine-viewer.git",
            "stargazers_count": 168,
            "stargazers_url": "https://api.github.com/repos/PrismarineJS/prismarine-viewer/stargazers",
            "statuses_url": "https://api.github.com/repos/PrismarineJS/prismarine-viewer/statuses/{sha}",
            "subscribers_url": "https://api.github.com/repos/PrismarineJS/prismarine-viewer/subscribers",
            "subscription_url": "https://api.github.com/repos/PrismarineJS/prismarine-viewer/subscription",
            "svn_url": "https://github.com/PrismarineJS/prismarine-viewer",
            "tags_url": "https://api.github.com/repos/PrismarineJS/prismarine-viewer/tags",
            "teams_url": "https://api.github.com/repos/PrismarineJS/prismarine-viewer/teams",
            "topics": [],
            "trees_url": "https://api.github.com/repos/PrismarineJS/prismarine-viewer/git/trees{/sha}",
            "updated_at": "2023-04-24T03:47:17Z",
            "url": "https://api.github.com/repos/PrismarineJS/prismarine-viewer",
            "visibility": "public",
            "watchers": 168,
            "watchers_count": 168,
            "web_commit_signoff_required": false
        },
        "sha": "1e95a0a2857fff1200017e5c1f4adb77217d5454",
        "user": {
            "avatar_url": "https://avatars.githubusercontent.com/u/11053411?v=4",
            "events_url": "https://api.github.com/users/PrismarineJS/events{/privacy}",
            "followers_url": "https://api.github.com/users/PrismarineJS/followers",
            "following_url": "https://api.github.com/users/PrismarineJS/following{/other_user}",
            "gists_url": "https://api.github.com/users/PrismarineJS/gists{/gist_id}",
            "gravatar_id": "",
            "html_url": "https://github.com/PrismarineJS",
            "id": 11053411,
            "login": "PrismarineJS",
            "node_id": "MDEyOk9yZ2FuaXphdGlvbjExMDUzNDEx",
            "organizations_url": "https://api.github.com/users/PrismarineJS/orgs",
            "received_events_url": "https://api.github.com/users/PrismarineJS/received_events",
            "repos_url": "https://api.github.com/users/PrismarineJS/repos",
            "site_admin": false,
            "starred_url": "https://api.github.com/users/PrismarineJS/starred{/owner}{/repo}",
            "subscriptions_url": "https://api.github.com/users/PrismarineJS/subscriptions",
            "type": "Organization",
            "url": "https://api.github.com/users/PrismarineJS"
        }
    },
    "body": "",
    "changed_files": 1,
    "closed_at": "2020-07-14T08:01:44Z",
    "comment_data": [
        {
            "_links": {
                "html": {
                    "href": "https://github.com/PrismarineJS/prismarine-viewer/pull/13#discussion_r454151587"
                },
                "pull_request": {
                    "href": "https://api.github.com/repos/PrismarineJS/prismarine-viewer/pulls/13"
                },
                "self": {
                    "href": "https://api.github.com/repos/PrismarineJS/prismarine-viewer/pulls/comments/454151587"
                }
            },
            "author_association": "MEMBER",
            "body": "I don't know if the download could really bring anything, there are enough badges",
            "commit_id": "dfacdcef5af1ee2a0eab8bbcec8914eb6e5bfe90",
            "created_at": "2020-07-14T07:15:10Z",
            "diff_hunk": "@@ -9,6 +9,13 @@ Web based viewer for servers and bots\n [![Irc](https://img.shields.io/badge/chat-on%20irc-brightgreen.svg)](https://irc.gitter.im/)\n \n [![Try it on gitpod](https://img.shields.io/badge/try-on%20gitpod-brightgreen.svg)](https://gitpod.io/#https://github.com/PrismarineJS/prismarine-viewer)\n+![npm](https://img.shields.io/npm/dt/mineflayer-pathfinder)",
            "html_url": "https://github.com/PrismarineJS/prismarine-viewer/pull/13#discussion_r454151587",
            "id": 454151587,
            "line": null,
            "node_id": "MDI0OlB1bGxSZXF1ZXN0UmV2aWV3Q29tbWVudDQ1NDE1MTU4Nw==",
            "original_commit_id": "7d5a12201b7cf19bae70c102034b84c6242f204c",
            "original_line": 12,
            "original_position": 4,
            "original_start_line": null,
            "path": "readme.md",
            "position": null,
            "pull_request_review_id": 447846973,
            "pull_request_url": "https://api.github.com/repos/PrismarineJS/prismarine-viewer/pulls/13",
            "reactions": {
                "+1": 0,
                "-1": 0,
                "confused": 0,
                "eyes": 0,
                "heart": 0,
                "hooray": 0,
                "laugh": 0,
                "rocket": 0,
                "total_count": 0,
                "url": "https://api.github.com/repos/PrismarineJS/prismarine-viewer/pulls/comments/454151587/reactions"
            },
            "side": "RIGHT",
            "start_line": null,
            "start_side": null,
            "subject_type": "line",
            "updated_at": "2020-07-14T07:57:14Z",
            "url": "https://api.github.com/repos/PrismarineJS/prismarine-viewer/pulls/comments/454151587",
            "user": {
                "avatar_url": "https://avatars.githubusercontent.com/u/2346494?v=4",
                "events_url": "https://api.github.com/users/rom1504/events{/privacy}",
                "followers_url": "https://api.github.com/users/rom1504/followers",
                "following_url": "https://api.github.com/users/rom1504/following{/other_user}",
                "gists_url": "https://api.github.com/users/rom1504/gists{/gist_id}",
                "gravatar_id": "",
                "html_url": "https://github.com/rom1504",
                "id": 2346494,
                "login": "rom1504",
                "node_id": "MDQ6VXNlcjIzNDY0OTQ=",
                "organizations_url": "https://api.github.com/users/rom1504/orgs",
                "received_events_url": "https://api.github.com/users/rom1504/received_events",
                "repos_url": "https://api.github.com/users/rom1504/repos",
                "site_admin": false,
                "starred_url": "https://api.github.com/users/rom1504/starred{/owner}{/repo}",
                "subscriptions_url": "https://api.github.com/users/rom1504/subscriptions",
                "type": "User",
                "url": "https://api.github.com/users/rom1504"
            }
        }
    ],
    "comment_regular_data": [],
    "comments": 0,
    "comments_url": "https://api.github.com/repos/PrismarineJS/prismarine-viewer/issues/13/comments",
    "commit_data": [
        {
            "author": {
                "avatar_url": "https://avatars.githubusercontent.com/u/40795980?v=4",
                "events_url": "https://api.github.com/users/AlexProgrammerDE/events{/privacy}",
                "followers_url": "https://api.github.com/users/AlexProgrammerDE/followers",
                "following_url": "https://api.github.com/users/AlexProgrammerDE/following{/other_user}",
                "gists_url": "https://api.github.com/users/AlexProgrammerDE/gists{/gist_id}",
                "gravatar_id": "",
                "html_url": "https://github.com/AlexProgrammerDE",
                "id": 40795980,
                "login": "AlexProgrammerDE",
                "node_id": "MDQ6VXNlcjQwNzk1OTgw",
                "organizations_url": "https://api.github.com/users/AlexProgrammerDE/orgs",
                "received_events_url": "https://api.github.com/users/AlexProgrammerDE/received_events",
                "repos_url": "https://api.github.com/users/AlexProgrammerDE/repos",
                "site_admin": false,
                "starred_url": "https://api.github.com/users/AlexProgrammerDE/starred{/owner}{/repo}",
                "subscriptions_url": "https://api.github.com/users/AlexProgrammerDE/subscriptions",
                "type": "User",
                "url": "https://api.github.com/users/AlexProgrammerDE"
            },
            "comments_url": "https://api.github.com/repos/PrismarineJS/prismarine-viewer/commits/7d5a12201b7cf19bae70c102034b84c6242f204c/comments",
            "commit": {
                "author": {
                    "date": "2020-07-14T06:23:49Z",
                    "email": "40795980+AlexProgrammerDE@users.noreply.github.com",
                    "name": "Alex"
                },
                "comment_count": 0,
                "committer": {
                    "date": "2020-07-14T06:23:49Z",
                    "email": "noreply@github.com",
                    "name": "GitHub"
                },
                "message": "Add more npm info to README",
                "tree": {
                    "sha": "ba53dfbc56e074ad4a827b9692ffd49609d6aff3",
                    "url": "https://api.github.com/repos/PrismarineJS/prismarine-viewer/git/trees/ba53dfbc56e074ad4a827b9692ffd49609d6aff3"
                },
                "url": "https://api.github.com/repos/PrismarineJS/prismarine-viewer/git/commits/7d5a12201b7cf19bae70c102034b84c6242f204c",
                "verification": {
                    "payload": "tree ba53dfbc56e074ad4a827b9692ffd49609d6aff3\nparent 1e95a0a2857fff1200017e5c1f4adb77217d5454\nauthor Alex <40795980+AlexProgrammerDE@users.noreply.github.com> 1594707829 +0200\ncommitter GitHub <noreply@github.com> 1594707829 +0200\n\nAdd more npm info to README",
                    "reason": "valid",
                    "signature": "-----BEGIN PGP SIGNATURE-----\n\nwsBcBAABCAAQBQJfDU91CRBK7hj4Ov3rIwAAdHIIAARssmGBN1Q8UeXhudg3LPq8\n8Pb3NrcyD+U26gfOTCGFXFKVM+WqhyKhYcAHZpue2lRTN2/+NWoPmo01sMQorvZE\nkHfAPs0X0E7sRgyh6jfMR9s2qfNh5mbBBpmSLJ36ghtohoKv1NNKsS0Hvi/DEXR1\ns0Me2DfITO1Dsn8rH11IqGnY8hgXQhuEq/fE+Q2MEqzesJRFUbzXqFlBrSTr3hJW\nQ5gM83QdWjlZpSx/yQSQC0B7ayGs5VzGE6ank1PJHMvRfrMpkYR898pNSISOPDEd\nFhJ9NjJbw7EcR9ZZ3iAtGto6Vqjefn+6d3o0eZzX26k2A9EcajFzrARHMiQynEw=\n=SI2J\n-----END PGP SIGNATURE-----\n",
                    "verified": true
                }
            },
            "committer": {
                "avatar_url": "https://avatars.githubusercontent.com/u/19864447?v=4",
                "events_url": "https://api.github.com/users/web-flow/events{/privacy}",
                "followers_url": "https://api.github.com/users/web-flow/followers",
                "following_url": "https://api.github.com/users/web-flow/following{/other_user}",
                "gists_url": "https://api.github.com/users/web-flow/gists{/gist_id}",
                "gravatar_id": "",
                "html_url": "https://github.com/web-flow",
                "id": 19864447,
                "login": "web-flow",
                "node_id": "MDQ6VXNlcjE5ODY0NDQ3",
                "organizations_url": "https://api.github.com/users/web-flow/orgs",
                "received_events_url": "https://api.github.com/users/web-flow/received_events",
                "repos_url": "https://api.github.com/users/web-flow/repos",
                "site_admin": false,
                "starred_url": "https://api.github.com/users/web-flow/starred{/owner}{/repo}",
                "subscriptions_url": "https://api.github.com/users/web-flow/subscriptions",
                "type": "User",
                "url": "https://api.github.com/users/web-flow"
            },
            "html_url": "https://github.com/PrismarineJS/prismarine-viewer/commit/7d5a12201b7cf19bae70c102034b84c6242f204c",
            "node_id": "MDY6Q29tbWl0Mjc5NTAwMzU0OjdkNWExMjIwMWI3Y2YxOWJhZTcwYzEwMjAzNGI4NGM2MjQyZjIwNGM=",
            "parents": [
                {
                    "html_url": "https://github.com/PrismarineJS/prismarine-viewer/commit/1e95a0a2857fff1200017e5c1f4adb77217d5454",
                    "sha": "1e95a0a2857fff1200017e5c1f4adb77217d5454",
                    "url": "https://api.github.com/repos/PrismarineJS/prismarine-viewer/commits/1e95a0a2857fff1200017e5c1f4adb77217d5454"
                }
            ],
            "sha": "7d5a12201b7cf19bae70c102034b84c6242f204c",
            "url": "https://api.github.com/repos/PrismarineJS/prismarine-viewer/commits/7d5a12201b7cf19bae70c102034b84c6242f204c"
        },
        {
            "author": {
                "avatar_url": "https://avatars.githubusercontent.com/u/40795980?v=4",
                "events_url": "https://api.github.com/users/AlexProgrammerDE/events{/privacy}",
                "followers_url": "https://api.github.com/users/AlexProgrammerDE/followers",
                "following_url": "https://api.github.com/users/AlexProgrammerDE/following{/other_user}",
                "gists_url": "https://api.github.com/users/AlexProgrammerDE/gists{/gist_id}",
                "gravatar_id": "",
                "html_url": "https://github.com/AlexProgrammerDE",
                "id": 40795980,
                "login": "AlexProgrammerDE",
                "node_id": "MDQ6VXNlcjQwNzk1OTgw",
                "organizations_url": "https://api.github.com/users/AlexProgrammerDE/orgs",
                "received_events_url": "https://api.github.com/users/AlexProgrammerDE/received_events",
                "repos_url": "https://api.github.com/users/AlexProgrammerDE/repos",
                "site_admin": false,
                "starred_url": "https://api.github.com/users/AlexProgrammerDE/starred{/owner}{/repo}",
                "subscriptions_url": "https://api.github.com/users/AlexProgrammerDE/subscriptions",
                "type": "User",
                "url": "https://api.github.com/users/AlexProgrammerDE"
            },
            "comments_url": "https://api.github.com/repos/PrismarineJS/prismarine-viewer/commits/dfacdcef5af1ee2a0eab8bbcec8914eb6e5bfe90/comments",
            "commit": {
                "author": {
                    "date": "2020-07-14T07:57:12Z",
                    "email": "40795980+AlexProgrammerDE@users.noreply.github.com",
                    "name": "Alex"
                },
                "comment_count": 0,
                "committer": {
                    "date": "2020-07-14T07:57:12Z",
                    "email": "noreply@github.com",
                    "name": "GitHub"
                },
                "message": "Remove downloads badge",
                "tree": {
                    "sha": "4e8eb334fa9ec53c17be3223c643955b369e4c2a",
                    "url": "https://api.github.com/repos/PrismarineJS/prismarine-viewer/git/trees/4e8eb334fa9ec53c17be3223c643955b369e4c2a"
                },
                "url": "https://api.github.com/repos/PrismarineJS/prismarine-viewer/git/commits/dfacdcef5af1ee2a0eab8bbcec8914eb6e5bfe90",
                "verification": {
                    "payload": "tree 4e8eb334fa9ec53c17be3223c643955b369e4c2a\nparent 7d5a12201b7cf19bae70c102034b84c6242f204c\nauthor Alex <40795980+AlexProgrammerDE@users.noreply.github.com> 1594713432 +0200\ncommitter GitHub <noreply@github.com> 1594713432 +0200\n\nRemove downloads badge",
                    "reason": "valid",
                    "signature": "-----BEGIN PGP SIGNATURE-----\n\nwsBcBAABCAAQBQJfDWVYCRBK7hj4Ov3rIwAAdHIIAEslrFkdCSIgm22SALrvUIXr\n0aciYf0nibvulOW7yGzDEHbO0I0RKxLeFwvkwB8ri9IC99qzhx0UqDI6aN+THHuK\nt49uJfcMUmLBTrMVdKF0twBk0KUi7nfFbIXcMeZQIQ5MYgA8hB+U5PBW9J8NVaw6\nNm6YAao46Yl8B0pbr5fOyZ/nswHXm0EpkHdrwagcTBmHYKVoGwIFQJSzovtaidKb\nUDCj2i+qrIUC8CLePoXPgfxw0OWpUWAxEfM74kN2vXctVCre3BHOQyqCVpCNzMOj\nvg6iufifApZMsIxxMICMug7rjV+tuVa8WQMuk/R7FI7+rp8eEl7PqFEJK9DjMLE=\n=dt73\n-----END PGP SIGNATURE-----\n",
                    "verified": true
                }
            },
            "committer": {
                "avatar_url": "https://avatars.githubusercontent.com/u/19864447?v=4",
                "events_url": "https://api.github.com/users/web-flow/events{/privacy}",
                "followers_url": "https://api.github.com/users/web-flow/followers",
                "following_url": "https://api.github.com/users/web-flow/following{/other_user}",
                "gists_url": "https://api.github.com/users/web-flow/gists{/gist_id}",
                "gravatar_id": "",
                "html_url": "https://github.com/web-flow",
                "id": 19864447,
                "login": "web-flow",
                "node_id": "MDQ6VXNlcjE5ODY0NDQ3",
                "organizations_url": "https://api.github.com/users/web-flow/orgs",
                "received_events_url": "https://api.github.com/users/web-flow/received_events",
                "repos_url": "https://api.github.com/users/web-flow/repos",
                "site_admin": false,
                "starred_url": "https://api.github.com/users/web-flow/starred{/owner}{/repo}",
                "subscriptions_url": "https://api.github.com/users/web-flow/subscriptions",
                "type": "User",
                "url": "https://api.github.com/users/web-flow"
            },
            "html_url": "https://github.com/PrismarineJS/prismarine-viewer/commit/dfacdcef5af1ee2a0eab8bbcec8914eb6e5bfe90",
            "node_id": "MDY6Q29tbWl0Mjc5NTAwMzU0OmRmYWNkY2VmNWFmMWVlMmEwZWFiOGJiY2VjODkxNGViNmU1YmZlOTA=",
            "parents": [
                {
                    "html_url": "https://github.com/PrismarineJS/prismarine-viewer/commit/7d5a12201b7cf19bae70c102034b84c6242f204c",
                    "sha": "7d5a12201b7cf19bae70c102034b84c6242f204c",
                    "url": "https://api.github.com/repos/PrismarineJS/prismarine-viewer/commits/7d5a12201b7cf19bae70c102034b84c6242f204c"
                }
            ],
            "sha": "dfacdcef5af1ee2a0eab8bbcec8914eb6e5bfe90",
            "url": "https://api.github.com/repos/PrismarineJS/prismarine-viewer/commits/dfacdcef5af1ee2a0eab8bbcec8914eb6e5bfe90"
        }
    ],
    "commits": 2,
    "commits_url": "https://api.github.com/repos/PrismarineJS/prismarine-viewer/pulls/13/commits",
    "created_at": "2020-07-14T06:24:32Z",
    "deletions": 0,
    "diff_url": "https://github.com/PrismarineJS/prismarine-viewer/pull/13.diff",
    "draft": false,
    "head": {
        "label": "AlexProgrammerDE:master",
        "ref": "master",
        "repo": {
            "allow_forking": true,
            "archive_url": "https://api.github.com/repos/AlexProgrammerDE/prismarine-viewer/{archive_format}{/ref}",
            "archived": false,
            "assignees_url": "https://api.github.com/repos/AlexProgrammerDE/prismarine-viewer/assignees{/user}",
            "blobs_url": "https://api.github.com/repos/AlexProgrammerDE/prismarine-viewer/git/blobs{/sha}",
            "branches_url": "https://api.github.com/repos/AlexProgrammerDE/prismarine-viewer/branches{/branch}",
            "clone_url": "https://github.com/AlexProgrammerDE/prismarine-viewer.git",
            "collaborators_url": "https://api.github.com/repos/AlexProgrammerDE/prismarine-viewer/collaborators{/collaborator}",
            "comments_url": "https://api.github.com/repos/AlexProgrammerDE/prismarine-viewer/comments{/number}",
            "commits_url": "https://api.github.com/repos/AlexProgrammerDE/prismarine-viewer/commits{/sha}",
            "compare_url": "https://api.github.com/repos/AlexProgrammerDE/prismarine-viewer/compare/{base}...{head}",
            "contents_url": "https://api.github.com/repos/AlexProgrammerDE/prismarine-viewer/contents/{+path}",
            "contributors_url": "https://api.github.com/repos/AlexProgrammerDE/prismarine-viewer/contributors",
            "created_at": "2020-07-14T06:20:47Z",
            "default_branch": "master",
            "deployments_url": "https://api.github.com/repos/AlexProgrammerDE/prismarine-viewer/deployments",
            "description": "Web based viewer for servers and bots",
            "disabled": false,
            "downloads_url": "https://api.github.com/repos/AlexProgrammerDE/prismarine-viewer/downloads",
            "events_url": "https://api.github.com/repos/AlexProgrammerDE/prismarine-viewer/events",
            "fork": true,
            "forks": 0,
            "forks_count": 0,
            "forks_url": "https://api.github.com/repos/AlexProgrammerDE/prismarine-viewer/forks",
            "full_name": "AlexProgrammerDE/prismarine-viewer",
            "git_commits_url": "https://api.github.com/repos/AlexProgrammerDE/prismarine-viewer/git/commits{/sha}",
            "git_refs_url": "https://api.github.com/repos/AlexProgrammerDE/prismarine-viewer/git/refs{/sha}",
            "git_tags_url": "https://api.github.com/repos/AlexProgrammerDE/prismarine-viewer/git/tags{/sha}",
            "git_url": "git://github.com/AlexProgrammerDE/prismarine-viewer.git",
            "has_discussions": false,
            "has_downloads": true,
            "has_issues": false,
            "has_pages": false,
            "has_projects": true,
            "has_wiki": true,
            "homepage": "",
            "hooks_url": "https://api.github.com/repos/AlexProgrammerDE/prismarine-viewer/hooks",
            "html_url": "https://github.com/AlexProgrammerDE/prismarine-viewer",
            "id": 279500354,
            "is_template": false,
            "issue_comment_url": "https://api.github.com/repos/AlexProgrammerDE/prismarine-viewer/issues/comments{/number}",
            "issue_events_url": "https://api.github.com/repos/AlexProgrammerDE/prismarine-viewer/issues/events{/number}",
            "issues_url": "https://api.github.com/repos/AlexProgrammerDE/prismarine-viewer/issues{/number}",
            "keys_url": "https://api.github.com/repos/AlexProgrammerDE/prismarine-viewer/keys{/key_id}",
            "labels_url": "https://api.github.com/repos/AlexProgrammerDE/prismarine-viewer/labels{/name}",
            "language": "JavaScript",
            "languages_url": "https://api.github.com/repos/AlexProgrammerDE/prismarine-viewer/languages",
            "license": {
                "key": "mit",
                "name": "MIT License",
                "node_id": "MDc6TGljZW5zZTEz",
                "spdx_id": "MIT",
                "url": "https://api.github.com/licenses/mit"
            },
            "merges_url": "https://api.github.com/repos/AlexProgrammerDE/prismarine-viewer/merges",
            "milestones_url": "https://api.github.com/repos/AlexProgrammerDE/prismarine-viewer/milestones{/number}",
            "mirror_url": null,
            "name": "prismarine-viewer",
            "node_id": "MDEwOlJlcG9zaXRvcnkyNzk1MDAzNTQ=",
            "notifications_url": "https://api.github.com/repos/AlexProgrammerDE/prismarine-viewer/notifications{?since,all,participating}",
            "open_issues": 0,
            "open_issues_count": 0,
            "owner": {
                "avatar_url": "https://avatars.githubusercontent.com/u/40795980?v=4",
                "events_url": "https://api.github.com/users/AlexProgrammerDE/events{/privacy}",
                "followers_url": "https://api.github.com/users/AlexProgrammerDE/followers",
                "following_url": "https://api.github.com/users/AlexProgrammerDE/following{/other_user}",
                "gists_url": "https://api.github.com/users/AlexProgrammerDE/gists{/gist_id}",
                "gravatar_id": "",
                "html_url": "https://github.com/AlexProgrammerDE",
                "id": 40795980,
                "login": "AlexProgrammerDE",
                "node_id": "MDQ6VXNlcjQwNzk1OTgw",
                "organizations_url": "https://api.github.com/users/AlexProgrammerDE/orgs",
                "received_events_url": "https://api.github.com/users/AlexProgrammerDE/received_events",
                "repos_url": "https://api.github.com/users/AlexProgrammerDE/repos",
                "site_admin": false,
                "starred_url": "https://api.github.com/users/AlexProgrammerDE/starred{/owner}{/repo}",
                "subscriptions_url": "https://api.github.com/users/AlexProgrammerDE/subscriptions",
                "type": "User",
                "url": "https://api.github.com/users/AlexProgrammerDE"
            },
            "private": false,
            "pulls_url": "https://api.github.com/repos/AlexProgrammerDE/prismarine-viewer/pulls{/number}",
            "pushed_at": "2023-04-04T00:57:23Z",
            "releases_url": "https://api.github.com/repos/AlexProgrammerDE/prismarine-viewer/releases{/id}",
            "size": 153,
            "ssh_url": "git@github.com:AlexProgrammerDE/prismarine-viewer.git",
            "stargazers_count": 0,
            "stargazers_url": "https://api.github.com/repos/AlexProgrammerDE/prismarine-viewer/stargazers",
            "statuses_url": "https://api.github.com/repos/AlexProgrammerDE/prismarine-viewer/statuses/{sha}",
            "subscribers_url": "https://api.github.com/repos/AlexProgrammerDE/prismarine-viewer/subscribers",
            "subscription_url": "https://api.github.com/repos/AlexProgrammerDE/prismarine-viewer/subscription",
            "svn_url": "https://github.com/AlexProgrammerDE/prismarine-viewer",
            "tags_url": "https://api.github.com/repos/AlexProgrammerDE/prismarine-viewer/tags",
            "teams_url": "https://api.github.com/repos/AlexProgrammerDE/prismarine-viewer/teams",
            "topics": [],
            "trees_url": "https://api.github.com/repos/AlexProgrammerDE/prismarine-viewer/git/trees{/sha}",
            "updated_at": "2020-12-21T20:49:39Z",
            "url": "https://api.github.com/repos/AlexProgrammerDE/prismarine-viewer",
            "visibility": "public",
            "watchers": 0,
            "watchers_count": 0,
            "web_commit_signoff_required": false
        },
        "sha": "dfacdcef5af1ee2a0eab8bbcec8914eb6e5bfe90",
        "user": {
            "avatar_url": "https://avatars.githubusercontent.com/u/40795980?v=4",
            "events_url": "https://api.github.com/users/AlexProgrammerDE/events{/privacy}",
            "followers_url": "https://api.github.com/users/AlexProgrammerDE/followers",
            "following_url": "https://api.github.com/users/AlexProgrammerDE/following{/other_user}",
            "gists_url": "https://api.github.com/users/AlexProgrammerDE/gists{/gist_id}",
            "gravatar_id": "",
            "html_url": "https://github.com/AlexProgrammerDE",
            "id": 40795980,
            "login": "AlexProgrammerDE",
            "node_id": "MDQ6VXNlcjQwNzk1OTgw",
            "organizations_url": "https://api.github.com/users/AlexProgrammerDE/orgs",
            "received_events_url": "https://api.github.com/users/AlexProgrammerDE/received_events",
            "repos_url": "https://api.github.com/users/AlexProgrammerDE/repos",
            "site_admin": false,
            "starred_url": "https://api.github.com/users/AlexProgrammerDE/starred{/owner}{/repo}",
            "subscriptions_url": "https://api.github.com/users/AlexProgrammerDE/subscriptions",
            "type": "User",
            "url": "https://api.github.com/users/AlexProgrammerDE"
        }
    },
    "html_url": "https://github.com/PrismarineJS/prismarine-viewer/pull/13",
    "id": 448674300,
    "issue_url": "https://api.github.com/repos/PrismarineJS/prismarine-viewer/issues/13",
    "labels": [],
    "locked": false,
    "maintainer_can_modify": false,
    "merge_commit_sha": "1bc6fc59f172995eb7b9e0f0454dc8d09fc8049b",
    "mergeable": null,
    "mergeable_state": "unknown",
    "merged": true,
    "merged_at": "2020-07-14T08:01:44Z",
    "merged_by": {
        "avatar_url": "https://avatars.githubusercontent.com/u/2346494?v=4",
        "events_url": "https://api.github.com/users/rom1504/events{/privacy}",
        "followers_url": "https://api.github.com/users/rom1504/followers",
        "following_url": "https://api.github.com/users/rom1504/following{/other_user}",
        "gists_url": "https://api.github.com/users/rom1504/gists{/gist_id}",
        "gravatar_id": "",
        "html_url": "https://github.com/rom1504",
        "id": 2346494,
        "login": "rom1504",
        "node_id": "MDQ6VXNlcjIzNDY0OTQ=",
        "organizations_url": "https://api.github.com/users/rom1504/orgs",
        "received_events_url": "https://api.github.com/users/rom1504/received_events",
        "repos_url": "https://api.github.com/users/rom1504/repos",
        "site_admin": false,
        "starred_url": "https://api.github.com/users/rom1504/starred{/owner}{/repo}",
        "subscriptions_url": "https://api.github.com/users/rom1504/subscriptions",
        "type": "User",
        "url": "https://api.github.com/users/rom1504"
    },
    "milestone": null,
    "node_id": "MDExOlB1bGxSZXF1ZXN0NDQ4Njc0MzAw",
    "number": 13,
    "patch_url": "https://github.com/PrismarineJS/prismarine-viewer/pull/13.patch",
    "rebaseable": null,
    "requested_reviewers": [],
    "requested_teams": [],
    "review_comment_url": "https://api.github.com/repos/PrismarineJS/prismarine-viewer/pulls/comments{/number}",
    "review_comments": 1,
    "review_comments_url": "https://api.github.com/repos/PrismarineJS/prismarine-viewer/pulls/13/comments",
    "state": "closed",
    "statuses_url": "https://api.github.com/repos/PrismarineJS/prismarine-viewer/statuses/dfacdcef5af1ee2a0eab8bbcec8914eb6e5bfe90",
    "title": "Add more npm info to README",
    "updated_at": "2020-07-14T08:01:44Z",
    "url": "https://api.github.com/repos/PrismarineJS/prismarine-viewer/pulls/13",
    "user": {
        "avatar_url": "https://avatars.githubusercontent.com/u/40795980?v=4",
        "events_url": "https://api.github.com/users/AlexProgrammerDE/events{/privacy}",
        "followers_url": "https://api.github.com/users/AlexProgrammerDE/followers",
        "following_url": "https://api.github.com/users/AlexProgrammerDE/following{/other_user}",
        "gists_url": "https://api.github.com/users/AlexProgrammerDE/gists{/gist_id}",
        "gravatar_id": "",
        "html_url": "https://github.com/AlexProgrammerDE",
        "id": 40795980,
        "login": "AlexProgrammerDE",
        "node_id": "MDQ6VXNlcjQwNzk1OTgw",
        "organizations_url": "https://api.github.com/users/AlexProgrammerDE/orgs",
        "received_events_url": "https://api.github.com/users/AlexProgrammerDE/received_events",
        "repos_url": "https://api.github.com/users/AlexProgrammerDE/repos",
        "site_admin": false,
        "starred_url": "https://api.github.com/users/AlexProgrammerDE/starred{/owner}{/repo}",
        "subscriptions_url": "https://api.github.com/users/AlexProgrammerDE/subscriptions",
        "type": "User",
        "url": "https://api.github.com/users/AlexProgrammerDE"
    }
}