{
    "_links": {
        "comments": {
            "href": "https://api.github.com/repos/PrismarineJS/prismarine-viewer/issues/359/comments"
        },
        "commits": {
            "href": "https://api.github.com/repos/PrismarineJS/prismarine-viewer/pulls/359/commits"
        },
        "html": {
            "href": "https://github.com/PrismarineJS/prismarine-viewer/pull/359"
        },
        "issue": {
            "href": "https://api.github.com/repos/PrismarineJS/prismarine-viewer/issues/359"
        },
        "review_comment": {
            "href": "https://api.github.com/repos/PrismarineJS/prismarine-viewer/pulls/comments{/number}"
        },
        "review_comments": {
            "href": "https://api.github.com/repos/PrismarineJS/prismarine-viewer/pulls/359/comments"
        },
        "self": {
            "href": "https://api.github.com/repos/PrismarineJS/prismarine-viewer/pulls/359"
        },
        "statuses": {
            "href": "https://api.github.com/repos/PrismarineJS/prismarine-viewer/statuses/d7af9cf1faeb16e4756487d645a60489315a4bf7"
        }
    },
    "active_lock_reason": null,
    "additions": 4,
    "assignee": null,
    "assignees": [],
    "author_association": "CONTRIBUTOR",
    "auto_merge": null,
    "base": {
        "label": "PrismarineJS:master",
        "ref": "master",
        "repo": {
            "allow_forking": true,
            "archive_url": "https://api.github.com/repos/PrismarineJS/prismarine-viewer/{archive_format}{/ref}",
            "archived": false,
            "assignees_url": "https://api.github.com/repos/PrismarineJS/prismarine-viewer/assignees{/user}",
            "blobs_url": "https://api.github.com/repos/PrismarineJS/prismarine-viewer/git/blobs{/sha}",
            "branches_url": "https://api.github.com/repos/PrismarineJS/prismarine-viewer/branches{/branch}",
            "clone_url": "https://github.com/PrismarineJS/prismarine-viewer.git",
            "collaborators_url": "https://api.github.com/repos/PrismarineJS/prismarine-viewer/collaborators{/collaborator}",
            "comments_url": "https://api.github.com/repos/PrismarineJS/prismarine-viewer/comments{/number}",
            "commits_url": "https://api.github.com/repos/PrismarineJS/prismarine-viewer/commits{/sha}",
            "compare_url": "https://api.github.com/repos/PrismarineJS/prismarine-viewer/compare/{base}...{head}",
            "contents_url": "https://api.github.com/repos/PrismarineJS/prismarine-viewer/contents/{+path}",
            "contributors_url": "https://api.github.com/repos/PrismarineJS/prismarine-viewer/contributors",
            "created_at": "2020-06-10T21:05:49Z",
            "default_branch": "master",
            "deployments_url": "https://api.github.com/repos/PrismarineJS/prismarine-viewer/deployments",
            "description": "Web based viewer for servers and bots",
            "disabled": false,
            "downloads_url": "https://api.github.com/repos/PrismarineJS/prismarine-viewer/downloads",
            "events_url": "https://api.github.com/repos/PrismarineJS/prismarine-viewer/events",
            "fork": false,
            "forks": 56,
            "forks_count": 56,
            "forks_url": "https://api.github.com/repos/PrismarineJS/prismarine-viewer/forks",
            "full_name": "PrismarineJS/prismarine-viewer",
            "git_commits_url": "https://api.github.com/repos/PrismarineJS/prismarine-viewer/git/commits{/sha}",
            "git_refs_url": "https://api.github.com/repos/PrismarineJS/prismarine-viewer/git/refs{/sha}",
            "git_tags_url": "https://api.github.com/repos/PrismarineJS/prismarine-viewer/git/tags{/sha}",
            "git_url": "git://github.com/PrismarineJS/prismarine-viewer.git",
            "has_discussions": false,
            "has_downloads": true,
            "has_issues": true,
            "has_pages": true,
            "has_projects": true,
            "has_wiki": true,
            "homepage": "https://prismarinejs.github.io/prismarine-viewer/",
            "hooks_url": "https://api.github.com/repos/PrismarineJS/prismarine-viewer/hooks",
            "html_url": "https://github.com/PrismarineJS/prismarine-viewer",
            "id": 271385423,
            "is_template": false,
            "issue_comment_url": "https://api.github.com/repos/PrismarineJS/prismarine-viewer/issues/comments{/number}",
            "issue_events_url": "https://api.github.com/repos/PrismarineJS/prismarine-viewer/issues/events{/number}",
            "issues_url": "https://api.github.com/repos/PrismarineJS/prismarine-viewer/issues{/number}",
            "keys_url": "https://api.github.com/repos/PrismarineJS/prismarine-viewer/keys{/key_id}",
            "labels_url": "https://api.github.com/repos/PrismarineJS/prismarine-viewer/labels{/name}",
            "language": "JavaScript",
            "languages_url": "https://api.github.com/repos/PrismarineJS/prismarine-viewer/languages",
            "license": {
                "key": "mit",
                "name": "MIT License",
                "node_id": "MDc6TGljZW5zZTEz",
                "spdx_id": "MIT",
                "url": "https://api.github.com/licenses/mit"
            },
            "merges_url": "https://api.github.com/repos/PrismarineJS/prismarine-viewer/merges",
            "milestones_url": "https://api.github.com/repos/PrismarineJS/prismarine-viewer/milestones{/number}",
            "mirror_url": null,
            "name": "prismarine-viewer",
            "node_id": "MDEwOlJlcG9zaXRvcnkyNzEzODU0MjM=",
            "notifications_url": "https://api.github.com/repos/PrismarineJS/prismarine-viewer/notifications{?since,all,participating}",
            "open_issues": 62,
            "open_issues_count": 62,
            "owner": {
                "avatar_url": "https://avatars.githubusercontent.com/u/11053411?v=4",
                "events_url": "https://api.github.com/users/PrismarineJS/events{/privacy}",
                "followers_url": "https://api.github.com/users/PrismarineJS/followers",
                "following_url": "https://api.github.com/users/PrismarineJS/following{/other_user}",
                "gists_url": "https://api.github.com/users/PrismarineJS/gists{/gist_id}",
                "gravatar_id": "",
                "html_url": "https://github.com/PrismarineJS",
                "id": 11053411,
                "login": "PrismarineJS",
                "node_id": "MDEyOk9yZ2FuaXphdGlvbjExMDUzNDEx",
                "organizations_url": "https://api.github.com/users/PrismarineJS/orgs",
                "received_events_url": "https://api.github.com/users/PrismarineJS/received_events",
                "repos_url": "https://api.github.com/users/PrismarineJS/repos",
                "site_admin": false,
                "starred_url": "https://api.github.com/users/PrismarineJS/starred{/owner}{/repo}",
                "subscriptions_url": "https://api.github.com/users/PrismarineJS/subscriptions",
                "type": "Organization",
                "url": "https://api.github.com/users/PrismarineJS"
            },
            "private": false,
            "pulls_url": "https://api.github.com/repos/PrismarineJS/prismarine-viewer/pulls{/number}",
            "pushed_at": "2023-05-20T13:14:43Z",
            "releases_url": "https://api.github.com/repos/PrismarineJS/prismarine-viewer/releases{/id}",
            "size": 310332,
            "ssh_url": "git@github.com:PrismarineJS/prismarine-viewer.git",
            "stargazers_count": 171,
            "stargazers_url": "https://api.github.com/repos/PrismarineJS/prismarine-viewer/stargazers",
            "statuses_url": "https://api.github.com/repos/PrismarineJS/prismarine-viewer/statuses/{sha}",
            "subscribers_url": "https://api.github.com/repos/PrismarineJS/prismarine-viewer/subscribers",
            "subscription_url": "https://api.github.com/repos/PrismarineJS/prismarine-viewer/subscription",
            "svn_url": "https://github.com/PrismarineJS/prismarine-viewer",
            "tags_url": "https://api.github.com/repos/PrismarineJS/prismarine-viewer/tags",
            "teams_url": "https://api.github.com/repos/PrismarineJS/prismarine-viewer/teams",
            "topics": [],
            "trees_url": "https://api.github.com/repos/PrismarineJS/prismarine-viewer/git/trees{/sha}",
            "updated_at": "2023-05-17T00:23:40Z",
            "url": "https://api.github.com/repos/PrismarineJS/prismarine-viewer",
            "visibility": "public",
            "watchers": 171,
            "watchers_count": 171,
            "web_commit_signoff_required": false
        },
        "sha": "ccf91d3865ec9cd9a2dbb73f06866750ad5096de",
        "user": {
            "avatar_url": "https://avatars.githubusercontent.com/u/11053411?v=4",
            "events_url": "https://api.github.com/users/PrismarineJS/events{/privacy}",
            "followers_url": "https://api.github.com/users/PrismarineJS/followers",
            "following_url": "https://api.github.com/users/PrismarineJS/following{/other_user}",
            "gists_url": "https://api.github.com/users/PrismarineJS/gists{/gist_id}",
            "gravatar_id": "",
            "html_url": "https://github.com/PrismarineJS",
            "id": 11053411,
            "login": "PrismarineJS",
            "node_id": "MDEyOk9yZ2FuaXphdGlvbjExMDUzNDEx",
            "organizations_url": "https://api.github.com/users/PrismarineJS/orgs",
            "received_events_url": "https://api.github.com/users/PrismarineJS/received_events",
            "repos_url": "https://api.github.com/users/PrismarineJS/repos",
            "site_admin": false,
            "starred_url": "https://api.github.com/users/PrismarineJS/starred{/owner}{/repo}",
            "subscriptions_url": "https://api.github.com/users/PrismarineJS/subscriptions",
            "type": "Organization",
            "url": "https://api.github.com/users/PrismarineJS"
        }
    },
    "body": "Redstone Wire wasn't rendered properly because prismarine-viewer didn't process `OR` key of `blocks_states.json`\r\n\r\nBefore:\r\n![image](https://user-images.githubusercontent.com/33594303/221399234-11a69230-1184-4600-b751-6e897d8a72c6.png)\r\n\r\nAfter:\r\n![image](https://user-images.githubusercontent.com/33594303/221399172-d243190e-ce05-42cc-b618-56bb2ded3811.png)\r\n",
    "changed_files": 1,
    "closed_at": "2023-05-20T13:07:57Z",
    "comment_data": [],
    "comment_regular_data": [],
    "comments": 0,
    "comments_url": "https://api.github.com/repos/PrismarineJS/prismarine-viewer/issues/359/comments",
    "commit_data": [
        {
            "author": {
                "avatar_url": "https://avatars.githubusercontent.com/u/33594303?v=4",
                "events_url": "https://api.github.com/users/nova-27/events{/privacy}",
                "followers_url": "https://api.github.com/users/nova-27/followers",
                "following_url": "https://api.github.com/users/nova-27/following{/other_user}",
                "gists_url": "https://api.github.com/users/nova-27/gists{/gist_id}",
                "gravatar_id": "",
                "html_url": "https://github.com/nova-27",
                "id": 33594303,
                "login": "nova-27",
                "node_id": "MDQ6VXNlcjMzNTk0MzAz",
                "organizations_url": "https://api.github.com/users/nova-27/orgs",
                "received_events_url": "https://api.github.com/users/nova-27/received_events",
                "repos_url": "https://api.github.com/users/nova-27/repos",
                "site_admin": false,
                "starred_url": "https://api.github.com/users/nova-27/starred{/owner}{/repo}",
                "subscriptions_url": "https://api.github.com/users/nova-27/subscriptions",
                "type": "User",
                "url": "https://api.github.com/users/nova-27"
            },
            "comments_url": "https://api.github.com/repos/PrismarineJS/prismarine-viewer/commits/e0f34d225619f858b8fa649b0d6bafedcefb753e/comments",
            "commit": {
                "author": {
                    "date": "2023-02-26T08:02:04Z",
                    "email": "33594303+nova-27@users.noreply.github.com",
                    "name": "nova27"
                },
                "comment_count": 0,
                "committer": {
                    "date": "2023-02-26T08:02:04Z",
                    "email": "noreply@github.com",
                    "name": "GitHub"
                },
                "message": "Fix redstone_wire rendering",
                "tree": {
                    "sha": "bea097db1f130488cc2f954843f2544a2dbd4e37",
                    "url": "https://api.github.com/repos/PrismarineJS/prismarine-viewer/git/trees/bea097db1f130488cc2f954843f2544a2dbd4e37"
                },
                "url": "https://api.github.com/repos/PrismarineJS/prismarine-viewer/git/commits/e0f34d225619f858b8fa649b0d6bafedcefb753e",
                "verification": {
                    "payload": "tree bea097db1f130488cc2f954843f2544a2dbd4e37\nparent d051a70a85b48845db303190be5d0f6342e05fc7\nauthor nova27 <33594303+nova-27@users.noreply.github.com> 1677398524 +0900\ncommitter GitHub <noreply@github.com> 1677398524 +0900\n\nFix redstone_wire rendering",
                    "reason": "valid",
                    "signature": "-----BEGIN PGP SIGNATURE-----\n\nwsBcBAABCAAQBQJj+xH8CRBK7hj4Ov3rIwAAwaQIAKJ/dM34Z9B02R+sfXNbfozW\np5cUH5W+zGHt8vh+Amf+oI5n0HJiR9WTlLseGDMRVjs3bCmpIRiTi0lJ/F4kg5z/\nE+w5R9zWGfhUkjjbR+M2NqS8x9IsAxD+oh81y5WfX8QYYlUi1Y/wLHDVfXU4UXw2\nBbPmqs9Rtie484Id7nXyVQe3o5aqAtVXVWFZ7t8UlaEfF9AIhy3XtRNqgGj03ZB5\n74ifLu5WG7RiOHkKA9kSm/oAH8UL19xbIlbSY0nZNIQY+gRG1HXTiQu6eLs/Itmk\nCNeerT3JT/klBDlnZmSvUBtMbWGgj60Mvw7A8VxNwMOMWWydS+6VyQVJ8ezfNJE=\n=bo14\n-----END PGP SIGNATURE-----\n",
                    "verified": true
                }
            },
            "committer": {
                "avatar_url": "https://avatars.githubusercontent.com/u/19864447?v=4",
                "events_url": "https://api.github.com/users/web-flow/events{/privacy}",
                "followers_url": "https://api.github.com/users/web-flow/followers",
                "following_url": "https://api.github.com/users/web-flow/following{/other_user}",
                "gists_url": "https://api.github.com/users/web-flow/gists{/gist_id}",
                "gravatar_id": "",
                "html_url": "https://github.com/web-flow",
                "id": 19864447,
                "login": "web-flow",
                "node_id": "MDQ6VXNlcjE5ODY0NDQ3",
                "organizations_url": "https://api.github.com/users/web-flow/orgs",
                "received_events_url": "https://api.github.com/users/web-flow/received_events",
                "repos_url": "https://api.github.com/users/web-flow/repos",
                "site_admin": false,
                "starred_url": "https://api.github.com/users/web-flow/starred{/owner}{/repo}",
                "subscriptions_url": "https://api.github.com/users/web-flow/subscriptions",
                "type": "User",
                "url": "https://api.github.com/users/web-flow"
            },
            "html_url": "https://github.com/PrismarineJS/prismarine-viewer/commit/e0f34d225619f858b8fa649b0d6bafedcefb753e",
            "node_id": "C_kwDOI_fg79oAKGUwZjM0ZDIyNTYxOWY4NThiOGZhNjQ5YjBkNmJhZmVkY2VmYjc1M2U",
            "parents": [
                {
                    "html_url": "https://github.com/PrismarineJS/prismarine-viewer/commit/d051a70a85b48845db303190be5d0f6342e05fc7",
                    "sha": "d051a70a85b48845db303190be5d0f6342e05fc7",
                    "url": "https://api.github.com/repos/PrismarineJS/prismarine-viewer/commits/d051a70a85b48845db303190be5d0f6342e05fc7"
                }
            ],
            "sha": "e0f34d225619f858b8fa649b0d6bafedcefb753e",
            "url": "https://api.github.com/repos/PrismarineJS/prismarine-viewer/commits/e0f34d225619f858b8fa649b0d6bafedcefb753e"
        },
        {
            "author": {
                "avatar_url": "https://avatars.githubusercontent.com/u/2346494?v=4",
                "events_url": "https://api.github.com/users/rom1504/events{/privacy}",
                "followers_url": "https://api.github.com/users/rom1504/followers",
                "following_url": "https://api.github.com/users/rom1504/following{/other_user}",
                "gists_url": "https://api.github.com/users/rom1504/gists{/gist_id}",
                "gravatar_id": "",
                "html_url": "https://github.com/rom1504",
                "id": 2346494,
                "login": "rom1504",
                "node_id": "MDQ6VXNlcjIzNDY0OTQ=",
                "organizations_url": "https://api.github.com/users/rom1504/orgs",
                "received_events_url": "https://api.github.com/users/rom1504/received_events",
                "repos_url": "https://api.github.com/users/rom1504/repos",
                "site_admin": false,
                "starred_url": "https://api.github.com/users/rom1504/starred{/owner}{/repo}",
                "subscriptions_url": "https://api.github.com/users/rom1504/subscriptions",
                "type": "User",
                "url": "https://api.github.com/users/rom1504"
            },
            "comments_url": "https://api.github.com/repos/PrismarineJS/prismarine-viewer/commits/a3fb7cdce00ec8f2d6d77e12e8435c0662571743/comments",
            "commit": {
                "author": {
                    "date": "2023-03-04T19:05:20Z",
                    "email": "romain.rom1@gmail.com",
                    "name": "Romain Beaumont"
                },
                "comment_count": 0,
                "committer": {
                    "date": "2023-03-04T19:05:20Z",
                    "email": "noreply@github.com",
                    "name": "GitHub"
                },
                "message": "Merge branch 'master' into master",
                "tree": {
                    "sha": "d2d6450a9932237f96795fec7017590584ce25f3",
                    "url": "https://api.github.com/repos/PrismarineJS/prismarine-viewer/git/trees/d2d6450a9932237f96795fec7017590584ce25f3"
                },
                "url": "https://api.github.com/repos/PrismarineJS/prismarine-viewer/git/commits/a3fb7cdce00ec8f2d6d77e12e8435c0662571743",
                "verification": {
                    "payload": "tree d2d6450a9932237f96795fec7017590584ce25f3\nparent e0f34d225619f858b8fa649b0d6bafedcefb753e\nparent 0ad182a6049c610cf1b4b173cdc2a4cf90808813\nauthor Romain Beaumont <romain.rom1@gmail.com> 1677956720 +0100\ncommitter GitHub <noreply@github.com> 1677956720 +0100\n\nMerge branch 'master' into master",
                    "reason": "valid",
                    "signature": "-----BEGIN PGP SIGNATURE-----\n\nwsBcBAABCAAQBQJkA5ZwCRBK7hj4Ov3rIwAAA2MIAGK2Cvc9f4/nULSc0ktCfWsA\nTtC0OJ6HwThWqAPHqf85U5u3gwEvmlq/ZX+vs6mktjRxoxEb6kX4/csRbfVr8eIM\nnQT2Ecpoa2kui52sRj+l/VKkQ3rjuzJBQ+GGNECu09549wzk7aKZebwmGjLtu04a\nILbkrwY+EEYYH9buI5WoQc0UVoaqFijQDTi6x9EfsNDhOHxaCDz2eTyfoFbWjxuZ\n+3SEpxHvYDLujpuI8MHyRlOPQmJCTaLrAND+Xd8v0XR6fqHUzz/HN2oZQcvT9d3J\nK5uNdFbFWscsV38dzeTfNUONPHkw1PARoyXQY4TswXF+zpuMOonudkurod2pO2Q=\n=ThQX\n-----END PGP SIGNATURE-----\n",
                    "verified": true
                }
            },
            "committer": {
                "avatar_url": "https://avatars.githubusercontent.com/u/19864447?v=4",
                "events_url": "https://api.github.com/users/web-flow/events{/privacy}",
                "followers_url": "https://api.github.com/users/web-flow/followers",
                "following_url": "https://api.github.com/users/web-flow/following{/other_user}",
                "gists_url": "https://api.github.com/users/web-flow/gists{/gist_id}",
                "gravatar_id": "",
                "html_url": "https://github.com/web-flow",
                "id": 19864447,
                "login": "web-flow",
                "node_id": "MDQ6VXNlcjE5ODY0NDQ3",
                "organizations_url": "https://api.github.com/users/web-flow/orgs",
                "received_events_url": "https://api.github.com/users/web-flow/received_events",
                "repos_url": "https://api.github.com/users/web-flow/repos",
                "site_admin": false,
                "starred_url": "https://api.github.com/users/web-flow/starred{/owner}{/repo}",
                "subscriptions_url": "https://api.github.com/users/web-flow/subscriptions",
                "type": "User",
                "url": "https://api.github.com/users/web-flow"
            },
            "html_url": "https://github.com/PrismarineJS/prismarine-viewer/commit/a3fb7cdce00ec8f2d6d77e12e8435c0662571743",
            "node_id": "C_kwDOI_fg79oAKGEzZmI3Y2RjZTAwZWM4ZjJkNmQ3N2UxMmU4NDM1YzA2NjI1NzE3NDM",
            "parents": [
                {
                    "html_url": "https://github.com/PrismarineJS/prismarine-viewer/commit/e0f34d225619f858b8fa649b0d6bafedcefb753e",
                    "sha": "e0f34d225619f858b8fa649b0d6bafedcefb753e",
                    "url": "https://api.github.com/repos/PrismarineJS/prismarine-viewer/commits/e0f34d225619f858b8fa649b0d6bafedcefb753e"
                },
                {
                    "html_url": "https://github.com/PrismarineJS/prismarine-viewer/commit/0ad182a6049c610cf1b4b173cdc2a4cf90808813",
                    "sha": "0ad182a6049c610cf1b4b173cdc2a4cf90808813",
                    "url": "https://api.github.com/repos/PrismarineJS/prismarine-viewer/commits/0ad182a6049c610cf1b4b173cdc2a4cf90808813"
                }
            ],
            "sha": "a3fb7cdce00ec8f2d6d77e12e8435c0662571743",
            "url": "https://api.github.com/repos/PrismarineJS/prismarine-viewer/commits/a3fb7cdce00ec8f2d6d77e12e8435c0662571743"
        },
        {
            "author": {
                "avatar_url": "https://avatars.githubusercontent.com/u/33594303?v=4",
                "events_url": "https://api.github.com/users/nova-27/events{/privacy}",
                "followers_url": "https://api.github.com/users/nova-27/followers",
                "following_url": "https://api.github.com/users/nova-27/following{/other_user}",
                "gists_url": "https://api.github.com/users/nova-27/gists{/gist_id}",
                "gravatar_id": "",
                "html_url": "https://github.com/nova-27",
                "id": 33594303,
                "login": "nova-27",
                "node_id": "MDQ6VXNlcjMzNTk0MzAz",
                "organizations_url": "https://api.github.com/users/nova-27/orgs",
                "received_events_url": "https://api.github.com/users/nova-27/received_events",
                "repos_url": "https://api.github.com/users/nova-27/repos",
                "site_admin": false,
                "starred_url": "https://api.github.com/users/nova-27/starred{/owner}{/repo}",
                "subscriptions_url": "https://api.github.com/users/nova-27/subscriptions",
                "type": "User",
                "url": "https://api.github.com/users/nova-27"
            },
            "comments_url": "https://api.github.com/repos/PrismarineJS/prismarine-viewer/commits/423e387b838a9a70910f1962270c2e4b4dc30627/comments",
            "commit": {
                "author": {
                    "date": "2023-03-05T09:26:51Z",
                    "email": "yutodes0305@gmail.com",
                    "name": "nova-27"
                },
                "comment_count": 0,
                "committer": {
                    "date": "2023-03-05T09:26:51Z",
                    "email": "yutodes0305@gmail.com",
                    "name": "nova-27"
                },
                "message": "Fix lint errors",
                "tree": {
                    "sha": "ea6bc92cedf382a74ee7a313fd06f0ce2eb8acc1",
                    "url": "https://api.github.com/repos/PrismarineJS/prismarine-viewer/git/trees/ea6bc92cedf382a74ee7a313fd06f0ce2eb8acc1"
                },
                "url": "https://api.github.com/repos/PrismarineJS/prismarine-viewer/git/commits/423e387b838a9a70910f1962270c2e4b4dc30627",
                "verification": {
                    "payload": null,
                    "reason": "unsigned",
                    "signature": null,
                    "verified": false
                }
            },
            "committer": {
                "avatar_url": "https://avatars.githubusercontent.com/u/33594303?v=4",
                "events_url": "https://api.github.com/users/nova-27/events{/privacy}",
                "followers_url": "https://api.github.com/users/nova-27/followers",
                "following_url": "https://api.github.com/users/nova-27/following{/other_user}",
                "gists_url": "https://api.github.com/users/nova-27/gists{/gist_id}",
                "gravatar_id": "",
                "html_url": "https://github.com/nova-27",
                "id": 33594303,
                "login": "nova-27",
                "node_id": "MDQ6VXNlcjMzNTk0MzAz",
                "organizations_url": "https://api.github.com/users/nova-27/orgs",
                "received_events_url": "https://api.github.com/users/nova-27/received_events",
                "repos_url": "https://api.github.com/users/nova-27/repos",
                "site_admin": false,
                "starred_url": "https://api.github.com/users/nova-27/starred{/owner}{/repo}",
                "subscriptions_url": "https://api.github.com/users/nova-27/subscriptions",
                "type": "User",
                "url": "https://api.github.com/users/nova-27"
            },
            "html_url": "https://github.com/PrismarineJS/prismarine-viewer/commit/423e387b838a9a70910f1962270c2e4b4dc30627",
            "node_id": "C_kwDOI_fg79oAKDQyM2UzODdiODM4YTlhNzA5MTBmMTk2MjI3MGMyZTRiNGRjMzA2Mjc",
            "parents": [
                {
                    "html_url": "https://github.com/PrismarineJS/prismarine-viewer/commit/a3fb7cdce00ec8f2d6d77e12e8435c0662571743",
                    "sha": "a3fb7cdce00ec8f2d6d77e12e8435c0662571743",
                    "url": "https://api.github.com/repos/PrismarineJS/prismarine-viewer/commits/a3fb7cdce00ec8f2d6d77e12e8435c0662571743"
                }
            ],
            "sha": "423e387b838a9a70910f1962270c2e4b4dc30627",
            "url": "https://api.github.com/repos/PrismarineJS/prismarine-viewer/commits/423e387b838a9a70910f1962270c2e4b4dc30627"
        },
        {
            "author": {
                "avatar_url": "https://avatars.githubusercontent.com/u/33594303?v=4",
                "events_url": "https://api.github.com/users/nova-27/events{/privacy}",
                "followers_url": "https://api.github.com/users/nova-27/followers",
                "following_url": "https://api.github.com/users/nova-27/following{/other_user}",
                "gists_url": "https://api.github.com/users/nova-27/gists{/gist_id}",
                "gravatar_id": "",
                "html_url": "https://github.com/nova-27",
                "id": 33594303,
                "login": "nova-27",
                "node_id": "MDQ6VXNlcjMzNTk0MzAz",
                "organizations_url": "https://api.github.com/users/nova-27/orgs",
                "received_events_url": "https://api.github.com/users/nova-27/received_events",
                "repos_url": "https://api.github.com/users/nova-27/repos",
                "site_admin": false,
                "starred_url": "https://api.github.com/users/nova-27/starred{/owner}{/repo}",
                "subscriptions_url": "https://api.github.com/users/nova-27/subscriptions",
                "type": "User",
                "url": "https://api.github.com/users/nova-27"
            },
            "comments_url": "https://api.github.com/repos/PrismarineJS/prismarine-viewer/commits/7b754b86a6e8485022cc0f7bc73723643156346c/comments",
            "commit": {
                "author": {
                    "date": "2023-03-05T11:14:26Z",
                    "email": "yutodes0305@gmail.com",
                    "name": "nova-27"
                },
                "comment_count": 0,
                "committer": {
                    "date": "2023-03-05T11:14:26Z",
                    "email": "yutodes0305@gmail.com",
                    "name": "nova-27"
                },
                "message": "Fix typeerror",
                "tree": {
                    "sha": "4025dacbccfe217cbdfe473ebae6901b71600062",
                    "url": "https://api.github.com/repos/PrismarineJS/prismarine-viewer/git/trees/4025dacbccfe217cbdfe473ebae6901b71600062"
                },
                "url": "https://api.github.com/repos/PrismarineJS/prismarine-viewer/git/commits/7b754b86a6e8485022cc0f7bc73723643156346c",
                "verification": {
                    "payload": null,
                    "reason": "unsigned",
                    "signature": null,
                    "verified": false
                }
            },
            "committer": {
                "avatar_url": "https://avatars.githubusercontent.com/u/33594303?v=4",
                "events_url": "https://api.github.com/users/nova-27/events{/privacy}",
                "followers_url": "https://api.github.com/users/nova-27/followers",
                "following_url": "https://api.github.com/users/nova-27/following{/other_user}",
                "gists_url": "https://api.github.com/users/nova-27/gists{/gist_id}",
                "gravatar_id": "",
                "html_url": "https://github.com/nova-27",
                "id": 33594303,
                "login": "nova-27",
                "node_id": "MDQ6VXNlcjMzNTk0MzAz",
                "organizations_url": "https://api.github.com/users/nova-27/orgs",
                "received_events_url": "https://api.github.com/users/nova-27/received_events",
                "repos_url": "https://api.github.com/users/nova-27/repos",
                "site_admin": false,
                "starred_url": "https://api.github.com/users/nova-27/starred{/owner}{/repo}",
                "subscriptions_url": "https://api.github.com/users/nova-27/subscriptions",
                "type": "User",
                "url": "https://api.github.com/users/nova-27"
            },
            "html_url": "https://github.com/PrismarineJS/prismarine-viewer/commit/7b754b86a6e8485022cc0f7bc73723643156346c",
            "node_id": "C_kwDOI_fg79oAKDdiNzU0Yjg2YTZlODQ4NTAyMmNjMGY3YmM3MzcyMzY0MzE1NjM0NmM",
            "parents": [
                {
                    "html_url": "https://github.com/PrismarineJS/prismarine-viewer/commit/423e387b838a9a70910f1962270c2e4b4dc30627",
                    "sha": "423e387b838a9a70910f1962270c2e4b4dc30627",
                    "url": "https://api.github.com/repos/PrismarineJS/prismarine-viewer/commits/423e387b838a9a70910f1962270c2e4b4dc30627"
                }
            ],
            "sha": "7b754b86a6e8485022cc0f7bc73723643156346c",
            "url": "https://api.github.com/repos/PrismarineJS/prismarine-viewer/commits/7b754b86a6e8485022cc0f7bc73723643156346c"
        },
        {
            "author": {
                "avatar_url": "https://avatars.githubusercontent.com/u/33594303?v=4",
                "events_url": "https://api.github.com/users/nova-27/events{/privacy}",
                "followers_url": "https://api.github.com/users/nova-27/followers",
                "following_url": "https://api.github.com/users/nova-27/following{/other_user}",
                "gists_url": "https://api.github.com/users/nova-27/gists{/gist_id}",
                "gravatar_id": "",
                "html_url": "https://github.com/nova-27",
                "id": 33594303,
                "login": "nova-27",
                "node_id": "MDQ6VXNlcjMzNTk0MzAz",
                "organizations_url": "https://api.github.com/users/nova-27/orgs",
                "received_events_url": "https://api.github.com/users/nova-27/received_events",
                "repos_url": "https://api.github.com/users/nova-27/repos",
                "site_admin": false,
                "starred_url": "https://api.github.com/users/nova-27/starred{/owner}{/repo}",
                "subscriptions_url": "https://api.github.com/users/nova-27/subscriptions",
                "type": "User",
                "url": "https://api.github.com/users/nova-27"
            },
            "comments_url": "https://api.github.com/repos/PrismarineJS/prismarine-viewer/commits/7f1b53ae768b9578f0d548ba81d2a99edb2f4cb1/comments",
            "commit": {
                "author": {
                    "date": "2023-03-26T14:50:25Z",
                    "email": "33594303+nova-27@users.noreply.github.com",
                    "name": "nova27"
                },
                "comment_count": 0,
                "committer": {
                    "date": "2023-03-26T14:50:25Z",
                    "email": "noreply@github.com",
                    "name": "GitHub"
                },
                "message": "Update models.js",
                "tree": {
                    "sha": "8a6d7f83fa71daed34c6c35dce4ad0a672b6b20a",
                    "url": "https://api.github.com/repos/PrismarineJS/prismarine-viewer/git/trees/8a6d7f83fa71daed34c6c35dce4ad0a672b6b20a"
                },
                "url": "https://api.github.com/repos/PrismarineJS/prismarine-viewer/git/commits/7f1b53ae768b9578f0d548ba81d2a99edb2f4cb1",
                "verification": {
                    "payload": "tree 8a6d7f83fa71daed34c6c35dce4ad0a672b6b20a\nparent 7b754b86a6e8485022cc0f7bc73723643156346c\nauthor nova27 <33594303+nova-27@users.noreply.github.com> 1679842225 +0900\ncommitter GitHub <noreply@github.com> 1679842225 +0900\n\nUpdate models.js",
                    "reason": "valid",
                    "signature": "-----BEGIN PGP SIGNATURE-----\n\nwsBcBAABCAAQBQJkIFuxCRBK7hj4Ov3rIwAAtBEIALNTrfmxMuaskCZiKNKzDy0s\noypl2qEYMBHCchwzr3Q/BDLr4eJBlZpwWhhGPGIkuU3KJma48EfuefJ+Z4jiXo37\nXfugiY0khQAKqpncc+oMq81PDlVa1PqD3ImDzRVJCvbyHb+wTU/7Y9BjEQE2msV6\nr20tBgeLddzuhlIp2USIHUVoMRJToK+DwOsgrM2yu/kK1NvUiVaK6mkdI6FzlyfO\nEMoRP+wXzryYjKVoXPQDHpHhcQjW+9NDp98trxyRP3jmlc/q45y5mRgMDuQzgEUB\n39vLkX/+Y5ql2ye4Qe7jyyPLrpX4AHRIkCo5vOd08BZetJL4ER2rQJUU3Jp/qLU=\n=0BLR\n-----END PGP SIGNATURE-----\n",
                    "verified": true
                }
            },
            "committer": {
                "avatar_url": "https://avatars.githubusercontent.com/u/19864447?v=4",
                "events_url": "https://api.github.com/users/web-flow/events{/privacy}",
                "followers_url": "https://api.github.com/users/web-flow/followers",
                "following_url": "https://api.github.com/users/web-flow/following{/other_user}",
                "gists_url": "https://api.github.com/users/web-flow/gists{/gist_id}",
                "gravatar_id": "",
                "html_url": "https://github.com/web-flow",
                "id": 19864447,
                "login": "web-flow",
                "node_id": "MDQ6VXNlcjE5ODY0NDQ3",
                "organizations_url": "https://api.github.com/users/web-flow/orgs",
                "received_events_url": "https://api.github.com/users/web-flow/received_events",
                "repos_url": "https://api.github.com/users/web-flow/repos",
                "site_admin": false,
                "starred_url": "https://api.github.com/users/web-flow/starred{/owner}{/repo}",
                "subscriptions_url": "https://api.github.com/users/web-flow/subscriptions",
                "type": "User",
                "url": "https://api.github.com/users/web-flow"
            },
            "html_url": "https://github.com/PrismarineJS/prismarine-viewer/commit/7f1b53ae768b9578f0d548ba81d2a99edb2f4cb1",
            "node_id": "C_kwDOI_fg79oAKDdmMWI1M2FlNzY4Yjk1NzhmMGQ1NDhiYTgxZDJhOTllZGIyZjRjYjE",
            "parents": [
                {
                    "html_url": "https://github.com/PrismarineJS/prismarine-viewer/commit/7b754b86a6e8485022cc0f7bc73723643156346c",
                    "sha": "7b754b86a6e8485022cc0f7bc73723643156346c",
                    "url": "https://api.github.com/repos/PrismarineJS/prismarine-viewer/commits/7b754b86a6e8485022cc0f7bc73723643156346c"
                }
            ],
            "sha": "7f1b53ae768b9578f0d548ba81d2a99edb2f4cb1",
            "url": "https://api.github.com/repos/PrismarineJS/prismarine-viewer/commits/7f1b53ae768b9578f0d548ba81d2a99edb2f4cb1"
        },
        {
            "author": {
                "avatar_url": "https://avatars.githubusercontent.com/u/33594303?v=4",
                "events_url": "https://api.github.com/users/nova-27/events{/privacy}",
                "followers_url": "https://api.github.com/users/nova-27/followers",
                "following_url": "https://api.github.com/users/nova-27/following{/other_user}",
                "gists_url": "https://api.github.com/users/nova-27/gists{/gist_id}",
                "gravatar_id": "",
                "html_url": "https://github.com/nova-27",
                "id": 33594303,
                "login": "nova-27",
                "node_id": "MDQ6VXNlcjMzNTk0MzAz",
                "organizations_url": "https://api.github.com/users/nova-27/orgs",
                "received_events_url": "https://api.github.com/users/nova-27/received_events",
                "repos_url": "https://api.github.com/users/nova-27/repos",
                "site_admin": false,
                "starred_url": "https://api.github.com/users/nova-27/starred{/owner}{/repo}",
                "subscriptions_url": "https://api.github.com/users/nova-27/subscriptions",
                "type": "User",
                "url": "https://api.github.com/users/nova-27"
            },
            "comments_url": "https://api.github.com/repos/PrismarineJS/prismarine-viewer/commits/2b36204eea4306fcf29a1de4d2719006f894009d/comments",
            "commit": {
                "author": {
                    "date": "2023-03-27T16:43:54Z",
                    "email": "33594303+nova-27@users.noreply.github.com",
                    "name": "nova27"
                },
                "comment_count": 0,
                "committer": {
                    "date": "2023-03-27T16:43:54Z",
                    "email": "noreply@github.com",
                    "name": "GitHub"
                },
                "message": "Update models.js",
                "tree": {
                    "sha": "c5903a79d6f4b0b3ab4130ebcfa0f690af7f5037",
                    "url": "https://api.github.com/repos/PrismarineJS/prismarine-viewer/git/trees/c5903a79d6f4b0b3ab4130ebcfa0f690af7f5037"
                },
                "url": "https://api.github.com/repos/PrismarineJS/prismarine-viewer/git/commits/2b36204eea4306fcf29a1de4d2719006f894009d",
                "verification": {
                    "payload": "tree c5903a79d6f4b0b3ab4130ebcfa0f690af7f5037\nparent 7f1b53ae768b9578f0d548ba81d2a99edb2f4cb1\nauthor nova27 <33594303+nova-27@users.noreply.github.com> 1679935434 +0900\ncommitter GitHub <noreply@github.com> 1679935434 +0900\n\nUpdate models.js",
                    "reason": "valid",
                    "signature": "-----BEGIN PGP SIGNATURE-----\n\nwsBcBAABCAAQBQJkIcfKCRBK7hj4Ov3rIwAAzN0IACLHJyOl3VxQ9bvEnaYM6ULo\n3dIfJ8mU38AOwsYDB343TOBo1MBJ0WjZ4LM4YFCaICoZiYkhEkuSXmBGZUAt6qkv\nn1BUCbdMptZrNjEtacA/DvLJpXuYbcikgOlvyrR6j9YjY99ek2Ew8VZD+6B4cxzh\nhyzYH/Jy5XxIUAq0xujYDokYVHkdwesXxNDuVwRzRLl6pJjjoKWp59k76CA76Oeq\nrJtv1tbj5XKuql4TGZgA8hniAQbCF7Q4L8c4WDS9oQZANie4P9L8t2jySDzrGEfN\npY9sR+tySMK5nOF3OM5gY2LEiQSEgQPmXeaMsiadEakWIN17ewQfDY3UR0/Ep9Y=\n=cHb/\n-----END PGP SIGNATURE-----\n",
                    "verified": true
                }
            },
            "committer": {
                "avatar_url": "https://avatars.githubusercontent.com/u/19864447?v=4",
                "events_url": "https://api.github.com/users/web-flow/events{/privacy}",
                "followers_url": "https://api.github.com/users/web-flow/followers",
                "following_url": "https://api.github.com/users/web-flow/following{/other_user}",
                "gists_url": "https://api.github.com/users/web-flow/gists{/gist_id}",
                "gravatar_id": "",
                "html_url": "https://github.com/web-flow",
                "id": 19864447,
                "login": "web-flow",
                "node_id": "MDQ6VXNlcjE5ODY0NDQ3",
                "organizations_url": "https://api.github.com/users/web-flow/orgs",
                "received_events_url": "https://api.github.com/users/web-flow/received_events",
                "repos_url": "https://api.github.com/users/web-flow/repos",
                "site_admin": false,
                "starred_url": "https://api.github.com/users/web-flow/starred{/owner}{/repo}",
                "subscriptions_url": "https://api.github.com/users/web-flow/subscriptions",
                "type": "User",
                "url": "https://api.github.com/users/web-flow"
            },
            "html_url": "https://github.com/PrismarineJS/prismarine-viewer/commit/2b36204eea4306fcf29a1de4d2719006f894009d",
            "node_id": "C_kwDOI_fg79oAKDJiMzYyMDRlZWE0MzA2ZmNmMjlhMWRlNGQyNzE5MDA2Zjg5NDAwOWQ",
            "parents": [
                {
                    "html_url": "https://github.com/PrismarineJS/prismarine-viewer/commit/7f1b53ae768b9578f0d548ba81d2a99edb2f4cb1",
                    "sha": "7f1b53ae768b9578f0d548ba81d2a99edb2f4cb1",
                    "url": "https://api.github.com/repos/PrismarineJS/prismarine-viewer/commits/7f1b53ae768b9578f0d548ba81d2a99edb2f4cb1"
                }
            ],
            "sha": "2b36204eea4306fcf29a1de4d2719006f894009d",
            "url": "https://api.github.com/repos/PrismarineJS/prismarine-viewer/commits/2b36204eea4306fcf29a1de4d2719006f894009d"
        },
        {
            "author": {
                "avatar_url": "https://avatars.githubusercontent.com/u/33594303?v=4",
                "events_url": "https://api.github.com/users/nova-27/events{/privacy}",
                "followers_url": "https://api.github.com/users/nova-27/followers",
                "following_url": "https://api.github.com/users/nova-27/following{/other_user}",
                "gists_url": "https://api.github.com/users/nova-27/gists{/gist_id}",
                "gravatar_id": "",
                "html_url": "https://github.com/nova-27",
                "id": 33594303,
                "login": "nova-27",
                "node_id": "MDQ6VXNlcjMzNTk0MzAz",
                "organizations_url": "https://api.github.com/users/nova-27/orgs",
                "received_events_url": "https://api.github.com/users/nova-27/received_events",
                "repos_url": "https://api.github.com/users/nova-27/repos",
                "site_admin": false,
                "starred_url": "https://api.github.com/users/nova-27/starred{/owner}{/repo}",
                "subscriptions_url": "https://api.github.com/users/nova-27/subscriptions",
                "type": "User",
                "url": "https://api.github.com/users/nova-27"
            },
            "comments_url": "https://api.github.com/repos/PrismarineJS/prismarine-viewer/commits/d7af9cf1faeb16e4756487d645a60489315a4bf7/comments",
            "commit": {
                "author": {
                    "date": "2023-04-30T05:15:19Z",
                    "email": "33594303+nova-27@users.noreply.github.com",
                    "name": "nova27"
                },
                "comment_count": 0,
                "committer": {
                    "date": "2023-04-30T05:15:19Z",
                    "email": "noreply@github.com",
                    "name": "GitHub"
                },
                "message": "Merge branch 'PrismarineJS:master' into master",
                "tree": {
                    "sha": "be4bff6a3ef7a5752c3e16bb3b6ff6e8a695fc7a",
                    "url": "https://api.github.com/repos/PrismarineJS/prismarine-viewer/git/trees/be4bff6a3ef7a5752c3e16bb3b6ff6e8a695fc7a"
                },
                "url": "https://api.github.com/repos/PrismarineJS/prismarine-viewer/git/commits/d7af9cf1faeb16e4756487d645a60489315a4bf7",
                "verification": {
                    "payload": "tree be4bff6a3ef7a5752c3e16bb3b6ff6e8a695fc7a\nparent 2b36204eea4306fcf29a1de4d2719006f894009d\nparent ccf91d3865ec9cd9a2dbb73f06866750ad5096de\nauthor nova27 <33594303+nova-27@users.noreply.github.com> 1682831719 +0900\ncommitter GitHub <noreply@github.com> 1682831719 +0900\n\nMerge branch 'PrismarineJS:master' into master\n",
                    "reason": "valid",
                    "signature": "-----BEGIN PGP SIGNATURE-----\n\nwsBcBAABCAAQBQJkTflnCRBK7hj4Ov3rIwAAMI4IAG8yG8e4BsOl7+SBIzBT7RK0\nZBBDL1VxvLeY3+ubZm1GECwIZwtTGM77S6c8dIZe6Ueo+yie2PzCTTXQlk00g+Fq\nuNS7QVTowLZgLtKD44j/A0n0J24ujITUjSmI/cV3hCQUcSapslXYp3pozYu3fMj7\nVV6P3GFkVvpZoJNNV8QEWMVlzLI3+4KBO5WBH5lUEbtqswE3pcrZ+i7oQbP0dTk5\nXnx5F0TYb3yZprJeOXclTMbGa8+ZDo7Z8y4Ec6Yn+n9jzrabJV8wdqw7chf+mrfP\np2dACZoAseliY5/PkNy05ueK6+aP9ah8JuNvlNLISx7BIB6ddbiLe5i+Pty7FuA=\n=ZdlX\n-----END PGP SIGNATURE-----\n",
                    "verified": true
                }
            },
            "committer": {
                "avatar_url": "https://avatars.githubusercontent.com/u/19864447?v=4",
                "events_url": "https://api.github.com/users/web-flow/events{/privacy}",
                "followers_url": "https://api.github.com/users/web-flow/followers",
                "following_url": "https://api.github.com/users/web-flow/following{/other_user}",
                "gists_url": "https://api.github.com/users/web-flow/gists{/gist_id}",
                "gravatar_id": "",
                "html_url": "https://github.com/web-flow",
                "id": 19864447,
                "login": "web-flow",
                "node_id": "MDQ6VXNlcjE5ODY0NDQ3",
                "organizations_url": "https://api.github.com/users/web-flow/orgs",
                "received_events_url": "https://api.github.com/users/web-flow/received_events",
                "repos_url": "https://api.github.com/users/web-flow/repos",
                "site_admin": false,
                "starred_url": "https://api.github.com/users/web-flow/starred{/owner}{/repo}",
                "subscriptions_url": "https://api.github.com/users/web-flow/subscriptions",
                "type": "User",
                "url": "https://api.github.com/users/web-flow"
            },
            "html_url": "https://github.com/PrismarineJS/prismarine-viewer/commit/d7af9cf1faeb16e4756487d645a60489315a4bf7",
            "node_id": "C_kwDOI_fg79oAKGQ3YWY5Y2YxZmFlYjE2ZTQ3NTY0ODdkNjQ1YTYwNDg5MzE1YTRiZjc",
            "parents": [
                {
                    "html_url": "https://github.com/PrismarineJS/prismarine-viewer/commit/2b36204eea4306fcf29a1de4d2719006f894009d",
                    "sha": "2b36204eea4306fcf29a1de4d2719006f894009d",
                    "url": "https://api.github.com/repos/PrismarineJS/prismarine-viewer/commits/2b36204eea4306fcf29a1de4d2719006f894009d"
                },
                {
                    "html_url": "https://github.com/PrismarineJS/prismarine-viewer/commit/ccf91d3865ec9cd9a2dbb73f06866750ad5096de",
                    "sha": "ccf91d3865ec9cd9a2dbb73f06866750ad5096de",
                    "url": "https://api.github.com/repos/PrismarineJS/prismarine-viewer/commits/ccf91d3865ec9cd9a2dbb73f06866750ad5096de"
                }
            ],
            "sha": "d7af9cf1faeb16e4756487d645a60489315a4bf7",
            "url": "https://api.github.com/repos/PrismarineJS/prismarine-viewer/commits/d7af9cf1faeb16e4756487d645a60489315a4bf7"
        }
    ],
    "commits": 7,
    "commits_url": "https://api.github.com/repos/PrismarineJS/prismarine-viewer/pulls/359/commits",
    "created_at": "2023-02-26T08:12:33Z",
    "deletions": 1,
    "diff_url": "https://github.com/PrismarineJS/prismarine-viewer/pull/359.diff",
    "draft": false,
    "head": {
        "label": "nova-27:master",
        "ref": "master",
        "repo": {
            "allow_forking": true,
            "archive_url": "https://api.github.com/repos/nova-27/prismarine-viewer/{archive_format}{/ref}",
            "archived": false,
            "assignees_url": "https://api.github.com/repos/nova-27/prismarine-viewer/assignees{/user}",
            "blobs_url": "https://api.github.com/repos/nova-27/prismarine-viewer/git/blobs{/sha}",
            "branches_url": "https://api.github.com/repos/nova-27/prismarine-viewer/branches{/branch}",
            "clone_url": "https://github.com/nova-27/prismarine-viewer.git",
            "collaborators_url": "https://api.github.com/repos/nova-27/prismarine-viewer/collaborators{/collaborator}",
            "comments_url": "https://api.github.com/repos/nova-27/prismarine-viewer/comments{/number}",
            "commits_url": "https://api.github.com/repos/nova-27/prismarine-viewer/commits{/sha}",
            "compare_url": "https://api.github.com/repos/nova-27/prismarine-viewer/compare/{base}...{head}",
            "contents_url": "https://api.github.com/repos/nova-27/prismarine-viewer/contents/{+path}",
            "contributors_url": "https://api.github.com/repos/nova-27/prismarine-viewer/contributors",
            "created_at": "2023-02-18T14:45:16Z",
            "default_branch": "master",
            "deployments_url": "https://api.github.com/repos/nova-27/prismarine-viewer/deployments",
            "description": "Web based viewer for servers and bots",
            "disabled": false,
            "downloads_url": "https://api.github.com/repos/nova-27/prismarine-viewer/downloads",
            "events_url": "https://api.github.com/repos/nova-27/prismarine-viewer/events",
            "fork": true,
            "forks": 0,
            "forks_count": 0,
            "forks_url": "https://api.github.com/repos/nova-27/prismarine-viewer/forks",
            "full_name": "nova-27/prismarine-viewer",
            "git_commits_url": "https://api.github.com/repos/nova-27/prismarine-viewer/git/commits{/sha}",
            "git_refs_url": "https://api.github.com/repos/nova-27/prismarine-viewer/git/refs{/sha}",
            "git_tags_url": "https://api.github.com/repos/nova-27/prismarine-viewer/git/tags{/sha}",
            "git_url": "git://github.com/nova-27/prismarine-viewer.git",
            "has_discussions": false,
            "has_downloads": true,
            "has_issues": false,
            "has_pages": false,
            "has_projects": true,
            "has_wiki": true,
            "homepage": "https://prismarine.js.org/prismarine-viewer/standalone/",
            "hooks_url": "https://api.github.com/repos/nova-27/prismarine-viewer/hooks",
            "html_url": "https://github.com/nova-27/prismarine-viewer",
            "id": 603447535,
            "is_template": false,
            "issue_comment_url": "https://api.github.com/repos/nova-27/prismarine-viewer/issues/comments{/number}",
            "issue_events_url": "https://api.github.com/repos/nova-27/prismarine-viewer/issues/events{/number}",
            "issues_url": "https://api.github.com/repos/nova-27/prismarine-viewer/issues{/number}",
            "keys_url": "https://api.github.com/repos/nova-27/prismarine-viewer/keys{/key_id}",
            "labels_url": "https://api.github.com/repos/nova-27/prismarine-viewer/labels{/name}",
            "language": "JavaScript",
            "languages_url": "https://api.github.com/repos/nova-27/prismarine-viewer/languages",
            "license": {
                "key": "mit",
                "name": "MIT License",
                "node_id": "MDc6TGljZW5zZTEz",
                "spdx_id": "MIT",
                "url": "https://api.github.com/licenses/mit"
            },
            "merges_url": "https://api.github.com/repos/nova-27/prismarine-viewer/merges",
            "milestones_url": "https://api.github.com/repos/nova-27/prismarine-viewer/milestones{/number}",
            "mirror_url": null,
            "name": "prismarine-viewer",
            "node_id": "R_kgDOI_fg7w",
            "notifications_url": "https://api.github.com/repos/nova-27/prismarine-viewer/notifications{?since,all,participating}",
            "open_issues": 0,
            "open_issues_count": 0,
            "owner": {
                "avatar_url": "https://avatars.githubusercontent.com/u/33594303?v=4",
                "events_url": "https://api.github.com/users/nova-27/events{/privacy}",
                "followers_url": "https://api.github.com/users/nova-27/followers",
                "following_url": "https://api.github.com/users/nova-27/following{/other_user}",
                "gists_url": "https://api.github.com/users/nova-27/gists{/gist_id}",
                "gravatar_id": "",
                "html_url": "https://github.com/nova-27",
                "id": 33594303,
                "login": "nova-27",
                "node_id": "MDQ6VXNlcjMzNTk0MzAz",
                "organizations_url": "https://api.github.com/users/nova-27/orgs",
                "received_events_url": "https://api.github.com/users/nova-27/received_events",
                "repos_url": "https://api.github.com/users/nova-27/repos",
                "site_admin": false,
                "starred_url": "https://api.github.com/users/nova-27/starred{/owner}{/repo}",
                "subscriptions_url": "https://api.github.com/users/nova-27/subscriptions",
                "type": "User",
                "url": "https://api.github.com/users/nova-27"
            },
            "private": false,
            "pulls_url": "https://api.github.com/repos/nova-27/prismarine-viewer/pulls{/number}",
            "pushed_at": "2023-04-30T05:15:19Z",
            "releases_url": "https://api.github.com/repos/nova-27/prismarine-viewer/releases{/id}",
            "size": 397,
            "ssh_url": "git@github.com:nova-27/prismarine-viewer.git",
            "stargazers_count": 0,
            "stargazers_url": "https://api.github.com/repos/nova-27/prismarine-viewer/stargazers",
            "statuses_url": "https://api.github.com/repos/nova-27/prismarine-viewer/statuses/{sha}",
            "subscribers_url": "https://api.github.com/repos/nova-27/prismarine-viewer/subscribers",
            "subscription_url": "https://api.github.com/repos/nova-27/prismarine-viewer/subscription",
            "svn_url": "https://github.com/nova-27/prismarine-viewer",
            "tags_url": "https://api.github.com/repos/nova-27/prismarine-viewer/tags",
            "teams_url": "https://api.github.com/repos/nova-27/prismarine-viewer/teams",
            "topics": [],
            "trees_url": "https://api.github.com/repos/nova-27/prismarine-viewer/git/trees{/sha}",
            "updated_at": "2023-02-26T08:02:08Z",
            "url": "https://api.github.com/repos/nova-27/prismarine-viewer",
            "visibility": "public",
            "watchers": 0,
            "watchers_count": 0,
            "web_commit_signoff_required": false
        },
        "sha": "d7af9cf1faeb16e4756487d645a60489315a4bf7",
        "user": {
            "avatar_url": "https://avatars.githubusercontent.com/u/33594303?v=4",
            "events_url": "https://api.github.com/users/nova-27/events{/privacy}",
            "followers_url": "https://api.github.com/users/nova-27/followers",
            "following_url": "https://api.github.com/users/nova-27/following{/other_user}",
            "gists_url": "https://api.github.com/users/nova-27/gists{/gist_id}",
            "gravatar_id": "",
            "html_url": "https://github.com/nova-27",
            "id": 33594303,
            "login": "nova-27",
            "node_id": "MDQ6VXNlcjMzNTk0MzAz",
            "organizations_url": "https://api.github.com/users/nova-27/orgs",
            "received_events_url": "https://api.github.com/users/nova-27/received_events",
            "repos_url": "https://api.github.com/users/nova-27/repos",
            "site_admin": false,
            "starred_url": "https://api.github.com/users/nova-27/starred{/owner}{/repo}",
            "subscriptions_url": "https://api.github.com/users/nova-27/subscriptions",
            "type": "User",
            "url": "https://api.github.com/users/nova-27"
        }
    },
    "html_url": "https://github.com/PrismarineJS/prismarine-viewer/pull/359",
    "id": 1254418220,
    "issue_url": "https://api.github.com/repos/PrismarineJS/prismarine-viewer/issues/359",
    "labels": [],
    "locked": false,
    "maintainer_can_modify": false,
    "merge_commit_sha": "9571d5da405846c276bf563dfe939267ae12f151",
    "mergeable": null,
    "mergeable_state": "unknown",
    "merged": true,
    "merged_at": "2023-05-20T13:07:57Z",
    "merged_by": {
        "avatar_url": "https://avatars.githubusercontent.com/u/2346494?v=4",
        "events_url": "https://api.github.com/users/rom1504/events{/privacy}",
        "followers_url": "https://api.github.com/users/rom1504/followers",
        "following_url": "https://api.github.com/users/rom1504/following{/other_user}",
        "gists_url": "https://api.github.com/users/rom1504/gists{/gist_id}",
        "gravatar_id": "",
        "html_url": "https://github.com/rom1504",
        "id": 2346494,
        "login": "rom1504",
        "node_id": "MDQ6VXNlcjIzNDY0OTQ=",
        "organizations_url": "https://api.github.com/users/rom1504/orgs",
        "received_events_url": "https://api.github.com/users/rom1504/received_events",
        "repos_url": "https://api.github.com/users/rom1504/repos",
        "site_admin": false,
        "starred_url": "https://api.github.com/users/rom1504/starred{/owner}{/repo}",
        "subscriptions_url": "https://api.github.com/users/rom1504/subscriptions",
        "type": "User",
        "url": "https://api.github.com/users/rom1504"
    },
    "milestone": null,
    "node_id": "PR_kwDOEC0DT85KxOcs",
    "number": 359,
    "patch_url": "https://github.com/PrismarineJS/prismarine-viewer/pull/359.patch",
    "rebaseable": null,
    "requested_reviewers": [],
    "requested_teams": [],
    "review_comment_url": "https://api.github.com/repos/PrismarineJS/prismarine-viewer/pulls/comments{/number}",
    "review_comments": 0,
    "review_comments_url": "https://api.github.com/repos/PrismarineJS/prismarine-viewer/pulls/359/comments",
    "state": "closed",
    "statuses_url": "https://api.github.com/repos/PrismarineJS/prismarine-viewer/statuses/d7af9cf1faeb16e4756487d645a60489315a4bf7",
    "title": "Fix redstone_wire rendering",
    "updated_at": "2023-05-20T13:07:58Z",
    "url": "https://api.github.com/repos/PrismarineJS/prismarine-viewer/pulls/359",
    "user": {
        "avatar_url": "https://avatars.githubusercontent.com/u/33594303?v=4",
        "events_url": "https://api.github.com/users/nova-27/events{/privacy}",
        "followers_url": "https://api.github.com/users/nova-27/followers",
        "following_url": "https://api.github.com/users/nova-27/following{/other_user}",
        "gists_url": "https://api.github.com/users/nova-27/gists{/gist_id}",
        "gravatar_id": "",
        "html_url": "https://github.com/nova-27",
        "id": 33594303,
        "login": "nova-27",
        "node_id": "MDQ6VXNlcjMzNTk0MzAz",
        "organizations_url": "https://api.github.com/users/nova-27/orgs",
        "received_events_url": "https://api.github.com/users/nova-27/received_events",
        "repos_url": "https://api.github.com/users/nova-27/repos",
        "site_admin": false,
        "starred_url": "https://api.github.com/users/nova-27/starred{/owner}{/repo}",
        "subscriptions_url": "https://api.github.com/users/nova-27/subscriptions",
        "type": "User",
        "url": "https://api.github.com/users/nova-27"
    }
}