{
    "_links": {
        "comments": {
            "href": "https://api.github.com/repos/PrismarineJS/prismarine-provider-anvil/issues/13/comments"
        },
        "commits": {
            "href": "https://api.github.com/repos/PrismarineJS/prismarine-provider-anvil/pulls/13/commits"
        },
        "html": {
            "href": "https://github.com/PrismarineJS/prismarine-provider-anvil/pull/13"
        },
        "issue": {
            "href": "https://api.github.com/repos/PrismarineJS/prismarine-provider-anvil/issues/13"
        },
        "review_comment": {
            "href": "https://api.github.com/repos/PrismarineJS/prismarine-provider-anvil/pulls/comments{/number}"
        },
        "review_comments": {
            "href": "https://api.github.com/repos/PrismarineJS/prismarine-provider-anvil/pulls/13/comments"
        },
        "self": {
            "href": "https://api.github.com/repos/PrismarineJS/prismarine-provider-anvil/pulls/13"
        },
        "statuses": {
            "href": "https://api.github.com/repos/PrismarineJS/prismarine-provider-anvil/statuses/fde3fe59f970659b68bbec9716ea6c58253b6ecb"
        }
    },
    "active_lock_reason": null,
    "additions": 3,
    "assignee": null,
    "assignees": [],
    "author_association": "NONE",
    "auto_merge": null,
    "base": {
        "label": "PrismarineJS:master",
        "ref": "master",
        "repo": {
            "allow_forking": true,
            "archive_url": "https://api.github.com/repos/PrismarineJS/prismarine-provider-anvil/{archive_format}{/ref}",
            "archived": false,
            "assignees_url": "https://api.github.com/repos/PrismarineJS/prismarine-provider-anvil/assignees{/user}",
            "blobs_url": "https://api.github.com/repos/PrismarineJS/prismarine-provider-anvil/git/blobs{/sha}",
            "branches_url": "https://api.github.com/repos/PrismarineJS/prismarine-provider-anvil/branches{/branch}",
            "clone_url": "https://github.com/PrismarineJS/prismarine-provider-anvil.git",
            "collaborators_url": "https://api.github.com/repos/PrismarineJS/prismarine-provider-anvil/collaborators{/collaborator}",
            "comments_url": "https://api.github.com/repos/PrismarineJS/prismarine-provider-anvil/comments{/number}",
            "commits_url": "https://api.github.com/repos/PrismarineJS/prismarine-provider-anvil/commits{/sha}",
            "compare_url": "https://api.github.com/repos/PrismarineJS/prismarine-provider-anvil/compare/{base}...{head}",
            "contents_url": "https://api.github.com/repos/PrismarineJS/prismarine-provider-anvil/contents/{+path}",
            "contributors_url": "https://api.github.com/repos/PrismarineJS/prismarine-provider-anvil/contributors",
            "created_at": "2015-03-07T20:11:01Z",
            "default_branch": "master",
            "deployments_url": "https://api.github.com/repos/PrismarineJS/prismarine-provider-anvil/deployments",
            "description": "Anvil Storage Provider implementation.",
            "disabled": false,
            "downloads_url": "https://api.github.com/repos/PrismarineJS/prismarine-provider-anvil/downloads",
            "events_url": "https://api.github.com/repos/PrismarineJS/prismarine-provider-anvil/events",
            "fork": false,
            "forks": 20,
            "forks_count": 20,
            "forks_url": "https://api.github.com/repos/PrismarineJS/prismarine-provider-anvil/forks",
            "full_name": "PrismarineJS/prismarine-provider-anvil",
            "git_commits_url": "https://api.github.com/repos/PrismarineJS/prismarine-provider-anvil/git/commits{/sha}",
            "git_refs_url": "https://api.github.com/repos/PrismarineJS/prismarine-provider-anvil/git/refs{/sha}",
            "git_tags_url": "https://api.github.com/repos/PrismarineJS/prismarine-provider-anvil/git/tags{/sha}",
            "git_url": "git://github.com/PrismarineJS/prismarine-provider-anvil.git",
            "has_discussions": false,
            "has_downloads": true,
            "has_issues": true,
            "has_pages": false,
            "has_projects": true,
            "has_wiki": true,
            "homepage": null,
            "hooks_url": "https://api.github.com/repos/PrismarineJS/prismarine-provider-anvil/hooks",
            "html_url": "https://github.com/PrismarineJS/prismarine-provider-anvil",
            "id": 31825707,
            "is_template": false,
            "issue_comment_url": "https://api.github.com/repos/PrismarineJS/prismarine-provider-anvil/issues/comments{/number}",
            "issue_events_url": "https://api.github.com/repos/PrismarineJS/prismarine-provider-anvil/issues/events{/number}",
            "issues_url": "https://api.github.com/repos/PrismarineJS/prismarine-provider-anvil/issues{/number}",
            "keys_url": "https://api.github.com/repos/PrismarineJS/prismarine-provider-anvil/keys{/key_id}",
            "labels_url": "https://api.github.com/repos/PrismarineJS/prismarine-provider-anvil/labels{/name}",
            "language": "JavaScript",
            "languages_url": "https://api.github.com/repos/PrismarineJS/prismarine-provider-anvil/languages",
            "license": null,
            "merges_url": "https://api.github.com/repos/PrismarineJS/prismarine-provider-anvil/merges",
            "milestones_url": "https://api.github.com/repos/PrismarineJS/prismarine-provider-anvil/milestones{/number}",
            "mirror_url": null,
            "name": "prismarine-provider-anvil",
            "node_id": "MDEwOlJlcG9zaXRvcnkzMTgyNTcwNw==",
            "notifications_url": "https://api.github.com/repos/PrismarineJS/prismarine-provider-anvil/notifications{?since,all,participating}",
            "open_issues": 10,
            "open_issues_count": 10,
            "owner": {
                "avatar_url": "https://avatars.githubusercontent.com/u/11053411?v=4",
                "events_url": "https://api.github.com/users/PrismarineJS/events{/privacy}",
                "followers_url": "https://api.github.com/users/PrismarineJS/followers",
                "following_url": "https://api.github.com/users/PrismarineJS/following{/other_user}",
                "gists_url": "https://api.github.com/users/PrismarineJS/gists{/gist_id}",
                "gravatar_id": "",
                "html_url": "https://github.com/PrismarineJS",
                "id": 11053411,
                "login": "PrismarineJS",
                "node_id": "MDEyOk9yZ2FuaXphdGlvbjExMDUzNDEx",
                "organizations_url": "https://api.github.com/users/PrismarineJS/orgs",
                "received_events_url": "https://api.github.com/users/PrismarineJS/received_events",
                "repos_url": "https://api.github.com/users/PrismarineJS/repos",
                "site_admin": false,
                "starred_url": "https://api.github.com/users/PrismarineJS/starred{/owner}{/repo}",
                "subscriptions_url": "https://api.github.com/users/PrismarineJS/subscriptions",
                "type": "Organization",
                "url": "https://api.github.com/users/PrismarineJS"
            },
            "private": false,
            "pulls_url": "https://api.github.com/repos/PrismarineJS/prismarine-provider-anvil/pulls{/number}",
            "pushed_at": "2023-04-19T16:46:32Z",
            "releases_url": "https://api.github.com/repos/PrismarineJS/prismarine-provider-anvil/releases{/id}",
            "size": 6497,
            "ssh_url": "git@github.com:PrismarineJS/prismarine-provider-anvil.git",
            "stargazers_count": 10,
            "stargazers_url": "https://api.github.com/repos/PrismarineJS/prismarine-provider-anvil/stargazers",
            "statuses_url": "https://api.github.com/repos/PrismarineJS/prismarine-provider-anvil/statuses/{sha}",
            "subscribers_url": "https://api.github.com/repos/PrismarineJS/prismarine-provider-anvil/subscribers",
            "subscription_url": "https://api.github.com/repos/PrismarineJS/prismarine-provider-anvil/subscription",
            "svn_url": "https://github.com/PrismarineJS/prismarine-provider-anvil",
            "tags_url": "https://api.github.com/repos/PrismarineJS/prismarine-provider-anvil/tags",
            "teams_url": "https://api.github.com/repos/PrismarineJS/prismarine-provider-anvil/teams",
            "topics": [],
            "trees_url": "https://api.github.com/repos/PrismarineJS/prismarine-provider-anvil/git/trees{/sha}",
            "updated_at": "2022-04-28T20:40:54Z",
            "url": "https://api.github.com/repos/PrismarineJS/prismarine-provider-anvil",
            "visibility": "public",
            "watchers": 10,
            "watchers_count": 10,
            "web_commit_signoff_required": false
        },
        "sha": "6e07c52dc2ffbc78cf2a11714365c8ce0e8dc8e4",
        "user": {
            "avatar_url": "https://avatars.githubusercontent.com/u/11053411?v=4",
            "events_url": "https://api.github.com/users/PrismarineJS/events{/privacy}",
            "followers_url": "https://api.github.com/users/PrismarineJS/followers",
            "following_url": "https://api.github.com/users/PrismarineJS/following{/other_user}",
            "gists_url": "https://api.github.com/users/PrismarineJS/gists{/gist_id}",
            "gravatar_id": "",
            "html_url": "https://github.com/PrismarineJS",
            "id": 11053411,
            "login": "PrismarineJS",
            "node_id": "MDEyOk9yZ2FuaXphdGlvbjExMDUzNDEx",
            "organizations_url": "https://api.github.com/users/PrismarineJS/orgs",
            "received_events_url": "https://api.github.com/users/PrismarineJS/received_events",
            "repos_url": "https://api.github.com/users/PrismarineJS/repos",
            "site_admin": false,
            "starred_url": "https://api.github.com/users/PrismarineJS/starred{/owner}{/repo}",
            "subscriptions_url": "https://api.github.com/users/PrismarineJS/subscriptions",
            "type": "Organization",
            "url": "https://api.github.com/users/PrismarineJS"
        }
    },
    "body": "Let’s get started with automated dependency management for prismarine-provider-anvil :muscle:\n\nThis pull request **updates all your dependencies to their latest version**. Having them all up to date really is the best starting point. I will look out for further dependency updates and make sure to handle them in isolation and in real-time, **as soon as you merge this pull request**.\n\n**I won’t start sending you further updates, unless you have merged this very pull request**.\n\n---\n\n\n<details>\n<summary>💥 This branch failed. How to proceed</summary>\nI suggest you find out what dependency update is causing the problem. Adapt your code so things are working nicely together again. [next-update](https://www.npmjs.com/package/next-update) is a really handy tool to help you with this.\n\nPush the changes to this branch and merge it.\n</details>\n\n\n\n\n<details>\n<summary>🏷 How to check the status of this repository</summary>\nThere is a badge added to your README, indicating the status of this repository.\n\nThis is how your badge looks like :point_right:  ![Greenkeeper badge](https://badges.greenkeeper.io/PrismarineJS/prismarine-provider-anvil.svg)\n</details>\n\n\n\n<details>\n<summary>👩‍💻 How to update this pull request</summary>\n\n```bash\n# change into your repository’s directory\ngit fetch\ngit checkout greenkeeper/initial\nnpm install-test\n# adapt your code, so it’s working again\ngit commit -m 'chore: adapt code to updated dependencies'\ngit push origin greenkeeper/initial\n```\n</details>\n\n<details>\n<summary>🙈 How to ignore certain dependencies</summary>\n\nIn case you can not, or do not want to update a certain dependency right now, you can of course just [change the `package.json` file back to your liking](https://github.com/PrismarineJS/prismarine-provider-anvil/edit/greenkeeper/initial/package.json).\n\nAdd a `greenkeeper.ignore` field to your `package.json`, containing a list of dependencies you don’t want to update right now.\n\n```js\n// package.json\n{\n  …\n  \"greenkeeper\": {\n    \"ignore\": [\n      \"package-names\",\n      \"you-want-me-to-ignore\"\n    ]\n  }\n}\n```\n</details>\n\n<details>\n<summary>✨ How the updates will look like</summary>\n\nAs soon as you merge this pull request **I’ll create a branch for every dependency update**, with the new version applied. The branch creation should trigger your testing services to check the new version. Using the results of these tests I’ll try to open meaningful and helpful pull requests and issues, so your dependencies remain working and up-to-date.\n\n```diff\n-  \"underscore\": \"^1.6.0\"\n+  \"underscore\": \"^1.7.0\"\n```\n\nIn the above example you can see an in-range update. `1.7.0` is included in the old `^1.6.0` range, because of the [caret `^` character ](https://docs.npmjs.com/misc/semver#ranges).\nWhen the test services report success I’ll delete the branch again, because no action needs to be taken – everything is fine.\nWhen there is a failure however, I’ll create an issue so you know about the problem immediately.\n\nThis way every single version update of your dependencies will either continue to work with your project, or you’ll get to know of potential problems immediately.\n\n```diff\n-  \"lodash\": \"^3.0.0\"\n+  \"lodash\": \"^4.0.0\"\n```\n\nIn this example the new version `4.0.0` is not included in the old `^3.0.0` range.\nFor version updates like these – let’s call them “out of range” updates – you’ll receive a pull request.\n\nNow **you no longer need to check for exciting new versions by hand** – I’ll just let you know automatically.\nAnd the pull request will not only serve as a reminder to update. In case it passes your decent test suite that’s a strong reason to merge right away :shipit:\n</details>\n\n<details>\n<summary>💁‍♂️ Not sure how things are going to work exactly?</summary>\n\nThere is a collection of [frequently asked questions](https://greenkeeper.io/faq.html) and of course you may always [ask my humans](https://github.com/greenkeeperio/greenkeeper/issues/new).\n</details>\n\n\n---\n\n\nGood luck with your project and see you soon :sparkles:\n\nYour [Greenkeeper](https://greenkeeper.io) Bot :palm_tree:\n",
    "changed_files": 2,
    "closed_at": "2018-05-14T01:20:50Z",
    "comment_data": [],
    "comment_regular_data": [],
    "comments": 0,
    "comments_url": "https://api.github.com/repos/PrismarineJS/prismarine-provider-anvil/issues/13/comments",
    "commit_data": [
        {
            "author": {
                "avatar_url": "https://avatars.githubusercontent.com/in/505?v=4",
                "events_url": "https://api.github.com/users/greenkeeper%5Bbot%5D/events{/privacy}",
                "followers_url": "https://api.github.com/users/greenkeeper%5Bbot%5D/followers",
                "following_url": "https://api.github.com/users/greenkeeper%5Bbot%5D/following{/other_user}",
                "gists_url": "https://api.github.com/users/greenkeeper%5Bbot%5D/gists{/gist_id}",
                "gravatar_id": "",
                "html_url": "https://github.com/apps/greenkeeper",
                "id": 23040076,
                "login": "greenkeeper[bot]",
                "node_id": "MDM6Qm90MjMwNDAwNzY=",
                "organizations_url": "https://api.github.com/users/greenkeeper%5Bbot%5D/orgs",
                "received_events_url": "https://api.github.com/users/greenkeeper%5Bbot%5D/received_events",
                "repos_url": "https://api.github.com/users/greenkeeper%5Bbot%5D/repos",
                "site_admin": false,
                "starred_url": "https://api.github.com/users/greenkeeper%5Bbot%5D/starred{/owner}{/repo}",
                "subscriptions_url": "https://api.github.com/users/greenkeeper%5Bbot%5D/subscriptions",
                "type": "Bot",
                "url": "https://api.github.com/users/greenkeeper%5Bbot%5D"
            },
            "comments_url": "https://api.github.com/repos/PrismarineJS/prismarine-provider-anvil/commits/fc863a89c28026352d5d3a569f9052ece1305940/comments",
            "commit": {
                "author": {
                    "date": "2017-03-14T15:49:03Z",
                    "email": "greenkeeper[bot]@users.noreply.github.com",
                    "name": "greenkeeper[bot]"
                },
                "comment_count": 0,
                "committer": {
                    "date": "2017-03-14T15:49:03Z",
                    "email": "greenkeeper[bot]@users.noreply.github.com",
                    "name": "greenkeeper[bot]"
                },
                "message": "chore(package): update dependencies\n\nhttps://greenkeeper.io/",
                "tree": {
                    "sha": "e2cc93cea514bc15c13ca3a8ee5df0b1274d849b",
                    "url": "https://api.github.com/repos/PrismarineJS/prismarine-provider-anvil/git/trees/e2cc93cea514bc15c13ca3a8ee5df0b1274d849b"
                },
                "url": "https://api.github.com/repos/PrismarineJS/prismarine-provider-anvil/git/commits/fc863a89c28026352d5d3a569f9052ece1305940",
                "verification": {
                    "payload": null,
                    "reason": "unsigned",
                    "signature": null,
                    "verified": false
                }
            },
            "committer": {
                "avatar_url": "https://avatars.githubusercontent.com/in/505?v=4",
                "events_url": "https://api.github.com/users/greenkeeper%5Bbot%5D/events{/privacy}",
                "followers_url": "https://api.github.com/users/greenkeeper%5Bbot%5D/followers",
                "following_url": "https://api.github.com/users/greenkeeper%5Bbot%5D/following{/other_user}",
                "gists_url": "https://api.github.com/users/greenkeeper%5Bbot%5D/gists{/gist_id}",
                "gravatar_id": "",
                "html_url": "https://github.com/apps/greenkeeper",
                "id": 23040076,
                "login": "greenkeeper[bot]",
                "node_id": "MDM6Qm90MjMwNDAwNzY=",
                "organizations_url": "https://api.github.com/users/greenkeeper%5Bbot%5D/orgs",
                "received_events_url": "https://api.github.com/users/greenkeeper%5Bbot%5D/received_events",
                "repos_url": "https://api.github.com/users/greenkeeper%5Bbot%5D/repos",
                "site_admin": false,
                "starred_url": "https://api.github.com/users/greenkeeper%5Bbot%5D/starred{/owner}{/repo}",
                "subscriptions_url": "https://api.github.com/users/greenkeeper%5Bbot%5D/subscriptions",
                "type": "Bot",
                "url": "https://api.github.com/users/greenkeeper%5Bbot%5D"
            },
            "html_url": "https://github.com/PrismarineJS/prismarine-provider-anvil/commit/fc863a89c28026352d5d3a569f9052ece1305940",
            "node_id": "MDY6Q29tbWl0MzE4MjU3MDc6ZmM4NjNhODljMjgwMjYzNTJkNWQzYTU2OWY5MDUyZWNlMTMwNTk0MA==",
            "parents": [
                {
                    "html_url": "https://github.com/PrismarineJS/prismarine-provider-anvil/commit/6e07c52dc2ffbc78cf2a11714365c8ce0e8dc8e4",
                    "sha": "6e07c52dc2ffbc78cf2a11714365c8ce0e8dc8e4",
                    "url": "https://api.github.com/repos/PrismarineJS/prismarine-provider-anvil/commits/6e07c52dc2ffbc78cf2a11714365c8ce0e8dc8e4"
                }
            ],
            "sha": "fc863a89c28026352d5d3a569f9052ece1305940",
            "url": "https://api.github.com/repos/PrismarineJS/prismarine-provider-anvil/commits/fc863a89c28026352d5d3a569f9052ece1305940"
        },
        {
            "author": {
                "avatar_url": "https://avatars.githubusercontent.com/in/505?v=4",
                "events_url": "https://api.github.com/users/greenkeeper%5Bbot%5D/events{/privacy}",
                "followers_url": "https://api.github.com/users/greenkeeper%5Bbot%5D/followers",
                "following_url": "https://api.github.com/users/greenkeeper%5Bbot%5D/following{/other_user}",
                "gists_url": "https://api.github.com/users/greenkeeper%5Bbot%5D/gists{/gist_id}",
                "gravatar_id": "",
                "html_url": "https://github.com/apps/greenkeeper",
                "id": 23040076,
                "login": "greenkeeper[bot]",
                "node_id": "MDM6Qm90MjMwNDAwNzY=",
                "organizations_url": "https://api.github.com/users/greenkeeper%5Bbot%5D/orgs",
                "received_events_url": "https://api.github.com/users/greenkeeper%5Bbot%5D/received_events",
                "repos_url": "https://api.github.com/users/greenkeeper%5Bbot%5D/repos",
                "site_admin": false,
                "starred_url": "https://api.github.com/users/greenkeeper%5Bbot%5D/starred{/owner}{/repo}",
                "subscriptions_url": "https://api.github.com/users/greenkeeper%5Bbot%5D/subscriptions",
                "type": "Bot",
                "url": "https://api.github.com/users/greenkeeper%5Bbot%5D"
            },
            "comments_url": "https://api.github.com/repos/PrismarineJS/prismarine-provider-anvil/commits/fde3fe59f970659b68bbec9716ea6c58253b6ecb/comments",
            "commit": {
                "author": {
                    "date": "2017-03-14T15:49:06Z",
                    "email": "greenkeeper[bot]@users.noreply.github.com",
                    "name": "greenkeeper[bot]"
                },
                "comment_count": 0,
                "committer": {
                    "date": "2017-03-14T15:49:06Z",
                    "email": "greenkeeper[bot]@users.noreply.github.com",
                    "name": "greenkeeper[bot]"
                },
                "message": "docs(readme): add Greenkeeper badge \n\nhttps://greenkeeper.io/",
                "tree": {
                    "sha": "45f2d12a154a8c1c4c2541721b838722ed767f73",
                    "url": "https://api.github.com/repos/PrismarineJS/prismarine-provider-anvil/git/trees/45f2d12a154a8c1c4c2541721b838722ed767f73"
                },
                "url": "https://api.github.com/repos/PrismarineJS/prismarine-provider-anvil/git/commits/fde3fe59f970659b68bbec9716ea6c58253b6ecb",
                "verification": {
                    "payload": null,
                    "reason": "unsigned",
                    "signature": null,
                    "verified": false
                }
            },
            "committer": {
                "avatar_url": "https://avatars.githubusercontent.com/in/505?v=4",
                "events_url": "https://api.github.com/users/greenkeeper%5Bbot%5D/events{/privacy}",
                "followers_url": "https://api.github.com/users/greenkeeper%5Bbot%5D/followers",
                "following_url": "https://api.github.com/users/greenkeeper%5Bbot%5D/following{/other_user}",
                "gists_url": "https://api.github.com/users/greenkeeper%5Bbot%5D/gists{/gist_id}",
                "gravatar_id": "",
                "html_url": "https://github.com/apps/greenkeeper",
                "id": 23040076,
                "login": "greenkeeper[bot]",
                "node_id": "MDM6Qm90MjMwNDAwNzY=",
                "organizations_url": "https://api.github.com/users/greenkeeper%5Bbot%5D/orgs",
                "received_events_url": "https://api.github.com/users/greenkeeper%5Bbot%5D/received_events",
                "repos_url": "https://api.github.com/users/greenkeeper%5Bbot%5D/repos",
                "site_admin": false,
                "starred_url": "https://api.github.com/users/greenkeeper%5Bbot%5D/starred{/owner}{/repo}",
                "subscriptions_url": "https://api.github.com/users/greenkeeper%5Bbot%5D/subscriptions",
                "type": "Bot",
                "url": "https://api.github.com/users/greenkeeper%5Bbot%5D"
            },
            "html_url": "https://github.com/PrismarineJS/prismarine-provider-anvil/commit/fde3fe59f970659b68bbec9716ea6c58253b6ecb",
            "node_id": "MDY6Q29tbWl0MzE4MjU3MDc6ZmRlM2ZlNTlmOTcwNjU5YjY4YmJlYzk3MTZlYTZjNTgyNTNiNmVjYg==",
            "parents": [
                {
                    "html_url": "https://github.com/PrismarineJS/prismarine-provider-anvil/commit/fc863a89c28026352d5d3a569f9052ece1305940",
                    "sha": "fc863a89c28026352d5d3a569f9052ece1305940",
                    "url": "https://api.github.com/repos/PrismarineJS/prismarine-provider-anvil/commits/fc863a89c28026352d5d3a569f9052ece1305940"
                }
            ],
            "sha": "fde3fe59f970659b68bbec9716ea6c58253b6ecb",
            "url": "https://api.github.com/repos/PrismarineJS/prismarine-provider-anvil/commits/fde3fe59f970659b68bbec9716ea6c58253b6ecb"
        }
    ],
    "commits": 2,
    "commits_url": "https://api.github.com/repos/PrismarineJS/prismarine-provider-anvil/pulls/13/commits",
    "created_at": "2017-03-14T15:51:01Z",
    "deletions": 1,
    "diff_url": "https://github.com/PrismarineJS/prismarine-provider-anvil/pull/13.diff",
    "draft": false,
    "head": {
        "label": "PrismarineJS:greenkeeper/initial",
        "ref": "greenkeeper/initial",
        "repo": {
            "allow_forking": true,
            "archive_url": "https://api.github.com/repos/PrismarineJS/prismarine-provider-anvil/{archive_format}{/ref}",
            "archived": false,
            "assignees_url": "https://api.github.com/repos/PrismarineJS/prismarine-provider-anvil/assignees{/user}",
            "blobs_url": "https://api.github.com/repos/PrismarineJS/prismarine-provider-anvil/git/blobs{/sha}",
            "branches_url": "https://api.github.com/repos/PrismarineJS/prismarine-provider-anvil/branches{/branch}",
            "clone_url": "https://github.com/PrismarineJS/prismarine-provider-anvil.git",
            "collaborators_url": "https://api.github.com/repos/PrismarineJS/prismarine-provider-anvil/collaborators{/collaborator}",
            "comments_url": "https://api.github.com/repos/PrismarineJS/prismarine-provider-anvil/comments{/number}",
            "commits_url": "https://api.github.com/repos/PrismarineJS/prismarine-provider-anvil/commits{/sha}",
            "compare_url": "https://api.github.com/repos/PrismarineJS/prismarine-provider-anvil/compare/{base}...{head}",
            "contents_url": "https://api.github.com/repos/PrismarineJS/prismarine-provider-anvil/contents/{+path}",
            "contributors_url": "https://api.github.com/repos/PrismarineJS/prismarine-provider-anvil/contributors",
            "created_at": "2015-03-07T20:11:01Z",
            "default_branch": "master",
            "deployments_url": "https://api.github.com/repos/PrismarineJS/prismarine-provider-anvil/deployments",
            "description": "Anvil Storage Provider implementation.",
            "disabled": false,
            "downloads_url": "https://api.github.com/repos/PrismarineJS/prismarine-provider-anvil/downloads",
            "events_url": "https://api.github.com/repos/PrismarineJS/prismarine-provider-anvil/events",
            "fork": false,
            "forks": 20,
            "forks_count": 20,
            "forks_url": "https://api.github.com/repos/PrismarineJS/prismarine-provider-anvil/forks",
            "full_name": "PrismarineJS/prismarine-provider-anvil",
            "git_commits_url": "https://api.github.com/repos/PrismarineJS/prismarine-provider-anvil/git/commits{/sha}",
            "git_refs_url": "https://api.github.com/repos/PrismarineJS/prismarine-provider-anvil/git/refs{/sha}",
            "git_tags_url": "https://api.github.com/repos/PrismarineJS/prismarine-provider-anvil/git/tags{/sha}",
            "git_url": "git://github.com/PrismarineJS/prismarine-provider-anvil.git",
            "has_discussions": false,
            "has_downloads": true,
            "has_issues": true,
            "has_pages": false,
            "has_projects": true,
            "has_wiki": true,
            "homepage": null,
            "hooks_url": "https://api.github.com/repos/PrismarineJS/prismarine-provider-anvil/hooks",
            "html_url": "https://github.com/PrismarineJS/prismarine-provider-anvil",
            "id": 31825707,
            "is_template": false,
            "issue_comment_url": "https://api.github.com/repos/PrismarineJS/prismarine-provider-anvil/issues/comments{/number}",
            "issue_events_url": "https://api.github.com/repos/PrismarineJS/prismarine-provider-anvil/issues/events{/number}",
            "issues_url": "https://api.github.com/repos/PrismarineJS/prismarine-provider-anvil/issues{/number}",
            "keys_url": "https://api.github.com/repos/PrismarineJS/prismarine-provider-anvil/keys{/key_id}",
            "labels_url": "https://api.github.com/repos/PrismarineJS/prismarine-provider-anvil/labels{/name}",
            "language": "JavaScript",
            "languages_url": "https://api.github.com/repos/PrismarineJS/prismarine-provider-anvil/languages",
            "license": null,
            "merges_url": "https://api.github.com/repos/PrismarineJS/prismarine-provider-anvil/merges",
            "milestones_url": "https://api.github.com/repos/PrismarineJS/prismarine-provider-anvil/milestones{/number}",
            "mirror_url": null,
            "name": "prismarine-provider-anvil",
            "node_id": "MDEwOlJlcG9zaXRvcnkzMTgyNTcwNw==",
            "notifications_url": "https://api.github.com/repos/PrismarineJS/prismarine-provider-anvil/notifications{?since,all,participating}",
            "open_issues": 10,
            "open_issues_count": 10,
            "owner": {
                "avatar_url": "https://avatars.githubusercontent.com/u/11053411?v=4",
                "events_url": "https://api.github.com/users/PrismarineJS/events{/privacy}",
                "followers_url": "https://api.github.com/users/PrismarineJS/followers",
                "following_url": "https://api.github.com/users/PrismarineJS/following{/other_user}",
                "gists_url": "https://api.github.com/users/PrismarineJS/gists{/gist_id}",
                "gravatar_id": "",
                "html_url": "https://github.com/PrismarineJS",
                "id": 11053411,
                "login": "PrismarineJS",
                "node_id": "MDEyOk9yZ2FuaXphdGlvbjExMDUzNDEx",
                "organizations_url": "https://api.github.com/users/PrismarineJS/orgs",
                "received_events_url": "https://api.github.com/users/PrismarineJS/received_events",
                "repos_url": "https://api.github.com/users/PrismarineJS/repos",
                "site_admin": false,
                "starred_url": "https://api.github.com/users/PrismarineJS/starred{/owner}{/repo}",
                "subscriptions_url": "https://api.github.com/users/PrismarineJS/subscriptions",
                "type": "Organization",
                "url": "https://api.github.com/users/PrismarineJS"
            },
            "private": false,
            "pulls_url": "https://api.github.com/repos/PrismarineJS/prismarine-provider-anvil/pulls{/number}",
            "pushed_at": "2023-04-19T16:46:32Z",
            "releases_url": "https://api.github.com/repos/PrismarineJS/prismarine-provider-anvil/releases{/id}",
            "size": 6497,
            "ssh_url": "git@github.com:PrismarineJS/prismarine-provider-anvil.git",
            "stargazers_count": 10,
            "stargazers_url": "https://api.github.com/repos/PrismarineJS/prismarine-provider-anvil/stargazers",
            "statuses_url": "https://api.github.com/repos/PrismarineJS/prismarine-provider-anvil/statuses/{sha}",
            "subscribers_url": "https://api.github.com/repos/PrismarineJS/prismarine-provider-anvil/subscribers",
            "subscription_url": "https://api.github.com/repos/PrismarineJS/prismarine-provider-anvil/subscription",
            "svn_url": "https://github.com/PrismarineJS/prismarine-provider-anvil",
            "tags_url": "https://api.github.com/repos/PrismarineJS/prismarine-provider-anvil/tags",
            "teams_url": "https://api.github.com/repos/PrismarineJS/prismarine-provider-anvil/teams",
            "topics": [],
            "trees_url": "https://api.github.com/repos/PrismarineJS/prismarine-provider-anvil/git/trees{/sha}",
            "updated_at": "2022-04-28T20:40:54Z",
            "url": "https://api.github.com/repos/PrismarineJS/prismarine-provider-anvil",
            "visibility": "public",
            "watchers": 10,
            "watchers_count": 10,
            "web_commit_signoff_required": false
        },
        "sha": "fde3fe59f970659b68bbec9716ea6c58253b6ecb",
        "user": {
            "avatar_url": "https://avatars.githubusercontent.com/u/11053411?v=4",
            "events_url": "https://api.github.com/users/PrismarineJS/events{/privacy}",
            "followers_url": "https://api.github.com/users/PrismarineJS/followers",
            "following_url": "https://api.github.com/users/PrismarineJS/following{/other_user}",
            "gists_url": "https://api.github.com/users/PrismarineJS/gists{/gist_id}",
            "gravatar_id": "",
            "html_url": "https://github.com/PrismarineJS",
            "id": 11053411,
            "login": "PrismarineJS",
            "node_id": "MDEyOk9yZ2FuaXphdGlvbjExMDUzNDEx",
            "organizations_url": "https://api.github.com/users/PrismarineJS/orgs",
            "received_events_url": "https://api.github.com/users/PrismarineJS/received_events",
            "repos_url": "https://api.github.com/users/PrismarineJS/repos",
            "site_admin": false,
            "starred_url": "https://api.github.com/users/PrismarineJS/starred{/owner}{/repo}",
            "subscriptions_url": "https://api.github.com/users/PrismarineJS/subscriptions",
            "type": "Organization",
            "url": "https://api.github.com/users/PrismarineJS"
        }
    },
    "html_url": "https://github.com/PrismarineJS/prismarine-provider-anvil/pull/13",
    "id": 110653243,
    "issue_url": "https://api.github.com/repos/PrismarineJS/prismarine-provider-anvil/issues/13",
    "labels": [
        {
            "color": "00c775",
            "default": false,
            "description": null,
            "id": 560597210,
            "name": "greenkeeper",
            "node_id": "MDU6TGFiZWw1NjA1OTcyMTA=",
            "url": "https://api.github.com/repos/PrismarineJS/prismarine-provider-anvil/labels/greenkeeper"
        }
    ],
    "locked": false,
    "maintainer_can_modify": false,
    "merge_commit_sha": "cbcf71559a8e93ad8b8d2c345557362d448f5bb8",
    "mergeable": false,
    "mergeable_state": "dirty",
    "merged": false,
    "merged_at": null,
    "merged_by": null,
    "milestone": null,
    "node_id": "MDExOlB1bGxSZXF1ZXN0MTEwNjUzMjQz",
    "number": 13,
    "patch_url": "https://github.com/PrismarineJS/prismarine-provider-anvil/pull/13.patch",
    "rebaseable": false,
    "requested_reviewers": [],
    "requested_teams": [],
    "review_comment_url": "https://api.github.com/repos/PrismarineJS/prismarine-provider-anvil/pulls/comments{/number}",
    "review_comments": 0,
    "review_comments_url": "https://api.github.com/repos/PrismarineJS/prismarine-provider-anvil/pulls/13/comments",
    "state": "closed",
    "statuses_url": "https://api.github.com/repos/PrismarineJS/prismarine-provider-anvil/statuses/fde3fe59f970659b68bbec9716ea6c58253b6ecb",
    "title": "Update dependencies to enable Greenkeeper 🌴",
    "updated_at": "2018-05-14T01:20:54Z",
    "url": "https://api.github.com/repos/PrismarineJS/prismarine-provider-anvil/pulls/13",
    "user": {
        "avatar_url": "https://avatars.githubusercontent.com/in/505?v=4",
        "events_url": "https://api.github.com/users/greenkeeper%5Bbot%5D/events{/privacy}",
        "followers_url": "https://api.github.com/users/greenkeeper%5Bbot%5D/followers",
        "following_url": "https://api.github.com/users/greenkeeper%5Bbot%5D/following{/other_user}",
        "gists_url": "https://api.github.com/users/greenkeeper%5Bbot%5D/gists{/gist_id}",
        "gravatar_id": "",
        "html_url": "https://github.com/apps/greenkeeper",
        "id": 23040076,
        "login": "greenkeeper[bot]",
        "node_id": "MDM6Qm90MjMwNDAwNzY=",
        "organizations_url": "https://api.github.com/users/greenkeeper%5Bbot%5D/orgs",
        "received_events_url": "https://api.github.com/users/greenkeeper%5Bbot%5D/received_events",
        "repos_url": "https://api.github.com/users/greenkeeper%5Bbot%5D/repos",
        "site_admin": false,
        "starred_url": "https://api.github.com/users/greenkeeper%5Bbot%5D/starred{/owner}{/repo}",
        "subscriptions_url": "https://api.github.com/users/greenkeeper%5Bbot%5D/subscriptions",
        "type": "Bot",
        "url": "https://api.github.com/users/greenkeeper%5Bbot%5D"
    }
}