{
    "_links": {
        "comments": {
            "href": "https://api.github.com/repos/PrismarineJS/prismarine-provider-anvil/issues/30/comments"
        },
        "commits": {
            "href": "https://api.github.com/repos/PrismarineJS/prismarine-provider-anvil/pulls/30/commits"
        },
        "html": {
            "href": "https://github.com/PrismarineJS/prismarine-provider-anvil/pull/30"
        },
        "issue": {
            "href": "https://api.github.com/repos/PrismarineJS/prismarine-provider-anvil/issues/30"
        },
        "review_comment": {
            "href": "https://api.github.com/repos/PrismarineJS/prismarine-provider-anvil/pulls/comments{/number}"
        },
        "review_comments": {
            "href": "https://api.github.com/repos/PrismarineJS/prismarine-provider-anvil/pulls/30/comments"
        },
        "self": {
            "href": "https://api.github.com/repos/PrismarineJS/prismarine-provider-anvil/pulls/30"
        },
        "statuses": {
            "href": "https://api.github.com/repos/PrismarineJS/prismarine-provider-anvil/statuses/935e02127ecb87fbf39531b4f392aec96ddc20e0"
        }
    },
    "active_lock_reason": null,
    "additions": 6,
    "assignee": null,
    "assignees": [],
    "author_association": "MEMBER",
    "auto_merge": null,
    "base": {
        "label": "PrismarineJS:master",
        "ref": "master",
        "repo": {
            "allow_forking": true,
            "archive_url": "https://api.github.com/repos/PrismarineJS/prismarine-provider-anvil/{archive_format}{/ref}",
            "archived": false,
            "assignees_url": "https://api.github.com/repos/PrismarineJS/prismarine-provider-anvil/assignees{/user}",
            "blobs_url": "https://api.github.com/repos/PrismarineJS/prismarine-provider-anvil/git/blobs{/sha}",
            "branches_url": "https://api.github.com/repos/PrismarineJS/prismarine-provider-anvil/branches{/branch}",
            "clone_url": "https://github.com/PrismarineJS/prismarine-provider-anvil.git",
            "collaborators_url": "https://api.github.com/repos/PrismarineJS/prismarine-provider-anvil/collaborators{/collaborator}",
            "comments_url": "https://api.github.com/repos/PrismarineJS/prismarine-provider-anvil/comments{/number}",
            "commits_url": "https://api.github.com/repos/PrismarineJS/prismarine-provider-anvil/commits{/sha}",
            "compare_url": "https://api.github.com/repos/PrismarineJS/prismarine-provider-anvil/compare/{base}...{head}",
            "contents_url": "https://api.github.com/repos/PrismarineJS/prismarine-provider-anvil/contents/{+path}",
            "contributors_url": "https://api.github.com/repos/PrismarineJS/prismarine-provider-anvil/contributors",
            "created_at": "2015-03-07T20:11:01Z",
            "default_branch": "master",
            "deployments_url": "https://api.github.com/repos/PrismarineJS/prismarine-provider-anvil/deployments",
            "description": "Anvil Storage Provider implementation.",
            "disabled": false,
            "downloads_url": "https://api.github.com/repos/PrismarineJS/prismarine-provider-anvil/downloads",
            "events_url": "https://api.github.com/repos/PrismarineJS/prismarine-provider-anvil/events",
            "fork": false,
            "forks": 20,
            "forks_count": 20,
            "forks_url": "https://api.github.com/repos/PrismarineJS/prismarine-provider-anvil/forks",
            "full_name": "PrismarineJS/prismarine-provider-anvil",
            "git_commits_url": "https://api.github.com/repos/PrismarineJS/prismarine-provider-anvil/git/commits{/sha}",
            "git_refs_url": "https://api.github.com/repos/PrismarineJS/prismarine-provider-anvil/git/refs{/sha}",
            "git_tags_url": "https://api.github.com/repos/PrismarineJS/prismarine-provider-anvil/git/tags{/sha}",
            "git_url": "git://github.com/PrismarineJS/prismarine-provider-anvil.git",
            "has_discussions": false,
            "has_downloads": true,
            "has_issues": true,
            "has_pages": false,
            "has_projects": true,
            "has_wiki": true,
            "homepage": null,
            "hooks_url": "https://api.github.com/repos/PrismarineJS/prismarine-provider-anvil/hooks",
            "html_url": "https://github.com/PrismarineJS/prismarine-provider-anvil",
            "id": 31825707,
            "is_template": false,
            "issue_comment_url": "https://api.github.com/repos/PrismarineJS/prismarine-provider-anvil/issues/comments{/number}",
            "issue_events_url": "https://api.github.com/repos/PrismarineJS/prismarine-provider-anvil/issues/events{/number}",
            "issues_url": "https://api.github.com/repos/PrismarineJS/prismarine-provider-anvil/issues{/number}",
            "keys_url": "https://api.github.com/repos/PrismarineJS/prismarine-provider-anvil/keys{/key_id}",
            "labels_url": "https://api.github.com/repos/PrismarineJS/prismarine-provider-anvil/labels{/name}",
            "language": "JavaScript",
            "languages_url": "https://api.github.com/repos/PrismarineJS/prismarine-provider-anvil/languages",
            "license": null,
            "merges_url": "https://api.github.com/repos/PrismarineJS/prismarine-provider-anvil/merges",
            "milestones_url": "https://api.github.com/repos/PrismarineJS/prismarine-provider-anvil/milestones{/number}",
            "mirror_url": null,
            "name": "prismarine-provider-anvil",
            "node_id": "MDEwOlJlcG9zaXRvcnkzMTgyNTcwNw==",
            "notifications_url": "https://api.github.com/repos/PrismarineJS/prismarine-provider-anvil/notifications{?since,all,participating}",
            "open_issues": 10,
            "open_issues_count": 10,
            "owner": {
                "avatar_url": "https://avatars.githubusercontent.com/u/11053411?v=4",
                "events_url": "https://api.github.com/users/PrismarineJS/events{/privacy}",
                "followers_url": "https://api.github.com/users/PrismarineJS/followers",
                "following_url": "https://api.github.com/users/PrismarineJS/following{/other_user}",
                "gists_url": "https://api.github.com/users/PrismarineJS/gists{/gist_id}",
                "gravatar_id": "",
                "html_url": "https://github.com/PrismarineJS",
                "id": 11053411,
                "login": "PrismarineJS",
                "node_id": "MDEyOk9yZ2FuaXphdGlvbjExMDUzNDEx",
                "organizations_url": "https://api.github.com/users/PrismarineJS/orgs",
                "received_events_url": "https://api.github.com/users/PrismarineJS/received_events",
                "repos_url": "https://api.github.com/users/PrismarineJS/repos",
                "site_admin": false,
                "starred_url": "https://api.github.com/users/PrismarineJS/starred{/owner}{/repo}",
                "subscriptions_url": "https://api.github.com/users/PrismarineJS/subscriptions",
                "type": "Organization",
                "url": "https://api.github.com/users/PrismarineJS"
            },
            "private": false,
            "pulls_url": "https://api.github.com/repos/PrismarineJS/prismarine-provider-anvil/pulls{/number}",
            "pushed_at": "2023-04-19T16:46:32Z",
            "releases_url": "https://api.github.com/repos/PrismarineJS/prismarine-provider-anvil/releases{/id}",
            "size": 6497,
            "ssh_url": "git@github.com:PrismarineJS/prismarine-provider-anvil.git",
            "stargazers_count": 10,
            "stargazers_url": "https://api.github.com/repos/PrismarineJS/prismarine-provider-anvil/stargazers",
            "statuses_url": "https://api.github.com/repos/PrismarineJS/prismarine-provider-anvil/statuses/{sha}",
            "subscribers_url": "https://api.github.com/repos/PrismarineJS/prismarine-provider-anvil/subscribers",
            "subscription_url": "https://api.github.com/repos/PrismarineJS/prismarine-provider-anvil/subscription",
            "svn_url": "https://github.com/PrismarineJS/prismarine-provider-anvil",
            "tags_url": "https://api.github.com/repos/PrismarineJS/prismarine-provider-anvil/tags",
            "teams_url": "https://api.github.com/repos/PrismarineJS/prismarine-provider-anvil/teams",
            "topics": [],
            "trees_url": "https://api.github.com/repos/PrismarineJS/prismarine-provider-anvil/git/trees{/sha}",
            "updated_at": "2022-04-28T20:40:54Z",
            "url": "https://api.github.com/repos/PrismarineJS/prismarine-provider-anvil",
            "visibility": "public",
            "watchers": 10,
            "watchers_count": 10,
            "web_commit_signoff_required": false
        },
        "sha": "c9f0f0879a088fb142ba03314846e05baf364628",
        "user": {
            "avatar_url": "https://avatars.githubusercontent.com/u/11053411?v=4",
            "events_url": "https://api.github.com/users/PrismarineJS/events{/privacy}",
            "followers_url": "https://api.github.com/users/PrismarineJS/followers",
            "following_url": "https://api.github.com/users/PrismarineJS/following{/other_user}",
            "gists_url": "https://api.github.com/users/PrismarineJS/gists{/gist_id}",
            "gravatar_id": "",
            "html_url": "https://github.com/PrismarineJS",
            "id": 11053411,
            "login": "PrismarineJS",
            "node_id": "MDEyOk9yZ2FuaXphdGlvbjExMDUzNDEx",
            "organizations_url": "https://api.github.com/users/PrismarineJS/orgs",
            "received_events_url": "https://api.github.com/users/PrismarineJS/received_events",
            "repos_url": "https://api.github.com/users/PrismarineJS/repos",
            "site_admin": false,
            "starred_url": "https://api.github.com/users/PrismarineJS/starred{/owner}{/repo}",
            "subscriptions_url": "https://api.github.com/users/PrismarineJS/subscriptions",
            "type": "Organization",
            "url": "https://api.github.com/users/PrismarineJS"
        }
    },
    "body": "",
    "changed_files": 2,
    "closed_at": "2020-09-06T13:15:39Z",
    "comment_data": [],
    "comment_regular_data": [],
    "comments": 0,
    "comments_url": "https://api.github.com/repos/PrismarineJS/prismarine-provider-anvil/issues/30/comments",
    "commit_data": [
        {
            "author": {
                "avatar_url": "https://avatars.githubusercontent.com/u/2346494?v=4",
                "events_url": "https://api.github.com/users/rom1504/events{/privacy}",
                "followers_url": "https://api.github.com/users/rom1504/followers",
                "following_url": "https://api.github.com/users/rom1504/following{/other_user}",
                "gists_url": "https://api.github.com/users/rom1504/gists{/gist_id}",
                "gravatar_id": "",
                "html_url": "https://github.com/rom1504",
                "id": 2346494,
                "login": "rom1504",
                "node_id": "MDQ6VXNlcjIzNDY0OTQ=",
                "organizations_url": "https://api.github.com/users/rom1504/orgs",
                "received_events_url": "https://api.github.com/users/rom1504/received_events",
                "repos_url": "https://api.github.com/users/rom1504/repos",
                "site_admin": false,
                "starred_url": "https://api.github.com/users/rom1504/starred{/owner}{/repo}",
                "subscriptions_url": "https://api.github.com/users/rom1504/subscriptions",
                "type": "User",
                "url": "https://api.github.com/users/rom1504"
            },
            "comments_url": "https://api.github.com/repos/PrismarineJS/prismarine-provider-anvil/commits/8fa9653711d3e0c94792d607bd0ae0817c0b5842/comments",
            "commit": {
                "author": {
                    "date": "2020-09-06T13:14:35Z",
                    "email": "romain.rom1@gmail.com",
                    "name": "Romain Beaumont"
                },
                "comment_count": 0,
                "committer": {
                    "date": "2020-09-06T13:14:35Z",
                    "email": "noreply@github.com",
                    "name": "GitHub"
                },
                "message": "prepare release 2.3.1",
                "tree": {
                    "sha": "25bac160c05a173dd05a9c3d4331bf7223e0cc75",
                    "url": "https://api.github.com/repos/PrismarineJS/prismarine-provider-anvil/git/trees/25bac160c05a173dd05a9c3d4331bf7223e0cc75"
                },
                "url": "https://api.github.com/repos/PrismarineJS/prismarine-provider-anvil/git/commits/8fa9653711d3e0c94792d607bd0ae0817c0b5842",
                "verification": {
                    "payload": "tree 25bac160c05a173dd05a9c3d4331bf7223e0cc75\nparent c9f0f0879a088fb142ba03314846e05baf364628\nauthor Romain Beaumont <romain.rom1@gmail.com> 1599398075 +0200\ncommitter GitHub <noreply@github.com> 1599398075 +0200\n\nprepare release 2.3.1",
                    "reason": "valid",
                    "signature": "-----BEGIN PGP SIGNATURE-----\n\nwsBcBAABCAAQBQJfVOC7CRBK7hj4Ov3rIwAAdHIIAHN6CzhxLz+nVY3lxjExqU7w\n286RZXsRSJClMDc8xmKT6/xWcneTS7GT0PzhJQ4uOuxxH2h1XuMeixVctMg0wSm8\njiBFLgZTNLt0QKiRD7isYtoYbQ8wDrcZB3d+giiAkR1HU3Dd5CrmQxnuki7mRmBq\nbbq5PI9MOX8bapXQ9ht9BsoPuYVckzGcdCL4rYDEV/T9N7HrRsdR+CnfuMvEum3O\non/esrvXdGgnFlBhEicXqJVBm+tWtiShAolYKJkX5zyQBW2Ah7E4hbNKMFyYP8uE\ntF4bn5ayXSJWeQ2DJwp0coymJULvEkp+/r4tKlbmuW2ChjYu0QSvkr3zsD4Rk5k=\n=OWIm\n-----END PGP SIGNATURE-----\n",
                    "verified": true
                }
            },
            "committer": {
                "avatar_url": "https://avatars.githubusercontent.com/u/19864447?v=4",
                "events_url": "https://api.github.com/users/web-flow/events{/privacy}",
                "followers_url": "https://api.github.com/users/web-flow/followers",
                "following_url": "https://api.github.com/users/web-flow/following{/other_user}",
                "gists_url": "https://api.github.com/users/web-flow/gists{/gist_id}",
                "gravatar_id": "",
                "html_url": "https://github.com/web-flow",
                "id": 19864447,
                "login": "web-flow",
                "node_id": "MDQ6VXNlcjE5ODY0NDQ3",
                "organizations_url": "https://api.github.com/users/web-flow/orgs",
                "received_events_url": "https://api.github.com/users/web-flow/received_events",
                "repos_url": "https://api.github.com/users/web-flow/repos",
                "site_admin": false,
                "starred_url": "https://api.github.com/users/web-flow/starred{/owner}{/repo}",
                "subscriptions_url": "https://api.github.com/users/web-flow/subscriptions",
                "type": "User",
                "url": "https://api.github.com/users/web-flow"
            },
            "html_url": "https://github.com/PrismarineJS/prismarine-provider-anvil/commit/8fa9653711d3e0c94792d607bd0ae0817c0b5842",
            "node_id": "MDY6Q29tbWl0MzE4MjU3MDc6OGZhOTY1MzcxMWQzZTBjOTQ3OTJkNjA3YmQwYWUwODE3YzBiNTg0Mg==",
            "parents": [
                {
                    "html_url": "https://github.com/PrismarineJS/prismarine-provider-anvil/commit/c9f0f0879a088fb142ba03314846e05baf364628",
                    "sha": "c9f0f0879a088fb142ba03314846e05baf364628",
                    "url": "https://api.github.com/repos/PrismarineJS/prismarine-provider-anvil/commits/c9f0f0879a088fb142ba03314846e05baf364628"
                }
            ],
            "sha": "8fa9653711d3e0c94792d607bd0ae0817c0b5842",
            "url": "https://api.github.com/repos/PrismarineJS/prismarine-provider-anvil/commits/8fa9653711d3e0c94792d607bd0ae0817c0b5842"
        },
        {
            "author": {
                "avatar_url": "https://avatars.githubusercontent.com/u/2346494?v=4",
                "events_url": "https://api.github.com/users/rom1504/events{/privacy}",
                "followers_url": "https://api.github.com/users/rom1504/followers",
                "following_url": "https://api.github.com/users/rom1504/following{/other_user}",
                "gists_url": "https://api.github.com/users/rom1504/gists{/gist_id}",
                "gravatar_id": "",
                "html_url": "https://github.com/rom1504",
                "id": 2346494,
                "login": "rom1504",
                "node_id": "MDQ6VXNlcjIzNDY0OTQ=",
                "organizations_url": "https://api.github.com/users/rom1504/orgs",
                "received_events_url": "https://api.github.com/users/rom1504/received_events",
                "repos_url": "https://api.github.com/users/rom1504/repos",
                "site_admin": false,
                "starred_url": "https://api.github.com/users/rom1504/starred{/owner}{/repo}",
                "subscriptions_url": "https://api.github.com/users/rom1504/subscriptions",
                "type": "User",
                "url": "https://api.github.com/users/rom1504"
            },
            "comments_url": "https://api.github.com/repos/PrismarineJS/prismarine-provider-anvil/commits/935e02127ecb87fbf39531b4f392aec96ddc20e0/comments",
            "commit": {
                "author": {
                    "date": "2020-09-06T13:15:15Z",
                    "email": "romain.rom1@gmail.com",
                    "name": "Romain Beaumont"
                },
                "comment_count": 0,
                "committer": {
                    "date": "2020-09-06T13:15:15Z",
                    "email": "noreply@github.com",
                    "name": "GitHub"
                },
                "message": "final commit",
                "tree": {
                    "sha": "cebce5d73f554d7cd6dee6b7dfb18078d1d4fe25",
                    "url": "https://api.github.com/repos/PrismarineJS/prismarine-provider-anvil/git/trees/cebce5d73f554d7cd6dee6b7dfb18078d1d4fe25"
                },
                "url": "https://api.github.com/repos/PrismarineJS/prismarine-provider-anvil/git/commits/935e02127ecb87fbf39531b4f392aec96ddc20e0",
                "verification": {
                    "payload": "tree cebce5d73f554d7cd6dee6b7dfb18078d1d4fe25\nparent 8fa9653711d3e0c94792d607bd0ae0817c0b5842\nauthor Romain Beaumont <romain.rom1@gmail.com> 1599398115 +0200\ncommitter GitHub <noreply@github.com> 1599398115 +0200\n\nfinal commit",
                    "reason": "valid",
                    "signature": "-----BEGIN PGP SIGNATURE-----\n\nwsBcBAABCAAQBQJfVODjCRBK7hj4Ov3rIwAAdHIIAJz9wr4pl0YOAKXQuOgRB/ze\nVz0v5s+OXFNuu6o0J/lBEBGQqt2lVFT6FK7X310++C5xCVodXYVATWS9Tq7BvrCs\nEoX0QAgnNkzTNxHmCm0l5AGyKcfAEe/rwomlbuhs+e1lQ00BLq7CpKKJkG+ROA8k\nhkHm1wthxTsQ/TUL19KcsFbxKmn+cgI8/NLq6/l8FwRDdU77A5ndBCh/oey88Qyo\n81bAG7tahItxowssUFaPde5FUY1IfBVAb8RrxVkoisIaQKNg1s7iw3wjSn3hlbrQ\ncPJzwGToWFTNvRlV6KzDkutMRVKO0solexx0ATSyUkTKFDEpgHUHuJPaecXPlQ8=\n=D/3j\n-----END PGP SIGNATURE-----\n",
                    "verified": true
                }
            },
            "committer": {
                "avatar_url": "https://avatars.githubusercontent.com/u/19864447?v=4",
                "events_url": "https://api.github.com/users/web-flow/events{/privacy}",
                "followers_url": "https://api.github.com/users/web-flow/followers",
                "following_url": "https://api.github.com/users/web-flow/following{/other_user}",
                "gists_url": "https://api.github.com/users/web-flow/gists{/gist_id}",
                "gravatar_id": "",
                "html_url": "https://github.com/web-flow",
                "id": 19864447,
                "login": "web-flow",
                "node_id": "MDQ6VXNlcjE5ODY0NDQ3",
                "organizations_url": "https://api.github.com/users/web-flow/orgs",
                "received_events_url": "https://api.github.com/users/web-flow/received_events",
                "repos_url": "https://api.github.com/users/web-flow/repos",
                "site_admin": false,
                "starred_url": "https://api.github.com/users/web-flow/starred{/owner}{/repo}",
                "subscriptions_url": "https://api.github.com/users/web-flow/subscriptions",
                "type": "User",
                "url": "https://api.github.com/users/web-flow"
            },
            "html_url": "https://github.com/PrismarineJS/prismarine-provider-anvil/commit/935e02127ecb87fbf39531b4f392aec96ddc20e0",
            "node_id": "MDY6Q29tbWl0MzE4MjU3MDc6OTM1ZTAyMTI3ZWNiODdmYmYzOTUzMWI0ZjM5MmFlYzk2ZGRjMjBlMA==",
            "parents": [
                {
                    "html_url": "https://github.com/PrismarineJS/prismarine-provider-anvil/commit/8fa9653711d3e0c94792d607bd0ae0817c0b5842",
                    "sha": "8fa9653711d3e0c94792d607bd0ae0817c0b5842",
                    "url": "https://api.github.com/repos/PrismarineJS/prismarine-provider-anvil/commits/8fa9653711d3e0c94792d607bd0ae0817c0b5842"
                }
            ],
            "sha": "935e02127ecb87fbf39531b4f392aec96ddc20e0",
            "url": "https://api.github.com/repos/PrismarineJS/prismarine-provider-anvil/commits/935e02127ecb87fbf39531b4f392aec96ddc20e0"
        }
    ],
    "commits": 2,
    "commits_url": "https://api.github.com/repos/PrismarineJS/prismarine-provider-anvil/pulls/30/commits",
    "created_at": "2020-09-06T13:14:49Z",
    "deletions": 1,
    "diff_url": "https://github.com/PrismarineJS/prismarine-provider-anvil/pull/30.diff",
    "draft": false,
    "head": {
        "label": "PrismarineJS:release-2.3.1",
        "ref": "release-2.3.1",
        "repo": {
            "allow_forking": true,
            "archive_url": "https://api.github.com/repos/PrismarineJS/prismarine-provider-anvil/{archive_format}{/ref}",
            "archived": false,
            "assignees_url": "https://api.github.com/repos/PrismarineJS/prismarine-provider-anvil/assignees{/user}",
            "blobs_url": "https://api.github.com/repos/PrismarineJS/prismarine-provider-anvil/git/blobs{/sha}",
            "branches_url": "https://api.github.com/repos/PrismarineJS/prismarine-provider-anvil/branches{/branch}",
            "clone_url": "https://github.com/PrismarineJS/prismarine-provider-anvil.git",
            "collaborators_url": "https://api.github.com/repos/PrismarineJS/prismarine-provider-anvil/collaborators{/collaborator}",
            "comments_url": "https://api.github.com/repos/PrismarineJS/prismarine-provider-anvil/comments{/number}",
            "commits_url": "https://api.github.com/repos/PrismarineJS/prismarine-provider-anvil/commits{/sha}",
            "compare_url": "https://api.github.com/repos/PrismarineJS/prismarine-provider-anvil/compare/{base}...{head}",
            "contents_url": "https://api.github.com/repos/PrismarineJS/prismarine-provider-anvil/contents/{+path}",
            "contributors_url": "https://api.github.com/repos/PrismarineJS/prismarine-provider-anvil/contributors",
            "created_at": "2015-03-07T20:11:01Z",
            "default_branch": "master",
            "deployments_url": "https://api.github.com/repos/PrismarineJS/prismarine-provider-anvil/deployments",
            "description": "Anvil Storage Provider implementation.",
            "disabled": false,
            "downloads_url": "https://api.github.com/repos/PrismarineJS/prismarine-provider-anvil/downloads",
            "events_url": "https://api.github.com/repos/PrismarineJS/prismarine-provider-anvil/events",
            "fork": false,
            "forks": 20,
            "forks_count": 20,
            "forks_url": "https://api.github.com/repos/PrismarineJS/prismarine-provider-anvil/forks",
            "full_name": "PrismarineJS/prismarine-provider-anvil",
            "git_commits_url": "https://api.github.com/repos/PrismarineJS/prismarine-provider-anvil/git/commits{/sha}",
            "git_refs_url": "https://api.github.com/repos/PrismarineJS/prismarine-provider-anvil/git/refs{/sha}",
            "git_tags_url": "https://api.github.com/repos/PrismarineJS/prismarine-provider-anvil/git/tags{/sha}",
            "git_url": "git://github.com/PrismarineJS/prismarine-provider-anvil.git",
            "has_discussions": false,
            "has_downloads": true,
            "has_issues": true,
            "has_pages": false,
            "has_projects": true,
            "has_wiki": true,
            "homepage": null,
            "hooks_url": "https://api.github.com/repos/PrismarineJS/prismarine-provider-anvil/hooks",
            "html_url": "https://github.com/PrismarineJS/prismarine-provider-anvil",
            "id": 31825707,
            "is_template": false,
            "issue_comment_url": "https://api.github.com/repos/PrismarineJS/prismarine-provider-anvil/issues/comments{/number}",
            "issue_events_url": "https://api.github.com/repos/PrismarineJS/prismarine-provider-anvil/issues/events{/number}",
            "issues_url": "https://api.github.com/repos/PrismarineJS/prismarine-provider-anvil/issues{/number}",
            "keys_url": "https://api.github.com/repos/PrismarineJS/prismarine-provider-anvil/keys{/key_id}",
            "labels_url": "https://api.github.com/repos/PrismarineJS/prismarine-provider-anvil/labels{/name}",
            "language": "JavaScript",
            "languages_url": "https://api.github.com/repos/PrismarineJS/prismarine-provider-anvil/languages",
            "license": null,
            "merges_url": "https://api.github.com/repos/PrismarineJS/prismarine-provider-anvil/merges",
            "milestones_url": "https://api.github.com/repos/PrismarineJS/prismarine-provider-anvil/milestones{/number}",
            "mirror_url": null,
            "name": "prismarine-provider-anvil",
            "node_id": "MDEwOlJlcG9zaXRvcnkzMTgyNTcwNw==",
            "notifications_url": "https://api.github.com/repos/PrismarineJS/prismarine-provider-anvil/notifications{?since,all,participating}",
            "open_issues": 10,
            "open_issues_count": 10,
            "owner": {
                "avatar_url": "https://avatars.githubusercontent.com/u/11053411?v=4",
                "events_url": "https://api.github.com/users/PrismarineJS/events{/privacy}",
                "followers_url": "https://api.github.com/users/PrismarineJS/followers",
                "following_url": "https://api.github.com/users/PrismarineJS/following{/other_user}",
                "gists_url": "https://api.github.com/users/PrismarineJS/gists{/gist_id}",
                "gravatar_id": "",
                "html_url": "https://github.com/PrismarineJS",
                "id": 11053411,
                "login": "PrismarineJS",
                "node_id": "MDEyOk9yZ2FuaXphdGlvbjExMDUzNDEx",
                "organizations_url": "https://api.github.com/users/PrismarineJS/orgs",
                "received_events_url": "https://api.github.com/users/PrismarineJS/received_events",
                "repos_url": "https://api.github.com/users/PrismarineJS/repos",
                "site_admin": false,
                "starred_url": "https://api.github.com/users/PrismarineJS/starred{/owner}{/repo}",
                "subscriptions_url": "https://api.github.com/users/PrismarineJS/subscriptions",
                "type": "Organization",
                "url": "https://api.github.com/users/PrismarineJS"
            },
            "private": false,
            "pulls_url": "https://api.github.com/repos/PrismarineJS/prismarine-provider-anvil/pulls{/number}",
            "pushed_at": "2023-04-19T16:46:32Z",
            "releases_url": "https://api.github.com/repos/PrismarineJS/prismarine-provider-anvil/releases{/id}",
            "size": 6497,
            "ssh_url": "git@github.com:PrismarineJS/prismarine-provider-anvil.git",
            "stargazers_count": 10,
            "stargazers_url": "https://api.github.com/repos/PrismarineJS/prismarine-provider-anvil/stargazers",
            "statuses_url": "https://api.github.com/repos/PrismarineJS/prismarine-provider-anvil/statuses/{sha}",
            "subscribers_url": "https://api.github.com/repos/PrismarineJS/prismarine-provider-anvil/subscribers",
            "subscription_url": "https://api.github.com/repos/PrismarineJS/prismarine-provider-anvil/subscription",
            "svn_url": "https://github.com/PrismarineJS/prismarine-provider-anvil",
            "tags_url": "https://api.github.com/repos/PrismarineJS/prismarine-provider-anvil/tags",
            "teams_url": "https://api.github.com/repos/PrismarineJS/prismarine-provider-anvil/teams",
            "topics": [],
            "trees_url": "https://api.github.com/repos/PrismarineJS/prismarine-provider-anvil/git/trees{/sha}",
            "updated_at": "2022-04-28T20:40:54Z",
            "url": "https://api.github.com/repos/PrismarineJS/prismarine-provider-anvil",
            "visibility": "public",
            "watchers": 10,
            "watchers_count": 10,
            "web_commit_signoff_required": false
        },
        "sha": "935e02127ecb87fbf39531b4f392aec96ddc20e0",
        "user": {
            "avatar_url": "https://avatars.githubusercontent.com/u/11053411?v=4",
            "events_url": "https://api.github.com/users/PrismarineJS/events{/privacy}",
            "followers_url": "https://api.github.com/users/PrismarineJS/followers",
            "following_url": "https://api.github.com/users/PrismarineJS/following{/other_user}",
            "gists_url": "https://api.github.com/users/PrismarineJS/gists{/gist_id}",
            "gravatar_id": "",
            "html_url": "https://github.com/PrismarineJS",
            "id": 11053411,
            "login": "PrismarineJS",
            "node_id": "MDEyOk9yZ2FuaXphdGlvbjExMDUzNDEx",
            "organizations_url": "https://api.github.com/users/PrismarineJS/orgs",
            "received_events_url": "https://api.github.com/users/PrismarineJS/received_events",
            "repos_url": "https://api.github.com/users/PrismarineJS/repos",
            "site_admin": false,
            "starred_url": "https://api.github.com/users/PrismarineJS/starred{/owner}{/repo}",
            "subscriptions_url": "https://api.github.com/users/PrismarineJS/subscriptions",
            "type": "Organization",
            "url": "https://api.github.com/users/PrismarineJS"
        }
    },
    "html_url": "https://github.com/PrismarineJS/prismarine-provider-anvil/pull/30",
    "id": 480762673,
    "issue_url": "https://api.github.com/repos/PrismarineJS/prismarine-provider-anvil/issues/30",
    "labels": [],
    "locked": false,
    "maintainer_can_modify": false,
    "merge_commit_sha": "078bbc1726d6e5fa0746f6bc237f402cc8c47f2e",
    "mergeable": null,
    "mergeable_state": "unknown",
    "merged": true,
    "merged_at": "2020-09-06T13:15:39Z",
    "merged_by": {
        "avatar_url": "https://avatars.githubusercontent.com/u/2346494?v=4",
        "events_url": "https://api.github.com/users/rom1504/events{/privacy}",
        "followers_url": "https://api.github.com/users/rom1504/followers",
        "following_url": "https://api.github.com/users/rom1504/following{/other_user}",
        "gists_url": "https://api.github.com/users/rom1504/gists{/gist_id}",
        "gravatar_id": "",
        "html_url": "https://github.com/rom1504",
        "id": 2346494,
        "login": "rom1504",
        "node_id": "MDQ6VXNlcjIzNDY0OTQ=",
        "organizations_url": "https://api.github.com/users/rom1504/orgs",
        "received_events_url": "https://api.github.com/users/rom1504/received_events",
        "repos_url": "https://api.github.com/users/rom1504/repos",
        "site_admin": false,
        "starred_url": "https://api.github.com/users/rom1504/starred{/owner}{/repo}",
        "subscriptions_url": "https://api.github.com/users/rom1504/subscriptions",
        "type": "User",
        "url": "https://api.github.com/users/rom1504"
    },
    "milestone": null,
    "node_id": "MDExOlB1bGxSZXF1ZXN0NDgwNzYyNjcz",
    "number": 30,
    "patch_url": "https://github.com/PrismarineJS/prismarine-provider-anvil/pull/30.patch",
    "rebaseable": null,
    "requested_reviewers": [],
    "requested_teams": [],
    "review_comment_url": "https://api.github.com/repos/PrismarineJS/prismarine-provider-anvil/pulls/comments{/number}",
    "review_comments": 0,
    "review_comments_url": "https://api.github.com/repos/PrismarineJS/prismarine-provider-anvil/pulls/30/comments",
    "state": "closed",
    "statuses_url": "https://api.github.com/repos/PrismarineJS/prismarine-provider-anvil/statuses/935e02127ecb87fbf39531b4f392aec96ddc20e0",
    "title": "Release 2.3.1",
    "updated_at": "2020-09-06T13:15:42Z",
    "url": "https://api.github.com/repos/PrismarineJS/prismarine-provider-anvil/pulls/30",
    "user": {
        "avatar_url": "https://avatars.githubusercontent.com/u/2346494?v=4",
        "events_url": "https://api.github.com/users/rom1504/events{/privacy}",
        "followers_url": "https://api.github.com/users/rom1504/followers",
        "following_url": "https://api.github.com/users/rom1504/following{/other_user}",
        "gists_url": "https://api.github.com/users/rom1504/gists{/gist_id}",
        "gravatar_id": "",
        "html_url": "https://github.com/rom1504",
        "id": 2346494,
        "login": "rom1504",
        "node_id": "MDQ6VXNlcjIzNDY0OTQ=",
        "organizations_url": "https://api.github.com/users/rom1504/orgs",
        "received_events_url": "https://api.github.com/users/rom1504/received_events",
        "repos_url": "https://api.github.com/users/rom1504/repos",
        "site_admin": false,
        "starred_url": "https://api.github.com/users/rom1504/starred{/owner}{/repo}",
        "subscriptions_url": "https://api.github.com/users/rom1504/subscriptions",
        "type": "User",
        "url": "https://api.github.com/users/rom1504"
    }
}