{
    "_links": {
        "comments": {
            "href": "https://api.github.com/repos/PrismarineJS/prismarine-provider-anvil/issues/85/comments"
        },
        "commits": {
            "href": "https://api.github.com/repos/PrismarineJS/prismarine-provider-anvil/pulls/85/commits"
        },
        "html": {
            "href": "https://github.com/PrismarineJS/prismarine-provider-anvil/pull/85"
        },
        "issue": {
            "href": "https://api.github.com/repos/PrismarineJS/prismarine-provider-anvil/issues/85"
        },
        "review_comment": {
            "href": "https://api.github.com/repos/PrismarineJS/prismarine-provider-anvil/pulls/comments{/number}"
        },
        "review_comments": {
            "href": "https://api.github.com/repos/PrismarineJS/prismarine-provider-anvil/pulls/85/comments"
        },
        "self": {
            "href": "https://api.github.com/repos/PrismarineJS/prismarine-provider-anvil/pulls/85"
        },
        "statuses": {
            "href": "https://api.github.com/repos/PrismarineJS/prismarine-provider-anvil/statuses/8af53d3c2f46260f5f5c0ca3614e937d4fbb7272"
        }
    },
    "active_lock_reason": null,
    "additions": 12,
    "assignee": null,
    "assignees": [],
    "author_association": "MEMBER",
    "auto_merge": null,
    "base": {
        "label": "PrismarineJS:master",
        "ref": "master",
        "repo": {
            "allow_forking": true,
            "archive_url": "https://api.github.com/repos/PrismarineJS/prismarine-provider-anvil/{archive_format}{/ref}",
            "archived": false,
            "assignees_url": "https://api.github.com/repos/PrismarineJS/prismarine-provider-anvil/assignees{/user}",
            "blobs_url": "https://api.github.com/repos/PrismarineJS/prismarine-provider-anvil/git/blobs{/sha}",
            "branches_url": "https://api.github.com/repos/PrismarineJS/prismarine-provider-anvil/branches{/branch}",
            "clone_url": "https://github.com/PrismarineJS/prismarine-provider-anvil.git",
            "collaborators_url": "https://api.github.com/repos/PrismarineJS/prismarine-provider-anvil/collaborators{/collaborator}",
            "comments_url": "https://api.github.com/repos/PrismarineJS/prismarine-provider-anvil/comments{/number}",
            "commits_url": "https://api.github.com/repos/PrismarineJS/prismarine-provider-anvil/commits{/sha}",
            "compare_url": "https://api.github.com/repos/PrismarineJS/prismarine-provider-anvil/compare/{base}...{head}",
            "contents_url": "https://api.github.com/repos/PrismarineJS/prismarine-provider-anvil/contents/{+path}",
            "contributors_url": "https://api.github.com/repos/PrismarineJS/prismarine-provider-anvil/contributors",
            "created_at": "2015-03-07T20:11:01Z",
            "default_branch": "master",
            "deployments_url": "https://api.github.com/repos/PrismarineJS/prismarine-provider-anvil/deployments",
            "description": "Anvil Storage Provider implementation.",
            "disabled": false,
            "downloads_url": "https://api.github.com/repos/PrismarineJS/prismarine-provider-anvil/downloads",
            "events_url": "https://api.github.com/repos/PrismarineJS/prismarine-provider-anvil/events",
            "fork": false,
            "forks": 24,
            "forks_count": 24,
            "forks_url": "https://api.github.com/repos/PrismarineJS/prismarine-provider-anvil/forks",
            "full_name": "PrismarineJS/prismarine-provider-anvil",
            "git_commits_url": "https://api.github.com/repos/PrismarineJS/prismarine-provider-anvil/git/commits{/sha}",
            "git_refs_url": "https://api.github.com/repos/PrismarineJS/prismarine-provider-anvil/git/refs{/sha}",
            "git_tags_url": "https://api.github.com/repos/PrismarineJS/prismarine-provider-anvil/git/tags{/sha}",
            "git_url": "git://github.com/PrismarineJS/prismarine-provider-anvil.git",
            "has_discussions": false,
            "has_downloads": true,
            "has_issues": true,
            "has_pages": false,
            "has_projects": true,
            "has_wiki": true,
            "homepage": null,
            "hooks_url": "https://api.github.com/repos/PrismarineJS/prismarine-provider-anvil/hooks",
            "html_url": "https://github.com/PrismarineJS/prismarine-provider-anvil",
            "id": 31825707,
            "is_template": false,
            "issue_comment_url": "https://api.github.com/repos/PrismarineJS/prismarine-provider-anvil/issues/comments{/number}",
            "issue_events_url": "https://api.github.com/repos/PrismarineJS/prismarine-provider-anvil/issues/events{/number}",
            "issues_url": "https://api.github.com/repos/PrismarineJS/prismarine-provider-anvil/issues{/number}",
            "keys_url": "https://api.github.com/repos/PrismarineJS/prismarine-provider-anvil/keys{/key_id}",
            "labels_url": "https://api.github.com/repos/PrismarineJS/prismarine-provider-anvil/labels{/name}",
            "language": "JavaScript",
            "languages_url": "https://api.github.com/repos/PrismarineJS/prismarine-provider-anvil/languages",
            "license": null,
            "merges_url": "https://api.github.com/repos/PrismarineJS/prismarine-provider-anvil/merges",
            "milestones_url": "https://api.github.com/repos/PrismarineJS/prismarine-provider-anvil/milestones{/number}",
            "mirror_url": null,
            "name": "prismarine-provider-anvil",
            "node_id": "MDEwOlJlcG9zaXRvcnkzMTgyNTcwNw==",
            "notifications_url": "https://api.github.com/repos/PrismarineJS/prismarine-provider-anvil/notifications{?since,all,participating}",
            "open_issues": 13,
            "open_issues_count": 13,
            "owner": {
                "avatar_url": "https://avatars.githubusercontent.com/u/11053411?v=4",
                "events_url": "https://api.github.com/users/PrismarineJS/events{/privacy}",
                "followers_url": "https://api.github.com/users/PrismarineJS/followers",
                "following_url": "https://api.github.com/users/PrismarineJS/following{/other_user}",
                "gists_url": "https://api.github.com/users/PrismarineJS/gists{/gist_id}",
                "gravatar_id": "",
                "html_url": "https://github.com/PrismarineJS",
                "id": 11053411,
                "login": "PrismarineJS",
                "node_id": "MDEyOk9yZ2FuaXphdGlvbjExMDUzNDEx",
                "organizations_url": "https://api.github.com/users/PrismarineJS/orgs",
                "received_events_url": "https://api.github.com/users/PrismarineJS/received_events",
                "repos_url": "https://api.github.com/users/PrismarineJS/repos",
                "site_admin": false,
                "starred_url": "https://api.github.com/users/PrismarineJS/starred{/owner}{/repo}",
                "subscriptions_url": "https://api.github.com/users/PrismarineJS/subscriptions",
                "type": "Organization",
                "url": "https://api.github.com/users/PrismarineJS",
                "user_view_type": "public"
            },
            "private": false,
            "pulls_url": "https://api.github.com/repos/PrismarineJS/prismarine-provider-anvil/pulls{/number}",
            "pushed_at": "2025-01-01T10:08:20Z",
            "releases_url": "https://api.github.com/repos/PrismarineJS/prismarine-provider-anvil/releases{/id}",
            "size": 9068,
            "ssh_url": "git@github.com:PrismarineJS/prismarine-provider-anvil.git",
            "stargazers_count": 13,
            "stargazers_url": "https://api.github.com/repos/PrismarineJS/prismarine-provider-anvil/stargazers",
            "statuses_url": "https://api.github.com/repos/PrismarineJS/prismarine-provider-anvil/statuses/{sha}",
            "subscribers_url": "https://api.github.com/repos/PrismarineJS/prismarine-provider-anvil/subscribers",
            "subscription_url": "https://api.github.com/repos/PrismarineJS/prismarine-provider-anvil/subscription",
            "svn_url": "https://github.com/PrismarineJS/prismarine-provider-anvil",
            "tags_url": "https://api.github.com/repos/PrismarineJS/prismarine-provider-anvil/tags",
            "teams_url": "https://api.github.com/repos/PrismarineJS/prismarine-provider-anvil/teams",
            "topics": [],
            "trees_url": "https://api.github.com/repos/PrismarineJS/prismarine-provider-anvil/git/trees{/sha}",
            "updated_at": "2025-01-01T10:08:24Z",
            "url": "https://api.github.com/repos/PrismarineJS/prismarine-provider-anvil",
            "visibility": "public",
            "watchers": 13,
            "watchers_count": 13,
            "web_commit_signoff_required": false
        },
        "sha": "25da171b17f69e4252764931f8adba88b93f5a18",
        "user": {
            "avatar_url": "https://avatars.githubusercontent.com/u/11053411?v=4",
            "events_url": "https://api.github.com/users/PrismarineJS/events{/privacy}",
            "followers_url": "https://api.github.com/users/PrismarineJS/followers",
            "following_url": "https://api.github.com/users/PrismarineJS/following{/other_user}",
            "gists_url": "https://api.github.com/users/PrismarineJS/gists{/gist_id}",
            "gravatar_id": "",
            "html_url": "https://github.com/PrismarineJS",
            "id": 11053411,
            "login": "PrismarineJS",
            "node_id": "MDEyOk9yZ2FuaXphdGlvbjExMDUzNDEx",
            "organizations_url": "https://api.github.com/users/PrismarineJS/orgs",
            "received_events_url": "https://api.github.com/users/PrismarineJS/received_events",
            "repos_url": "https://api.github.com/users/PrismarineJS/repos",
            "site_admin": false,
            "starred_url": "https://api.github.com/users/PrismarineJS/starred{/owner}{/repo}",
            "subscriptions_url": "https://api.github.com/users/PrismarineJS/subscriptions",
            "type": "Organization",
            "url": "https://api.github.com/users/PrismarineJS",
            "user_view_type": "public"
        }
    },
    "body": "Keep the 1.14 impl for now and just overwrite the mask (previously an integer) to be a BitArray as expected by prismarine-chunk\r\n\r\nI agree this should be its own file and work like 1.18 but quicker for now without potentially breaking anything big\r\n\r\nWorking in flying-squid 1.17\r\n\r\n![image](https://github.com/user-attachments/assets/4ca4a593-fa53-4828-a8f3-e936daadbba0)\r\n",
    "changed_files": 1,
    "closed_at": "2025-01-01T10:05:53Z",
    "comment_data": [],
    "comment_regular_data": [
        {
            "author_association": "MEMBER",
            "body": "/makerelease",
            "created_at": "2025-01-01T10:06:10Z",
            "html_url": "https://github.com/PrismarineJS/prismarine-provider-anvil/pull/85#issuecomment-2566939472",
            "id": 2566939472,
            "issue_url": "https://api.github.com/repos/PrismarineJS/prismarine-provider-anvil/issues/85",
            "node_id": "IC_kwDOAeWfK86ZAGNQ",
            "performed_via_github_app": null,
            "reactions": {
                "+1": 0,
                "-1": 0,
                "confused": 0,
                "eyes": 1,
                "heart": 0,
                "hooray": 0,
                "laugh": 0,
                "rocket": 0,
                "total_count": 1,
                "url": "https://api.github.com/repos/PrismarineJS/prismarine-provider-anvil/issues/comments/2566939472/reactions"
            },
            "updated_at": "2025-01-01T10:06:10Z",
            "url": "https://api.github.com/repos/PrismarineJS/prismarine-provider-anvil/issues/comments/2566939472",
            "user": {
                "avatar_url": "https://avatars.githubusercontent.com/u/2346494?v=4",
                "events_url": "https://api.github.com/users/rom1504/events{/privacy}",
                "followers_url": "https://api.github.com/users/rom1504/followers",
                "following_url": "https://api.github.com/users/rom1504/following{/other_user}",
                "gists_url": "https://api.github.com/users/rom1504/gists{/gist_id}",
                "gravatar_id": "",
                "html_url": "https://github.com/rom1504",
                "id": 2346494,
                "login": "rom1504",
                "node_id": "MDQ6VXNlcjIzNDY0OTQ=",
                "organizations_url": "https://api.github.com/users/rom1504/orgs",
                "received_events_url": "https://api.github.com/users/rom1504/received_events",
                "repos_url": "https://api.github.com/users/rom1504/repos",
                "site_admin": false,
                "starred_url": "https://api.github.com/users/rom1504/starred{/owner}{/repo}",
                "subscriptions_url": "https://api.github.com/users/rom1504/subscriptions",
                "type": "User",
                "url": "https://api.github.com/users/rom1504",
                "user_view_type": "public"
            }
        }
    ],
    "comments": 1,
    "comments_url": "https://api.github.com/repos/PrismarineJS/prismarine-provider-anvil/issues/85/comments",
    "commit_data": [
        {
            "author": {
                "avatar_url": "https://avatars.githubusercontent.com/u/13713600?v=4",
                "events_url": "https://api.github.com/users/extremeheat/events{/privacy}",
                "followers_url": "https://api.github.com/users/extremeheat/followers",
                "following_url": "https://api.github.com/users/extremeheat/following{/other_user}",
                "gists_url": "https://api.github.com/users/extremeheat/gists{/gist_id}",
                "gravatar_id": "",
                "html_url": "https://github.com/extremeheat",
                "id": 13713600,
                "login": "extremeheat",
                "node_id": "MDQ6VXNlcjEzNzEzNjAw",
                "organizations_url": "https://api.github.com/users/extremeheat/orgs",
                "received_events_url": "https://api.github.com/users/extremeheat/received_events",
                "repos_url": "https://api.github.com/users/extremeheat/repos",
                "site_admin": false,
                "starred_url": "https://api.github.com/users/extremeheat/starred{/owner}{/repo}",
                "subscriptions_url": "https://api.github.com/users/extremeheat/subscriptions",
                "type": "User",
                "url": "https://api.github.com/users/extremeheat",
                "user_view_type": "public"
            },
            "comments_url": "https://api.github.com/repos/PrismarineJS/prismarine-provider-anvil/commits/8af53d3c2f46260f5f5c0ca3614e937d4fbb7272/comments",
            "commit": {
                "author": {
                    "date": "2025-01-01T07:31:52Z",
                    "email": "extreme@protonmail.ch",
                    "name": "extremeheat"
                },
                "comment_count": 0,
                "committer": {
                    "date": "2025-01-01T07:31:52Z",
                    "email": "noreply@github.com",
                    "name": "GitHub"
                },
                "message": "Quick fix for pc1.17 masks\n\nKeep the 1.14 impl for now and just overwrite the mask (previously an integer) to be a BitArray as expected by prismarine-chunk",
                "tree": {
                    "sha": "2f962d2ede95958a3bf2f185f2b418802e6537d1",
                    "url": "https://api.github.com/repos/PrismarineJS/prismarine-provider-anvil/git/trees/2f962d2ede95958a3bf2f185f2b418802e6537d1"
                },
                "url": "https://api.github.com/repos/PrismarineJS/prismarine-provider-anvil/git/commits/8af53d3c2f46260f5f5c0ca3614e937d4fbb7272",
                "verification": {
                    "payload": "tree 2f962d2ede95958a3bf2f185f2b418802e6537d1\nparent 25da171b17f69e4252764931f8adba88b93f5a18\nauthor extremeheat <extreme@protonmail.ch> 1735716712 -0500\ncommitter GitHub <noreply@github.com> 1735716712 -0500\n\nQuick fix for pc1.17 masks\n\nKeep the 1.14 impl for now and just overwrite the mask (previously an integer) to be a BitArray as expected by prismarine-chunk",
                    "reason": "valid",
                    "signature": "-----BEGIN PGP SIGNATURE-----\n\nwsFcBAABCAAQBQJndO9pCRC1aQ7uu5UhlAAAuGcQAIq+bt5Br4t4lxQPPUGOpkVm\nBENfC3lUR3uAqQvvcnr/khg9azIMdBqoHf5SKCN2DYZXjxA7JlIBoy3Jl9LjljeU\nH9QNEHiFg7LVnOiPPrMipWRAOIAxGqwsIQeOXNc99ro6w42pSRgX9T0hAI6SzMbN\nmHGaPWK65Ri9ogVD6FJ9F2wK1bD0qf7Rbg0L+mMpWO/kvZOhGEI2dTI0RGME4/t+\n3fu0tY0h1bK7LfzezH2iqtAhqRnncQQ3DLPje2cXEBzyXkmdeC0zt3Lj9ykJ8AZm\nwN02y4aSxkN4yslDdwK0ex2QD7cBS3CbnkPz6sPceUkcYlyZYHaBs3WFUbcfEoQm\n4hj9LflMArBk5EFlJnszQ24IFqthPyPwzSRdAEKhIRVhB1qRS4sSdQzGuLs/bHUa\n6M4ePUEgsX9H485TleSTQFPZVYrQvg7fZyzY6VIipROuJu8jvmbDbcWlU+MZEjOA\nqLOCIfJqoR6ChPlquc2bfpKDFGV7aW1JfMzPhb/irXkOOhZjlJbzjz1J/+39u9ZK\npbQ18GGdSfl2ecaGfcdDaqzkkgVZ7FsQ0MDeclEaVGxY5+pxKHUtuKl2+X4q8XKq\ngXKv/FngCSAQeb4NkCsy0eMEko6o92xXO+vsZP2NZbmiMpgOZ8yyEVJhxbBkNIGh\n2CK+advNwcNxsEyn883X\n=RzJc\n-----END PGP SIGNATURE-----\n",
                    "verified": true,
                    "verified_at": "2025-01-01T07:31:53Z"
                }
            },
            "committer": {
                "avatar_url": "https://avatars.githubusercontent.com/u/19864447?v=4",
                "events_url": "https://api.github.com/users/web-flow/events{/privacy}",
                "followers_url": "https://api.github.com/users/web-flow/followers",
                "following_url": "https://api.github.com/users/web-flow/following{/other_user}",
                "gists_url": "https://api.github.com/users/web-flow/gists{/gist_id}",
                "gravatar_id": "",
                "html_url": "https://github.com/web-flow",
                "id": 19864447,
                "login": "web-flow",
                "node_id": "MDQ6VXNlcjE5ODY0NDQ3",
                "organizations_url": "https://api.github.com/users/web-flow/orgs",
                "received_events_url": "https://api.github.com/users/web-flow/received_events",
                "repos_url": "https://api.github.com/users/web-flow/repos",
                "site_admin": false,
                "starred_url": "https://api.github.com/users/web-flow/starred{/owner}{/repo}",
                "subscriptions_url": "https://api.github.com/users/web-flow/subscriptions",
                "type": "User",
                "url": "https://api.github.com/users/web-flow",
                "user_view_type": "public"
            },
            "html_url": "https://github.com/PrismarineJS/prismarine-provider-anvil/commit/8af53d3c2f46260f5f5c0ca3614e937d4fbb7272",
            "node_id": "C_kwDOAeWfK9oAKDhhZjUzZDNjMmY0NjI2MGY1ZjVjMGNhMzYxNGU5MzdkNGZiYjcyNzI",
            "parents": [
                {
                    "html_url": "https://github.com/PrismarineJS/prismarine-provider-anvil/commit/25da171b17f69e4252764931f8adba88b93f5a18",
                    "sha": "25da171b17f69e4252764931f8adba88b93f5a18",
                    "url": "https://api.github.com/repos/PrismarineJS/prismarine-provider-anvil/commits/25da171b17f69e4252764931f8adba88b93f5a18"
                }
            ],
            "sha": "8af53d3c2f46260f5f5c0ca3614e937d4fbb7272",
            "url": "https://api.github.com/repos/PrismarineJS/prismarine-provider-anvil/commits/8af53d3c2f46260f5f5c0ca3614e937d4fbb7272"
        }
    ],
    "commits": 1,
    "commits_url": "https://api.github.com/repos/PrismarineJS/prismarine-provider-anvil/pulls/85/commits",
    "created_at": "2025-01-01T07:36:07Z",
    "deletions": 0,
    "diff_url": "https://github.com/PrismarineJS/prismarine-provider-anvil/pull/85.diff",
    "draft": false,
    "head": {
        "label": "PrismarineJS:pc1.17maskfix",
        "ref": "pc1.17maskfix",
        "repo": {
            "allow_forking": true,
            "archive_url": "https://api.github.com/repos/PrismarineJS/prismarine-provider-anvil/{archive_format}{/ref}",
            "archived": false,
            "assignees_url": "https://api.github.com/repos/PrismarineJS/prismarine-provider-anvil/assignees{/user}",
            "blobs_url": "https://api.github.com/repos/PrismarineJS/prismarine-provider-anvil/git/blobs{/sha}",
            "branches_url": "https://api.github.com/repos/PrismarineJS/prismarine-provider-anvil/branches{/branch}",
            "clone_url": "https://github.com/PrismarineJS/prismarine-provider-anvil.git",
            "collaborators_url": "https://api.github.com/repos/PrismarineJS/prismarine-provider-anvil/collaborators{/collaborator}",
            "comments_url": "https://api.github.com/repos/PrismarineJS/prismarine-provider-anvil/comments{/number}",
            "commits_url": "https://api.github.com/repos/PrismarineJS/prismarine-provider-anvil/commits{/sha}",
            "compare_url": "https://api.github.com/repos/PrismarineJS/prismarine-provider-anvil/compare/{base}...{head}",
            "contents_url": "https://api.github.com/repos/PrismarineJS/prismarine-provider-anvil/contents/{+path}",
            "contributors_url": "https://api.github.com/repos/PrismarineJS/prismarine-provider-anvil/contributors",
            "created_at": "2015-03-07T20:11:01Z",
            "default_branch": "master",
            "deployments_url": "https://api.github.com/repos/PrismarineJS/prismarine-provider-anvil/deployments",
            "description": "Anvil Storage Provider implementation.",
            "disabled": false,
            "downloads_url": "https://api.github.com/repos/PrismarineJS/prismarine-provider-anvil/downloads",
            "events_url": "https://api.github.com/repos/PrismarineJS/prismarine-provider-anvil/events",
            "fork": false,
            "forks": 24,
            "forks_count": 24,
            "forks_url": "https://api.github.com/repos/PrismarineJS/prismarine-provider-anvil/forks",
            "full_name": "PrismarineJS/prismarine-provider-anvil",
            "git_commits_url": "https://api.github.com/repos/PrismarineJS/prismarine-provider-anvil/git/commits{/sha}",
            "git_refs_url": "https://api.github.com/repos/PrismarineJS/prismarine-provider-anvil/git/refs{/sha}",
            "git_tags_url": "https://api.github.com/repos/PrismarineJS/prismarine-provider-anvil/git/tags{/sha}",
            "git_url": "git://github.com/PrismarineJS/prismarine-provider-anvil.git",
            "has_discussions": false,
            "has_downloads": true,
            "has_issues": true,
            "has_pages": false,
            "has_projects": true,
            "has_wiki": true,
            "homepage": null,
            "hooks_url": "https://api.github.com/repos/PrismarineJS/prismarine-provider-anvil/hooks",
            "html_url": "https://github.com/PrismarineJS/prismarine-provider-anvil",
            "id": 31825707,
            "is_template": false,
            "issue_comment_url": "https://api.github.com/repos/PrismarineJS/prismarine-provider-anvil/issues/comments{/number}",
            "issue_events_url": "https://api.github.com/repos/PrismarineJS/prismarine-provider-anvil/issues/events{/number}",
            "issues_url": "https://api.github.com/repos/PrismarineJS/prismarine-provider-anvil/issues{/number}",
            "keys_url": "https://api.github.com/repos/PrismarineJS/prismarine-provider-anvil/keys{/key_id}",
            "labels_url": "https://api.github.com/repos/PrismarineJS/prismarine-provider-anvil/labels{/name}",
            "language": "JavaScript",
            "languages_url": "https://api.github.com/repos/PrismarineJS/prismarine-provider-anvil/languages",
            "license": null,
            "merges_url": "https://api.github.com/repos/PrismarineJS/prismarine-provider-anvil/merges",
            "milestones_url": "https://api.github.com/repos/PrismarineJS/prismarine-provider-anvil/milestones{/number}",
            "mirror_url": null,
            "name": "prismarine-provider-anvil",
            "node_id": "MDEwOlJlcG9zaXRvcnkzMTgyNTcwNw==",
            "notifications_url": "https://api.github.com/repos/PrismarineJS/prismarine-provider-anvil/notifications{?since,all,participating}",
            "open_issues": 13,
            "open_issues_count": 13,
            "owner": {
                "avatar_url": "https://avatars.githubusercontent.com/u/11053411?v=4",
                "events_url": "https://api.github.com/users/PrismarineJS/events{/privacy}",
                "followers_url": "https://api.github.com/users/PrismarineJS/followers",
                "following_url": "https://api.github.com/users/PrismarineJS/following{/other_user}",
                "gists_url": "https://api.github.com/users/PrismarineJS/gists{/gist_id}",
                "gravatar_id": "",
                "html_url": "https://github.com/PrismarineJS",
                "id": 11053411,
                "login": "PrismarineJS",
                "node_id": "MDEyOk9yZ2FuaXphdGlvbjExMDUzNDEx",
                "organizations_url": "https://api.github.com/users/PrismarineJS/orgs",
                "received_events_url": "https://api.github.com/users/PrismarineJS/received_events",
                "repos_url": "https://api.github.com/users/PrismarineJS/repos",
                "site_admin": false,
                "starred_url": "https://api.github.com/users/PrismarineJS/starred{/owner}{/repo}",
                "subscriptions_url": "https://api.github.com/users/PrismarineJS/subscriptions",
                "type": "Organization",
                "url": "https://api.github.com/users/PrismarineJS",
                "user_view_type": "public"
            },
            "private": false,
            "pulls_url": "https://api.github.com/repos/PrismarineJS/prismarine-provider-anvil/pulls{/number}",
            "pushed_at": "2025-01-01T10:08:20Z",
            "releases_url": "https://api.github.com/repos/PrismarineJS/prismarine-provider-anvil/releases{/id}",
            "size": 9068,
            "ssh_url": "git@github.com:PrismarineJS/prismarine-provider-anvil.git",
            "stargazers_count": 13,
            "stargazers_url": "https://api.github.com/repos/PrismarineJS/prismarine-provider-anvil/stargazers",
            "statuses_url": "https://api.github.com/repos/PrismarineJS/prismarine-provider-anvil/statuses/{sha}",
            "subscribers_url": "https://api.github.com/repos/PrismarineJS/prismarine-provider-anvil/subscribers",
            "subscription_url": "https://api.github.com/repos/PrismarineJS/prismarine-provider-anvil/subscription",
            "svn_url": "https://github.com/PrismarineJS/prismarine-provider-anvil",
            "tags_url": "https://api.github.com/repos/PrismarineJS/prismarine-provider-anvil/tags",
            "teams_url": "https://api.github.com/repos/PrismarineJS/prismarine-provider-anvil/teams",
            "topics": [],
            "trees_url": "https://api.github.com/repos/PrismarineJS/prismarine-provider-anvil/git/trees{/sha}",
            "updated_at": "2025-01-01T10:08:24Z",
            "url": "https://api.github.com/repos/PrismarineJS/prismarine-provider-anvil",
            "visibility": "public",
            "watchers": 13,
            "watchers_count": 13,
            "web_commit_signoff_required": false
        },
        "sha": "8af53d3c2f46260f5f5c0ca3614e937d4fbb7272",
        "user": {
            "avatar_url": "https://avatars.githubusercontent.com/u/11053411?v=4",
            "events_url": "https://api.github.com/users/PrismarineJS/events{/privacy}",
            "followers_url": "https://api.github.com/users/PrismarineJS/followers",
            "following_url": "https://api.github.com/users/PrismarineJS/following{/other_user}",
            "gists_url": "https://api.github.com/users/PrismarineJS/gists{/gist_id}",
            "gravatar_id": "",
            "html_url": "https://github.com/PrismarineJS",
            "id": 11053411,
            "login": "PrismarineJS",
            "node_id": "MDEyOk9yZ2FuaXphdGlvbjExMDUzNDEx",
            "organizations_url": "https://api.github.com/users/PrismarineJS/orgs",
            "received_events_url": "https://api.github.com/users/PrismarineJS/received_events",
            "repos_url": "https://api.github.com/users/PrismarineJS/repos",
            "site_admin": false,
            "starred_url": "https://api.github.com/users/PrismarineJS/starred{/owner}{/repo}",
            "subscriptions_url": "https://api.github.com/users/PrismarineJS/subscriptions",
            "type": "Organization",
            "url": "https://api.github.com/users/PrismarineJS",
            "user_view_type": "public"
        }
    },
    "html_url": "https://github.com/PrismarineJS/prismarine-provider-anvil/pull/85",
    "id": 2256911338,
    "issue_url": "https://api.github.com/repos/PrismarineJS/prismarine-provider-anvil/issues/85",
    "labels": [],
    "locked": false,
    "maintainer_can_modify": false,
    "merge_commit_sha": "790db07d75d919f52056772c0998164b6587cd51",
    "mergeable": null,
    "mergeable_state": "unknown",
    "merged": true,
    "merged_at": "2025-01-01T10:05:53Z",
    "merged_by": {
        "avatar_url": "https://avatars.githubusercontent.com/u/2346494?v=4",
        "events_url": "https://api.github.com/users/rom1504/events{/privacy}",
        "followers_url": "https://api.github.com/users/rom1504/followers",
        "following_url": "https://api.github.com/users/rom1504/following{/other_user}",
        "gists_url": "https://api.github.com/users/rom1504/gists{/gist_id}",
        "gravatar_id": "",
        "html_url": "https://github.com/rom1504",
        "id": 2346494,
        "login": "rom1504",
        "node_id": "MDQ6VXNlcjIzNDY0OTQ=",
        "organizations_url": "https://api.github.com/users/rom1504/orgs",
        "received_events_url": "https://api.github.com/users/rom1504/received_events",
        "repos_url": "https://api.github.com/users/rom1504/repos",
        "site_admin": false,
        "starred_url": "https://api.github.com/users/rom1504/starred{/owner}{/repo}",
        "subscriptions_url": "https://api.github.com/users/rom1504/subscriptions",
        "type": "User",
        "url": "https://api.github.com/users/rom1504",
        "user_view_type": "public"
    },
    "milestone": null,
    "node_id": "PR_kwDOAeWfK86Ghbvq",
    "number": 85,
    "patch_url": "https://github.com/PrismarineJS/prismarine-provider-anvil/pull/85.patch",
    "rebaseable": null,
    "requested_reviewers": [],
    "requested_teams": [],
    "review_comment_url": "https://api.github.com/repos/PrismarineJS/prismarine-provider-anvil/pulls/comments{/number}",
    "review_comments": 0,
    "review_comments_url": "https://api.github.com/repos/PrismarineJS/prismarine-provider-anvil/pulls/85/comments",
    "state": "closed",
    "statuses_url": "https://api.github.com/repos/PrismarineJS/prismarine-provider-anvil/statuses/8af53d3c2f46260f5f5c0ca3614e937d4fbb7272",
    "title": "Quick fix for 1.17 masks in 1.14 anvil impl",
    "updated_at": "2025-01-01T10:06:11Z",
    "url": "https://api.github.com/repos/PrismarineJS/prismarine-provider-anvil/pulls/85",
    "user": {
        "avatar_url": "https://avatars.githubusercontent.com/u/13713600?v=4",
        "events_url": "https://api.github.com/users/extremeheat/events{/privacy}",
        "followers_url": "https://api.github.com/users/extremeheat/followers",
        "following_url": "https://api.github.com/users/extremeheat/following{/other_user}",
        "gists_url": "https://api.github.com/users/extremeheat/gists{/gist_id}",
        "gravatar_id": "",
        "html_url": "https://github.com/extremeheat",
        "id": 13713600,
        "login": "extremeheat",
        "node_id": "MDQ6VXNlcjEzNzEzNjAw",
        "organizations_url": "https://api.github.com/users/extremeheat/orgs",
        "received_events_url": "https://api.github.com/users/extremeheat/received_events",
        "repos_url": "https://api.github.com/users/extremeheat/repos",
        "site_admin": false,
        "starred_url": "https://api.github.com/users/extremeheat/starred{/owner}{/repo}",
        "subscriptions_url": "https://api.github.com/users/extremeheat/subscriptions",
        "type": "User",
        "url": "https://api.github.com/users/extremeheat",
        "user_view_type": "public"
    }
}