{
    "_links": {
        "comments": {
            "href": "https://api.github.com/repos/PrismarineJS/prismarine-template/issues/12/comments"
        },
        "commits": {
            "href": "https://api.github.com/repos/PrismarineJS/prismarine-template/pulls/12/commits"
        },
        "html": {
            "href": "https://github.com/PrismarineJS/prismarine-template/pull/12"
        },
        "issue": {
            "href": "https://api.github.com/repos/PrismarineJS/prismarine-template/issues/12"
        },
        "review_comment": {
            "href": "https://api.github.com/repos/PrismarineJS/prismarine-template/pulls/comments{/number}"
        },
        "review_comments": {
            "href": "https://api.github.com/repos/PrismarineJS/prismarine-template/pulls/12/comments"
        },
        "self": {
            "href": "https://api.github.com/repos/PrismarineJS/prismarine-template/pulls/12"
        },
        "statuses": {
            "href": "https://api.github.com/repos/PrismarineJS/prismarine-template/statuses/5ab24998d93ac3c730bc1b6c692304e61ad8a3de"
        }
    },
    "active_lock_reason": null,
    "additions": 22,
    "assignee": null,
    "assignees": [],
    "author_association": "MEMBER",
    "auto_merge": null,
    "base": {
        "label": "PrismarineJS:master",
        "ref": "master",
        "repo": {
            "allow_forking": true,
            "archive_url": "https://api.github.com/repos/PrismarineJS/prismarine-template/{archive_format}{/ref}",
            "archived": false,
            "assignees_url": "https://api.github.com/repos/PrismarineJS/prismarine-template/assignees{/user}",
            "blobs_url": "https://api.github.com/repos/PrismarineJS/prismarine-template/git/blobs{/sha}",
            "branches_url": "https://api.github.com/repos/PrismarineJS/prismarine-template/branches{/branch}",
            "clone_url": "https://github.com/PrismarineJS/prismarine-template.git",
            "collaborators_url": "https://api.github.com/repos/PrismarineJS/prismarine-template/collaborators{/collaborator}",
            "comments_url": "https://api.github.com/repos/PrismarineJS/prismarine-template/comments{/number}",
            "commits_url": "https://api.github.com/repos/PrismarineJS/prismarine-template/commits{/sha}",
            "compare_url": "https://api.github.com/repos/PrismarineJS/prismarine-template/compare/{base}...{head}",
            "contents_url": "https://api.github.com/repos/PrismarineJS/prismarine-template/contents/{+path}",
            "contributors_url": "https://api.github.com/repos/PrismarineJS/prismarine-template/contributors",
            "created_at": "2020-07-06T19:09:53Z",
            "default_branch": "master",
            "deployments_url": "https://api.github.com/repos/PrismarineJS/prismarine-template/deployments",
            "description": "A template repository to make it easy to create new prismarine repo",
            "disabled": false,
            "downloads_url": "https://api.github.com/repos/PrismarineJS/prismarine-template/downloads",
            "events_url": "https://api.github.com/repos/PrismarineJS/prismarine-template/events",
            "fork": false,
            "forks": 11,
            "forks_count": 11,
            "forks_url": "https://api.github.com/repos/PrismarineJS/prismarine-template/forks",
            "full_name": "PrismarineJS/prismarine-template",
            "git_commits_url": "https://api.github.com/repos/PrismarineJS/prismarine-template/git/commits{/sha}",
            "git_refs_url": "https://api.github.com/repos/PrismarineJS/prismarine-template/git/refs{/sha}",
            "git_tags_url": "https://api.github.com/repos/PrismarineJS/prismarine-template/git/tags{/sha}",
            "git_url": "git://github.com/PrismarineJS/prismarine-template.git",
            "has_discussions": false,
            "has_downloads": true,
            "has_issues": true,
            "has_pages": false,
            "has_projects": true,
            "has_wiki": true,
            "homepage": "",
            "hooks_url": "https://api.github.com/repos/PrismarineJS/prismarine-template/hooks",
            "html_url": "https://github.com/PrismarineJS/prismarine-template",
            "id": 277627052,
            "is_template": true,
            "issue_comment_url": "https://api.github.com/repos/PrismarineJS/prismarine-template/issues/comments{/number}",
            "issue_events_url": "https://api.github.com/repos/PrismarineJS/prismarine-template/issues/events{/number}",
            "issues_url": "https://api.github.com/repos/PrismarineJS/prismarine-template/issues{/number}",
            "keys_url": "https://api.github.com/repos/PrismarineJS/prismarine-template/keys{/key_id}",
            "labels_url": "https://api.github.com/repos/PrismarineJS/prismarine-template/labels{/name}",
            "language": "JavaScript",
            "languages_url": "https://api.github.com/repos/PrismarineJS/prismarine-template/languages",
            "license": {
                "key": "mit",
                "name": "MIT License",
                "node_id": "MDc6TGljZW5zZTEz",
                "spdx_id": "MIT",
                "url": "https://api.github.com/licenses/mit"
            },
            "merges_url": "https://api.github.com/repos/PrismarineJS/prismarine-template/merges",
            "milestones_url": "https://api.github.com/repos/PrismarineJS/prismarine-template/milestones{/number}",
            "mirror_url": null,
            "name": "prismarine-template",
            "node_id": "MDEwOlJlcG9zaXRvcnkyNzc2MjcwNTI=",
            "notifications_url": "https://api.github.com/repos/PrismarineJS/prismarine-template/notifications{?since,all,participating}",
            "open_issues": 0,
            "open_issues_count": 0,
            "owner": {
                "avatar_url": "https://avatars.githubusercontent.com/u/11053411?v=4",
                "events_url": "https://api.github.com/users/PrismarineJS/events{/privacy}",
                "followers_url": "https://api.github.com/users/PrismarineJS/followers",
                "following_url": "https://api.github.com/users/PrismarineJS/following{/other_user}",
                "gists_url": "https://api.github.com/users/PrismarineJS/gists{/gist_id}",
                "gravatar_id": "",
                "html_url": "https://github.com/PrismarineJS",
                "id": 11053411,
                "login": "PrismarineJS",
                "node_id": "MDEyOk9yZ2FuaXphdGlvbjExMDUzNDEx",
                "organizations_url": "https://api.github.com/users/PrismarineJS/orgs",
                "received_events_url": "https://api.github.com/users/PrismarineJS/received_events",
                "repos_url": "https://api.github.com/users/PrismarineJS/repos",
                "site_admin": false,
                "starred_url": "https://api.github.com/users/PrismarineJS/starred{/owner}{/repo}",
                "subscriptions_url": "https://api.github.com/users/PrismarineJS/subscriptions",
                "type": "Organization",
                "url": "https://api.github.com/users/PrismarineJS"
            },
            "private": false,
            "pulls_url": "https://api.github.com/repos/PrismarineJS/prismarine-template/pulls{/number}",
            "pushed_at": "2023-07-12T18:41:48Z",
            "releases_url": "https://api.github.com/repos/PrismarineJS/prismarine-template/releases{/id}",
            "size": 26,
            "ssh_url": "git@github.com:PrismarineJS/prismarine-template.git",
            "stargazers_count": 7,
            "stargazers_url": "https://api.github.com/repos/PrismarineJS/prismarine-template/stargazers",
            "statuses_url": "https://api.github.com/repos/PrismarineJS/prismarine-template/statuses/{sha}",
            "subscribers_url": "https://api.github.com/repos/PrismarineJS/prismarine-template/subscribers",
            "subscription_url": "https://api.github.com/repos/PrismarineJS/prismarine-template/subscription",
            "svn_url": "https://github.com/PrismarineJS/prismarine-template",
            "tags_url": "https://api.github.com/repos/PrismarineJS/prismarine-template/tags",
            "teams_url": "https://api.github.com/repos/PrismarineJS/prismarine-template/teams",
            "topics": [],
            "trees_url": "https://api.github.com/repos/PrismarineJS/prismarine-template/git/trees{/sha}",
            "updated_at": "2023-03-08T09:02:06Z",
            "url": "https://api.github.com/repos/PrismarineJS/prismarine-template",
            "visibility": "public",
            "watchers": 7,
            "watchers_count": 7,
            "web_commit_signoff_required": false
        },
        "sha": "1c62892e2885fc12acc4d7db8a91ad4155271e99",
        "user": {
            "avatar_url": "https://avatars.githubusercontent.com/u/11053411?v=4",
            "events_url": "https://api.github.com/users/PrismarineJS/events{/privacy}",
            "followers_url": "https://api.github.com/users/PrismarineJS/followers",
            "following_url": "https://api.github.com/users/PrismarineJS/following{/other_user}",
            "gists_url": "https://api.github.com/users/PrismarineJS/gists{/gist_id}",
            "gravatar_id": "",
            "html_url": "https://github.com/PrismarineJS",
            "id": 11053411,
            "login": "PrismarineJS",
            "node_id": "MDEyOk9yZ2FuaXphdGlvbjExMDUzNDEx",
            "organizations_url": "https://api.github.com/users/PrismarineJS/orgs",
            "received_events_url": "https://api.github.com/users/PrismarineJS/received_events",
            "repos_url": "https://api.github.com/users/PrismarineJS/repos",
            "site_admin": false,
            "starred_url": "https://api.github.com/users/PrismarineJS/starred{/owner}{/repo}",
            "subscriptions_url": "https://api.github.com/users/PrismarineJS/subscriptions",
            "type": "Organization",
            "url": "https://api.github.com/users/PrismarineJS"
        }
    },
    "body": null,
    "changed_files": 1,
    "closed_at": "2023-07-09T21:19:29Z",
    "comment_data": [],
    "comment_regular_data": [
        {
            "author_association": "MEMBER",
            "body": "I can use https://github.com/PrismarineJS/prismarine-meta to PR that to all repos if you want",
            "created_at": "2023-07-09T21:20:17Z",
            "html_url": "https://github.com/PrismarineJS/prismarine-template/pull/12#issuecomment-1627828363",
            "id": 1627828363,
            "issue_url": "https://api.github.com/repos/PrismarineJS/prismarine-template/issues/12",
            "node_id": "IC_kwDOEIxArM5hBrCL",
            "performed_via_github_app": null,
            "reactions": {
                "+1": 0,
                "-1": 0,
                "confused": 0,
                "eyes": 0,
                "heart": 0,
                "hooray": 0,
                "laugh": 0,
                "rocket": 0,
                "total_count": 0,
                "url": "https://api.github.com/repos/PrismarineJS/prismarine-template/issues/comments/1627828363/reactions"
            },
            "updated_at": "2023-07-09T21:20:17Z",
            "url": "https://api.github.com/repos/PrismarineJS/prismarine-template/issues/comments/1627828363",
            "user": {
                "avatar_url": "https://avatars.githubusercontent.com/u/2346494?v=4",
                "events_url": "https://api.github.com/users/rom1504/events{/privacy}",
                "followers_url": "https://api.github.com/users/rom1504/followers",
                "following_url": "https://api.github.com/users/rom1504/following{/other_user}",
                "gists_url": "https://api.github.com/users/rom1504/gists{/gist_id}",
                "gravatar_id": "",
                "html_url": "https://github.com/rom1504",
                "id": 2346494,
                "login": "rom1504",
                "node_id": "MDQ6VXNlcjIzNDY0OTQ=",
                "organizations_url": "https://api.github.com/users/rom1504/orgs",
                "received_events_url": "https://api.github.com/users/rom1504/received_events",
                "repos_url": "https://api.github.com/users/rom1504/repos",
                "site_admin": false,
                "starred_url": "https://api.github.com/users/rom1504/starred{/owner}{/repo}",
                "subscriptions_url": "https://api.github.com/users/rom1504/subscriptions",
                "type": "User",
                "url": "https://api.github.com/users/rom1504"
            }
        },
        {
            "author_association": "MEMBER",
            "body": "https://github.com/PrismarineJS/prismarine-template/actions/runs/5501992704 failed ?",
            "created_at": "2023-07-09T21:23:41Z",
            "html_url": "https://github.com/PrismarineJS/prismarine-template/pull/12#issuecomment-1627829174",
            "id": 1627829174,
            "issue_url": "https://api.github.com/repos/PrismarineJS/prismarine-template/issues/12",
            "node_id": "IC_kwDOEIxArM5hBrO2",
            "performed_via_github_app": null,
            "reactions": {
                "+1": 0,
                "-1": 0,
                "confused": 0,
                "eyes": 0,
                "heart": 0,
                "hooray": 0,
                "laugh": 0,
                "rocket": 0,
                "total_count": 0,
                "url": "https://api.github.com/repos/PrismarineJS/prismarine-template/issues/comments/1627829174/reactions"
            },
            "updated_at": "2023-07-09T21:23:41Z",
            "url": "https://api.github.com/repos/PrismarineJS/prismarine-template/issues/comments/1627829174",
            "user": {
                "avatar_url": "https://avatars.githubusercontent.com/u/2346494?v=4",
                "events_url": "https://api.github.com/users/rom1504/events{/privacy}",
                "followers_url": "https://api.github.com/users/rom1504/followers",
                "following_url": "https://api.github.com/users/rom1504/following{/other_user}",
                "gists_url": "https://api.github.com/users/rom1504/gists{/gist_id}",
                "gravatar_id": "",
                "html_url": "https://github.com/rom1504",
                "id": 2346494,
                "login": "rom1504",
                "node_id": "MDQ6VXNlcjIzNDY0OTQ=",
                "organizations_url": "https://api.github.com/users/rom1504/orgs",
                "received_events_url": "https://api.github.com/users/rom1504/received_events",
                "repos_url": "https://api.github.com/users/rom1504/repos",
                "site_admin": false,
                "starred_url": "https://api.github.com/users/rom1504/starred{/owner}{/repo}",
                "subscriptions_url": "https://api.github.com/users/rom1504/subscriptions",
                "type": "User",
                "url": "https://api.github.com/users/rom1504"
            }
        },
        {
            "author_association": "MEMBER",
            "body": "> https://github.com/PrismarineJS/prismarine-template/actions/runs/5501992704 failed ?\r\n\r\nfixed in #14, wrong secret name was used\r\n\r\n> I can use https://github.com/PrismarineJS/prismarine-meta to PR that to all repos if you want\r\n\r\nyeah, that can be done",
            "created_at": "2023-07-12T18:08:45Z",
            "html_url": "https://github.com/PrismarineJS/prismarine-template/pull/12#issuecomment-1632990407",
            "id": 1632990407,
            "issue_url": "https://api.github.com/repos/PrismarineJS/prismarine-template/issues/12",
            "node_id": "IC_kwDOEIxArM5hVXTH",
            "performed_via_github_app": null,
            "reactions": {
                "+1": 0,
                "-1": 0,
                "confused": 0,
                "eyes": 0,
                "heart": 0,
                "hooray": 0,
                "laugh": 0,
                "rocket": 0,
                "total_count": 0,
                "url": "https://api.github.com/repos/PrismarineJS/prismarine-template/issues/comments/1632990407/reactions"
            },
            "updated_at": "2023-07-12T18:08:45Z",
            "url": "https://api.github.com/repos/PrismarineJS/prismarine-template/issues/comments/1632990407",
            "user": {
                "avatar_url": "https://avatars.githubusercontent.com/u/13713600?v=4",
                "events_url": "https://api.github.com/users/extremeheat/events{/privacy}",
                "followers_url": "https://api.github.com/users/extremeheat/followers",
                "following_url": "https://api.github.com/users/extremeheat/following{/other_user}",
                "gists_url": "https://api.github.com/users/extremeheat/gists{/gist_id}",
                "gravatar_id": "",
                "html_url": "https://github.com/extremeheat",
                "id": 13713600,
                "login": "extremeheat",
                "node_id": "MDQ6VXNlcjEzNzEzNjAw",
                "organizations_url": "https://api.github.com/users/extremeheat/orgs",
                "received_events_url": "https://api.github.com/users/extremeheat/received_events",
                "repos_url": "https://api.github.com/users/extremeheat/repos",
                "site_admin": false,
                "starred_url": "https://api.github.com/users/extremeheat/starred{/owner}{/repo}",
                "subscriptions_url": "https://api.github.com/users/extremeheat/subscriptions",
                "type": "User",
                "url": "https://api.github.com/users/extremeheat"
            }
        }
    ],
    "comments": 3,
    "comments_url": "https://api.github.com/repos/PrismarineJS/prismarine-template/issues/12/comments",
    "commit_data": [
        {
            "author": {
                "avatar_url": "https://avatars.githubusercontent.com/u/13713600?v=4",
                "events_url": "https://api.github.com/users/extremeheat/events{/privacy}",
                "followers_url": "https://api.github.com/users/extremeheat/followers",
                "following_url": "https://api.github.com/users/extremeheat/following{/other_user}",
                "gists_url": "https://api.github.com/users/extremeheat/gists{/gist_id}",
                "gravatar_id": "",
                "html_url": "https://github.com/extremeheat",
                "id": 13713600,
                "login": "extremeheat",
                "node_id": "MDQ6VXNlcjEzNzEzNjAw",
                "organizations_url": "https://api.github.com/users/extremeheat/orgs",
                "received_events_url": "https://api.github.com/users/extremeheat/received_events",
                "repos_url": "https://api.github.com/users/extremeheat/repos",
                "site_admin": false,
                "starred_url": "https://api.github.com/users/extremeheat/starred{/owner}{/repo}",
                "subscriptions_url": "https://api.github.com/users/extremeheat/subscriptions",
                "type": "User",
                "url": "https://api.github.com/users/extremeheat"
            },
            "comments_url": "https://api.github.com/repos/PrismarineJS/prismarine-template/commits/19100d2a0f91028990af3f82f3b80c957d96fd25/comments",
            "commit": {
                "author": {
                    "date": "2023-07-09T05:28:56Z",
                    "email": "extreme@protonmail.ch",
                    "name": "extremeheat"
                },
                "comment_count": 0,
                "committer": {
                    "date": "2023-07-09T05:28:56Z",
                    "email": "noreply@github.com",
                    "name": "GitHub"
                },
                "message": "Add repo commands workflow",
                "tree": {
                    "sha": "2d7944abb0ac666ed2d1273d076026b87cffa301",
                    "url": "https://api.github.com/repos/PrismarineJS/prismarine-template/git/trees/2d7944abb0ac666ed2d1273d076026b87cffa301"
                },
                "url": "https://api.github.com/repos/PrismarineJS/prismarine-template/git/commits/19100d2a0f91028990af3f82f3b80c957d96fd25",
                "verification": {
                    "payload": "tree 2d7944abb0ac666ed2d1273d076026b87cffa301\nparent 1c62892e2885fc12acc4d7db8a91ad4155271e99\nauthor extremeheat <extreme@protonmail.ch> 1688880536 -0400\ncommitter GitHub <noreply@github.com> 1688880536 -0400\n\nAdd repo commands workflow",
                    "reason": "valid",
                    "signature": "-----BEGIN PGP SIGNATURE-----\n\nwsBcBAABCAAQBQJkqkWYCRBK7hj4Ov3rIwAAIScIACNWx7B66nsNhtmcoGyBMuA2\nH1LnnVRFcjwM43QUta/csXfIKyp9bJq8m/EZEzIHzGgPpRXJ0g7kqPBuDWMrejsy\ncK0r4MihYZNvH+lxgAUcwXF9Qhp6duK+g+LW3Wl1XtSw6+Wy6QHtuUOqrK6gX00e\nxYkYJwgnypSUHJ0QhGPzYbPcd4y1VRAquT8Dhd/Gtn9eHS/wL17UEqZNj9nsycbN\n9WhGA0SAYvK6pLUlwScb6xZtlYFYJS+w2LToKjAf7RHdlvYoWhuEWHFkHFMcctxI\nSI+Zu1EFP+yVAGW95WE554j/BsRQMQSI0Sk7tATx4k/evrsokGgQqav6VHeycYQ=\n=9Yb6\n-----END PGP SIGNATURE-----\n",
                    "verified": true
                }
            },
            "committer": {
                "avatar_url": "https://avatars.githubusercontent.com/u/19864447?v=4",
                "events_url": "https://api.github.com/users/web-flow/events{/privacy}",
                "followers_url": "https://api.github.com/users/web-flow/followers",
                "following_url": "https://api.github.com/users/web-flow/following{/other_user}",
                "gists_url": "https://api.github.com/users/web-flow/gists{/gist_id}",
                "gravatar_id": "",
                "html_url": "https://github.com/web-flow",
                "id": 19864447,
                "login": "web-flow",
                "node_id": "MDQ6VXNlcjE5ODY0NDQ3",
                "organizations_url": "https://api.github.com/users/web-flow/orgs",
                "received_events_url": "https://api.github.com/users/web-flow/received_events",
                "repos_url": "https://api.github.com/users/web-flow/repos",
                "site_admin": false,
                "starred_url": "https://api.github.com/users/web-flow/starred{/owner}{/repo}",
                "subscriptions_url": "https://api.github.com/users/web-flow/subscriptions",
                "type": "User",
                "url": "https://api.github.com/users/web-flow"
            },
            "html_url": "https://github.com/PrismarineJS/prismarine-template/commit/19100d2a0f91028990af3f82f3b80c957d96fd25",
            "node_id": "C_kwDOJ5ZhZNoAKDE5MTAwZDJhMGY5MTAyODk5MGFmM2Y4MmYzYjgwYzk1N2Q5NmZkMjU",
            "parents": [
                {
                    "html_url": "https://github.com/PrismarineJS/prismarine-template/commit/1c62892e2885fc12acc4d7db8a91ad4155271e99",
                    "sha": "1c62892e2885fc12acc4d7db8a91ad4155271e99",
                    "url": "https://api.github.com/repos/PrismarineJS/prismarine-template/commits/1c62892e2885fc12acc4d7db8a91ad4155271e99"
                }
            ],
            "sha": "19100d2a0f91028990af3f82f3b80c957d96fd25",
            "url": "https://api.github.com/repos/PrismarineJS/prismarine-template/commits/19100d2a0f91028990af3f82f3b80c957d96fd25"
        },
        {
            "author": {
                "avatar_url": "https://avatars.githubusercontent.com/u/13713600?v=4",
                "events_url": "https://api.github.com/users/extremeheat/events{/privacy}",
                "followers_url": "https://api.github.com/users/extremeheat/followers",
                "following_url": "https://api.github.com/users/extremeheat/following{/other_user}",
                "gists_url": "https://api.github.com/users/extremeheat/gists{/gist_id}",
                "gravatar_id": "",
                "html_url": "https://github.com/extremeheat",
                "id": 13713600,
                "login": "extremeheat",
                "node_id": "MDQ6VXNlcjEzNzEzNjAw",
                "organizations_url": "https://api.github.com/users/extremeheat/orgs",
                "received_events_url": "https://api.github.com/users/extremeheat/received_events",
                "repos_url": "https://api.github.com/users/extremeheat/repos",
                "site_admin": false,
                "starred_url": "https://api.github.com/users/extremeheat/starred{/owner}{/repo}",
                "subscriptions_url": "https://api.github.com/users/extremeheat/subscriptions",
                "type": "User",
                "url": "https://api.github.com/users/extremeheat"
            },
            "comments_url": "https://api.github.com/repos/PrismarineJS/prismarine-template/commits/5ab24998d93ac3c730bc1b6c692304e61ad8a3de/comments",
            "commit": {
                "author": {
                    "date": "2023-07-09T05:29:58Z",
                    "email": "extreme@protonmail.ch",
                    "name": "extremeheat"
                },
                "comment_count": 0,
                "committer": {
                    "date": "2023-07-09T05:29:58Z",
                    "email": "noreply@github.com",
                    "name": "GitHub"
                },
                "message": "Rename commands.ym to commands.yml",
                "tree": {
                    "sha": "25b023e71e1f21c51eb433ba47ced8d256d18a40",
                    "url": "https://api.github.com/repos/PrismarineJS/prismarine-template/git/trees/25b023e71e1f21c51eb433ba47ced8d256d18a40"
                },
                "url": "https://api.github.com/repos/PrismarineJS/prismarine-template/git/commits/5ab24998d93ac3c730bc1b6c692304e61ad8a3de",
                "verification": {
                    "payload": "tree 25b023e71e1f21c51eb433ba47ced8d256d18a40\nparent 19100d2a0f91028990af3f82f3b80c957d96fd25\nauthor extremeheat <extreme@protonmail.ch> 1688880598 -0400\ncommitter GitHub <noreply@github.com> 1688880598 -0400\n\nRename commands.ym to commands.yml",
                    "reason": "valid",
                    "signature": "-----BEGIN PGP SIGNATURE-----\n\nwsBcBAABCAAQBQJkqkXWCRBK7hj4Ov3rIwAAne4IAC5Mfp3wAjIALUuGb5zappri\n7J0vDpdr0QgLWM89+WzCPV0gCIZ4gl4Wj1wJrL3bm/DE5dn/feAGVqg5wbQPNxxV\ncW6A96xJMl7mh8M1n8ZYF2QvU+P6A3YYbnyiVg3BclUPUOEbIBlSap5pZMxEe6Ca\nTB4I62w5u9Qr3nhp3C535iaS3l3wcI5UdjMJbPldX/z2f+cGeXhl+8xrWUshcjM9\nc043fCqJ6kqGXCzC14Fc20OfmyGQqaYmvMVF1jQumlot35OyWSOVOpyX1lfHvg7G\nrtz1w6LGiZbA+y3HVw5D3jmdKVE9UH3pAhr3VZkr64cLns13mzhBe17ZACLGaUI=\n=c9qx\n-----END PGP SIGNATURE-----\n",
                    "verified": true
                }
            },
            "committer": {
                "avatar_url": "https://avatars.githubusercontent.com/u/19864447?v=4",
                "events_url": "https://api.github.com/users/web-flow/events{/privacy}",
                "followers_url": "https://api.github.com/users/web-flow/followers",
                "following_url": "https://api.github.com/users/web-flow/following{/other_user}",
                "gists_url": "https://api.github.com/users/web-flow/gists{/gist_id}",
                "gravatar_id": "",
                "html_url": "https://github.com/web-flow",
                "id": 19864447,
                "login": "web-flow",
                "node_id": "MDQ6VXNlcjE5ODY0NDQ3",
                "organizations_url": "https://api.github.com/users/web-flow/orgs",
                "received_events_url": "https://api.github.com/users/web-flow/received_events",
                "repos_url": "https://api.github.com/users/web-flow/repos",
                "site_admin": false,
                "starred_url": "https://api.github.com/users/web-flow/starred{/owner}{/repo}",
                "subscriptions_url": "https://api.github.com/users/web-flow/subscriptions",
                "type": "User",
                "url": "https://api.github.com/users/web-flow"
            },
            "html_url": "https://github.com/PrismarineJS/prismarine-template/commit/5ab24998d93ac3c730bc1b6c692304e61ad8a3de",
            "node_id": "C_kwDOJ5ZhZNoAKDVhYjI0OTk4ZDkzYWMzYzczMGJjMWI2YzY5MjMwNGU2MWFkOGEzZGU",
            "parents": [
                {
                    "html_url": "https://github.com/PrismarineJS/prismarine-template/commit/19100d2a0f91028990af3f82f3b80c957d96fd25",
                    "sha": "19100d2a0f91028990af3f82f3b80c957d96fd25",
                    "url": "https://api.github.com/repos/PrismarineJS/prismarine-template/commits/19100d2a0f91028990af3f82f3b80c957d96fd25"
                }
            ],
            "sha": "5ab24998d93ac3c730bc1b6c692304e61ad8a3de",
            "url": "https://api.github.com/repos/PrismarineJS/prismarine-template/commits/5ab24998d93ac3c730bc1b6c692304e61ad8a3de"
        }
    ],
    "commits": 2,
    "commits_url": "https://api.github.com/repos/PrismarineJS/prismarine-template/pulls/12/commits",
    "created_at": "2023-07-09T05:30:20Z",
    "deletions": 0,
    "diff_url": "https://github.com/PrismarineJS/prismarine-template/pull/12.diff",
    "draft": false,
    "head": {
        "label": "extremeheat:patch-1",
        "ref": "patch-1",
        "repo": {
            "allow_forking": true,
            "archive_url": "https://api.github.com/repos/extremeheat/prismarine-template/{archive_format}{/ref}",
            "archived": false,
            "assignees_url": "https://api.github.com/repos/extremeheat/prismarine-template/assignees{/user}",
            "blobs_url": "https://api.github.com/repos/extremeheat/prismarine-template/git/blobs{/sha}",
            "branches_url": "https://api.github.com/repos/extremeheat/prismarine-template/branches{/branch}",
            "clone_url": "https://github.com/extremeheat/prismarine-template.git",
            "collaborators_url": "https://api.github.com/repos/extremeheat/prismarine-template/collaborators{/collaborator}",
            "comments_url": "https://api.github.com/repos/extremeheat/prismarine-template/comments{/number}",
            "commits_url": "https://api.github.com/repos/extremeheat/prismarine-template/commits{/sha}",
            "compare_url": "https://api.github.com/repos/extremeheat/prismarine-template/compare/{base}...{head}",
            "contents_url": "https://api.github.com/repos/extremeheat/prismarine-template/contents/{+path}",
            "contributors_url": "https://api.github.com/repos/extremeheat/prismarine-template/contributors",
            "created_at": "2023-07-09T05:26:58Z",
            "default_branch": "master",
            "deployments_url": "https://api.github.com/repos/extremeheat/prismarine-template/deployments",
            "description": "A template repository to make it easy to create new prismarine repo",
            "disabled": false,
            "downloads_url": "https://api.github.com/repos/extremeheat/prismarine-template/downloads",
            "events_url": "https://api.github.com/repos/extremeheat/prismarine-template/events",
            "fork": true,
            "forks": 0,
            "forks_count": 0,
            "forks_url": "https://api.github.com/repos/extremeheat/prismarine-template/forks",
            "full_name": "extremeheat/prismarine-template",
            "git_commits_url": "https://api.github.com/repos/extremeheat/prismarine-template/git/commits{/sha}",
            "git_refs_url": "https://api.github.com/repos/extremeheat/prismarine-template/git/refs{/sha}",
            "git_tags_url": "https://api.github.com/repos/extremeheat/prismarine-template/git/tags{/sha}",
            "git_url": "git://github.com/extremeheat/prismarine-template.git",
            "has_discussions": false,
            "has_downloads": true,
            "has_issues": false,
            "has_pages": false,
            "has_projects": true,
            "has_wiki": true,
            "homepage": "",
            "hooks_url": "https://api.github.com/repos/extremeheat/prismarine-template/hooks",
            "html_url": "https://github.com/extremeheat/prismarine-template",
            "id": 664166756,
            "is_template": true,
            "issue_comment_url": "https://api.github.com/repos/extremeheat/prismarine-template/issues/comments{/number}",
            "issue_events_url": "https://api.github.com/repos/extremeheat/prismarine-template/issues/events{/number}",
            "issues_url": "https://api.github.com/repos/extremeheat/prismarine-template/issues{/number}",
            "keys_url": "https://api.github.com/repos/extremeheat/prismarine-template/keys{/key_id}",
            "labels_url": "https://api.github.com/repos/extremeheat/prismarine-template/labels{/name}",
            "language": null,
            "languages_url": "https://api.github.com/repos/extremeheat/prismarine-template/languages",
            "license": {
                "key": "mit",
                "name": "MIT License",
                "node_id": "MDc6TGljZW5zZTEz",
                "spdx_id": "MIT",
                "url": "https://api.github.com/licenses/mit"
            },
            "merges_url": "https://api.github.com/repos/extremeheat/prismarine-template/merges",
            "milestones_url": "https://api.github.com/repos/extremeheat/prismarine-template/milestones{/number}",
            "mirror_url": null,
            "name": "prismarine-template",
            "node_id": "R_kgDOJ5ZhZA",
            "notifications_url": "https://api.github.com/repos/extremeheat/prismarine-template/notifications{?since,all,participating}",
            "open_issues": 0,
            "open_issues_count": 0,
            "owner": {
                "avatar_url": "https://avatars.githubusercontent.com/u/13713600?v=4",
                "events_url": "https://api.github.com/users/extremeheat/events{/privacy}",
                "followers_url": "https://api.github.com/users/extremeheat/followers",
                "following_url": "https://api.github.com/users/extremeheat/following{/other_user}",
                "gists_url": "https://api.github.com/users/extremeheat/gists{/gist_id}",
                "gravatar_id": "",
                "html_url": "https://github.com/extremeheat",
                "id": 13713600,
                "login": "extremeheat",
                "node_id": "MDQ6VXNlcjEzNzEzNjAw",
                "organizations_url": "https://api.github.com/users/extremeheat/orgs",
                "received_events_url": "https://api.github.com/users/extremeheat/received_events",
                "repos_url": "https://api.github.com/users/extremeheat/repos",
                "site_admin": false,
                "starred_url": "https://api.github.com/users/extremeheat/starred{/owner}{/repo}",
                "subscriptions_url": "https://api.github.com/users/extremeheat/subscriptions",
                "type": "User",
                "url": "https://api.github.com/users/extremeheat"
            },
            "private": false,
            "pulls_url": "https://api.github.com/repos/extremeheat/prismarine-template/pulls{/number}",
            "pushed_at": "2023-07-12T18:08:50Z",
            "releases_url": "https://api.github.com/repos/extremeheat/prismarine-template/releases{/id}",
            "size": 27,
            "ssh_url": "git@github.com:extremeheat/prismarine-template.git",
            "stargazers_count": 0,
            "stargazers_url": "https://api.github.com/repos/extremeheat/prismarine-template/stargazers",
            "statuses_url": "https://api.github.com/repos/extremeheat/prismarine-template/statuses/{sha}",
            "subscribers_url": "https://api.github.com/repos/extremeheat/prismarine-template/subscribers",
            "subscription_url": "https://api.github.com/repos/extremeheat/prismarine-template/subscription",
            "svn_url": "https://github.com/extremeheat/prismarine-template",
            "tags_url": "https://api.github.com/repos/extremeheat/prismarine-template/tags",
            "teams_url": "https://api.github.com/repos/extremeheat/prismarine-template/teams",
            "topics": [],
            "trees_url": "https://api.github.com/repos/extremeheat/prismarine-template/git/trees{/sha}",
            "updated_at": "2023-07-09T05:26:58Z",
            "url": "https://api.github.com/repos/extremeheat/prismarine-template",
            "visibility": "public",
            "watchers": 0,
            "watchers_count": 0,
            "web_commit_signoff_required": false
        },
        "sha": "5ab24998d93ac3c730bc1b6c692304e61ad8a3de",
        "user": {
            "avatar_url": "https://avatars.githubusercontent.com/u/13713600?v=4",
            "events_url": "https://api.github.com/users/extremeheat/events{/privacy}",
            "followers_url": "https://api.github.com/users/extremeheat/followers",
            "following_url": "https://api.github.com/users/extremeheat/following{/other_user}",
            "gists_url": "https://api.github.com/users/extremeheat/gists{/gist_id}",
            "gravatar_id": "",
            "html_url": "https://github.com/extremeheat",
            "id": 13713600,
            "login": "extremeheat",
            "node_id": "MDQ6VXNlcjEzNzEzNjAw",
            "organizations_url": "https://api.github.com/users/extremeheat/orgs",
            "received_events_url": "https://api.github.com/users/extremeheat/received_events",
            "repos_url": "https://api.github.com/users/extremeheat/repos",
            "site_admin": false,
            "starred_url": "https://api.github.com/users/extremeheat/starred{/owner}{/repo}",
            "subscriptions_url": "https://api.github.com/users/extremeheat/subscriptions",
            "type": "User",
            "url": "https://api.github.com/users/extremeheat"
        }
    },
    "html_url": "https://github.com/PrismarineJS/prismarine-template/pull/12",
    "id": 1426183620,
    "issue_url": "https://api.github.com/repos/PrismarineJS/prismarine-template/issues/12",
    "labels": [],
    "locked": false,
    "maintainer_can_modify": false,
    "merge_commit_sha": "61f5d4a01bc1cbf7e08642c08ded6e69863937d0",
    "mergeable": null,
    "mergeable_state": "unknown",
    "merged": true,
    "merged_at": "2023-07-09T21:19:29Z",
    "merged_by": {
        "avatar_url": "https://avatars.githubusercontent.com/u/2346494?v=4",
        "events_url": "https://api.github.com/users/rom1504/events{/privacy}",
        "followers_url": "https://api.github.com/users/rom1504/followers",
        "following_url": "https://api.github.com/users/rom1504/following{/other_user}",
        "gists_url": "https://api.github.com/users/rom1504/gists{/gist_id}",
        "gravatar_id": "",
        "html_url": "https://github.com/rom1504",
        "id": 2346494,
        "login": "rom1504",
        "node_id": "MDQ6VXNlcjIzNDY0OTQ=",
        "organizations_url": "https://api.github.com/users/rom1504/orgs",
        "received_events_url": "https://api.github.com/users/rom1504/received_events",
        "repos_url": "https://api.github.com/users/rom1504/repos",
        "site_admin": false,
        "starred_url": "https://api.github.com/users/rom1504/starred{/owner}{/repo}",
        "subscriptions_url": "https://api.github.com/users/rom1504/subscriptions",
        "type": "User",
        "url": "https://api.github.com/users/rom1504"
    },
    "milestone": null,
    "node_id": "PR_kwDOEIxArM5VAdXE",
    "number": 12,
    "patch_url": "https://github.com/PrismarineJS/prismarine-template/pull/12.patch",
    "rebaseable": null,
    "requested_reviewers": [],
    "requested_teams": [],
    "review_comment_url": "https://api.github.com/repos/PrismarineJS/prismarine-template/pulls/comments{/number}",
    "review_comments": 0,
    "review_comments_url": "https://api.github.com/repos/PrismarineJS/prismarine-template/pulls/12/comments",
    "state": "closed",
    "statuses_url": "https://api.github.com/repos/PrismarineJS/prismarine-template/statuses/5ab24998d93ac3c730bc1b6c692304e61ad8a3de",
    "title": "Add repo commands workflow",
    "updated_at": "2023-07-12T18:08:50Z",
    "url": "https://api.github.com/repos/PrismarineJS/prismarine-template/pulls/12",
    "user": {
        "avatar_url": "https://avatars.githubusercontent.com/u/13713600?v=4",
        "events_url": "https://api.github.com/users/extremeheat/events{/privacy}",
        "followers_url": "https://api.github.com/users/extremeheat/followers",
        "following_url": "https://api.github.com/users/extremeheat/following{/other_user}",
        "gists_url": "https://api.github.com/users/extremeheat/gists{/gist_id}",
        "gravatar_id": "",
        "html_url": "https://github.com/extremeheat",
        "id": 13713600,
        "login": "extremeheat",
        "node_id": "MDQ6VXNlcjEzNzEzNjAw",
        "organizations_url": "https://api.github.com/users/extremeheat/orgs",
        "received_events_url": "https://api.github.com/users/extremeheat/received_events",
        "repos_url": "https://api.github.com/users/extremeheat/repos",
        "site_admin": false,
        "starred_url": "https://api.github.com/users/extremeheat/starred{/owner}{/repo}",
        "subscriptions_url": "https://api.github.com/users/extremeheat/subscriptions",
        "type": "User",
        "url": "https://api.github.com/users/extremeheat"
    }
}