{
    "_links": {
        "comments": {
            "href": "https://api.github.com/repos/PrismarineJS/prismarine-template/issues/2/comments"
        },
        "commits": {
            "href": "https://api.github.com/repos/PrismarineJS/prismarine-template/pulls/2/commits"
        },
        "html": {
            "href": "https://github.com/PrismarineJS/prismarine-template/pull/2"
        },
        "issue": {
            "href": "https://api.github.com/repos/PrismarineJS/prismarine-template/issues/2"
        },
        "review_comment": {
            "href": "https://api.github.com/repos/PrismarineJS/prismarine-template/pulls/comments{/number}"
        },
        "review_comments": {
            "href": "https://api.github.com/repos/PrismarineJS/prismarine-template/pulls/2/comments"
        },
        "self": {
            "href": "https://api.github.com/repos/PrismarineJS/prismarine-template/pulls/2"
        },
        "statuses": {
            "href": "https://api.github.com/repos/PrismarineJS/prismarine-template/statuses/b7f4fcf411d3eecc91103caec66ce64537affaae"
        }
    },
    "active_lock_reason": null,
    "additions": 98,
    "assignee": null,
    "assignees": [],
    "author_association": "MEMBER",
    "auto_merge": null,
    "base": {
        "label": "PrismarineJS:master",
        "ref": "master",
        "repo": {
            "allow_forking": true,
            "archive_url": "https://api.github.com/repos/PrismarineJS/prismarine-template/{archive_format}{/ref}",
            "archived": false,
            "assignees_url": "https://api.github.com/repos/PrismarineJS/prismarine-template/assignees{/user}",
            "blobs_url": "https://api.github.com/repos/PrismarineJS/prismarine-template/git/blobs{/sha}",
            "branches_url": "https://api.github.com/repos/PrismarineJS/prismarine-template/branches{/branch}",
            "clone_url": "https://github.com/PrismarineJS/prismarine-template.git",
            "collaborators_url": "https://api.github.com/repos/PrismarineJS/prismarine-template/collaborators{/collaborator}",
            "comments_url": "https://api.github.com/repos/PrismarineJS/prismarine-template/comments{/number}",
            "commits_url": "https://api.github.com/repos/PrismarineJS/prismarine-template/commits{/sha}",
            "compare_url": "https://api.github.com/repos/PrismarineJS/prismarine-template/compare/{base}...{head}",
            "contents_url": "https://api.github.com/repos/PrismarineJS/prismarine-template/contents/{+path}",
            "contributors_url": "https://api.github.com/repos/PrismarineJS/prismarine-template/contributors",
            "created_at": "2020-07-06T19:09:53Z",
            "default_branch": "master",
            "deployments_url": "https://api.github.com/repos/PrismarineJS/prismarine-template/deployments",
            "description": "A template repository to make it easy to create new prismarine repo",
            "disabled": false,
            "downloads_url": "https://api.github.com/repos/PrismarineJS/prismarine-template/downloads",
            "events_url": "https://api.github.com/repos/PrismarineJS/prismarine-template/events",
            "fork": false,
            "forks": 10,
            "forks_count": 10,
            "forks_url": "https://api.github.com/repos/PrismarineJS/prismarine-template/forks",
            "full_name": "PrismarineJS/prismarine-template",
            "git_commits_url": "https://api.github.com/repos/PrismarineJS/prismarine-template/git/commits{/sha}",
            "git_refs_url": "https://api.github.com/repos/PrismarineJS/prismarine-template/git/refs{/sha}",
            "git_tags_url": "https://api.github.com/repos/PrismarineJS/prismarine-template/git/tags{/sha}",
            "git_url": "git://github.com/PrismarineJS/prismarine-template.git",
            "has_discussions": false,
            "has_downloads": true,
            "has_issues": true,
            "has_pages": false,
            "has_projects": true,
            "has_wiki": true,
            "homepage": "",
            "hooks_url": "https://api.github.com/repos/PrismarineJS/prismarine-template/hooks",
            "html_url": "https://github.com/PrismarineJS/prismarine-template",
            "id": 277627052,
            "is_template": true,
            "issue_comment_url": "https://api.github.com/repos/PrismarineJS/prismarine-template/issues/comments{/number}",
            "issue_events_url": "https://api.github.com/repos/PrismarineJS/prismarine-template/issues/events{/number}",
            "issues_url": "https://api.github.com/repos/PrismarineJS/prismarine-template/issues{/number}",
            "keys_url": "https://api.github.com/repos/PrismarineJS/prismarine-template/keys{/key_id}",
            "labels_url": "https://api.github.com/repos/PrismarineJS/prismarine-template/labels{/name}",
            "language": "JavaScript",
            "languages_url": "https://api.github.com/repos/PrismarineJS/prismarine-template/languages",
            "license": {
                "key": "mit",
                "name": "MIT License",
                "node_id": "MDc6TGljZW5zZTEz",
                "spdx_id": "MIT",
                "url": "https://api.github.com/licenses/mit"
            },
            "merges_url": "https://api.github.com/repos/PrismarineJS/prismarine-template/merges",
            "milestones_url": "https://api.github.com/repos/PrismarineJS/prismarine-template/milestones{/number}",
            "mirror_url": null,
            "name": "prismarine-template",
            "node_id": "MDEwOlJlcG9zaXRvcnkyNzc2MjcwNTI=",
            "notifications_url": "https://api.github.com/repos/PrismarineJS/prismarine-template/notifications{?since,all,participating}",
            "open_issues": 0,
            "open_issues_count": 0,
            "owner": {
                "avatar_url": "https://avatars.githubusercontent.com/u/11053411?v=4",
                "events_url": "https://api.github.com/users/PrismarineJS/events{/privacy}",
                "followers_url": "https://api.github.com/users/PrismarineJS/followers",
                "following_url": "https://api.github.com/users/PrismarineJS/following{/other_user}",
                "gists_url": "https://api.github.com/users/PrismarineJS/gists{/gist_id}",
                "gravatar_id": "",
                "html_url": "https://github.com/PrismarineJS",
                "id": 11053411,
                "login": "PrismarineJS",
                "node_id": "MDEyOk9yZ2FuaXphdGlvbjExMDUzNDEx",
                "organizations_url": "https://api.github.com/users/PrismarineJS/orgs",
                "received_events_url": "https://api.github.com/users/PrismarineJS/received_events",
                "repos_url": "https://api.github.com/users/PrismarineJS/repos",
                "site_admin": false,
                "starred_url": "https://api.github.com/users/PrismarineJS/starred{/owner}{/repo}",
                "subscriptions_url": "https://api.github.com/users/PrismarineJS/subscriptions",
                "type": "Organization",
                "url": "https://api.github.com/users/PrismarineJS"
            },
            "private": false,
            "pulls_url": "https://api.github.com/repos/PrismarineJS/prismarine-template/pulls{/number}",
            "pushed_at": "2022-05-14T22:34:57Z",
            "releases_url": "https://api.github.com/repos/PrismarineJS/prismarine-template/releases{/id}",
            "size": 17,
            "ssh_url": "git@github.com:PrismarineJS/prismarine-template.git",
            "stargazers_count": 7,
            "stargazers_url": "https://api.github.com/repos/PrismarineJS/prismarine-template/stargazers",
            "statuses_url": "https://api.github.com/repos/PrismarineJS/prismarine-template/statuses/{sha}",
            "subscribers_url": "https://api.github.com/repos/PrismarineJS/prismarine-template/subscribers",
            "subscription_url": "https://api.github.com/repos/PrismarineJS/prismarine-template/subscription",
            "svn_url": "https://github.com/PrismarineJS/prismarine-template",
            "tags_url": "https://api.github.com/repos/PrismarineJS/prismarine-template/tags",
            "teams_url": "https://api.github.com/repos/PrismarineJS/prismarine-template/teams",
            "topics": [],
            "trees_url": "https://api.github.com/repos/PrismarineJS/prismarine-template/git/trees{/sha}",
            "updated_at": "2023-03-08T09:02:06Z",
            "url": "https://api.github.com/repos/PrismarineJS/prismarine-template",
            "visibility": "public",
            "watchers": 7,
            "watchers_count": 7,
            "web_commit_signoff_required": false
        },
        "sha": "6e57332f95a2b9a9e7b5ea35052148ce5a6519eb",
        "user": {
            "avatar_url": "https://avatars.githubusercontent.com/u/11053411?v=4",
            "events_url": "https://api.github.com/users/PrismarineJS/events{/privacy}",
            "followers_url": "https://api.github.com/users/PrismarineJS/followers",
            "following_url": "https://api.github.com/users/PrismarineJS/following{/other_user}",
            "gists_url": "https://api.github.com/users/PrismarineJS/gists{/gist_id}",
            "gravatar_id": "",
            "html_url": "https://github.com/PrismarineJS",
            "id": 11053411,
            "login": "PrismarineJS",
            "node_id": "MDEyOk9yZ2FuaXphdGlvbjExMDUzNDEx",
            "organizations_url": "https://api.github.com/users/PrismarineJS/orgs",
            "received_events_url": "https://api.github.com/users/PrismarineJS/received_events",
            "repos_url": "https://api.github.com/users/PrismarineJS/repos",
            "site_admin": false,
            "starred_url": "https://api.github.com/users/PrismarineJS/starred{/owner}{/repo}",
            "subscriptions_url": "https://api.github.com/users/PrismarineJS/subscriptions",
            "type": "Organization",
            "url": "https://api.github.com/users/PrismarineJS"
        }
    },
    "body": "In response to #1 ",
    "changed_files": 3,
    "closed_at": "2020-10-21T21:36:23Z",
    "comment_data": [
        {
            "_links": {
                "html": {
                    "href": "https://github.com/PrismarineJS/prismarine-template/pull/2#discussion_r479794240"
                },
                "pull_request": {
                    "href": "https://api.github.com/repos/PrismarineJS/prismarine-template/pulls/2"
                },
                "self": {
                    "href": "https://api.github.com/repos/PrismarineJS/prismarine-template/pulls/comments/479794240"
                }
            },
            "author_association": "MEMBER",
            "body": "this one is useless, let's remove it",
            "commit_id": "b7f4fcf411d3eecc91103caec66ce64537affaae",
            "created_at": "2020-08-30T17:19:56Z",
            "diff_hunk": "@@ -0,0 +1,15 @@\n+---\n+name: Other",
            "html_url": "https://github.com/PrismarineJS/prismarine-template/pull/2#discussion_r479794240",
            "id": 479794240,
            "line": null,
            "node_id": "MDI0OlB1bGxSZXF1ZXN0UmV2aWV3Q29tbWVudDQ3OTc5NDI0MA==",
            "original_commit_id": "b9dee49edf0075a5855b30a8b1baf8a602bd2e2f",
            "original_line": 2,
            "original_position": 2,
            "original_start_line": null,
            "path": ".github/ISSUE_TEMPLATE/other.md",
            "position": null,
            "pull_request_review_id": 478220265,
            "pull_request_url": "https://api.github.com/repos/PrismarineJS/prismarine-template/pulls/2",
            "reactions": {
                "+1": 0,
                "-1": 0,
                "confused": 0,
                "eyes": 0,
                "heart": 0,
                "hooray": 0,
                "laugh": 0,
                "rocket": 0,
                "total_count": 0,
                "url": "https://api.github.com/repos/PrismarineJS/prismarine-template/pulls/comments/479794240/reactions"
            },
            "side": "RIGHT",
            "start_line": null,
            "start_side": null,
            "subject_type": "line",
            "updated_at": "2020-09-01T16:20:09Z",
            "url": "https://api.github.com/repos/PrismarineJS/prismarine-template/pulls/comments/479794240",
            "user": {
                "avatar_url": "https://avatars.githubusercontent.com/u/2346494?v=4",
                "events_url": "https://api.github.com/users/rom1504/events{/privacy}",
                "followers_url": "https://api.github.com/users/rom1504/followers",
                "following_url": "https://api.github.com/users/rom1504/following{/other_user}",
                "gists_url": "https://api.github.com/users/rom1504/gists{/gist_id}",
                "gravatar_id": "",
                "html_url": "https://github.com/rom1504",
                "id": 2346494,
                "login": "rom1504",
                "node_id": "MDQ6VXNlcjIzNDY0OTQ=",
                "organizations_url": "https://api.github.com/users/rom1504/orgs",
                "received_events_url": "https://api.github.com/users/rom1504/received_events",
                "repos_url": "https://api.github.com/users/rom1504/repos",
                "site_admin": false,
                "starred_url": "https://api.github.com/users/rom1504/starred{/owner}{/repo}",
                "subscriptions_url": "https://api.github.com/users/rom1504/subscriptions",
                "type": "User",
                "url": "https://api.github.com/users/rom1504"
            }
        },
        {
            "_links": {
                "html": {
                    "href": "https://github.com/PrismarineJS/prismarine-template/pull/2#discussion_r479794296"
                },
                "pull_request": {
                    "href": "https://api.github.com/repos/PrismarineJS/prismarine-template/pulls/2"
                },
                "self": {
                    "href": "https://api.github.com/repos/PrismarineJS/prismarine-template/pulls/comments/479794296"
                }
            },
            "author_association": "MEMBER",
            "body": "add more stuff here, check mineflayer as an example (I just updated them)",
            "commit_id": "b7f4fcf411d3eecc91103caec66ce64537affaae",
            "created_at": "2020-08-30T17:20:22Z",
            "diff_hunk": "@@ -0,0 +1,20 @@\n+---\n+name: Question\n+about: Ask a question\n+title: ''\n+labels: question\n+assignees: ''\n+\n+---\n+\n+- [ ] The [readme](https://github.com/PrismarineJS/prismarine-template/README.md) doesn't contain a resolution to my issue \n+- [ ] The [example](https://github.com/PrismarineJS/prismarine-template/example.js) doesn't contain a resolution to my issue \n+\n+<!-- To mark the checkbox, insert `x` into it: [x] -->\n+\n+## Versions\n+ - node: #.#.#\n+ - prismarine-template: #.#.#\n+\n+## Detailed description of a question",
            "html_url": "https://github.com/PrismarineJS/prismarine-template/pull/2#discussion_r479794296",
            "id": 479794296,
            "line": null,
            "node_id": "MDI0OlB1bGxSZXF1ZXN0UmV2aWV3Q29tbWVudDQ3OTc5NDI5Ng==",
            "original_commit_id": "b9dee49edf0075a5855b30a8b1baf8a602bd2e2f",
            "original_line": 19,
            "original_position": 19,
            "original_start_line": null,
            "path": ".github/ISSUE_TEMPLATE/question.md",
            "position": null,
            "pull_request_review_id": 478220265,
            "pull_request_url": "https://api.github.com/repos/PrismarineJS/prismarine-template/pulls/2",
            "reactions": {
                "+1": 0,
                "-1": 0,
                "confused": 0,
                "eyes": 0,
                "heart": 0,
                "hooray": 0,
                "laugh": 0,
                "rocket": 0,
                "total_count": 0,
                "url": "https://api.github.com/repos/PrismarineJS/prismarine-template/pulls/comments/479794296/reactions"
            },
            "side": "RIGHT",
            "start_line": null,
            "start_side": null,
            "subject_type": "line",
            "updated_at": "2020-09-01T16:20:09Z",
            "url": "https://api.github.com/repos/PrismarineJS/prismarine-template/pulls/comments/479794296",
            "user": {
                "avatar_url": "https://avatars.githubusercontent.com/u/2346494?v=4",
                "events_url": "https://api.github.com/users/rom1504/events{/privacy}",
                "followers_url": "https://api.github.com/users/rom1504/followers",
                "following_url": "https://api.github.com/users/rom1504/following{/other_user}",
                "gists_url": "https://api.github.com/users/rom1504/gists{/gist_id}",
                "gravatar_id": "",
                "html_url": "https://github.com/rom1504",
                "id": 2346494,
                "login": "rom1504",
                "node_id": "MDQ6VXNlcjIzNDY0OTQ=",
                "organizations_url": "https://api.github.com/users/rom1504/orgs",
                "received_events_url": "https://api.github.com/users/rom1504/received_events",
                "repos_url": "https://api.github.com/users/rom1504/repos",
                "site_admin": false,
                "starred_url": "https://api.github.com/users/rom1504/starred{/owner}{/repo}",
                "subscriptions_url": "https://api.github.com/users/rom1504/subscriptions",
                "type": "User",
                "url": "https://api.github.com/users/rom1504"
            }
        }
    ],
    "comment_regular_data": [
        {
            "author_association": "MEMBER",
            "body": "Done @rom1504 ",
            "created_at": "2020-09-01T16:20:19Z",
            "html_url": "https://github.com/PrismarineJS/prismarine-template/pull/2#issuecomment-684975625",
            "id": 684975625,
            "issue_url": "https://api.github.com/repos/PrismarineJS/prismarine-template/issues/2",
            "node_id": "MDEyOklzc3VlQ29tbWVudDY4NDk3NTYyNQ==",
            "performed_via_github_app": null,
            "reactions": {
                "+1": 0,
                "-1": 0,
                "confused": 0,
                "eyes": 0,
                "heart": 0,
                "hooray": 0,
                "laugh": 0,
                "rocket": 0,
                "total_count": 0,
                "url": "https://api.github.com/repos/PrismarineJS/prismarine-template/issues/comments/684975625/reactions"
            },
            "updated_at": "2020-09-01T16:20:19Z",
            "url": "https://api.github.com/repos/PrismarineJS/prismarine-template/issues/comments/684975625",
            "user": {
                "avatar_url": "https://avatars.githubusercontent.com/u/3118172?v=4",
                "events_url": "https://api.github.com/users/TheDudeFromCI/events{/privacy}",
                "followers_url": "https://api.github.com/users/TheDudeFromCI/followers",
                "following_url": "https://api.github.com/users/TheDudeFromCI/following{/other_user}",
                "gists_url": "https://api.github.com/users/TheDudeFromCI/gists{/gist_id}",
                "gravatar_id": "",
                "html_url": "https://github.com/TheDudeFromCI",
                "id": 3118172,
                "login": "TheDudeFromCI",
                "node_id": "MDQ6VXNlcjMxMTgxNzI=",
                "organizations_url": "https://api.github.com/users/TheDudeFromCI/orgs",
                "received_events_url": "https://api.github.com/users/TheDudeFromCI/received_events",
                "repos_url": "https://api.github.com/users/TheDudeFromCI/repos",
                "site_admin": false,
                "starred_url": "https://api.github.com/users/TheDudeFromCI/starred{/owner}{/repo}",
                "subscriptions_url": "https://api.github.com/users/TheDudeFromCI/subscriptions",
                "type": "User",
                "url": "https://api.github.com/users/TheDudeFromCI"
            }
        }
    ],
    "comments": 1,
    "comments_url": "https://api.github.com/repos/PrismarineJS/prismarine-template/issues/2/comments",
    "commit_data": [
        {
            "author": {
                "avatar_url": "https://avatars.githubusercontent.com/u/3118172?v=4",
                "events_url": "https://api.github.com/users/TheDudeFromCI/events{/privacy}",
                "followers_url": "https://api.github.com/users/TheDudeFromCI/followers",
                "following_url": "https://api.github.com/users/TheDudeFromCI/following{/other_user}",
                "gists_url": "https://api.github.com/users/TheDudeFromCI/gists{/gist_id}",
                "gravatar_id": "",
                "html_url": "https://github.com/TheDudeFromCI",
                "id": 3118172,
                "login": "TheDudeFromCI",
                "node_id": "MDQ6VXNlcjMxMTgxNzI=",
                "organizations_url": "https://api.github.com/users/TheDudeFromCI/orgs",
                "received_events_url": "https://api.github.com/users/TheDudeFromCI/received_events",
                "repos_url": "https://api.github.com/users/TheDudeFromCI/repos",
                "site_admin": false,
                "starred_url": "https://api.github.com/users/TheDudeFromCI/starred{/owner}{/repo}",
                "subscriptions_url": "https://api.github.com/users/TheDudeFromCI/subscriptions",
                "type": "User",
                "url": "https://api.github.com/users/TheDudeFromCI"
            },
            "comments_url": "https://api.github.com/repos/PrismarineJS/prismarine-template/commits/b9dee49edf0075a5855b30a8b1baf8a602bd2e2f/comments",
            "commit": {
                "author": {
                    "date": "2020-08-22T17:06:43Z",
                    "email": "thedudefromci@gmail.com",
                    "name": "TheDudeFromCI"
                },
                "comment_count": 0,
                "committer": {
                    "date": "2020-08-22T17:06:43Z",
                    "email": "thedudefromci@gmail.com",
                    "name": "TheDudeFromCI"
                },
                "message": "Added issue templates.\n\nSigned-off-by: TheDudeFromCI <thedudefromci@gmail.com>",
                "tree": {
                    "sha": "7a9fb51069fa4fe69758c2d142c40b5a940f5b44",
                    "url": "https://api.github.com/repos/PrismarineJS/prismarine-template/git/trees/7a9fb51069fa4fe69758c2d142c40b5a940f5b44"
                },
                "url": "https://api.github.com/repos/PrismarineJS/prismarine-template/git/commits/b9dee49edf0075a5855b30a8b1baf8a602bd2e2f",
                "verification": {
                    "payload": null,
                    "reason": "unsigned",
                    "signature": null,
                    "verified": false
                }
            },
            "committer": {
                "avatar_url": "https://avatars.githubusercontent.com/u/3118172?v=4",
                "events_url": "https://api.github.com/users/TheDudeFromCI/events{/privacy}",
                "followers_url": "https://api.github.com/users/TheDudeFromCI/followers",
                "following_url": "https://api.github.com/users/TheDudeFromCI/following{/other_user}",
                "gists_url": "https://api.github.com/users/TheDudeFromCI/gists{/gist_id}",
                "gravatar_id": "",
                "html_url": "https://github.com/TheDudeFromCI",
                "id": 3118172,
                "login": "TheDudeFromCI",
                "node_id": "MDQ6VXNlcjMxMTgxNzI=",
                "organizations_url": "https://api.github.com/users/TheDudeFromCI/orgs",
                "received_events_url": "https://api.github.com/users/TheDudeFromCI/received_events",
                "repos_url": "https://api.github.com/users/TheDudeFromCI/repos",
                "site_admin": false,
                "starred_url": "https://api.github.com/users/TheDudeFromCI/starred{/owner}{/repo}",
                "subscriptions_url": "https://api.github.com/users/TheDudeFromCI/subscriptions",
                "type": "User",
                "url": "https://api.github.com/users/TheDudeFromCI"
            },
            "html_url": "https://github.com/PrismarineJS/prismarine-template/commit/b9dee49edf0075a5855b30a8b1baf8a602bd2e2f",
            "node_id": "MDY6Q29tbWl0Mjg5NTMwNzY2OmI5ZGVlNDllZGYwMDc1YTU4NTViMzBhOGIxYmFmOGE2MDJiZDJlMmY=",
            "parents": [
                {
                    "html_url": "https://github.com/PrismarineJS/prismarine-template/commit/6e57332f95a2b9a9e7b5ea35052148ce5a6519eb",
                    "sha": "6e57332f95a2b9a9e7b5ea35052148ce5a6519eb",
                    "url": "https://api.github.com/repos/PrismarineJS/prismarine-template/commits/6e57332f95a2b9a9e7b5ea35052148ce5a6519eb"
                }
            ],
            "sha": "b9dee49edf0075a5855b30a8b1baf8a602bd2e2f",
            "url": "https://api.github.com/repos/PrismarineJS/prismarine-template/commits/b9dee49edf0075a5855b30a8b1baf8a602bd2e2f"
        },
        {
            "author": {
                "avatar_url": "https://avatars.githubusercontent.com/u/3118172?v=4",
                "events_url": "https://api.github.com/users/TheDudeFromCI/events{/privacy}",
                "followers_url": "https://api.github.com/users/TheDudeFromCI/followers",
                "following_url": "https://api.github.com/users/TheDudeFromCI/following{/other_user}",
                "gists_url": "https://api.github.com/users/TheDudeFromCI/gists{/gist_id}",
                "gravatar_id": "",
                "html_url": "https://github.com/TheDudeFromCI",
                "id": 3118172,
                "login": "TheDudeFromCI",
                "node_id": "MDQ6VXNlcjMxMTgxNzI=",
                "organizations_url": "https://api.github.com/users/TheDudeFromCI/orgs",
                "received_events_url": "https://api.github.com/users/TheDudeFromCI/received_events",
                "repos_url": "https://api.github.com/users/TheDudeFromCI/repos",
                "site_admin": false,
                "starred_url": "https://api.github.com/users/TheDudeFromCI/starred{/owner}{/repo}",
                "subscriptions_url": "https://api.github.com/users/TheDudeFromCI/subscriptions",
                "type": "User",
                "url": "https://api.github.com/users/TheDudeFromCI"
            },
            "comments_url": "https://api.github.com/repos/PrismarineJS/prismarine-template/commits/c4897db61b22a586aad9b4ea1b0c5593a44329ad/comments",
            "commit": {
                "author": {
                    "date": "2020-09-01T16:18:27Z",
                    "email": "thedudefromci@gmail.com",
                    "name": "TheDudeFromCI"
                },
                "comment_count": 0,
                "committer": {
                    "date": "2020-09-01T16:18:27Z",
                    "email": "thedudefromci@gmail.com",
                    "name": "TheDudeFromCI"
                },
                "message": "Removed 'other' issue type\n\nSigned-off-by: TheDudeFromCI <thedudefromci@gmail.com>",
                "tree": {
                    "sha": "a130d593da44e2199c4ae3a29d83ddc056262561",
                    "url": "https://api.github.com/repos/PrismarineJS/prismarine-template/git/trees/a130d593da44e2199c4ae3a29d83ddc056262561"
                },
                "url": "https://api.github.com/repos/PrismarineJS/prismarine-template/git/commits/c4897db61b22a586aad9b4ea1b0c5593a44329ad",
                "verification": {
                    "payload": null,
                    "reason": "unsigned",
                    "signature": null,
                    "verified": false
                }
            },
            "committer": {
                "avatar_url": "https://avatars.githubusercontent.com/u/3118172?v=4",
                "events_url": "https://api.github.com/users/TheDudeFromCI/events{/privacy}",
                "followers_url": "https://api.github.com/users/TheDudeFromCI/followers",
                "following_url": "https://api.github.com/users/TheDudeFromCI/following{/other_user}",
                "gists_url": "https://api.github.com/users/TheDudeFromCI/gists{/gist_id}",
                "gravatar_id": "",
                "html_url": "https://github.com/TheDudeFromCI",
                "id": 3118172,
                "login": "TheDudeFromCI",
                "node_id": "MDQ6VXNlcjMxMTgxNzI=",
                "organizations_url": "https://api.github.com/users/TheDudeFromCI/orgs",
                "received_events_url": "https://api.github.com/users/TheDudeFromCI/received_events",
                "repos_url": "https://api.github.com/users/TheDudeFromCI/repos",
                "site_admin": false,
                "starred_url": "https://api.github.com/users/TheDudeFromCI/starred{/owner}{/repo}",
                "subscriptions_url": "https://api.github.com/users/TheDudeFromCI/subscriptions",
                "type": "User",
                "url": "https://api.github.com/users/TheDudeFromCI"
            },
            "html_url": "https://github.com/PrismarineJS/prismarine-template/commit/c4897db61b22a586aad9b4ea1b0c5593a44329ad",
            "node_id": "MDY6Q29tbWl0Mjg5NTMwNzY2OmM0ODk3ZGI2MWIyMmE1ODZhYWQ5YjRlYTFiMGM1NTkzYTQ0MzI5YWQ=",
            "parents": [
                {
                    "html_url": "https://github.com/PrismarineJS/prismarine-template/commit/b9dee49edf0075a5855b30a8b1baf8a602bd2e2f",
                    "sha": "b9dee49edf0075a5855b30a8b1baf8a602bd2e2f",
                    "url": "https://api.github.com/repos/PrismarineJS/prismarine-template/commits/b9dee49edf0075a5855b30a8b1baf8a602bd2e2f"
                }
            ],
            "sha": "c4897db61b22a586aad9b4ea1b0c5593a44329ad",
            "url": "https://api.github.com/repos/PrismarineJS/prismarine-template/commits/c4897db61b22a586aad9b4ea1b0c5593a44329ad"
        },
        {
            "author": {
                "avatar_url": "https://avatars.githubusercontent.com/u/3118172?v=4",
                "events_url": "https://api.github.com/users/TheDudeFromCI/events{/privacy}",
                "followers_url": "https://api.github.com/users/TheDudeFromCI/followers",
                "following_url": "https://api.github.com/users/TheDudeFromCI/following{/other_user}",
                "gists_url": "https://api.github.com/users/TheDudeFromCI/gists{/gist_id}",
                "gravatar_id": "",
                "html_url": "https://github.com/TheDudeFromCI",
                "id": 3118172,
                "login": "TheDudeFromCI",
                "node_id": "MDQ6VXNlcjMxMTgxNzI=",
                "organizations_url": "https://api.github.com/users/TheDudeFromCI/orgs",
                "received_events_url": "https://api.github.com/users/TheDudeFromCI/received_events",
                "repos_url": "https://api.github.com/users/TheDudeFromCI/repos",
                "site_admin": false,
                "starred_url": "https://api.github.com/users/TheDudeFromCI/starred{/owner}{/repo}",
                "subscriptions_url": "https://api.github.com/users/TheDudeFromCI/subscriptions",
                "type": "User",
                "url": "https://api.github.com/users/TheDudeFromCI"
            },
            "comments_url": "https://api.github.com/repos/PrismarineJS/prismarine-template/commits/b7f4fcf411d3eecc91103caec66ce64537affaae/comments",
            "commit": {
                "author": {
                    "date": "2020-09-01T16:19:59Z",
                    "email": "thedudefromci@gmail.com",
                    "name": "TheDudeFromCI"
                },
                "comment_count": 0,
                "committer": {
                    "date": "2020-09-01T16:19:59Z",
                    "email": "thedudefromci@gmail.com",
                    "name": "TheDudeFromCI"
                },
                "message": "Updated question template.\n\nSigned-off-by: TheDudeFromCI <thedudefromci@gmail.com>",
                "tree": {
                    "sha": "1891a4aead72fab2f2141ffa793b47ed74e716a0",
                    "url": "https://api.github.com/repos/PrismarineJS/prismarine-template/git/trees/1891a4aead72fab2f2141ffa793b47ed74e716a0"
                },
                "url": "https://api.github.com/repos/PrismarineJS/prismarine-template/git/commits/b7f4fcf411d3eecc91103caec66ce64537affaae",
                "verification": {
                    "payload": null,
                    "reason": "unsigned",
                    "signature": null,
                    "verified": false
                }
            },
            "committer": {
                "avatar_url": "https://avatars.githubusercontent.com/u/3118172?v=4",
                "events_url": "https://api.github.com/users/TheDudeFromCI/events{/privacy}",
                "followers_url": "https://api.github.com/users/TheDudeFromCI/followers",
                "following_url": "https://api.github.com/users/TheDudeFromCI/following{/other_user}",
                "gists_url": "https://api.github.com/users/TheDudeFromCI/gists{/gist_id}",
                "gravatar_id": "",
                "html_url": "https://github.com/TheDudeFromCI",
                "id": 3118172,
                "login": "TheDudeFromCI",
                "node_id": "MDQ6VXNlcjMxMTgxNzI=",
                "organizations_url": "https://api.github.com/users/TheDudeFromCI/orgs",
                "received_events_url": "https://api.github.com/users/TheDudeFromCI/received_events",
                "repos_url": "https://api.github.com/users/TheDudeFromCI/repos",
                "site_admin": false,
                "starred_url": "https://api.github.com/users/TheDudeFromCI/starred{/owner}{/repo}",
                "subscriptions_url": "https://api.github.com/users/TheDudeFromCI/subscriptions",
                "type": "User",
                "url": "https://api.github.com/users/TheDudeFromCI"
            },
            "html_url": "https://github.com/PrismarineJS/prismarine-template/commit/b7f4fcf411d3eecc91103caec66ce64537affaae",
            "node_id": "MDY6Q29tbWl0Mjg5NTMwNzY2OmI3ZjRmY2Y0MTFkM2VlY2M5MTEwM2NhZWM2NmNlNjQ1MzdhZmZhYWU=",
            "parents": [
                {
                    "html_url": "https://github.com/PrismarineJS/prismarine-template/commit/c4897db61b22a586aad9b4ea1b0c5593a44329ad",
                    "sha": "c4897db61b22a586aad9b4ea1b0c5593a44329ad",
                    "url": "https://api.github.com/repos/PrismarineJS/prismarine-template/commits/c4897db61b22a586aad9b4ea1b0c5593a44329ad"
                }
            ],
            "sha": "b7f4fcf411d3eecc91103caec66ce64537affaae",
            "url": "https://api.github.com/repos/PrismarineJS/prismarine-template/commits/b7f4fcf411d3eecc91103caec66ce64537affaae"
        }
    ],
    "commits": 3,
    "commits_url": "https://api.github.com/repos/PrismarineJS/prismarine-template/pulls/2/commits",
    "created_at": "2020-08-22T17:07:48Z",
    "deletions": 0,
    "diff_url": "https://github.com/PrismarineJS/prismarine-template/pull/2.diff",
    "draft": false,
    "head": {
        "label": "TheDudeFromCI:templates",
        "ref": "templates",
        "repo": {
            "allow_forking": true,
            "archive_url": "https://api.github.com/repos/TheDudeFromCI/prismarine-template/{archive_format}{/ref}",
            "archived": false,
            "assignees_url": "https://api.github.com/repos/TheDudeFromCI/prismarine-template/assignees{/user}",
            "blobs_url": "https://api.github.com/repos/TheDudeFromCI/prismarine-template/git/blobs{/sha}",
            "branches_url": "https://api.github.com/repos/TheDudeFromCI/prismarine-template/branches{/branch}",
            "clone_url": "https://github.com/TheDudeFromCI/prismarine-template.git",
            "collaborators_url": "https://api.github.com/repos/TheDudeFromCI/prismarine-template/collaborators{/collaborator}",
            "comments_url": "https://api.github.com/repos/TheDudeFromCI/prismarine-template/comments{/number}",
            "commits_url": "https://api.github.com/repos/TheDudeFromCI/prismarine-template/commits{/sha}",
            "compare_url": "https://api.github.com/repos/TheDudeFromCI/prismarine-template/compare/{base}...{head}",
            "contents_url": "https://api.github.com/repos/TheDudeFromCI/prismarine-template/contents/{+path}",
            "contributors_url": "https://api.github.com/repos/TheDudeFromCI/prismarine-template/contributors",
            "created_at": "2020-08-22T17:02:22Z",
            "default_branch": "master",
            "deployments_url": "https://api.github.com/repos/TheDudeFromCI/prismarine-template/deployments",
            "description": "A template repository to make it easy to create new prismarine repo",
            "disabled": false,
            "downloads_url": "https://api.github.com/repos/TheDudeFromCI/prismarine-template/downloads",
            "events_url": "https://api.github.com/repos/TheDudeFromCI/prismarine-template/events",
            "fork": true,
            "forks": 0,
            "forks_count": 0,
            "forks_url": "https://api.github.com/repos/TheDudeFromCI/prismarine-template/forks",
            "full_name": "TheDudeFromCI/prismarine-template",
            "git_commits_url": "https://api.github.com/repos/TheDudeFromCI/prismarine-template/git/commits{/sha}",
            "git_refs_url": "https://api.github.com/repos/TheDudeFromCI/prismarine-template/git/refs{/sha}",
            "git_tags_url": "https://api.github.com/repos/TheDudeFromCI/prismarine-template/git/tags{/sha}",
            "git_url": "git://github.com/TheDudeFromCI/prismarine-template.git",
            "has_discussions": false,
            "has_downloads": true,
            "has_issues": false,
            "has_pages": false,
            "has_projects": true,
            "has_wiki": true,
            "homepage": "",
            "hooks_url": "https://api.github.com/repos/TheDudeFromCI/prismarine-template/hooks",
            "html_url": "https://github.com/TheDudeFromCI/prismarine-template",
            "id": 289530766,
            "is_template": true,
            "issue_comment_url": "https://api.github.com/repos/TheDudeFromCI/prismarine-template/issues/comments{/number}",
            "issue_events_url": "https://api.github.com/repos/TheDudeFromCI/prismarine-template/issues/events{/number}",
            "issues_url": "https://api.github.com/repos/TheDudeFromCI/prismarine-template/issues{/number}",
            "keys_url": "https://api.github.com/repos/TheDudeFromCI/prismarine-template/keys{/key_id}",
            "labels_url": "https://api.github.com/repos/TheDudeFromCI/prismarine-template/labels{/name}",
            "language": null,
            "languages_url": "https://api.github.com/repos/TheDudeFromCI/prismarine-template/languages",
            "license": {
                "key": "mit",
                "name": "MIT License",
                "node_id": "MDc6TGljZW5zZTEz",
                "spdx_id": "MIT",
                "url": "https://api.github.com/licenses/mit"
            },
            "merges_url": "https://api.github.com/repos/TheDudeFromCI/prismarine-template/merges",
            "milestones_url": "https://api.github.com/repos/TheDudeFromCI/prismarine-template/milestones{/number}",
            "mirror_url": null,
            "name": "prismarine-template",
            "node_id": "MDEwOlJlcG9zaXRvcnkyODk1MzA3NjY=",
            "notifications_url": "https://api.github.com/repos/TheDudeFromCI/prismarine-template/notifications{?since,all,participating}",
            "open_issues": 0,
            "open_issues_count": 0,
            "owner": {
                "avatar_url": "https://avatars.githubusercontent.com/u/3118172?v=4",
                "events_url": "https://api.github.com/users/TheDudeFromCI/events{/privacy}",
                "followers_url": "https://api.github.com/users/TheDudeFromCI/followers",
                "following_url": "https://api.github.com/users/TheDudeFromCI/following{/other_user}",
                "gists_url": "https://api.github.com/users/TheDudeFromCI/gists{/gist_id}",
                "gravatar_id": "",
                "html_url": "https://github.com/TheDudeFromCI",
                "id": 3118172,
                "login": "TheDudeFromCI",
                "node_id": "MDQ6VXNlcjMxMTgxNzI=",
                "organizations_url": "https://api.github.com/users/TheDudeFromCI/orgs",
                "received_events_url": "https://api.github.com/users/TheDudeFromCI/received_events",
                "repos_url": "https://api.github.com/users/TheDudeFromCI/repos",
                "site_admin": false,
                "starred_url": "https://api.github.com/users/TheDudeFromCI/starred{/owner}{/repo}",
                "subscriptions_url": "https://api.github.com/users/TheDudeFromCI/subscriptions",
                "type": "User",
                "url": "https://api.github.com/users/TheDudeFromCI"
            },
            "private": false,
            "pulls_url": "https://api.github.com/repos/TheDudeFromCI/prismarine-template/pulls{/number}",
            "pushed_at": "2020-09-01T16:20:08Z",
            "releases_url": "https://api.github.com/repos/TheDudeFromCI/prismarine-template/releases{/id}",
            "size": 8,
            "ssh_url": "git@github.com:TheDudeFromCI/prismarine-template.git",
            "stargazers_count": 0,
            "stargazers_url": "https://api.github.com/repos/TheDudeFromCI/prismarine-template/stargazers",
            "statuses_url": "https://api.github.com/repos/TheDudeFromCI/prismarine-template/statuses/{sha}",
            "subscribers_url": "https://api.github.com/repos/TheDudeFromCI/prismarine-template/subscribers",
            "subscription_url": "https://api.github.com/repos/TheDudeFromCI/prismarine-template/subscription",
            "svn_url": "https://github.com/TheDudeFromCI/prismarine-template",
            "tags_url": "https://api.github.com/repos/TheDudeFromCI/prismarine-template/tags",
            "teams_url": "https://api.github.com/repos/TheDudeFromCI/prismarine-template/teams",
            "topics": [],
            "trees_url": "https://api.github.com/repos/TheDudeFromCI/prismarine-template/git/trees{/sha}",
            "updated_at": "2020-08-22T17:02:24Z",
            "url": "https://api.github.com/repos/TheDudeFromCI/prismarine-template",
            "visibility": "public",
            "watchers": 0,
            "watchers_count": 0,
            "web_commit_signoff_required": false
        },
        "sha": "b7f4fcf411d3eecc91103caec66ce64537affaae",
        "user": {
            "avatar_url": "https://avatars.githubusercontent.com/u/3118172?v=4",
            "events_url": "https://api.github.com/users/TheDudeFromCI/events{/privacy}",
            "followers_url": "https://api.github.com/users/TheDudeFromCI/followers",
            "following_url": "https://api.github.com/users/TheDudeFromCI/following{/other_user}",
            "gists_url": "https://api.github.com/users/TheDudeFromCI/gists{/gist_id}",
            "gravatar_id": "",
            "html_url": "https://github.com/TheDudeFromCI",
            "id": 3118172,
            "login": "TheDudeFromCI",
            "node_id": "MDQ6VXNlcjMxMTgxNzI=",
            "organizations_url": "https://api.github.com/users/TheDudeFromCI/orgs",
            "received_events_url": "https://api.github.com/users/TheDudeFromCI/received_events",
            "repos_url": "https://api.github.com/users/TheDudeFromCI/repos",
            "site_admin": false,
            "starred_url": "https://api.github.com/users/TheDudeFromCI/starred{/owner}{/repo}",
            "subscriptions_url": "https://api.github.com/users/TheDudeFromCI/subscriptions",
            "type": "User",
            "url": "https://api.github.com/users/TheDudeFromCI"
        }
    },
    "html_url": "https://github.com/PrismarineJS/prismarine-template/pull/2",
    "id": 472011766,
    "issue_url": "https://api.github.com/repos/PrismarineJS/prismarine-template/issues/2",
    "labels": [],
    "locked": false,
    "maintainer_can_modify": false,
    "merge_commit_sha": "a89a6f7e7445d61fdc5056fbfeba0b1c0bf41008",
    "mergeable": null,
    "mergeable_state": "unknown",
    "merged": true,
    "merged_at": "2020-10-21T21:36:23Z",
    "merged_by": {
        "avatar_url": "https://avatars.githubusercontent.com/u/2346494?v=4",
        "events_url": "https://api.github.com/users/rom1504/events{/privacy}",
        "followers_url": "https://api.github.com/users/rom1504/followers",
        "following_url": "https://api.github.com/users/rom1504/following{/other_user}",
        "gists_url": "https://api.github.com/users/rom1504/gists{/gist_id}",
        "gravatar_id": "",
        "html_url": "https://github.com/rom1504",
        "id": 2346494,
        "login": "rom1504",
        "node_id": "MDQ6VXNlcjIzNDY0OTQ=",
        "organizations_url": "https://api.github.com/users/rom1504/orgs",
        "received_events_url": "https://api.github.com/users/rom1504/received_events",
        "repos_url": "https://api.github.com/users/rom1504/repos",
        "site_admin": false,
        "starred_url": "https://api.github.com/users/rom1504/starred{/owner}{/repo}",
        "subscriptions_url": "https://api.github.com/users/rom1504/subscriptions",
        "type": "User",
        "url": "https://api.github.com/users/rom1504"
    },
    "milestone": null,
    "node_id": "MDExOlB1bGxSZXF1ZXN0NDcyMDExNzY2",
    "number": 2,
    "patch_url": "https://github.com/PrismarineJS/prismarine-template/pull/2.patch",
    "rebaseable": null,
    "requested_reviewers": [],
    "requested_teams": [],
    "review_comment_url": "https://api.github.com/repos/PrismarineJS/prismarine-template/pulls/comments{/number}",
    "review_comments": 2,
    "review_comments_url": "https://api.github.com/repos/PrismarineJS/prismarine-template/pulls/2/comments",
    "state": "closed",
    "statuses_url": "https://api.github.com/repos/PrismarineJS/prismarine-template/statuses/b7f4fcf411d3eecc91103caec66ce64537affaae",
    "title": "Added Issue Templates",
    "updated_at": "2020-10-21T21:36:23Z",
    "url": "https://api.github.com/repos/PrismarineJS/prismarine-template/pulls/2",
    "user": {
        "avatar_url": "https://avatars.githubusercontent.com/u/3118172?v=4",
        "events_url": "https://api.github.com/users/TheDudeFromCI/events{/privacy}",
        "followers_url": "https://api.github.com/users/TheDudeFromCI/followers",
        "following_url": "https://api.github.com/users/TheDudeFromCI/following{/other_user}",
        "gists_url": "https://api.github.com/users/TheDudeFromCI/gists{/gist_id}",
        "gravatar_id": "",
        "html_url": "https://github.com/TheDudeFromCI",
        "id": 3118172,
        "login": "TheDudeFromCI",
        "node_id": "MDQ6VXNlcjMxMTgxNzI=",
        "organizations_url": "https://api.github.com/users/TheDudeFromCI/orgs",
        "received_events_url": "https://api.github.com/users/TheDudeFromCI/received_events",
        "repos_url": "https://api.github.com/users/TheDudeFromCI/repos",
        "site_admin": false,
        "starred_url": "https://api.github.com/users/TheDudeFromCI/starred{/owner}{/repo}",
        "subscriptions_url": "https://api.github.com/users/TheDudeFromCI/subscriptions",
        "type": "User",
        "url": "https://api.github.com/users/TheDudeFromCI"
    }
}