{
    "_links": {
        "comments": {
            "href": "https://api.github.com/repos/PrismarineJS/prismarine-block/issues/71/comments"
        },
        "commits": {
            "href": "https://api.github.com/repos/PrismarineJS/prismarine-block/pulls/71/commits"
        },
        "html": {
            "href": "https://github.com/PrismarineJS/prismarine-block/pull/71"
        },
        "issue": {
            "href": "https://api.github.com/repos/PrismarineJS/prismarine-block/issues/71"
        },
        "review_comment": {
            "href": "https://api.github.com/repos/PrismarineJS/prismarine-block/pulls/comments{/number}"
        },
        "review_comments": {
            "href": "https://api.github.com/repos/PrismarineJS/prismarine-block/pulls/71/comments"
        },
        "self": {
            "href": "https://api.github.com/repos/PrismarineJS/prismarine-block/pulls/71"
        },
        "statuses": {
            "href": "https://api.github.com/repos/PrismarineJS/prismarine-block/statuses/914638d07271684fd84da4572162f39c5aa5bd45"
        }
    },
    "active_lock_reason": null,
    "additions": 41,
    "assignee": null,
    "assignees": [],
    "author_association": "CONTRIBUTOR",
    "auto_merge": null,
    "base": {
        "label": "PrismarineJS:master",
        "ref": "master",
        "repo": {
            "allow_forking": true,
            "archive_url": "https://api.github.com/repos/PrismarineJS/prismarine-block/{archive_format}{/ref}",
            "archived": false,
            "assignees_url": "https://api.github.com/repos/PrismarineJS/prismarine-block/assignees{/user}",
            "blobs_url": "https://api.github.com/repos/PrismarineJS/prismarine-block/git/blobs{/sha}",
            "branches_url": "https://api.github.com/repos/PrismarineJS/prismarine-block/branches{/branch}",
            "clone_url": "https://github.com/PrismarineJS/prismarine-block.git",
            "collaborators_url": "https://api.github.com/repos/PrismarineJS/prismarine-block/collaborators{/collaborator}",
            "comments_url": "https://api.github.com/repos/PrismarineJS/prismarine-block/comments{/number}",
            "commits_url": "https://api.github.com/repos/PrismarineJS/prismarine-block/commits{/sha}",
            "compare_url": "https://api.github.com/repos/PrismarineJS/prismarine-block/compare/{base}...{head}",
            "contents_url": "https://api.github.com/repos/PrismarineJS/prismarine-block/contents/{+path}",
            "contributors_url": "https://api.github.com/repos/PrismarineJS/prismarine-block/contributors",
            "created_at": "2015-08-28T22:08:17Z",
            "default_branch": "master",
            "deployments_url": "https://api.github.com/repos/PrismarineJS/prismarine-block/deployments",
            "description": "Represent a minecraft block with its associated data",
            "disabled": false,
            "downloads_url": "https://api.github.com/repos/PrismarineJS/prismarine-block/downloads",
            "events_url": "https://api.github.com/repos/PrismarineJS/prismarine-block/events",
            "fork": false,
            "forks": 18,
            "forks_count": 18,
            "forks_url": "https://api.github.com/repos/PrismarineJS/prismarine-block/forks",
            "full_name": "PrismarineJS/prismarine-block",
            "git_commits_url": "https://api.github.com/repos/PrismarineJS/prismarine-block/git/commits{/sha}",
            "git_refs_url": "https://api.github.com/repos/PrismarineJS/prismarine-block/git/refs{/sha}",
            "git_tags_url": "https://api.github.com/repos/PrismarineJS/prismarine-block/git/tags{/sha}",
            "git_url": "git://github.com/PrismarineJS/prismarine-block.git",
            "has_discussions": false,
            "has_downloads": true,
            "has_issues": true,
            "has_pages": false,
            "has_projects": true,
            "has_wiki": true,
            "homepage": null,
            "hooks_url": "https://api.github.com/repos/PrismarineJS/prismarine-block/hooks",
            "html_url": "https://github.com/PrismarineJS/prismarine-block",
            "id": 41571323,
            "is_template": false,
            "issue_comment_url": "https://api.github.com/repos/PrismarineJS/prismarine-block/issues/comments{/number}",
            "issue_events_url": "https://api.github.com/repos/PrismarineJS/prismarine-block/issues/events{/number}",
            "issues_url": "https://api.github.com/repos/PrismarineJS/prismarine-block/issues{/number}",
            "keys_url": "https://api.github.com/repos/PrismarineJS/prismarine-block/keys{/key_id}",
            "labels_url": "https://api.github.com/repos/PrismarineJS/prismarine-block/labels{/name}",
            "language": "JavaScript",
            "languages_url": "https://api.github.com/repos/PrismarineJS/prismarine-block/languages",
            "license": null,
            "merges_url": "https://api.github.com/repos/PrismarineJS/prismarine-block/merges",
            "milestones_url": "https://api.github.com/repos/PrismarineJS/prismarine-block/milestones{/number}",
            "mirror_url": null,
            "name": "prismarine-block",
            "node_id": "MDEwOlJlcG9zaXRvcnk0MTU3MTMyMw==",
            "notifications_url": "https://api.github.com/repos/PrismarineJS/prismarine-block/notifications{?since,all,participating}",
            "open_issues": 4,
            "open_issues_count": 4,
            "owner": {
                "avatar_url": "https://avatars.githubusercontent.com/u/11053411?v=4",
                "events_url": "https://api.github.com/users/PrismarineJS/events{/privacy}",
                "followers_url": "https://api.github.com/users/PrismarineJS/followers",
                "following_url": "https://api.github.com/users/PrismarineJS/following{/other_user}",
                "gists_url": "https://api.github.com/users/PrismarineJS/gists{/gist_id}",
                "gravatar_id": "",
                "html_url": "https://github.com/PrismarineJS",
                "id": 11053411,
                "login": "PrismarineJS",
                "node_id": "MDEyOk9yZ2FuaXphdGlvbjExMDUzNDEx",
                "organizations_url": "https://api.github.com/users/PrismarineJS/orgs",
                "received_events_url": "https://api.github.com/users/PrismarineJS/received_events",
                "repos_url": "https://api.github.com/users/PrismarineJS/repos",
                "site_admin": false,
                "starred_url": "https://api.github.com/users/PrismarineJS/starred{/owner}{/repo}",
                "subscriptions_url": "https://api.github.com/users/PrismarineJS/subscriptions",
                "type": "Organization",
                "url": "https://api.github.com/users/PrismarineJS"
            },
            "private": false,
            "pulls_url": "https://api.github.com/repos/PrismarineJS/prismarine-block/pulls{/number}",
            "pushed_at": "2023-03-04T18:03:03Z",
            "releases_url": "https://api.github.com/repos/PrismarineJS/prismarine-block/releases{/id}",
            "size": 122,
            "ssh_url": "git@github.com:PrismarineJS/prismarine-block.git",
            "stargazers_count": 24,
            "stargazers_url": "https://api.github.com/repos/PrismarineJS/prismarine-block/stargazers",
            "statuses_url": "https://api.github.com/repos/PrismarineJS/prismarine-block/statuses/{sha}",
            "subscribers_url": "https://api.github.com/repos/PrismarineJS/prismarine-block/subscribers",
            "subscription_url": "https://api.github.com/repos/PrismarineJS/prismarine-block/subscription",
            "svn_url": "https://github.com/PrismarineJS/prismarine-block",
            "tags_url": "https://api.github.com/repos/PrismarineJS/prismarine-block/tags",
            "teams_url": "https://api.github.com/repos/PrismarineJS/prismarine-block/teams",
            "topics": [],
            "trees_url": "https://api.github.com/repos/PrismarineJS/prismarine-block/git/trees{/sha}",
            "updated_at": "2023-01-20T16:05:42Z",
            "url": "https://api.github.com/repos/PrismarineJS/prismarine-block",
            "visibility": "public",
            "watchers": 24,
            "watchers_count": 24,
            "web_commit_signoff_required": false
        },
        "sha": "087e40abc165e08a367bb0ba0b9d113d56a380bc",
        "user": {
            "avatar_url": "https://avatars.githubusercontent.com/u/11053411?v=4",
            "events_url": "https://api.github.com/users/PrismarineJS/events{/privacy}",
            "followers_url": "https://api.github.com/users/PrismarineJS/followers",
            "following_url": "https://api.github.com/users/PrismarineJS/following{/other_user}",
            "gists_url": "https://api.github.com/users/PrismarineJS/gists{/gist_id}",
            "gravatar_id": "",
            "html_url": "https://github.com/PrismarineJS",
            "id": 11053411,
            "login": "PrismarineJS",
            "node_id": "MDEyOk9yZ2FuaXphdGlvbjExMDUzNDEx",
            "organizations_url": "https://api.github.com/users/PrismarineJS/orgs",
            "received_events_url": "https://api.github.com/users/PrismarineJS/received_events",
            "repos_url": "https://api.github.com/users/PrismarineJS/repos",
            "site_admin": false,
            "starred_url": "https://api.github.com/users/PrismarineJS/starred{/owner}{/repo}",
            "subscriptions_url": "https://api.github.com/users/PrismarineJS/subscriptions",
            "type": "Organization",
            "url": "https://api.github.com/users/PrismarineJS"
        }
    },
    "body": "eg:\r\n```js\r\nconst BlockJava = require('prismarine-block')('1.18')\r\nconst BlockPe = require('prismarine-block')('pe_1.18.0')\r\nconst lit_candle_java = BlockJava.fromString('minecraft:candle[lit=true]',0)\r\nconst lit_candle_pe = BlockPe.fromString('minecraft:candle[\"lit\":true]',0)\r\n```",
    "changed_files": 5,
    "closed_at": "2023-03-04T18:03:03Z",
    "comment_data": [],
    "comment_regular_data": [
        {
            "author_association": "MEMBER",
            "body": "looks good\r\n\r\ncan you also add it in doc ?",
            "created_at": "2022-09-30T17:19:00Z",
            "html_url": "https://github.com/PrismarineJS/prismarine-block/pull/71#issuecomment-1263825082",
            "id": 1263825082,
            "issue_url": "https://api.github.com/repos/PrismarineJS/prismarine-block/issues/71",
            "node_id": "IC_kwDOAnpT-85LVHC6",
            "performed_via_github_app": null,
            "reactions": {
                "+1": 0,
                "-1": 0,
                "confused": 0,
                "eyes": 0,
                "heart": 0,
                "hooray": 0,
                "laugh": 0,
                "rocket": 0,
                "total_count": 0,
                "url": "https://api.github.com/repos/PrismarineJS/prismarine-block/issues/comments/1263825082/reactions"
            },
            "updated_at": "2022-09-30T17:19:00Z",
            "url": "https://api.github.com/repos/PrismarineJS/prismarine-block/issues/comments/1263825082",
            "user": {
                "avatar_url": "https://avatars.githubusercontent.com/u/2346494?v=4",
                "events_url": "https://api.github.com/users/rom1504/events{/privacy}",
                "followers_url": "https://api.github.com/users/rom1504/followers",
                "following_url": "https://api.github.com/users/rom1504/following{/other_user}",
                "gists_url": "https://api.github.com/users/rom1504/gists{/gist_id}",
                "gravatar_id": "",
                "html_url": "https://github.com/rom1504",
                "id": 2346494,
                "login": "rom1504",
                "node_id": "MDQ6VXNlcjIzNDY0OTQ=",
                "organizations_url": "https://api.github.com/users/rom1504/orgs",
                "received_events_url": "https://api.github.com/users/rom1504/received_events",
                "repos_url": "https://api.github.com/users/rom1504/repos",
                "site_admin": false,
                "starred_url": "https://api.github.com/users/rom1504/starred{/owner}{/repo}",
                "subscriptions_url": "https://api.github.com/users/rom1504/subscriptions",
                "type": "User",
                "url": "https://api.github.com/users/rom1504"
            }
        }
    ],
    "comments": 1,
    "comments_url": "https://api.github.com/repos/PrismarineJS/prismarine-block/issues/71/comments",
    "commit_data": [
        {
            "author": null,
            "comments_url": "https://api.github.com/repos/PrismarineJS/prismarine-block/commits/5b1b6e7932a0f4e4a4eebb116241369c38140ae1/comments",
            "commit": {
                "author": {
                    "date": "2022-08-12T10:47:25Z",
                    "email": "uner21@posteo.de",
                    "name": "Sertonix"
                },
                "comment_count": 0,
                "committer": {
                    "date": "2022-08-12T10:47:25Z",
                    "email": "uner21@posteo.de",
                    "name": "Sertonix"
                },
                "message": "added Block.fromString",
                "tree": {
                    "sha": "5f2f405cf12869c1a49328819fb8138095c2ae88",
                    "url": "https://api.github.com/repos/PrismarineJS/prismarine-block/git/trees/5f2f405cf12869c1a49328819fb8138095c2ae88"
                },
                "url": "https://api.github.com/repos/PrismarineJS/prismarine-block/git/commits/5b1b6e7932a0f4e4a4eebb116241369c38140ae1",
                "verification": {
                    "payload": null,
                    "reason": "unsigned",
                    "signature": null,
                    "verified": false
                }
            },
            "committer": null,
            "html_url": "https://github.com/PrismarineJS/prismarine-block/commit/5b1b6e7932a0f4e4a4eebb116241369c38140ae1",
            "node_id": "C_kwDOHwjR4NoAKDViMWI2ZTc5MzJhMGY0ZTRhNGVlYmIxMTYyNDEzNjljMzgxNDBhZTE",
            "parents": [
                {
                    "html_url": "https://github.com/PrismarineJS/prismarine-block/commit/087e40abc165e08a367bb0ba0b9d113d56a380bc",
                    "sha": "087e40abc165e08a367bb0ba0b9d113d56a380bc",
                    "url": "https://api.github.com/repos/PrismarineJS/prismarine-block/commits/087e40abc165e08a367bb0ba0b9d113d56a380bc"
                }
            ],
            "sha": "5b1b6e7932a0f4e4a4eebb116241369c38140ae1",
            "url": "https://api.github.com/repos/PrismarineJS/prismarine-block/commits/5b1b6e7932a0f4e4a4eebb116241369c38140ae1"
        },
        {
            "author": null,
            "comments_url": "https://api.github.com/repos/PrismarineJS/prismarine-block/commits/6d6c3c21bf9b810c11b46ec720ee3cc314fb94c0/comments",
            "commit": {
                "author": {
                    "date": "2022-08-12T11:52:15Z",
                    "email": "uner21@posteo.de",
                    "name": "Sertonix"
                },
                "comment_count": 0,
                "committer": {
                    "date": "2022-08-12T11:52:15Z",
                    "email": "uner21@posteo.de",
                    "name": "Sertonix"
                },
                "message": "fix bedrock parsing",
                "tree": {
                    "sha": "7d2e6a2dd491a6125e117022cf677df8a41c30c2",
                    "url": "https://api.github.com/repos/PrismarineJS/prismarine-block/git/trees/7d2e6a2dd491a6125e117022cf677df8a41c30c2"
                },
                "url": "https://api.github.com/repos/PrismarineJS/prismarine-block/git/commits/6d6c3c21bf9b810c11b46ec720ee3cc314fb94c0",
                "verification": {
                    "payload": null,
                    "reason": "unsigned",
                    "signature": null,
                    "verified": false
                }
            },
            "committer": null,
            "html_url": "https://github.com/PrismarineJS/prismarine-block/commit/6d6c3c21bf9b810c11b46ec720ee3cc314fb94c0",
            "node_id": "C_kwDOHwjR4NoAKDZkNmMzYzIxYmY5YjgxMGMxMWI0NmVjNzIwZWUzY2MzMTRmYjk0YzA",
            "parents": [
                {
                    "html_url": "https://github.com/PrismarineJS/prismarine-block/commit/5b1b6e7932a0f4e4a4eebb116241369c38140ae1",
                    "sha": "5b1b6e7932a0f4e4a4eebb116241369c38140ae1",
                    "url": "https://api.github.com/repos/PrismarineJS/prismarine-block/commits/5b1b6e7932a0f4e4a4eebb116241369c38140ae1"
                }
            ],
            "sha": "6d6c3c21bf9b810c11b46ec720ee3cc314fb94c0",
            "url": "https://api.github.com/repos/PrismarineJS/prismarine-block/commits/6d6c3c21bf9b810c11b46ec720ee3cc314fb94c0"
        },
        {
            "author": null,
            "comments_url": "https://api.github.com/repos/PrismarineJS/prismarine-block/commits/99470ea553b9e2ca0afce7c751bfd2b6038bdf85/comments",
            "commit": {
                "author": {
                    "date": "2022-08-12T11:58:07Z",
                    "email": "uner21@posteo.de",
                    "name": "Sertonix"
                },
                "comment_count": 0,
                "committer": {
                    "date": "2022-08-12T11:58:07Z",
                    "email": "uner21@posteo.de",
                    "name": "Sertonix"
                },
                "message": "reverted unintended changes",
                "tree": {
                    "sha": "f996c80c175e6a7b7f8634d02b064cb45b2711e6",
                    "url": "https://api.github.com/repos/PrismarineJS/prismarine-block/git/trees/f996c80c175e6a7b7f8634d02b064cb45b2711e6"
                },
                "url": "https://api.github.com/repos/PrismarineJS/prismarine-block/git/commits/99470ea553b9e2ca0afce7c751bfd2b6038bdf85",
                "verification": {
                    "payload": null,
                    "reason": "unsigned",
                    "signature": null,
                    "verified": false
                }
            },
            "committer": null,
            "html_url": "https://github.com/PrismarineJS/prismarine-block/commit/99470ea553b9e2ca0afce7c751bfd2b6038bdf85",
            "node_id": "C_kwDOHwjR4NoAKDk5NDcwZWE1NTNiOWUyY2EwYWZjZTdjNzUxYmZkMmI2MDM4YmRmODU",
            "parents": [
                {
                    "html_url": "https://github.com/PrismarineJS/prismarine-block/commit/6d6c3c21bf9b810c11b46ec720ee3cc314fb94c0",
                    "sha": "6d6c3c21bf9b810c11b46ec720ee3cc314fb94c0",
                    "url": "https://api.github.com/repos/PrismarineJS/prismarine-block/commits/6d6c3c21bf9b810c11b46ec720ee3cc314fb94c0"
                }
            ],
            "sha": "99470ea553b9e2ca0afce7c751bfd2b6038bdf85",
            "url": "https://api.github.com/repos/PrismarineJS/prismarine-block/commits/99470ea553b9e2ca0afce7c751bfd2b6038bdf85"
        },
        {
            "author": null,
            "comments_url": "https://api.github.com/repos/PrismarineJS/prismarine-block/commits/5182bbef11ef4cf341d3c16cb8fed60e6e895983/comments",
            "commit": {
                "author": {
                    "date": "2022-09-30T20:04:21Z",
                    "email": "uner21@posteo.de",
                    "name": "Sertonix"
                },
                "comment_count": 0,
                "committer": {
                    "date": "2022-09-30T20:04:21Z",
                    "email": "uner21@posteo.de",
                    "name": "Sertonix"
                },
                "message": "add docs and example",
                "tree": {
                    "sha": "25fd071712ab8110a8f9f8bc2146bfcaaa98ebe7",
                    "url": "https://api.github.com/repos/PrismarineJS/prismarine-block/git/trees/25fd071712ab8110a8f9f8bc2146bfcaaa98ebe7"
                },
                "url": "https://api.github.com/repos/PrismarineJS/prismarine-block/git/commits/5182bbef11ef4cf341d3c16cb8fed60e6e895983",
                "verification": {
                    "payload": null,
                    "reason": "unsigned",
                    "signature": null,
                    "verified": false
                }
            },
            "committer": null,
            "html_url": "https://github.com/PrismarineJS/prismarine-block/commit/5182bbef11ef4cf341d3c16cb8fed60e6e895983",
            "node_id": "C_kwDOHwjR4NoAKDUxODJiYmVmMTFlZjRjZjM0MWQzYzE2Y2I4ZmVkNjBlNmU4OTU5ODM",
            "parents": [
                {
                    "html_url": "https://github.com/PrismarineJS/prismarine-block/commit/99470ea553b9e2ca0afce7c751bfd2b6038bdf85",
                    "sha": "99470ea553b9e2ca0afce7c751bfd2b6038bdf85",
                    "url": "https://api.github.com/repos/PrismarineJS/prismarine-block/commits/99470ea553b9e2ca0afce7c751bfd2b6038bdf85"
                }
            ],
            "sha": "5182bbef11ef4cf341d3c16cb8fed60e6e895983",
            "url": "https://api.github.com/repos/PrismarineJS/prismarine-block/commits/5182bbef11ef4cf341d3c16cb8fed60e6e895983"
        },
        {
            "author": null,
            "comments_url": "https://api.github.com/repos/PrismarineJS/prismarine-block/commits/914638d07271684fd84da4572162f39c5aa5bd45/comments",
            "commit": {
                "author": {
                    "date": "2022-09-30T20:08:38Z",
                    "email": "uner21@posteo.de",
                    "name": "Sertonix"
                },
                "comment_count": 0,
                "committer": {
                    "date": "2022-09-30T20:08:38Z",
                    "email": "uner21@posteo.de",
                    "name": "Sertonix"
                },
                "message": "fixed linting",
                "tree": {
                    "sha": "25dcf44764099b36d209a13b24080e60a7427855",
                    "url": "https://api.github.com/repos/PrismarineJS/prismarine-block/git/trees/25dcf44764099b36d209a13b24080e60a7427855"
                },
                "url": "https://api.github.com/repos/PrismarineJS/prismarine-block/git/commits/914638d07271684fd84da4572162f39c5aa5bd45",
                "verification": {
                    "payload": null,
                    "reason": "unsigned",
                    "signature": null,
                    "verified": false
                }
            },
            "committer": null,
            "html_url": "https://github.com/PrismarineJS/prismarine-block/commit/914638d07271684fd84da4572162f39c5aa5bd45",
            "node_id": "C_kwDOHwjR4NoAKDkxNDYzOGQwNzI3MTY4NGZkODRkYTQ1NzIxNjJmMzljNWFhNWJkNDU",
            "parents": [
                {
                    "html_url": "https://github.com/PrismarineJS/prismarine-block/commit/5182bbef11ef4cf341d3c16cb8fed60e6e895983",
                    "sha": "5182bbef11ef4cf341d3c16cb8fed60e6e895983",
                    "url": "https://api.github.com/repos/PrismarineJS/prismarine-block/commits/5182bbef11ef4cf341d3c16cb8fed60e6e895983"
                }
            ],
            "sha": "914638d07271684fd84da4572162f39c5aa5bd45",
            "url": "https://api.github.com/repos/PrismarineJS/prismarine-block/commits/914638d07271684fd84da4572162f39c5aa5bd45"
        }
    ],
    "commits": 5,
    "commits_url": "https://api.github.com/repos/PrismarineJS/prismarine-block/pulls/71/commits",
    "created_at": "2022-08-12T10:55:24Z",
    "deletions": 0,
    "diff_url": "https://github.com/PrismarineJS/prismarine-block/pull/71.diff",
    "draft": false,
    "head": {
        "label": "Sertonix:from-string",
        "ref": "from-string",
        "repo": {
            "allow_forking": true,
            "archive_url": "https://api.github.com/repos/Sertonix/prismarine-block/{archive_format}{/ref}",
            "archived": false,
            "assignees_url": "https://api.github.com/repos/Sertonix/prismarine-block/assignees{/user}",
            "blobs_url": "https://api.github.com/repos/Sertonix/prismarine-block/git/blobs{/sha}",
            "branches_url": "https://api.github.com/repos/Sertonix/prismarine-block/branches{/branch}",
            "clone_url": "https://github.com/Sertonix/prismarine-block.git",
            "collaborators_url": "https://api.github.com/repos/Sertonix/prismarine-block/collaborators{/collaborator}",
            "comments_url": "https://api.github.com/repos/Sertonix/prismarine-block/comments{/number}",
            "commits_url": "https://api.github.com/repos/Sertonix/prismarine-block/commits{/sha}",
            "compare_url": "https://api.github.com/repos/Sertonix/prismarine-block/compare/{base}...{head}",
            "contents_url": "https://api.github.com/repos/Sertonix/prismarine-block/contents/{+path}",
            "contributors_url": "https://api.github.com/repos/Sertonix/prismarine-block/contributors",
            "created_at": "2022-08-02T22:56:20Z",
            "default_branch": "master",
            "deployments_url": "https://api.github.com/repos/Sertonix/prismarine-block/deployments",
            "description": "Represent a minecraft block with its associated data",
            "disabled": false,
            "downloads_url": "https://api.github.com/repos/Sertonix/prismarine-block/downloads",
            "events_url": "https://api.github.com/repos/Sertonix/prismarine-block/events",
            "fork": true,
            "forks": 0,
            "forks_count": 0,
            "forks_url": "https://api.github.com/repos/Sertonix/prismarine-block/forks",
            "full_name": "Sertonix/prismarine-block",
            "git_commits_url": "https://api.github.com/repos/Sertonix/prismarine-block/git/commits{/sha}",
            "git_refs_url": "https://api.github.com/repos/Sertonix/prismarine-block/git/refs{/sha}",
            "git_tags_url": "https://api.github.com/repos/Sertonix/prismarine-block/git/tags{/sha}",
            "git_url": "git://github.com/Sertonix/prismarine-block.git",
            "has_discussions": false,
            "has_downloads": true,
            "has_issues": false,
            "has_pages": false,
            "has_projects": true,
            "has_wiki": true,
            "homepage": null,
            "hooks_url": "https://api.github.com/repos/Sertonix/prismarine-block/hooks",
            "html_url": "https://github.com/Sertonix/prismarine-block",
            "id": 520671712,
            "is_template": false,
            "issue_comment_url": "https://api.github.com/repos/Sertonix/prismarine-block/issues/comments{/number}",
            "issue_events_url": "https://api.github.com/repos/Sertonix/prismarine-block/issues/events{/number}",
            "issues_url": "https://api.github.com/repos/Sertonix/prismarine-block/issues{/number}",
            "keys_url": "https://api.github.com/repos/Sertonix/prismarine-block/keys{/key_id}",
            "labels_url": "https://api.github.com/repos/Sertonix/prismarine-block/labels{/name}",
            "language": "JavaScript",
            "languages_url": "https://api.github.com/repos/Sertonix/prismarine-block/languages",
            "license": null,
            "merges_url": "https://api.github.com/repos/Sertonix/prismarine-block/merges",
            "milestones_url": "https://api.github.com/repos/Sertonix/prismarine-block/milestones{/number}",
            "mirror_url": null,
            "name": "prismarine-block",
            "node_id": "R_kgDOHwjR4A",
            "notifications_url": "https://api.github.com/repos/Sertonix/prismarine-block/notifications{?since,all,participating}",
            "open_issues": 0,
            "open_issues_count": 0,
            "owner": {
                "avatar_url": "https://avatars.githubusercontent.com/u/83883937?v=4",
                "events_url": "https://api.github.com/users/Sertonix/events{/privacy}",
                "followers_url": "https://api.github.com/users/Sertonix/followers",
                "following_url": "https://api.github.com/users/Sertonix/following{/other_user}",
                "gists_url": "https://api.github.com/users/Sertonix/gists{/gist_id}",
                "gravatar_id": "",
                "html_url": "https://github.com/Sertonix",
                "id": 83883937,
                "login": "Sertonix",
                "node_id": "MDQ6VXNlcjgzODgzOTM3",
                "organizations_url": "https://api.github.com/users/Sertonix/orgs",
                "received_events_url": "https://api.github.com/users/Sertonix/received_events",
                "repos_url": "https://api.github.com/users/Sertonix/repos",
                "site_admin": false,
                "starred_url": "https://api.github.com/users/Sertonix/starred{/owner}{/repo}",
                "subscriptions_url": "https://api.github.com/users/Sertonix/subscriptions",
                "type": "User",
                "url": "https://api.github.com/users/Sertonix"
            },
            "private": false,
            "pulls_url": "https://api.github.com/repos/Sertonix/prismarine-block/pulls{/number}",
            "pushed_at": "2022-09-30T20:08:43Z",
            "releases_url": "https://api.github.com/repos/Sertonix/prismarine-block/releases{/id}",
            "size": 114,
            "ssh_url": "git@github.com:Sertonix/prismarine-block.git",
            "stargazers_count": 0,
            "stargazers_url": "https://api.github.com/repos/Sertonix/prismarine-block/stargazers",
            "statuses_url": "https://api.github.com/repos/Sertonix/prismarine-block/statuses/{sha}",
            "subscribers_url": "https://api.github.com/repos/Sertonix/prismarine-block/subscribers",
            "subscription_url": "https://api.github.com/repos/Sertonix/prismarine-block/subscription",
            "svn_url": "https://github.com/Sertonix/prismarine-block",
            "tags_url": "https://api.github.com/repos/Sertonix/prismarine-block/tags",
            "teams_url": "https://api.github.com/repos/Sertonix/prismarine-block/teams",
            "topics": [],
            "trees_url": "https://api.github.com/repos/Sertonix/prismarine-block/git/trees{/sha}",
            "updated_at": "2022-08-12T09:17:14Z",
            "url": "https://api.github.com/repos/Sertonix/prismarine-block",
            "visibility": "public",
            "watchers": 0,
            "watchers_count": 0,
            "web_commit_signoff_required": false
        },
        "sha": "914638d07271684fd84da4572162f39c5aa5bd45",
        "user": {
            "avatar_url": "https://avatars.githubusercontent.com/u/83883937?v=4",
            "events_url": "https://api.github.com/users/Sertonix/events{/privacy}",
            "followers_url": "https://api.github.com/users/Sertonix/followers",
            "following_url": "https://api.github.com/users/Sertonix/following{/other_user}",
            "gists_url": "https://api.github.com/users/Sertonix/gists{/gist_id}",
            "gravatar_id": "",
            "html_url": "https://github.com/Sertonix",
            "id": 83883937,
            "login": "Sertonix",
            "node_id": "MDQ6VXNlcjgzODgzOTM3",
            "organizations_url": "https://api.github.com/users/Sertonix/orgs",
            "received_events_url": "https://api.github.com/users/Sertonix/received_events",
            "repos_url": "https://api.github.com/users/Sertonix/repos",
            "site_admin": false,
            "starred_url": "https://api.github.com/users/Sertonix/starred{/owner}{/repo}",
            "subscriptions_url": "https://api.github.com/users/Sertonix/subscriptions",
            "type": "User",
            "url": "https://api.github.com/users/Sertonix"
        }
    },
    "html_url": "https://github.com/PrismarineJS/prismarine-block/pull/71",
    "id": 1024815759,
    "issue_url": "https://api.github.com/repos/PrismarineJS/prismarine-block/issues/71",
    "labels": [],
    "locked": false,
    "maintainer_can_modify": false,
    "merge_commit_sha": "f55ebde92c4f3d9ff099d18723ee0400bdf63050",
    "mergeable": null,
    "mergeable_state": "unknown",
    "merged": true,
    "merged_at": "2023-03-04T18:03:03Z",
    "merged_by": {
        "avatar_url": "https://avatars.githubusercontent.com/u/2346494?v=4",
        "events_url": "https://api.github.com/users/rom1504/events{/privacy}",
        "followers_url": "https://api.github.com/users/rom1504/followers",
        "following_url": "https://api.github.com/users/rom1504/following{/other_user}",
        "gists_url": "https://api.github.com/users/rom1504/gists{/gist_id}",
        "gravatar_id": "",
        "html_url": "https://github.com/rom1504",
        "id": 2346494,
        "login": "rom1504",
        "node_id": "MDQ6VXNlcjIzNDY0OTQ=",
        "organizations_url": "https://api.github.com/users/rom1504/orgs",
        "received_events_url": "https://api.github.com/users/rom1504/received_events",
        "repos_url": "https://api.github.com/users/rom1504/repos",
        "site_admin": false,
        "starred_url": "https://api.github.com/users/rom1504/starred{/owner}{/repo}",
        "subscriptions_url": "https://api.github.com/users/rom1504/subscriptions",
        "type": "User",
        "url": "https://api.github.com/users/rom1504"
    },
    "milestone": null,
    "node_id": "PR_kwDOAnpT-849FXKP",
    "number": 71,
    "patch_url": "https://github.com/PrismarineJS/prismarine-block/pull/71.patch",
    "rebaseable": null,
    "requested_reviewers": [],
    "requested_teams": [],
    "review_comment_url": "https://api.github.com/repos/PrismarineJS/prismarine-block/pulls/comments{/number}",
    "review_comments": 0,
    "review_comments_url": "https://api.github.com/repos/PrismarineJS/prismarine-block/pulls/71/comments",
    "state": "closed",
    "statuses_url": "https://api.github.com/repos/PrismarineJS/prismarine-block/statuses/914638d07271684fd84da4572162f39c5aa5bd45",
    "title": "added Block.fromString",
    "updated_at": "2023-03-04T18:03:03Z",
    "url": "https://api.github.com/repos/PrismarineJS/prismarine-block/pulls/71",
    "user": {
        "avatar_url": "https://avatars.githubusercontent.com/u/83883937?v=4",
        "events_url": "https://api.github.com/users/Sertonix/events{/privacy}",
        "followers_url": "https://api.github.com/users/Sertonix/followers",
        "following_url": "https://api.github.com/users/Sertonix/following{/other_user}",
        "gists_url": "https://api.github.com/users/Sertonix/gists{/gist_id}",
        "gravatar_id": "",
        "html_url": "https://github.com/Sertonix",
        "id": 83883937,
        "login": "Sertonix",
        "node_id": "MDQ6VXNlcjgzODgzOTM3",
        "organizations_url": "https://api.github.com/users/Sertonix/orgs",
        "received_events_url": "https://api.github.com/users/Sertonix/received_events",
        "repos_url": "https://api.github.com/users/Sertonix/repos",
        "site_admin": false,
        "starred_url": "https://api.github.com/users/Sertonix/starred{/owner}{/repo}",
        "subscriptions_url": "https://api.github.com/users/Sertonix/subscriptions",
        "type": "User",
        "url": "https://api.github.com/users/Sertonix"
    }
}