{
    "assets": [],
    "assets_url": "https://api.github.com/repos/PrismarineJS/minecraft-data/releases/93640385/assets",
    "author": {
        "avatar_url": "https://avatars.githubusercontent.com/in/15368?v=4",
        "events_url": "https://api.github.com/users/github-actions%5Bbot%5D/events{/privacy}",
        "followers_url": "https://api.github.com/users/github-actions%5Bbot%5D/followers",
        "following_url": "https://api.github.com/users/github-actions%5Bbot%5D/following{/other_user}",
        "gists_url": "https://api.github.com/users/github-actions%5Bbot%5D/gists{/gist_id}",
        "gravatar_id": "",
        "html_url": "https://github.com/apps/github-actions",
        "id": 41898282,
        "login": "github-actions[bot]",
        "node_id": "MDM6Qm90NDE4OTgyODI=",
        "organizations_url": "https://api.github.com/users/github-actions%5Bbot%5D/orgs",
        "received_events_url": "https://api.github.com/users/github-actions%5Bbot%5D/received_events",
        "repos_url": "https://api.github.com/users/github-actions%5Bbot%5D/repos",
        "site_admin": false,
        "starred_url": "https://api.github.com/users/github-actions%5Bbot%5D/starred{/owner}{/repo}",
        "subscriptions_url": "https://api.github.com/users/github-actions%5Bbot%5D/subscriptions",
        "type": "Bot",
        "url": "https://api.github.com/users/github-actions%5Bbot%5D",
        "user_view_type": "public"
    },
    "body": "3.29.0",
    "created_at": "2023-02-24T21:47:10Z",
    "draft": false,
    "html_url": "https://github.com/PrismarineJS/minecraft-data/releases/tag/3.29.0",
    "id": 93640385,
    "name": "Release 3.29.0",
    "node_id": "RE_kwDOAfOYes4FlNbB",
    "prerelease": false,
    "published_at": "2023-02-24T21:47:30Z",
    "tag_name": "3.29.0",
    "tarball_url": "https://api.github.com/repos/PrismarineJS/minecraft-data/tarball/3.29.0",
    "target_commitish": "27d50904c6eacdcc3ac4bb94b81347e6c1a4a3b3",
    "upload_url": "https://uploads.github.com/repos/PrismarineJS/minecraft-data/releases/93640385/assets{?name,label}",
    "url": "https://api.github.com/repos/PrismarineJS/minecraft-data/releases/93640385",
    "zipball_url": "https://api.github.com/repos/PrismarineJS/minecraft-data/zipball/3.29.0"
}