{
    "_links": {
        "comments": {
            "href": "https://api.github.com/repos/PrismarineJS/minecraft-assets/issues/31/comments"
        },
        "commits": {
            "href": "https://api.github.com/repos/PrismarineJS/minecraft-assets/pulls/31/commits"
        },
        "html": {
            "href": "https://github.com/PrismarineJS/minecraft-assets/pull/31"
        },
        "issue": {
            "href": "https://api.github.com/repos/PrismarineJS/minecraft-assets/issues/31"
        },
        "review_comment": {
            "href": "https://api.github.com/repos/PrismarineJS/minecraft-assets/pulls/comments{/number}"
        },
        "review_comments": {
            "href": "https://api.github.com/repos/PrismarineJS/minecraft-assets/pulls/31/comments"
        },
        "self": {
            "href": "https://api.github.com/repos/PrismarineJS/minecraft-assets/pulls/31"
        },
        "statuses": {
            "href": "https://api.github.com/repos/PrismarineJS/minecraft-assets/statuses/365654a95ac360a2badcee78b553ce07dbd0c449"
        }
    },
    "active_lock_reason": null,
    "additions": 124975,
    "assignee": null,
    "assignees": [],
    "author_association": "CONTRIBUTOR",
    "auto_merge": null,
    "base": {
        "label": "PrismarineJS:master",
        "ref": "master",
        "repo": {
            "allow_forking": true,
            "archive_url": "https://api.github.com/repos/PrismarineJS/minecraft-assets/{archive_format}{/ref}",
            "archived": false,
            "assignees_url": "https://api.github.com/repos/PrismarineJS/minecraft-assets/assignees{/user}",
            "blobs_url": "https://api.github.com/repos/PrismarineJS/minecraft-assets/git/blobs{/sha}",
            "branches_url": "https://api.github.com/repos/PrismarineJS/minecraft-assets/branches{/branch}",
            "clone_url": "https://github.com/PrismarineJS/minecraft-assets.git",
            "collaborators_url": "https://api.github.com/repos/PrismarineJS/minecraft-assets/collaborators{/collaborator}",
            "comments_url": "https://api.github.com/repos/PrismarineJS/minecraft-assets/comments{/number}",
            "commits_url": "https://api.github.com/repos/PrismarineJS/minecraft-assets/commits{/sha}",
            "compare_url": "https://api.github.com/repos/PrismarineJS/minecraft-assets/compare/{base}...{head}",
            "contents_url": "https://api.github.com/repos/PrismarineJS/minecraft-assets/contents/{+path}",
            "contributors_url": "https://api.github.com/repos/PrismarineJS/minecraft-assets/contributors",
            "created_at": "2016-03-18T17:25:10Z",
            "default_branch": "master",
            "deployments_url": "https://api.github.com/repos/PrismarineJS/minecraft-assets/deployments",
            "description": "Provide minecraft assets along with json files that help to use them.",
            "disabled": false,
            "downloads_url": "https://api.github.com/repos/PrismarineJS/minecraft-assets/downloads",
            "events_url": "https://api.github.com/repos/PrismarineJS/minecraft-assets/events",
            "fork": false,
            "forks": 19,
            "forks_count": 19,
            "forks_url": "https://api.github.com/repos/PrismarineJS/minecraft-assets/forks",
            "full_name": "PrismarineJS/minecraft-assets",
            "git_commits_url": "https://api.github.com/repos/PrismarineJS/minecraft-assets/git/commits{/sha}",
            "git_refs_url": "https://api.github.com/repos/PrismarineJS/minecraft-assets/git/refs{/sha}",
            "git_tags_url": "https://api.github.com/repos/PrismarineJS/minecraft-assets/git/tags{/sha}",
            "git_url": "git://github.com/PrismarineJS/minecraft-assets.git",
            "has_discussions": false,
            "has_downloads": true,
            "has_issues": true,
            "has_pages": false,
            "has_projects": true,
            "has_wiki": true,
            "homepage": "http://minecraft-data.prismarine.js.org/",
            "hooks_url": "https://api.github.com/repos/PrismarineJS/minecraft-assets/hooks",
            "html_url": "https://github.com/PrismarineJS/minecraft-assets",
            "id": 54219362,
            "is_template": false,
            "issue_comment_url": "https://api.github.com/repos/PrismarineJS/minecraft-assets/issues/comments{/number}",
            "issue_events_url": "https://api.github.com/repos/PrismarineJS/minecraft-assets/issues/events{/number}",
            "issues_url": "https://api.github.com/repos/PrismarineJS/minecraft-assets/issues{/number}",
            "keys_url": "https://api.github.com/repos/PrismarineJS/minecraft-assets/keys{/key_id}",
            "labels_url": "https://api.github.com/repos/PrismarineJS/minecraft-assets/labels{/name}",
            "language": null,
            "languages_url": "https://api.github.com/repos/PrismarineJS/minecraft-assets/languages",
            "license": null,
            "merges_url": "https://api.github.com/repos/PrismarineJS/minecraft-assets/merges",
            "milestones_url": "https://api.github.com/repos/PrismarineJS/minecraft-assets/milestones{/number}",
            "mirror_url": null,
            "name": "minecraft-assets",
            "node_id": "MDEwOlJlcG9zaXRvcnk1NDIxOTM2Mg==",
            "notifications_url": "https://api.github.com/repos/PrismarineJS/minecraft-assets/notifications{?since,all,participating}",
            "open_issues": 8,
            "open_issues_count": 8,
            "owner": {
                "avatar_url": "https://avatars.githubusercontent.com/u/11053411?v=4",
                "events_url": "https://api.github.com/users/PrismarineJS/events{/privacy}",
                "followers_url": "https://api.github.com/users/PrismarineJS/followers",
                "following_url": "https://api.github.com/users/PrismarineJS/following{/other_user}",
                "gists_url": "https://api.github.com/users/PrismarineJS/gists{/gist_id}",
                "gravatar_id": "",
                "html_url": "https://github.com/PrismarineJS",
                "id": 11053411,
                "login": "PrismarineJS",
                "node_id": "MDEyOk9yZ2FuaXphdGlvbjExMDUzNDEx",
                "organizations_url": "https://api.github.com/users/PrismarineJS/orgs",
                "received_events_url": "https://api.github.com/users/PrismarineJS/received_events",
                "repos_url": "https://api.github.com/users/PrismarineJS/repos",
                "site_admin": false,
                "starred_url": "https://api.github.com/users/PrismarineJS/starred{/owner}{/repo}",
                "subscriptions_url": "https://api.github.com/users/PrismarineJS/subscriptions",
                "type": "Organization",
                "url": "https://api.github.com/users/PrismarineJS",
                "user_view_type": "public"
            },
            "private": false,
            "pulls_url": "https://api.github.com/repos/PrismarineJS/minecraft-assets/pulls{/number}",
            "pushed_at": "2024-11-27T07:11:53Z",
            "releases_url": "https://api.github.com/repos/PrismarineJS/minecraft-assets/releases{/id}",
            "size": 16396,
            "ssh_url": "git@github.com:PrismarineJS/minecraft-assets.git",
            "stargazers_count": 60,
            "stargazers_url": "https://api.github.com/repos/PrismarineJS/minecraft-assets/stargazers",
            "statuses_url": "https://api.github.com/repos/PrismarineJS/minecraft-assets/statuses/{sha}",
            "subscribers_url": "https://api.github.com/repos/PrismarineJS/minecraft-assets/subscribers",
            "subscription_url": "https://api.github.com/repos/PrismarineJS/minecraft-assets/subscription",
            "svn_url": "https://github.com/PrismarineJS/minecraft-assets",
            "tags_url": "https://api.github.com/repos/PrismarineJS/minecraft-assets/tags",
            "teams_url": "https://api.github.com/repos/PrismarineJS/minecraft-assets/teams",
            "topics": [],
            "trees_url": "https://api.github.com/repos/PrismarineJS/minecraft-assets/git/trees{/sha}",
            "updated_at": "2024-11-27T07:11:42Z",
            "url": "https://api.github.com/repos/PrismarineJS/minecraft-assets",
            "visibility": "public",
            "watchers": 60,
            "watchers_count": 60,
            "web_commit_signoff_required": false
        },
        "sha": "a14c64362abe4a12c2dfd87f8d1673af9d1b09f4",
        "user": {
            "avatar_url": "https://avatars.githubusercontent.com/u/11053411?v=4",
            "events_url": "https://api.github.com/users/PrismarineJS/events{/privacy}",
            "followers_url": "https://api.github.com/users/PrismarineJS/followers",
            "following_url": "https://api.github.com/users/PrismarineJS/following{/other_user}",
            "gists_url": "https://api.github.com/users/PrismarineJS/gists{/gist_id}",
            "gravatar_id": "",
            "html_url": "https://github.com/PrismarineJS",
            "id": 11053411,
            "login": "PrismarineJS",
            "node_id": "MDEyOk9yZ2FuaXphdGlvbjExMDUzNDEx",
            "organizations_url": "https://api.github.com/users/PrismarineJS/orgs",
            "received_events_url": "https://api.github.com/users/PrismarineJS/received_events",
            "repos_url": "https://api.github.com/users/PrismarineJS/repos",
            "site_admin": false,
            "starred_url": "https://api.github.com/users/PrismarineJS/starred{/owner}{/repo}",
            "subscriptions_url": "https://api.github.com/users/PrismarineJS/subscriptions",
            "type": "Organization",
            "url": "https://api.github.com/users/PrismarineJS",
            "user_view_type": "public"
        }
    },
    "body": "This will close issue #29. I just ran [image_names.js](https://github.com/PrismarineJS/minecraft-jar-extractor/blob/master/image_names.js). I did not do any testing with the extracted data.",
    "changed_files": 3173,
    "closed_at": "2024-11-27T07:10:30Z",
    "comment_data": [],
    "comment_regular_data": [
        {
            "author_association": "MEMBER",
            "body": "1.21.1 folder needs to go in data/",
            "created_at": "2024-11-27T07:00:46Z",
            "html_url": "https://github.com/PrismarineJS/minecraft-assets/pull/31#issuecomment-2503056733",
            "id": 2503056733,
            "issue_url": "https://api.github.com/repos/PrismarineJS/minecraft-assets/issues/31",
            "node_id": "IC_kwDOAztSYs6VMZ1d",
            "performed_via_github_app": null,
            "reactions": {
                "+1": 0,
                "-1": 0,
                "confused": 0,
                "eyes": 0,
                "heart": 0,
                "hooray": 0,
                "laugh": 0,
                "rocket": 0,
                "total_count": 0,
                "url": "https://api.github.com/repos/PrismarineJS/minecraft-assets/issues/comments/2503056733/reactions"
            },
            "updated_at": "2024-11-27T07:00:46Z",
            "url": "https://api.github.com/repos/PrismarineJS/minecraft-assets/issues/comments/2503056733",
            "user": {
                "avatar_url": "https://avatars.githubusercontent.com/u/2346494?v=4",
                "events_url": "https://api.github.com/users/rom1504/events{/privacy}",
                "followers_url": "https://api.github.com/users/rom1504/followers",
                "following_url": "https://api.github.com/users/rom1504/following{/other_user}",
                "gists_url": "https://api.github.com/users/rom1504/gists{/gist_id}",
                "gravatar_id": "",
                "html_url": "https://github.com/rom1504",
                "id": 2346494,
                "login": "rom1504",
                "node_id": "MDQ6VXNlcjIzNDY0OTQ=",
                "organizations_url": "https://api.github.com/users/rom1504/orgs",
                "received_events_url": "https://api.github.com/users/rom1504/received_events",
                "repos_url": "https://api.github.com/users/rom1504/repos",
                "site_admin": false,
                "starred_url": "https://api.github.com/users/rom1504/starred{/owner}{/repo}",
                "subscriptions_url": "https://api.github.com/users/rom1504/subscriptions",
                "type": "User",
                "url": "https://api.github.com/users/rom1504",
                "user_view_type": "public"
            }
        },
        {
            "author_association": "CONTRIBUTOR",
            "body": "Whoops! I moved the 1.21.1 folder and updated the README. ",
            "created_at": "2024-11-27T07:06:43Z",
            "html_url": "https://github.com/PrismarineJS/minecraft-assets/pull/31#issuecomment-2503066756",
            "id": 2503066756,
            "issue_url": "https://api.github.com/repos/PrismarineJS/minecraft-assets/issues/31",
            "node_id": "IC_kwDOAztSYs6VMcSE",
            "performed_via_github_app": null,
            "reactions": {
                "+1": 0,
                "-1": 0,
                "confused": 0,
                "eyes": 0,
                "heart": 0,
                "hooray": 0,
                "laugh": 0,
                "rocket": 0,
                "total_count": 0,
                "url": "https://api.github.com/repos/PrismarineJS/minecraft-assets/issues/comments/2503066756/reactions"
            },
            "updated_at": "2024-11-27T07:06:43Z",
            "url": "https://api.github.com/repos/PrismarineJS/minecraft-assets/issues/comments/2503066756",
            "user": {
                "avatar_url": "https://avatars.githubusercontent.com/u/48374384?v=4",
                "events_url": "https://api.github.com/users/Icyadam14/events{/privacy}",
                "followers_url": "https://api.github.com/users/Icyadam14/followers",
                "following_url": "https://api.github.com/users/Icyadam14/following{/other_user}",
                "gists_url": "https://api.github.com/users/Icyadam14/gists{/gist_id}",
                "gravatar_id": "",
                "html_url": "https://github.com/Icyadam14",
                "id": 48374384,
                "login": "Icyadam14",
                "node_id": "MDQ6VXNlcjQ4Mzc0Mzg0",
                "organizations_url": "https://api.github.com/users/Icyadam14/orgs",
                "received_events_url": "https://api.github.com/users/Icyadam14/received_events",
                "repos_url": "https://api.github.com/users/Icyadam14/repos",
                "site_admin": false,
                "starred_url": "https://api.github.com/users/Icyadam14/starred{/owner}{/repo}",
                "subscriptions_url": "https://api.github.com/users/Icyadam14/subscriptions",
                "type": "User",
                "url": "https://api.github.com/users/Icyadam14",
                "user_view_type": "public"
            }
        },
        {
            "author_association": "MEMBER",
            "body": "Thanks ",
            "created_at": "2024-11-27T07:10:40Z",
            "html_url": "https://github.com/PrismarineJS/minecraft-assets/pull/31#issuecomment-2503072842",
            "id": 2503072842,
            "issue_url": "https://api.github.com/repos/PrismarineJS/minecraft-assets/issues/31",
            "node_id": "IC_kwDOAztSYs6VMdxK",
            "performed_via_github_app": null,
            "reactions": {
                "+1": 0,
                "-1": 0,
                "confused": 0,
                "eyes": 0,
                "heart": 0,
                "hooray": 0,
                "laugh": 0,
                "rocket": 0,
                "total_count": 0,
                "url": "https://api.github.com/repos/PrismarineJS/minecraft-assets/issues/comments/2503072842/reactions"
            },
            "updated_at": "2024-11-27T07:10:40Z",
            "url": "https://api.github.com/repos/PrismarineJS/minecraft-assets/issues/comments/2503072842",
            "user": {
                "avatar_url": "https://avatars.githubusercontent.com/u/2346494?v=4",
                "events_url": "https://api.github.com/users/rom1504/events{/privacy}",
                "followers_url": "https://api.github.com/users/rom1504/followers",
                "following_url": "https://api.github.com/users/rom1504/following{/other_user}",
                "gists_url": "https://api.github.com/users/rom1504/gists{/gist_id}",
                "gravatar_id": "",
                "html_url": "https://github.com/rom1504",
                "id": 2346494,
                "login": "rom1504",
                "node_id": "MDQ6VXNlcjIzNDY0OTQ=",
                "organizations_url": "https://api.github.com/users/rom1504/orgs",
                "received_events_url": "https://api.github.com/users/rom1504/received_events",
                "repos_url": "https://api.github.com/users/rom1504/repos",
                "site_admin": false,
                "starred_url": "https://api.github.com/users/rom1504/starred{/owner}{/repo}",
                "subscriptions_url": "https://api.github.com/users/rom1504/subscriptions",
                "type": "User",
                "url": "https://api.github.com/users/rom1504",
                "user_view_type": "public"
            }
        },
        {
            "author_association": "MEMBER",
            "body": "/makerelease ",
            "created_at": "2024-11-27T07:10:50Z",
            "html_url": "https://github.com/PrismarineJS/minecraft-assets/pull/31#issuecomment-2503073296",
            "id": 2503073296,
            "issue_url": "https://api.github.com/repos/PrismarineJS/minecraft-assets/issues/31",
            "node_id": "IC_kwDOAztSYs6VMd4Q",
            "performed_via_github_app": null,
            "reactions": {
                "+1": 0,
                "-1": 0,
                "confused": 0,
                "eyes": 1,
                "heart": 0,
                "hooray": 0,
                "laugh": 0,
                "rocket": 0,
                "total_count": 1,
                "url": "https://api.github.com/repos/PrismarineJS/minecraft-assets/issues/comments/2503073296/reactions"
            },
            "updated_at": "2024-11-27T07:10:50Z",
            "url": "https://api.github.com/repos/PrismarineJS/minecraft-assets/issues/comments/2503073296",
            "user": {
                "avatar_url": "https://avatars.githubusercontent.com/u/2346494?v=4",
                "events_url": "https://api.github.com/users/rom1504/events{/privacy}",
                "followers_url": "https://api.github.com/users/rom1504/followers",
                "following_url": "https://api.github.com/users/rom1504/following{/other_user}",
                "gists_url": "https://api.github.com/users/rom1504/gists{/gist_id}",
                "gravatar_id": "",
                "html_url": "https://github.com/rom1504",
                "id": 2346494,
                "login": "rom1504",
                "node_id": "MDQ6VXNlcjIzNDY0OTQ=",
                "organizations_url": "https://api.github.com/users/rom1504/orgs",
                "received_events_url": "https://api.github.com/users/rom1504/received_events",
                "repos_url": "https://api.github.com/users/rom1504/repos",
                "site_admin": false,
                "starred_url": "https://api.github.com/users/rom1504/starred{/owner}{/repo}",
                "subscriptions_url": "https://api.github.com/users/rom1504/subscriptions",
                "type": "User",
                "url": "https://api.github.com/users/rom1504",
                "user_view_type": "public"
            }
        },
        {
            "author_association": "MEMBER",
            "body": "Can you update https://github.com/PrismarineJS/node-minecraft-assets/blob/master/index.js#L131 as well in a PR in that repo ?",
            "created_at": "2024-11-27T07:12:37Z",
            "html_url": "https://github.com/PrismarineJS/minecraft-assets/pull/31#issuecomment-2503078219",
            "id": 2503078219,
            "issue_url": "https://api.github.com/repos/PrismarineJS/minecraft-assets/issues/31",
            "node_id": "IC_kwDOAztSYs6VMfFL",
            "performed_via_github_app": null,
            "reactions": {
                "+1": 0,
                "-1": 0,
                "confused": 0,
                "eyes": 0,
                "heart": 0,
                "hooray": 0,
                "laugh": 0,
                "rocket": 0,
                "total_count": 0,
                "url": "https://api.github.com/repos/PrismarineJS/minecraft-assets/issues/comments/2503078219/reactions"
            },
            "updated_at": "2024-11-27T07:12:37Z",
            "url": "https://api.github.com/repos/PrismarineJS/minecraft-assets/issues/comments/2503078219",
            "user": {
                "avatar_url": "https://avatars.githubusercontent.com/u/2346494?v=4",
                "events_url": "https://api.github.com/users/rom1504/events{/privacy}",
                "followers_url": "https://api.github.com/users/rom1504/followers",
                "following_url": "https://api.github.com/users/rom1504/following{/other_user}",
                "gists_url": "https://api.github.com/users/rom1504/gists{/gist_id}",
                "gravatar_id": "",
                "html_url": "https://github.com/rom1504",
                "id": 2346494,
                "login": "rom1504",
                "node_id": "MDQ6VXNlcjIzNDY0OTQ=",
                "organizations_url": "https://api.github.com/users/rom1504/orgs",
                "received_events_url": "https://api.github.com/users/rom1504/received_events",
                "repos_url": "https://api.github.com/users/rom1504/repos",
                "site_admin": false,
                "starred_url": "https://api.github.com/users/rom1504/starred{/owner}{/repo}",
                "subscriptions_url": "https://api.github.com/users/rom1504/subscriptions",
                "type": "User",
                "url": "https://api.github.com/users/rom1504",
                "user_view_type": "public"
            }
        },
        {
            "author_association": "CONTRIBUTOR",
            "body": "> Can you update https://github.com/PrismarineJS/node-minecraft-assets/blob/master/index.js#L131 as well in a PR in that repo ?\r\n\r\nDone: https://github.com/PrismarineJS/node-minecraft-assets/pull/36",
            "created_at": "2024-11-27T07:20:58Z",
            "html_url": "https://github.com/PrismarineJS/minecraft-assets/pull/31#issuecomment-2503097704",
            "id": 2503097704,
            "issue_url": "https://api.github.com/repos/PrismarineJS/minecraft-assets/issues/31",
            "node_id": "IC_kwDOAztSYs6VMj1o",
            "performed_via_github_app": null,
            "reactions": {
                "+1": 0,
                "-1": 0,
                "confused": 0,
                "eyes": 0,
                "heart": 0,
                "hooray": 0,
                "laugh": 0,
                "rocket": 0,
                "total_count": 0,
                "url": "https://api.github.com/repos/PrismarineJS/minecraft-assets/issues/comments/2503097704/reactions"
            },
            "updated_at": "2024-11-27T07:20:58Z",
            "url": "https://api.github.com/repos/PrismarineJS/minecraft-assets/issues/comments/2503097704",
            "user": {
                "avatar_url": "https://avatars.githubusercontent.com/u/48374384?v=4",
                "events_url": "https://api.github.com/users/Icyadam14/events{/privacy}",
                "followers_url": "https://api.github.com/users/Icyadam14/followers",
                "following_url": "https://api.github.com/users/Icyadam14/following{/other_user}",
                "gists_url": "https://api.github.com/users/Icyadam14/gists{/gist_id}",
                "gravatar_id": "",
                "html_url": "https://github.com/Icyadam14",
                "id": 48374384,
                "login": "Icyadam14",
                "node_id": "MDQ6VXNlcjQ4Mzc0Mzg0",
                "organizations_url": "https://api.github.com/users/Icyadam14/orgs",
                "received_events_url": "https://api.github.com/users/Icyadam14/received_events",
                "repos_url": "https://api.github.com/users/Icyadam14/repos",
                "site_admin": false,
                "starred_url": "https://api.github.com/users/Icyadam14/starred{/owner}{/repo}",
                "subscriptions_url": "https://api.github.com/users/Icyadam14/subscriptions",
                "type": "User",
                "url": "https://api.github.com/users/Icyadam14",
                "user_view_type": "public"
            }
        },
        {
            "author_association": "MEMBER",
            "body": "Thanks, and finally this https://github.com/PrismarineJS/prismarine-viewer/blob/master/viewer/lib/version.js#L1",
            "created_at": "2024-11-27T07:42:41Z",
            "html_url": "https://github.com/PrismarineJS/minecraft-assets/pull/31#issuecomment-2503130803",
            "id": 2503130803,
            "issue_url": "https://api.github.com/repos/PrismarineJS/minecraft-assets/issues/31",
            "node_id": "IC_kwDOAztSYs6VMr6z",
            "performed_via_github_app": null,
            "reactions": {
                "+1": 0,
                "-1": 0,
                "confused": 0,
                "eyes": 0,
                "heart": 0,
                "hooray": 0,
                "laugh": 0,
                "rocket": 0,
                "total_count": 0,
                "url": "https://api.github.com/repos/PrismarineJS/minecraft-assets/issues/comments/2503130803/reactions"
            },
            "updated_at": "2024-11-27T07:42:41Z",
            "url": "https://api.github.com/repos/PrismarineJS/minecraft-assets/issues/comments/2503130803",
            "user": {
                "avatar_url": "https://avatars.githubusercontent.com/u/2346494?v=4",
                "events_url": "https://api.github.com/users/rom1504/events{/privacy}",
                "followers_url": "https://api.github.com/users/rom1504/followers",
                "following_url": "https://api.github.com/users/rom1504/following{/other_user}",
                "gists_url": "https://api.github.com/users/rom1504/gists{/gist_id}",
                "gravatar_id": "",
                "html_url": "https://github.com/rom1504",
                "id": 2346494,
                "login": "rom1504",
                "node_id": "MDQ6VXNlcjIzNDY0OTQ=",
                "organizations_url": "https://api.github.com/users/rom1504/orgs",
                "received_events_url": "https://api.github.com/users/rom1504/received_events",
                "repos_url": "https://api.github.com/users/rom1504/repos",
                "site_admin": false,
                "starred_url": "https://api.github.com/users/rom1504/starred{/owner}{/repo}",
                "subscriptions_url": "https://api.github.com/users/rom1504/subscriptions",
                "type": "User",
                "url": "https://api.github.com/users/rom1504",
                "user_view_type": "public"
            }
        },
        {
            "author_association": "CONTRIBUTOR",
            "body": "> Thanks, and finally this https://github.com/PrismarineJS/prismarine-viewer/blob/master/viewer/lib/version.js#L1\r\n\r\nHere's the PR: https://github.com/PrismarineJS/prismarine-viewer/pull/439",
            "created_at": "2024-11-27T07:51:50Z",
            "html_url": "https://github.com/PrismarineJS/minecraft-assets/pull/31#issuecomment-2503149642",
            "id": 2503149642,
            "issue_url": "https://api.github.com/repos/PrismarineJS/minecraft-assets/issues/31",
            "node_id": "IC_kwDOAztSYs6VMwhK",
            "performed_via_github_app": null,
            "reactions": {
                "+1": 0,
                "-1": 0,
                "confused": 0,
                "eyes": 0,
                "heart": 0,
                "hooray": 0,
                "laugh": 0,
                "rocket": 0,
                "total_count": 0,
                "url": "https://api.github.com/repos/PrismarineJS/minecraft-assets/issues/comments/2503149642/reactions"
            },
            "updated_at": "2024-11-27T07:51:50Z",
            "url": "https://api.github.com/repos/PrismarineJS/minecraft-assets/issues/comments/2503149642",
            "user": {
                "avatar_url": "https://avatars.githubusercontent.com/u/48374384?v=4",
                "events_url": "https://api.github.com/users/Icyadam14/events{/privacy}",
                "followers_url": "https://api.github.com/users/Icyadam14/followers",
                "following_url": "https://api.github.com/users/Icyadam14/following{/other_user}",
                "gists_url": "https://api.github.com/users/Icyadam14/gists{/gist_id}",
                "gravatar_id": "",
                "html_url": "https://github.com/Icyadam14",
                "id": 48374384,
                "login": "Icyadam14",
                "node_id": "MDQ6VXNlcjQ4Mzc0Mzg0",
                "organizations_url": "https://api.github.com/users/Icyadam14/orgs",
                "received_events_url": "https://api.github.com/users/Icyadam14/received_events",
                "repos_url": "https://api.github.com/users/Icyadam14/repos",
                "site_admin": false,
                "starred_url": "https://api.github.com/users/Icyadam14/starred{/owner}{/repo}",
                "subscriptions_url": "https://api.github.com/users/Icyadam14/subscriptions",
                "type": "User",
                "url": "https://api.github.com/users/Icyadam14",
                "user_view_type": "public"
            }
        }
    ],
    "comments": 8,
    "comments_url": "https://api.github.com/repos/PrismarineJS/minecraft-assets/issues/31/comments",
    "commit_data": [
        {
            "author": {
                "avatar_url": "https://avatars.githubusercontent.com/u/48374384?v=4",
                "events_url": "https://api.github.com/users/Icyadam14/events{/privacy}",
                "followers_url": "https://api.github.com/users/Icyadam14/followers",
                "following_url": "https://api.github.com/users/Icyadam14/following{/other_user}",
                "gists_url": "https://api.github.com/users/Icyadam14/gists{/gist_id}",
                "gravatar_id": "",
                "html_url": "https://github.com/Icyadam14",
                "id": 48374384,
                "login": "Icyadam14",
                "node_id": "MDQ6VXNlcjQ4Mzc0Mzg0",
                "organizations_url": "https://api.github.com/users/Icyadam14/orgs",
                "received_events_url": "https://api.github.com/users/Icyadam14/received_events",
                "repos_url": "https://api.github.com/users/Icyadam14/repos",
                "site_admin": false,
                "starred_url": "https://api.github.com/users/Icyadam14/starred{/owner}{/repo}",
                "subscriptions_url": "https://api.github.com/users/Icyadam14/subscriptions",
                "type": "User",
                "url": "https://api.github.com/users/Icyadam14",
                "user_view_type": "public"
            },
            "comments_url": "https://api.github.com/repos/PrismarineJS/minecraft-assets/commits/7c979c3f8ee9dd662c085f0fffbc1beb5741386e/comments",
            "commit": {
                "author": {
                    "date": "2024-11-27T04:58:35Z",
                    "email": "adamkahl8@gmail.com",
                    "name": "Icyadam14"
                },
                "comment_count": 0,
                "committer": {
                    "date": "2024-11-27T04:58:35Z",
                    "email": "adamkahl8@gmail.com",
                    "name": "Icyadam14"
                },
                "message": "Initial commit",
                "tree": {
                    "sha": "759301aae062423d01a92cd07365c9d787c11702",
                    "url": "https://api.github.com/repos/PrismarineJS/minecraft-assets/git/trees/759301aae062423d01a92cd07365c9d787c11702"
                },
                "url": "https://api.github.com/repos/PrismarineJS/minecraft-assets/git/commits/7c979c3f8ee9dd662c085f0fffbc1beb5741386e",
                "verification": {
                    "payload": null,
                    "reason": "unsigned",
                    "signature": null,
                    "verified": false,
                    "verified_at": null
                }
            },
            "committer": {
                "avatar_url": "https://avatars.githubusercontent.com/u/48374384?v=4",
                "events_url": "https://api.github.com/users/Icyadam14/events{/privacy}",
                "followers_url": "https://api.github.com/users/Icyadam14/followers",
                "following_url": "https://api.github.com/users/Icyadam14/following{/other_user}",
                "gists_url": "https://api.github.com/users/Icyadam14/gists{/gist_id}",
                "gravatar_id": "",
                "html_url": "https://github.com/Icyadam14",
                "id": 48374384,
                "login": "Icyadam14",
                "node_id": "MDQ6VXNlcjQ4Mzc0Mzg0",
                "organizations_url": "https://api.github.com/users/Icyadam14/orgs",
                "received_events_url": "https://api.github.com/users/Icyadam14/received_events",
                "repos_url": "https://api.github.com/users/Icyadam14/repos",
                "site_admin": false,
                "starred_url": "https://api.github.com/users/Icyadam14/starred{/owner}{/repo}",
                "subscriptions_url": "https://api.github.com/users/Icyadam14/subscriptions",
                "type": "User",
                "url": "https://api.github.com/users/Icyadam14",
                "user_view_type": "public"
            },
            "html_url": "https://github.com/PrismarineJS/minecraft-assets/commit/7c979c3f8ee9dd662c085f0fffbc1beb5741386e",
            "node_id": "C_kwDONVYq0toAKDdjOTc5YzNmOGVlOWRkNjYyYzA4NWYwZmZmYmMxYmViNTc0MTM4NmU",
            "parents": [
                {
                    "html_url": "https://github.com/PrismarineJS/minecraft-assets/commit/a14c64362abe4a12c2dfd87f8d1673af9d1b09f4",
                    "sha": "a14c64362abe4a12c2dfd87f8d1673af9d1b09f4",
                    "url": "https://api.github.com/repos/PrismarineJS/minecraft-assets/commits/a14c64362abe4a12c2dfd87f8d1673af9d1b09f4"
                }
            ],
            "sha": "7c979c3f8ee9dd662c085f0fffbc1beb5741386e",
            "url": "https://api.github.com/repos/PrismarineJS/minecraft-assets/commits/7c979c3f8ee9dd662c085f0fffbc1beb5741386e"
        },
        {
            "author": {
                "avatar_url": "https://avatars.githubusercontent.com/u/48374384?v=4",
                "events_url": "https://api.github.com/users/Icyadam14/events{/privacy}",
                "followers_url": "https://api.github.com/users/Icyadam14/followers",
                "following_url": "https://api.github.com/users/Icyadam14/following{/other_user}",
                "gists_url": "https://api.github.com/users/Icyadam14/gists{/gist_id}",
                "gravatar_id": "",
                "html_url": "https://github.com/Icyadam14",
                "id": 48374384,
                "login": "Icyadam14",
                "node_id": "MDQ6VXNlcjQ4Mzc0Mzg0",
                "organizations_url": "https://api.github.com/users/Icyadam14/orgs",
                "received_events_url": "https://api.github.com/users/Icyadam14/received_events",
                "repos_url": "https://api.github.com/users/Icyadam14/repos",
                "site_admin": false,
                "starred_url": "https://api.github.com/users/Icyadam14/starred{/owner}{/repo}",
                "subscriptions_url": "https://api.github.com/users/Icyadam14/subscriptions",
                "type": "User",
                "url": "https://api.github.com/users/Icyadam14",
                "user_view_type": "public"
            },
            "comments_url": "https://api.github.com/repos/PrismarineJS/minecraft-assets/commits/365654a95ac360a2badcee78b553ce07dbd0c449/comments",
            "commit": {
                "author": {
                    "date": "2024-11-27T07:05:06Z",
                    "email": "adamkahl8@gmail.com",
                    "name": "Icyadam14"
                },
                "comment_count": 0,
                "committer": {
                    "date": "2024-11-27T07:05:06Z",
                    "email": "adamkahl8@gmail.com",
                    "name": "Icyadam14"
                },
                "message": "Moved 1.21.1 to data folder and updated README",
                "tree": {
                    "sha": "3081ecb11cbe9fd1faa75de1de92a2a9eecca1ae",
                    "url": "https://api.github.com/repos/PrismarineJS/minecraft-assets/git/trees/3081ecb11cbe9fd1faa75de1de92a2a9eecca1ae"
                },
                "url": "https://api.github.com/repos/PrismarineJS/minecraft-assets/git/commits/365654a95ac360a2badcee78b553ce07dbd0c449",
                "verification": {
                    "payload": null,
                    "reason": "unsigned",
                    "signature": null,
                    "verified": false,
                    "verified_at": null
                }
            },
            "committer": {
                "avatar_url": "https://avatars.githubusercontent.com/u/48374384?v=4",
                "events_url": "https://api.github.com/users/Icyadam14/events{/privacy}",
                "followers_url": "https://api.github.com/users/Icyadam14/followers",
                "following_url": "https://api.github.com/users/Icyadam14/following{/other_user}",
                "gists_url": "https://api.github.com/users/Icyadam14/gists{/gist_id}",
                "gravatar_id": "",
                "html_url": "https://github.com/Icyadam14",
                "id": 48374384,
                "login": "Icyadam14",
                "node_id": "MDQ6VXNlcjQ4Mzc0Mzg0",
                "organizations_url": "https://api.github.com/users/Icyadam14/orgs",
                "received_events_url": "https://api.github.com/users/Icyadam14/received_events",
                "repos_url": "https://api.github.com/users/Icyadam14/repos",
                "site_admin": false,
                "starred_url": "https://api.github.com/users/Icyadam14/starred{/owner}{/repo}",
                "subscriptions_url": "https://api.github.com/users/Icyadam14/subscriptions",
                "type": "User",
                "url": "https://api.github.com/users/Icyadam14",
                "user_view_type": "public"
            },
            "html_url": "https://github.com/PrismarineJS/minecraft-assets/commit/365654a95ac360a2badcee78b553ce07dbd0c449",
            "node_id": "C_kwDONVYq0toAKDM2NTY1NGE5NWFjMzYwYTJiYWRjZWU3OGI1NTNjZTA3ZGJkMGM0NDk",
            "parents": [
                {
                    "html_url": "https://github.com/PrismarineJS/minecraft-assets/commit/7c979c3f8ee9dd662c085f0fffbc1beb5741386e",
                    "sha": "7c979c3f8ee9dd662c085f0fffbc1beb5741386e",
                    "url": "https://api.github.com/repos/PrismarineJS/minecraft-assets/commits/7c979c3f8ee9dd662c085f0fffbc1beb5741386e"
                }
            ],
            "sha": "365654a95ac360a2badcee78b553ce07dbd0c449",
            "url": "https://api.github.com/repos/PrismarineJS/minecraft-assets/commits/365654a95ac360a2badcee78b553ce07dbd0c449"
        }
    ],
    "commits": 2,
    "commits_url": "https://api.github.com/repos/PrismarineJS/minecraft-assets/pulls/31/commits",
    "created_at": "2024-11-27T05:06:08Z",
    "deletions": 1,
    "diff_url": "https://github.com/PrismarineJS/minecraft-assets/pull/31.diff",
    "draft": false,
    "head": {
        "label": "Icyadam14:Support-1.21.1",
        "ref": "Support-1.21.1",
        "repo": {
            "allow_forking": true,
            "archive_url": "https://api.github.com/repos/Icyadam14/minecraft-assets/{archive_format}{/ref}",
            "archived": false,
            "assignees_url": "https://api.github.com/repos/Icyadam14/minecraft-assets/assignees{/user}",
            "blobs_url": "https://api.github.com/repos/Icyadam14/minecraft-assets/git/blobs{/sha}",
            "branches_url": "https://api.github.com/repos/Icyadam14/minecraft-assets/branches{/branch}",
            "clone_url": "https://github.com/Icyadam14/minecraft-assets.git",
            "collaborators_url": "https://api.github.com/repos/Icyadam14/minecraft-assets/collaborators{/collaborator}",
            "comments_url": "https://api.github.com/repos/Icyadam14/minecraft-assets/comments{/number}",
            "commits_url": "https://api.github.com/repos/Icyadam14/minecraft-assets/commits{/sha}",
            "compare_url": "https://api.github.com/repos/Icyadam14/minecraft-assets/compare/{base}...{head}",
            "contents_url": "https://api.github.com/repos/Icyadam14/minecraft-assets/contents/{+path}",
            "contributors_url": "https://api.github.com/repos/Icyadam14/minecraft-assets/contributors",
            "created_at": "2024-11-27T04:58:44Z",
            "default_branch": "master",
            "deployments_url": "https://api.github.com/repos/Icyadam14/minecraft-assets/deployments",
            "description": "Provide minecraft assets along with json files that help to use them.",
            "disabled": false,
            "downloads_url": "https://api.github.com/repos/Icyadam14/minecraft-assets/downloads",
            "events_url": "https://api.github.com/repos/Icyadam14/minecraft-assets/events",
            "fork": true,
            "forks": 0,
            "forks_count": 0,
            "forks_url": "https://api.github.com/repos/Icyadam14/minecraft-assets/forks",
            "full_name": "Icyadam14/minecraft-assets",
            "git_commits_url": "https://api.github.com/repos/Icyadam14/minecraft-assets/git/commits{/sha}",
            "git_refs_url": "https://api.github.com/repos/Icyadam14/minecraft-assets/git/refs{/sha}",
            "git_tags_url": "https://api.github.com/repos/Icyadam14/minecraft-assets/git/tags{/sha}",
            "git_url": "git://github.com/Icyadam14/minecraft-assets.git",
            "has_discussions": false,
            "has_downloads": true,
            "has_issues": false,
            "has_pages": false,
            "has_projects": true,
            "has_wiki": true,
            "homepage": "http://minecraft-data.prismarine.js.org/",
            "hooks_url": "https://api.github.com/repos/Icyadam14/minecraft-assets/hooks",
            "html_url": "https://github.com/Icyadam14/minecraft-assets",
            "id": 894839506,
            "is_template": false,
            "issue_comment_url": "https://api.github.com/repos/Icyadam14/minecraft-assets/issues/comments{/number}",
            "issue_events_url": "https://api.github.com/repos/Icyadam14/minecraft-assets/issues/events{/number}",
            "issues_url": "https://api.github.com/repos/Icyadam14/minecraft-assets/issues{/number}",
            "keys_url": "https://api.github.com/repos/Icyadam14/minecraft-assets/keys{/key_id}",
            "labels_url": "https://api.github.com/repos/Icyadam14/minecraft-assets/labels{/name}",
            "language": null,
            "languages_url": "https://api.github.com/repos/Icyadam14/minecraft-assets/languages",
            "license": null,
            "merges_url": "https://api.github.com/repos/Icyadam14/minecraft-assets/merges",
            "milestones_url": "https://api.github.com/repos/Icyadam14/minecraft-assets/milestones{/number}",
            "mirror_url": null,
            "name": "minecraft-assets",
            "node_id": "R_kgDONVYq0g",
            "notifications_url": "https://api.github.com/repos/Icyadam14/minecraft-assets/notifications{?since,all,participating}",
            "open_issues": 0,
            "open_issues_count": 0,
            "owner": {
                "avatar_url": "https://avatars.githubusercontent.com/u/48374384?v=4",
                "events_url": "https://api.github.com/users/Icyadam14/events{/privacy}",
                "followers_url": "https://api.github.com/users/Icyadam14/followers",
                "following_url": "https://api.github.com/users/Icyadam14/following{/other_user}",
                "gists_url": "https://api.github.com/users/Icyadam14/gists{/gist_id}",
                "gravatar_id": "",
                "html_url": "https://github.com/Icyadam14",
                "id": 48374384,
                "login": "Icyadam14",
                "node_id": "MDQ6VXNlcjQ4Mzc0Mzg0",
                "organizations_url": "https://api.github.com/users/Icyadam14/orgs",
                "received_events_url": "https://api.github.com/users/Icyadam14/received_events",
                "repos_url": "https://api.github.com/users/Icyadam14/repos",
                "site_admin": false,
                "starred_url": "https://api.github.com/users/Icyadam14/starred{/owner}{/repo}",
                "subscriptions_url": "https://api.github.com/users/Icyadam14/subscriptions",
                "type": "User",
                "url": "https://api.github.com/users/Icyadam14",
                "user_view_type": "public"
            },
            "private": false,
            "pulls_url": "https://api.github.com/repos/Icyadam14/minecraft-assets/pulls{/number}",
            "pushed_at": "2024-11-27T07:05:11Z",
            "releases_url": "https://api.github.com/repos/Icyadam14/minecraft-assets/releases{/id}",
            "size": 17079,
            "ssh_url": "git@github.com:Icyadam14/minecraft-assets.git",
            "stargazers_count": 0,
            "stargazers_url": "https://api.github.com/repos/Icyadam14/minecraft-assets/stargazers",
            "statuses_url": "https://api.github.com/repos/Icyadam14/minecraft-assets/statuses/{sha}",
            "subscribers_url": "https://api.github.com/repos/Icyadam14/minecraft-assets/subscribers",
            "subscription_url": "https://api.github.com/repos/Icyadam14/minecraft-assets/subscription",
            "svn_url": "https://github.com/Icyadam14/minecraft-assets",
            "tags_url": "https://api.github.com/repos/Icyadam14/minecraft-assets/tags",
            "teams_url": "https://api.github.com/repos/Icyadam14/minecraft-assets/teams",
            "topics": [],
            "trees_url": "https://api.github.com/repos/Icyadam14/minecraft-assets/git/trees{/sha}",
            "updated_at": "2024-11-27T04:58:44Z",
            "url": "https://api.github.com/repos/Icyadam14/minecraft-assets",
            "visibility": "public",
            "watchers": 0,
            "watchers_count": 0,
            "web_commit_signoff_required": false
        },
        "sha": "365654a95ac360a2badcee78b553ce07dbd0c449",
        "user": {
            "avatar_url": "https://avatars.githubusercontent.com/u/48374384?v=4",
            "events_url": "https://api.github.com/users/Icyadam14/events{/privacy}",
            "followers_url": "https://api.github.com/users/Icyadam14/followers",
            "following_url": "https://api.github.com/users/Icyadam14/following{/other_user}",
            "gists_url": "https://api.github.com/users/Icyadam14/gists{/gist_id}",
            "gravatar_id": "",
            "html_url": "https://github.com/Icyadam14",
            "id": 48374384,
            "login": "Icyadam14",
            "node_id": "MDQ6VXNlcjQ4Mzc0Mzg0",
            "organizations_url": "https://api.github.com/users/Icyadam14/orgs",
            "received_events_url": "https://api.github.com/users/Icyadam14/received_events",
            "repos_url": "https://api.github.com/users/Icyadam14/repos",
            "site_admin": false,
            "starred_url": "https://api.github.com/users/Icyadam14/starred{/owner}{/repo}",
            "subscriptions_url": "https://api.github.com/users/Icyadam14/subscriptions",
            "type": "User",
            "url": "https://api.github.com/users/Icyadam14",
            "user_view_type": "public"
        }
    },
    "html_url": "https://github.com/PrismarineJS/minecraft-assets/pull/31",
    "id": 2202576014,
    "issue_url": "https://api.github.com/repos/PrismarineJS/minecraft-assets/issues/31",
    "labels": [],
    "locked": false,
    "maintainer_can_modify": false,
    "merge_commit_sha": "e901c88d0dd515e8caf3f59457440ecc3818a417",
    "mergeable": null,
    "mergeable_state": "unknown",
    "merged": true,
    "merged_at": "2024-11-27T07:10:30Z",
    "merged_by": {
        "avatar_url": "https://avatars.githubusercontent.com/u/2346494?v=4",
        "events_url": "https://api.github.com/users/rom1504/events{/privacy}",
        "followers_url": "https://api.github.com/users/rom1504/followers",
        "following_url": "https://api.github.com/users/rom1504/following{/other_user}",
        "gists_url": "https://api.github.com/users/rom1504/gists{/gist_id}",
        "gravatar_id": "",
        "html_url": "https://github.com/rom1504",
        "id": 2346494,
        "login": "rom1504",
        "node_id": "MDQ6VXNlcjIzNDY0OTQ=",
        "organizations_url": "https://api.github.com/users/rom1504/orgs",
        "received_events_url": "https://api.github.com/users/rom1504/received_events",
        "repos_url": "https://api.github.com/users/rom1504/repos",
        "site_admin": false,
        "starred_url": "https://api.github.com/users/rom1504/starred{/owner}{/repo}",
        "subscriptions_url": "https://api.github.com/users/rom1504/subscriptions",
        "type": "User",
        "url": "https://api.github.com/users/rom1504",
        "user_view_type": "public"
    },
    "milestone": null,
    "node_id": "PR_kwDOAztSYs6DSKSO",
    "number": 31,
    "patch_url": "https://github.com/PrismarineJS/minecraft-assets/pull/31.patch",
    "rebaseable": null,
    "requested_reviewers": [],
    "requested_teams": [],
    "review_comment_url": "https://api.github.com/repos/PrismarineJS/minecraft-assets/pulls/comments{/number}",
    "review_comments": 0,
    "review_comments_url": "https://api.github.com/repos/PrismarineJS/minecraft-assets/pulls/31/comments",
    "state": "closed",
    "statuses_url": "https://api.github.com/repos/PrismarineJS/minecraft-assets/statuses/365654a95ac360a2badcee78b553ce07dbd0c449",
    "title": "Support 1.21.1",
    "updated_at": "2024-11-27T07:51:51Z",
    "url": "https://api.github.com/repos/PrismarineJS/minecraft-assets/pulls/31",
    "user": {
        "avatar_url": "https://avatars.githubusercontent.com/u/48374384?v=4",
        "events_url": "https://api.github.com/users/Icyadam14/events{/privacy}",
        "followers_url": "https://api.github.com/users/Icyadam14/followers",
        "following_url": "https://api.github.com/users/Icyadam14/following{/other_user}",
        "gists_url": "https://api.github.com/users/Icyadam14/gists{/gist_id}",
        "gravatar_id": "",
        "html_url": "https://github.com/Icyadam14",
        "id": 48374384,
        "login": "Icyadam14",
        "node_id": "MDQ6VXNlcjQ4Mzc0Mzg0",
        "organizations_url": "https://api.github.com/users/Icyadam14/orgs",
        "received_events_url": "https://api.github.com/users/Icyadam14/received_events",
        "repos_url": "https://api.github.com/users/Icyadam14/repos",
        "site_admin": false,
        "starred_url": "https://api.github.com/users/Icyadam14/starred{/owner}{/repo}",
        "subscriptions_url": "https://api.github.com/users/Icyadam14/subscriptions",
        "type": "User",
        "url": "https://api.github.com/users/Icyadam14",
        "user_view_type": "public"
    }
}