{
    "_links": {
        "comments": {
            "href": "https://api.github.com/repos/PrismarineJS/mineflayer/issues/1148/comments"
        },
        "commits": {
            "href": "https://api.github.com/repos/PrismarineJS/mineflayer/pulls/1148/commits"
        },
        "html": {
            "href": "https://github.com/PrismarineJS/mineflayer/pull/1148"
        },
        "issue": {
            "href": "https://api.github.com/repos/PrismarineJS/mineflayer/issues/1148"
        },
        "review_comment": {
            "href": "https://api.github.com/repos/PrismarineJS/mineflayer/pulls/comments{/number}"
        },
        "review_comments": {
            "href": "https://api.github.com/repos/PrismarineJS/mineflayer/pulls/1148/comments"
        },
        "self": {
            "href": "https://api.github.com/repos/PrismarineJS/mineflayer/pulls/1148"
        },
        "statuses": {
            "href": "https://api.github.com/repos/PrismarineJS/mineflayer/statuses/fb8fb9b913019f67caf85e7152c6ea628344eaa7"
        }
    },
    "active_lock_reason": null,
    "additions": 14,
    "assignee": null,
    "assignees": [],
    "author_association": "CONTRIBUTOR",
    "auto_merge": null,
    "base": {
        "label": "PrismarineJS:master",
        "ref": "master",
        "repo": {
            "allow_forking": true,
            "archive_url": "https://api.github.com/repos/PrismarineJS/mineflayer/{archive_format}{/ref}",
            "archived": false,
            "assignees_url": "https://api.github.com/repos/PrismarineJS/mineflayer/assignees{/user}",
            "blobs_url": "https://api.github.com/repos/PrismarineJS/mineflayer/git/blobs{/sha}",
            "branches_url": "https://api.github.com/repos/PrismarineJS/mineflayer/branches{/branch}",
            "clone_url": "https://github.com/PrismarineJS/mineflayer.git",
            "collaborators_url": "https://api.github.com/repos/PrismarineJS/mineflayer/collaborators{/collaborator}",
            "comments_url": "https://api.github.com/repos/PrismarineJS/mineflayer/comments{/number}",
            "commits_url": "https://api.github.com/repos/PrismarineJS/mineflayer/commits{/sha}",
            "compare_url": "https://api.github.com/repos/PrismarineJS/mineflayer/compare/{base}...{head}",
            "contents_url": "https://api.github.com/repos/PrismarineJS/mineflayer/contents/{+path}",
            "contributors_url": "https://api.github.com/repos/PrismarineJS/mineflayer/contributors",
            "created_at": "2011-01-23T09:41:55Z",
            "default_branch": "master",
            "deployments_url": "https://api.github.com/repos/PrismarineJS/mineflayer/deployments",
            "description": "Create Minecraft bots with a powerful, stable, and high level JavaScript API.",
            "disabled": false,
            "downloads_url": "https://api.github.com/repos/PrismarineJS/mineflayer/downloads",
            "events_url": "https://api.github.com/repos/PrismarineJS/mineflayer/events",
            "fork": false,
            "forks": 748,
            "forks_count": 748,
            "forks_url": "https://api.github.com/repos/PrismarineJS/mineflayer/forks",
            "full_name": "PrismarineJS/mineflayer",
            "git_commits_url": "https://api.github.com/repos/PrismarineJS/mineflayer/git/commits{/sha}",
            "git_refs_url": "https://api.github.com/repos/PrismarineJS/mineflayer/git/refs{/sha}",
            "git_tags_url": "https://api.github.com/repos/PrismarineJS/mineflayer/git/tags{/sha}",
            "git_url": "git://github.com/PrismarineJS/mineflayer.git",
            "has_discussions": true,
            "has_downloads": true,
            "has_issues": true,
            "has_pages": true,
            "has_projects": true,
            "has_wiki": true,
            "homepage": "https://prismarinejs.github.io/mineflayer/",
            "hooks_url": "https://api.github.com/repos/PrismarineJS/mineflayer/hooks",
            "html_url": "https://github.com/PrismarineJS/mineflayer",
            "id": 1284185,
            "is_template": false,
            "issue_comment_url": "https://api.github.com/repos/PrismarineJS/mineflayer/issues/comments{/number}",
            "issue_events_url": "https://api.github.com/repos/PrismarineJS/mineflayer/issues/events{/number}",
            "issues_url": "https://api.github.com/repos/PrismarineJS/mineflayer/issues{/number}",
            "keys_url": "https://api.github.com/repos/PrismarineJS/mineflayer/keys{/key_id}",
            "labels_url": "https://api.github.com/repos/PrismarineJS/mineflayer/labels{/name}",
            "language": "JavaScript",
            "languages_url": "https://api.github.com/repos/PrismarineJS/mineflayer/languages",
            "license": {
                "key": "mit",
                "name": "MIT License",
                "node_id": "MDc6TGljZW5zZTEz",
                "spdx_id": "MIT",
                "url": "https://api.github.com/licenses/mit"
            },
            "merges_url": "https://api.github.com/repos/PrismarineJS/mineflayer/merges",
            "milestones_url": "https://api.github.com/repos/PrismarineJS/mineflayer/milestones{/number}",
            "mirror_url": null,
            "name": "mineflayer",
            "node_id": "MDEwOlJlcG9zaXRvcnkxMjg0MTg1",
            "notifications_url": "https://api.github.com/repos/PrismarineJS/mineflayer/notifications{?since,all,participating}",
            "open_issues": 269,
            "open_issues_count": 269,
            "owner": {
                "avatar_url": "https://avatars.githubusercontent.com/u/11053411?v=4",
                "events_url": "https://api.github.com/users/PrismarineJS/events{/privacy}",
                "followers_url": "https://api.github.com/users/PrismarineJS/followers",
                "following_url": "https://api.github.com/users/PrismarineJS/following{/other_user}",
                "gists_url": "https://api.github.com/users/PrismarineJS/gists{/gist_id}",
                "gravatar_id": "",
                "html_url": "https://github.com/PrismarineJS",
                "id": 11053411,
                "login": "PrismarineJS",
                "node_id": "MDEyOk9yZ2FuaXphdGlvbjExMDUzNDEx",
                "organizations_url": "https://api.github.com/users/PrismarineJS/orgs",
                "received_events_url": "https://api.github.com/users/PrismarineJS/received_events",
                "repos_url": "https://api.github.com/users/PrismarineJS/repos",
                "site_admin": false,
                "starred_url": "https://api.github.com/users/PrismarineJS/starred{/owner}{/repo}",
                "subscriptions_url": "https://api.github.com/users/PrismarineJS/subscriptions",
                "type": "Organization",
                "url": "https://api.github.com/users/PrismarineJS"
            },
            "private": false,
            "pulls_url": "https://api.github.com/repos/PrismarineJS/mineflayer/pulls{/number}",
            "pushed_at": "2023-04-25T00:44:52Z",
            "releases_url": "https://api.github.com/repos/PrismarineJS/mineflayer/releases{/id}",
            "size": 12493,
            "ssh_url": "git@github.com:PrismarineJS/mineflayer.git",
            "stargazers_count": 3698,
            "stargazers_url": "https://api.github.com/repos/PrismarineJS/mineflayer/stargazers",
            "statuses_url": "https://api.github.com/repos/PrismarineJS/mineflayer/statuses/{sha}",
            "subscribers_url": "https://api.github.com/repos/PrismarineJS/mineflayer/subscribers",
            "subscription_url": "https://api.github.com/repos/PrismarineJS/mineflayer/subscription",
            "svn_url": "https://github.com/PrismarineJS/mineflayer",
            "tags_url": "https://api.github.com/repos/PrismarineJS/mineflayer/tags",
            "teams_url": "https://api.github.com/repos/PrismarineJS/mineflayer/teams",
            "topics": [
                "bot",
                "minecraft",
                "minecraft-api",
                "minecraft-bot",
                "network",
                "nodejs"
            ],
            "trees_url": "https://api.github.com/repos/PrismarineJS/mineflayer/git/trees{/sha}",
            "updated_at": "2023-04-25T14:07:03Z",
            "url": "https://api.github.com/repos/PrismarineJS/mineflayer",
            "visibility": "public",
            "watchers": 3698,
            "watchers_count": 3698,
            "web_commit_signoff_required": false
        },
        "sha": "a9a9648815ea2da44b860169529210d35a1749f8",
        "user": {
            "avatar_url": "https://avatars.githubusercontent.com/u/11053411?v=4",
            "events_url": "https://api.github.com/users/PrismarineJS/events{/privacy}",
            "followers_url": "https://api.github.com/users/PrismarineJS/followers",
            "following_url": "https://api.github.com/users/PrismarineJS/following{/other_user}",
            "gists_url": "https://api.github.com/users/PrismarineJS/gists{/gist_id}",
            "gravatar_id": "",
            "html_url": "https://github.com/PrismarineJS",
            "id": 11053411,
            "login": "PrismarineJS",
            "node_id": "MDEyOk9yZ2FuaXphdGlvbjExMDUzNDEx",
            "organizations_url": "https://api.github.com/users/PrismarineJS/orgs",
            "received_events_url": "https://api.github.com/users/PrismarineJS/received_events",
            "repos_url": "https://api.github.com/users/PrismarineJS/repos",
            "site_admin": false,
            "starred_url": "https://api.github.com/users/PrismarineJS/starred{/owner}{/repo}",
            "subscriptions_url": "https://api.github.com/users/PrismarineJS/subscriptions",
            "type": "Organization",
            "url": "https://api.github.com/users/PrismarineJS"
        }
    },
    "body": "I had my little brother(17) who is interested in learning programming follow the tutorial and changed a few little things that I missed.",
    "changed_files": 1,
    "closed_at": "2020-07-16T07:44:33Z",
    "comment_data": [
        {
            "_links": {
                "html": {
                    "href": "https://github.com/PrismarineJS/mineflayer/pull/1148#discussion_r454315108"
                },
                "pull_request": {
                    "href": "https://api.github.com/repos/PrismarineJS/mineflayer/pulls/1148"
                },
                "self": {
                    "href": "https://api.github.com/repos/PrismarineJS/mineflayer/pulls/comments/454315108"
                }
            },
            "author_association": "MEMBER",
            "body": "It's a bit confusing, `const a = function () {}` is still an anonymous function.",
            "commit_id": "fb8fb9b913019f67caf85e7152c6ea628344eaa7",
            "created_at": "2020-07-14T12:21:28Z",
            "diff_hunk": "@@ -426,7 +425,7 @@ To remove specific listener you can use `bot.removeListener()` method.\n - `bot.once(eventName, listener)`\n   Execute the `listener` function, only once, the first time the event named `eventName` triggered.\n - `bot.removeListener(eventName, listener)`\n-  Removes the specified `listener` for the event named `eventName`.\n+  Removes the specified `listener` for the event named `eventName`. This will not work with annonymous functions, as they don't have a name.",
            "html_url": "https://github.com/PrismarineJS/mineflayer/pull/1148#discussion_r454315108",
            "id": 454315108,
            "line": null,
            "node_id": "MDI0OlB1bGxSZXF1ZXN0UmV2aWV3Q29tbWVudDQ1NDMxNTEwOA==",
            "original_commit_id": "f39b030724493abbb19375e34e3e6673b79e0d1a",
            "original_line": 428,
            "original_position": 33,
            "original_start_line": null,
            "path": "docs/tutorial.md",
            "position": null,
            "pull_request_review_id": 448053616,
            "pull_request_url": "https://api.github.com/repos/PrismarineJS/mineflayer/pulls/1148",
            "reactions": {
                "+1": 0,
                "-1": 0,
                "confused": 0,
                "eyes": 0,
                "heart": 0,
                "hooray": 0,
                "laugh": 0,
                "rocket": 0,
                "total_count": 0,
                "url": "https://api.github.com/repos/PrismarineJS/mineflayer/pulls/comments/454315108/reactions"
            },
            "side": "RIGHT",
            "start_line": null,
            "start_side": null,
            "subject_type": "line",
            "updated_at": "2020-07-16T05:33:30Z",
            "url": "https://api.github.com/repos/PrismarineJS/mineflayer/pulls/comments/454315108",
            "user": {
                "avatar_url": "https://avatars.githubusercontent.com/u/13330620?v=4",
                "events_url": "https://api.github.com/users/wvffle/events{/privacy}",
                "followers_url": "https://api.github.com/users/wvffle/followers",
                "following_url": "https://api.github.com/users/wvffle/following{/other_user}",
                "gists_url": "https://api.github.com/users/wvffle/gists{/gist_id}",
                "gravatar_id": "",
                "html_url": "https://github.com/wvffle",
                "id": 13330620,
                "login": "wvffle",
                "node_id": "MDQ6VXNlcjEzMzMwNjIw",
                "organizations_url": "https://api.github.com/users/wvffle/orgs",
                "received_events_url": "https://api.github.com/users/wvffle/received_events",
                "repos_url": "https://api.github.com/users/wvffle/repos",
                "site_admin": false,
                "starred_url": "https://api.github.com/users/wvffle/starred{/owner}{/repo}",
                "subscriptions_url": "https://api.github.com/users/wvffle/subscriptions",
                "type": "User",
                "url": "https://api.github.com/users/wvffle"
            }
        },
        {
            "_links": {
                "html": {
                    "href": "https://github.com/PrismarineJS/mineflayer/pull/1148#discussion_r454316227"
                },
                "pull_request": {
                    "href": "https://api.github.com/repos/PrismarineJS/mineflayer/pulls/1148"
                },
                "self": {
                    "href": "https://api.github.com/repos/PrismarineJS/mineflayer/pulls/comments/454316227"
                }
            },
            "author_association": "MEMBER",
            "body": "most likely it'll be `null`. Previous check was better as it covers both undefined and null and does not involve an equality operator (You should avoid those and use identity operators.)",
            "commit_id": "fb8fb9b913019f67caf85e7152c6ea628344eaa7",
            "created_at": "2020-07-14T12:23:32Z",
            "diff_hunk": "@@ -436,7 +435,7 @@ In Mineflayer, callbacks are often used to handle errors.\n \n ```js\n bot.consume((error) => {\n-  if (error) {\n+  if (error != undefined) { // If no error occored, 'error' will be undefined. If it is, an error occured.",
            "html_url": "https://github.com/PrismarineJS/mineflayer/pull/1148#discussion_r454316227",
            "id": 454316227,
            "line": null,
            "node_id": "MDI0OlB1bGxSZXF1ZXN0UmV2aWV3Q29tbWVudDQ1NDMxNjIyNw==",
            "original_commit_id": "f39b030724493abbb19375e34e3e6673b79e0d1a",
            "original_line": 438,
            "original_position": 42,
            "original_start_line": null,
            "path": "docs/tutorial.md",
            "position": null,
            "pull_request_review_id": 448053616,
            "pull_request_url": "https://api.github.com/repos/PrismarineJS/mineflayer/pulls/1148",
            "reactions": {
                "+1": 0,
                "-1": 0,
                "confused": 0,
                "eyes": 0,
                "heart": 0,
                "hooray": 0,
                "laugh": 0,
                "rocket": 0,
                "total_count": 0,
                "url": "https://api.github.com/repos/PrismarineJS/mineflayer/pulls/comments/454316227/reactions"
            },
            "side": "RIGHT",
            "start_line": null,
            "start_side": null,
            "subject_type": "line",
            "updated_at": "2020-07-16T05:33:30Z",
            "url": "https://api.github.com/repos/PrismarineJS/mineflayer/pulls/comments/454316227",
            "user": {
                "avatar_url": "https://avatars.githubusercontent.com/u/13330620?v=4",
                "events_url": "https://api.github.com/users/wvffle/events{/privacy}",
                "followers_url": "https://api.github.com/users/wvffle/followers",
                "following_url": "https://api.github.com/users/wvffle/following{/other_user}",
                "gists_url": "https://api.github.com/users/wvffle/gists{/gist_id}",
                "gravatar_id": "",
                "html_url": "https://github.com/wvffle",
                "id": 13330620,
                "login": "wvffle",
                "node_id": "MDQ6VXNlcjEzMzMwNjIw",
                "organizations_url": "https://api.github.com/users/wvffle/orgs",
                "received_events_url": "https://api.github.com/users/wvffle/received_events",
                "repos_url": "https://api.github.com/users/wvffle/repos",
                "site_admin": false,
                "starred_url": "https://api.github.com/users/wvffle/starred{/owner}{/repo}",
                "subscriptions_url": "https://api.github.com/users/wvffle/subscriptions",
                "type": "User",
                "url": "https://api.github.com/users/wvffle"
            }
        },
        {
            "_links": {
                "html": {
                    "href": "https://github.com/PrismarineJS/mineflayer/pull/1148#discussion_r454316387"
                },
                "pull_request": {
                    "href": "https://api.github.com/repos/PrismarineJS/mineflayer/pulls/1148"
                },
                "self": {
                    "href": "https://api.github.com/repos/PrismarineJS/mineflayer/pulls/comments/454316387"
                }
            },
            "author_association": "MEMBER",
            "body": "Same as above",
            "commit_id": "fb8fb9b913019f67caf85e7152c6ea628344eaa7",
            "created_at": "2020-07-14T12:23:48Z",
            "diff_hunk": "@@ -468,21 +467,20 @@ Correct approach with callbacks ✔️:\n ```js\n const plankRecipe = bot.recipesFor(5)[0]\n \n-bot.craft(plankRecipe, 1, null, function (err) {\n+bot.craft(plankRecipe, 1, null, (error) => {\n   // After bot.craft(plankRecipe, ...) is finished, this callback is called and we continue. ✔️\n-  if (err !== null) { // Check if an error happened.\n-    bot.chat(err.message)\n-    return\n+  if (error != undefined) { // Check if an error happened.",
            "html_url": "https://github.com/PrismarineJS/mineflayer/pull/1148#discussion_r454316387",
            "id": 454316387,
            "line": null,
            "node_id": "MDI0OlB1bGxSZXF1ZXN0UmV2aWV3Q29tbWVudDQ1NDMxNjM4Nw==",
            "original_commit_id": "f39b030724493abbb19375e34e3e6673b79e0d1a",
            "original_line": 472,
            "original_position": 56,
            "original_start_line": null,
            "path": "docs/tutorial.md",
            "position": null,
            "pull_request_review_id": 448053616,
            "pull_request_url": "https://api.github.com/repos/PrismarineJS/mineflayer/pulls/1148",
            "reactions": {
                "+1": 0,
                "-1": 0,
                "confused": 0,
                "eyes": 0,
                "heart": 0,
                "hooray": 0,
                "laugh": 0,
                "rocket": 0,
                "total_count": 0,
                "url": "https://api.github.com/repos/PrismarineJS/mineflayer/pulls/comments/454316387/reactions"
            },
            "side": "RIGHT",
            "start_line": null,
            "start_side": null,
            "subject_type": "line",
            "updated_at": "2020-07-16T05:33:30Z",
            "url": "https://api.github.com/repos/PrismarineJS/mineflayer/pulls/comments/454316387",
            "user": {
                "avatar_url": "https://avatars.githubusercontent.com/u/13330620?v=4",
                "events_url": "https://api.github.com/users/wvffle/events{/privacy}",
                "followers_url": "https://api.github.com/users/wvffle/followers",
                "following_url": "https://api.github.com/users/wvffle/following{/other_user}",
                "gists_url": "https://api.github.com/users/wvffle/gists{/gist_id}",
                "gravatar_id": "",
                "html_url": "https://github.com/wvffle",
                "id": 13330620,
                "login": "wvffle",
                "node_id": "MDQ6VXNlcjEzMzMwNjIw",
                "organizations_url": "https://api.github.com/users/wvffle/orgs",
                "received_events_url": "https://api.github.com/users/wvffle/received_events",
                "repos_url": "https://api.github.com/users/wvffle/repos",
                "site_admin": false,
                "starred_url": "https://api.github.com/users/wvffle/starred{/owner}{/repo}",
                "subscriptions_url": "https://api.github.com/users/wvffle/subscriptions",
                "type": "User",
                "url": "https://api.github.com/users/wvffle"
            }
        },
        {
            "_links": {
                "html": {
                    "href": "https://github.com/PrismarineJS/mineflayer/pull/1148#discussion_r454316656"
                },
                "pull_request": {
                    "href": "https://api.github.com/repos/PrismarineJS/mineflayer/pulls/1148"
                },
                "self": {
                    "href": "https://api.github.com/repos/PrismarineJS/mineflayer/pulls/comments/454316656"
                }
            },
            "author_association": "MEMBER",
            "body": "Same as above",
            "commit_id": "fb8fb9b913019f67caf85e7152c6ea628344eaa7",
            "created_at": "2020-07-14T12:24:13Z",
            "diff_hunk": "@@ -468,21 +467,20 @@ Correct approach with callbacks ✔️:\n ```js\n const plankRecipe = bot.recipesFor(5)[0]\n \n-bot.craft(plankRecipe, 1, null, function (err) {\n+bot.craft(plankRecipe, 1, null, (error) => {\n   // After bot.craft(plankRecipe, ...) is finished, this callback is called and we continue. ✔️\n-  if (err !== null) { // Check if an error happened.\n-    bot.chat(err.message)\n-    return\n+  if (error != undefined) { // Check if an error happened.\n+    console.log(error)\n   } else {\n     const stickRecipe = bot.recipesFor(280)[0]\n \n-    bot.craft(stickRecipe, 1, null, function (err) {\n+    bot.craft(stickRecipe, 1, null, (error) => {\n       // After bot.craft(stickRecipe, ...) is finished, this callback is called and we continue. ✔️\n-      if (err !== null) { // Check if an error happened.\n-        bot.chat(err.message)\n-        return\n+      if (error != undefined) { // Check if an error happened.",
            "html_url": "https://github.com/PrismarineJS/mineflayer/pull/1148#discussion_r454316656",
            "id": 454316656,
            "line": null,
            "node_id": "MDI0OlB1bGxSZXF1ZXN0UmV2aWV3Q29tbWVudDQ1NDMxNjY1Ng==",
            "original_commit_id": "f39b030724493abbb19375e34e3e6673b79e0d1a",
            "original_line": 479,
            "original_position": 67,
            "original_start_line": null,
            "path": "docs/tutorial.md",
            "position": null,
            "pull_request_review_id": 448053616,
            "pull_request_url": "https://api.github.com/repos/PrismarineJS/mineflayer/pulls/1148",
            "reactions": {
                "+1": 0,
                "-1": 0,
                "confused": 0,
                "eyes": 0,
                "heart": 0,
                "hooray": 0,
                "laugh": 0,
                "rocket": 0,
                "total_count": 0,
                "url": "https://api.github.com/repos/PrismarineJS/mineflayer/pulls/comments/454316656/reactions"
            },
            "side": "RIGHT",
            "start_line": null,
            "start_side": null,
            "subject_type": "line",
            "updated_at": "2020-07-16T05:33:30Z",
            "url": "https://api.github.com/repos/PrismarineJS/mineflayer/pulls/comments/454316656",
            "user": {
                "avatar_url": "https://avatars.githubusercontent.com/u/13330620?v=4",
                "events_url": "https://api.github.com/users/wvffle/events{/privacy}",
                "followers_url": "https://api.github.com/users/wvffle/followers",
                "following_url": "https://api.github.com/users/wvffle/following{/other_user}",
                "gists_url": "https://api.github.com/users/wvffle/gists{/gist_id}",
                "gravatar_id": "",
                "html_url": "https://github.com/wvffle",
                "id": 13330620,
                "login": "wvffle",
                "node_id": "MDQ6VXNlcjEzMzMwNjIw",
                "organizations_url": "https://api.github.com/users/wvffle/orgs",
                "received_events_url": "https://api.github.com/users/wvffle/received_events",
                "repos_url": "https://api.github.com/users/wvffle/repos",
                "site_admin": false,
                "starred_url": "https://api.github.com/users/wvffle/starred{/owner}{/repo}",
                "subscriptions_url": "https://api.github.com/users/wvffle/subscriptions",
                "type": "User",
                "url": "https://api.github.com/users/wvffle"
            }
        },
        {
            "_links": {
                "html": {
                    "href": "https://github.com/PrismarineJS/mineflayer/pull/1148#discussion_r454488853"
                },
                "pull_request": {
                    "href": "https://api.github.com/repos/PrismarineJS/mineflayer/pulls/1148"
                },
                "self": {
                    "href": "https://api.github.com/repos/PrismarineJS/mineflayer/pulls/comments/454488853"
                }
            },
            "author_association": "CONTRIBUTOR",
            "body": "Ow wait it is? So passing it `a` won't remove the listener?",
            "commit_id": "fb8fb9b913019f67caf85e7152c6ea628344eaa7",
            "created_at": "2020-07-14T16:35:04Z",
            "diff_hunk": "@@ -426,7 +425,7 @@ To remove specific listener you can use `bot.removeListener()` method.\n - `bot.once(eventName, listener)`\n   Execute the `listener` function, only once, the first time the event named `eventName` triggered.\n - `bot.removeListener(eventName, listener)`\n-  Removes the specified `listener` for the event named `eventName`.\n+  Removes the specified `listener` for the event named `eventName`. This will not work with annonymous functions, as they don't have a name.",
            "html_url": "https://github.com/PrismarineJS/mineflayer/pull/1148#discussion_r454488853",
            "id": 454488853,
            "in_reply_to_id": 454315108,
            "line": null,
            "node_id": "MDI0OlB1bGxSZXF1ZXN0UmV2aWV3Q29tbWVudDQ1NDQ4ODg1Mw==",
            "original_commit_id": "f39b030724493abbb19375e34e3e6673b79e0d1a",
            "original_line": 428,
            "original_position": 33,
            "original_start_line": null,
            "path": "docs/tutorial.md",
            "position": null,
            "pull_request_review_id": 448275014,
            "pull_request_url": "https://api.github.com/repos/PrismarineJS/mineflayer/pulls/1148",
            "reactions": {
                "+1": 0,
                "-1": 0,
                "confused": 0,
                "eyes": 0,
                "heart": 0,
                "hooray": 0,
                "laugh": 0,
                "rocket": 0,
                "total_count": 0,
                "url": "https://api.github.com/repos/PrismarineJS/mineflayer/pulls/comments/454488853/reactions"
            },
            "side": "RIGHT",
            "start_line": null,
            "start_side": null,
            "subject_type": "line",
            "updated_at": "2020-07-16T05:33:30Z",
            "url": "https://api.github.com/repos/PrismarineJS/mineflayer/pulls/comments/454488853",
            "user": {
                "avatar_url": "https://avatars.githubusercontent.com/u/67819345?v=4",
                "events_url": "https://api.github.com/users/Naomi-alt/events{/privacy}",
                "followers_url": "https://api.github.com/users/Naomi-alt/followers",
                "following_url": "https://api.github.com/users/Naomi-alt/following{/other_user}",
                "gists_url": "https://api.github.com/users/Naomi-alt/gists{/gist_id}",
                "gravatar_id": "",
                "html_url": "https://github.com/Naomi-alt",
                "id": 67819345,
                "login": "Naomi-alt",
                "node_id": "MDQ6VXNlcjY3ODE5MzQ1",
                "organizations_url": "https://api.github.com/users/Naomi-alt/orgs",
                "received_events_url": "https://api.github.com/users/Naomi-alt/received_events",
                "repos_url": "https://api.github.com/users/Naomi-alt/repos",
                "site_admin": false,
                "starred_url": "https://api.github.com/users/Naomi-alt/starred{/owner}{/repo}",
                "subscriptions_url": "https://api.github.com/users/Naomi-alt/subscriptions",
                "type": "User",
                "url": "https://api.github.com/users/Naomi-alt"
            }
        },
        {
            "_links": {
                "html": {
                    "href": "https://github.com/PrismarineJS/mineflayer/pull/1148#discussion_r454492291"
                },
                "pull_request": {
                    "href": "https://api.github.com/repos/PrismarineJS/mineflayer/pulls/1148"
                },
                "self": {
                    "href": "https://api.github.com/repos/PrismarineJS/mineflayer/pulls/comments/454492291"
                }
            },
            "author_association": "MEMBER",
            "body": "`const a = function() {}` and `const a = () => {}` are both function expressions (the variable a gets assigned an anonymous function. In both case it will not remove the listener.\r\n\r\n`function a() {}` is a function declaration, this is what you need to be able to remove the listener.\r\n\r\nhttps://www.w3schools.com/js/js_function_definition.asp",
            "commit_id": "fb8fb9b913019f67caf85e7152c6ea628344eaa7",
            "created_at": "2020-07-14T16:40:27Z",
            "diff_hunk": "@@ -426,7 +425,7 @@ To remove specific listener you can use `bot.removeListener()` method.\n - `bot.once(eventName, listener)`\n   Execute the `listener` function, only once, the first time the event named `eventName` triggered.\n - `bot.removeListener(eventName, listener)`\n-  Removes the specified `listener` for the event named `eventName`.\n+  Removes the specified `listener` for the event named `eventName`. This will not work with annonymous functions, as they don't have a name.",
            "html_url": "https://github.com/PrismarineJS/mineflayer/pull/1148#discussion_r454492291",
            "id": 454492291,
            "in_reply_to_id": 454315108,
            "line": null,
            "node_id": "MDI0OlB1bGxSZXF1ZXN0UmV2aWV3Q29tbWVudDQ1NDQ5MjI5MQ==",
            "original_commit_id": "f39b030724493abbb19375e34e3e6673b79e0d1a",
            "original_line": 428,
            "original_position": 33,
            "original_start_line": null,
            "path": "docs/tutorial.md",
            "position": null,
            "pull_request_review_id": 448279365,
            "pull_request_url": "https://api.github.com/repos/PrismarineJS/mineflayer/pulls/1148",
            "reactions": {
                "+1": 0,
                "-1": 0,
                "confused": 0,
                "eyes": 0,
                "heart": 0,
                "hooray": 0,
                "laugh": 0,
                "rocket": 0,
                "total_count": 0,
                "url": "https://api.github.com/repos/PrismarineJS/mineflayer/pulls/comments/454492291/reactions"
            },
            "side": "RIGHT",
            "start_line": null,
            "start_side": null,
            "subject_type": "line",
            "updated_at": "2020-07-16T05:33:30Z",
            "url": "https://api.github.com/repos/PrismarineJS/mineflayer/pulls/comments/454492291",
            "user": {
                "avatar_url": "https://avatars.githubusercontent.com/u/1977472?v=4",
                "events_url": "https://api.github.com/users/Karang/events{/privacy}",
                "followers_url": "https://api.github.com/users/Karang/followers",
                "following_url": "https://api.github.com/users/Karang/following{/other_user}",
                "gists_url": "https://api.github.com/users/Karang/gists{/gist_id}",
                "gravatar_id": "",
                "html_url": "https://github.com/Karang",
                "id": 1977472,
                "login": "Karang",
                "node_id": "MDQ6VXNlcjE5Nzc0NzI=",
                "organizations_url": "https://api.github.com/users/Karang/orgs",
                "received_events_url": "https://api.github.com/users/Karang/received_events",
                "repos_url": "https://api.github.com/users/Karang/repos",
                "site_admin": false,
                "starred_url": "https://api.github.com/users/Karang/starred{/owner}{/repo}",
                "subscriptions_url": "https://api.github.com/users/Karang/subscriptions",
                "type": "User",
                "url": "https://api.github.com/users/Karang"
            }
        },
        {
            "_links": {
                "html": {
                    "href": "https://github.com/PrismarineJS/mineflayer/pull/1148#discussion_r454495221"
                },
                "pull_request": {
                    "href": "https://api.github.com/repos/PrismarineJS/mineflayer/pulls/1148"
                },
                "self": {
                    "href": "https://api.github.com/repos/PrismarineJS/mineflayer/pulls/comments/454495221"
                }
            },
            "author_association": "CONTRIBUTOR",
            "body": "Well, TIL\r\n\r\nI'll mention it in the tutorial.",
            "commit_id": "fb8fb9b913019f67caf85e7152c6ea628344eaa7",
            "created_at": "2020-07-14T16:45:01Z",
            "diff_hunk": "@@ -426,7 +425,7 @@ To remove specific listener you can use `bot.removeListener()` method.\n - `bot.once(eventName, listener)`\n   Execute the `listener` function, only once, the first time the event named `eventName` triggered.\n - `bot.removeListener(eventName, listener)`\n-  Removes the specified `listener` for the event named `eventName`.\n+  Removes the specified `listener` for the event named `eventName`. This will not work with annonymous functions, as they don't have a name.",
            "html_url": "https://github.com/PrismarineJS/mineflayer/pull/1148#discussion_r454495221",
            "id": 454495221,
            "in_reply_to_id": 454315108,
            "line": null,
            "node_id": "MDI0OlB1bGxSZXF1ZXN0UmV2aWV3Q29tbWVudDQ1NDQ5NTIyMQ==",
            "original_commit_id": "f39b030724493abbb19375e34e3e6673b79e0d1a",
            "original_line": 428,
            "original_position": 33,
            "original_start_line": null,
            "path": "docs/tutorial.md",
            "position": null,
            "pull_request_review_id": 448282926,
            "pull_request_url": "https://api.github.com/repos/PrismarineJS/mineflayer/pulls/1148",
            "reactions": {
                "+1": 0,
                "-1": 0,
                "confused": 0,
                "eyes": 0,
                "heart": 0,
                "hooray": 0,
                "laugh": 0,
                "rocket": 0,
                "total_count": 0,
                "url": "https://api.github.com/repos/PrismarineJS/mineflayer/pulls/comments/454495221/reactions"
            },
            "side": "RIGHT",
            "start_line": null,
            "start_side": null,
            "subject_type": "line",
            "updated_at": "2020-07-16T05:33:30Z",
            "url": "https://api.github.com/repos/PrismarineJS/mineflayer/pulls/comments/454495221",
            "user": {
                "avatar_url": "https://avatars.githubusercontent.com/u/67819345?v=4",
                "events_url": "https://api.github.com/users/Naomi-alt/events{/privacy}",
                "followers_url": "https://api.github.com/users/Naomi-alt/followers",
                "following_url": "https://api.github.com/users/Naomi-alt/following{/other_user}",
                "gists_url": "https://api.github.com/users/Naomi-alt/gists{/gist_id}",
                "gravatar_id": "",
                "html_url": "https://github.com/Naomi-alt",
                "id": 67819345,
                "login": "Naomi-alt",
                "node_id": "MDQ6VXNlcjY3ODE5MzQ1",
                "organizations_url": "https://api.github.com/users/Naomi-alt/orgs",
                "received_events_url": "https://api.github.com/users/Naomi-alt/received_events",
                "repos_url": "https://api.github.com/users/Naomi-alt/repos",
                "site_admin": false,
                "starred_url": "https://api.github.com/users/Naomi-alt/starred{/owner}{/repo}",
                "subscriptions_url": "https://api.github.com/users/Naomi-alt/subscriptions",
                "type": "User",
                "url": "https://api.github.com/users/Naomi-alt"
            }
        },
        {
            "_links": {
                "html": {
                    "href": "https://github.com/PrismarineJS/mineflayer/pull/1148#discussion_r454716261"
                },
                "pull_request": {
                    "href": "https://api.github.com/repos/PrismarineJS/mineflayer/pulls/1148"
                },
                "self": {
                    "href": "https://api.github.com/repos/PrismarineJS/mineflayer/pulls/comments/454716261"
                }
            },
            "author_association": "MEMBER",
            "body": "> Ow wait it is? So passing it `a` won't remove the listener?\r\n\r\npassing `a` will remove `a` listner. I meant that it's been described in a bit confusing way. What you said there was that even if we assign an anonymous function to a variable and pass that variable it won't work. But it will.\r\n\r\nhttps://nodejs.org/api/events.html#events_emitter_removelistener_eventname_listener\r\nEven example in node api shows so. \r\n\r\nIdk what you meant @Karang, that it won't work. ",
            "commit_id": "fb8fb9b913019f67caf85e7152c6ea628344eaa7",
            "created_at": "2020-07-15T00:14:00Z",
            "diff_hunk": "@@ -426,7 +425,7 @@ To remove specific listener you can use `bot.removeListener()` method.\n - `bot.once(eventName, listener)`\n   Execute the `listener` function, only once, the first time the event named `eventName` triggered.\n - `bot.removeListener(eventName, listener)`\n-  Removes the specified `listener` for the event named `eventName`.\n+  Removes the specified `listener` for the event named `eventName`. This will not work with annonymous functions, as they don't have a name.",
            "html_url": "https://github.com/PrismarineJS/mineflayer/pull/1148#discussion_r454716261",
            "id": 454716261,
            "in_reply_to_id": 454315108,
            "line": null,
            "node_id": "MDI0OlB1bGxSZXF1ZXN0UmV2aWV3Q29tbWVudDQ1NDcxNjI2MQ==",
            "original_commit_id": "f39b030724493abbb19375e34e3e6673b79e0d1a",
            "original_line": 428,
            "original_position": 33,
            "original_start_line": null,
            "path": "docs/tutorial.md",
            "position": null,
            "pull_request_review_id": 448547580,
            "pull_request_url": "https://api.github.com/repos/PrismarineJS/mineflayer/pulls/1148",
            "reactions": {
                "+1": 0,
                "-1": 0,
                "confused": 0,
                "eyes": 0,
                "heart": 0,
                "hooray": 0,
                "laugh": 0,
                "rocket": 0,
                "total_count": 0,
                "url": "https://api.github.com/repos/PrismarineJS/mineflayer/pulls/comments/454716261/reactions"
            },
            "side": "RIGHT",
            "start_line": null,
            "start_side": null,
            "subject_type": "line",
            "updated_at": "2020-07-16T05:33:30Z",
            "url": "https://api.github.com/repos/PrismarineJS/mineflayer/pulls/comments/454716261",
            "user": {
                "avatar_url": "https://avatars.githubusercontent.com/u/13330620?v=4",
                "events_url": "https://api.github.com/users/wvffle/events{/privacy}",
                "followers_url": "https://api.github.com/users/wvffle/followers",
                "following_url": "https://api.github.com/users/wvffle/following{/other_user}",
                "gists_url": "https://api.github.com/users/wvffle/gists{/gist_id}",
                "gravatar_id": "",
                "html_url": "https://github.com/wvffle",
                "id": 13330620,
                "login": "wvffle",
                "node_id": "MDQ6VXNlcjEzMzMwNjIw",
                "organizations_url": "https://api.github.com/users/wvffle/orgs",
                "received_events_url": "https://api.github.com/users/wvffle/received_events",
                "repos_url": "https://api.github.com/users/wvffle/repos",
                "site_admin": false,
                "starred_url": "https://api.github.com/users/wvffle/starred{/owner}{/repo}",
                "subscriptions_url": "https://api.github.com/users/wvffle/subscriptions",
                "type": "User",
                "url": "https://api.github.com/users/wvffle"
            }
        },
        {
            "_links": {
                "html": {
                    "href": "https://github.com/PrismarineJS/mineflayer/pull/1148#discussion_r454716622"
                },
                "pull_request": {
                    "href": "https://api.github.com/repos/PrismarineJS/mineflayer/pulls/1148"
                },
                "self": {
                    "href": "https://api.github.com/repos/PrismarineJS/mineflayer/pulls/comments/454716622"
                }
            },
            "author_association": "MEMBER",
            "body": "That is not true, discussion [here](https://github.com/PrismarineJS/mineflayer/pull/1148#discussion_r454716261)",
            "commit_id": "fb8fb9b913019f67caf85e7152c6ea628344eaa7",
            "created_at": "2020-07-15T00:15:10Z",
            "diff_hunk": "@@ -425,7 +425,7 @@ To remove specific listener you can use `bot.removeListener()` method.\n - `bot.once(eventName, listener)`\n   Execute the `listener` function, only once, the first time the event named `eventName` triggered.\n - `bot.removeListener(eventName, listener)`\n-  Removes the specified `listener` for the event named `eventName`. This will not work with annonymous functions, as they don't have a name.\n+  Removes the specified `listener` for the event named `eventName`. This will only work with named functions `function myNamedFunc() {}`",
            "html_url": "https://github.com/PrismarineJS/mineflayer/pull/1148#discussion_r454716622",
            "id": 454716622,
            "line": null,
            "node_id": "MDI0OlB1bGxSZXF1ZXN0UmV2aWV3Q29tbWVudDQ1NDcxNjYyMg==",
            "original_commit_id": "1f2955b232618f3fbc85793134bdc3aba7d859f8",
            "original_line": 428,
            "original_position": 5,
            "original_start_line": null,
            "path": "docs/tutorial.md",
            "position": null,
            "pull_request_review_id": 448547939,
            "pull_request_url": "https://api.github.com/repos/PrismarineJS/mineflayer/pulls/1148",
            "reactions": {
                "+1": 0,
                "-1": 0,
                "confused": 0,
                "eyes": 0,
                "heart": 0,
                "hooray": 0,
                "laugh": 0,
                "rocket": 0,
                "total_count": 0,
                "url": "https://api.github.com/repos/PrismarineJS/mineflayer/pulls/comments/454716622/reactions"
            },
            "side": "RIGHT",
            "start_line": null,
            "start_side": null,
            "subject_type": "line",
            "updated_at": "2020-07-16T05:33:30Z",
            "url": "https://api.github.com/repos/PrismarineJS/mineflayer/pulls/comments/454716622",
            "user": {
                "avatar_url": "https://avatars.githubusercontent.com/u/13330620?v=4",
                "events_url": "https://api.github.com/users/wvffle/events{/privacy}",
                "followers_url": "https://api.github.com/users/wvffle/followers",
                "following_url": "https://api.github.com/users/wvffle/following{/other_user}",
                "gists_url": "https://api.github.com/users/wvffle/gists{/gist_id}",
                "gravatar_id": "",
                "html_url": "https://github.com/wvffle",
                "id": 13330620,
                "login": "wvffle",
                "node_id": "MDQ6VXNlcjEzMzMwNjIw",
                "organizations_url": "https://api.github.com/users/wvffle/orgs",
                "received_events_url": "https://api.github.com/users/wvffle/received_events",
                "repos_url": "https://api.github.com/users/wvffle/repos",
                "site_admin": false,
                "starred_url": "https://api.github.com/users/wvffle/starred{/owner}{/repo}",
                "subscriptions_url": "https://api.github.com/users/wvffle/subscriptions",
                "type": "User",
                "url": "https://api.github.com/users/wvffle"
            }
        },
        {
            "_links": {
                "html": {
                    "href": "https://github.com/PrismarineJS/mineflayer/pull/1148#discussion_r455440466"
                },
                "pull_request": {
                    "href": "https://api.github.com/repos/PrismarineJS/mineflayer/pulls/1148"
                },
                "self": {
                    "href": "https://api.github.com/repos/PrismarineJS/mineflayer/pulls/comments/455440466"
                }
            },
            "author_association": "MEMBER",
            "body": "suggestion for @Naomi-alt , put this : \r\n> Removes the specified `listener` for the event named `eventName`. In order to use this you either need to define your function with `function myNamedFunc() {}` or put your function in a variable with `const myNamedFunc = () => {}`. You can then use myNamedFunc in the `listener` argument\r\n\r\nsuggestion for @wvffle : I know it's clear for you but it doesn't seem clear for @Naomi-alt , sometimes suggesting a fix is a good way to help understand and unlock the situation. Reviews are meant to help improve the quality of pull requests, not to block them and we should do our best to reach that objective.",
            "commit_id": "fb8fb9b913019f67caf85e7152c6ea628344eaa7",
            "created_at": "2020-07-16T00:28:21Z",
            "diff_hunk": "@@ -425,7 +425,7 @@ To remove specific listener you can use `bot.removeListener()` method.\n - `bot.once(eventName, listener)`\n   Execute the `listener` function, only once, the first time the event named `eventName` triggered.\n - `bot.removeListener(eventName, listener)`\n-  Removes the specified `listener` for the event named `eventName`. This will not work with annonymous functions, as they don't have a name.\n+  Removes the specified `listener` for the event named `eventName`. This will only work with named functions `function myNamedFunc() {}`",
            "html_url": "https://github.com/PrismarineJS/mineflayer/pull/1148#discussion_r455440466",
            "id": 455440466,
            "in_reply_to_id": 454716622,
            "line": null,
            "node_id": "MDI0OlB1bGxSZXF1ZXN0UmV2aWV3Q29tbWVudDQ1NTQ0MDQ2Ng==",
            "original_commit_id": "1f2955b232618f3fbc85793134bdc3aba7d859f8",
            "original_line": 428,
            "original_position": 5,
            "original_start_line": null,
            "path": "docs/tutorial.md",
            "position": null,
            "pull_request_review_id": 449429607,
            "pull_request_url": "https://api.github.com/repos/PrismarineJS/mineflayer/pulls/1148",
            "reactions": {
                "+1": 0,
                "-1": 0,
                "confused": 0,
                "eyes": 0,
                "heart": 0,
                "hooray": 0,
                "laugh": 0,
                "rocket": 0,
                "total_count": 0,
                "url": "https://api.github.com/repos/PrismarineJS/mineflayer/pulls/comments/455440466/reactions"
            },
            "side": "RIGHT",
            "start_line": null,
            "start_side": null,
            "subject_type": "line",
            "updated_at": "2020-07-16T05:33:30Z",
            "url": "https://api.github.com/repos/PrismarineJS/mineflayer/pulls/comments/455440466",
            "user": {
                "avatar_url": "https://avatars.githubusercontent.com/u/2346494?v=4",
                "events_url": "https://api.github.com/users/rom1504/events{/privacy}",
                "followers_url": "https://api.github.com/users/rom1504/followers",
                "following_url": "https://api.github.com/users/rom1504/following{/other_user}",
                "gists_url": "https://api.github.com/users/rom1504/gists{/gist_id}",
                "gravatar_id": "",
                "html_url": "https://github.com/rom1504",
                "id": 2346494,
                "login": "rom1504",
                "node_id": "MDQ6VXNlcjIzNDY0OTQ=",
                "organizations_url": "https://api.github.com/users/rom1504/orgs",
                "received_events_url": "https://api.github.com/users/rom1504/received_events",
                "repos_url": "https://api.github.com/users/rom1504/repos",
                "site_admin": false,
                "starred_url": "https://api.github.com/users/rom1504/starred{/owner}{/repo}",
                "subscriptions_url": "https://api.github.com/users/rom1504/subscriptions",
                "type": "User",
                "url": "https://api.github.com/users/rom1504"
            }
        },
        {
            "_links": {
                "html": {
                    "href": "https://github.com/PrismarineJS/mineflayer/pull/1148#discussion_r455520537"
                },
                "pull_request": {
                    "href": "https://api.github.com/repos/PrismarineJS/mineflayer/pulls/1148"
                },
                "self": {
                    "href": "https://api.github.com/repos/PrismarineJS/mineflayer/pulls/comments/455520537"
                }
            },
            "author_association": "CONTRIBUTOR",
            "body": "Changed it.\r\nI guess my confusion came from the fact that anonymous functions assigned to a variable are still anonymous, while I thought they weren't.\r\nThank for clearing it up.",
            "commit_id": "fb8fb9b913019f67caf85e7152c6ea628344eaa7",
            "created_at": "2020-07-16T05:35:50Z",
            "diff_hunk": "@@ -425,7 +425,7 @@ To remove specific listener you can use `bot.removeListener()` method.\n - `bot.once(eventName, listener)`\n   Execute the `listener` function, only once, the first time the event named `eventName` triggered.\n - `bot.removeListener(eventName, listener)`\n-  Removes the specified `listener` for the event named `eventName`. This will not work with annonymous functions, as they don't have a name.\n+  Removes the specified `listener` for the event named `eventName`. This will only work with named functions `function myNamedFunc() {}`",
            "html_url": "https://github.com/PrismarineJS/mineflayer/pull/1148#discussion_r455520537",
            "id": 455520537,
            "in_reply_to_id": 454716622,
            "line": null,
            "node_id": "MDI0OlB1bGxSZXF1ZXN0UmV2aWV3Q29tbWVudDQ1NTUyMDUzNw==",
            "original_commit_id": "1f2955b232618f3fbc85793134bdc3aba7d859f8",
            "original_line": 428,
            "original_position": 5,
            "original_start_line": null,
            "path": "docs/tutorial.md",
            "position": null,
            "pull_request_review_id": 449519013,
            "pull_request_url": "https://api.github.com/repos/PrismarineJS/mineflayer/pulls/1148",
            "reactions": {
                "+1": 0,
                "-1": 0,
                "confused": 0,
                "eyes": 0,
                "heart": 0,
                "hooray": 0,
                "laugh": 0,
                "rocket": 0,
                "total_count": 0,
                "url": "https://api.github.com/repos/PrismarineJS/mineflayer/pulls/comments/455520537/reactions"
            },
            "side": "RIGHT",
            "start_line": null,
            "start_side": null,
            "subject_type": "line",
            "updated_at": "2020-07-16T05:35:50Z",
            "url": "https://api.github.com/repos/PrismarineJS/mineflayer/pulls/comments/455520537",
            "user": {
                "avatar_url": "https://avatars.githubusercontent.com/u/67819345?v=4",
                "events_url": "https://api.github.com/users/Naomi-alt/events{/privacy}",
                "followers_url": "https://api.github.com/users/Naomi-alt/followers",
                "following_url": "https://api.github.com/users/Naomi-alt/following{/other_user}",
                "gists_url": "https://api.github.com/users/Naomi-alt/gists{/gist_id}",
                "gravatar_id": "",
                "html_url": "https://github.com/Naomi-alt",
                "id": 67819345,
                "login": "Naomi-alt",
                "node_id": "MDQ6VXNlcjY3ODE5MzQ1",
                "organizations_url": "https://api.github.com/users/Naomi-alt/orgs",
                "received_events_url": "https://api.github.com/users/Naomi-alt/received_events",
                "repos_url": "https://api.github.com/users/Naomi-alt/repos",
                "site_admin": false,
                "starred_url": "https://api.github.com/users/Naomi-alt/starred{/owner}{/repo}",
                "subscriptions_url": "https://api.github.com/users/Naomi-alt/subscriptions",
                "type": "User",
                "url": "https://api.github.com/users/Naomi-alt"
            }
        }
    ],
    "comment_regular_data": [],
    "comments": 0,
    "comments_url": "https://api.github.com/repos/PrismarineJS/mineflayer/issues/1148/comments",
    "commit_data": [
        {
            "author": {
                "avatar_url": "https://avatars.githubusercontent.com/u/67819345?v=4",
                "events_url": "https://api.github.com/users/Naomi-alt/events{/privacy}",
                "followers_url": "https://api.github.com/users/Naomi-alt/followers",
                "following_url": "https://api.github.com/users/Naomi-alt/following{/other_user}",
                "gists_url": "https://api.github.com/users/Naomi-alt/gists{/gist_id}",
                "gravatar_id": "",
                "html_url": "https://github.com/Naomi-alt",
                "id": 67819345,
                "login": "Naomi-alt",
                "node_id": "MDQ6VXNlcjY3ODE5MzQ1",
                "organizations_url": "https://api.github.com/users/Naomi-alt/orgs",
                "received_events_url": "https://api.github.com/users/Naomi-alt/received_events",
                "repos_url": "https://api.github.com/users/Naomi-alt/repos",
                "site_admin": false,
                "starred_url": "https://api.github.com/users/Naomi-alt/starred{/owner}{/repo}",
                "subscriptions_url": "https://api.github.com/users/Naomi-alt/subscriptions",
                "type": "User",
                "url": "https://api.github.com/users/Naomi-alt"
            },
            "comments_url": "https://api.github.com/repos/PrismarineJS/mineflayer/commits/f39b030724493abbb19375e34e3e6673b79e0d1a/comments",
            "commit": {
                "author": {
                    "date": "2020-07-14T11:47:06Z",
                    "email": "103967@gmail.com",
                    "name": "Naomi"
                },
                "comment_count": 0,
                "committer": {
                    "date": "2020-07-14T11:47:06Z",
                    "email": "103967@gmail.com",
                    "name": "Naomi"
                },
                "message": "Fix typo and small improvements based on feedback",
                "tree": {
                    "sha": "3ea316b60463d2e8a5760204d7e1af3296ecd143",
                    "url": "https://api.github.com/repos/PrismarineJS/mineflayer/git/trees/3ea316b60463d2e8a5760204d7e1af3296ecd143"
                },
                "url": "https://api.github.com/repos/PrismarineJS/mineflayer/git/commits/f39b030724493abbb19375e34e3e6673b79e0d1a",
                "verification": {
                    "payload": null,
                    "reason": "unsigned",
                    "signature": null,
                    "verified": false
                }
            },
            "committer": {
                "avatar_url": "https://avatars.githubusercontent.com/u/67819345?v=4",
                "events_url": "https://api.github.com/users/Naomi-alt/events{/privacy}",
                "followers_url": "https://api.github.com/users/Naomi-alt/followers",
                "following_url": "https://api.github.com/users/Naomi-alt/following{/other_user}",
                "gists_url": "https://api.github.com/users/Naomi-alt/gists{/gist_id}",
                "gravatar_id": "",
                "html_url": "https://github.com/Naomi-alt",
                "id": 67819345,
                "login": "Naomi-alt",
                "node_id": "MDQ6VXNlcjY3ODE5MzQ1",
                "organizations_url": "https://api.github.com/users/Naomi-alt/orgs",
                "received_events_url": "https://api.github.com/users/Naomi-alt/received_events",
                "repos_url": "https://api.github.com/users/Naomi-alt/repos",
                "site_admin": false,
                "starred_url": "https://api.github.com/users/Naomi-alt/starred{/owner}{/repo}",
                "subscriptions_url": "https://api.github.com/users/Naomi-alt/subscriptions",
                "type": "User",
                "url": "https://api.github.com/users/Naomi-alt"
            },
            "html_url": "https://github.com/PrismarineJS/mineflayer/commit/f39b030724493abbb19375e34e3e6673b79e0d1a",
            "node_id": "MDY6Q29tbWl0Mjc4NTk0NjA5OmYzOWIwMzA3MjQ0OTNhYmJiMTkzNzVlMzRlM2U2NjczYjc5ZTBkMWE=",
            "parents": [
                {
                    "html_url": "https://github.com/PrismarineJS/mineflayer/commit/a9a9648815ea2da44b860169529210d35a1749f8",
                    "sha": "a9a9648815ea2da44b860169529210d35a1749f8",
                    "url": "https://api.github.com/repos/PrismarineJS/mineflayer/commits/a9a9648815ea2da44b860169529210d35a1749f8"
                }
            ],
            "sha": "f39b030724493abbb19375e34e3e6673b79e0d1a",
            "url": "https://api.github.com/repos/PrismarineJS/mineflayer/commits/f39b030724493abbb19375e34e3e6673b79e0d1a"
        },
        {
            "author": {
                "avatar_url": "https://avatars.githubusercontent.com/u/67819345?v=4",
                "events_url": "https://api.github.com/users/Naomi-alt/events{/privacy}",
                "followers_url": "https://api.github.com/users/Naomi-alt/followers",
                "following_url": "https://api.github.com/users/Naomi-alt/following{/other_user}",
                "gists_url": "https://api.github.com/users/Naomi-alt/gists{/gist_id}",
                "gravatar_id": "",
                "html_url": "https://github.com/Naomi-alt",
                "id": 67819345,
                "login": "Naomi-alt",
                "node_id": "MDQ6VXNlcjY3ODE5MzQ1",
                "organizations_url": "https://api.github.com/users/Naomi-alt/orgs",
                "received_events_url": "https://api.github.com/users/Naomi-alt/received_events",
                "repos_url": "https://api.github.com/users/Naomi-alt/repos",
                "site_admin": false,
                "starred_url": "https://api.github.com/users/Naomi-alt/starred{/owner}{/repo}",
                "subscriptions_url": "https://api.github.com/users/Naomi-alt/subscriptions",
                "type": "User",
                "url": "https://api.github.com/users/Naomi-alt"
            },
            "comments_url": "https://api.github.com/repos/PrismarineJS/mineflayer/commits/1f2955b232618f3fbc85793134bdc3aba7d859f8/comments",
            "commit": {
                "author": {
                    "date": "2020-07-14T16:49:01Z",
                    "email": "103967@gmail.com",
                    "name": "Naomi"
                },
                "comment_count": 0,
                "committer": {
                    "date": "2020-07-14T16:49:01Z",
                    "email": "103967@gmail.com",
                    "name": "Naomi"
                },
                "message": "Change error handling and removeListener in tutorial",
                "tree": {
                    "sha": "2633e752b2d2d6e23af44cb0bf05ab2c44e18d6b",
                    "url": "https://api.github.com/repos/PrismarineJS/mineflayer/git/trees/2633e752b2d2d6e23af44cb0bf05ab2c44e18d6b"
                },
                "url": "https://api.github.com/repos/PrismarineJS/mineflayer/git/commits/1f2955b232618f3fbc85793134bdc3aba7d859f8",
                "verification": {
                    "payload": null,
                    "reason": "unsigned",
                    "signature": null,
                    "verified": false
                }
            },
            "committer": {
                "avatar_url": "https://avatars.githubusercontent.com/u/67819345?v=4",
                "events_url": "https://api.github.com/users/Naomi-alt/events{/privacy}",
                "followers_url": "https://api.github.com/users/Naomi-alt/followers",
                "following_url": "https://api.github.com/users/Naomi-alt/following{/other_user}",
                "gists_url": "https://api.github.com/users/Naomi-alt/gists{/gist_id}",
                "gravatar_id": "",
                "html_url": "https://github.com/Naomi-alt",
                "id": 67819345,
                "login": "Naomi-alt",
                "node_id": "MDQ6VXNlcjY3ODE5MzQ1",
                "organizations_url": "https://api.github.com/users/Naomi-alt/orgs",
                "received_events_url": "https://api.github.com/users/Naomi-alt/received_events",
                "repos_url": "https://api.github.com/users/Naomi-alt/repos",
                "site_admin": false,
                "starred_url": "https://api.github.com/users/Naomi-alt/starred{/owner}{/repo}",
                "subscriptions_url": "https://api.github.com/users/Naomi-alt/subscriptions",
                "type": "User",
                "url": "https://api.github.com/users/Naomi-alt"
            },
            "html_url": "https://github.com/PrismarineJS/mineflayer/commit/1f2955b232618f3fbc85793134bdc3aba7d859f8",
            "node_id": "MDY6Q29tbWl0Mjc4NTk0NjA5OjFmMjk1NWIyMzI2MThmM2ZiYzg1NzkzMTM0YmRjM2FiYTdkODU5Zjg=",
            "parents": [
                {
                    "html_url": "https://github.com/PrismarineJS/mineflayer/commit/f39b030724493abbb19375e34e3e6673b79e0d1a",
                    "sha": "f39b030724493abbb19375e34e3e6673b79e0d1a",
                    "url": "https://api.github.com/repos/PrismarineJS/mineflayer/commits/f39b030724493abbb19375e34e3e6673b79e0d1a"
                }
            ],
            "sha": "1f2955b232618f3fbc85793134bdc3aba7d859f8",
            "url": "https://api.github.com/repos/PrismarineJS/mineflayer/commits/1f2955b232618f3fbc85793134bdc3aba7d859f8"
        },
        {
            "author": {
                "avatar_url": "https://avatars.githubusercontent.com/u/67819345?v=4",
                "events_url": "https://api.github.com/users/Naomi-alt/events{/privacy}",
                "followers_url": "https://api.github.com/users/Naomi-alt/followers",
                "following_url": "https://api.github.com/users/Naomi-alt/following{/other_user}",
                "gists_url": "https://api.github.com/users/Naomi-alt/gists{/gist_id}",
                "gravatar_id": "",
                "html_url": "https://github.com/Naomi-alt",
                "id": 67819345,
                "login": "Naomi-alt",
                "node_id": "MDQ6VXNlcjY3ODE5MzQ1",
                "organizations_url": "https://api.github.com/users/Naomi-alt/orgs",
                "received_events_url": "https://api.github.com/users/Naomi-alt/received_events",
                "repos_url": "https://api.github.com/users/Naomi-alt/repos",
                "site_admin": false,
                "starred_url": "https://api.github.com/users/Naomi-alt/starred{/owner}{/repo}",
                "subscriptions_url": "https://api.github.com/users/Naomi-alt/subscriptions",
                "type": "User",
                "url": "https://api.github.com/users/Naomi-alt"
            },
            "comments_url": "https://api.github.com/repos/PrismarineJS/mineflayer/commits/fb8fb9b913019f67caf85e7152c6ea628344eaa7/comments",
            "commit": {
                "author": {
                    "date": "2020-07-16T05:33:15Z",
                    "email": "103967@gmail.com",
                    "name": "Naomi"
                },
                "comment_count": 0,
                "committer": {
                    "date": "2020-07-16T05:33:15Z",
                    "email": "103967@gmail.com",
                    "name": "Naomi"
                },
                "message": "Improve removeListener explanation",
                "tree": {
                    "sha": "b6c76075811171152073027ddb13cfc2530c4a73",
                    "url": "https://api.github.com/repos/PrismarineJS/mineflayer/git/trees/b6c76075811171152073027ddb13cfc2530c4a73"
                },
                "url": "https://api.github.com/repos/PrismarineJS/mineflayer/git/commits/fb8fb9b913019f67caf85e7152c6ea628344eaa7",
                "verification": {
                    "payload": null,
                    "reason": "unsigned",
                    "signature": null,
                    "verified": false
                }
            },
            "committer": {
                "avatar_url": "https://avatars.githubusercontent.com/u/67819345?v=4",
                "events_url": "https://api.github.com/users/Naomi-alt/events{/privacy}",
                "followers_url": "https://api.github.com/users/Naomi-alt/followers",
                "following_url": "https://api.github.com/users/Naomi-alt/following{/other_user}",
                "gists_url": "https://api.github.com/users/Naomi-alt/gists{/gist_id}",
                "gravatar_id": "",
                "html_url": "https://github.com/Naomi-alt",
                "id": 67819345,
                "login": "Naomi-alt",
                "node_id": "MDQ6VXNlcjY3ODE5MzQ1",
                "organizations_url": "https://api.github.com/users/Naomi-alt/orgs",
                "received_events_url": "https://api.github.com/users/Naomi-alt/received_events",
                "repos_url": "https://api.github.com/users/Naomi-alt/repos",
                "site_admin": false,
                "starred_url": "https://api.github.com/users/Naomi-alt/starred{/owner}{/repo}",
                "subscriptions_url": "https://api.github.com/users/Naomi-alt/subscriptions",
                "type": "User",
                "url": "https://api.github.com/users/Naomi-alt"
            },
            "html_url": "https://github.com/PrismarineJS/mineflayer/commit/fb8fb9b913019f67caf85e7152c6ea628344eaa7",
            "node_id": "MDY6Q29tbWl0Mjc4NTk0NjA5OmZiOGZiOWI5MTMwMTlmNjdjYWY4NWU3MTUyYzZlYTYyODM0NGVhYTc=",
            "parents": [
                {
                    "html_url": "https://github.com/PrismarineJS/mineflayer/commit/1f2955b232618f3fbc85793134bdc3aba7d859f8",
                    "sha": "1f2955b232618f3fbc85793134bdc3aba7d859f8",
                    "url": "https://api.github.com/repos/PrismarineJS/mineflayer/commits/1f2955b232618f3fbc85793134bdc3aba7d859f8"
                }
            ],
            "sha": "fb8fb9b913019f67caf85e7152c6ea628344eaa7",
            "url": "https://api.github.com/repos/PrismarineJS/mineflayer/commits/fb8fb9b913019f67caf85e7152c6ea628344eaa7"
        }
    ],
    "commits": 3,
    "commits_url": "https://api.github.com/repos/PrismarineJS/mineflayer/pulls/1148/commits",
    "created_at": "2020-07-14T11:49:18Z",
    "deletions": 16,
    "diff_url": "https://github.com/PrismarineJS/mineflayer/pull/1148.diff",
    "draft": false,
    "head": {
        "label": "Naomi-alt:feature-improve-tutorial",
        "ref": "feature-improve-tutorial",
        "repo": {
            "allow_forking": true,
            "archive_url": "https://api.github.com/repos/Naomi-alt/mineflayer/{archive_format}{/ref}",
            "archived": false,
            "assignees_url": "https://api.github.com/repos/Naomi-alt/mineflayer/assignees{/user}",
            "blobs_url": "https://api.github.com/repos/Naomi-alt/mineflayer/git/blobs{/sha}",
            "branches_url": "https://api.github.com/repos/Naomi-alt/mineflayer/branches{/branch}",
            "clone_url": "https://github.com/Naomi-alt/mineflayer.git",
            "collaborators_url": "https://api.github.com/repos/Naomi-alt/mineflayer/collaborators{/collaborator}",
            "comments_url": "https://api.github.com/repos/Naomi-alt/mineflayer/comments{/number}",
            "commits_url": "https://api.github.com/repos/Naomi-alt/mineflayer/commits{/sha}",
            "compare_url": "https://api.github.com/repos/Naomi-alt/mineflayer/compare/{base}...{head}",
            "contents_url": "https://api.github.com/repos/Naomi-alt/mineflayer/contents/{+path}",
            "contributors_url": "https://api.github.com/repos/Naomi-alt/mineflayer/contributors",
            "created_at": "2020-07-10T09:32:43Z",
            "default_branch": "master",
            "deployments_url": "https://api.github.com/repos/Naomi-alt/mineflayer/deployments",
            "description": "Create Minecraft bots with a powerful, stable, and high level JavaScript API.",
            "disabled": false,
            "downloads_url": "https://api.github.com/repos/Naomi-alt/mineflayer/downloads",
            "events_url": "https://api.github.com/repos/Naomi-alt/mineflayer/events",
            "fork": true,
            "forks": 0,
            "forks_count": 0,
            "forks_url": "https://api.github.com/repos/Naomi-alt/mineflayer/forks",
            "full_name": "Naomi-alt/mineflayer",
            "git_commits_url": "https://api.github.com/repos/Naomi-alt/mineflayer/git/commits{/sha}",
            "git_refs_url": "https://api.github.com/repos/Naomi-alt/mineflayer/git/refs{/sha}",
            "git_tags_url": "https://api.github.com/repos/Naomi-alt/mineflayer/git/tags{/sha}",
            "git_url": "git://github.com/Naomi-alt/mineflayer.git",
            "has_discussions": false,
            "has_downloads": true,
            "has_issues": false,
            "has_pages": false,
            "has_projects": true,
            "has_wiki": true,
            "homepage": "https://mineflayer.prismarine.js.org",
            "hooks_url": "https://api.github.com/repos/Naomi-alt/mineflayer/hooks",
            "html_url": "https://github.com/Naomi-alt/mineflayer",
            "id": 278594609,
            "is_template": false,
            "issue_comment_url": "https://api.github.com/repos/Naomi-alt/mineflayer/issues/comments{/number}",
            "issue_events_url": "https://api.github.com/repos/Naomi-alt/mineflayer/issues/events{/number}",
            "issues_url": "https://api.github.com/repos/Naomi-alt/mineflayer/issues{/number}",
            "keys_url": "https://api.github.com/repos/Naomi-alt/mineflayer/keys{/key_id}",
            "labels_url": "https://api.github.com/repos/Naomi-alt/mineflayer/labels{/name}",
            "language": "JavaScript",
            "languages_url": "https://api.github.com/repos/Naomi-alt/mineflayer/languages",
            "license": {
                "key": "mit",
                "name": "MIT License",
                "node_id": "MDc6TGljZW5zZTEz",
                "spdx_id": "MIT",
                "url": "https://api.github.com/licenses/mit"
            },
            "merges_url": "https://api.github.com/repos/Naomi-alt/mineflayer/merges",
            "milestones_url": "https://api.github.com/repos/Naomi-alt/mineflayer/milestones{/number}",
            "mirror_url": null,
            "name": "mineflayer",
            "node_id": "MDEwOlJlcG9zaXRvcnkyNzg1OTQ2MDk=",
            "notifications_url": "https://api.github.com/repos/Naomi-alt/mineflayer/notifications{?since,all,participating}",
            "open_issues": 0,
            "open_issues_count": 0,
            "owner": {
                "avatar_url": "https://avatars.githubusercontent.com/u/67819345?v=4",
                "events_url": "https://api.github.com/users/Naomi-alt/events{/privacy}",
                "followers_url": "https://api.github.com/users/Naomi-alt/followers",
                "following_url": "https://api.github.com/users/Naomi-alt/following{/other_user}",
                "gists_url": "https://api.github.com/users/Naomi-alt/gists{/gist_id}",
                "gravatar_id": "",
                "html_url": "https://github.com/Naomi-alt",
                "id": 67819345,
                "login": "Naomi-alt",
                "node_id": "MDQ6VXNlcjY3ODE5MzQ1",
                "organizations_url": "https://api.github.com/users/Naomi-alt/orgs",
                "received_events_url": "https://api.github.com/users/Naomi-alt/received_events",
                "repos_url": "https://api.github.com/users/Naomi-alt/repos",
                "site_admin": false,
                "starred_url": "https://api.github.com/users/Naomi-alt/starred{/owner}{/repo}",
                "subscriptions_url": "https://api.github.com/users/Naomi-alt/subscriptions",
                "type": "User",
                "url": "https://api.github.com/users/Naomi-alt"
            },
            "private": false,
            "pulls_url": "https://api.github.com/repos/Naomi-alt/mineflayer/pulls{/number}",
            "pushed_at": "2020-12-30T12:36:54Z",
            "releases_url": "https://api.github.com/repos/Naomi-alt/mineflayer/releases{/id}",
            "size": 11339,
            "ssh_url": "git@github.com:Naomi-alt/mineflayer.git",
            "stargazers_count": 0,
            "stargazers_url": "https://api.github.com/repos/Naomi-alt/mineflayer/stargazers",
            "statuses_url": "https://api.github.com/repos/Naomi-alt/mineflayer/statuses/{sha}",
            "subscribers_url": "https://api.github.com/repos/Naomi-alt/mineflayer/subscribers",
            "subscription_url": "https://api.github.com/repos/Naomi-alt/mineflayer/subscription",
            "svn_url": "https://github.com/Naomi-alt/mineflayer",
            "tags_url": "https://api.github.com/repos/Naomi-alt/mineflayer/tags",
            "teams_url": "https://api.github.com/repos/Naomi-alt/mineflayer/teams",
            "topics": [],
            "trees_url": "https://api.github.com/repos/Naomi-alt/mineflayer/git/trees{/sha}",
            "updated_at": "2020-12-30T12:36:56Z",
            "url": "https://api.github.com/repos/Naomi-alt/mineflayer",
            "visibility": "public",
            "watchers": 0,
            "watchers_count": 0,
            "web_commit_signoff_required": false
        },
        "sha": "fb8fb9b913019f67caf85e7152c6ea628344eaa7",
        "user": {
            "avatar_url": "https://avatars.githubusercontent.com/u/67819345?v=4",
            "events_url": "https://api.github.com/users/Naomi-alt/events{/privacy}",
            "followers_url": "https://api.github.com/users/Naomi-alt/followers",
            "following_url": "https://api.github.com/users/Naomi-alt/following{/other_user}",
            "gists_url": "https://api.github.com/users/Naomi-alt/gists{/gist_id}",
            "gravatar_id": "",
            "html_url": "https://github.com/Naomi-alt",
            "id": 67819345,
            "login": "Naomi-alt",
            "node_id": "MDQ6VXNlcjY3ODE5MzQ1",
            "organizations_url": "https://api.github.com/users/Naomi-alt/orgs",
            "received_events_url": "https://api.github.com/users/Naomi-alt/received_events",
            "repos_url": "https://api.github.com/users/Naomi-alt/repos",
            "site_admin": false,
            "starred_url": "https://api.github.com/users/Naomi-alt/starred{/owner}{/repo}",
            "subscriptions_url": "https://api.github.com/users/Naomi-alt/subscriptions",
            "type": "User",
            "url": "https://api.github.com/users/Naomi-alt"
        }
    },
    "html_url": "https://github.com/PrismarineJS/mineflayer/pull/1148",
    "id": 448830968,
    "issue_url": "https://api.github.com/repos/PrismarineJS/mineflayer/issues/1148",
    "labels": [],
    "locked": false,
    "maintainer_can_modify": false,
    "merge_commit_sha": "db3140d823377b1e2a8ae2d3b90a9604f65b786b",
    "mergeable": null,
    "mergeable_state": "unknown",
    "merged": true,
    "merged_at": "2020-07-16T07:44:33Z",
    "merged_by": {
        "avatar_url": "https://avatars.githubusercontent.com/u/2346494?v=4",
        "events_url": "https://api.github.com/users/rom1504/events{/privacy}",
        "followers_url": "https://api.github.com/users/rom1504/followers",
        "following_url": "https://api.github.com/users/rom1504/following{/other_user}",
        "gists_url": "https://api.github.com/users/rom1504/gists{/gist_id}",
        "gravatar_id": "",
        "html_url": "https://github.com/rom1504",
        "id": 2346494,
        "login": "rom1504",
        "node_id": "MDQ6VXNlcjIzNDY0OTQ=",
        "organizations_url": "https://api.github.com/users/rom1504/orgs",
        "received_events_url": "https://api.github.com/users/rom1504/received_events",
        "repos_url": "https://api.github.com/users/rom1504/repos",
        "site_admin": false,
        "starred_url": "https://api.github.com/users/rom1504/starred{/owner}{/repo}",
        "subscriptions_url": "https://api.github.com/users/rom1504/subscriptions",
        "type": "User",
        "url": "https://api.github.com/users/rom1504"
    },
    "milestone": null,
    "node_id": "MDExOlB1bGxSZXF1ZXN0NDQ4ODMwOTY4",
    "number": 1148,
    "patch_url": "https://github.com/PrismarineJS/mineflayer/pull/1148.patch",
    "rebaseable": null,
    "requested_reviewers": [],
    "requested_teams": [],
    "review_comment_url": "https://api.github.com/repos/PrismarineJS/mineflayer/pulls/comments{/number}",
    "review_comments": 11,
    "review_comments_url": "https://api.github.com/repos/PrismarineJS/mineflayer/pulls/1148/comments",
    "state": "closed",
    "statuses_url": "https://api.github.com/repos/PrismarineJS/mineflayer/statuses/fb8fb9b913019f67caf85e7152c6ea628344eaa7",
    "title": "Fix typo and small improvements based on feedback for the tutorial",
    "updated_at": "2020-07-16T07:44:33Z",
    "url": "https://api.github.com/repos/PrismarineJS/mineflayer/pulls/1148",
    "user": {
        "avatar_url": "https://avatars.githubusercontent.com/u/67819345?v=4",
        "events_url": "https://api.github.com/users/Naomi-alt/events{/privacy}",
        "followers_url": "https://api.github.com/users/Naomi-alt/followers",
        "following_url": "https://api.github.com/users/Naomi-alt/following{/other_user}",
        "gists_url": "https://api.github.com/users/Naomi-alt/gists{/gist_id}",
        "gravatar_id": "",
        "html_url": "https://github.com/Naomi-alt",
        "id": 67819345,
        "login": "Naomi-alt",
        "node_id": "MDQ6VXNlcjY3ODE5MzQ1",
        "organizations_url": "https://api.github.com/users/Naomi-alt/orgs",
        "received_events_url": "https://api.github.com/users/Naomi-alt/received_events",
        "repos_url": "https://api.github.com/users/Naomi-alt/repos",
        "site_admin": false,
        "starred_url": "https://api.github.com/users/Naomi-alt/starred{/owner}{/repo}",
        "subscriptions_url": "https://api.github.com/users/Naomi-alt/subscriptions",
        "type": "User",
        "url": "https://api.github.com/users/Naomi-alt"
    }
}