{
    "_links": {
        "comments": {
            "href": "https://api.github.com/repos/PrismarineJS/mineflayer/issues/1236/comments"
        },
        "commits": {
            "href": "https://api.github.com/repos/PrismarineJS/mineflayer/pulls/1236/commits"
        },
        "html": {
            "href": "https://github.com/PrismarineJS/mineflayer/pull/1236"
        },
        "issue": {
            "href": "https://api.github.com/repos/PrismarineJS/mineflayer/issues/1236"
        },
        "review_comment": {
            "href": "https://api.github.com/repos/PrismarineJS/mineflayer/pulls/comments{/number}"
        },
        "review_comments": {
            "href": "https://api.github.com/repos/PrismarineJS/mineflayer/pulls/1236/comments"
        },
        "self": {
            "href": "https://api.github.com/repos/PrismarineJS/mineflayer/pulls/1236"
        },
        "statuses": {
            "href": "https://api.github.com/repos/PrismarineJS/mineflayer/statuses/60fa8b8aaa242c8475bfdc90adfb1c294d7bd1d3"
        }
    },
    "active_lock_reason": null,
    "additions": 97,
    "assignee": null,
    "assignees": [],
    "author_association": "CONTRIBUTOR",
    "auto_merge": null,
    "base": {
        "label": "PrismarineJS:master",
        "ref": "master",
        "repo": {
            "allow_forking": true,
            "archive_url": "https://api.github.com/repos/PrismarineJS/mineflayer/{archive_format}{/ref}",
            "archived": false,
            "assignees_url": "https://api.github.com/repos/PrismarineJS/mineflayer/assignees{/user}",
            "blobs_url": "https://api.github.com/repos/PrismarineJS/mineflayer/git/blobs{/sha}",
            "branches_url": "https://api.github.com/repos/PrismarineJS/mineflayer/branches{/branch}",
            "clone_url": "https://github.com/PrismarineJS/mineflayer.git",
            "collaborators_url": "https://api.github.com/repos/PrismarineJS/mineflayer/collaborators{/collaborator}",
            "comments_url": "https://api.github.com/repos/PrismarineJS/mineflayer/comments{/number}",
            "commits_url": "https://api.github.com/repos/PrismarineJS/mineflayer/commits{/sha}",
            "compare_url": "https://api.github.com/repos/PrismarineJS/mineflayer/compare/{base}...{head}",
            "contents_url": "https://api.github.com/repos/PrismarineJS/mineflayer/contents/{+path}",
            "contributors_url": "https://api.github.com/repos/PrismarineJS/mineflayer/contributors",
            "created_at": "2011-01-23T09:41:55Z",
            "default_branch": "master",
            "deployments_url": "https://api.github.com/repos/PrismarineJS/mineflayer/deployments",
            "description": "Create Minecraft bots with a powerful, stable, and high level JavaScript API.",
            "disabled": false,
            "downloads_url": "https://api.github.com/repos/PrismarineJS/mineflayer/downloads",
            "events_url": "https://api.github.com/repos/PrismarineJS/mineflayer/events",
            "fork": false,
            "forks": 748,
            "forks_count": 748,
            "forks_url": "https://api.github.com/repos/PrismarineJS/mineflayer/forks",
            "full_name": "PrismarineJS/mineflayer",
            "git_commits_url": "https://api.github.com/repos/PrismarineJS/mineflayer/git/commits{/sha}",
            "git_refs_url": "https://api.github.com/repos/PrismarineJS/mineflayer/git/refs{/sha}",
            "git_tags_url": "https://api.github.com/repos/PrismarineJS/mineflayer/git/tags{/sha}",
            "git_url": "git://github.com/PrismarineJS/mineflayer.git",
            "has_discussions": true,
            "has_downloads": true,
            "has_issues": true,
            "has_pages": true,
            "has_projects": true,
            "has_wiki": true,
            "homepage": "https://prismarinejs.github.io/mineflayer/",
            "hooks_url": "https://api.github.com/repos/PrismarineJS/mineflayer/hooks",
            "html_url": "https://github.com/PrismarineJS/mineflayer",
            "id": 1284185,
            "is_template": false,
            "issue_comment_url": "https://api.github.com/repos/PrismarineJS/mineflayer/issues/comments{/number}",
            "issue_events_url": "https://api.github.com/repos/PrismarineJS/mineflayer/issues/events{/number}",
            "issues_url": "https://api.github.com/repos/PrismarineJS/mineflayer/issues{/number}",
            "keys_url": "https://api.github.com/repos/PrismarineJS/mineflayer/keys{/key_id}",
            "labels_url": "https://api.github.com/repos/PrismarineJS/mineflayer/labels{/name}",
            "language": "JavaScript",
            "languages_url": "https://api.github.com/repos/PrismarineJS/mineflayer/languages",
            "license": {
                "key": "mit",
                "name": "MIT License",
                "node_id": "MDc6TGljZW5zZTEz",
                "spdx_id": "MIT",
                "url": "https://api.github.com/licenses/mit"
            },
            "merges_url": "https://api.github.com/repos/PrismarineJS/mineflayer/merges",
            "milestones_url": "https://api.github.com/repos/PrismarineJS/mineflayer/milestones{/number}",
            "mirror_url": null,
            "name": "mineflayer",
            "node_id": "MDEwOlJlcG9zaXRvcnkxMjg0MTg1",
            "notifications_url": "https://api.github.com/repos/PrismarineJS/mineflayer/notifications{?since,all,participating}",
            "open_issues": 269,
            "open_issues_count": 269,
            "owner": {
                "avatar_url": "https://avatars.githubusercontent.com/u/11053411?v=4",
                "events_url": "https://api.github.com/users/PrismarineJS/events{/privacy}",
                "followers_url": "https://api.github.com/users/PrismarineJS/followers",
                "following_url": "https://api.github.com/users/PrismarineJS/following{/other_user}",
                "gists_url": "https://api.github.com/users/PrismarineJS/gists{/gist_id}",
                "gravatar_id": "",
                "html_url": "https://github.com/PrismarineJS",
                "id": 11053411,
                "login": "PrismarineJS",
                "node_id": "MDEyOk9yZ2FuaXphdGlvbjExMDUzNDEx",
                "organizations_url": "https://api.github.com/users/PrismarineJS/orgs",
                "received_events_url": "https://api.github.com/users/PrismarineJS/received_events",
                "repos_url": "https://api.github.com/users/PrismarineJS/repos",
                "site_admin": false,
                "starred_url": "https://api.github.com/users/PrismarineJS/starred{/owner}{/repo}",
                "subscriptions_url": "https://api.github.com/users/PrismarineJS/subscriptions",
                "type": "Organization",
                "url": "https://api.github.com/users/PrismarineJS"
            },
            "private": false,
            "pulls_url": "https://api.github.com/repos/PrismarineJS/mineflayer/pulls{/number}",
            "pushed_at": "2023-04-25T00:44:52Z",
            "releases_url": "https://api.github.com/repos/PrismarineJS/mineflayer/releases{/id}",
            "size": 12493,
            "ssh_url": "git@github.com:PrismarineJS/mineflayer.git",
            "stargazers_count": 3698,
            "stargazers_url": "https://api.github.com/repos/PrismarineJS/mineflayer/stargazers",
            "statuses_url": "https://api.github.com/repos/PrismarineJS/mineflayer/statuses/{sha}",
            "subscribers_url": "https://api.github.com/repos/PrismarineJS/mineflayer/subscribers",
            "subscription_url": "https://api.github.com/repos/PrismarineJS/mineflayer/subscription",
            "svn_url": "https://github.com/PrismarineJS/mineflayer",
            "tags_url": "https://api.github.com/repos/PrismarineJS/mineflayer/tags",
            "teams_url": "https://api.github.com/repos/PrismarineJS/mineflayer/teams",
            "topics": [
                "bot",
                "minecraft",
                "minecraft-api",
                "minecraft-bot",
                "network",
                "nodejs"
            ],
            "trees_url": "https://api.github.com/repos/PrismarineJS/mineflayer/git/trees{/sha}",
            "updated_at": "2023-04-25T14:07:03Z",
            "url": "https://api.github.com/repos/PrismarineJS/mineflayer",
            "visibility": "public",
            "watchers": 3698,
            "watchers_count": 3698,
            "web_commit_signoff_required": false
        },
        "sha": "fe549f88476f3739c7952d91ec7fa603d9513414",
        "user": {
            "avatar_url": "https://avatars.githubusercontent.com/u/11053411?v=4",
            "events_url": "https://api.github.com/users/PrismarineJS/events{/privacy}",
            "followers_url": "https://api.github.com/users/PrismarineJS/followers",
            "following_url": "https://api.github.com/users/PrismarineJS/following{/other_user}",
            "gists_url": "https://api.github.com/users/PrismarineJS/gists{/gist_id}",
            "gravatar_id": "",
            "html_url": "https://github.com/PrismarineJS",
            "id": 11053411,
            "login": "PrismarineJS",
            "node_id": "MDEyOk9yZ2FuaXphdGlvbjExMDUzNDEx",
            "organizations_url": "https://api.github.com/users/PrismarineJS/orgs",
            "received_events_url": "https://api.github.com/users/PrismarineJS/received_events",
            "repos_url": "https://api.github.com/users/PrismarineJS/repos",
            "site_admin": false,
            "starred_url": "https://api.github.com/users/PrismarineJS/starred{/owner}{/repo}",
            "subscriptions_url": "https://api.github.com/users/PrismarineJS/subscriptions",
            "type": "Organization",
            "url": "https://api.github.com/users/PrismarineJS"
        }
    },
    "body": "Re-translated russian ReadMe and updated in same time",
    "changed_files": 1,
    "closed_at": "2020-08-13T17:13:40Z",
    "comment_data": [],
    "comment_regular_data": [
        {
            "author_association": "MEMBER",
            "body": "thanks",
            "created_at": "2020-08-13T17:13:31Z",
            "html_url": "https://github.com/PrismarineJS/mineflayer/pull/1236#issuecomment-673600425",
            "id": 673600425,
            "issue_url": "https://api.github.com/repos/PrismarineJS/mineflayer/issues/1236",
            "node_id": "MDEyOklzc3VlQ29tbWVudDY3MzYwMDQyNQ==",
            "performed_via_github_app": null,
            "reactions": {
                "+1": 0,
                "-1": 0,
                "confused": 0,
                "eyes": 0,
                "heart": 0,
                "hooray": 0,
                "laugh": 0,
                "rocket": 0,
                "total_count": 0,
                "url": "https://api.github.com/repos/PrismarineJS/mineflayer/issues/comments/673600425/reactions"
            },
            "updated_at": "2020-08-13T17:13:31Z",
            "url": "https://api.github.com/repos/PrismarineJS/mineflayer/issues/comments/673600425",
            "user": {
                "avatar_url": "https://avatars.githubusercontent.com/u/2346494?v=4",
                "events_url": "https://api.github.com/users/rom1504/events{/privacy}",
                "followers_url": "https://api.github.com/users/rom1504/followers",
                "following_url": "https://api.github.com/users/rom1504/following{/other_user}",
                "gists_url": "https://api.github.com/users/rom1504/gists{/gist_id}",
                "gravatar_id": "",
                "html_url": "https://github.com/rom1504",
                "id": 2346494,
                "login": "rom1504",
                "node_id": "MDQ6VXNlcjIzNDY0OTQ=",
                "organizations_url": "https://api.github.com/users/rom1504/orgs",
                "received_events_url": "https://api.github.com/users/rom1504/received_events",
                "repos_url": "https://api.github.com/users/rom1504/repos",
                "site_admin": false,
                "starred_url": "https://api.github.com/users/rom1504/starred{/owner}{/repo}",
                "subscriptions_url": "https://api.github.com/users/rom1504/subscriptions",
                "type": "User",
                "url": "https://api.github.com/users/rom1504"
            }
        }
    ],
    "comments": 1,
    "comments_url": "https://api.github.com/repos/PrismarineJS/mineflayer/issues/1236/comments",
    "commit_data": [
        {
            "author": {
                "avatar_url": "https://avatars.githubusercontent.com/u/68467762?v=4",
                "events_url": "https://api.github.com/users/TheAirBlow/events{/privacy}",
                "followers_url": "https://api.github.com/users/TheAirBlow/followers",
                "following_url": "https://api.github.com/users/TheAirBlow/following{/other_user}",
                "gists_url": "https://api.github.com/users/TheAirBlow/gists{/gist_id}",
                "gravatar_id": "",
                "html_url": "https://github.com/TheAirBlow",
                "id": 68467762,
                "login": "TheAirBlow",
                "node_id": "MDQ6VXNlcjY4NDY3NzYy",
                "organizations_url": "https://api.github.com/users/TheAirBlow/orgs",
                "received_events_url": "https://api.github.com/users/TheAirBlow/received_events",
                "repos_url": "https://api.github.com/users/TheAirBlow/repos",
                "site_admin": false,
                "starred_url": "https://api.github.com/users/TheAirBlow/starred{/owner}{/repo}",
                "subscriptions_url": "https://api.github.com/users/TheAirBlow/subscriptions",
                "type": "User",
                "url": "https://api.github.com/users/TheAirBlow"
            },
            "comments_url": "https://api.github.com/repos/PrismarineJS/mineflayer/commits/60fa8b8aaa242c8475bfdc90adfb1c294d7bd1d3/comments",
            "commit": {
                "author": {
                    "date": "2020-08-13T16:02:18Z",
                    "email": "68467762+TheAirBlow@users.noreply.github.com",
                    "name": "TheAirBlow"
                },
                "comment_count": 0,
                "committer": {
                    "date": "2020-08-13T16:02:18Z",
                    "email": "noreply@github.com",
                    "name": "GitHub"
                },
                "message": "Update README_RU.md",
                "tree": {
                    "sha": "947684543dd1e17bcf3fa20457f89c2dff24f7c4",
                    "url": "https://api.github.com/repos/PrismarineJS/mineflayer/git/trees/947684543dd1e17bcf3fa20457f89c2dff24f7c4"
                },
                "url": "https://api.github.com/repos/PrismarineJS/mineflayer/git/commits/60fa8b8aaa242c8475bfdc90adfb1c294d7bd1d3",
                "verification": {
                    "payload": "tree 947684543dd1e17bcf3fa20457f89c2dff24f7c4\nparent fe549f88476f3739c7952d91ec7fa603d9513414\nauthor TheAirBlow <68467762+TheAirBlow@users.noreply.github.com> 1597334538 +0500\ncommitter GitHub <noreply@github.com> 1597334538 +0500\n\nUpdate README_RU.md",
                    "reason": "valid",
                    "signature": "-----BEGIN PGP SIGNATURE-----\n\nwsBcBAABCAAQBQJfNWQKCRBK7hj4Ov3rIwAAdHIIAJ74n45TnCnTAZfaD+/LqSRJ\nelsWQE+DKy2OVpqHTaG1FLT1hmMFudX9yJoOBsnJ8WrLNE0AACFtUooCrbbbU642\ngQ0WGBHjE/GzCsC6bbpzJ9PFJ+pkNZGupk0Yku2ZNsjU4hd1A1w8fnsXAUf1z6Nl\nvCOiSCNrkPTmr0iViZIEQFTtCB9AwqtHc7DIPnt76MK28nMaqatZQqTa20JNDSLz\nk1Eunh1efnQyrR2lVAPdC491AyUtdGIbUtDFl5WNAA72MEgmTjIWPPpyh8qkyWw7\nhOQBfeWrIMbSIrLUpJ5YP3+RdQDtCEmEmrMjrxGMIjRMh5lzLkPI0nlllXjZt9I=\n=txqY\n-----END PGP SIGNATURE-----\n",
                    "verified": true
                }
            },
            "committer": {
                "avatar_url": "https://avatars.githubusercontent.com/u/19864447?v=4",
                "events_url": "https://api.github.com/users/web-flow/events{/privacy}",
                "followers_url": "https://api.github.com/users/web-flow/followers",
                "following_url": "https://api.github.com/users/web-flow/following{/other_user}",
                "gists_url": "https://api.github.com/users/web-flow/gists{/gist_id}",
                "gravatar_id": "",
                "html_url": "https://github.com/web-flow",
                "id": 19864447,
                "login": "web-flow",
                "node_id": "MDQ6VXNlcjE5ODY0NDQ3",
                "organizations_url": "https://api.github.com/users/web-flow/orgs",
                "received_events_url": "https://api.github.com/users/web-flow/received_events",
                "repos_url": "https://api.github.com/users/web-flow/repos",
                "site_admin": false,
                "starred_url": "https://api.github.com/users/web-flow/starred{/owner}{/repo}",
                "subscriptions_url": "https://api.github.com/users/web-flow/subscriptions",
                "type": "User",
                "url": "https://api.github.com/users/web-flow"
            },
            "html_url": "https://github.com/PrismarineJS/mineflayer/commit/60fa8b8aaa242c8475bfdc90adfb1c294d7bd1d3",
            "node_id": "MDY6Q29tbWl0MTI4NDE4NTo2MGZhOGI4YWFhMjQyYzg0NzViZmRjOTBhZGZiMWMyOTRkN2JkMWQz",
            "parents": [
                {
                    "html_url": "https://github.com/PrismarineJS/mineflayer/commit/fe549f88476f3739c7952d91ec7fa603d9513414",
                    "sha": "fe549f88476f3739c7952d91ec7fa603d9513414",
                    "url": "https://api.github.com/repos/PrismarineJS/mineflayer/commits/fe549f88476f3739c7952d91ec7fa603d9513414"
                }
            ],
            "sha": "60fa8b8aaa242c8475bfdc90adfb1c294d7bd1d3",
            "url": "https://api.github.com/repos/PrismarineJS/mineflayer/commits/60fa8b8aaa242c8475bfdc90adfb1c294d7bd1d3"
        }
    ],
    "commits": 1,
    "commits_url": "https://api.github.com/repos/PrismarineJS/mineflayer/pulls/1236/commits",
    "created_at": "2020-08-13T16:03:42Z",
    "deletions": 60,
    "diff_url": "https://github.com/PrismarineJS/mineflayer/pull/1236.diff",
    "draft": false,
    "head": {
        "label": "TheAirBlow:patch-1",
        "ref": "patch-1",
        "repo": null,
        "sha": "60fa8b8aaa242c8475bfdc90adfb1c294d7bd1d3",
        "user": {
            "avatar_url": "https://avatars.githubusercontent.com/u/68467762?v=4",
            "events_url": "https://api.github.com/users/TheAirBlow/events{/privacy}",
            "followers_url": "https://api.github.com/users/TheAirBlow/followers",
            "following_url": "https://api.github.com/users/TheAirBlow/following{/other_user}",
            "gists_url": "https://api.github.com/users/TheAirBlow/gists{/gist_id}",
            "gravatar_id": "",
            "html_url": "https://github.com/TheAirBlow",
            "id": 68467762,
            "login": "TheAirBlow",
            "node_id": "MDQ6VXNlcjY4NDY3NzYy",
            "organizations_url": "https://api.github.com/users/TheAirBlow/orgs",
            "received_events_url": "https://api.github.com/users/TheAirBlow/received_events",
            "repos_url": "https://api.github.com/users/TheAirBlow/repos",
            "site_admin": false,
            "starred_url": "https://api.github.com/users/TheAirBlow/starred{/owner}{/repo}",
            "subscriptions_url": "https://api.github.com/users/TheAirBlow/subscriptions",
            "type": "User",
            "url": "https://api.github.com/users/TheAirBlow"
        }
    },
    "html_url": "https://github.com/PrismarineJS/mineflayer/pull/1236",
    "id": 467480783,
    "issue_url": "https://api.github.com/repos/PrismarineJS/mineflayer/issues/1236",
    "labels": [],
    "locked": false,
    "maintainer_can_modify": false,
    "merge_commit_sha": "c696102637fc973305e22c3d6f1bebe81cc4a3b3",
    "mergeable": null,
    "mergeable_state": "unknown",
    "merged": true,
    "merged_at": "2020-08-13T17:13:40Z",
    "merged_by": {
        "avatar_url": "https://avatars.githubusercontent.com/u/2346494?v=4",
        "events_url": "https://api.github.com/users/rom1504/events{/privacy}",
        "followers_url": "https://api.github.com/users/rom1504/followers",
        "following_url": "https://api.github.com/users/rom1504/following{/other_user}",
        "gists_url": "https://api.github.com/users/rom1504/gists{/gist_id}",
        "gravatar_id": "",
        "html_url": "https://github.com/rom1504",
        "id": 2346494,
        "login": "rom1504",
        "node_id": "MDQ6VXNlcjIzNDY0OTQ=",
        "organizations_url": "https://api.github.com/users/rom1504/orgs",
        "received_events_url": "https://api.github.com/users/rom1504/received_events",
        "repos_url": "https://api.github.com/users/rom1504/repos",
        "site_admin": false,
        "starred_url": "https://api.github.com/users/rom1504/starred{/owner}{/repo}",
        "subscriptions_url": "https://api.github.com/users/rom1504/subscriptions",
        "type": "User",
        "url": "https://api.github.com/users/rom1504"
    },
    "milestone": null,
    "node_id": "MDExOlB1bGxSZXF1ZXN0NDY3NDgwNzgz",
    "number": 1236,
    "patch_url": "https://github.com/PrismarineJS/mineflayer/pull/1236.patch",
    "rebaseable": null,
    "requested_reviewers": [],
    "requested_teams": [],
    "review_comment_url": "https://api.github.com/repos/PrismarineJS/mineflayer/pulls/comments{/number}",
    "review_comments": 0,
    "review_comments_url": "https://api.github.com/repos/PrismarineJS/mineflayer/pulls/1236/comments",
    "state": "closed",
    "statuses_url": "https://api.github.com/repos/PrismarineJS/mineflayer/statuses/60fa8b8aaa242c8475bfdc90adfb1c294d7bd1d3",
    "title": "Update ReadMe (Russian)",
    "updated_at": "2020-08-13T17:13:40Z",
    "url": "https://api.github.com/repos/PrismarineJS/mineflayer/pulls/1236",
    "user": {
        "avatar_url": "https://avatars.githubusercontent.com/u/68467762?v=4",
        "events_url": "https://api.github.com/users/TheAirBlow/events{/privacy}",
        "followers_url": "https://api.github.com/users/TheAirBlow/followers",
        "following_url": "https://api.github.com/users/TheAirBlow/following{/other_user}",
        "gists_url": "https://api.github.com/users/TheAirBlow/gists{/gist_id}",
        "gravatar_id": "",
        "html_url": "https://github.com/TheAirBlow",
        "id": 68467762,
        "login": "TheAirBlow",
        "node_id": "MDQ6VXNlcjY4NDY3NzYy",
        "organizations_url": "https://api.github.com/users/TheAirBlow/orgs",
        "received_events_url": "https://api.github.com/users/TheAirBlow/received_events",
        "repos_url": "https://api.github.com/users/TheAirBlow/repos",
        "site_admin": false,
        "starred_url": "https://api.github.com/users/TheAirBlow/starred{/owner}{/repo}",
        "subscriptions_url": "https://api.github.com/users/TheAirBlow/subscriptions",
        "type": "User",
        "url": "https://api.github.com/users/TheAirBlow"
    }
}