{
    "_links": {
        "comments": {
            "href": "https://api.github.com/repos/PrismarineJS/mineflayer/issues/1693/comments"
        },
        "commits": {
            "href": "https://api.github.com/repos/PrismarineJS/mineflayer/pulls/1693/commits"
        },
        "html": {
            "href": "https://github.com/PrismarineJS/mineflayer/pull/1693"
        },
        "issue": {
            "href": "https://api.github.com/repos/PrismarineJS/mineflayer/issues/1693"
        },
        "review_comment": {
            "href": "https://api.github.com/repos/PrismarineJS/mineflayer/pulls/comments{/number}"
        },
        "review_comments": {
            "href": "https://api.github.com/repos/PrismarineJS/mineflayer/pulls/1693/comments"
        },
        "self": {
            "href": "https://api.github.com/repos/PrismarineJS/mineflayer/pulls/1693"
        },
        "statuses": {
            "href": "https://api.github.com/repos/PrismarineJS/mineflayer/statuses/7267d1cda34786984cec924dae54e22eb241458e"
        }
    },
    "active_lock_reason": null,
    "additions": 1,
    "assignee": null,
    "assignees": [],
    "author_association": "MEMBER",
    "auto_merge": null,
    "base": {
        "label": "PrismarineJS:master",
        "ref": "master",
        "repo": {
            "allow_forking": true,
            "archive_url": "https://api.github.com/repos/PrismarineJS/mineflayer/{archive_format}{/ref}",
            "archived": false,
            "assignees_url": "https://api.github.com/repos/PrismarineJS/mineflayer/assignees{/user}",
            "blobs_url": "https://api.github.com/repos/PrismarineJS/mineflayer/git/blobs{/sha}",
            "branches_url": "https://api.github.com/repos/PrismarineJS/mineflayer/branches{/branch}",
            "clone_url": "https://github.com/PrismarineJS/mineflayer.git",
            "collaborators_url": "https://api.github.com/repos/PrismarineJS/mineflayer/collaborators{/collaborator}",
            "comments_url": "https://api.github.com/repos/PrismarineJS/mineflayer/comments{/number}",
            "commits_url": "https://api.github.com/repos/PrismarineJS/mineflayer/commits{/sha}",
            "compare_url": "https://api.github.com/repos/PrismarineJS/mineflayer/compare/{base}...{head}",
            "contents_url": "https://api.github.com/repos/PrismarineJS/mineflayer/contents/{+path}",
            "contributors_url": "https://api.github.com/repos/PrismarineJS/mineflayer/contributors",
            "created_at": "2011-01-23T09:41:55Z",
            "default_branch": "master",
            "deployments_url": "https://api.github.com/repos/PrismarineJS/mineflayer/deployments",
            "description": "Create Minecraft bots with a powerful, stable, and high level JavaScript API.",
            "disabled": false,
            "downloads_url": "https://api.github.com/repos/PrismarineJS/mineflayer/downloads",
            "events_url": "https://api.github.com/repos/PrismarineJS/mineflayer/events",
            "fork": false,
            "forks": 748,
            "forks_count": 748,
            "forks_url": "https://api.github.com/repos/PrismarineJS/mineflayer/forks",
            "full_name": "PrismarineJS/mineflayer",
            "git_commits_url": "https://api.github.com/repos/PrismarineJS/mineflayer/git/commits{/sha}",
            "git_refs_url": "https://api.github.com/repos/PrismarineJS/mineflayer/git/refs{/sha}",
            "git_tags_url": "https://api.github.com/repos/PrismarineJS/mineflayer/git/tags{/sha}",
            "git_url": "git://github.com/PrismarineJS/mineflayer.git",
            "has_discussions": true,
            "has_downloads": true,
            "has_issues": true,
            "has_pages": true,
            "has_projects": true,
            "has_wiki": true,
            "homepage": "https://prismarinejs.github.io/mineflayer/",
            "hooks_url": "https://api.github.com/repos/PrismarineJS/mineflayer/hooks",
            "html_url": "https://github.com/PrismarineJS/mineflayer",
            "id": 1284185,
            "is_template": false,
            "issue_comment_url": "https://api.github.com/repos/PrismarineJS/mineflayer/issues/comments{/number}",
            "issue_events_url": "https://api.github.com/repos/PrismarineJS/mineflayer/issues/events{/number}",
            "issues_url": "https://api.github.com/repos/PrismarineJS/mineflayer/issues{/number}",
            "keys_url": "https://api.github.com/repos/PrismarineJS/mineflayer/keys{/key_id}",
            "labels_url": "https://api.github.com/repos/PrismarineJS/mineflayer/labels{/name}",
            "language": "JavaScript",
            "languages_url": "https://api.github.com/repos/PrismarineJS/mineflayer/languages",
            "license": {
                "key": "mit",
                "name": "MIT License",
                "node_id": "MDc6TGljZW5zZTEz",
                "spdx_id": "MIT",
                "url": "https://api.github.com/licenses/mit"
            },
            "merges_url": "https://api.github.com/repos/PrismarineJS/mineflayer/merges",
            "milestones_url": "https://api.github.com/repos/PrismarineJS/mineflayer/milestones{/number}",
            "mirror_url": null,
            "name": "mineflayer",
            "node_id": "MDEwOlJlcG9zaXRvcnkxMjg0MTg1",
            "notifications_url": "https://api.github.com/repos/PrismarineJS/mineflayer/notifications{?since,all,participating}",
            "open_issues": 269,
            "open_issues_count": 269,
            "owner": {
                "avatar_url": "https://avatars.githubusercontent.com/u/11053411?v=4",
                "events_url": "https://api.github.com/users/PrismarineJS/events{/privacy}",
                "followers_url": "https://api.github.com/users/PrismarineJS/followers",
                "following_url": "https://api.github.com/users/PrismarineJS/following{/other_user}",
                "gists_url": "https://api.github.com/users/PrismarineJS/gists{/gist_id}",
                "gravatar_id": "",
                "html_url": "https://github.com/PrismarineJS",
                "id": 11053411,
                "login": "PrismarineJS",
                "node_id": "MDEyOk9yZ2FuaXphdGlvbjExMDUzNDEx",
                "organizations_url": "https://api.github.com/users/PrismarineJS/orgs",
                "received_events_url": "https://api.github.com/users/PrismarineJS/received_events",
                "repos_url": "https://api.github.com/users/PrismarineJS/repos",
                "site_admin": false,
                "starred_url": "https://api.github.com/users/PrismarineJS/starred{/owner}{/repo}",
                "subscriptions_url": "https://api.github.com/users/PrismarineJS/subscriptions",
                "type": "Organization",
                "url": "https://api.github.com/users/PrismarineJS"
            },
            "private": false,
            "pulls_url": "https://api.github.com/repos/PrismarineJS/mineflayer/pulls{/number}",
            "pushed_at": "2023-04-25T00:44:52Z",
            "releases_url": "https://api.github.com/repos/PrismarineJS/mineflayer/releases{/id}",
            "size": 12493,
            "ssh_url": "git@github.com:PrismarineJS/mineflayer.git",
            "stargazers_count": 3698,
            "stargazers_url": "https://api.github.com/repos/PrismarineJS/mineflayer/stargazers",
            "statuses_url": "https://api.github.com/repos/PrismarineJS/mineflayer/statuses/{sha}",
            "subscribers_url": "https://api.github.com/repos/PrismarineJS/mineflayer/subscribers",
            "subscription_url": "https://api.github.com/repos/PrismarineJS/mineflayer/subscription",
            "svn_url": "https://github.com/PrismarineJS/mineflayer",
            "tags_url": "https://api.github.com/repos/PrismarineJS/mineflayer/tags",
            "teams_url": "https://api.github.com/repos/PrismarineJS/mineflayer/teams",
            "topics": [
                "bot",
                "minecraft",
                "minecraft-api",
                "minecraft-bot",
                "network",
                "nodejs"
            ],
            "trees_url": "https://api.github.com/repos/PrismarineJS/mineflayer/git/trees{/sha}",
            "updated_at": "2023-04-25T14:07:03Z",
            "url": "https://api.github.com/repos/PrismarineJS/mineflayer",
            "visibility": "public",
            "watchers": 3698,
            "watchers_count": 3698,
            "web_commit_signoff_required": false
        },
        "sha": "72b8eccf55383fd41782d34594f075fd4878003d",
        "user": {
            "avatar_url": "https://avatars.githubusercontent.com/u/11053411?v=4",
            "events_url": "https://api.github.com/users/PrismarineJS/events{/privacy}",
            "followers_url": "https://api.github.com/users/PrismarineJS/followers",
            "following_url": "https://api.github.com/users/PrismarineJS/following{/other_user}",
            "gists_url": "https://api.github.com/users/PrismarineJS/gists{/gist_id}",
            "gravatar_id": "",
            "html_url": "https://github.com/PrismarineJS",
            "id": 11053411,
            "login": "PrismarineJS",
            "node_id": "MDEyOk9yZ2FuaXphdGlvbjExMDUzNDEx",
            "organizations_url": "https://api.github.com/users/PrismarineJS/orgs",
            "received_events_url": "https://api.github.com/users/PrismarineJS/received_events",
            "repos_url": "https://api.github.com/users/PrismarineJS/repos",
            "site_admin": false,
            "starred_url": "https://api.github.com/users/PrismarineJS/starred{/owner}{/repo}",
            "subscriptions_url": "https://api.github.com/users/PrismarineJS/subscriptions",
            "type": "Organization",
            "url": "https://api.github.com/users/PrismarineJS"
        }
    },
    "body": "https://github.com/PrismarineJS/mineflayer/issues/989",
    "changed_files": 6,
    "closed_at": "2021-02-21T18:24:59Z",
    "comment_data": [],
    "comment_regular_data": [
        {
            "author_association": "MEMBER",
            "body": "I moved anything not english into it's respective folder. I didn't remove _langname and didnt move english things",
            "created_at": "2021-02-21T01:17:22Z",
            "html_url": "https://github.com/PrismarineJS/mineflayer/pull/1693#issuecomment-782776419",
            "id": 782776419,
            "issue_url": "https://api.github.com/repos/PrismarineJS/mineflayer/issues/1693",
            "node_id": "MDEyOklzc3VlQ29tbWVudDc4Mjc3NjQxOQ==",
            "performed_via_github_app": null,
            "reactions": {
                "+1": 0,
                "-1": 0,
                "confused": 0,
                "eyes": 0,
                "heart": 0,
                "hooray": 0,
                "laugh": 0,
                "rocket": 0,
                "total_count": 0,
                "url": "https://api.github.com/repos/PrismarineJS/mineflayer/issues/comments/782776419/reactions"
            },
            "updated_at": "2021-02-21T01:17:22Z",
            "url": "https://api.github.com/repos/PrismarineJS/mineflayer/issues/comments/782776419",
            "user": {
                "avatar_url": "https://avatars.githubusercontent.com/u/43508353?v=4",
                "events_url": "https://api.github.com/users/u9g/events{/privacy}",
                "followers_url": "https://api.github.com/users/u9g/followers",
                "following_url": "https://api.github.com/users/u9g/following{/other_user}",
                "gists_url": "https://api.github.com/users/u9g/gists{/gist_id}",
                "gravatar_id": "",
                "html_url": "https://github.com/u9g",
                "id": 43508353,
                "login": "u9g",
                "node_id": "MDQ6VXNlcjQzNTA4MzUz",
                "organizations_url": "https://api.github.com/users/u9g/orgs",
                "received_events_url": "https://api.github.com/users/u9g/received_events",
                "repos_url": "https://api.github.com/users/u9g/repos",
                "site_admin": false,
                "starred_url": "https://api.github.com/users/u9g/starred{/owner}{/repo}",
                "subscriptions_url": "https://api.github.com/users/u9g/subscriptions",
                "type": "User",
                "url": "https://api.github.com/users/u9g"
            }
        },
        {
            "author_association": "MEMBER",
            "body": "You should probably update the link to the files in the readme.",
            "created_at": "2021-02-21T18:05:15Z",
            "html_url": "https://github.com/PrismarineJS/mineflayer/pull/1693#issuecomment-782898953",
            "id": 782898953,
            "issue_url": "https://api.github.com/repos/PrismarineJS/mineflayer/issues/1693",
            "node_id": "MDEyOklzc3VlQ29tbWVudDc4Mjg5ODk1Mw==",
            "performed_via_github_app": null,
            "reactions": {
                "+1": 0,
                "-1": 0,
                "confused": 0,
                "eyes": 0,
                "heart": 0,
                "hooray": 0,
                "laugh": 0,
                "rocket": 0,
                "total_count": 0,
                "url": "https://api.github.com/repos/PrismarineJS/mineflayer/issues/comments/782898953/reactions"
            },
            "updated_at": "2021-02-21T18:05:15Z",
            "url": "https://api.github.com/repos/PrismarineJS/mineflayer/issues/comments/782898953",
            "user": {
                "avatar_url": "https://avatars.githubusercontent.com/u/1977472?v=4",
                "events_url": "https://api.github.com/users/Karang/events{/privacy}",
                "followers_url": "https://api.github.com/users/Karang/followers",
                "following_url": "https://api.github.com/users/Karang/following{/other_user}",
                "gists_url": "https://api.github.com/users/Karang/gists{/gist_id}",
                "gravatar_id": "",
                "html_url": "https://github.com/Karang",
                "id": 1977472,
                "login": "Karang",
                "node_id": "MDQ6VXNlcjE5Nzc0NzI=",
                "organizations_url": "https://api.github.com/users/Karang/orgs",
                "received_events_url": "https://api.github.com/users/Karang/received_events",
                "repos_url": "https://api.github.com/users/Karang/repos",
                "site_admin": false,
                "starred_url": "https://api.github.com/users/Karang/starred{/owner}{/repo}",
                "subscriptions_url": "https://api.github.com/users/Karang/subscriptions",
                "type": "User",
                "url": "https://api.github.com/users/Karang"
            }
        },
        {
            "author_association": "MEMBER",
            "body": "> You should probably update the link to the files in the readme.\r\n\r\ndone",
            "created_at": "2021-02-21T18:06:47Z",
            "html_url": "https://github.com/PrismarineJS/mineflayer/pull/1693#issuecomment-782899194",
            "id": 782899194,
            "issue_url": "https://api.github.com/repos/PrismarineJS/mineflayer/issues/1693",
            "node_id": "MDEyOklzc3VlQ29tbWVudDc4Mjg5OTE5NA==",
            "performed_via_github_app": null,
            "reactions": {
                "+1": 0,
                "-1": 0,
                "confused": 0,
                "eyes": 0,
                "heart": 0,
                "hooray": 0,
                "laugh": 0,
                "rocket": 0,
                "total_count": 0,
                "url": "https://api.github.com/repos/PrismarineJS/mineflayer/issues/comments/782899194/reactions"
            },
            "updated_at": "2021-02-21T18:06:47Z",
            "url": "https://api.github.com/repos/PrismarineJS/mineflayer/issues/comments/782899194",
            "user": {
                "avatar_url": "https://avatars.githubusercontent.com/u/43508353?v=4",
                "events_url": "https://api.github.com/users/u9g/events{/privacy}",
                "followers_url": "https://api.github.com/users/u9g/followers",
                "following_url": "https://api.github.com/users/u9g/following{/other_user}",
                "gists_url": "https://api.github.com/users/u9g/gists{/gist_id}",
                "gravatar_id": "",
                "html_url": "https://github.com/u9g",
                "id": 43508353,
                "login": "u9g",
                "node_id": "MDQ6VXNlcjQzNTA4MzUz",
                "organizations_url": "https://api.github.com/users/u9g/orgs",
                "received_events_url": "https://api.github.com/users/u9g/received_events",
                "repos_url": "https://api.github.com/users/u9g/repos",
                "site_admin": false,
                "starred_url": "https://api.github.com/users/u9g/starred{/owner}{/repo}",
                "subscriptions_url": "https://api.github.com/users/u9g/subscriptions",
                "type": "User",
                "url": "https://api.github.com/users/u9g"
            }
        }
    ],
    "comments": 3,
    "comments_url": "https://api.github.com/repos/PrismarineJS/mineflayer/issues/1693/comments",
    "commit_data": [
        {
            "author": {
                "avatar_url": "https://avatars.githubusercontent.com/u/43508353?v=4",
                "events_url": "https://api.github.com/users/u9g/events{/privacy}",
                "followers_url": "https://api.github.com/users/u9g/followers",
                "following_url": "https://api.github.com/users/u9g/following{/other_user}",
                "gists_url": "https://api.github.com/users/u9g/gists{/gist_id}",
                "gravatar_id": "",
                "html_url": "https://github.com/u9g",
                "id": 43508353,
                "login": "u9g",
                "node_id": "MDQ6VXNlcjQzNTA4MzUz",
                "organizations_url": "https://api.github.com/users/u9g/orgs",
                "received_events_url": "https://api.github.com/users/u9g/received_events",
                "repos_url": "https://api.github.com/users/u9g/repos",
                "site_admin": false,
                "starred_url": "https://api.github.com/users/u9g/starred{/owner}{/repo}",
                "subscriptions_url": "https://api.github.com/users/u9g/subscriptions",
                "type": "User",
                "url": "https://api.github.com/users/u9g"
            },
            "comments_url": "https://api.github.com/repos/PrismarineJS/mineflayer/commits/5c6b7831e4e30cc3b2d64f608f08678eb63efec2/comments",
            "commit": {
                "author": {
                    "date": "2021-02-21T01:13:04Z",
                    "email": "43508353+u9g@users.noreply.github.com",
                    "name": "u9g"
                },
                "comment_count": 0,
                "committer": {
                    "date": "2021-02-21T01:13:04Z",
                    "email": "noreply@github.com",
                    "name": "GitHub"
                },
                "message": "Organize translated docs #989\n\nhttps://github.com/PrismarineJS/mineflayer/issues/989",
                "tree": {
                    "sha": "fc0aa7fa25ab5a79236537f37f359f12ed21c7be",
                    "url": "https://api.github.com/repos/PrismarineJS/mineflayer/git/trees/fc0aa7fa25ab5a79236537f37f359f12ed21c7be"
                },
                "url": "https://api.github.com/repos/PrismarineJS/mineflayer/git/commits/5c6b7831e4e30cc3b2d64f608f08678eb63efec2",
                "verification": {
                    "payload": "tree fc0aa7fa25ab5a79236537f37f359f12ed21c7be\nparent 72b8eccf55383fd41782d34594f075fd4878003d\nauthor u9g <43508353+u9g@users.noreply.github.com> 1613869984 -0500\ncommitter GitHub <noreply@github.com> 1613869984 -0500\n\nOrganize translated docs #989\n\nhttps://github.com/PrismarineJS/mineflayer/issues/989",
                    "reason": "valid",
                    "signature": "-----BEGIN PGP SIGNATURE-----\n\nwsBcBAABCAAQBQJgMbOgCRBK7hj4Ov3rIwAAdHIIAHlirprTKRG8xJs+aeVHLSvy\nFm9wn29tQwkC4JTfvKc8mGCSy813S1CFuTNEhaCWAGrpu2huQm/oiNTImgNSkTZx\ndDylSk7ZoYz5NgZ9QfVGSo6pfjRMRbf4FMVyHSXDgGZbNJ2SgF9L5zcQhcdgwEBE\nrye6rBn9H6lJZmJjWL/QjHU7VTeoKudyDwjF/12UQW7GvE+aVZ+D8SYNfD4WhJlQ\n7RwvZJROfN9Dmtklb27fXjOb2aB2SnSI+PAbsZ3WMzxFXJoH4hmZvZAwvnSwLR1c\nhkMOjtpsXOE54sRxBlbwA0mrXO/iCxgEG1YtwI2UkMxO9JXatWkVJ0ilZ2YJyfk=\n=NO0e\n-----END PGP SIGNATURE-----\n",
                    "verified": true
                }
            },
            "committer": {
                "avatar_url": "https://avatars.githubusercontent.com/u/19864447?v=4",
                "events_url": "https://api.github.com/users/web-flow/events{/privacy}",
                "followers_url": "https://api.github.com/users/web-flow/followers",
                "following_url": "https://api.github.com/users/web-flow/following{/other_user}",
                "gists_url": "https://api.github.com/users/web-flow/gists{/gist_id}",
                "gravatar_id": "",
                "html_url": "https://github.com/web-flow",
                "id": 19864447,
                "login": "web-flow",
                "node_id": "MDQ6VXNlcjE5ODY0NDQ3",
                "organizations_url": "https://api.github.com/users/web-flow/orgs",
                "received_events_url": "https://api.github.com/users/web-flow/received_events",
                "repos_url": "https://api.github.com/users/web-flow/repos",
                "site_admin": false,
                "starred_url": "https://api.github.com/users/web-flow/starred{/owner}{/repo}",
                "subscriptions_url": "https://api.github.com/users/web-flow/subscriptions",
                "type": "User",
                "url": "https://api.github.com/users/web-flow"
            },
            "html_url": "https://github.com/PrismarineJS/mineflayer/commit/5c6b7831e4e30cc3b2d64f608f08678eb63efec2",
            "node_id": "MDY6Q29tbWl0MTI4NDE4NTo1YzZiNzgzMWU0ZTMwY2MzYjJkNjRmNjA4ZjA4Njc4ZWI2M2VmZWMy",
            "parents": [
                {
                    "html_url": "https://github.com/PrismarineJS/mineflayer/commit/72b8eccf55383fd41782d34594f075fd4878003d",
                    "sha": "72b8eccf55383fd41782d34594f075fd4878003d",
                    "url": "https://api.github.com/repos/PrismarineJS/mineflayer/commits/72b8eccf55383fd41782d34594f075fd4878003d"
                }
            ],
            "sha": "5c6b7831e4e30cc3b2d64f608f08678eb63efec2",
            "url": "https://api.github.com/repos/PrismarineJS/mineflayer/commits/5c6b7831e4e30cc3b2d64f608f08678eb63efec2"
        },
        {
            "author": {
                "avatar_url": "https://avatars.githubusercontent.com/u/43508353?v=4",
                "events_url": "https://api.github.com/users/u9g/events{/privacy}",
                "followers_url": "https://api.github.com/users/u9g/followers",
                "following_url": "https://api.github.com/users/u9g/following{/other_user}",
                "gists_url": "https://api.github.com/users/u9g/gists{/gist_id}",
                "gravatar_id": "",
                "html_url": "https://github.com/u9g",
                "id": 43508353,
                "login": "u9g",
                "node_id": "MDQ6VXNlcjQzNTA4MzUz",
                "organizations_url": "https://api.github.com/users/u9g/orgs",
                "received_events_url": "https://api.github.com/users/u9g/received_events",
                "repos_url": "https://api.github.com/users/u9g/repos",
                "site_admin": false,
                "starred_url": "https://api.github.com/users/u9g/starred{/owner}{/repo}",
                "subscriptions_url": "https://api.github.com/users/u9g/subscriptions",
                "type": "User",
                "url": "https://api.github.com/users/u9g"
            },
            "comments_url": "https://api.github.com/repos/PrismarineJS/mineflayer/commits/eaa52f467e6acc2a97942d879688447a5dc75e75/comments",
            "commit": {
                "author": {
                    "date": "2021-02-21T01:15:24Z",
                    "email": "43508353+u9g@users.noreply.github.com",
                    "name": "u9g"
                },
                "comment_count": 0,
                "committer": {
                    "date": "2021-02-21T01:15:24Z",
                    "email": "noreply@github.com",
                    "name": "GitHub"
                },
                "message": "Rename docs/README_RU.md to docs/ru/README_RU.md",
                "tree": {
                    "sha": "b72c2b47e37fcdcd055692c9bb2397a8a679a148",
                    "url": "https://api.github.com/repos/PrismarineJS/mineflayer/git/trees/b72c2b47e37fcdcd055692c9bb2397a8a679a148"
                },
                "url": "https://api.github.com/repos/PrismarineJS/mineflayer/git/commits/eaa52f467e6acc2a97942d879688447a5dc75e75",
                "verification": {
                    "payload": "tree b72c2b47e37fcdcd055692c9bb2397a8a679a148\nparent 5c6b7831e4e30cc3b2d64f608f08678eb63efec2\nauthor u9g <43508353+u9g@users.noreply.github.com> 1613870124 -0500\ncommitter GitHub <noreply@github.com> 1613870124 -0500\n\nRename docs/README_RU.md to docs/ru/README_RU.md",
                    "reason": "valid",
                    "signature": "-----BEGIN PGP SIGNATURE-----\n\nwsBcBAABCAAQBQJgMbQsCRBK7hj4Ov3rIwAAdHIIAFPSJNeCJpiNKQwGDxeLk1Ci\nRTZfunP/I1fMmKc4M9WBlPNz4tYU7fpv18GUhJ6YfRl7sTMD7hWxbdRCY7ek/lwP\nYmz7WxE3p3OIrCNffxObkW/UU/Gpk8z1HOPCuu2z5BOW8tsICCOPds4UBo6dgOZV\n9VHx48Wk28n8kX/mQmMseQT8c5tTf8yvR/Ea6DN+z9NnjD9gVdLNUzxcqH89fS2k\nttACl3lS/YOo7DGeLP/dy5Uph1H5S9uvUv50uvw+NWPc1eJx03QpWbWJjqZH3xLw\nZ9h9k0pVviwxkBXzjna0EVlX3gEVT2hZD/7xz3/yIy4tRpFuy+B1HMB1mGc6c0g=\n=56Ge\n-----END PGP SIGNATURE-----\n",
                    "verified": true
                }
            },
            "committer": {
                "avatar_url": "https://avatars.githubusercontent.com/u/19864447?v=4",
                "events_url": "https://api.github.com/users/web-flow/events{/privacy}",
                "followers_url": "https://api.github.com/users/web-flow/followers",
                "following_url": "https://api.github.com/users/web-flow/following{/other_user}",
                "gists_url": "https://api.github.com/users/web-flow/gists{/gist_id}",
                "gravatar_id": "",
                "html_url": "https://github.com/web-flow",
                "id": 19864447,
                "login": "web-flow",
                "node_id": "MDQ6VXNlcjE5ODY0NDQ3",
                "organizations_url": "https://api.github.com/users/web-flow/orgs",
                "received_events_url": "https://api.github.com/users/web-flow/received_events",
                "repos_url": "https://api.github.com/users/web-flow/repos",
                "site_admin": false,
                "starred_url": "https://api.github.com/users/web-flow/starred{/owner}{/repo}",
                "subscriptions_url": "https://api.github.com/users/web-flow/subscriptions",
                "type": "User",
                "url": "https://api.github.com/users/web-flow"
            },
            "html_url": "https://github.com/PrismarineJS/mineflayer/commit/eaa52f467e6acc2a97942d879688447a5dc75e75",
            "node_id": "MDY6Q29tbWl0MTI4NDE4NTplYWE1MmY0NjdlNmFjYzJhOTc5NDJkODc5Njg4NDQ3YTVkYzc1ZTc1",
            "parents": [
                {
                    "html_url": "https://github.com/PrismarineJS/mineflayer/commit/5c6b7831e4e30cc3b2d64f608f08678eb63efec2",
                    "sha": "5c6b7831e4e30cc3b2d64f608f08678eb63efec2",
                    "url": "https://api.github.com/repos/PrismarineJS/mineflayer/commits/5c6b7831e4e30cc3b2d64f608f08678eb63efec2"
                }
            ],
            "sha": "eaa52f467e6acc2a97942d879688447a5dc75e75",
            "url": "https://api.github.com/repos/PrismarineJS/mineflayer/commits/eaa52f467e6acc2a97942d879688447a5dc75e75"
        },
        {
            "author": {
                "avatar_url": "https://avatars.githubusercontent.com/u/43508353?v=4",
                "events_url": "https://api.github.com/users/u9g/events{/privacy}",
                "followers_url": "https://api.github.com/users/u9g/followers",
                "following_url": "https://api.github.com/users/u9g/following{/other_user}",
                "gists_url": "https://api.github.com/users/u9g/gists{/gist_id}",
                "gravatar_id": "",
                "html_url": "https://github.com/u9g",
                "id": 43508353,
                "login": "u9g",
                "node_id": "MDQ6VXNlcjQzNTA4MzUz",
                "organizations_url": "https://api.github.com/users/u9g/orgs",
                "received_events_url": "https://api.github.com/users/u9g/received_events",
                "repos_url": "https://api.github.com/users/u9g/repos",
                "site_admin": false,
                "starred_url": "https://api.github.com/users/u9g/starred{/owner}{/repo}",
                "subscriptions_url": "https://api.github.com/users/u9g/subscriptions",
                "type": "User",
                "url": "https://api.github.com/users/u9g"
            },
            "comments_url": "https://api.github.com/repos/PrismarineJS/mineflayer/commits/621de88bee3106cbc4fe0b22db982c7f45d77b77/comments",
            "commit": {
                "author": {
                    "date": "2021-02-21T01:15:39Z",
                    "email": "43508353+u9g@users.noreply.github.com",
                    "name": "u9g"
                },
                "comment_count": 0,
                "committer": {
                    "date": "2021-02-21T01:15:39Z",
                    "email": "noreply@github.com",
                    "name": "GitHub"
                },
                "message": "Rename docs/api_ru.md to docs/ru/api_ru.md",
                "tree": {
                    "sha": "e0bcc08f9c08c0850dd5ad58bf1ccdbd0d7ce5c3",
                    "url": "https://api.github.com/repos/PrismarineJS/mineflayer/git/trees/e0bcc08f9c08c0850dd5ad58bf1ccdbd0d7ce5c3"
                },
                "url": "https://api.github.com/repos/PrismarineJS/mineflayer/git/commits/621de88bee3106cbc4fe0b22db982c7f45d77b77",
                "verification": {
                    "payload": "tree e0bcc08f9c08c0850dd5ad58bf1ccdbd0d7ce5c3\nparent eaa52f467e6acc2a97942d879688447a5dc75e75\nauthor u9g <43508353+u9g@users.noreply.github.com> 1613870139 -0500\ncommitter GitHub <noreply@github.com> 1613870139 -0500\n\nRename docs/api_ru.md to docs/ru/api_ru.md",
                    "reason": "valid",
                    "signature": "-----BEGIN PGP SIGNATURE-----\n\nwsBcBAABCAAQBQJgMbQ7CRBK7hj4Ov3rIwAAdHIIAG3F57s22eYJbwS/Ojx0zSdA\nkWjSBCuGf1iyAv39OXpd8DjVzhfk4lPySCGSuvA4H77WhZCFIR2KxYV0jkRqfEas\n/p4xmT1CiOj8u6HmDOL9gr6KTI3DLugOsid/Mel4x7MLvNnZDY8t1cn1jpXB/M/g\nG75YyvPEM3ekN3iQpBKaFdVPIwkF9GMytz7xm8Py7EouV8gQ+7/F7qJSPtwCmtjz\ns46JcuG+vbLS1+PhzeyByi7wVLaQ3i/RKAAGVQZyroMH3KWh8gNfQi05+a18rTNr\nJsi5/f8r44QdVeOw4wyF+JRYTJ+4pn7Fuqousfz66arq8mr6TMcN4liajxclzWQ=\n=MdWK\n-----END PGP SIGNATURE-----\n",
                    "verified": true
                }
            },
            "committer": {
                "avatar_url": "https://avatars.githubusercontent.com/u/19864447?v=4",
                "events_url": "https://api.github.com/users/web-flow/events{/privacy}",
                "followers_url": "https://api.github.com/users/web-flow/followers",
                "following_url": "https://api.github.com/users/web-flow/following{/other_user}",
                "gists_url": "https://api.github.com/users/web-flow/gists{/gist_id}",
                "gravatar_id": "",
                "html_url": "https://github.com/web-flow",
                "id": 19864447,
                "login": "web-flow",
                "node_id": "MDQ6VXNlcjE5ODY0NDQ3",
                "organizations_url": "https://api.github.com/users/web-flow/orgs",
                "received_events_url": "https://api.github.com/users/web-flow/received_events",
                "repos_url": "https://api.github.com/users/web-flow/repos",
                "site_admin": false,
                "starred_url": "https://api.github.com/users/web-flow/starred{/owner}{/repo}",
                "subscriptions_url": "https://api.github.com/users/web-flow/subscriptions",
                "type": "User",
                "url": "https://api.github.com/users/web-flow"
            },
            "html_url": "https://github.com/PrismarineJS/mineflayer/commit/621de88bee3106cbc4fe0b22db982c7f45d77b77",
            "node_id": "MDY6Q29tbWl0MTI4NDE4NTo2MjFkZTg4YmVlMzEwNmNiYzRmZTBiMjJkYjk4MmM3ZjQ1ZDc3Yjc3",
            "parents": [
                {
                    "html_url": "https://github.com/PrismarineJS/mineflayer/commit/eaa52f467e6acc2a97942d879688447a5dc75e75",
                    "sha": "eaa52f467e6acc2a97942d879688447a5dc75e75",
                    "url": "https://api.github.com/repos/PrismarineJS/mineflayer/commits/eaa52f467e6acc2a97942d879688447a5dc75e75"
                }
            ],
            "sha": "621de88bee3106cbc4fe0b22db982c7f45d77b77",
            "url": "https://api.github.com/repos/PrismarineJS/mineflayer/commits/621de88bee3106cbc4fe0b22db982c7f45d77b77"
        },
        {
            "author": {
                "avatar_url": "https://avatars.githubusercontent.com/u/43508353?v=4",
                "events_url": "https://api.github.com/users/u9g/events{/privacy}",
                "followers_url": "https://api.github.com/users/u9g/followers",
                "following_url": "https://api.github.com/users/u9g/following{/other_user}",
                "gists_url": "https://api.github.com/users/u9g/gists{/gist_id}",
                "gravatar_id": "",
                "html_url": "https://github.com/u9g",
                "id": 43508353,
                "login": "u9g",
                "node_id": "MDQ6VXNlcjQzNTA4MzUz",
                "organizations_url": "https://api.github.com/users/u9g/orgs",
                "received_events_url": "https://api.github.com/users/u9g/received_events",
                "repos_url": "https://api.github.com/users/u9g/repos",
                "site_admin": false,
                "starred_url": "https://api.github.com/users/u9g/starred{/owner}{/repo}",
                "subscriptions_url": "https://api.github.com/users/u9g/subscriptions",
                "type": "User",
                "url": "https://api.github.com/users/u9g"
            },
            "comments_url": "https://api.github.com/repos/PrismarineJS/mineflayer/commits/5586fbcc1822f5258a01b3374c63c100198f9a6b/comments",
            "commit": {
                "author": {
                    "date": "2021-02-21T01:15:53Z",
                    "email": "43508353+u9g@users.noreply.github.com",
                    "name": "u9g"
                },
                "comment_count": 0,
                "committer": {
                    "date": "2021-02-21T01:15:53Z",
                    "email": "noreply@github.com",
                    "name": "GitHub"
                },
                "message": "Rename docs/README_ES.md to docs/es/README_ES.md",
                "tree": {
                    "sha": "c5278433ba76f72ccfccf79c4f8abadb994ed4ff",
                    "url": "https://api.github.com/repos/PrismarineJS/mineflayer/git/trees/c5278433ba76f72ccfccf79c4f8abadb994ed4ff"
                },
                "url": "https://api.github.com/repos/PrismarineJS/mineflayer/git/commits/5586fbcc1822f5258a01b3374c63c100198f9a6b",
                "verification": {
                    "payload": "tree c5278433ba76f72ccfccf79c4f8abadb994ed4ff\nparent 621de88bee3106cbc4fe0b22db982c7f45d77b77\nauthor u9g <43508353+u9g@users.noreply.github.com> 1613870153 -0500\ncommitter GitHub <noreply@github.com> 1613870153 -0500\n\nRename docs/README_ES.md to docs/es/README_ES.md",
                    "reason": "valid",
                    "signature": "-----BEGIN PGP SIGNATURE-----\n\nwsBcBAABCAAQBQJgMbRJCRBK7hj4Ov3rIwAAdHIIAIF4iNx2ODpyNjxxIJzBRwss\nFWavvo/kavffQLtFza6Bhv2PuGEGkUP8bI5ttTPv26tM2Q7a9GAJYvy8y1ZbKO5L\nIdJJ+HUdz8PWamewxLF1n+vWldBv5CWRvPuCNyjV9Nq/WRoW/NY+TvXL05JdL71O\nGcby0p+QleuK1bjHVvKMv6t3KiUIZM61XsWHQWlDlURpAx6xt2VzV7VA2EZkJUw8\nynhahj7gvG6E+5XXyAWfuntSSvta3VK2jbKRjJVYKkyIcsTEHTeyBDzvMpbAKh6M\n/otW/J21GKw8GD29OFuCrVR9tU/64B39KjuG+6PHF7acdqDuxzbT0ZSehKtiuC0=\n=Wutv\n-----END PGP SIGNATURE-----\n",
                    "verified": true
                }
            },
            "committer": {
                "avatar_url": "https://avatars.githubusercontent.com/u/19864447?v=4",
                "events_url": "https://api.github.com/users/web-flow/events{/privacy}",
                "followers_url": "https://api.github.com/users/web-flow/followers",
                "following_url": "https://api.github.com/users/web-flow/following{/other_user}",
                "gists_url": "https://api.github.com/users/web-flow/gists{/gist_id}",
                "gravatar_id": "",
                "html_url": "https://github.com/web-flow",
                "id": 19864447,
                "login": "web-flow",
                "node_id": "MDQ6VXNlcjE5ODY0NDQ3",
                "organizations_url": "https://api.github.com/users/web-flow/orgs",
                "received_events_url": "https://api.github.com/users/web-flow/received_events",
                "repos_url": "https://api.github.com/users/web-flow/repos",
                "site_admin": false,
                "starred_url": "https://api.github.com/users/web-flow/starred{/owner}{/repo}",
                "subscriptions_url": "https://api.github.com/users/web-flow/subscriptions",
                "type": "User",
                "url": "https://api.github.com/users/web-flow"
            },
            "html_url": "https://github.com/PrismarineJS/mineflayer/commit/5586fbcc1822f5258a01b3374c63c100198f9a6b",
            "node_id": "MDY6Q29tbWl0MTI4NDE4NTo1NTg2ZmJjYzE4MjJmNTI1OGEwMWIzMzc0YzYzYzEwMDE5OGY5YTZi",
            "parents": [
                {
                    "html_url": "https://github.com/PrismarineJS/mineflayer/commit/621de88bee3106cbc4fe0b22db982c7f45d77b77",
                    "sha": "621de88bee3106cbc4fe0b22db982c7f45d77b77",
                    "url": "https://api.github.com/repos/PrismarineJS/mineflayer/commits/621de88bee3106cbc4fe0b22db982c7f45d77b77"
                }
            ],
            "sha": "5586fbcc1822f5258a01b3374c63c100198f9a6b",
            "url": "https://api.github.com/repos/PrismarineJS/mineflayer/commits/5586fbcc1822f5258a01b3374c63c100198f9a6b"
        },
        {
            "author": {
                "avatar_url": "https://avatars.githubusercontent.com/u/43508353?v=4",
                "events_url": "https://api.github.com/users/u9g/events{/privacy}",
                "followers_url": "https://api.github.com/users/u9g/followers",
                "following_url": "https://api.github.com/users/u9g/following{/other_user}",
                "gists_url": "https://api.github.com/users/u9g/gists{/gist_id}",
                "gravatar_id": "",
                "html_url": "https://github.com/u9g",
                "id": 43508353,
                "login": "u9g",
                "node_id": "MDQ6VXNlcjQzNTA4MzUz",
                "organizations_url": "https://api.github.com/users/u9g/orgs",
                "received_events_url": "https://api.github.com/users/u9g/received_events",
                "repos_url": "https://api.github.com/users/u9g/repos",
                "site_admin": false,
                "starred_url": "https://api.github.com/users/u9g/starred{/owner}{/repo}",
                "subscriptions_url": "https://api.github.com/users/u9g/subscriptions",
                "type": "User",
                "url": "https://api.github.com/users/u9g"
            },
            "comments_url": "https://api.github.com/repos/PrismarineJS/mineflayer/commits/9984eaf92bb644930911c9a35d1873793c34b07e/comments",
            "commit": {
                "author": {
                    "date": "2021-02-21T01:16:13Z",
                    "email": "43508353+u9g@users.noreply.github.com",
                    "name": "u9g"
                },
                "comment_count": 0,
                "committer": {
                    "date": "2021-02-21T01:16:13Z",
                    "email": "noreply@github.com",
                    "name": "GitHub"
                },
                "message": "Rename docs/unstable_api_ru.md to docs/ru/unstable_api_ru.md",
                "tree": {
                    "sha": "b4ec61ee1b7a2f60722362c862bbf90bd84562b4",
                    "url": "https://api.github.com/repos/PrismarineJS/mineflayer/git/trees/b4ec61ee1b7a2f60722362c862bbf90bd84562b4"
                },
                "url": "https://api.github.com/repos/PrismarineJS/mineflayer/git/commits/9984eaf92bb644930911c9a35d1873793c34b07e",
                "verification": {
                    "payload": "tree b4ec61ee1b7a2f60722362c862bbf90bd84562b4\nparent 5586fbcc1822f5258a01b3374c63c100198f9a6b\nauthor u9g <43508353+u9g@users.noreply.github.com> 1613870173 -0500\ncommitter GitHub <noreply@github.com> 1613870173 -0500\n\nRename docs/unstable_api_ru.md to docs/ru/unstable_api_ru.md",
                    "reason": "valid",
                    "signature": "-----BEGIN PGP SIGNATURE-----\n\nwsBcBAABCAAQBQJgMbRdCRBK7hj4Ov3rIwAAdHIIAKB79RiDO72EMvo0OgoTjsGx\neehbWaVQQDX2KB/EXF5HAUQ0idtPtJ+UilzFkVoMEy5PsDNXsuUoqrxaYC15Xd7l\nVskOUT8FWhI9B7siWhyccre/urITboPaXgukJUtC59B87bTenwIkXnvaWiFCj+dt\nmbOjXs1agm6Vl9MOifvitP/i8LJ/l680LvI01xqMmU0tCuRW44eDuagRV8NFBZMu\njJrDvdoCaNvsmxUmuek4FDsYqN/TsXcB6GpuxfwWFdbydMr9sIaMbI+qfHT4IwBt\n9vfzCTmIImA5ePPsIJrVtwqbXa5k0LhJIGIf7Wd8RQjPHmOEvIT0r7X7HLRFcjE=\n=CInU\n-----END PGP SIGNATURE-----\n",
                    "verified": true
                }
            },
            "committer": {
                "avatar_url": "https://avatars.githubusercontent.com/u/19864447?v=4",
                "events_url": "https://api.github.com/users/web-flow/events{/privacy}",
                "followers_url": "https://api.github.com/users/web-flow/followers",
                "following_url": "https://api.github.com/users/web-flow/following{/other_user}",
                "gists_url": "https://api.github.com/users/web-flow/gists{/gist_id}",
                "gravatar_id": "",
                "html_url": "https://github.com/web-flow",
                "id": 19864447,
                "login": "web-flow",
                "node_id": "MDQ6VXNlcjE5ODY0NDQ3",
                "organizations_url": "https://api.github.com/users/web-flow/orgs",
                "received_events_url": "https://api.github.com/users/web-flow/received_events",
                "repos_url": "https://api.github.com/users/web-flow/repos",
                "site_admin": false,
                "starred_url": "https://api.github.com/users/web-flow/starred{/owner}{/repo}",
                "subscriptions_url": "https://api.github.com/users/web-flow/subscriptions",
                "type": "User",
                "url": "https://api.github.com/users/web-flow"
            },
            "html_url": "https://github.com/PrismarineJS/mineflayer/commit/9984eaf92bb644930911c9a35d1873793c34b07e",
            "node_id": "MDY6Q29tbWl0MTI4NDE4NTo5OTg0ZWFmOTJiYjY0NDkzMDkxMWM5YTM1ZDE4NzM3OTNjMzRiMDdl",
            "parents": [
                {
                    "html_url": "https://github.com/PrismarineJS/mineflayer/commit/5586fbcc1822f5258a01b3374c63c100198f9a6b",
                    "sha": "5586fbcc1822f5258a01b3374c63c100198f9a6b",
                    "url": "https://api.github.com/repos/PrismarineJS/mineflayer/commits/5586fbcc1822f5258a01b3374c63c100198f9a6b"
                }
            ],
            "sha": "9984eaf92bb644930911c9a35d1873793c34b07e",
            "url": "https://api.github.com/repos/PrismarineJS/mineflayer/commits/9984eaf92bb644930911c9a35d1873793c34b07e"
        },
        {
            "author": {
                "avatar_url": "https://avatars.githubusercontent.com/u/43508353?v=4",
                "events_url": "https://api.github.com/users/u9g/events{/privacy}",
                "followers_url": "https://api.github.com/users/u9g/followers",
                "following_url": "https://api.github.com/users/u9g/following{/other_user}",
                "gists_url": "https://api.github.com/users/u9g/gists{/gist_id}",
                "gravatar_id": "",
                "html_url": "https://github.com/u9g",
                "id": 43508353,
                "login": "u9g",
                "node_id": "MDQ6VXNlcjQzNTA4MzUz",
                "organizations_url": "https://api.github.com/users/u9g/orgs",
                "received_events_url": "https://api.github.com/users/u9g/received_events",
                "repos_url": "https://api.github.com/users/u9g/repos",
                "site_admin": false,
                "starred_url": "https://api.github.com/users/u9g/starred{/owner}{/repo}",
                "subscriptions_url": "https://api.github.com/users/u9g/subscriptions",
                "type": "User",
                "url": "https://api.github.com/users/u9g"
            },
            "comments_url": "https://api.github.com/repos/PrismarineJS/mineflayer/commits/7267d1cda34786984cec924dae54e22eb241458e/comments",
            "commit": {
                "author": {
                    "date": "2021-02-21T18:06:33Z",
                    "email": "43508353+u9g@users.noreply.github.com",
                    "name": "u9g"
                },
                "comment_count": 0,
                "committer": {
                    "date": "2021-02-21T18:06:33Z",
                    "email": "noreply@github.com",
                    "name": "GitHub"
                },
                "message": "Update README.md",
                "tree": {
                    "sha": "6d9a5af80dba3003576f009130502cdf8989c948",
                    "url": "https://api.github.com/repos/PrismarineJS/mineflayer/git/trees/6d9a5af80dba3003576f009130502cdf8989c948"
                },
                "url": "https://api.github.com/repos/PrismarineJS/mineflayer/git/commits/7267d1cda34786984cec924dae54e22eb241458e",
                "verification": {
                    "payload": "tree 6d9a5af80dba3003576f009130502cdf8989c948\nparent 9984eaf92bb644930911c9a35d1873793c34b07e\nauthor u9g <43508353+u9g@users.noreply.github.com> 1613930793 -0500\ncommitter GitHub <noreply@github.com> 1613930793 -0500\n\nUpdate README.md",
                    "reason": "valid",
                    "signature": "-----BEGIN PGP SIGNATURE-----\n\nwsBcBAABCAAQBQJgMqEpCRBK7hj4Ov3rIwAAdHIIAEHmFPaD8SEuBDhWlwsueikY\nSlKf1b4E1GnQjwsB/apAUJ5leopDF54Bt3kB9r17B6ZSKfgE8r88AmIqgMuphhyU\n3LZNi2u4bG2szaLE1hDMFawTGJ5iM4nL8r6lsp4uDBXR55kvBNQIoBbSDd9nTQqT\nbzOV91cyWDKGZte7NBk2pg/OtP0ErUx+Yd0/CFZHl4Jls+TzK3QH0AGSlXInFrWo\nhprwsHy/Dm2TJukVfRUwYVtCQzZkY5jKf3PgdIqp8wAG0wBRiNGN5r6RL9MhpTnd\nB0vtQRXafokOZOmSFL6b+waGrHGNWeJQl1beZoQaEkMKXpiLtuMSXizlDhtAnAM=\n=iMni\n-----END PGP SIGNATURE-----\n",
                    "verified": true
                }
            },
            "committer": {
                "avatar_url": "https://avatars.githubusercontent.com/u/19864447?v=4",
                "events_url": "https://api.github.com/users/web-flow/events{/privacy}",
                "followers_url": "https://api.github.com/users/web-flow/followers",
                "following_url": "https://api.github.com/users/web-flow/following{/other_user}",
                "gists_url": "https://api.github.com/users/web-flow/gists{/gist_id}",
                "gravatar_id": "",
                "html_url": "https://github.com/web-flow",
                "id": 19864447,
                "login": "web-flow",
                "node_id": "MDQ6VXNlcjE5ODY0NDQ3",
                "organizations_url": "https://api.github.com/users/web-flow/orgs",
                "received_events_url": "https://api.github.com/users/web-flow/received_events",
                "repos_url": "https://api.github.com/users/web-flow/repos",
                "site_admin": false,
                "starred_url": "https://api.github.com/users/web-flow/starred{/owner}{/repo}",
                "subscriptions_url": "https://api.github.com/users/web-flow/subscriptions",
                "type": "User",
                "url": "https://api.github.com/users/web-flow"
            },
            "html_url": "https://github.com/PrismarineJS/mineflayer/commit/7267d1cda34786984cec924dae54e22eb241458e",
            "node_id": "MDY6Q29tbWl0MTI4NDE4NTo3MjY3ZDFjZGEzNDc4Njk4NGNlYzkyNGRhZTU0ZTIyZWIyNDE0NThl",
            "parents": [
                {
                    "html_url": "https://github.com/PrismarineJS/mineflayer/commit/9984eaf92bb644930911c9a35d1873793c34b07e",
                    "sha": "9984eaf92bb644930911c9a35d1873793c34b07e",
                    "url": "https://api.github.com/repos/PrismarineJS/mineflayer/commits/9984eaf92bb644930911c9a35d1873793c34b07e"
                }
            ],
            "sha": "7267d1cda34786984cec924dae54e22eb241458e",
            "url": "https://api.github.com/repos/PrismarineJS/mineflayer/commits/7267d1cda34786984cec924dae54e22eb241458e"
        }
    ],
    "commits": 6,
    "commits_url": "https://api.github.com/repos/PrismarineJS/mineflayer/pulls/1693/commits",
    "created_at": "2021-02-21T01:13:10Z",
    "deletions": 1,
    "diff_url": "https://github.com/PrismarineJS/mineflayer/pull/1693.diff",
    "draft": false,
    "head": {
        "label": "u9g:patch-4",
        "ref": "patch-4",
        "repo": null,
        "sha": "7267d1cda34786984cec924dae54e22eb241458e",
        "user": {
            "avatar_url": "https://avatars.githubusercontent.com/u/43508353?v=4",
            "events_url": "https://api.github.com/users/u9g/events{/privacy}",
            "followers_url": "https://api.github.com/users/u9g/followers",
            "following_url": "https://api.github.com/users/u9g/following{/other_user}",
            "gists_url": "https://api.github.com/users/u9g/gists{/gist_id}",
            "gravatar_id": "",
            "html_url": "https://github.com/u9g",
            "id": 43508353,
            "login": "u9g",
            "node_id": "MDQ6VXNlcjQzNTA4MzUz",
            "organizations_url": "https://api.github.com/users/u9g/orgs",
            "received_events_url": "https://api.github.com/users/u9g/received_events",
            "repos_url": "https://api.github.com/users/u9g/repos",
            "site_admin": false,
            "starred_url": "https://api.github.com/users/u9g/starred{/owner}{/repo}",
            "subscriptions_url": "https://api.github.com/users/u9g/subscriptions",
            "type": "User",
            "url": "https://api.github.com/users/u9g"
        }
    },
    "html_url": "https://github.com/PrismarineJS/mineflayer/pull/1693",
    "id": 577032197,
    "issue_url": "https://api.github.com/repos/PrismarineJS/mineflayer/issues/1693",
    "labels": [],
    "locked": false,
    "maintainer_can_modify": false,
    "merge_commit_sha": "229e9d559f170227e0d1b8becaadbeb878fcb721",
    "mergeable": null,
    "mergeable_state": "unknown",
    "merged": true,
    "merged_at": "2021-02-21T18:24:59Z",
    "merged_by": {
        "avatar_url": "https://avatars.githubusercontent.com/u/2346494?v=4",
        "events_url": "https://api.github.com/users/rom1504/events{/privacy}",
        "followers_url": "https://api.github.com/users/rom1504/followers",
        "following_url": "https://api.github.com/users/rom1504/following{/other_user}",
        "gists_url": "https://api.github.com/users/rom1504/gists{/gist_id}",
        "gravatar_id": "",
        "html_url": "https://github.com/rom1504",
        "id": 2346494,
        "login": "rom1504",
        "node_id": "MDQ6VXNlcjIzNDY0OTQ=",
        "organizations_url": "https://api.github.com/users/rom1504/orgs",
        "received_events_url": "https://api.github.com/users/rom1504/received_events",
        "repos_url": "https://api.github.com/users/rom1504/repos",
        "site_admin": false,
        "starred_url": "https://api.github.com/users/rom1504/starred{/owner}{/repo}",
        "subscriptions_url": "https://api.github.com/users/rom1504/subscriptions",
        "type": "User",
        "url": "https://api.github.com/users/rom1504"
    },
    "milestone": null,
    "node_id": "MDExOlB1bGxSZXF1ZXN0NTc3MDMyMTk3",
    "number": 1693,
    "patch_url": "https://github.com/PrismarineJS/mineflayer/pull/1693.patch",
    "rebaseable": null,
    "requested_reviewers": [],
    "requested_teams": [],
    "review_comment_url": "https://api.github.com/repos/PrismarineJS/mineflayer/pulls/comments{/number}",
    "review_comments": 0,
    "review_comments_url": "https://api.github.com/repos/PrismarineJS/mineflayer/pulls/1693/comments",
    "state": "closed",
    "statuses_url": "https://api.github.com/repos/PrismarineJS/mineflayer/statuses/7267d1cda34786984cec924dae54e22eb241458e",
    "title": "Organize translated docs #989",
    "updated_at": "2021-02-21T18:25:16Z",
    "url": "https://api.github.com/repos/PrismarineJS/mineflayer/pulls/1693",
    "user": {
        "avatar_url": "https://avatars.githubusercontent.com/u/43508353?v=4",
        "events_url": "https://api.github.com/users/u9g/events{/privacy}",
        "followers_url": "https://api.github.com/users/u9g/followers",
        "following_url": "https://api.github.com/users/u9g/following{/other_user}",
        "gists_url": "https://api.github.com/users/u9g/gists{/gist_id}",
        "gravatar_id": "",
        "html_url": "https://github.com/u9g",
        "id": 43508353,
        "login": "u9g",
        "node_id": "MDQ6VXNlcjQzNTA4MzUz",
        "organizations_url": "https://api.github.com/users/u9g/orgs",
        "received_events_url": "https://api.github.com/users/u9g/received_events",
        "repos_url": "https://api.github.com/users/u9g/repos",
        "site_admin": false,
        "starred_url": "https://api.github.com/users/u9g/starred{/owner}{/repo}",
        "subscriptions_url": "https://api.github.com/users/u9g/subscriptions",
        "type": "User",
        "url": "https://api.github.com/users/u9g"
    }
}