{
    "_links": {
        "comments": {
            "href": "https://api.github.com/repos/PrismarineJS/mineflayer/issues/1695/comments"
        },
        "commits": {
            "href": "https://api.github.com/repos/PrismarineJS/mineflayer/pulls/1695/commits"
        },
        "html": {
            "href": "https://github.com/PrismarineJS/mineflayer/pull/1695"
        },
        "issue": {
            "href": "https://api.github.com/repos/PrismarineJS/mineflayer/issues/1695"
        },
        "review_comment": {
            "href": "https://api.github.com/repos/PrismarineJS/mineflayer/pulls/comments{/number}"
        },
        "review_comments": {
            "href": "https://api.github.com/repos/PrismarineJS/mineflayer/pulls/1695/comments"
        },
        "self": {
            "href": "https://api.github.com/repos/PrismarineJS/mineflayer/pulls/1695"
        },
        "statuses": {
            "href": "https://api.github.com/repos/PrismarineJS/mineflayer/statuses/a0557f0cbce074019c6a67ea11d4005fb0246412"
        }
    },
    "active_lock_reason": null,
    "additions": 31,
    "assignee": null,
    "assignees": [],
    "author_association": "MEMBER",
    "auto_merge": null,
    "base": {
        "label": "PrismarineJS:master",
        "ref": "master",
        "repo": {
            "allow_forking": true,
            "archive_url": "https://api.github.com/repos/PrismarineJS/mineflayer/{archive_format}{/ref}",
            "archived": false,
            "assignees_url": "https://api.github.com/repos/PrismarineJS/mineflayer/assignees{/user}",
            "blobs_url": "https://api.github.com/repos/PrismarineJS/mineflayer/git/blobs{/sha}",
            "branches_url": "https://api.github.com/repos/PrismarineJS/mineflayer/branches{/branch}",
            "clone_url": "https://github.com/PrismarineJS/mineflayer.git",
            "collaborators_url": "https://api.github.com/repos/PrismarineJS/mineflayer/collaborators{/collaborator}",
            "comments_url": "https://api.github.com/repos/PrismarineJS/mineflayer/comments{/number}",
            "commits_url": "https://api.github.com/repos/PrismarineJS/mineflayer/commits{/sha}",
            "compare_url": "https://api.github.com/repos/PrismarineJS/mineflayer/compare/{base}...{head}",
            "contents_url": "https://api.github.com/repos/PrismarineJS/mineflayer/contents/{+path}",
            "contributors_url": "https://api.github.com/repos/PrismarineJS/mineflayer/contributors",
            "created_at": "2011-01-23T09:41:55Z",
            "default_branch": "master",
            "deployments_url": "https://api.github.com/repos/PrismarineJS/mineflayer/deployments",
            "description": "Create Minecraft bots with a powerful, stable, and high level JavaScript API.",
            "disabled": false,
            "downloads_url": "https://api.github.com/repos/PrismarineJS/mineflayer/downloads",
            "events_url": "https://api.github.com/repos/PrismarineJS/mineflayer/events",
            "fork": false,
            "forks": 748,
            "forks_count": 748,
            "forks_url": "https://api.github.com/repos/PrismarineJS/mineflayer/forks",
            "full_name": "PrismarineJS/mineflayer",
            "git_commits_url": "https://api.github.com/repos/PrismarineJS/mineflayer/git/commits{/sha}",
            "git_refs_url": "https://api.github.com/repos/PrismarineJS/mineflayer/git/refs{/sha}",
            "git_tags_url": "https://api.github.com/repos/PrismarineJS/mineflayer/git/tags{/sha}",
            "git_url": "git://github.com/PrismarineJS/mineflayer.git",
            "has_discussions": true,
            "has_downloads": true,
            "has_issues": true,
            "has_pages": true,
            "has_projects": true,
            "has_wiki": true,
            "homepage": "https://prismarinejs.github.io/mineflayer/",
            "hooks_url": "https://api.github.com/repos/PrismarineJS/mineflayer/hooks",
            "html_url": "https://github.com/PrismarineJS/mineflayer",
            "id": 1284185,
            "is_template": false,
            "issue_comment_url": "https://api.github.com/repos/PrismarineJS/mineflayer/issues/comments{/number}",
            "issue_events_url": "https://api.github.com/repos/PrismarineJS/mineflayer/issues/events{/number}",
            "issues_url": "https://api.github.com/repos/PrismarineJS/mineflayer/issues{/number}",
            "keys_url": "https://api.github.com/repos/PrismarineJS/mineflayer/keys{/key_id}",
            "labels_url": "https://api.github.com/repos/PrismarineJS/mineflayer/labels{/name}",
            "language": "JavaScript",
            "languages_url": "https://api.github.com/repos/PrismarineJS/mineflayer/languages",
            "license": {
                "key": "mit",
                "name": "MIT License",
                "node_id": "MDc6TGljZW5zZTEz",
                "spdx_id": "MIT",
                "url": "https://api.github.com/licenses/mit"
            },
            "merges_url": "https://api.github.com/repos/PrismarineJS/mineflayer/merges",
            "milestones_url": "https://api.github.com/repos/PrismarineJS/mineflayer/milestones{/number}",
            "mirror_url": null,
            "name": "mineflayer",
            "node_id": "MDEwOlJlcG9zaXRvcnkxMjg0MTg1",
            "notifications_url": "https://api.github.com/repos/PrismarineJS/mineflayer/notifications{?since,all,participating}",
            "open_issues": 269,
            "open_issues_count": 269,
            "owner": {
                "avatar_url": "https://avatars.githubusercontent.com/u/11053411?v=4",
                "events_url": "https://api.github.com/users/PrismarineJS/events{/privacy}",
                "followers_url": "https://api.github.com/users/PrismarineJS/followers",
                "following_url": "https://api.github.com/users/PrismarineJS/following{/other_user}",
                "gists_url": "https://api.github.com/users/PrismarineJS/gists{/gist_id}",
                "gravatar_id": "",
                "html_url": "https://github.com/PrismarineJS",
                "id": 11053411,
                "login": "PrismarineJS",
                "node_id": "MDEyOk9yZ2FuaXphdGlvbjExMDUzNDEx",
                "organizations_url": "https://api.github.com/users/PrismarineJS/orgs",
                "received_events_url": "https://api.github.com/users/PrismarineJS/received_events",
                "repos_url": "https://api.github.com/users/PrismarineJS/repos",
                "site_admin": false,
                "starred_url": "https://api.github.com/users/PrismarineJS/starred{/owner}{/repo}",
                "subscriptions_url": "https://api.github.com/users/PrismarineJS/subscriptions",
                "type": "Organization",
                "url": "https://api.github.com/users/PrismarineJS"
            },
            "private": false,
            "pulls_url": "https://api.github.com/repos/PrismarineJS/mineflayer/pulls{/number}",
            "pushed_at": "2023-04-25T00:44:52Z",
            "releases_url": "https://api.github.com/repos/PrismarineJS/mineflayer/releases{/id}",
            "size": 12493,
            "ssh_url": "git@github.com:PrismarineJS/mineflayer.git",
            "stargazers_count": 3698,
            "stargazers_url": "https://api.github.com/repos/PrismarineJS/mineflayer/stargazers",
            "statuses_url": "https://api.github.com/repos/PrismarineJS/mineflayer/statuses/{sha}",
            "subscribers_url": "https://api.github.com/repos/PrismarineJS/mineflayer/subscribers",
            "subscription_url": "https://api.github.com/repos/PrismarineJS/mineflayer/subscription",
            "svn_url": "https://github.com/PrismarineJS/mineflayer",
            "tags_url": "https://api.github.com/repos/PrismarineJS/mineflayer/tags",
            "teams_url": "https://api.github.com/repos/PrismarineJS/mineflayer/teams",
            "topics": [
                "bot",
                "minecraft",
                "minecraft-api",
                "minecraft-bot",
                "network",
                "nodejs"
            ],
            "trees_url": "https://api.github.com/repos/PrismarineJS/mineflayer/git/trees{/sha}",
            "updated_at": "2023-04-25T14:07:03Z",
            "url": "https://api.github.com/repos/PrismarineJS/mineflayer",
            "visibility": "public",
            "watchers": 3698,
            "watchers_count": 3698,
            "web_commit_signoff_required": false
        },
        "sha": "72b8eccf55383fd41782d34594f075fd4878003d",
        "user": {
            "avatar_url": "https://avatars.githubusercontent.com/u/11053411?v=4",
            "events_url": "https://api.github.com/users/PrismarineJS/events{/privacy}",
            "followers_url": "https://api.github.com/users/PrismarineJS/followers",
            "following_url": "https://api.github.com/users/PrismarineJS/following{/other_user}",
            "gists_url": "https://api.github.com/users/PrismarineJS/gists{/gist_id}",
            "gravatar_id": "",
            "html_url": "https://github.com/PrismarineJS",
            "id": 11053411,
            "login": "PrismarineJS",
            "node_id": "MDEyOk9yZ2FuaXphdGlvbjExMDUzNDEx",
            "organizations_url": "https://api.github.com/users/PrismarineJS/orgs",
            "received_events_url": "https://api.github.com/users/PrismarineJS/received_events",
            "repos_url": "https://api.github.com/users/PrismarineJS/repos",
            "site_admin": false,
            "starred_url": "https://api.github.com/users/PrismarineJS/starred{/owner}{/repo}",
            "subscriptions_url": "https://api.github.com/users/PrismarineJS/subscriptions",
            "type": "Organization",
            "url": "https://api.github.com/users/PrismarineJS"
        }
    },
    "body": "",
    "changed_files": 1,
    "closed_at": "2021-02-21T18:04:10Z",
    "comment_data": [],
    "comment_regular_data": [],
    "comments": 0,
    "comments_url": "https://api.github.com/repos/PrismarineJS/mineflayer/issues/1695/comments",
    "commit_data": [
        {
            "author": {
                "avatar_url": "https://avatars.githubusercontent.com/u/43508353?v=4",
                "events_url": "https://api.github.com/users/u9g/events{/privacy}",
                "followers_url": "https://api.github.com/users/u9g/followers",
                "following_url": "https://api.github.com/users/u9g/following{/other_user}",
                "gists_url": "https://api.github.com/users/u9g/gists{/gist_id}",
                "gravatar_id": "",
                "html_url": "https://github.com/u9g",
                "id": 43508353,
                "login": "u9g",
                "node_id": "MDQ6VXNlcjQzNTA4MzUz",
                "organizations_url": "https://api.github.com/users/u9g/orgs",
                "received_events_url": "https://api.github.com/users/u9g/received_events",
                "repos_url": "https://api.github.com/users/u9g/repos",
                "site_admin": false,
                "starred_url": "https://api.github.com/users/u9g/starred{/owner}{/repo}",
                "subscriptions_url": "https://api.github.com/users/u9g/subscriptions",
                "type": "User",
                "url": "https://api.github.com/users/u9g"
            },
            "comments_url": "https://api.github.com/repos/PrismarineJS/mineflayer/commits/a0557f0cbce074019c6a67ea11d4005fb0246412/comments",
            "commit": {
                "author": {
                    "date": "2021-02-21T02:31:03Z",
                    "email": "43508353+u9g@users.noreply.github.com",
                    "name": "u9g"
                },
                "comment_count": 0,
                "committer": {
                    "date": "2021-02-21T02:31:03Z",
                    "email": "noreply@github.com",
                    "name": "GitHub"
                },
                "message": "Add crossbow example",
                "tree": {
                    "sha": "f2b8bc7af870528a552df3cf9efc249693f1e3f1",
                    "url": "https://api.github.com/repos/PrismarineJS/mineflayer/git/trees/f2b8bc7af870528a552df3cf9efc249693f1e3f1"
                },
                "url": "https://api.github.com/repos/PrismarineJS/mineflayer/git/commits/a0557f0cbce074019c6a67ea11d4005fb0246412",
                "verification": {
                    "payload": "tree f2b8bc7af870528a552df3cf9efc249693f1e3f1\nparent 72b8eccf55383fd41782d34594f075fd4878003d\nauthor u9g <43508353+u9g@users.noreply.github.com> 1613874663 -0500\ncommitter GitHub <noreply@github.com> 1613874663 -0500\n\nAdd crossbow example",
                    "reason": "valid",
                    "signature": "-----BEGIN PGP SIGNATURE-----\n\nwsBcBAABCAAQBQJgMcXnCRBK7hj4Ov3rIwAAdHIIAK8iuUdY5bzjLj/3KE+TC840\nip78ki62ypH1x+uO/2/LlCDIeipNILNR7asuLIzRPH2bqfDjhDa8dTmkJFtsZQVI\ngdCDxEnf/UzsZhvf/cR0jiw+tTTlkmSyVIx25313xWavqomG6WdqPaMnUHBuqk8Y\nKYE0X4an9xaQAn7/T4fW+CX7otYzmCJgUotwrn5pPOfIODYlDtWOtmEUvB223Mbx\nwlolvQf0q2m3yCXSKy2e/K+d9Oa8iTyEvkgJlpP44XI2VnrSRlJSwjA7y4SW3QBE\nm/v1bYLFEpo232+tfjC8zC6YuT6h6vX6IFpwVCnE9PaulVk74eaT5ouS3mYozQY=\n=74nH\n-----END PGP SIGNATURE-----\n",
                    "verified": true
                }
            },
            "committer": {
                "avatar_url": "https://avatars.githubusercontent.com/u/19864447?v=4",
                "events_url": "https://api.github.com/users/web-flow/events{/privacy}",
                "followers_url": "https://api.github.com/users/web-flow/followers",
                "following_url": "https://api.github.com/users/web-flow/following{/other_user}",
                "gists_url": "https://api.github.com/users/web-flow/gists{/gist_id}",
                "gravatar_id": "",
                "html_url": "https://github.com/web-flow",
                "id": 19864447,
                "login": "web-flow",
                "node_id": "MDQ6VXNlcjE5ODY0NDQ3",
                "organizations_url": "https://api.github.com/users/web-flow/orgs",
                "received_events_url": "https://api.github.com/users/web-flow/received_events",
                "repos_url": "https://api.github.com/users/web-flow/repos",
                "site_admin": false,
                "starred_url": "https://api.github.com/users/web-flow/starred{/owner}{/repo}",
                "subscriptions_url": "https://api.github.com/users/web-flow/subscriptions",
                "type": "User",
                "url": "https://api.github.com/users/web-flow"
            },
            "html_url": "https://github.com/PrismarineJS/mineflayer/commit/a0557f0cbce074019c6a67ea11d4005fb0246412",
            "node_id": "MDY6Q29tbWl0MTI4NDE4NTphMDU1N2YwY2JjZTA3NDAxOWM2YTY3ZWExMWQ0MDA1ZmIwMjQ2NDEy",
            "parents": [
                {
                    "html_url": "https://github.com/PrismarineJS/mineflayer/commit/72b8eccf55383fd41782d34594f075fd4878003d",
                    "sha": "72b8eccf55383fd41782d34594f075fd4878003d",
                    "url": "https://api.github.com/repos/PrismarineJS/mineflayer/commits/72b8eccf55383fd41782d34594f075fd4878003d"
                }
            ],
            "sha": "a0557f0cbce074019c6a67ea11d4005fb0246412",
            "url": "https://api.github.com/repos/PrismarineJS/mineflayer/commits/a0557f0cbce074019c6a67ea11d4005fb0246412"
        }
    ],
    "commits": 1,
    "commits_url": "https://api.github.com/repos/PrismarineJS/mineflayer/pulls/1695/commits",
    "created_at": "2021-02-21T02:31:08Z",
    "deletions": 0,
    "diff_url": "https://github.com/PrismarineJS/mineflayer/pull/1695.diff",
    "draft": false,
    "head": {
        "label": "u9g:patch-5",
        "ref": "patch-5",
        "repo": null,
        "sha": "a0557f0cbce074019c6a67ea11d4005fb0246412",
        "user": {
            "avatar_url": "https://avatars.githubusercontent.com/u/43508353?v=4",
            "events_url": "https://api.github.com/users/u9g/events{/privacy}",
            "followers_url": "https://api.github.com/users/u9g/followers",
            "following_url": "https://api.github.com/users/u9g/following{/other_user}",
            "gists_url": "https://api.github.com/users/u9g/gists{/gist_id}",
            "gravatar_id": "",
            "html_url": "https://github.com/u9g",
            "id": 43508353,
            "login": "u9g",
            "node_id": "MDQ6VXNlcjQzNTA4MzUz",
            "organizations_url": "https://api.github.com/users/u9g/orgs",
            "received_events_url": "https://api.github.com/users/u9g/received_events",
            "repos_url": "https://api.github.com/users/u9g/repos",
            "site_admin": false,
            "starred_url": "https://api.github.com/users/u9g/starred{/owner}{/repo}",
            "subscriptions_url": "https://api.github.com/users/u9g/subscriptions",
            "type": "User",
            "url": "https://api.github.com/users/u9g"
        }
    },
    "html_url": "https://github.com/PrismarineJS/mineflayer/pull/1695",
    "id": 577039025,
    "issue_url": "https://api.github.com/repos/PrismarineJS/mineflayer/issues/1695",
    "labels": [],
    "locked": false,
    "maintainer_can_modify": false,
    "merge_commit_sha": "76345ebf24984ddcc42def85340814c479b902ff",
    "mergeable": null,
    "mergeable_state": "unknown",
    "merged": true,
    "merged_at": "2021-02-21T18:04:10Z",
    "merged_by": {
        "avatar_url": "https://avatars.githubusercontent.com/u/1977472?v=4",
        "events_url": "https://api.github.com/users/Karang/events{/privacy}",
        "followers_url": "https://api.github.com/users/Karang/followers",
        "following_url": "https://api.github.com/users/Karang/following{/other_user}",
        "gists_url": "https://api.github.com/users/Karang/gists{/gist_id}",
        "gravatar_id": "",
        "html_url": "https://github.com/Karang",
        "id": 1977472,
        "login": "Karang",
        "node_id": "MDQ6VXNlcjE5Nzc0NzI=",
        "organizations_url": "https://api.github.com/users/Karang/orgs",
        "received_events_url": "https://api.github.com/users/Karang/received_events",
        "repos_url": "https://api.github.com/users/Karang/repos",
        "site_admin": false,
        "starred_url": "https://api.github.com/users/Karang/starred{/owner}{/repo}",
        "subscriptions_url": "https://api.github.com/users/Karang/subscriptions",
        "type": "User",
        "url": "https://api.github.com/users/Karang"
    },
    "milestone": null,
    "node_id": "MDExOlB1bGxSZXF1ZXN0NTc3MDM5MDI1",
    "number": 1695,
    "patch_url": "https://github.com/PrismarineJS/mineflayer/pull/1695.patch",
    "rebaseable": null,
    "requested_reviewers": [],
    "requested_teams": [],
    "review_comment_url": "https://api.github.com/repos/PrismarineJS/mineflayer/pulls/comments{/number}",
    "review_comments": 0,
    "review_comments_url": "https://api.github.com/repos/PrismarineJS/mineflayer/pulls/1695/comments",
    "state": "closed",
    "statuses_url": "https://api.github.com/repos/PrismarineJS/mineflayer/statuses/a0557f0cbce074019c6a67ea11d4005fb0246412",
    "title": "Add crossbow example",
    "updated_at": "2021-02-21T18:04:13Z",
    "url": "https://api.github.com/repos/PrismarineJS/mineflayer/pulls/1695",
    "user": {
        "avatar_url": "https://avatars.githubusercontent.com/u/43508353?v=4",
        "events_url": "https://api.github.com/users/u9g/events{/privacy}",
        "followers_url": "https://api.github.com/users/u9g/followers",
        "following_url": "https://api.github.com/users/u9g/following{/other_user}",
        "gists_url": "https://api.github.com/users/u9g/gists{/gist_id}",
        "gravatar_id": "",
        "html_url": "https://github.com/u9g",
        "id": 43508353,
        "login": "u9g",
        "node_id": "MDQ6VXNlcjQzNTA4MzUz",
        "organizations_url": "https://api.github.com/users/u9g/orgs",
        "received_events_url": "https://api.github.com/users/u9g/received_events",
        "repos_url": "https://api.github.com/users/u9g/repos",
        "site_admin": false,
        "starred_url": "https://api.github.com/users/u9g/starred{/owner}{/repo}",
        "subscriptions_url": "https://api.github.com/users/u9g/subscriptions",
        "type": "User",
        "url": "https://api.github.com/users/u9g"
    }
}