{
    "_links": {
        "comments": {
            "href": "https://api.github.com/repos/PrismarineJS/mineflayer/issues/1702/comments"
        },
        "commits": {
            "href": "https://api.github.com/repos/PrismarineJS/mineflayer/pulls/1702/commits"
        },
        "html": {
            "href": "https://github.com/PrismarineJS/mineflayer/pull/1702"
        },
        "issue": {
            "href": "https://api.github.com/repos/PrismarineJS/mineflayer/issues/1702"
        },
        "review_comment": {
            "href": "https://api.github.com/repos/PrismarineJS/mineflayer/pulls/comments{/number}"
        },
        "review_comments": {
            "href": "https://api.github.com/repos/PrismarineJS/mineflayer/pulls/1702/comments"
        },
        "self": {
            "href": "https://api.github.com/repos/PrismarineJS/mineflayer/pulls/1702"
        },
        "statuses": {
            "href": "https://api.github.com/repos/PrismarineJS/mineflayer/statuses/c4ba9fbab90b7f0bc3b954eb3753879c8c68a518"
        }
    },
    "active_lock_reason": null,
    "additions": 15,
    "assignee": null,
    "assignees": [],
    "author_association": "MEMBER",
    "auto_merge": null,
    "base": {
        "label": "PrismarineJS:master",
        "ref": "master",
        "repo": {
            "allow_forking": true,
            "archive_url": "https://api.github.com/repos/PrismarineJS/mineflayer/{archive_format}{/ref}",
            "archived": false,
            "assignees_url": "https://api.github.com/repos/PrismarineJS/mineflayer/assignees{/user}",
            "blobs_url": "https://api.github.com/repos/PrismarineJS/mineflayer/git/blobs{/sha}",
            "branches_url": "https://api.github.com/repos/PrismarineJS/mineflayer/branches{/branch}",
            "clone_url": "https://github.com/PrismarineJS/mineflayer.git",
            "collaborators_url": "https://api.github.com/repos/PrismarineJS/mineflayer/collaborators{/collaborator}",
            "comments_url": "https://api.github.com/repos/PrismarineJS/mineflayer/comments{/number}",
            "commits_url": "https://api.github.com/repos/PrismarineJS/mineflayer/commits{/sha}",
            "compare_url": "https://api.github.com/repos/PrismarineJS/mineflayer/compare/{base}...{head}",
            "contents_url": "https://api.github.com/repos/PrismarineJS/mineflayer/contents/{+path}",
            "contributors_url": "https://api.github.com/repos/PrismarineJS/mineflayer/contributors",
            "created_at": "2011-01-23T09:41:55Z",
            "default_branch": "master",
            "deployments_url": "https://api.github.com/repos/PrismarineJS/mineflayer/deployments",
            "description": "Create Minecraft bots with a powerful, stable, and high level JavaScript API.",
            "disabled": false,
            "downloads_url": "https://api.github.com/repos/PrismarineJS/mineflayer/downloads",
            "events_url": "https://api.github.com/repos/PrismarineJS/mineflayer/events",
            "fork": false,
            "forks": 748,
            "forks_count": 748,
            "forks_url": "https://api.github.com/repos/PrismarineJS/mineflayer/forks",
            "full_name": "PrismarineJS/mineflayer",
            "git_commits_url": "https://api.github.com/repos/PrismarineJS/mineflayer/git/commits{/sha}",
            "git_refs_url": "https://api.github.com/repos/PrismarineJS/mineflayer/git/refs{/sha}",
            "git_tags_url": "https://api.github.com/repos/PrismarineJS/mineflayer/git/tags{/sha}",
            "git_url": "git://github.com/PrismarineJS/mineflayer.git",
            "has_discussions": true,
            "has_downloads": true,
            "has_issues": true,
            "has_pages": true,
            "has_projects": true,
            "has_wiki": true,
            "homepage": "https://prismarinejs.github.io/mineflayer/",
            "hooks_url": "https://api.github.com/repos/PrismarineJS/mineflayer/hooks",
            "html_url": "https://github.com/PrismarineJS/mineflayer",
            "id": 1284185,
            "is_template": false,
            "issue_comment_url": "https://api.github.com/repos/PrismarineJS/mineflayer/issues/comments{/number}",
            "issue_events_url": "https://api.github.com/repos/PrismarineJS/mineflayer/issues/events{/number}",
            "issues_url": "https://api.github.com/repos/PrismarineJS/mineflayer/issues{/number}",
            "keys_url": "https://api.github.com/repos/PrismarineJS/mineflayer/keys{/key_id}",
            "labels_url": "https://api.github.com/repos/PrismarineJS/mineflayer/labels{/name}",
            "language": "JavaScript",
            "languages_url": "https://api.github.com/repos/PrismarineJS/mineflayer/languages",
            "license": {
                "key": "mit",
                "name": "MIT License",
                "node_id": "MDc6TGljZW5zZTEz",
                "spdx_id": "MIT",
                "url": "https://api.github.com/licenses/mit"
            },
            "merges_url": "https://api.github.com/repos/PrismarineJS/mineflayer/merges",
            "milestones_url": "https://api.github.com/repos/PrismarineJS/mineflayer/milestones{/number}",
            "mirror_url": null,
            "name": "mineflayer",
            "node_id": "MDEwOlJlcG9zaXRvcnkxMjg0MTg1",
            "notifications_url": "https://api.github.com/repos/PrismarineJS/mineflayer/notifications{?since,all,participating}",
            "open_issues": 269,
            "open_issues_count": 269,
            "owner": {
                "avatar_url": "https://avatars.githubusercontent.com/u/11053411?v=4",
                "events_url": "https://api.github.com/users/PrismarineJS/events{/privacy}",
                "followers_url": "https://api.github.com/users/PrismarineJS/followers",
                "following_url": "https://api.github.com/users/PrismarineJS/following{/other_user}",
                "gists_url": "https://api.github.com/users/PrismarineJS/gists{/gist_id}",
                "gravatar_id": "",
                "html_url": "https://github.com/PrismarineJS",
                "id": 11053411,
                "login": "PrismarineJS",
                "node_id": "MDEyOk9yZ2FuaXphdGlvbjExMDUzNDEx",
                "organizations_url": "https://api.github.com/users/PrismarineJS/orgs",
                "received_events_url": "https://api.github.com/users/PrismarineJS/received_events",
                "repos_url": "https://api.github.com/users/PrismarineJS/repos",
                "site_admin": false,
                "starred_url": "https://api.github.com/users/PrismarineJS/starred{/owner}{/repo}",
                "subscriptions_url": "https://api.github.com/users/PrismarineJS/subscriptions",
                "type": "Organization",
                "url": "https://api.github.com/users/PrismarineJS"
            },
            "private": false,
            "pulls_url": "https://api.github.com/repos/PrismarineJS/mineflayer/pulls{/number}",
            "pushed_at": "2023-04-25T00:44:52Z",
            "releases_url": "https://api.github.com/repos/PrismarineJS/mineflayer/releases{/id}",
            "size": 12493,
            "ssh_url": "git@github.com:PrismarineJS/mineflayer.git",
            "stargazers_count": 3698,
            "stargazers_url": "https://api.github.com/repos/PrismarineJS/mineflayer/stargazers",
            "statuses_url": "https://api.github.com/repos/PrismarineJS/mineflayer/statuses/{sha}",
            "subscribers_url": "https://api.github.com/repos/PrismarineJS/mineflayer/subscribers",
            "subscription_url": "https://api.github.com/repos/PrismarineJS/mineflayer/subscription",
            "svn_url": "https://github.com/PrismarineJS/mineflayer",
            "tags_url": "https://api.github.com/repos/PrismarineJS/mineflayer/tags",
            "teams_url": "https://api.github.com/repos/PrismarineJS/mineflayer/teams",
            "topics": [
                "bot",
                "minecraft",
                "minecraft-api",
                "minecraft-bot",
                "network",
                "nodejs"
            ],
            "trees_url": "https://api.github.com/repos/PrismarineJS/mineflayer/git/trees{/sha}",
            "updated_at": "2023-04-25T14:07:03Z",
            "url": "https://api.github.com/repos/PrismarineJS/mineflayer",
            "visibility": "public",
            "watchers": 3698,
            "watchers_count": 3698,
            "web_commit_signoff_required": false
        },
        "sha": "72b8eccf55383fd41782d34594f075fd4878003d",
        "user": {
            "avatar_url": "https://avatars.githubusercontent.com/u/11053411?v=4",
            "events_url": "https://api.github.com/users/PrismarineJS/events{/privacy}",
            "followers_url": "https://api.github.com/users/PrismarineJS/followers",
            "following_url": "https://api.github.com/users/PrismarineJS/following{/other_user}",
            "gists_url": "https://api.github.com/users/PrismarineJS/gists{/gist_id}",
            "gravatar_id": "",
            "html_url": "https://github.com/PrismarineJS",
            "id": 11053411,
            "login": "PrismarineJS",
            "node_id": "MDEyOk9yZ2FuaXphdGlvbjExMDUzNDEx",
            "organizations_url": "https://api.github.com/users/PrismarineJS/orgs",
            "received_events_url": "https://api.github.com/users/PrismarineJS/received_events",
            "repos_url": "https://api.github.com/users/PrismarineJS/repos",
            "site_admin": false,
            "starred_url": "https://api.github.com/users/PrismarineJS/starred{/owner}{/repo}",
            "subscriptions_url": "https://api.github.com/users/PrismarineJS/subscriptions",
            "type": "Organization",
            "url": "https://api.github.com/users/PrismarineJS"
        }
    },
    "body": "",
    "changed_files": 3,
    "closed_at": "2021-02-21T18:12:58Z",
    "comment_data": [],
    "comment_regular_data": [],
    "comments": 0,
    "comments_url": "https://api.github.com/repos/PrismarineJS/mineflayer/issues/1702/comments",
    "commit_data": [
        {
            "author": {
                "avatar_url": "https://avatars.githubusercontent.com/u/1977472?v=4",
                "events_url": "https://api.github.com/users/Karang/events{/privacy}",
                "followers_url": "https://api.github.com/users/Karang/followers",
                "following_url": "https://api.github.com/users/Karang/following{/other_user}",
                "gists_url": "https://api.github.com/users/Karang/gists{/gist_id}",
                "gravatar_id": "",
                "html_url": "https://github.com/Karang",
                "id": 1977472,
                "login": "Karang",
                "node_id": "MDQ6VXNlcjE5Nzc0NzI=",
                "organizations_url": "https://api.github.com/users/Karang/orgs",
                "received_events_url": "https://api.github.com/users/Karang/received_events",
                "repos_url": "https://api.github.com/users/Karang/repos",
                "site_admin": false,
                "starred_url": "https://api.github.com/users/Karang/starred{/owner}{/repo}",
                "subscriptions_url": "https://api.github.com/users/Karang/subscriptions",
                "type": "User",
                "url": "https://api.github.com/users/Karang"
            },
            "comments_url": "https://api.github.com/repos/PrismarineJS/mineflayer/commits/c9967d9a55bc00eb286113210a309e36fb18783a/comments",
            "commit": {
                "author": {
                    "date": "2021-02-21T17:55:59Z",
                    "email": "arthur.hennequin@free.fr",
                    "name": "Karang"
                },
                "comment_count": 0,
                "committer": {
                    "date": "2021-02-21T17:55:59Z",
                    "email": "arthur.hennequin@free.fr",
                    "name": "Karang"
                },
                "message": "Bump prismarine world",
                "tree": {
                    "sha": "eaf917795ab8b09cf1ebe94c7e6827fc077cb83a",
                    "url": "https://api.github.com/repos/PrismarineJS/mineflayer/git/trees/eaf917795ab8b09cf1ebe94c7e6827fc077cb83a"
                },
                "url": "https://api.github.com/repos/PrismarineJS/mineflayer/git/commits/c9967d9a55bc00eb286113210a309e36fb18783a",
                "verification": {
                    "payload": null,
                    "reason": "unsigned",
                    "signature": null,
                    "verified": false
                }
            },
            "committer": {
                "avatar_url": "https://avatars.githubusercontent.com/u/1977472?v=4",
                "events_url": "https://api.github.com/users/Karang/events{/privacy}",
                "followers_url": "https://api.github.com/users/Karang/followers",
                "following_url": "https://api.github.com/users/Karang/following{/other_user}",
                "gists_url": "https://api.github.com/users/Karang/gists{/gist_id}",
                "gravatar_id": "",
                "html_url": "https://github.com/Karang",
                "id": 1977472,
                "login": "Karang",
                "node_id": "MDQ6VXNlcjE5Nzc0NzI=",
                "organizations_url": "https://api.github.com/users/Karang/orgs",
                "received_events_url": "https://api.github.com/users/Karang/received_events",
                "repos_url": "https://api.github.com/users/Karang/repos",
                "site_admin": false,
                "starred_url": "https://api.github.com/users/Karang/starred{/owner}{/repo}",
                "subscriptions_url": "https://api.github.com/users/Karang/subscriptions",
                "type": "User",
                "url": "https://api.github.com/users/Karang"
            },
            "html_url": "https://github.com/PrismarineJS/mineflayer/commit/c9967d9a55bc00eb286113210a309e36fb18783a",
            "node_id": "MDY6Q29tbWl0MjU0Njg5ODQzOmM5OTY3ZDlhNTViYzAwZWIyODYxMTMyMTBhMzA5ZTM2ZmIxODc4M2E=",
            "parents": [
                {
                    "html_url": "https://github.com/PrismarineJS/mineflayer/commit/72b8eccf55383fd41782d34594f075fd4878003d",
                    "sha": "72b8eccf55383fd41782d34594f075fd4878003d",
                    "url": "https://api.github.com/repos/PrismarineJS/mineflayer/commits/72b8eccf55383fd41782d34594f075fd4878003d"
                }
            ],
            "sha": "c9967d9a55bc00eb286113210a309e36fb18783a",
            "url": "https://api.github.com/repos/PrismarineJS/mineflayer/commits/c9967d9a55bc00eb286113210a309e36fb18783a"
        },
        {
            "author": {
                "avatar_url": "https://avatars.githubusercontent.com/u/1977472?v=4",
                "events_url": "https://api.github.com/users/Karang/events{/privacy}",
                "followers_url": "https://api.github.com/users/Karang/followers",
                "following_url": "https://api.github.com/users/Karang/following{/other_user}",
                "gists_url": "https://api.github.com/users/Karang/gists{/gist_id}",
                "gravatar_id": "",
                "html_url": "https://github.com/Karang",
                "id": 1977472,
                "login": "Karang",
                "node_id": "MDQ6VXNlcjE5Nzc0NzI=",
                "organizations_url": "https://api.github.com/users/Karang/orgs",
                "received_events_url": "https://api.github.com/users/Karang/received_events",
                "repos_url": "https://api.github.com/users/Karang/repos",
                "site_admin": false,
                "starred_url": "https://api.github.com/users/Karang/starred{/owner}{/repo}",
                "subscriptions_url": "https://api.github.com/users/Karang/subscriptions",
                "type": "User",
                "url": "https://api.github.com/users/Karang"
            },
            "comments_url": "https://api.github.com/repos/PrismarineJS/mineflayer/commits/c4ba9fbab90b7f0bc3b954eb3753879c8c68a518/comments",
            "commit": {
                "author": {
                    "date": "2021-02-21T17:57:38Z",
                    "email": "arthur.hennequin@free.fr",
                    "name": "Karang"
                },
                "comment_count": 0,
                "committer": {
                    "date": "2021-02-21T17:57:38Z",
                    "email": "arthur.hennequin@free.fr",
                    "name": "Karang"
                },
                "message": "Release 3.2.0",
                "tree": {
                    "sha": "bcbbed4083d3889ee3512635e5f4d40d6ea8b95f",
                    "url": "https://api.github.com/repos/PrismarineJS/mineflayer/git/trees/bcbbed4083d3889ee3512635e5f4d40d6ea8b95f"
                },
                "url": "https://api.github.com/repos/PrismarineJS/mineflayer/git/commits/c4ba9fbab90b7f0bc3b954eb3753879c8c68a518",
                "verification": {
                    "payload": null,
                    "reason": "unsigned",
                    "signature": null,
                    "verified": false
                }
            },
            "committer": {
                "avatar_url": "https://avatars.githubusercontent.com/u/1977472?v=4",
                "events_url": "https://api.github.com/users/Karang/events{/privacy}",
                "followers_url": "https://api.github.com/users/Karang/followers",
                "following_url": "https://api.github.com/users/Karang/following{/other_user}",
                "gists_url": "https://api.github.com/users/Karang/gists{/gist_id}",
                "gravatar_id": "",
                "html_url": "https://github.com/Karang",
                "id": 1977472,
                "login": "Karang",
                "node_id": "MDQ6VXNlcjE5Nzc0NzI=",
                "organizations_url": "https://api.github.com/users/Karang/orgs",
                "received_events_url": "https://api.github.com/users/Karang/received_events",
                "repos_url": "https://api.github.com/users/Karang/repos",
                "site_admin": false,
                "starred_url": "https://api.github.com/users/Karang/starred{/owner}{/repo}",
                "subscriptions_url": "https://api.github.com/users/Karang/subscriptions",
                "type": "User",
                "url": "https://api.github.com/users/Karang"
            },
            "html_url": "https://github.com/PrismarineJS/mineflayer/commit/c4ba9fbab90b7f0bc3b954eb3753879c8c68a518",
            "node_id": "MDY6Q29tbWl0MjU0Njg5ODQzOmM0YmE5ZmJhYjkwYjdmMGJjM2I5NTRlYjM3NTM4NzljOGM2OGE1MTg=",
            "parents": [
                {
                    "html_url": "https://github.com/PrismarineJS/mineflayer/commit/c9967d9a55bc00eb286113210a309e36fb18783a",
                    "sha": "c9967d9a55bc00eb286113210a309e36fb18783a",
                    "url": "https://api.github.com/repos/PrismarineJS/mineflayer/commits/c9967d9a55bc00eb286113210a309e36fb18783a"
                }
            ],
            "sha": "c4ba9fbab90b7f0bc3b954eb3753879c8c68a518",
            "url": "https://api.github.com/repos/PrismarineJS/mineflayer/commits/c4ba9fbab90b7f0bc3b954eb3753879c8c68a518"
        }
    ],
    "commits": 2,
    "commits_url": "https://api.github.com/repos/PrismarineJS/mineflayer/pulls/1702/commits",
    "created_at": "2021-02-21T17:58:26Z",
    "deletions": 17,
    "diff_url": "https://github.com/PrismarineJS/mineflayer/pull/1702.diff",
    "draft": false,
    "head": {
        "label": "Karang:place_block",
        "ref": "place_block",
        "repo": {
            "allow_forking": true,
            "archive_url": "https://api.github.com/repos/Karang/mineflayer/{archive_format}{/ref}",
            "archived": false,
            "assignees_url": "https://api.github.com/repos/Karang/mineflayer/assignees{/user}",
            "blobs_url": "https://api.github.com/repos/Karang/mineflayer/git/blobs{/sha}",
            "branches_url": "https://api.github.com/repos/Karang/mineflayer/branches{/branch}",
            "clone_url": "https://github.com/Karang/mineflayer.git",
            "collaborators_url": "https://api.github.com/repos/Karang/mineflayer/collaborators{/collaborator}",
            "comments_url": "https://api.github.com/repos/Karang/mineflayer/comments{/number}",
            "commits_url": "https://api.github.com/repos/Karang/mineflayer/commits{/sha}",
            "compare_url": "https://api.github.com/repos/Karang/mineflayer/compare/{base}...{head}",
            "contents_url": "https://api.github.com/repos/Karang/mineflayer/contents/{+path}",
            "contributors_url": "https://api.github.com/repos/Karang/mineflayer/contributors",
            "created_at": "2020-04-10T17:02:47Z",
            "default_branch": "master",
            "deployments_url": "https://api.github.com/repos/Karang/mineflayer/deployments",
            "description": "Create Minecraft bots with a powerful, stable, and high level JavaScript API.",
            "disabled": false,
            "downloads_url": "https://api.github.com/repos/Karang/mineflayer/downloads",
            "events_url": "https://api.github.com/repos/Karang/mineflayer/events",
            "fork": true,
            "forks": 0,
            "forks_count": 0,
            "forks_url": "https://api.github.com/repos/Karang/mineflayer/forks",
            "full_name": "Karang/mineflayer",
            "git_commits_url": "https://api.github.com/repos/Karang/mineflayer/git/commits{/sha}",
            "git_refs_url": "https://api.github.com/repos/Karang/mineflayer/git/refs{/sha}",
            "git_tags_url": "https://api.github.com/repos/Karang/mineflayer/git/tags{/sha}",
            "git_url": "git://github.com/Karang/mineflayer.git",
            "has_discussions": false,
            "has_downloads": true,
            "has_issues": false,
            "has_pages": false,
            "has_projects": true,
            "has_wiki": true,
            "homepage": "http://mineflayer.prismarine.js.org",
            "hooks_url": "https://api.github.com/repos/Karang/mineflayer/hooks",
            "html_url": "https://github.com/Karang/mineflayer",
            "id": 254689843,
            "is_template": false,
            "issue_comment_url": "https://api.github.com/repos/Karang/mineflayer/issues/comments{/number}",
            "issue_events_url": "https://api.github.com/repos/Karang/mineflayer/issues/events{/number}",
            "issues_url": "https://api.github.com/repos/Karang/mineflayer/issues{/number}",
            "keys_url": "https://api.github.com/repos/Karang/mineflayer/keys{/key_id}",
            "labels_url": "https://api.github.com/repos/Karang/mineflayer/labels{/name}",
            "language": "JavaScript",
            "languages_url": "https://api.github.com/repos/Karang/mineflayer/languages",
            "license": {
                "key": "mit",
                "name": "MIT License",
                "node_id": "MDc6TGljZW5zZTEz",
                "spdx_id": "MIT",
                "url": "https://api.github.com/licenses/mit"
            },
            "merges_url": "https://api.github.com/repos/Karang/mineflayer/merges",
            "milestones_url": "https://api.github.com/repos/Karang/mineflayer/milestones{/number}",
            "mirror_url": null,
            "name": "mineflayer",
            "node_id": "MDEwOlJlcG9zaXRvcnkyNTQ2ODk4NDM=",
            "notifications_url": "https://api.github.com/repos/Karang/mineflayer/notifications{?since,all,participating}",
            "open_issues": 0,
            "open_issues_count": 0,
            "owner": {
                "avatar_url": "https://avatars.githubusercontent.com/u/1977472?v=4",
                "events_url": "https://api.github.com/users/Karang/events{/privacy}",
                "followers_url": "https://api.github.com/users/Karang/followers",
                "following_url": "https://api.github.com/users/Karang/following{/other_user}",
                "gists_url": "https://api.github.com/users/Karang/gists{/gist_id}",
                "gravatar_id": "",
                "html_url": "https://github.com/Karang",
                "id": 1977472,
                "login": "Karang",
                "node_id": "MDQ6VXNlcjE5Nzc0NzI=",
                "organizations_url": "https://api.github.com/users/Karang/orgs",
                "received_events_url": "https://api.github.com/users/Karang/received_events",
                "repos_url": "https://api.github.com/users/Karang/repos",
                "site_admin": false,
                "starred_url": "https://api.github.com/users/Karang/starred{/owner}{/repo}",
                "subscriptions_url": "https://api.github.com/users/Karang/subscriptions",
                "type": "User",
                "url": "https://api.github.com/users/Karang"
            },
            "private": false,
            "pulls_url": "https://api.github.com/repos/Karang/mineflayer/pulls{/number}",
            "pushed_at": "2021-09-26T23:52:15Z",
            "releases_url": "https://api.github.com/repos/Karang/mineflayer/releases{/id}",
            "size": 11952,
            "ssh_url": "git@github.com:Karang/mineflayer.git",
            "stargazers_count": 1,
            "stargazers_url": "https://api.github.com/repos/Karang/mineflayer/stargazers",
            "statuses_url": "https://api.github.com/repos/Karang/mineflayer/statuses/{sha}",
            "subscribers_url": "https://api.github.com/repos/Karang/mineflayer/subscribers",
            "subscription_url": "https://api.github.com/repos/Karang/mineflayer/subscription",
            "svn_url": "https://github.com/Karang/mineflayer",
            "tags_url": "https://api.github.com/repos/Karang/mineflayer/tags",
            "teams_url": "https://api.github.com/repos/Karang/mineflayer/teams",
            "topics": [],
            "trees_url": "https://api.github.com/repos/Karang/mineflayer/git/trees{/sha}",
            "updated_at": "2021-04-01T00:57:23Z",
            "url": "https://api.github.com/repos/Karang/mineflayer",
            "visibility": "public",
            "watchers": 1,
            "watchers_count": 1,
            "web_commit_signoff_required": false
        },
        "sha": "c4ba9fbab90b7f0bc3b954eb3753879c8c68a518",
        "user": {
            "avatar_url": "https://avatars.githubusercontent.com/u/1977472?v=4",
            "events_url": "https://api.github.com/users/Karang/events{/privacy}",
            "followers_url": "https://api.github.com/users/Karang/followers",
            "following_url": "https://api.github.com/users/Karang/following{/other_user}",
            "gists_url": "https://api.github.com/users/Karang/gists{/gist_id}",
            "gravatar_id": "",
            "html_url": "https://github.com/Karang",
            "id": 1977472,
            "login": "Karang",
            "node_id": "MDQ6VXNlcjE5Nzc0NzI=",
            "organizations_url": "https://api.github.com/users/Karang/orgs",
            "received_events_url": "https://api.github.com/users/Karang/received_events",
            "repos_url": "https://api.github.com/users/Karang/repos",
            "site_admin": false,
            "starred_url": "https://api.github.com/users/Karang/starred{/owner}{/repo}",
            "subscriptions_url": "https://api.github.com/users/Karang/subscriptions",
            "type": "User",
            "url": "https://api.github.com/users/Karang"
        }
    },
    "html_url": "https://github.com/PrismarineJS/mineflayer/pull/1702",
    "id": 577152383,
    "issue_url": "https://api.github.com/repos/PrismarineJS/mineflayer/issues/1702",
    "labels": [],
    "locked": false,
    "maintainer_can_modify": false,
    "merge_commit_sha": "1c75d3a37afaaa8c1c7cae4ce0119a8309650e4a",
    "mergeable": null,
    "mergeable_state": "unknown",
    "merged": true,
    "merged_at": "2021-02-21T18:12:58Z",
    "merged_by": {
        "avatar_url": "https://avatars.githubusercontent.com/u/1977472?v=4",
        "events_url": "https://api.github.com/users/Karang/events{/privacy}",
        "followers_url": "https://api.github.com/users/Karang/followers",
        "following_url": "https://api.github.com/users/Karang/following{/other_user}",
        "gists_url": "https://api.github.com/users/Karang/gists{/gist_id}",
        "gravatar_id": "",
        "html_url": "https://github.com/Karang",
        "id": 1977472,
        "login": "Karang",
        "node_id": "MDQ6VXNlcjE5Nzc0NzI=",
        "organizations_url": "https://api.github.com/users/Karang/orgs",
        "received_events_url": "https://api.github.com/users/Karang/received_events",
        "repos_url": "https://api.github.com/users/Karang/repos",
        "site_admin": false,
        "starred_url": "https://api.github.com/users/Karang/starred{/owner}{/repo}",
        "subscriptions_url": "https://api.github.com/users/Karang/subscriptions",
        "type": "User",
        "url": "https://api.github.com/users/Karang"
    },
    "milestone": null,
    "node_id": "MDExOlB1bGxSZXF1ZXN0NTc3MTUyMzgz",
    "number": 1702,
    "patch_url": "https://github.com/PrismarineJS/mineflayer/pull/1702.patch",
    "rebaseable": null,
    "requested_reviewers": [
        {
            "avatar_url": "https://avatars.githubusercontent.com/u/2346494?v=4",
            "events_url": "https://api.github.com/users/rom1504/events{/privacy}",
            "followers_url": "https://api.github.com/users/rom1504/followers",
            "following_url": "https://api.github.com/users/rom1504/following{/other_user}",
            "gists_url": "https://api.github.com/users/rom1504/gists{/gist_id}",
            "gravatar_id": "",
            "html_url": "https://github.com/rom1504",
            "id": 2346494,
            "login": "rom1504",
            "node_id": "MDQ6VXNlcjIzNDY0OTQ=",
            "organizations_url": "https://api.github.com/users/rom1504/orgs",
            "received_events_url": "https://api.github.com/users/rom1504/received_events",
            "repos_url": "https://api.github.com/users/rom1504/repos",
            "site_admin": false,
            "starred_url": "https://api.github.com/users/rom1504/starred{/owner}{/repo}",
            "subscriptions_url": "https://api.github.com/users/rom1504/subscriptions",
            "type": "User",
            "url": "https://api.github.com/users/rom1504"
        }
    ],
    "requested_teams": [],
    "review_comment_url": "https://api.github.com/repos/PrismarineJS/mineflayer/pulls/comments{/number}",
    "review_comments": 0,
    "review_comments_url": "https://api.github.com/repos/PrismarineJS/mineflayer/pulls/1702/comments",
    "state": "closed",
    "statuses_url": "https://api.github.com/repos/PrismarineJS/mineflayer/statuses/c4ba9fbab90b7f0bc3b954eb3753879c8c68a518",
    "title": "Bump pworld, release",
    "updated_at": "2021-02-21T18:12:58Z",
    "url": "https://api.github.com/repos/PrismarineJS/mineflayer/pulls/1702",
    "user": {
        "avatar_url": "https://avatars.githubusercontent.com/u/1977472?v=4",
        "events_url": "https://api.github.com/users/Karang/events{/privacy}",
        "followers_url": "https://api.github.com/users/Karang/followers",
        "following_url": "https://api.github.com/users/Karang/following{/other_user}",
        "gists_url": "https://api.github.com/users/Karang/gists{/gist_id}",
        "gravatar_id": "",
        "html_url": "https://github.com/Karang",
        "id": 1977472,
        "login": "Karang",
        "node_id": "MDQ6VXNlcjE5Nzc0NzI=",
        "organizations_url": "https://api.github.com/users/Karang/orgs",
        "received_events_url": "https://api.github.com/users/Karang/received_events",
        "repos_url": "https://api.github.com/users/Karang/repos",
        "site_admin": false,
        "starred_url": "https://api.github.com/users/Karang/starred{/owner}{/repo}",
        "subscriptions_url": "https://api.github.com/users/Karang/subscriptions",
        "type": "User",
        "url": "https://api.github.com/users/Karang"
    }
}