{
    "_links": {
        "comments": {
            "href": "https://api.github.com/repos/PrismarineJS/mineflayer/issues/1813/comments"
        },
        "commits": {
            "href": "https://api.github.com/repos/PrismarineJS/mineflayer/pulls/1813/commits"
        },
        "html": {
            "href": "https://github.com/PrismarineJS/mineflayer/pull/1813"
        },
        "issue": {
            "href": "https://api.github.com/repos/PrismarineJS/mineflayer/issues/1813"
        },
        "review_comment": {
            "href": "https://api.github.com/repos/PrismarineJS/mineflayer/pulls/comments{/number}"
        },
        "review_comments": {
            "href": "https://api.github.com/repos/PrismarineJS/mineflayer/pulls/1813/comments"
        },
        "self": {
            "href": "https://api.github.com/repos/PrismarineJS/mineflayer/pulls/1813"
        },
        "statuses": {
            "href": "https://api.github.com/repos/PrismarineJS/mineflayer/statuses/1f0c743c372ff452f42849799ed724317dc904bb"
        }
    },
    "active_lock_reason": null,
    "additions": 4,
    "assignee": null,
    "assignees": [],
    "author_association": "MEMBER",
    "auto_merge": null,
    "base": {
        "label": "PrismarineJS:master",
        "ref": "master",
        "repo": {
            "allow_forking": true,
            "archive_url": "https://api.github.com/repos/PrismarineJS/mineflayer/{archive_format}{/ref}",
            "archived": false,
            "assignees_url": "https://api.github.com/repos/PrismarineJS/mineflayer/assignees{/user}",
            "blobs_url": "https://api.github.com/repos/PrismarineJS/mineflayer/git/blobs{/sha}",
            "branches_url": "https://api.github.com/repos/PrismarineJS/mineflayer/branches{/branch}",
            "clone_url": "https://github.com/PrismarineJS/mineflayer.git",
            "collaborators_url": "https://api.github.com/repos/PrismarineJS/mineflayer/collaborators{/collaborator}",
            "comments_url": "https://api.github.com/repos/PrismarineJS/mineflayer/comments{/number}",
            "commits_url": "https://api.github.com/repos/PrismarineJS/mineflayer/commits{/sha}",
            "compare_url": "https://api.github.com/repos/PrismarineJS/mineflayer/compare/{base}...{head}",
            "contents_url": "https://api.github.com/repos/PrismarineJS/mineflayer/contents/{+path}",
            "contributors_url": "https://api.github.com/repos/PrismarineJS/mineflayer/contributors",
            "created_at": "2011-01-23T09:41:55Z",
            "default_branch": "master",
            "deployments_url": "https://api.github.com/repos/PrismarineJS/mineflayer/deployments",
            "description": "Create Minecraft bots with a powerful, stable, and high level JavaScript API.",
            "disabled": false,
            "downloads_url": "https://api.github.com/repos/PrismarineJS/mineflayer/downloads",
            "events_url": "https://api.github.com/repos/PrismarineJS/mineflayer/events",
            "fork": false,
            "forks": 748,
            "forks_count": 748,
            "forks_url": "https://api.github.com/repos/PrismarineJS/mineflayer/forks",
            "full_name": "PrismarineJS/mineflayer",
            "git_commits_url": "https://api.github.com/repos/PrismarineJS/mineflayer/git/commits{/sha}",
            "git_refs_url": "https://api.github.com/repos/PrismarineJS/mineflayer/git/refs{/sha}",
            "git_tags_url": "https://api.github.com/repos/PrismarineJS/mineflayer/git/tags{/sha}",
            "git_url": "git://github.com/PrismarineJS/mineflayer.git",
            "has_discussions": true,
            "has_downloads": true,
            "has_issues": true,
            "has_pages": true,
            "has_projects": true,
            "has_wiki": true,
            "homepage": "https://prismarinejs.github.io/mineflayer/",
            "hooks_url": "https://api.github.com/repos/PrismarineJS/mineflayer/hooks",
            "html_url": "https://github.com/PrismarineJS/mineflayer",
            "id": 1284185,
            "is_template": false,
            "issue_comment_url": "https://api.github.com/repos/PrismarineJS/mineflayer/issues/comments{/number}",
            "issue_events_url": "https://api.github.com/repos/PrismarineJS/mineflayer/issues/events{/number}",
            "issues_url": "https://api.github.com/repos/PrismarineJS/mineflayer/issues{/number}",
            "keys_url": "https://api.github.com/repos/PrismarineJS/mineflayer/keys{/key_id}",
            "labels_url": "https://api.github.com/repos/PrismarineJS/mineflayer/labels{/name}",
            "language": "JavaScript",
            "languages_url": "https://api.github.com/repos/PrismarineJS/mineflayer/languages",
            "license": {
                "key": "mit",
                "name": "MIT License",
                "node_id": "MDc6TGljZW5zZTEz",
                "spdx_id": "MIT",
                "url": "https://api.github.com/licenses/mit"
            },
            "merges_url": "https://api.github.com/repos/PrismarineJS/mineflayer/merges",
            "milestones_url": "https://api.github.com/repos/PrismarineJS/mineflayer/milestones{/number}",
            "mirror_url": null,
            "name": "mineflayer",
            "node_id": "MDEwOlJlcG9zaXRvcnkxMjg0MTg1",
            "notifications_url": "https://api.github.com/repos/PrismarineJS/mineflayer/notifications{?since,all,participating}",
            "open_issues": 269,
            "open_issues_count": 269,
            "owner": {
                "avatar_url": "https://avatars.githubusercontent.com/u/11053411?v=4",
                "events_url": "https://api.github.com/users/PrismarineJS/events{/privacy}",
                "followers_url": "https://api.github.com/users/PrismarineJS/followers",
                "following_url": "https://api.github.com/users/PrismarineJS/following{/other_user}",
                "gists_url": "https://api.github.com/users/PrismarineJS/gists{/gist_id}",
                "gravatar_id": "",
                "html_url": "https://github.com/PrismarineJS",
                "id": 11053411,
                "login": "PrismarineJS",
                "node_id": "MDEyOk9yZ2FuaXphdGlvbjExMDUzNDEx",
                "organizations_url": "https://api.github.com/users/PrismarineJS/orgs",
                "received_events_url": "https://api.github.com/users/PrismarineJS/received_events",
                "repos_url": "https://api.github.com/users/PrismarineJS/repos",
                "site_admin": false,
                "starred_url": "https://api.github.com/users/PrismarineJS/starred{/owner}{/repo}",
                "subscriptions_url": "https://api.github.com/users/PrismarineJS/subscriptions",
                "type": "Organization",
                "url": "https://api.github.com/users/PrismarineJS"
            },
            "private": false,
            "pulls_url": "https://api.github.com/repos/PrismarineJS/mineflayer/pulls{/number}",
            "pushed_at": "2023-04-25T00:44:52Z",
            "releases_url": "https://api.github.com/repos/PrismarineJS/mineflayer/releases{/id}",
            "size": 12493,
            "ssh_url": "git@github.com:PrismarineJS/mineflayer.git",
            "stargazers_count": 3698,
            "stargazers_url": "https://api.github.com/repos/PrismarineJS/mineflayer/stargazers",
            "statuses_url": "https://api.github.com/repos/PrismarineJS/mineflayer/statuses/{sha}",
            "subscribers_url": "https://api.github.com/repos/PrismarineJS/mineflayer/subscribers",
            "subscription_url": "https://api.github.com/repos/PrismarineJS/mineflayer/subscription",
            "svn_url": "https://github.com/PrismarineJS/mineflayer",
            "tags_url": "https://api.github.com/repos/PrismarineJS/mineflayer/tags",
            "teams_url": "https://api.github.com/repos/PrismarineJS/mineflayer/teams",
            "topics": [
                "bot",
                "minecraft",
                "minecraft-api",
                "minecraft-bot",
                "network",
                "nodejs"
            ],
            "trees_url": "https://api.github.com/repos/PrismarineJS/mineflayer/git/trees{/sha}",
            "updated_at": "2023-04-25T14:07:03Z",
            "url": "https://api.github.com/repos/PrismarineJS/mineflayer",
            "visibility": "public",
            "watchers": 3698,
            "watchers_count": 3698,
            "web_commit_signoff_required": false
        },
        "sha": "ddc52b1b81e40185add49b335e6d7a2615dcb611",
        "user": {
            "avatar_url": "https://avatars.githubusercontent.com/u/11053411?v=4",
            "events_url": "https://api.github.com/users/PrismarineJS/events{/privacy}",
            "followers_url": "https://api.github.com/users/PrismarineJS/followers",
            "following_url": "https://api.github.com/users/PrismarineJS/following{/other_user}",
            "gists_url": "https://api.github.com/users/PrismarineJS/gists{/gist_id}",
            "gravatar_id": "",
            "html_url": "https://github.com/PrismarineJS",
            "id": 11053411,
            "login": "PrismarineJS",
            "node_id": "MDEyOk9yZ2FuaXphdGlvbjExMDUzNDEx",
            "organizations_url": "https://api.github.com/users/PrismarineJS/orgs",
            "received_events_url": "https://api.github.com/users/PrismarineJS/received_events",
            "repos_url": "https://api.github.com/users/PrismarineJS/repos",
            "site_admin": false,
            "starred_url": "https://api.github.com/users/PrismarineJS/starred{/owner}{/repo}",
            "subscriptions_url": "https://api.github.com/users/PrismarineJS/subscriptions",
            "type": "Organization",
            "url": "https://api.github.com/users/PrismarineJS"
        }
    },
    "body": "",
    "changed_files": 2,
    "closed_at": "2021-03-28T22:42:31Z",
    "comment_data": [],
    "comment_regular_data": [],
    "comments": 0,
    "comments_url": "https://api.github.com/repos/PrismarineJS/mineflayer/issues/1813/comments",
    "commit_data": [
        {
            "author": {
                "avatar_url": "https://avatars.githubusercontent.com/u/43508353?v=4",
                "events_url": "https://api.github.com/users/u9g/events{/privacy}",
                "followers_url": "https://api.github.com/users/u9g/followers",
                "following_url": "https://api.github.com/users/u9g/following{/other_user}",
                "gists_url": "https://api.github.com/users/u9g/gists{/gist_id}",
                "gravatar_id": "",
                "html_url": "https://github.com/u9g",
                "id": 43508353,
                "login": "u9g",
                "node_id": "MDQ6VXNlcjQzNTA4MzUz",
                "organizations_url": "https://api.github.com/users/u9g/orgs",
                "received_events_url": "https://api.github.com/users/u9g/received_events",
                "repos_url": "https://api.github.com/users/u9g/repos",
                "site_admin": false,
                "starred_url": "https://api.github.com/users/u9g/starred{/owner}{/repo}",
                "subscriptions_url": "https://api.github.com/users/u9g/subscriptions",
                "type": "User",
                "url": "https://api.github.com/users/u9g"
            },
            "comments_url": "https://api.github.com/repos/PrismarineJS/mineflayer/commits/a83af7f888653bb3a72f61793623a690201d4c2b/comments",
            "commit": {
                "author": {
                    "date": "2021-03-28T22:30:39Z",
                    "email": "43508353+u9g@users.noreply.github.com",
                    "name": "u9g"
                },
                "comment_count": 0,
                "committer": {
                    "date": "2021-03-28T22:30:39Z",
                    "email": "noreply@github.com",
                    "name": "GitHub"
                },
                "message": "Release 3.6.0",
                "tree": {
                    "sha": "820a6087e8d1116ad32ea27109d03e6c20a429b9",
                    "url": "https://api.github.com/repos/PrismarineJS/mineflayer/git/trees/820a6087e8d1116ad32ea27109d03e6c20a429b9"
                },
                "url": "https://api.github.com/repos/PrismarineJS/mineflayer/git/commits/a83af7f888653bb3a72f61793623a690201d4c2b",
                "verification": {
                    "payload": "tree 820a6087e8d1116ad32ea27109d03e6c20a429b9\nparent ddc52b1b81e40185add49b335e6d7a2615dcb611\nauthor u9g <43508353+u9g@users.noreply.github.com> 1616970639 -0400\ncommitter GitHub <noreply@github.com> 1616970639 -0400\n\nRelease 3.6.0",
                    "reason": "valid",
                    "signature": "-----BEGIN PGP SIGNATURE-----\n\nwsBcBAABCAAQBQJgYQOPCRBK7hj4Ov3rIwAAdHIIAJlirLO5T+A+sXT5WAmI5xsN\n9nZJDPS/1u02k3cJTqkqAjzVVyhMK0iiWjHzhFzHbe+orGKC8gWKRniCrFPc/ptD\nZAXu9BDWaWt5yRb7B/QJBPWoleKp+Xei7Vv7Z1q74oR28yLJzff/r5xvYiATjBDu\nJ3D6EJnfH7GGrChu/j/eINCSggeWZWYotxotXsG5lhu+38c7f0DAo3gtKUYKVeKu\nL7/3J2f8ObOk62h7Vk7ugUbssJerLVtlToJLaY53WN+hckajipJkQH18ba87gCkb\nCWHzHdzwLu/q0VWYwjsOpRehx9lndYHu0LbPztqHDj4/fSNxprjpX+k5+98p8XI=\n=a8oh\n-----END PGP SIGNATURE-----\n",
                    "verified": true
                }
            },
            "committer": {
                "avatar_url": "https://avatars.githubusercontent.com/u/19864447?v=4",
                "events_url": "https://api.github.com/users/web-flow/events{/privacy}",
                "followers_url": "https://api.github.com/users/web-flow/followers",
                "following_url": "https://api.github.com/users/web-flow/following{/other_user}",
                "gists_url": "https://api.github.com/users/web-flow/gists{/gist_id}",
                "gravatar_id": "",
                "html_url": "https://github.com/web-flow",
                "id": 19864447,
                "login": "web-flow",
                "node_id": "MDQ6VXNlcjE5ODY0NDQ3",
                "organizations_url": "https://api.github.com/users/web-flow/orgs",
                "received_events_url": "https://api.github.com/users/web-flow/received_events",
                "repos_url": "https://api.github.com/users/web-flow/repos",
                "site_admin": false,
                "starred_url": "https://api.github.com/users/web-flow/starred{/owner}{/repo}",
                "subscriptions_url": "https://api.github.com/users/web-flow/subscriptions",
                "type": "User",
                "url": "https://api.github.com/users/web-flow"
            },
            "html_url": "https://github.com/PrismarineJS/mineflayer/commit/a83af7f888653bb3a72f61793623a690201d4c2b",
            "node_id": "MDY6Q29tbWl0MzQ5ODY5NDUwOmE4M2FmN2Y4ODg2NTNiYjNhNzJmNjE3OTM2MjNhNjkwMjAxZDRjMmI=",
            "parents": [
                {
                    "html_url": "https://github.com/PrismarineJS/mineflayer/commit/ddc52b1b81e40185add49b335e6d7a2615dcb611",
                    "sha": "ddc52b1b81e40185add49b335e6d7a2615dcb611",
                    "url": "https://api.github.com/repos/PrismarineJS/mineflayer/commits/ddc52b1b81e40185add49b335e6d7a2615dcb611"
                }
            ],
            "sha": "a83af7f888653bb3a72f61793623a690201d4c2b",
            "url": "https://api.github.com/repos/PrismarineJS/mineflayer/commits/a83af7f888653bb3a72f61793623a690201d4c2b"
        },
        {
            "author": {
                "avatar_url": "https://avatars.githubusercontent.com/u/43508353?v=4",
                "events_url": "https://api.github.com/users/u9g/events{/privacy}",
                "followers_url": "https://api.github.com/users/u9g/followers",
                "following_url": "https://api.github.com/users/u9g/following{/other_user}",
                "gists_url": "https://api.github.com/users/u9g/gists{/gist_id}",
                "gravatar_id": "",
                "html_url": "https://github.com/u9g",
                "id": 43508353,
                "login": "u9g",
                "node_id": "MDQ6VXNlcjQzNTA4MzUz",
                "organizations_url": "https://api.github.com/users/u9g/orgs",
                "received_events_url": "https://api.github.com/users/u9g/received_events",
                "repos_url": "https://api.github.com/users/u9g/repos",
                "site_admin": false,
                "starred_url": "https://api.github.com/users/u9g/starred{/owner}{/repo}",
                "subscriptions_url": "https://api.github.com/users/u9g/subscriptions",
                "type": "User",
                "url": "https://api.github.com/users/u9g"
            },
            "comments_url": "https://api.github.com/repos/PrismarineJS/mineflayer/commits/1f0c743c372ff452f42849799ed724317dc904bb/comments",
            "commit": {
                "author": {
                    "date": "2021-03-28T22:34:41Z",
                    "email": "43508353+u9g@users.noreply.github.com",
                    "name": "u9g"
                },
                "comment_count": 0,
                "committer": {
                    "date": "2021-03-28T22:34:41Z",
                    "email": "noreply@github.com",
                    "name": "GitHub"
                },
                "message": "Release 3.6.0",
                "tree": {
                    "sha": "96716b49a787caecb0bf1e1aedfbe5e23cbf256b",
                    "url": "https://api.github.com/repos/PrismarineJS/mineflayer/git/trees/96716b49a787caecb0bf1e1aedfbe5e23cbf256b"
                },
                "url": "https://api.github.com/repos/PrismarineJS/mineflayer/git/commits/1f0c743c372ff452f42849799ed724317dc904bb",
                "verification": {
                    "payload": "tree 96716b49a787caecb0bf1e1aedfbe5e23cbf256b\nparent a83af7f888653bb3a72f61793623a690201d4c2b\nauthor u9g <43508353+u9g@users.noreply.github.com> 1616970881 -0400\ncommitter GitHub <noreply@github.com> 1616970881 -0400\n\nRelease 3.6.0",
                    "reason": "valid",
                    "signature": "-----BEGIN PGP SIGNATURE-----\n\nwsBcBAABCAAQBQJgYQSBCRBK7hj4Ov3rIwAAdHIIAEeWAQCVdvAMejuQeK1BzSuj\nePjnjscwV8rBBRcDucNUJI3485Jww8vg75stMlGRZyxTO6SY6i+/udsF6a7IEqld\nQNVetPpOEQ0xAjX6A7z3E4CegdJ1cz1xJ76mveHtjE67n5UnqE4CcfYCKs/9+34y\nZzHVA9KPsHg67M65kEpKYi/N7lnCXXyQ3mNBpa9Dy8PEErohlhSuDPHte9FkDZ4f\nPlA5bFlBEO4haLfjGhRVXqb7dFptU9x5Juuu3dC0a7rPVgxxJNJ4Ha43imWGu5LZ\nz78raqGKaItzOTTfA076b9TcPMupYoGMSnJzCWDO1NK4JDL7TdPS5BoIdKZI9ZI=\n=WXj5\n-----END PGP SIGNATURE-----\n",
                    "verified": true
                }
            },
            "committer": {
                "avatar_url": "https://avatars.githubusercontent.com/u/19864447?v=4",
                "events_url": "https://api.github.com/users/web-flow/events{/privacy}",
                "followers_url": "https://api.github.com/users/web-flow/followers",
                "following_url": "https://api.github.com/users/web-flow/following{/other_user}",
                "gists_url": "https://api.github.com/users/web-flow/gists{/gist_id}",
                "gravatar_id": "",
                "html_url": "https://github.com/web-flow",
                "id": 19864447,
                "login": "web-flow",
                "node_id": "MDQ6VXNlcjE5ODY0NDQ3",
                "organizations_url": "https://api.github.com/users/web-flow/orgs",
                "received_events_url": "https://api.github.com/users/web-flow/received_events",
                "repos_url": "https://api.github.com/users/web-flow/repos",
                "site_admin": false,
                "starred_url": "https://api.github.com/users/web-flow/starred{/owner}{/repo}",
                "subscriptions_url": "https://api.github.com/users/web-flow/subscriptions",
                "type": "User",
                "url": "https://api.github.com/users/web-flow"
            },
            "html_url": "https://github.com/PrismarineJS/mineflayer/commit/1f0c743c372ff452f42849799ed724317dc904bb",
            "node_id": "MDY6Q29tbWl0MzQ5ODY5NDUwOjFmMGM3NDNjMzcyZmY0NTJmNDI4NDk3OTllZDcyNDMxN2RjOTA0YmI=",
            "parents": [
                {
                    "html_url": "https://github.com/PrismarineJS/mineflayer/commit/a83af7f888653bb3a72f61793623a690201d4c2b",
                    "sha": "a83af7f888653bb3a72f61793623a690201d4c2b",
                    "url": "https://api.github.com/repos/PrismarineJS/mineflayer/commits/a83af7f888653bb3a72f61793623a690201d4c2b"
                }
            ],
            "sha": "1f0c743c372ff452f42849799ed724317dc904bb",
            "url": "https://api.github.com/repos/PrismarineJS/mineflayer/commits/1f0c743c372ff452f42849799ed724317dc904bb"
        }
    ],
    "commits": 2,
    "commits_url": "https://api.github.com/repos/PrismarineJS/mineflayer/pulls/1813/commits",
    "created_at": "2021-03-28T22:30:44Z",
    "deletions": 1,
    "diff_url": "https://github.com/PrismarineJS/mineflayer/pull/1813.diff",
    "draft": false,
    "head": {
        "label": "u9g:patch-1",
        "ref": "patch-1",
        "repo": {
            "allow_forking": true,
            "archive_url": "https://api.github.com/repos/u9g/mineflayer/{archive_format}{/ref}",
            "archived": false,
            "assignees_url": "https://api.github.com/repos/u9g/mineflayer/assignees{/user}",
            "blobs_url": "https://api.github.com/repos/u9g/mineflayer/git/blobs{/sha}",
            "branches_url": "https://api.github.com/repos/u9g/mineflayer/branches{/branch}",
            "clone_url": "https://github.com/u9g/mineflayer.git",
            "collaborators_url": "https://api.github.com/repos/u9g/mineflayer/collaborators{/collaborator}",
            "comments_url": "https://api.github.com/repos/u9g/mineflayer/comments{/number}",
            "commits_url": "https://api.github.com/repos/u9g/mineflayer/commits{/sha}",
            "compare_url": "https://api.github.com/repos/u9g/mineflayer/compare/{base}...{head}",
            "contents_url": "https://api.github.com/repos/u9g/mineflayer/contents/{+path}",
            "contributors_url": "https://api.github.com/repos/u9g/mineflayer/contributors",
            "created_at": "2021-03-21T00:58:12Z",
            "default_branch": "master",
            "deployments_url": "https://api.github.com/repos/u9g/mineflayer/deployments",
            "description": "Create Minecraft bots with a powerful, stable, and high level JavaScript API.",
            "disabled": false,
            "downloads_url": "https://api.github.com/repos/u9g/mineflayer/downloads",
            "events_url": "https://api.github.com/repos/u9g/mineflayer/events",
            "fork": true,
            "forks": 0,
            "forks_count": 0,
            "forks_url": "https://api.github.com/repos/u9g/mineflayer/forks",
            "full_name": "u9g/mineflayer",
            "git_commits_url": "https://api.github.com/repos/u9g/mineflayer/git/commits{/sha}",
            "git_refs_url": "https://api.github.com/repos/u9g/mineflayer/git/refs{/sha}",
            "git_tags_url": "https://api.github.com/repos/u9g/mineflayer/git/tags{/sha}",
            "git_url": "git://github.com/u9g/mineflayer.git",
            "has_discussions": false,
            "has_downloads": true,
            "has_issues": false,
            "has_pages": false,
            "has_projects": true,
            "has_wiki": true,
            "homepage": "https://mineflayer.prismarine.js.org",
            "hooks_url": "https://api.github.com/repos/u9g/mineflayer/hooks",
            "html_url": "https://github.com/u9g/mineflayer",
            "id": 349869450,
            "is_template": false,
            "issue_comment_url": "https://api.github.com/repos/u9g/mineflayer/issues/comments{/number}",
            "issue_events_url": "https://api.github.com/repos/u9g/mineflayer/issues/events{/number}",
            "issues_url": "https://api.github.com/repos/u9g/mineflayer/issues{/number}",
            "keys_url": "https://api.github.com/repos/u9g/mineflayer/keys{/key_id}",
            "labels_url": "https://api.github.com/repos/u9g/mineflayer/labels{/name}",
            "language": "JavaScript",
            "languages_url": "https://api.github.com/repos/u9g/mineflayer/languages",
            "license": {
                "key": "mit",
                "name": "MIT License",
                "node_id": "MDc6TGljZW5zZTEz",
                "spdx_id": "MIT",
                "url": "https://api.github.com/licenses/mit"
            },
            "merges_url": "https://api.github.com/repos/u9g/mineflayer/merges",
            "milestones_url": "https://api.github.com/repos/u9g/mineflayer/milestones{/number}",
            "mirror_url": null,
            "name": "mineflayer",
            "node_id": "MDEwOlJlcG9zaXRvcnkzNDk4Njk0NTA=",
            "notifications_url": "https://api.github.com/repos/u9g/mineflayer/notifications{?since,all,participating}",
            "open_issues": 3,
            "open_issues_count": 3,
            "owner": {
                "avatar_url": "https://avatars.githubusercontent.com/u/43508353?v=4",
                "events_url": "https://api.github.com/users/u9g/events{/privacy}",
                "followers_url": "https://api.github.com/users/u9g/followers",
                "following_url": "https://api.github.com/users/u9g/following{/other_user}",
                "gists_url": "https://api.github.com/users/u9g/gists{/gist_id}",
                "gravatar_id": "",
                "html_url": "https://github.com/u9g",
                "id": 43508353,
                "login": "u9g",
                "node_id": "MDQ6VXNlcjQzNTA4MzUz",
                "organizations_url": "https://api.github.com/users/u9g/orgs",
                "received_events_url": "https://api.github.com/users/u9g/received_events",
                "repos_url": "https://api.github.com/users/u9g/repos",
                "site_admin": false,
                "starred_url": "https://api.github.com/users/u9g/starred{/owner}{/repo}",
                "subscriptions_url": "https://api.github.com/users/u9g/subscriptions",
                "type": "User",
                "url": "https://api.github.com/users/u9g"
            },
            "private": false,
            "pulls_url": "https://api.github.com/repos/u9g/mineflayer/pulls{/number}",
            "pushed_at": "2023-04-23T17:17:45Z",
            "releases_url": "https://api.github.com/repos/u9g/mineflayer/releases{/id}",
            "size": 12227,
            "ssh_url": "git@github.com:u9g/mineflayer.git",
            "stargazers_count": 0,
            "stargazers_url": "https://api.github.com/repos/u9g/mineflayer/stargazers",
            "statuses_url": "https://api.github.com/repos/u9g/mineflayer/statuses/{sha}",
            "subscribers_url": "https://api.github.com/repos/u9g/mineflayer/subscribers",
            "subscription_url": "https://api.github.com/repos/u9g/mineflayer/subscription",
            "svn_url": "https://github.com/u9g/mineflayer",
            "tags_url": "https://api.github.com/repos/u9g/mineflayer/tags",
            "teams_url": "https://api.github.com/repos/u9g/mineflayer/teams",
            "topics": [],
            "trees_url": "https://api.github.com/repos/u9g/mineflayer/git/trees{/sha}",
            "updated_at": "2023-04-14T18:32:06Z",
            "url": "https://api.github.com/repos/u9g/mineflayer",
            "visibility": "public",
            "watchers": 0,
            "watchers_count": 0,
            "web_commit_signoff_required": false
        },
        "sha": "1f0c743c372ff452f42849799ed724317dc904bb",
        "user": {
            "avatar_url": "https://avatars.githubusercontent.com/u/43508353?v=4",
            "events_url": "https://api.github.com/users/u9g/events{/privacy}",
            "followers_url": "https://api.github.com/users/u9g/followers",
            "following_url": "https://api.github.com/users/u9g/following{/other_user}",
            "gists_url": "https://api.github.com/users/u9g/gists{/gist_id}",
            "gravatar_id": "",
            "html_url": "https://github.com/u9g",
            "id": 43508353,
            "login": "u9g",
            "node_id": "MDQ6VXNlcjQzNTA4MzUz",
            "organizations_url": "https://api.github.com/users/u9g/orgs",
            "received_events_url": "https://api.github.com/users/u9g/received_events",
            "repos_url": "https://api.github.com/users/u9g/repos",
            "site_admin": false,
            "starred_url": "https://api.github.com/users/u9g/starred{/owner}{/repo}",
            "subscriptions_url": "https://api.github.com/users/u9g/subscriptions",
            "type": "User",
            "url": "https://api.github.com/users/u9g"
        }
    },
    "html_url": "https://github.com/PrismarineJS/mineflayer/pull/1813",
    "id": 602321685,
    "issue_url": "https://api.github.com/repos/PrismarineJS/mineflayer/issues/1813",
    "labels": [],
    "locked": false,
    "maintainer_can_modify": false,
    "merge_commit_sha": "a7a9dc8dcfa68903a5e1d1f0a7a066b1b5c26b02",
    "mergeable": null,
    "mergeable_state": "unknown",
    "merged": true,
    "merged_at": "2021-03-28T22:42:31Z",
    "merged_by": {
        "avatar_url": "https://avatars.githubusercontent.com/u/2346494?v=4",
        "events_url": "https://api.github.com/users/rom1504/events{/privacy}",
        "followers_url": "https://api.github.com/users/rom1504/followers",
        "following_url": "https://api.github.com/users/rom1504/following{/other_user}",
        "gists_url": "https://api.github.com/users/rom1504/gists{/gist_id}",
        "gravatar_id": "",
        "html_url": "https://github.com/rom1504",
        "id": 2346494,
        "login": "rom1504",
        "node_id": "MDQ6VXNlcjIzNDY0OTQ=",
        "organizations_url": "https://api.github.com/users/rom1504/orgs",
        "received_events_url": "https://api.github.com/users/rom1504/received_events",
        "repos_url": "https://api.github.com/users/rom1504/repos",
        "site_admin": false,
        "starred_url": "https://api.github.com/users/rom1504/starred{/owner}{/repo}",
        "subscriptions_url": "https://api.github.com/users/rom1504/subscriptions",
        "type": "User",
        "url": "https://api.github.com/users/rom1504"
    },
    "milestone": null,
    "node_id": "MDExOlB1bGxSZXF1ZXN0NjAyMzIxNjg1",
    "number": 1813,
    "patch_url": "https://github.com/PrismarineJS/mineflayer/pull/1813.patch",
    "rebaseable": null,
    "requested_reviewers": [],
    "requested_teams": [],
    "review_comment_url": "https://api.github.com/repos/PrismarineJS/mineflayer/pulls/comments{/number}",
    "review_comments": 0,
    "review_comments_url": "https://api.github.com/repos/PrismarineJS/mineflayer/pulls/1813/comments",
    "state": "closed",
    "statuses_url": "https://api.github.com/repos/PrismarineJS/mineflayer/statuses/1f0c743c372ff452f42849799ed724317dc904bb",
    "title": "Release 3.6.0",
    "updated_at": "2021-03-28T22:46:52Z",
    "url": "https://api.github.com/repos/PrismarineJS/mineflayer/pulls/1813",
    "user": {
        "avatar_url": "https://avatars.githubusercontent.com/u/43508353?v=4",
        "events_url": "https://api.github.com/users/u9g/events{/privacy}",
        "followers_url": "https://api.github.com/users/u9g/followers",
        "following_url": "https://api.github.com/users/u9g/following{/other_user}",
        "gists_url": "https://api.github.com/users/u9g/gists{/gist_id}",
        "gravatar_id": "",
        "html_url": "https://github.com/u9g",
        "id": 43508353,
        "login": "u9g",
        "node_id": "MDQ6VXNlcjQzNTA4MzUz",
        "organizations_url": "https://api.github.com/users/u9g/orgs",
        "received_events_url": "https://api.github.com/users/u9g/received_events",
        "repos_url": "https://api.github.com/users/u9g/repos",
        "site_admin": false,
        "starred_url": "https://api.github.com/users/u9g/starred{/owner}{/repo}",
        "subscriptions_url": "https://api.github.com/users/u9g/subscriptions",
        "type": "User",
        "url": "https://api.github.com/users/u9g"
    }
}