{
    "_links": {
        "comments": {
            "href": "https://api.github.com/repos/PrismarineJS/mineflayer/issues/2063/comments"
        },
        "commits": {
            "href": "https://api.github.com/repos/PrismarineJS/mineflayer/pulls/2063/commits"
        },
        "html": {
            "href": "https://github.com/PrismarineJS/mineflayer/pull/2063"
        },
        "issue": {
            "href": "https://api.github.com/repos/PrismarineJS/mineflayer/issues/2063"
        },
        "review_comment": {
            "href": "https://api.github.com/repos/PrismarineJS/mineflayer/pulls/comments{/number}"
        },
        "review_comments": {
            "href": "https://api.github.com/repos/PrismarineJS/mineflayer/pulls/2063/comments"
        },
        "self": {
            "href": "https://api.github.com/repos/PrismarineJS/mineflayer/pulls/2063"
        },
        "statuses": {
            "href": "https://api.github.com/repos/PrismarineJS/mineflayer/statuses/2fcdbb4231ba321b2aaf9fd06b40e7bc5070790c"
        }
    },
    "active_lock_reason": null,
    "additions": 11,
    "assignee": null,
    "assignees": [],
    "author_association": "CONTRIBUTOR",
    "auto_merge": null,
    "base": {
        "label": "PrismarineJS:master",
        "ref": "master",
        "repo": {
            "allow_forking": true,
            "archive_url": "https://api.github.com/repos/PrismarineJS/mineflayer/{archive_format}{/ref}",
            "archived": false,
            "assignees_url": "https://api.github.com/repos/PrismarineJS/mineflayer/assignees{/user}",
            "blobs_url": "https://api.github.com/repos/PrismarineJS/mineflayer/git/blobs{/sha}",
            "branches_url": "https://api.github.com/repos/PrismarineJS/mineflayer/branches{/branch}",
            "clone_url": "https://github.com/PrismarineJS/mineflayer.git",
            "collaborators_url": "https://api.github.com/repos/PrismarineJS/mineflayer/collaborators{/collaborator}",
            "comments_url": "https://api.github.com/repos/PrismarineJS/mineflayer/comments{/number}",
            "commits_url": "https://api.github.com/repos/PrismarineJS/mineflayer/commits{/sha}",
            "compare_url": "https://api.github.com/repos/PrismarineJS/mineflayer/compare/{base}...{head}",
            "contents_url": "https://api.github.com/repos/PrismarineJS/mineflayer/contents/{+path}",
            "contributors_url": "https://api.github.com/repos/PrismarineJS/mineflayer/contributors",
            "created_at": "2011-01-23T09:41:55Z",
            "default_branch": "master",
            "deployments_url": "https://api.github.com/repos/PrismarineJS/mineflayer/deployments",
            "description": "Create Minecraft bots with a powerful, stable, and high level JavaScript API.",
            "disabled": false,
            "downloads_url": "https://api.github.com/repos/PrismarineJS/mineflayer/downloads",
            "events_url": "https://api.github.com/repos/PrismarineJS/mineflayer/events",
            "fork": false,
            "forks": 748,
            "forks_count": 748,
            "forks_url": "https://api.github.com/repos/PrismarineJS/mineflayer/forks",
            "full_name": "PrismarineJS/mineflayer",
            "git_commits_url": "https://api.github.com/repos/PrismarineJS/mineflayer/git/commits{/sha}",
            "git_refs_url": "https://api.github.com/repos/PrismarineJS/mineflayer/git/refs{/sha}",
            "git_tags_url": "https://api.github.com/repos/PrismarineJS/mineflayer/git/tags{/sha}",
            "git_url": "git://github.com/PrismarineJS/mineflayer.git",
            "has_discussions": true,
            "has_downloads": true,
            "has_issues": true,
            "has_pages": true,
            "has_projects": true,
            "has_wiki": true,
            "homepage": "https://prismarinejs.github.io/mineflayer/",
            "hooks_url": "https://api.github.com/repos/PrismarineJS/mineflayer/hooks",
            "html_url": "https://github.com/PrismarineJS/mineflayer",
            "id": 1284185,
            "is_template": false,
            "issue_comment_url": "https://api.github.com/repos/PrismarineJS/mineflayer/issues/comments{/number}",
            "issue_events_url": "https://api.github.com/repos/PrismarineJS/mineflayer/issues/events{/number}",
            "issues_url": "https://api.github.com/repos/PrismarineJS/mineflayer/issues{/number}",
            "keys_url": "https://api.github.com/repos/PrismarineJS/mineflayer/keys{/key_id}",
            "labels_url": "https://api.github.com/repos/PrismarineJS/mineflayer/labels{/name}",
            "language": "JavaScript",
            "languages_url": "https://api.github.com/repos/PrismarineJS/mineflayer/languages",
            "license": {
                "key": "mit",
                "name": "MIT License",
                "node_id": "MDc6TGljZW5zZTEz",
                "spdx_id": "MIT",
                "url": "https://api.github.com/licenses/mit"
            },
            "merges_url": "https://api.github.com/repos/PrismarineJS/mineflayer/merges",
            "milestones_url": "https://api.github.com/repos/PrismarineJS/mineflayer/milestones{/number}",
            "mirror_url": null,
            "name": "mineflayer",
            "node_id": "MDEwOlJlcG9zaXRvcnkxMjg0MTg1",
            "notifications_url": "https://api.github.com/repos/PrismarineJS/mineflayer/notifications{?since,all,participating}",
            "open_issues": 269,
            "open_issues_count": 269,
            "owner": {
                "avatar_url": "https://avatars.githubusercontent.com/u/11053411?v=4",
                "events_url": "https://api.github.com/users/PrismarineJS/events{/privacy}",
                "followers_url": "https://api.github.com/users/PrismarineJS/followers",
                "following_url": "https://api.github.com/users/PrismarineJS/following{/other_user}",
                "gists_url": "https://api.github.com/users/PrismarineJS/gists{/gist_id}",
                "gravatar_id": "",
                "html_url": "https://github.com/PrismarineJS",
                "id": 11053411,
                "login": "PrismarineJS",
                "node_id": "MDEyOk9yZ2FuaXphdGlvbjExMDUzNDEx",
                "organizations_url": "https://api.github.com/users/PrismarineJS/orgs",
                "received_events_url": "https://api.github.com/users/PrismarineJS/received_events",
                "repos_url": "https://api.github.com/users/PrismarineJS/repos",
                "site_admin": false,
                "starred_url": "https://api.github.com/users/PrismarineJS/starred{/owner}{/repo}",
                "subscriptions_url": "https://api.github.com/users/PrismarineJS/subscriptions",
                "type": "Organization",
                "url": "https://api.github.com/users/PrismarineJS"
            },
            "private": false,
            "pulls_url": "https://api.github.com/repos/PrismarineJS/mineflayer/pulls{/number}",
            "pushed_at": "2023-04-25T00:44:52Z",
            "releases_url": "https://api.github.com/repos/PrismarineJS/mineflayer/releases{/id}",
            "size": 12493,
            "ssh_url": "git@github.com:PrismarineJS/mineflayer.git",
            "stargazers_count": 3698,
            "stargazers_url": "https://api.github.com/repos/PrismarineJS/mineflayer/stargazers",
            "statuses_url": "https://api.github.com/repos/PrismarineJS/mineflayer/statuses/{sha}",
            "subscribers_url": "https://api.github.com/repos/PrismarineJS/mineflayer/subscribers",
            "subscription_url": "https://api.github.com/repos/PrismarineJS/mineflayer/subscription",
            "svn_url": "https://github.com/PrismarineJS/mineflayer",
            "tags_url": "https://api.github.com/repos/PrismarineJS/mineflayer/tags",
            "teams_url": "https://api.github.com/repos/PrismarineJS/mineflayer/teams",
            "topics": [
                "bot",
                "minecraft",
                "minecraft-api",
                "minecraft-bot",
                "network",
                "nodejs"
            ],
            "trees_url": "https://api.github.com/repos/PrismarineJS/mineflayer/git/trees{/sha}",
            "updated_at": "2023-04-25T14:07:03Z",
            "url": "https://api.github.com/repos/PrismarineJS/mineflayer",
            "visibility": "public",
            "watchers": 3698,
            "watchers_count": 3698,
            "web_commit_signoff_required": false
        },
        "sha": "6b047446c62228c31368aa408f76aefae8dd28e6",
        "user": {
            "avatar_url": "https://avatars.githubusercontent.com/u/11053411?v=4",
            "events_url": "https://api.github.com/users/PrismarineJS/events{/privacy}",
            "followers_url": "https://api.github.com/users/PrismarineJS/followers",
            "following_url": "https://api.github.com/users/PrismarineJS/following{/other_user}",
            "gists_url": "https://api.github.com/users/PrismarineJS/gists{/gist_id}",
            "gravatar_id": "",
            "html_url": "https://github.com/PrismarineJS",
            "id": 11053411,
            "login": "PrismarineJS",
            "node_id": "MDEyOk9yZ2FuaXphdGlvbjExMDUzNDEx",
            "organizations_url": "https://api.github.com/users/PrismarineJS/orgs",
            "received_events_url": "https://api.github.com/users/PrismarineJS/received_events",
            "repos_url": "https://api.github.com/users/PrismarineJS/repos",
            "site_admin": false,
            "starred_url": "https://api.github.com/users/PrismarineJS/starred{/owner}{/repo}",
            "subscriptions_url": "https://api.github.com/users/PrismarineJS/subscriptions",
            "type": "Organization",
            "url": "https://api.github.com/users/PrismarineJS"
        }
    },
    "body": "Anticheats can detect the player's sensitivity by comparing how much the player's look direction changes each tick and getting the GCD of that. In vanilla when using 100% sensitivity, the player's look direction always changes by a multiple .15 when they're manually moving the camera with the mouse. This change makes mineflayer do that too. I have a proof-of-concept anticheat that does this (which is on my unfinished server, matdoes.dev) but there's likely other anticheats that do this as well.",
    "changed_files": 1,
    "closed_at": "2021-10-10T08:47:41Z",
    "comment_data": [],
    "comment_regular_data": [
        {
            "author_association": "MEMBER",
            "body": "by having this, does this mean you can't get an exact yaw/pitch anymore, just in intervals of .15?",
            "created_at": "2021-08-01T17:49:41Z",
            "html_url": "https://github.com/PrismarineJS/mineflayer/pull/2063#issuecomment-890561010",
            "id": 890561010,
            "issue_url": "https://api.github.com/repos/PrismarineJS/mineflayer/issues/2063",
            "node_id": "IC_kwDOABOYWc41FOHy",
            "performed_via_github_app": null,
            "reactions": {
                "+1": 0,
                "-1": 0,
                "confused": 0,
                "eyes": 0,
                "heart": 0,
                "hooray": 0,
                "laugh": 0,
                "rocket": 0,
                "total_count": 0,
                "url": "https://api.github.com/repos/PrismarineJS/mineflayer/issues/comments/890561010/reactions"
            },
            "updated_at": "2021-08-01T17:49:41Z",
            "url": "https://api.github.com/repos/PrismarineJS/mineflayer/issues/comments/890561010",
            "user": {
                "avatar_url": "https://avatars.githubusercontent.com/u/43508353?v=4",
                "events_url": "https://api.github.com/users/u9g/events{/privacy}",
                "followers_url": "https://api.github.com/users/u9g/followers",
                "following_url": "https://api.github.com/users/u9g/following{/other_user}",
                "gists_url": "https://api.github.com/users/u9g/gists{/gist_id}",
                "gravatar_id": "",
                "html_url": "https://github.com/u9g",
                "id": 43508353,
                "login": "u9g",
                "node_id": "MDQ6VXNlcjQzNTA4MzUz",
                "organizations_url": "https://api.github.com/users/u9g/orgs",
                "received_events_url": "https://api.github.com/users/u9g/received_events",
                "repos_url": "https://api.github.com/users/u9g/repos",
                "site_admin": false,
                "starred_url": "https://api.github.com/users/u9g/starred{/owner}{/repo}",
                "subscriptions_url": "https://api.github.com/users/u9g/subscriptions",
                "type": "User",
                "url": "https://api.github.com/users/u9g"
            }
        },
        {
            "author_association": "CONTRIBUTOR",
            "body": "> \r\n> \r\n> by having this, does this mean you can't get an exact yaw/pitch anymore, just in intervals of .15?\r\n\r\nYou can't set an *exact* yaw/pitch anymore, but I don't think there's ever a situation where you need to do this (since you can't in vanilla anyways) so it shouldn't break anything and it's not noticeable either.",
            "created_at": "2021-08-02T21:52:08Z",
            "html_url": "https://github.com/PrismarineJS/mineflayer/pull/2063#issuecomment-891358352",
            "id": 891358352,
            "issue_url": "https://api.github.com/repos/PrismarineJS/mineflayer/issues/2063",
            "node_id": "IC_kwDOABOYWc41IQyQ",
            "performed_via_github_app": null,
            "reactions": {
                "+1": 0,
                "-1": 0,
                "confused": 0,
                "eyes": 0,
                "heart": 0,
                "hooray": 0,
                "laugh": 0,
                "rocket": 0,
                "total_count": 0,
                "url": "https://api.github.com/repos/PrismarineJS/mineflayer/issues/comments/891358352/reactions"
            },
            "updated_at": "2021-08-02T21:52:08Z",
            "url": "https://api.github.com/repos/PrismarineJS/mineflayer/issues/comments/891358352",
            "user": {
                "avatar_url": "https://avatars.githubusercontent.com/u/27899617?v=4",
                "events_url": "https://api.github.com/users/mat-1/events{/privacy}",
                "followers_url": "https://api.github.com/users/mat-1/followers",
                "following_url": "https://api.github.com/users/mat-1/following{/other_user}",
                "gists_url": "https://api.github.com/users/mat-1/gists{/gist_id}",
                "gravatar_id": "",
                "html_url": "https://github.com/mat-1",
                "id": 27899617,
                "login": "mat-1",
                "node_id": "MDQ6VXNlcjI3ODk5NjE3",
                "organizations_url": "https://api.github.com/users/mat-1/orgs",
                "received_events_url": "https://api.github.com/users/mat-1/received_events",
                "repos_url": "https://api.github.com/users/mat-1/repos",
                "site_admin": false,
                "starred_url": "https://api.github.com/users/mat-1/starred{/owner}{/repo}",
                "subscriptions_url": "https://api.github.com/users/mat-1/subscriptions",
                "type": "User",
                "url": "https://api.github.com/users/mat-1"
            }
        },
        {
            "author_association": "MEMBER",
            "body": "wouldnt this stop some parkour jumps from being possible then?",
            "created_at": "2021-08-02T21:55:04Z",
            "html_url": "https://github.com/PrismarineJS/mineflayer/pull/2063#issuecomment-891359662",
            "id": 891359662,
            "issue_url": "https://api.github.com/repos/PrismarineJS/mineflayer/issues/2063",
            "node_id": "IC_kwDOABOYWc41IRGu",
            "performed_via_github_app": null,
            "reactions": {
                "+1": 0,
                "-1": 0,
                "confused": 0,
                "eyes": 0,
                "heart": 0,
                "hooray": 0,
                "laugh": 0,
                "rocket": 0,
                "total_count": 0,
                "url": "https://api.github.com/repos/PrismarineJS/mineflayer/issues/comments/891359662/reactions"
            },
            "updated_at": "2021-08-02T21:55:04Z",
            "url": "https://api.github.com/repos/PrismarineJS/mineflayer/issues/comments/891359662",
            "user": {
                "avatar_url": "https://avatars.githubusercontent.com/u/43508353?v=4",
                "events_url": "https://api.github.com/users/u9g/events{/privacy}",
                "followers_url": "https://api.github.com/users/u9g/followers",
                "following_url": "https://api.github.com/users/u9g/following{/other_user}",
                "gists_url": "https://api.github.com/users/u9g/gists{/gist_id}",
                "gravatar_id": "",
                "html_url": "https://github.com/u9g",
                "id": 43508353,
                "login": "u9g",
                "node_id": "MDQ6VXNlcjQzNTA4MzUz",
                "organizations_url": "https://api.github.com/users/u9g/orgs",
                "received_events_url": "https://api.github.com/users/u9g/received_events",
                "repos_url": "https://api.github.com/users/u9g/repos",
                "site_admin": false,
                "starred_url": "https://api.github.com/users/u9g/starred{/owner}{/repo}",
                "subscriptions_url": "https://api.github.com/users/u9g/subscriptions",
                "type": "User",
                "url": "https://api.github.com/users/u9g"
            }
        },
        {
            "author_association": "CONTRIBUTOR",
            "body": "> \r\n> \r\n> wouldnt this stop some parkour jumps from being possible then?\r\n\r\nProbably not, also those parkour jumps wouldn't be possible in vanilla.",
            "created_at": "2021-08-02T21:56:12Z",
            "html_url": "https://github.com/PrismarineJS/mineflayer/pull/2063#issuecomment-891360165",
            "id": 891360165,
            "issue_url": "https://api.github.com/repos/PrismarineJS/mineflayer/issues/2063",
            "node_id": "IC_kwDOABOYWc41IROl",
            "performed_via_github_app": null,
            "reactions": {
                "+1": 0,
                "-1": 0,
                "confused": 0,
                "eyes": 0,
                "heart": 0,
                "hooray": 0,
                "laugh": 0,
                "rocket": 0,
                "total_count": 0,
                "url": "https://api.github.com/repos/PrismarineJS/mineflayer/issues/comments/891360165/reactions"
            },
            "updated_at": "2021-08-02T21:56:12Z",
            "url": "https://api.github.com/repos/PrismarineJS/mineflayer/issues/comments/891360165",
            "user": {
                "avatar_url": "https://avatars.githubusercontent.com/u/27899617?v=4",
                "events_url": "https://api.github.com/users/mat-1/events{/privacy}",
                "followers_url": "https://api.github.com/users/mat-1/followers",
                "following_url": "https://api.github.com/users/mat-1/following{/other_user}",
                "gists_url": "https://api.github.com/users/mat-1/gists{/gist_id}",
                "gravatar_id": "",
                "html_url": "https://github.com/mat-1",
                "id": 27899617,
                "login": "mat-1",
                "node_id": "MDQ6VXNlcjI3ODk5NjE3",
                "organizations_url": "https://api.github.com/users/mat-1/orgs",
                "received_events_url": "https://api.github.com/users/mat-1/received_events",
                "repos_url": "https://api.github.com/users/mat-1/repos",
                "site_admin": false,
                "starred_url": "https://api.github.com/users/mat-1/starred{/owner}{/repo}",
                "subscriptions_url": "https://api.github.com/users/mat-1/subscriptions",
                "type": "User",
                "url": "https://api.github.com/users/mat-1"
            }
        },
        {
            "author_association": "MEMBER",
            "body": "there is no example of this helping to bypass any known anticheat and it increases complexity\r\n\r\nre-open if you have more information",
            "created_at": "2021-08-15T12:58:40Z",
            "html_url": "https://github.com/PrismarineJS/mineflayer/pull/2063#issuecomment-899046711",
            "id": 899046711,
            "issue_url": "https://api.github.com/repos/PrismarineJS/mineflayer/issues/2063",
            "node_id": "IC_kwDOABOYWc41ll03",
            "performed_via_github_app": null,
            "reactions": {
                "+1": 0,
                "-1": 0,
                "confused": 0,
                "eyes": 0,
                "heart": 0,
                "hooray": 0,
                "laugh": 0,
                "rocket": 0,
                "total_count": 0,
                "url": "https://api.github.com/repos/PrismarineJS/mineflayer/issues/comments/899046711/reactions"
            },
            "updated_at": "2021-08-15T12:58:40Z",
            "url": "https://api.github.com/repos/PrismarineJS/mineflayer/issues/comments/899046711",
            "user": {
                "avatar_url": "https://avatars.githubusercontent.com/u/2346494?v=4",
                "events_url": "https://api.github.com/users/rom1504/events{/privacy}",
                "followers_url": "https://api.github.com/users/rom1504/followers",
                "following_url": "https://api.github.com/users/rom1504/following{/other_user}",
                "gists_url": "https://api.github.com/users/rom1504/gists{/gist_id}",
                "gravatar_id": "",
                "html_url": "https://github.com/rom1504",
                "id": 2346494,
                "login": "rom1504",
                "node_id": "MDQ6VXNlcjIzNDY0OTQ=",
                "organizations_url": "https://api.github.com/users/rom1504/orgs",
                "received_events_url": "https://api.github.com/users/rom1504/received_events",
                "repos_url": "https://api.github.com/users/rom1504/repos",
                "site_admin": false,
                "starred_url": "https://api.github.com/users/rom1504/starred{/owner}{/repo}",
                "subscriptions_url": "https://api.github.com/users/rom1504/subscriptions",
                "type": "User",
                "url": "https://api.github.com/users/rom1504"
            }
        },
        {
            "author_association": "CONTRIBUTOR",
            "body": "I can confirm that Vulcan does check for sensitivity and that mineflayer does flag when looking around.",
            "created_at": "2021-09-28T22:30:44Z",
            "html_url": "https://github.com/PrismarineJS/mineflayer/pull/2063#issuecomment-929672049",
            "id": 929672049,
            "issue_url": "https://api.github.com/repos/PrismarineJS/mineflayer/issues/2063",
            "node_id": "IC_kwDOABOYWc43aatx",
            "performed_via_github_app": null,
            "reactions": {
                "+1": 0,
                "-1": 0,
                "confused": 0,
                "eyes": 0,
                "heart": 0,
                "hooray": 0,
                "laugh": 0,
                "rocket": 0,
                "total_count": 0,
                "url": "https://api.github.com/repos/PrismarineJS/mineflayer/issues/comments/929672049/reactions"
            },
            "updated_at": "2021-09-28T22:31:06Z",
            "url": "https://api.github.com/repos/PrismarineJS/mineflayer/issues/comments/929672049",
            "user": {
                "avatar_url": "https://avatars.githubusercontent.com/u/56985400?v=4",
                "events_url": "https://api.github.com/users/U5B/events{/privacy}",
                "followers_url": "https://api.github.com/users/U5B/followers",
                "following_url": "https://api.github.com/users/U5B/following{/other_user}",
                "gists_url": "https://api.github.com/users/U5B/gists{/gist_id}",
                "gravatar_id": "",
                "html_url": "https://github.com/U5B",
                "id": 56985400,
                "login": "U5B",
                "node_id": "MDQ6VXNlcjU2OTg1NDAw",
                "organizations_url": "https://api.github.com/users/U5B/orgs",
                "received_events_url": "https://api.github.com/users/U5B/received_events",
                "repos_url": "https://api.github.com/users/U5B/repos",
                "site_admin": false,
                "starred_url": "https://api.github.com/users/U5B/starred{/owner}{/repo}",
                "subscriptions_url": "https://api.github.com/users/U5B/subscriptions",
                "type": "User",
                "url": "https://api.github.com/users/U5B"
            }
        },
        {
            "author_association": "CONTRIBUTOR",
            "body": "@rom1504 USB confirmed this PR bypasses Vulcan anticheat.\n\n![Screenshot_20211001-171029.png](https://user-images.githubusercontent.com/27899617/135691446-0c7d2a83-3c1c-4a67-ae25-b93be113d1cd.png)",
            "created_at": "2021-10-01T22:11:07Z",
            "html_url": "https://github.com/PrismarineJS/mineflayer/pull/2063#issuecomment-932606368",
            "id": 932606368,
            "issue_url": "https://api.github.com/repos/PrismarineJS/mineflayer/issues/2063",
            "node_id": "IC_kwDOABOYWc43lnGg",
            "performed_via_github_app": null,
            "reactions": {
                "+1": 0,
                "-1": 0,
                "confused": 0,
                "eyes": 0,
                "heart": 0,
                "hooray": 0,
                "laugh": 0,
                "rocket": 0,
                "total_count": 0,
                "url": "https://api.github.com/repos/PrismarineJS/mineflayer/issues/comments/932606368/reactions"
            },
            "updated_at": "2021-10-01T22:11:07Z",
            "url": "https://api.github.com/repos/PrismarineJS/mineflayer/issues/comments/932606368",
            "user": {
                "avatar_url": "https://avatars.githubusercontent.com/u/27899617?v=4",
                "events_url": "https://api.github.com/users/mat-1/events{/privacy}",
                "followers_url": "https://api.github.com/users/mat-1/followers",
                "following_url": "https://api.github.com/users/mat-1/following{/other_user}",
                "gists_url": "https://api.github.com/users/mat-1/gists{/gist_id}",
                "gravatar_id": "",
                "html_url": "https://github.com/mat-1",
                "id": 27899617,
                "login": "mat-1",
                "node_id": "MDQ6VXNlcjI3ODk5NjE3",
                "organizations_url": "https://api.github.com/users/mat-1/orgs",
                "received_events_url": "https://api.github.com/users/mat-1/received_events",
                "repos_url": "https://api.github.com/users/mat-1/repos",
                "site_admin": false,
                "starred_url": "https://api.github.com/users/mat-1/starred{/owner}{/repo}",
                "subscriptions_url": "https://api.github.com/users/mat-1/subscriptions",
                "type": "User",
                "url": "https://api.github.com/users/mat-1"
            }
        }
    ],
    "comments": 7,
    "comments_url": "https://api.github.com/repos/PrismarineJS/mineflayer/issues/2063/comments",
    "commit_data": [
        {
            "author": {
                "avatar_url": "https://avatars.githubusercontent.com/u/27899617?v=4",
                "events_url": "https://api.github.com/users/mat-1/events{/privacy}",
                "followers_url": "https://api.github.com/users/mat-1/followers",
                "following_url": "https://api.github.com/users/mat-1/following{/other_user}",
                "gists_url": "https://api.github.com/users/mat-1/gists{/gist_id}",
                "gravatar_id": "",
                "html_url": "https://github.com/mat-1",
                "id": 27899617,
                "login": "mat-1",
                "node_id": "MDQ6VXNlcjI3ODk5NjE3",
                "organizations_url": "https://api.github.com/users/mat-1/orgs",
                "received_events_url": "https://api.github.com/users/mat-1/received_events",
                "repos_url": "https://api.github.com/users/mat-1/repos",
                "site_admin": false,
                "starred_url": "https://api.github.com/users/mat-1/starred{/owner}{/repo}",
                "subscriptions_url": "https://api.github.com/users/mat-1/subscriptions",
                "type": "User",
                "url": "https://api.github.com/users/mat-1"
            },
            "comments_url": "https://api.github.com/repos/PrismarineJS/mineflayer/commits/29075b979ef99a191a5de5ba06656cbea222fac4/comments",
            "commit": {
                "author": {
                    "date": "2021-07-26T02:38:56Z",
                    "email": "github@matdoes.dev",
                    "name": "mat"
                },
                "comment_count": 0,
                "committer": {
                    "date": "2021-07-26T02:38:56Z",
                    "email": "github@matdoes.dev",
                    "name": "mat"
                },
                "message": "Bypass anticheats that detect sensitivity\n\nAnticheats can detect the player's sensitivity by comparing how much the player's look direction changes each tick and getting the GCD of that. In vanilla when using 100% sensitivity, the player always moves by a multiple .15 when they're manually moving the camera with the mouse. This change makes mineflayer do that too. My own proof-of-concept of an anticheat that does this is on my very unfinished server (matdoes.dev) but there's likely other anticheats that do this as well.",
                "tree": {
                    "sha": "3138548ef285992ec354d8caa532a36f79791836",
                    "url": "https://api.github.com/repos/PrismarineJS/mineflayer/git/trees/3138548ef285992ec354d8caa532a36f79791836"
                },
                "url": "https://api.github.com/repos/PrismarineJS/mineflayer/git/commits/29075b979ef99a191a5de5ba06656cbea222fac4",
                "verification": {
                    "payload": null,
                    "reason": "unsigned",
                    "signature": null,
                    "verified": false
                }
            },
            "committer": {
                "avatar_url": "https://avatars.githubusercontent.com/u/27899617?v=4",
                "events_url": "https://api.github.com/users/mat-1/events{/privacy}",
                "followers_url": "https://api.github.com/users/mat-1/followers",
                "following_url": "https://api.github.com/users/mat-1/following{/other_user}",
                "gists_url": "https://api.github.com/users/mat-1/gists{/gist_id}",
                "gravatar_id": "",
                "html_url": "https://github.com/mat-1",
                "id": 27899617,
                "login": "mat-1",
                "node_id": "MDQ6VXNlcjI3ODk5NjE3",
                "organizations_url": "https://api.github.com/users/mat-1/orgs",
                "received_events_url": "https://api.github.com/users/mat-1/received_events",
                "repos_url": "https://api.github.com/users/mat-1/repos",
                "site_admin": false,
                "starred_url": "https://api.github.com/users/mat-1/starred{/owner}{/repo}",
                "subscriptions_url": "https://api.github.com/users/mat-1/subscriptions",
                "type": "User",
                "url": "https://api.github.com/users/mat-1"
            },
            "html_url": "https://github.com/PrismarineJS/mineflayer/commit/29075b979ef99a191a5de5ba06656cbea222fac4",
            "node_id": "MDY6Q29tbWl0MzE5MTg2MDE5OjI5MDc1Yjk3OWVmOTlhMTkxYTVkZTViYTA2NjU2Y2JlYTIyMmZhYzQ=",
            "parents": [
                {
                    "html_url": "https://github.com/PrismarineJS/mineflayer/commit/6b047446c62228c31368aa408f76aefae8dd28e6",
                    "sha": "6b047446c62228c31368aa408f76aefae8dd28e6",
                    "url": "https://api.github.com/repos/PrismarineJS/mineflayer/commits/6b047446c62228c31368aa408f76aefae8dd28e6"
                }
            ],
            "sha": "29075b979ef99a191a5de5ba06656cbea222fac4",
            "url": "https://api.github.com/repos/PrismarineJS/mineflayer/commits/29075b979ef99a191a5de5ba06656cbea222fac4"
        },
        {
            "author": {
                "avatar_url": "https://avatars.githubusercontent.com/u/27899617?v=4",
                "events_url": "https://api.github.com/users/mat-1/events{/privacy}",
                "followers_url": "https://api.github.com/users/mat-1/followers",
                "following_url": "https://api.github.com/users/mat-1/following{/other_user}",
                "gists_url": "https://api.github.com/users/mat-1/gists{/gist_id}",
                "gravatar_id": "",
                "html_url": "https://github.com/mat-1",
                "id": 27899617,
                "login": "mat-1",
                "node_id": "MDQ6VXNlcjI3ODk5NjE3",
                "organizations_url": "https://api.github.com/users/mat-1/orgs",
                "received_events_url": "https://api.github.com/users/mat-1/received_events",
                "repos_url": "https://api.github.com/users/mat-1/repos",
                "site_admin": false,
                "starred_url": "https://api.github.com/users/mat-1/starred{/owner}{/repo}",
                "subscriptions_url": "https://api.github.com/users/mat-1/subscriptions",
                "type": "User",
                "url": "https://api.github.com/users/mat-1"
            },
            "comments_url": "https://api.github.com/repos/PrismarineJS/mineflayer/commits/2fcdbb4231ba321b2aaf9fd06b40e7bc5070790c/comments",
            "commit": {
                "author": {
                    "date": "2021-07-26T02:41:38Z",
                    "email": "github@matdoes.dev",
                    "name": "mat"
                },
                "comment_count": 0,
                "committer": {
                    "date": "2021-07-26T02:41:38Z",
                    "email": "github@matdoes.dev",
                    "name": "mat"
                },
                "message": "standard linting",
                "tree": {
                    "sha": "42afa7da5c2b9361284082d27af59d4b055d251c",
                    "url": "https://api.github.com/repos/PrismarineJS/mineflayer/git/trees/42afa7da5c2b9361284082d27af59d4b055d251c"
                },
                "url": "https://api.github.com/repos/PrismarineJS/mineflayer/git/commits/2fcdbb4231ba321b2aaf9fd06b40e7bc5070790c",
                "verification": {
                    "payload": null,
                    "reason": "unsigned",
                    "signature": null,
                    "verified": false
                }
            },
            "committer": {
                "avatar_url": "https://avatars.githubusercontent.com/u/27899617?v=4",
                "events_url": "https://api.github.com/users/mat-1/events{/privacy}",
                "followers_url": "https://api.github.com/users/mat-1/followers",
                "following_url": "https://api.github.com/users/mat-1/following{/other_user}",
                "gists_url": "https://api.github.com/users/mat-1/gists{/gist_id}",
                "gravatar_id": "",
                "html_url": "https://github.com/mat-1",
                "id": 27899617,
                "login": "mat-1",
                "node_id": "MDQ6VXNlcjI3ODk5NjE3",
                "organizations_url": "https://api.github.com/users/mat-1/orgs",
                "received_events_url": "https://api.github.com/users/mat-1/received_events",
                "repos_url": "https://api.github.com/users/mat-1/repos",
                "site_admin": false,
                "starred_url": "https://api.github.com/users/mat-1/starred{/owner}{/repo}",
                "subscriptions_url": "https://api.github.com/users/mat-1/subscriptions",
                "type": "User",
                "url": "https://api.github.com/users/mat-1"
            },
            "html_url": "https://github.com/PrismarineJS/mineflayer/commit/2fcdbb4231ba321b2aaf9fd06b40e7bc5070790c",
            "node_id": "MDY6Q29tbWl0MzE5MTg2MDE5OjJmY2RiYjQyMzFiYTMyMWIyYWFmOWZkMDZiNDBlN2JjNTA3MDc5MGM=",
            "parents": [
                {
                    "html_url": "https://github.com/PrismarineJS/mineflayer/commit/29075b979ef99a191a5de5ba06656cbea222fac4",
                    "sha": "29075b979ef99a191a5de5ba06656cbea222fac4",
                    "url": "https://api.github.com/repos/PrismarineJS/mineflayer/commits/29075b979ef99a191a5de5ba06656cbea222fac4"
                }
            ],
            "sha": "2fcdbb4231ba321b2aaf9fd06b40e7bc5070790c",
            "url": "https://api.github.com/repos/PrismarineJS/mineflayer/commits/2fcdbb4231ba321b2aaf9fd06b40e7bc5070790c"
        }
    ],
    "commits": 2,
    "commits_url": "https://api.github.com/repos/PrismarineJS/mineflayer/pulls/2063/commits",
    "created_at": "2021-07-26T02:39:42Z",
    "deletions": 4,
    "diff_url": "https://github.com/PrismarineJS/mineflayer/pull/2063.diff",
    "draft": false,
    "head": {
        "label": "mat-1:look-sensitivity",
        "ref": "look-sensitivity",
        "repo": {
            "allow_forking": true,
            "archive_url": "https://api.github.com/repos/mat-1/mineflayer/{archive_format}{/ref}",
            "archived": false,
            "assignees_url": "https://api.github.com/repos/mat-1/mineflayer/assignees{/user}",
            "blobs_url": "https://api.github.com/repos/mat-1/mineflayer/git/blobs{/sha}",
            "branches_url": "https://api.github.com/repos/mat-1/mineflayer/branches{/branch}",
            "clone_url": "https://github.com/mat-1/mineflayer.git",
            "collaborators_url": "https://api.github.com/repos/mat-1/mineflayer/collaborators{/collaborator}",
            "comments_url": "https://api.github.com/repos/mat-1/mineflayer/comments{/number}",
            "commits_url": "https://api.github.com/repos/mat-1/mineflayer/commits{/sha}",
            "compare_url": "https://api.github.com/repos/mat-1/mineflayer/compare/{base}...{head}",
            "contents_url": "https://api.github.com/repos/mat-1/mineflayer/contents/{+path}",
            "contributors_url": "https://api.github.com/repos/mat-1/mineflayer/contributors",
            "created_at": "2020-12-07T02:49:54Z",
            "default_branch": "master",
            "deployments_url": "https://api.github.com/repos/mat-1/mineflayer/deployments",
            "description": "Create Minecraft bots with a powerful, stable, and high level JavaScript API.",
            "disabled": false,
            "downloads_url": "https://api.github.com/repos/mat-1/mineflayer/downloads",
            "events_url": "https://api.github.com/repos/mat-1/mineflayer/events",
            "fork": true,
            "forks": 1,
            "forks_count": 1,
            "forks_url": "https://api.github.com/repos/mat-1/mineflayer/forks",
            "full_name": "mat-1/mineflayer",
            "git_commits_url": "https://api.github.com/repos/mat-1/mineflayer/git/commits{/sha}",
            "git_refs_url": "https://api.github.com/repos/mat-1/mineflayer/git/refs{/sha}",
            "git_tags_url": "https://api.github.com/repos/mat-1/mineflayer/git/tags{/sha}",
            "git_url": "git://github.com/mat-1/mineflayer.git",
            "has_discussions": false,
            "has_downloads": true,
            "has_issues": false,
            "has_pages": false,
            "has_projects": true,
            "has_wiki": true,
            "homepage": "https://mineflayer.prismarine.js.org",
            "hooks_url": "https://api.github.com/repos/mat-1/mineflayer/hooks",
            "html_url": "https://github.com/mat-1/mineflayer",
            "id": 319186019,
            "is_template": false,
            "issue_comment_url": "https://api.github.com/repos/mat-1/mineflayer/issues/comments{/number}",
            "issue_events_url": "https://api.github.com/repos/mat-1/mineflayer/issues/events{/number}",
            "issues_url": "https://api.github.com/repos/mat-1/mineflayer/issues{/number}",
            "keys_url": "https://api.github.com/repos/mat-1/mineflayer/keys{/key_id}",
            "labels_url": "https://api.github.com/repos/mat-1/mineflayer/labels{/name}",
            "language": "JavaScript",
            "languages_url": "https://api.github.com/repos/mat-1/mineflayer/languages",
            "license": {
                "key": "mit",
                "name": "MIT License",
                "node_id": "MDc6TGljZW5zZTEz",
                "spdx_id": "MIT",
                "url": "https://api.github.com/licenses/mit"
            },
            "merges_url": "https://api.github.com/repos/mat-1/mineflayer/merges",
            "milestones_url": "https://api.github.com/repos/mat-1/mineflayer/milestones{/number}",
            "mirror_url": null,
            "name": "mineflayer",
            "node_id": "MDEwOlJlcG9zaXRvcnkzMTkxODYwMTk=",
            "notifications_url": "https://api.github.com/repos/mat-1/mineflayer/notifications{?since,all,participating}",
            "open_issues": 7,
            "open_issues_count": 7,
            "owner": {
                "avatar_url": "https://avatars.githubusercontent.com/u/27899617?v=4",
                "events_url": "https://api.github.com/users/mat-1/events{/privacy}",
                "followers_url": "https://api.github.com/users/mat-1/followers",
                "following_url": "https://api.github.com/users/mat-1/following{/other_user}",
                "gists_url": "https://api.github.com/users/mat-1/gists{/gist_id}",
                "gravatar_id": "",
                "html_url": "https://github.com/mat-1",
                "id": 27899617,
                "login": "mat-1",
                "node_id": "MDQ6VXNlcjI3ODk5NjE3",
                "organizations_url": "https://api.github.com/users/mat-1/orgs",
                "received_events_url": "https://api.github.com/users/mat-1/received_events",
                "repos_url": "https://api.github.com/users/mat-1/repos",
                "site_admin": false,
                "starred_url": "https://api.github.com/users/mat-1/starred{/owner}{/repo}",
                "subscriptions_url": "https://api.github.com/users/mat-1/subscriptions",
                "type": "User",
                "url": "https://api.github.com/users/mat-1"
            },
            "private": false,
            "pulls_url": "https://api.github.com/repos/mat-1/mineflayer/pulls{/number}",
            "pushed_at": "2023-03-06T07:00:45Z",
            "releases_url": "https://api.github.com/repos/mat-1/mineflayer/releases{/id}",
            "size": 12188,
            "ssh_url": "git@github.com:mat-1/mineflayer.git",
            "stargazers_count": 0,
            "stargazers_url": "https://api.github.com/repos/mat-1/mineflayer/stargazers",
            "statuses_url": "https://api.github.com/repos/mat-1/mineflayer/statuses/{sha}",
            "subscribers_url": "https://api.github.com/repos/mat-1/mineflayer/subscribers",
            "subscription_url": "https://api.github.com/repos/mat-1/mineflayer/subscription",
            "svn_url": "https://github.com/mat-1/mineflayer",
            "tags_url": "https://api.github.com/repos/mat-1/mineflayer/tags",
            "teams_url": "https://api.github.com/repos/mat-1/mineflayer/teams",
            "topics": [],
            "trees_url": "https://api.github.com/repos/mat-1/mineflayer/git/trees{/sha}",
            "updated_at": "2023-01-31T18:37:58Z",
            "url": "https://api.github.com/repos/mat-1/mineflayer",
            "visibility": "public",
            "watchers": 0,
            "watchers_count": 0,
            "web_commit_signoff_required": false
        },
        "sha": "2fcdbb4231ba321b2aaf9fd06b40e7bc5070790c",
        "user": {
            "avatar_url": "https://avatars.githubusercontent.com/u/27899617?v=4",
            "events_url": "https://api.github.com/users/mat-1/events{/privacy}",
            "followers_url": "https://api.github.com/users/mat-1/followers",
            "following_url": "https://api.github.com/users/mat-1/following{/other_user}",
            "gists_url": "https://api.github.com/users/mat-1/gists{/gist_id}",
            "gravatar_id": "",
            "html_url": "https://github.com/mat-1",
            "id": 27899617,
            "login": "mat-1",
            "node_id": "MDQ6VXNlcjI3ODk5NjE3",
            "organizations_url": "https://api.github.com/users/mat-1/orgs",
            "received_events_url": "https://api.github.com/users/mat-1/received_events",
            "repos_url": "https://api.github.com/users/mat-1/repos",
            "site_admin": false,
            "starred_url": "https://api.github.com/users/mat-1/starred{/owner}{/repo}",
            "subscriptions_url": "https://api.github.com/users/mat-1/subscriptions",
            "type": "User",
            "url": "https://api.github.com/users/mat-1"
        }
    },
    "html_url": "https://github.com/PrismarineJS/mineflayer/pull/2063",
    "id": 696634641,
    "issue_url": "https://api.github.com/repos/PrismarineJS/mineflayer/issues/2063",
    "labels": [
        {
            "color": "663399",
            "default": false,
            "description": null,
            "id": 241251380,
            "name": "waiting info from op",
            "node_id": "MDU6TGFiZWwyNDEyNTEzODA=",
            "url": "https://api.github.com/repos/PrismarineJS/mineflayer/labels/waiting%20info%20from%20op"
        }
    ],
    "locked": false,
    "maintainer_can_modify": false,
    "merge_commit_sha": "ada3c37f5638de6e51de38059c8c5576dbb7e3a8",
    "mergeable": null,
    "mergeable_state": "unknown",
    "merged": true,
    "merged_at": "2021-10-10T08:47:41Z",
    "merged_by": {
        "avatar_url": "https://avatars.githubusercontent.com/u/2346494?v=4",
        "events_url": "https://api.github.com/users/rom1504/events{/privacy}",
        "followers_url": "https://api.github.com/users/rom1504/followers",
        "following_url": "https://api.github.com/users/rom1504/following{/other_user}",
        "gists_url": "https://api.github.com/users/rom1504/gists{/gist_id}",
        "gravatar_id": "",
        "html_url": "https://github.com/rom1504",
        "id": 2346494,
        "login": "rom1504",
        "node_id": "MDQ6VXNlcjIzNDY0OTQ=",
        "organizations_url": "https://api.github.com/users/rom1504/orgs",
        "received_events_url": "https://api.github.com/users/rom1504/received_events",
        "repos_url": "https://api.github.com/users/rom1504/repos",
        "site_admin": false,
        "starred_url": "https://api.github.com/users/rom1504/starred{/owner}{/repo}",
        "subscriptions_url": "https://api.github.com/users/rom1504/subscriptions",
        "type": "User",
        "url": "https://api.github.com/users/rom1504"
    },
    "milestone": null,
    "node_id": "MDExOlB1bGxSZXF1ZXN0Njk2NjM0NjQx",
    "number": 2063,
    "patch_url": "https://github.com/PrismarineJS/mineflayer/pull/2063.patch",
    "rebaseable": null,
    "requested_reviewers": [],
    "requested_teams": [],
    "review_comment_url": "https://api.github.com/repos/PrismarineJS/mineflayer/pulls/comments{/number}",
    "review_comments": 0,
    "review_comments_url": "https://api.github.com/repos/PrismarineJS/mineflayer/pulls/2063/comments",
    "state": "closed",
    "statuses_url": "https://api.github.com/repos/PrismarineJS/mineflayer/statuses/2fcdbb4231ba321b2aaf9fd06b40e7bc5070790c",
    "title": "Bypass anticheats that detect sensitivity",
    "updated_at": "2021-10-10T16:59:17Z",
    "url": "https://api.github.com/repos/PrismarineJS/mineflayer/pulls/2063",
    "user": {
        "avatar_url": "https://avatars.githubusercontent.com/u/27899617?v=4",
        "events_url": "https://api.github.com/users/mat-1/events{/privacy}",
        "followers_url": "https://api.github.com/users/mat-1/followers",
        "following_url": "https://api.github.com/users/mat-1/following{/other_user}",
        "gists_url": "https://api.github.com/users/mat-1/gists{/gist_id}",
        "gravatar_id": "",
        "html_url": "https://github.com/mat-1",
        "id": 27899617,
        "login": "mat-1",
        "node_id": "MDQ6VXNlcjI3ODk5NjE3",
        "organizations_url": "https://api.github.com/users/mat-1/orgs",
        "received_events_url": "https://api.github.com/users/mat-1/received_events",
        "repos_url": "https://api.github.com/users/mat-1/repos",
        "site_admin": false,
        "starred_url": "https://api.github.com/users/mat-1/starred{/owner}{/repo}",
        "subscriptions_url": "https://api.github.com/users/mat-1/subscriptions",
        "type": "User",
        "url": "https://api.github.com/users/mat-1"
    }
}