{
    "_links": {
        "comments": {
            "href": "https://api.github.com/repos/PrismarineJS/mineflayer/issues/214/comments"
        },
        "commits": {
            "href": "https://api.github.com/repos/PrismarineJS/mineflayer/pulls/214/commits"
        },
        "html": {
            "href": "https://github.com/PrismarineJS/mineflayer/pull/214"
        },
        "issue": {
            "href": "https://api.github.com/repos/PrismarineJS/mineflayer/issues/214"
        },
        "review_comment": {
            "href": "https://api.github.com/repos/PrismarineJS/mineflayer/pulls/comments{/number}"
        },
        "review_comments": {
            "href": "https://api.github.com/repos/PrismarineJS/mineflayer/pulls/214/comments"
        },
        "self": {
            "href": "https://api.github.com/repos/PrismarineJS/mineflayer/pulls/214"
        },
        "statuses": {
            "href": "https://api.github.com/repos/PrismarineJS/mineflayer/statuses/9b7bbecc5a94cd1217ca89b26f4a21e70c59642c"
        }
    },
    "active_lock_reason": null,
    "additions": 1,
    "assignee": null,
    "assignees": [],
    "author_association": "MEMBER",
    "auto_merge": null,
    "base": {
        "label": "PrismarineJS:master",
        "ref": "master",
        "repo": {
            "allow_forking": true,
            "archive_url": "https://api.github.com/repos/PrismarineJS/mineflayer/{archive_format}{/ref}",
            "archived": false,
            "assignees_url": "https://api.github.com/repos/PrismarineJS/mineflayer/assignees{/user}",
            "blobs_url": "https://api.github.com/repos/PrismarineJS/mineflayer/git/blobs{/sha}",
            "branches_url": "https://api.github.com/repos/PrismarineJS/mineflayer/branches{/branch}",
            "clone_url": "https://github.com/PrismarineJS/mineflayer.git",
            "collaborators_url": "https://api.github.com/repos/PrismarineJS/mineflayer/collaborators{/collaborator}",
            "comments_url": "https://api.github.com/repos/PrismarineJS/mineflayer/comments{/number}",
            "commits_url": "https://api.github.com/repos/PrismarineJS/mineflayer/commits{/sha}",
            "compare_url": "https://api.github.com/repos/PrismarineJS/mineflayer/compare/{base}...{head}",
            "contents_url": "https://api.github.com/repos/PrismarineJS/mineflayer/contents/{+path}",
            "contributors_url": "https://api.github.com/repos/PrismarineJS/mineflayer/contributors",
            "created_at": "2011-01-23T09:41:55Z",
            "default_branch": "master",
            "deployments_url": "https://api.github.com/repos/PrismarineJS/mineflayer/deployments",
            "description": "Create Minecraft bots with a powerful, stable, and high level JavaScript API.",
            "disabled": false,
            "downloads_url": "https://api.github.com/repos/PrismarineJS/mineflayer/downloads",
            "events_url": "https://api.github.com/repos/PrismarineJS/mineflayer/events",
            "fork": false,
            "forks": 748,
            "forks_count": 748,
            "forks_url": "https://api.github.com/repos/PrismarineJS/mineflayer/forks",
            "full_name": "PrismarineJS/mineflayer",
            "git_commits_url": "https://api.github.com/repos/PrismarineJS/mineflayer/git/commits{/sha}",
            "git_refs_url": "https://api.github.com/repos/PrismarineJS/mineflayer/git/refs{/sha}",
            "git_tags_url": "https://api.github.com/repos/PrismarineJS/mineflayer/git/tags{/sha}",
            "git_url": "git://github.com/PrismarineJS/mineflayer.git",
            "has_discussions": true,
            "has_downloads": true,
            "has_issues": true,
            "has_pages": true,
            "has_projects": true,
            "has_wiki": true,
            "homepage": "https://prismarinejs.github.io/mineflayer/",
            "hooks_url": "https://api.github.com/repos/PrismarineJS/mineflayer/hooks",
            "html_url": "https://github.com/PrismarineJS/mineflayer",
            "id": 1284185,
            "is_template": false,
            "issue_comment_url": "https://api.github.com/repos/PrismarineJS/mineflayer/issues/comments{/number}",
            "issue_events_url": "https://api.github.com/repos/PrismarineJS/mineflayer/issues/events{/number}",
            "issues_url": "https://api.github.com/repos/PrismarineJS/mineflayer/issues{/number}",
            "keys_url": "https://api.github.com/repos/PrismarineJS/mineflayer/keys{/key_id}",
            "labels_url": "https://api.github.com/repos/PrismarineJS/mineflayer/labels{/name}",
            "language": "JavaScript",
            "languages_url": "https://api.github.com/repos/PrismarineJS/mineflayer/languages",
            "license": {
                "key": "mit",
                "name": "MIT License",
                "node_id": "MDc6TGljZW5zZTEz",
                "spdx_id": "MIT",
                "url": "https://api.github.com/licenses/mit"
            },
            "merges_url": "https://api.github.com/repos/PrismarineJS/mineflayer/merges",
            "milestones_url": "https://api.github.com/repos/PrismarineJS/mineflayer/milestones{/number}",
            "mirror_url": null,
            "name": "mineflayer",
            "node_id": "MDEwOlJlcG9zaXRvcnkxMjg0MTg1",
            "notifications_url": "https://api.github.com/repos/PrismarineJS/mineflayer/notifications{?since,all,participating}",
            "open_issues": 269,
            "open_issues_count": 269,
            "owner": {
                "avatar_url": "https://avatars.githubusercontent.com/u/11053411?v=4",
                "events_url": "https://api.github.com/users/PrismarineJS/events{/privacy}",
                "followers_url": "https://api.github.com/users/PrismarineJS/followers",
                "following_url": "https://api.github.com/users/PrismarineJS/following{/other_user}",
                "gists_url": "https://api.github.com/users/PrismarineJS/gists{/gist_id}",
                "gravatar_id": "",
                "html_url": "https://github.com/PrismarineJS",
                "id": 11053411,
                "login": "PrismarineJS",
                "node_id": "MDEyOk9yZ2FuaXphdGlvbjExMDUzNDEx",
                "organizations_url": "https://api.github.com/users/PrismarineJS/orgs",
                "received_events_url": "https://api.github.com/users/PrismarineJS/received_events",
                "repos_url": "https://api.github.com/users/PrismarineJS/repos",
                "site_admin": false,
                "starred_url": "https://api.github.com/users/PrismarineJS/starred{/owner}{/repo}",
                "subscriptions_url": "https://api.github.com/users/PrismarineJS/subscriptions",
                "type": "Organization",
                "url": "https://api.github.com/users/PrismarineJS"
            },
            "private": false,
            "pulls_url": "https://api.github.com/repos/PrismarineJS/mineflayer/pulls{/number}",
            "pushed_at": "2023-04-25T00:44:52Z",
            "releases_url": "https://api.github.com/repos/PrismarineJS/mineflayer/releases{/id}",
            "size": 12493,
            "ssh_url": "git@github.com:PrismarineJS/mineflayer.git",
            "stargazers_count": 3698,
            "stargazers_url": "https://api.github.com/repos/PrismarineJS/mineflayer/stargazers",
            "statuses_url": "https://api.github.com/repos/PrismarineJS/mineflayer/statuses/{sha}",
            "subscribers_url": "https://api.github.com/repos/PrismarineJS/mineflayer/subscribers",
            "subscription_url": "https://api.github.com/repos/PrismarineJS/mineflayer/subscription",
            "svn_url": "https://github.com/PrismarineJS/mineflayer",
            "tags_url": "https://api.github.com/repos/PrismarineJS/mineflayer/tags",
            "teams_url": "https://api.github.com/repos/PrismarineJS/mineflayer/teams",
            "topics": [
                "bot",
                "minecraft",
                "minecraft-api",
                "minecraft-bot",
                "network",
                "nodejs"
            ],
            "trees_url": "https://api.github.com/repos/PrismarineJS/mineflayer/git/trees{/sha}",
            "updated_at": "2023-04-25T14:07:03Z",
            "url": "https://api.github.com/repos/PrismarineJS/mineflayer",
            "visibility": "public",
            "watchers": 3698,
            "watchers_count": 3698,
            "web_commit_signoff_required": false
        },
        "sha": "e246b8e0a9d82ffff0e6f86388544aefd3cdb792",
        "user": {
            "avatar_url": "https://avatars.githubusercontent.com/u/11053411?v=4",
            "events_url": "https://api.github.com/users/PrismarineJS/events{/privacy}",
            "followers_url": "https://api.github.com/users/PrismarineJS/followers",
            "following_url": "https://api.github.com/users/PrismarineJS/following{/other_user}",
            "gists_url": "https://api.github.com/users/PrismarineJS/gists{/gist_id}",
            "gravatar_id": "",
            "html_url": "https://github.com/PrismarineJS",
            "id": 11053411,
            "login": "PrismarineJS",
            "node_id": "MDEyOk9yZ2FuaXphdGlvbjExMDUzNDEx",
            "organizations_url": "https://api.github.com/users/PrismarineJS/orgs",
            "received_events_url": "https://api.github.com/users/PrismarineJS/received_events",
            "repos_url": "https://api.github.com/users/PrismarineJS/repos",
            "site_admin": false,
            "starred_url": "https://api.github.com/users/PrismarineJS/starred{/owner}{/repo}",
            "subscriptions_url": "https://api.github.com/users/PrismarineJS/subscriptions",
            "type": "Organization",
            "url": "https://api.github.com/users/PrismarineJS"
        }
    },
    "body": "It doesn't quite work yet (possibly because of updateBlock see #209 ), so maybe not merge yet.\n\nNow it works thanks to 372ee64481f88a505537585e180c847d81b7ba17.\n\nReady to merge\n",
    "changed_files": 1,
    "closed_at": "2015-03-16T19:28:45Z",
    "comment_data": [],
    "comment_regular_data": [],
    "comments": 0,
    "comments_url": "https://api.github.com/repos/PrismarineJS/mineflayer/issues/214/comments",
    "commit_data": [
        {
            "author": {
                "avatar_url": "https://avatars.githubusercontent.com/u/2346494?v=4",
                "events_url": "https://api.github.com/users/rom1504/events{/privacy}",
                "followers_url": "https://api.github.com/users/rom1504/followers",
                "following_url": "https://api.github.com/users/rom1504/following{/other_user}",
                "gists_url": "https://api.github.com/users/rom1504/gists{/gist_id}",
                "gravatar_id": "",
                "html_url": "https://github.com/rom1504",
                "id": 2346494,
                "login": "rom1504",
                "node_id": "MDQ6VXNlcjIzNDY0OTQ=",
                "organizations_url": "https://api.github.com/users/rom1504/orgs",
                "received_events_url": "https://api.github.com/users/rom1504/received_events",
                "repos_url": "https://api.github.com/users/rom1504/repos",
                "site_admin": false,
                "starred_url": "https://api.github.com/users/rom1504/starred{/owner}{/repo}",
                "subscriptions_url": "https://api.github.com/users/rom1504/subscriptions",
                "type": "User",
                "url": "https://api.github.com/users/rom1504"
            },
            "comments_url": "https://api.github.com/repos/PrismarineJS/mineflayer/commits/9b7bbecc5a94cd1217ca89b26f4a21e70c59642c/comments",
            "commit": {
                "author": {
                    "date": "2015-03-14T17:56:28Z",
                    "email": "romain.rom1@gmail.com",
                    "name": "Romain Beaumont"
                },
                "comment_count": 0,
                "committer": {
                    "date": "2015-03-14T17:56:28Z",
                    "email": "romain.rom1@gmail.com",
                    "name": "Romain Beaumont"
                },
                "message": "Start fixing block_change : now there's location in the block_change packet and not x,y,z",
                "tree": {
                    "sha": "e4b3bd8a0c5a5ee7db88169e272d517286fcc044",
                    "url": "https://api.github.com/repos/PrismarineJS/mineflayer/git/trees/e4b3bd8a0c5a5ee7db88169e272d517286fcc044"
                },
                "url": "https://api.github.com/repos/PrismarineJS/mineflayer/git/commits/9b7bbecc5a94cd1217ca89b26f4a21e70c59642c",
                "verification": {
                    "payload": null,
                    "reason": "unsigned",
                    "signature": null,
                    "verified": false
                }
            },
            "committer": {
                "avatar_url": "https://avatars.githubusercontent.com/u/2346494?v=4",
                "events_url": "https://api.github.com/users/rom1504/events{/privacy}",
                "followers_url": "https://api.github.com/users/rom1504/followers",
                "following_url": "https://api.github.com/users/rom1504/following{/other_user}",
                "gists_url": "https://api.github.com/users/rom1504/gists{/gist_id}",
                "gravatar_id": "",
                "html_url": "https://github.com/rom1504",
                "id": 2346494,
                "login": "rom1504",
                "node_id": "MDQ6VXNlcjIzNDY0OTQ=",
                "organizations_url": "https://api.github.com/users/rom1504/orgs",
                "received_events_url": "https://api.github.com/users/rom1504/received_events",
                "repos_url": "https://api.github.com/users/rom1504/repos",
                "site_admin": false,
                "starred_url": "https://api.github.com/users/rom1504/starred{/owner}{/repo}",
                "subscriptions_url": "https://api.github.com/users/rom1504/subscriptions",
                "type": "User",
                "url": "https://api.github.com/users/rom1504"
            },
            "html_url": "https://github.com/PrismarineJS/mineflayer/commit/9b7bbecc5a94cd1217ca89b26f4a21e70c59642c",
            "node_id": "MDY6Q29tbWl0MzIyMTEyMjA6OWI3YmJlY2M1YTk0Y2QxMjE3Y2E4OWIyNmY0YTIxZTcwYzU5NjQyYw==",
            "parents": [
                {
                    "html_url": "https://github.com/PrismarineJS/mineflayer/commit/e246b8e0a9d82ffff0e6f86388544aefd3cdb792",
                    "sha": "e246b8e0a9d82ffff0e6f86388544aefd3cdb792",
                    "url": "https://api.github.com/repos/PrismarineJS/mineflayer/commits/e246b8e0a9d82ffff0e6f86388544aefd3cdb792"
                }
            ],
            "sha": "9b7bbecc5a94cd1217ca89b26f4a21e70c59642c",
            "url": "https://api.github.com/repos/PrismarineJS/mineflayer/commits/9b7bbecc5a94cd1217ca89b26f4a21e70c59642c"
        }
    ],
    "commits": 1,
    "commits_url": "https://api.github.com/repos/PrismarineJS/mineflayer/pulls/214/commits",
    "created_at": "2015-03-14T17:58:31Z",
    "deletions": 1,
    "diff_url": "https://github.com/PrismarineJS/mineflayer/pull/214.diff",
    "draft": false,
    "head": {
        "label": "rom1504:fix_falling",
        "ref": "fix_falling",
        "repo": {
            "allow_forking": true,
            "archive_url": "https://api.github.com/repos/rom1504/mineflayer/{archive_format}{/ref}",
            "archived": false,
            "assignees_url": "https://api.github.com/repos/rom1504/mineflayer/assignees{/user}",
            "blobs_url": "https://api.github.com/repos/rom1504/mineflayer/git/blobs{/sha}",
            "branches_url": "https://api.github.com/repos/rom1504/mineflayer/branches{/branch}",
            "clone_url": "https://github.com/rom1504/mineflayer.git",
            "collaborators_url": "https://api.github.com/repos/rom1504/mineflayer/collaborators{/collaborator}",
            "comments_url": "https://api.github.com/repos/rom1504/mineflayer/comments{/number}",
            "commits_url": "https://api.github.com/repos/rom1504/mineflayer/commits{/sha}",
            "compare_url": "https://api.github.com/repos/rom1504/mineflayer/compare/{base}...{head}",
            "contents_url": "https://api.github.com/repos/rom1504/mineflayer/contents/{+path}",
            "contributors_url": "https://api.github.com/repos/rom1504/mineflayer/contributors",
            "created_at": "2015-03-14T12:43:33Z",
            "default_branch": "master",
            "deployments_url": "https://api.github.com/repos/rom1504/mineflayer/deployments",
            "description": "(unmaintained) Create Minecraft bots with a powerful, stable, and high level JavaScript API.",
            "disabled": false,
            "downloads_url": "https://api.github.com/repos/rom1504/mineflayer/downloads",
            "events_url": "https://api.github.com/repos/rom1504/mineflayer/events",
            "fork": true,
            "forks": 0,
            "forks_count": 0,
            "forks_url": "https://api.github.com/repos/rom1504/mineflayer/forks",
            "full_name": "rom1504/mineflayer",
            "git_commits_url": "https://api.github.com/repos/rom1504/mineflayer/git/commits{/sha}",
            "git_refs_url": "https://api.github.com/repos/rom1504/mineflayer/git/refs{/sha}",
            "git_tags_url": "https://api.github.com/repos/rom1504/mineflayer/git/tags{/sha}",
            "git_url": "git://github.com/rom1504/mineflayer.git",
            "has_discussions": false,
            "has_downloads": true,
            "has_issues": false,
            "has_pages": false,
            "has_projects": true,
            "has_wiki": true,
            "homepage": "",
            "hooks_url": "https://api.github.com/repos/rom1504/mineflayer/hooks",
            "html_url": "https://github.com/rom1504/mineflayer",
            "id": 32211220,
            "is_template": false,
            "issue_comment_url": "https://api.github.com/repos/rom1504/mineflayer/issues/comments{/number}",
            "issue_events_url": "https://api.github.com/repos/rom1504/mineflayer/issues/events{/number}",
            "issues_url": "https://api.github.com/repos/rom1504/mineflayer/issues{/number}",
            "keys_url": "https://api.github.com/repos/rom1504/mineflayer/keys{/key_id}",
            "labels_url": "https://api.github.com/repos/rom1504/mineflayer/labels{/name}",
            "language": "JavaScript",
            "languages_url": "https://api.github.com/repos/rom1504/mineflayer/languages",
            "license": null,
            "merges_url": "https://api.github.com/repos/rom1504/mineflayer/merges",
            "milestones_url": "https://api.github.com/repos/rom1504/mineflayer/milestones{/number}",
            "mirror_url": null,
            "name": "mineflayer",
            "node_id": "MDEwOlJlcG9zaXRvcnkzMjIxMTIyMA==",
            "notifications_url": "https://api.github.com/repos/rom1504/mineflayer/notifications{?since,all,participating}",
            "open_issues": 0,
            "open_issues_count": 0,
            "owner": {
                "avatar_url": "https://avatars.githubusercontent.com/u/2346494?v=4",
                "events_url": "https://api.github.com/users/rom1504/events{/privacy}",
                "followers_url": "https://api.github.com/users/rom1504/followers",
                "following_url": "https://api.github.com/users/rom1504/following{/other_user}",
                "gists_url": "https://api.github.com/users/rom1504/gists{/gist_id}",
                "gravatar_id": "",
                "html_url": "https://github.com/rom1504",
                "id": 2346494,
                "login": "rom1504",
                "node_id": "MDQ6VXNlcjIzNDY0OTQ=",
                "organizations_url": "https://api.github.com/users/rom1504/orgs",
                "received_events_url": "https://api.github.com/users/rom1504/received_events",
                "repos_url": "https://api.github.com/users/rom1504/repos",
                "site_admin": false,
                "starred_url": "https://api.github.com/users/rom1504/starred{/owner}{/repo}",
                "subscriptions_url": "https://api.github.com/users/rom1504/subscriptions",
                "type": "User",
                "url": "https://api.github.com/users/rom1504"
            },
            "private": false,
            "pulls_url": "https://api.github.com/repos/rom1504/mineflayer/pulls{/number}",
            "pushed_at": "2015-09-24T13:35:04Z",
            "releases_url": "https://api.github.com/repos/rom1504/mineflayer/releases{/id}",
            "size": 9917,
            "ssh_url": "git@github.com:rom1504/mineflayer.git",
            "stargazers_count": 1,
            "stargazers_url": "https://api.github.com/repos/rom1504/mineflayer/stargazers",
            "statuses_url": "https://api.github.com/repos/rom1504/mineflayer/statuses/{sha}",
            "subscribers_url": "https://api.github.com/repos/rom1504/mineflayer/subscribers",
            "subscription_url": "https://api.github.com/repos/rom1504/mineflayer/subscription",
            "svn_url": "https://github.com/rom1504/mineflayer",
            "tags_url": "https://api.github.com/repos/rom1504/mineflayer/tags",
            "teams_url": "https://api.github.com/repos/rom1504/mineflayer/teams",
            "topics": [],
            "trees_url": "https://api.github.com/repos/rom1504/mineflayer/git/trees{/sha}",
            "updated_at": "2022-05-05T17:39:23Z",
            "url": "https://api.github.com/repos/rom1504/mineflayer",
            "visibility": "public",
            "watchers": 1,
            "watchers_count": 1,
            "web_commit_signoff_required": false
        },
        "sha": "9b7bbecc5a94cd1217ca89b26f4a21e70c59642c",
        "user": {
            "avatar_url": "https://avatars.githubusercontent.com/u/2346494?v=4",
            "events_url": "https://api.github.com/users/rom1504/events{/privacy}",
            "followers_url": "https://api.github.com/users/rom1504/followers",
            "following_url": "https://api.github.com/users/rom1504/following{/other_user}",
            "gists_url": "https://api.github.com/users/rom1504/gists{/gist_id}",
            "gravatar_id": "",
            "html_url": "https://github.com/rom1504",
            "id": 2346494,
            "login": "rom1504",
            "node_id": "MDQ6VXNlcjIzNDY0OTQ=",
            "organizations_url": "https://api.github.com/users/rom1504/orgs",
            "received_events_url": "https://api.github.com/users/rom1504/received_events",
            "repos_url": "https://api.github.com/users/rom1504/repos",
            "site_admin": false,
            "starred_url": "https://api.github.com/users/rom1504/starred{/owner}{/repo}",
            "subscriptions_url": "https://api.github.com/users/rom1504/subscriptions",
            "type": "User",
            "url": "https://api.github.com/users/rom1504"
        }
    },
    "html_url": "https://github.com/PrismarineJS/mineflayer/pull/214",
    "id": 31187305,
    "issue_url": "https://api.github.com/repos/PrismarineJS/mineflayer/issues/214",
    "labels": [],
    "locked": false,
    "maintainer_can_modify": false,
    "merge_commit_sha": "8f95fe86d63be086b01bf2af9e3f7c98057437e7",
    "mergeable": null,
    "mergeable_state": "unknown",
    "merged": true,
    "merged_at": "2015-03-16T19:28:45Z",
    "merged_by": {
        "avatar_url": "https://avatars.githubusercontent.com/u/1069318?v=4",
        "events_url": "https://api.github.com/users/roblabla/events{/privacy}",
        "followers_url": "https://api.github.com/users/roblabla/followers",
        "following_url": "https://api.github.com/users/roblabla/following{/other_user}",
        "gists_url": "https://api.github.com/users/roblabla/gists{/gist_id}",
        "gravatar_id": "",
        "html_url": "https://github.com/roblabla",
        "id": 1069318,
        "login": "roblabla",
        "node_id": "MDQ6VXNlcjEwNjkzMTg=",
        "organizations_url": "https://api.github.com/users/roblabla/orgs",
        "received_events_url": "https://api.github.com/users/roblabla/received_events",
        "repos_url": "https://api.github.com/users/roblabla/repos",
        "site_admin": false,
        "starred_url": "https://api.github.com/users/roblabla/starred{/owner}{/repo}",
        "subscriptions_url": "https://api.github.com/users/roblabla/subscriptions",
        "type": "User",
        "url": "https://api.github.com/users/roblabla"
    },
    "milestone": null,
    "node_id": "MDExOlB1bGxSZXF1ZXN0MzExODczMDU=",
    "number": 214,
    "patch_url": "https://github.com/PrismarineJS/mineflayer/pull/214.patch",
    "rebaseable": null,
    "requested_reviewers": [],
    "requested_teams": [],
    "review_comment_url": "https://api.github.com/repos/PrismarineJS/mineflayer/pulls/comments{/number}",
    "review_comments": 0,
    "review_comments_url": "https://api.github.com/repos/PrismarineJS/mineflayer/pulls/214/comments",
    "state": "closed",
    "statuses_url": "https://api.github.com/repos/PrismarineJS/mineflayer/statuses/9b7bbecc5a94cd1217ca89b26f4a21e70c59642c",
    "title": "Fix block_change : fix falling",
    "updated_at": "2015-09-24T13:34:51Z",
    "url": "https://api.github.com/repos/PrismarineJS/mineflayer/pulls/214",
    "user": {
        "avatar_url": "https://avatars.githubusercontent.com/u/2346494?v=4",
        "events_url": "https://api.github.com/users/rom1504/events{/privacy}",
        "followers_url": "https://api.github.com/users/rom1504/followers",
        "following_url": "https://api.github.com/users/rom1504/following{/other_user}",
        "gists_url": "https://api.github.com/users/rom1504/gists{/gist_id}",
        "gravatar_id": "",
        "html_url": "https://github.com/rom1504",
        "id": 2346494,
        "login": "rom1504",
        "node_id": "MDQ6VXNlcjIzNDY0OTQ=",
        "organizations_url": "https://api.github.com/users/rom1504/orgs",
        "received_events_url": "https://api.github.com/users/rom1504/received_events",
        "repos_url": "https://api.github.com/users/rom1504/repos",
        "site_admin": false,
        "starred_url": "https://api.github.com/users/rom1504/starred{/owner}{/repo}",
        "subscriptions_url": "https://api.github.com/users/rom1504/subscriptions",
        "type": "User",
        "url": "https://api.github.com/users/rom1504"
    }
}