{
    "_links": {
        "comments": {
            "href": "https://api.github.com/repos/PrismarineJS/mineflayer/issues/2448/comments"
        },
        "commits": {
            "href": "https://api.github.com/repos/PrismarineJS/mineflayer/pulls/2448/commits"
        },
        "html": {
            "href": "https://github.com/PrismarineJS/mineflayer/pull/2448"
        },
        "issue": {
            "href": "https://api.github.com/repos/PrismarineJS/mineflayer/issues/2448"
        },
        "review_comment": {
            "href": "https://api.github.com/repos/PrismarineJS/mineflayer/pulls/comments{/number}"
        },
        "review_comments": {
            "href": "https://api.github.com/repos/PrismarineJS/mineflayer/pulls/2448/comments"
        },
        "self": {
            "href": "https://api.github.com/repos/PrismarineJS/mineflayer/pulls/2448"
        },
        "statuses": {
            "href": "https://api.github.com/repos/PrismarineJS/mineflayer/statuses/4ac87ddd7c2cfc0224a138f3ff3b177b08ce602e"
        }
    },
    "active_lock_reason": null,
    "additions": 65,
    "assignee": null,
    "assignees": [],
    "author_association": "MEMBER",
    "auto_merge": null,
    "base": {
        "label": "PrismarineJS:master",
        "ref": "master",
        "repo": {
            "allow_forking": true,
            "archive_url": "https://api.github.com/repos/PrismarineJS/mineflayer/{archive_format}{/ref}",
            "archived": false,
            "assignees_url": "https://api.github.com/repos/PrismarineJS/mineflayer/assignees{/user}",
            "blobs_url": "https://api.github.com/repos/PrismarineJS/mineflayer/git/blobs{/sha}",
            "branches_url": "https://api.github.com/repos/PrismarineJS/mineflayer/branches{/branch}",
            "clone_url": "https://github.com/PrismarineJS/mineflayer.git",
            "collaborators_url": "https://api.github.com/repos/PrismarineJS/mineflayer/collaborators{/collaborator}",
            "comments_url": "https://api.github.com/repos/PrismarineJS/mineflayer/comments{/number}",
            "commits_url": "https://api.github.com/repos/PrismarineJS/mineflayer/commits{/sha}",
            "compare_url": "https://api.github.com/repos/PrismarineJS/mineflayer/compare/{base}...{head}",
            "contents_url": "https://api.github.com/repos/PrismarineJS/mineflayer/contents/{+path}",
            "contributors_url": "https://api.github.com/repos/PrismarineJS/mineflayer/contributors",
            "created_at": "2011-01-23T09:41:55Z",
            "default_branch": "master",
            "deployments_url": "https://api.github.com/repos/PrismarineJS/mineflayer/deployments",
            "description": "Create Minecraft bots with a powerful, stable, and high level JavaScript API.",
            "disabled": false,
            "downloads_url": "https://api.github.com/repos/PrismarineJS/mineflayer/downloads",
            "events_url": "https://api.github.com/repos/PrismarineJS/mineflayer/events",
            "fork": false,
            "forks": 748,
            "forks_count": 748,
            "forks_url": "https://api.github.com/repos/PrismarineJS/mineflayer/forks",
            "full_name": "PrismarineJS/mineflayer",
            "git_commits_url": "https://api.github.com/repos/PrismarineJS/mineflayer/git/commits{/sha}",
            "git_refs_url": "https://api.github.com/repos/PrismarineJS/mineflayer/git/refs{/sha}",
            "git_tags_url": "https://api.github.com/repos/PrismarineJS/mineflayer/git/tags{/sha}",
            "git_url": "git://github.com/PrismarineJS/mineflayer.git",
            "has_discussions": true,
            "has_downloads": true,
            "has_issues": true,
            "has_pages": true,
            "has_projects": true,
            "has_wiki": true,
            "homepage": "https://prismarinejs.github.io/mineflayer/",
            "hooks_url": "https://api.github.com/repos/PrismarineJS/mineflayer/hooks",
            "html_url": "https://github.com/PrismarineJS/mineflayer",
            "id": 1284185,
            "is_template": false,
            "issue_comment_url": "https://api.github.com/repos/PrismarineJS/mineflayer/issues/comments{/number}",
            "issue_events_url": "https://api.github.com/repos/PrismarineJS/mineflayer/issues/events{/number}",
            "issues_url": "https://api.github.com/repos/PrismarineJS/mineflayer/issues{/number}",
            "keys_url": "https://api.github.com/repos/PrismarineJS/mineflayer/keys{/key_id}",
            "labels_url": "https://api.github.com/repos/PrismarineJS/mineflayer/labels{/name}",
            "language": "JavaScript",
            "languages_url": "https://api.github.com/repos/PrismarineJS/mineflayer/languages",
            "license": {
                "key": "mit",
                "name": "MIT License",
                "node_id": "MDc6TGljZW5zZTEz",
                "spdx_id": "MIT",
                "url": "https://api.github.com/licenses/mit"
            },
            "merges_url": "https://api.github.com/repos/PrismarineJS/mineflayer/merges",
            "milestones_url": "https://api.github.com/repos/PrismarineJS/mineflayer/milestones{/number}",
            "mirror_url": null,
            "name": "mineflayer",
            "node_id": "MDEwOlJlcG9zaXRvcnkxMjg0MTg1",
            "notifications_url": "https://api.github.com/repos/PrismarineJS/mineflayer/notifications{?since,all,participating}",
            "open_issues": 269,
            "open_issues_count": 269,
            "owner": {
                "avatar_url": "https://avatars.githubusercontent.com/u/11053411?v=4",
                "events_url": "https://api.github.com/users/PrismarineJS/events{/privacy}",
                "followers_url": "https://api.github.com/users/PrismarineJS/followers",
                "following_url": "https://api.github.com/users/PrismarineJS/following{/other_user}",
                "gists_url": "https://api.github.com/users/PrismarineJS/gists{/gist_id}",
                "gravatar_id": "",
                "html_url": "https://github.com/PrismarineJS",
                "id": 11053411,
                "login": "PrismarineJS",
                "node_id": "MDEyOk9yZ2FuaXphdGlvbjExMDUzNDEx",
                "organizations_url": "https://api.github.com/users/PrismarineJS/orgs",
                "received_events_url": "https://api.github.com/users/PrismarineJS/received_events",
                "repos_url": "https://api.github.com/users/PrismarineJS/repos",
                "site_admin": false,
                "starred_url": "https://api.github.com/users/PrismarineJS/starred{/owner}{/repo}",
                "subscriptions_url": "https://api.github.com/users/PrismarineJS/subscriptions",
                "type": "Organization",
                "url": "https://api.github.com/users/PrismarineJS"
            },
            "private": false,
            "pulls_url": "https://api.github.com/repos/PrismarineJS/mineflayer/pulls{/number}",
            "pushed_at": "2023-04-25T00:44:52Z",
            "releases_url": "https://api.github.com/repos/PrismarineJS/mineflayer/releases{/id}",
            "size": 12493,
            "ssh_url": "git@github.com:PrismarineJS/mineflayer.git",
            "stargazers_count": 3698,
            "stargazers_url": "https://api.github.com/repos/PrismarineJS/mineflayer/stargazers",
            "statuses_url": "https://api.github.com/repos/PrismarineJS/mineflayer/statuses/{sha}",
            "subscribers_url": "https://api.github.com/repos/PrismarineJS/mineflayer/subscribers",
            "subscription_url": "https://api.github.com/repos/PrismarineJS/mineflayer/subscription",
            "svn_url": "https://github.com/PrismarineJS/mineflayer",
            "tags_url": "https://api.github.com/repos/PrismarineJS/mineflayer/tags",
            "teams_url": "https://api.github.com/repos/PrismarineJS/mineflayer/teams",
            "topics": [
                "bot",
                "minecraft",
                "minecraft-api",
                "minecraft-bot",
                "network",
                "nodejs"
            ],
            "trees_url": "https://api.github.com/repos/PrismarineJS/mineflayer/git/trees{/sha}",
            "updated_at": "2023-04-25T14:07:03Z",
            "url": "https://api.github.com/repos/PrismarineJS/mineflayer",
            "visibility": "public",
            "watchers": 3698,
            "watchers_count": 3698,
            "web_commit_signoff_required": false
        },
        "sha": "1f04becb94c0e3ac572a475a52623f3df7430e07",
        "user": {
            "avatar_url": "https://avatars.githubusercontent.com/u/11053411?v=4",
            "events_url": "https://api.github.com/users/PrismarineJS/events{/privacy}",
            "followers_url": "https://api.github.com/users/PrismarineJS/followers",
            "following_url": "https://api.github.com/users/PrismarineJS/following{/other_user}",
            "gists_url": "https://api.github.com/users/PrismarineJS/gists{/gist_id}",
            "gravatar_id": "",
            "html_url": "https://github.com/PrismarineJS",
            "id": 11053411,
            "login": "PrismarineJS",
            "node_id": "MDEyOk9yZ2FuaXphdGlvbjExMDUzNDEx",
            "organizations_url": "https://api.github.com/users/PrismarineJS/orgs",
            "received_events_url": "https://api.github.com/users/PrismarineJS/received_events",
            "repos_url": "https://api.github.com/users/PrismarineJS/repos",
            "site_admin": false,
            "starred_url": "https://api.github.com/users/PrismarineJS/starred{/owner}{/repo}",
            "subscriptions_url": "https://api.github.com/users/PrismarineJS/subscriptions",
            "type": "Organization",
            "url": "https://api.github.com/users/PrismarineJS"
        }
    },
    "body": null,
    "changed_files": 19,
    "closed_at": "2022-02-10T19:40:30Z",
    "comment_data": [],
    "comment_regular_data": [
        {
            "author_association": "MEMBER",
            "body": "remaining:\r\n* [x] API.md\r\n* [x] remove callback use in some examples (they can be found by grepping `(err` )",
            "created_at": "2022-02-04T00:25:22Z",
            "html_url": "https://github.com/PrismarineJS/mineflayer/pull/2448#issuecomment-1029526080",
            "id": 1029526080,
            "issue_url": "https://api.github.com/repos/PrismarineJS/mineflayer/issues/2448",
            "node_id": "IC_kwDOABOYWc49XVJA",
            "performed_via_github_app": null,
            "reactions": {
                "+1": 0,
                "-1": 0,
                "confused": 0,
                "eyes": 0,
                "heart": 0,
                "hooray": 0,
                "laugh": 0,
                "rocket": 0,
                "total_count": 0,
                "url": "https://api.github.com/repos/PrismarineJS/mineflayer/issues/comments/1029526080/reactions"
            },
            "updated_at": "2022-02-06T17:09:36Z",
            "url": "https://api.github.com/repos/PrismarineJS/mineflayer/issues/comments/1029526080",
            "user": {
                "avatar_url": "https://avatars.githubusercontent.com/u/2346494?v=4",
                "events_url": "https://api.github.com/users/rom1504/events{/privacy}",
                "followers_url": "https://api.github.com/users/rom1504/followers",
                "following_url": "https://api.github.com/users/rom1504/following{/other_user}",
                "gists_url": "https://api.github.com/users/rom1504/gists{/gist_id}",
                "gravatar_id": "",
                "html_url": "https://github.com/rom1504",
                "id": 2346494,
                "login": "rom1504",
                "node_id": "MDQ6VXNlcjIzNDY0OTQ=",
                "organizations_url": "https://api.github.com/users/rom1504/orgs",
                "received_events_url": "https://api.github.com/users/rom1504/received_events",
                "repos_url": "https://api.github.com/users/rom1504/repos",
                "site_admin": false,
                "starred_url": "https://api.github.com/users/rom1504/starred{/owner}{/repo}",
                "subscriptions_url": "https://api.github.com/users/rom1504/subscriptions",
                "type": "User",
                "url": "https://api.github.com/users/rom1504"
            }
        },
        {
            "author_association": "MEMBER",
            "body": "I intend to go that route:\r\n1. remove all usage of callbacks in example (almost done)\r\n2. add depreciation notice for callback (done)\r\n3. wait a week for people to complain\r\n4. merge this PR and release mineflayer 4.0.0",
            "created_at": "2022-02-05T23:31:13Z",
            "html_url": "https://github.com/PrismarineJS/mineflayer/pull/2448#issuecomment-1030714029",
            "id": 1030714029,
            "issue_url": "https://api.github.com/repos/PrismarineJS/mineflayer/issues/2448",
            "node_id": "IC_kwDOABOYWc49b3Kt",
            "performed_via_github_app": null,
            "reactions": {
                "+1": 0,
                "-1": 0,
                "confused": 0,
                "eyes": 0,
                "heart": 0,
                "hooray": 0,
                "laugh": 0,
                "rocket": 0,
                "total_count": 0,
                "url": "https://api.github.com/repos/PrismarineJS/mineflayer/issues/comments/1030714029/reactions"
            },
            "updated_at": "2022-02-06T17:12:20Z",
            "url": "https://api.github.com/repos/PrismarineJS/mineflayer/issues/comments/1030714029",
            "user": {
                "avatar_url": "https://avatars.githubusercontent.com/u/2346494?v=4",
                "events_url": "https://api.github.com/users/rom1504/events{/privacy}",
                "followers_url": "https://api.github.com/users/rom1504/followers",
                "following_url": "https://api.github.com/users/rom1504/following{/other_user}",
                "gists_url": "https://api.github.com/users/rom1504/gists{/gist_id}",
                "gravatar_id": "",
                "html_url": "https://github.com/rom1504",
                "id": 2346494,
                "login": "rom1504",
                "node_id": "MDQ6VXNlcjIzNDY0OTQ=",
                "organizations_url": "https://api.github.com/users/rom1504/orgs",
                "received_events_url": "https://api.github.com/users/rom1504/received_events",
                "repos_url": "https://api.github.com/users/rom1504/repos",
                "site_admin": false,
                "starred_url": "https://api.github.com/users/rom1504/starred{/owner}{/repo}",
                "subscriptions_url": "https://api.github.com/users/rom1504/subscriptions",
                "type": "User",
                "url": "https://api.github.com/users/rom1504"
            }
        },
        {
            "author_association": "MEMBER",
            "body": "this PR now contains only the removal of callbackify\r\nwe are now at stage 3: waiting a week for people to complain about the warning message\r\nnext week I will merge this PR and release mineflayer 4.0.0",
            "created_at": "2022-02-06T17:13:14Z",
            "html_url": "https://github.com/PrismarineJS/mineflayer/pull/2448#issuecomment-1030874556",
            "id": 1030874556,
            "issue_url": "https://api.github.com/repos/PrismarineJS/mineflayer/issues/2448",
            "node_id": "IC_kwDOABOYWc49ceW8",
            "performed_via_github_app": null,
            "reactions": {
                "+1": 0,
                "-1": 0,
                "confused": 0,
                "eyes": 0,
                "heart": 0,
                "hooray": 0,
                "laugh": 0,
                "rocket": 0,
                "total_count": 0,
                "url": "https://api.github.com/repos/PrismarineJS/mineflayer/issues/comments/1030874556/reactions"
            },
            "updated_at": "2022-02-06T17:13:14Z",
            "url": "https://api.github.com/repos/PrismarineJS/mineflayer/issues/comments/1030874556",
            "user": {
                "avatar_url": "https://avatars.githubusercontent.com/u/2346494?v=4",
                "events_url": "https://api.github.com/users/rom1504/events{/privacy}",
                "followers_url": "https://api.github.com/users/rom1504/followers",
                "following_url": "https://api.github.com/users/rom1504/following{/other_user}",
                "gists_url": "https://api.github.com/users/rom1504/gists{/gist_id}",
                "gravatar_id": "",
                "html_url": "https://github.com/rom1504",
                "id": 2346494,
                "login": "rom1504",
                "node_id": "MDQ6VXNlcjIzNDY0OTQ=",
                "organizations_url": "https://api.github.com/users/rom1504/orgs",
                "received_events_url": "https://api.github.com/users/rom1504/received_events",
                "repos_url": "https://api.github.com/users/rom1504/repos",
                "site_admin": false,
                "starred_url": "https://api.github.com/users/rom1504/starred{/owner}{/repo}",
                "subscriptions_url": "https://api.github.com/users/rom1504/subscriptions",
                "type": "User",
                "url": "https://api.github.com/users/rom1504"
            }
        },
        {
            "author_association": "MEMBER",
            "body": "Discussed this on discord\r\n\r\nNobody is opposed\r\n\r\nMerging now.",
            "created_at": "2022-02-10T19:39:46Z",
            "html_url": "https://github.com/PrismarineJS/mineflayer/pull/2448#issuecomment-1035405677",
            "id": 1035405677,
            "issue_url": "https://api.github.com/repos/PrismarineJS/mineflayer/issues/2448",
            "node_id": "IC_kwDOABOYWc49twlt",
            "performed_via_github_app": null,
            "reactions": {
                "+1": 0,
                "-1": 0,
                "confused": 0,
                "eyes": 0,
                "heart": 0,
                "hooray": 0,
                "laugh": 0,
                "rocket": 0,
                "total_count": 0,
                "url": "https://api.github.com/repos/PrismarineJS/mineflayer/issues/comments/1035405677/reactions"
            },
            "updated_at": "2022-02-10T19:39:46Z",
            "url": "https://api.github.com/repos/PrismarineJS/mineflayer/issues/comments/1035405677",
            "user": {
                "avatar_url": "https://avatars.githubusercontent.com/u/2346494?v=4",
                "events_url": "https://api.github.com/users/rom1504/events{/privacy}",
                "followers_url": "https://api.github.com/users/rom1504/followers",
                "following_url": "https://api.github.com/users/rom1504/following{/other_user}",
                "gists_url": "https://api.github.com/users/rom1504/gists{/gist_id}",
                "gravatar_id": "",
                "html_url": "https://github.com/rom1504",
                "id": 2346494,
                "login": "rom1504",
                "node_id": "MDQ6VXNlcjIzNDY0OTQ=",
                "organizations_url": "https://api.github.com/users/rom1504/orgs",
                "received_events_url": "https://api.github.com/users/rom1504/received_events",
                "repos_url": "https://api.github.com/users/rom1504/repos",
                "site_admin": false,
                "starred_url": "https://api.github.com/users/rom1504/starred{/owner}{/repo}",
                "subscriptions_url": "https://api.github.com/users/rom1504/subscriptions",
                "type": "User",
                "url": "https://api.github.com/users/rom1504"
            }
        }
    ],
    "comments": 4,
    "comments_url": "https://api.github.com/repos/PrismarineJS/mineflayer/issues/2448/comments",
    "commit_data": [
        {
            "author": {
                "avatar_url": "https://avatars.githubusercontent.com/u/2346494?v=4",
                "events_url": "https://api.github.com/users/rom1504/events{/privacy}",
                "followers_url": "https://api.github.com/users/rom1504/followers",
                "following_url": "https://api.github.com/users/rom1504/following{/other_user}",
                "gists_url": "https://api.github.com/users/rom1504/gists{/gist_id}",
                "gravatar_id": "",
                "html_url": "https://github.com/rom1504",
                "id": 2346494,
                "login": "rom1504",
                "node_id": "MDQ6VXNlcjIzNDY0OTQ=",
                "organizations_url": "https://api.github.com/users/rom1504/orgs",
                "received_events_url": "https://api.github.com/users/rom1504/received_events",
                "repos_url": "https://api.github.com/users/rom1504/repos",
                "site_admin": false,
                "starred_url": "https://api.github.com/users/rom1504/starred{/owner}{/repo}",
                "subscriptions_url": "https://api.github.com/users/rom1504/subscriptions",
                "type": "User",
                "url": "https://api.github.com/users/rom1504"
            },
            "comments_url": "https://api.github.com/repos/PrismarineJS/mineflayer/commits/4ac87ddd7c2cfc0224a138f3ff3b177b08ce602e/comments",
            "commit": {
                "author": {
                    "date": "2022-02-03T23:44:13Z",
                    "email": "romain.rom1@gmail.com",
                    "name": "Romain Beaumont"
                },
                "comment_count": 0,
                "committer": {
                    "date": "2022-02-06T17:08:42Z",
                    "email": "romain.rom1@gmail.com",
                    "name": "Romain Beaumont"
                },
                "message": "it's the end of callbacks\n\nfinally",
                "tree": {
                    "sha": "c5548efb45d0181fd16650228c63c36a23b5a095",
                    "url": "https://api.github.com/repos/PrismarineJS/mineflayer/git/trees/c5548efb45d0181fd16650228c63c36a23b5a095"
                },
                "url": "https://api.github.com/repos/PrismarineJS/mineflayer/git/commits/4ac87ddd7c2cfc0224a138f3ff3b177b08ce602e",
                "verification": {
                    "payload": null,
                    "reason": "unsigned",
                    "signature": null,
                    "verified": false
                }
            },
            "committer": {
                "avatar_url": "https://avatars.githubusercontent.com/u/2346494?v=4",
                "events_url": "https://api.github.com/users/rom1504/events{/privacy}",
                "followers_url": "https://api.github.com/users/rom1504/followers",
                "following_url": "https://api.github.com/users/rom1504/following{/other_user}",
                "gists_url": "https://api.github.com/users/rom1504/gists{/gist_id}",
                "gravatar_id": "",
                "html_url": "https://github.com/rom1504",
                "id": 2346494,
                "login": "rom1504",
                "node_id": "MDQ6VXNlcjIzNDY0OTQ=",
                "organizations_url": "https://api.github.com/users/rom1504/orgs",
                "received_events_url": "https://api.github.com/users/rom1504/received_events",
                "repos_url": "https://api.github.com/users/rom1504/repos",
                "site_admin": false,
                "starred_url": "https://api.github.com/users/rom1504/starred{/owner}{/repo}",
                "subscriptions_url": "https://api.github.com/users/rom1504/subscriptions",
                "type": "User",
                "url": "https://api.github.com/users/rom1504"
            },
            "html_url": "https://github.com/PrismarineJS/mineflayer/commit/4ac87ddd7c2cfc0224a138f3ff3b177b08ce602e",
            "node_id": "C_kwDOABOYWdoAKDRhYzg3ZGRkN2MyY2ZjMDIyNGExMzhmM2ZmM2IxNzdiMDhjZTYwMmU",
            "parents": [
                {
                    "html_url": "https://github.com/PrismarineJS/mineflayer/commit/1f04becb94c0e3ac572a475a52623f3df7430e07",
                    "sha": "1f04becb94c0e3ac572a475a52623f3df7430e07",
                    "url": "https://api.github.com/repos/PrismarineJS/mineflayer/commits/1f04becb94c0e3ac572a475a52623f3df7430e07"
                }
            ],
            "sha": "4ac87ddd7c2cfc0224a138f3ff3b177b08ce602e",
            "url": "https://api.github.com/repos/PrismarineJS/mineflayer/commits/4ac87ddd7c2cfc0224a138f3ff3b177b08ce602e"
        }
    ],
    "commits": 1,
    "commits_url": "https://api.github.com/repos/PrismarineJS/mineflayer/pulls/2448/commits",
    "created_at": "2022-02-03T23:44:30Z",
    "deletions": 139,
    "diff_url": "https://github.com/PrismarineJS/mineflayer/pull/2448.diff",
    "draft": false,
    "head": {
        "label": "PrismarineJS:remove_callbacks",
        "ref": "remove_callbacks",
        "repo": {
            "allow_forking": true,
            "archive_url": "https://api.github.com/repos/PrismarineJS/mineflayer/{archive_format}{/ref}",
            "archived": false,
            "assignees_url": "https://api.github.com/repos/PrismarineJS/mineflayer/assignees{/user}",
            "blobs_url": "https://api.github.com/repos/PrismarineJS/mineflayer/git/blobs{/sha}",
            "branches_url": "https://api.github.com/repos/PrismarineJS/mineflayer/branches{/branch}",
            "clone_url": "https://github.com/PrismarineJS/mineflayer.git",
            "collaborators_url": "https://api.github.com/repos/PrismarineJS/mineflayer/collaborators{/collaborator}",
            "comments_url": "https://api.github.com/repos/PrismarineJS/mineflayer/comments{/number}",
            "commits_url": "https://api.github.com/repos/PrismarineJS/mineflayer/commits{/sha}",
            "compare_url": "https://api.github.com/repos/PrismarineJS/mineflayer/compare/{base}...{head}",
            "contents_url": "https://api.github.com/repos/PrismarineJS/mineflayer/contents/{+path}",
            "contributors_url": "https://api.github.com/repos/PrismarineJS/mineflayer/contributors",
            "created_at": "2011-01-23T09:41:55Z",
            "default_branch": "master",
            "deployments_url": "https://api.github.com/repos/PrismarineJS/mineflayer/deployments",
            "description": "Create Minecraft bots with a powerful, stable, and high level JavaScript API.",
            "disabled": false,
            "downloads_url": "https://api.github.com/repos/PrismarineJS/mineflayer/downloads",
            "events_url": "https://api.github.com/repos/PrismarineJS/mineflayer/events",
            "fork": false,
            "forks": 748,
            "forks_count": 748,
            "forks_url": "https://api.github.com/repos/PrismarineJS/mineflayer/forks",
            "full_name": "PrismarineJS/mineflayer",
            "git_commits_url": "https://api.github.com/repos/PrismarineJS/mineflayer/git/commits{/sha}",
            "git_refs_url": "https://api.github.com/repos/PrismarineJS/mineflayer/git/refs{/sha}",
            "git_tags_url": "https://api.github.com/repos/PrismarineJS/mineflayer/git/tags{/sha}",
            "git_url": "git://github.com/PrismarineJS/mineflayer.git",
            "has_discussions": true,
            "has_downloads": true,
            "has_issues": true,
            "has_pages": true,
            "has_projects": true,
            "has_wiki": true,
            "homepage": "https://prismarinejs.github.io/mineflayer/",
            "hooks_url": "https://api.github.com/repos/PrismarineJS/mineflayer/hooks",
            "html_url": "https://github.com/PrismarineJS/mineflayer",
            "id": 1284185,
            "is_template": false,
            "issue_comment_url": "https://api.github.com/repos/PrismarineJS/mineflayer/issues/comments{/number}",
            "issue_events_url": "https://api.github.com/repos/PrismarineJS/mineflayer/issues/events{/number}",
            "issues_url": "https://api.github.com/repos/PrismarineJS/mineflayer/issues{/number}",
            "keys_url": "https://api.github.com/repos/PrismarineJS/mineflayer/keys{/key_id}",
            "labels_url": "https://api.github.com/repos/PrismarineJS/mineflayer/labels{/name}",
            "language": "JavaScript",
            "languages_url": "https://api.github.com/repos/PrismarineJS/mineflayer/languages",
            "license": {
                "key": "mit",
                "name": "MIT License",
                "node_id": "MDc6TGljZW5zZTEz",
                "spdx_id": "MIT",
                "url": "https://api.github.com/licenses/mit"
            },
            "merges_url": "https://api.github.com/repos/PrismarineJS/mineflayer/merges",
            "milestones_url": "https://api.github.com/repos/PrismarineJS/mineflayer/milestones{/number}",
            "mirror_url": null,
            "name": "mineflayer",
            "node_id": "MDEwOlJlcG9zaXRvcnkxMjg0MTg1",
            "notifications_url": "https://api.github.com/repos/PrismarineJS/mineflayer/notifications{?since,all,participating}",
            "open_issues": 269,
            "open_issues_count": 269,
            "owner": {
                "avatar_url": "https://avatars.githubusercontent.com/u/11053411?v=4",
                "events_url": "https://api.github.com/users/PrismarineJS/events{/privacy}",
                "followers_url": "https://api.github.com/users/PrismarineJS/followers",
                "following_url": "https://api.github.com/users/PrismarineJS/following{/other_user}",
                "gists_url": "https://api.github.com/users/PrismarineJS/gists{/gist_id}",
                "gravatar_id": "",
                "html_url": "https://github.com/PrismarineJS",
                "id": 11053411,
                "login": "PrismarineJS",
                "node_id": "MDEyOk9yZ2FuaXphdGlvbjExMDUzNDEx",
                "organizations_url": "https://api.github.com/users/PrismarineJS/orgs",
                "received_events_url": "https://api.github.com/users/PrismarineJS/received_events",
                "repos_url": "https://api.github.com/users/PrismarineJS/repos",
                "site_admin": false,
                "starred_url": "https://api.github.com/users/PrismarineJS/starred{/owner}{/repo}",
                "subscriptions_url": "https://api.github.com/users/PrismarineJS/subscriptions",
                "type": "Organization",
                "url": "https://api.github.com/users/PrismarineJS"
            },
            "private": false,
            "pulls_url": "https://api.github.com/repos/PrismarineJS/mineflayer/pulls{/number}",
            "pushed_at": "2023-04-25T00:44:52Z",
            "releases_url": "https://api.github.com/repos/PrismarineJS/mineflayer/releases{/id}",
            "size": 12493,
            "ssh_url": "git@github.com:PrismarineJS/mineflayer.git",
            "stargazers_count": 3698,
            "stargazers_url": "https://api.github.com/repos/PrismarineJS/mineflayer/stargazers",
            "statuses_url": "https://api.github.com/repos/PrismarineJS/mineflayer/statuses/{sha}",
            "subscribers_url": "https://api.github.com/repos/PrismarineJS/mineflayer/subscribers",
            "subscription_url": "https://api.github.com/repos/PrismarineJS/mineflayer/subscription",
            "svn_url": "https://github.com/PrismarineJS/mineflayer",
            "tags_url": "https://api.github.com/repos/PrismarineJS/mineflayer/tags",
            "teams_url": "https://api.github.com/repos/PrismarineJS/mineflayer/teams",
            "topics": [
                "bot",
                "minecraft",
                "minecraft-api",
                "minecraft-bot",
                "network",
                "nodejs"
            ],
            "trees_url": "https://api.github.com/repos/PrismarineJS/mineflayer/git/trees{/sha}",
            "updated_at": "2023-04-25T14:07:03Z",
            "url": "https://api.github.com/repos/PrismarineJS/mineflayer",
            "visibility": "public",
            "watchers": 3698,
            "watchers_count": 3698,
            "web_commit_signoff_required": false
        },
        "sha": "4ac87ddd7c2cfc0224a138f3ff3b177b08ce602e",
        "user": {
            "avatar_url": "https://avatars.githubusercontent.com/u/11053411?v=4",
            "events_url": "https://api.github.com/users/PrismarineJS/events{/privacy}",
            "followers_url": "https://api.github.com/users/PrismarineJS/followers",
            "following_url": "https://api.github.com/users/PrismarineJS/following{/other_user}",
            "gists_url": "https://api.github.com/users/PrismarineJS/gists{/gist_id}",
            "gravatar_id": "",
            "html_url": "https://github.com/PrismarineJS",
            "id": 11053411,
            "login": "PrismarineJS",
            "node_id": "MDEyOk9yZ2FuaXphdGlvbjExMDUzNDEx",
            "organizations_url": "https://api.github.com/users/PrismarineJS/orgs",
            "received_events_url": "https://api.github.com/users/PrismarineJS/received_events",
            "repos_url": "https://api.github.com/users/PrismarineJS/repos",
            "site_admin": false,
            "starred_url": "https://api.github.com/users/PrismarineJS/starred{/owner}{/repo}",
            "subscriptions_url": "https://api.github.com/users/PrismarineJS/subscriptions",
            "type": "Organization",
            "url": "https://api.github.com/users/PrismarineJS"
        }
    },
    "html_url": "https://github.com/PrismarineJS/mineflayer/pull/2448",
    "id": 839801273,
    "issue_url": "https://api.github.com/repos/PrismarineJS/mineflayer/issues/2448",
    "labels": [
        {
            "color": "663399",
            "default": false,
            "description": null,
            "id": 241251380,
            "name": "waiting info from op",
            "node_id": "MDU6TGFiZWwyNDEyNTEzODA=",
            "url": "https://api.github.com/repos/PrismarineJS/mineflayer/labels/waiting%20info%20from%20op"
        }
    ],
    "locked": false,
    "maintainer_can_modify": false,
    "merge_commit_sha": "4fe54ad05a8c68892534f8f7c78e77cbff8a67b5",
    "mergeable": null,
    "mergeable_state": "unknown",
    "merged": true,
    "merged_at": "2022-02-10T19:40:30Z",
    "merged_by": {
        "avatar_url": "https://avatars.githubusercontent.com/u/2346494?v=4",
        "events_url": "https://api.github.com/users/rom1504/events{/privacy}",
        "followers_url": "https://api.github.com/users/rom1504/followers",
        "following_url": "https://api.github.com/users/rom1504/following{/other_user}",
        "gists_url": "https://api.github.com/users/rom1504/gists{/gist_id}",
        "gravatar_id": "",
        "html_url": "https://github.com/rom1504",
        "id": 2346494,
        "login": "rom1504",
        "node_id": "MDQ6VXNlcjIzNDY0OTQ=",
        "organizations_url": "https://api.github.com/users/rom1504/orgs",
        "received_events_url": "https://api.github.com/users/rom1504/received_events",
        "repos_url": "https://api.github.com/users/rom1504/repos",
        "site_admin": false,
        "starred_url": "https://api.github.com/users/rom1504/starred{/owner}{/repo}",
        "subscriptions_url": "https://api.github.com/users/rom1504/subscriptions",
        "type": "User",
        "url": "https://api.github.com/users/rom1504"
    },
    "milestone": null,
    "node_id": "PR_kwDOABOYWc4yDlm5",
    "number": 2448,
    "patch_url": "https://github.com/PrismarineJS/mineflayer/pull/2448.patch",
    "rebaseable": null,
    "requested_reviewers": [],
    "requested_teams": [],
    "review_comment_url": "https://api.github.com/repos/PrismarineJS/mineflayer/pulls/comments{/number}",
    "review_comments": 0,
    "review_comments_url": "https://api.github.com/repos/PrismarineJS/mineflayer/pulls/2448/comments",
    "state": "closed",
    "statuses_url": "https://api.github.com/repos/PrismarineJS/mineflayer/statuses/4ac87ddd7c2cfc0224a138f3ff3b177b08ce602e",
    "title": "it's the end of callbacks",
    "updated_at": "2022-02-10T19:40:32Z",
    "url": "https://api.github.com/repos/PrismarineJS/mineflayer/pulls/2448",
    "user": {
        "avatar_url": "https://avatars.githubusercontent.com/u/2346494?v=4",
        "events_url": "https://api.github.com/users/rom1504/events{/privacy}",
        "followers_url": "https://api.github.com/users/rom1504/followers",
        "following_url": "https://api.github.com/users/rom1504/following{/other_user}",
        "gists_url": "https://api.github.com/users/rom1504/gists{/gist_id}",
        "gravatar_id": "",
        "html_url": "https://github.com/rom1504",
        "id": 2346494,
        "login": "rom1504",
        "node_id": "MDQ6VXNlcjIzNDY0OTQ=",
        "organizations_url": "https://api.github.com/users/rom1504/orgs",
        "received_events_url": "https://api.github.com/users/rom1504/received_events",
        "repos_url": "https://api.github.com/users/rom1504/repos",
        "site_admin": false,
        "starred_url": "https://api.github.com/users/rom1504/starred{/owner}{/repo}",
        "subscriptions_url": "https://api.github.com/users/rom1504/subscriptions",
        "type": "User",
        "url": "https://api.github.com/users/rom1504"
    }
}