{
    "_links": {
        "comments": {
            "href": "https://api.github.com/repos/PrismarineJS/mineflayer/issues/2497/comments"
        },
        "commits": {
            "href": "https://api.github.com/repos/PrismarineJS/mineflayer/pulls/2497/commits"
        },
        "html": {
            "href": "https://github.com/PrismarineJS/mineflayer/pull/2497"
        },
        "issue": {
            "href": "https://api.github.com/repos/PrismarineJS/mineflayer/issues/2497"
        },
        "review_comment": {
            "href": "https://api.github.com/repos/PrismarineJS/mineflayer/pulls/comments{/number}"
        },
        "review_comments": {
            "href": "https://api.github.com/repos/PrismarineJS/mineflayer/pulls/2497/comments"
        },
        "self": {
            "href": "https://api.github.com/repos/PrismarineJS/mineflayer/pulls/2497"
        },
        "statuses": {
            "href": "https://api.github.com/repos/PrismarineJS/mineflayer/statuses/20be927f09b389c4b502dfc8a662ff84b2a0f2e5"
        }
    },
    "active_lock_reason": null,
    "additions": 1,
    "assignee": null,
    "assignees": [],
    "author_association": "CONTRIBUTOR",
    "auto_merge": null,
    "base": {
        "label": "PrismarineJS:master",
        "ref": "master",
        "repo": {
            "allow_forking": true,
            "archive_url": "https://api.github.com/repos/PrismarineJS/mineflayer/{archive_format}{/ref}",
            "archived": false,
            "assignees_url": "https://api.github.com/repos/PrismarineJS/mineflayer/assignees{/user}",
            "blobs_url": "https://api.github.com/repos/PrismarineJS/mineflayer/git/blobs{/sha}",
            "branches_url": "https://api.github.com/repos/PrismarineJS/mineflayer/branches{/branch}",
            "clone_url": "https://github.com/PrismarineJS/mineflayer.git",
            "collaborators_url": "https://api.github.com/repos/PrismarineJS/mineflayer/collaborators{/collaborator}",
            "comments_url": "https://api.github.com/repos/PrismarineJS/mineflayer/comments{/number}",
            "commits_url": "https://api.github.com/repos/PrismarineJS/mineflayer/commits{/sha}",
            "compare_url": "https://api.github.com/repos/PrismarineJS/mineflayer/compare/{base}...{head}",
            "contents_url": "https://api.github.com/repos/PrismarineJS/mineflayer/contents/{+path}",
            "contributors_url": "https://api.github.com/repos/PrismarineJS/mineflayer/contributors",
            "created_at": "2011-01-23T09:41:55Z",
            "default_branch": "master",
            "deployments_url": "https://api.github.com/repos/PrismarineJS/mineflayer/deployments",
            "description": "Create Minecraft bots with a powerful, stable, and high level JavaScript API.",
            "disabled": false,
            "downloads_url": "https://api.github.com/repos/PrismarineJS/mineflayer/downloads",
            "events_url": "https://api.github.com/repos/PrismarineJS/mineflayer/events",
            "fork": false,
            "forks": 748,
            "forks_count": 748,
            "forks_url": "https://api.github.com/repos/PrismarineJS/mineflayer/forks",
            "full_name": "PrismarineJS/mineflayer",
            "git_commits_url": "https://api.github.com/repos/PrismarineJS/mineflayer/git/commits{/sha}",
            "git_refs_url": "https://api.github.com/repos/PrismarineJS/mineflayer/git/refs{/sha}",
            "git_tags_url": "https://api.github.com/repos/PrismarineJS/mineflayer/git/tags{/sha}",
            "git_url": "git://github.com/PrismarineJS/mineflayer.git",
            "has_discussions": true,
            "has_downloads": true,
            "has_issues": true,
            "has_pages": true,
            "has_projects": true,
            "has_wiki": true,
            "homepage": "https://prismarinejs.github.io/mineflayer/",
            "hooks_url": "https://api.github.com/repos/PrismarineJS/mineflayer/hooks",
            "html_url": "https://github.com/PrismarineJS/mineflayer",
            "id": 1284185,
            "is_template": false,
            "issue_comment_url": "https://api.github.com/repos/PrismarineJS/mineflayer/issues/comments{/number}",
            "issue_events_url": "https://api.github.com/repos/PrismarineJS/mineflayer/issues/events{/number}",
            "issues_url": "https://api.github.com/repos/PrismarineJS/mineflayer/issues{/number}",
            "keys_url": "https://api.github.com/repos/PrismarineJS/mineflayer/keys{/key_id}",
            "labels_url": "https://api.github.com/repos/PrismarineJS/mineflayer/labels{/name}",
            "language": "JavaScript",
            "languages_url": "https://api.github.com/repos/PrismarineJS/mineflayer/languages",
            "license": {
                "key": "mit",
                "name": "MIT License",
                "node_id": "MDc6TGljZW5zZTEz",
                "spdx_id": "MIT",
                "url": "https://api.github.com/licenses/mit"
            },
            "merges_url": "https://api.github.com/repos/PrismarineJS/mineflayer/merges",
            "milestones_url": "https://api.github.com/repos/PrismarineJS/mineflayer/milestones{/number}",
            "mirror_url": null,
            "name": "mineflayer",
            "node_id": "MDEwOlJlcG9zaXRvcnkxMjg0MTg1",
            "notifications_url": "https://api.github.com/repos/PrismarineJS/mineflayer/notifications{?since,all,participating}",
            "open_issues": 269,
            "open_issues_count": 269,
            "owner": {
                "avatar_url": "https://avatars.githubusercontent.com/u/11053411?v=4",
                "events_url": "https://api.github.com/users/PrismarineJS/events{/privacy}",
                "followers_url": "https://api.github.com/users/PrismarineJS/followers",
                "following_url": "https://api.github.com/users/PrismarineJS/following{/other_user}",
                "gists_url": "https://api.github.com/users/PrismarineJS/gists{/gist_id}",
                "gravatar_id": "",
                "html_url": "https://github.com/PrismarineJS",
                "id": 11053411,
                "login": "PrismarineJS",
                "node_id": "MDEyOk9yZ2FuaXphdGlvbjExMDUzNDEx",
                "organizations_url": "https://api.github.com/users/PrismarineJS/orgs",
                "received_events_url": "https://api.github.com/users/PrismarineJS/received_events",
                "repos_url": "https://api.github.com/users/PrismarineJS/repos",
                "site_admin": false,
                "starred_url": "https://api.github.com/users/PrismarineJS/starred{/owner}{/repo}",
                "subscriptions_url": "https://api.github.com/users/PrismarineJS/subscriptions",
                "type": "Organization",
                "url": "https://api.github.com/users/PrismarineJS"
            },
            "private": false,
            "pulls_url": "https://api.github.com/repos/PrismarineJS/mineflayer/pulls{/number}",
            "pushed_at": "2023-04-25T00:44:52Z",
            "releases_url": "https://api.github.com/repos/PrismarineJS/mineflayer/releases{/id}",
            "size": 12493,
            "ssh_url": "git@github.com:PrismarineJS/mineflayer.git",
            "stargazers_count": 3698,
            "stargazers_url": "https://api.github.com/repos/PrismarineJS/mineflayer/stargazers",
            "statuses_url": "https://api.github.com/repos/PrismarineJS/mineflayer/statuses/{sha}",
            "subscribers_url": "https://api.github.com/repos/PrismarineJS/mineflayer/subscribers",
            "subscription_url": "https://api.github.com/repos/PrismarineJS/mineflayer/subscription",
            "svn_url": "https://github.com/PrismarineJS/mineflayer",
            "tags_url": "https://api.github.com/repos/PrismarineJS/mineflayer/tags",
            "teams_url": "https://api.github.com/repos/PrismarineJS/mineflayer/teams",
            "topics": [
                "bot",
                "minecraft",
                "minecraft-api",
                "minecraft-bot",
                "network",
                "nodejs"
            ],
            "trees_url": "https://api.github.com/repos/PrismarineJS/mineflayer/git/trees{/sha}",
            "updated_at": "2023-04-25T14:07:03Z",
            "url": "https://api.github.com/repos/PrismarineJS/mineflayer",
            "visibility": "public",
            "watchers": 3698,
            "watchers_count": 3698,
            "web_commit_signoff_required": false
        },
        "sha": "27ed99f76f4b209ef61e82eb6dad40cfaa3a7f04",
        "user": {
            "avatar_url": "https://avatars.githubusercontent.com/u/11053411?v=4",
            "events_url": "https://api.github.com/users/PrismarineJS/events{/privacy}",
            "followers_url": "https://api.github.com/users/PrismarineJS/followers",
            "following_url": "https://api.github.com/users/PrismarineJS/following{/other_user}",
            "gists_url": "https://api.github.com/users/PrismarineJS/gists{/gist_id}",
            "gravatar_id": "",
            "html_url": "https://github.com/PrismarineJS",
            "id": 11053411,
            "login": "PrismarineJS",
            "node_id": "MDEyOk9yZ2FuaXphdGlvbjExMDUzNDEx",
            "organizations_url": "https://api.github.com/users/PrismarineJS/orgs",
            "received_events_url": "https://api.github.com/users/PrismarineJS/received_events",
            "repos_url": "https://api.github.com/users/PrismarineJS/repos",
            "site_admin": false,
            "starred_url": "https://api.github.com/users/PrismarineJS/starred{/owner}{/repo}",
            "subscriptions_url": "https://api.github.com/users/PrismarineJS/subscriptions",
            "type": "Organization",
            "url": "https://api.github.com/users/PrismarineJS"
        }
    },
    "body": "There is a lot of outdated typescript definitions that no longer match what's in the real code. I will try to add as much as I notice while working with mineflayer in TS.\r\n\r\nPS: dont't merge this right away as there is a good chance I will find a lot more in the next few days",
    "changed_files": 1,
    "closed_at": "2022-03-07T23:03:37Z",
    "comment_data": [],
    "comment_regular_data": [
        {
            "author_association": "CONTRIBUTOR",
            "body": "Here's another: https://github.com/PrismarineJS/mineflayer/pull/2494",
            "created_at": "2022-03-01T01:32:28Z",
            "html_url": "https://github.com/PrismarineJS/mineflayer/pull/2497#issuecomment-1054886115",
            "id": 1054886115,
            "issue_url": "https://api.github.com/repos/PrismarineJS/mineflayer/issues/2497",
            "node_id": "IC_kwDOABOYWc4-4Ejj",
            "performed_via_github_app": null,
            "reactions": {
                "+1": 0,
                "-1": 0,
                "confused": 0,
                "eyes": 0,
                "heart": 0,
                "hooray": 0,
                "laugh": 0,
                "rocket": 0,
                "total_count": 0,
                "url": "https://api.github.com/repos/PrismarineJS/mineflayer/issues/comments/1054886115/reactions"
            },
            "updated_at": "2022-03-01T01:32:28Z",
            "url": "https://api.github.com/repos/PrismarineJS/mineflayer/issues/comments/1054886115",
            "user": {
                "avatar_url": "https://avatars.githubusercontent.com/u/16279574?v=4",
                "events_url": "https://api.github.com/users/safazi/events{/privacy}",
                "followers_url": "https://api.github.com/users/safazi/followers",
                "following_url": "https://api.github.com/users/safazi/following{/other_user}",
                "gists_url": "https://api.github.com/users/safazi/gists{/gist_id}",
                "gravatar_id": "",
                "html_url": "https://github.com/safazi",
                "id": 16279574,
                "login": "safazi",
                "node_id": "MDQ6VXNlcjE2Mjc5NTc0",
                "organizations_url": "https://api.github.com/users/safazi/orgs",
                "received_events_url": "https://api.github.com/users/safazi/received_events",
                "repos_url": "https://api.github.com/users/safazi/repos",
                "site_admin": false,
                "starred_url": "https://api.github.com/users/safazi/starred{/owner}{/repo}",
                "subscriptions_url": "https://api.github.com/users/safazi/subscriptions",
                "type": "User",
                "url": "https://api.github.com/users/safazi"
            }
        },
        {
            "author_association": "CONTRIBUTOR",
            "body": "Also `bot.equip` - the destination slot should be optional",
            "created_at": "2022-03-01T03:44:27Z",
            "html_url": "https://github.com/PrismarineJS/mineflayer/pull/2497#issuecomment-1054974007",
            "id": 1054974007,
            "issue_url": "https://api.github.com/repos/PrismarineJS/mineflayer/issues/2497",
            "node_id": "IC_kwDOABOYWc4-4aA3",
            "performed_via_github_app": null,
            "reactions": {
                "+1": 0,
                "-1": 0,
                "confused": 0,
                "eyes": 0,
                "heart": 0,
                "hooray": 0,
                "laugh": 0,
                "rocket": 0,
                "total_count": 0,
                "url": "https://api.github.com/repos/PrismarineJS/mineflayer/issues/comments/1054974007/reactions"
            },
            "updated_at": "2022-03-01T03:44:27Z",
            "url": "https://api.github.com/repos/PrismarineJS/mineflayer/issues/comments/1054974007",
            "user": {
                "avatar_url": "https://avatars.githubusercontent.com/u/16279574?v=4",
                "events_url": "https://api.github.com/users/safazi/events{/privacy}",
                "followers_url": "https://api.github.com/users/safazi/followers",
                "following_url": "https://api.github.com/users/safazi/following{/other_user}",
                "gists_url": "https://api.github.com/users/safazi/gists{/gist_id}",
                "gravatar_id": "",
                "html_url": "https://github.com/safazi",
                "id": 16279574,
                "login": "safazi",
                "node_id": "MDQ6VXNlcjE2Mjc5NTc0",
                "organizations_url": "https://api.github.com/users/safazi/orgs",
                "received_events_url": "https://api.github.com/users/safazi/received_events",
                "repos_url": "https://api.github.com/users/safazi/repos",
                "site_admin": false,
                "starred_url": "https://api.github.com/users/safazi/starred{/owner}{/repo}",
                "subscriptions_url": "https://api.github.com/users/safazi/subscriptions",
                "type": "User",
                "url": "https://api.github.com/users/safazi"
            }
        }
    ],
    "comments": 2,
    "comments_url": "https://api.github.com/repos/PrismarineJS/mineflayer/issues/2497/comments",
    "commit_data": [
        {
            "author": {
                "avatar_url": "https://avatars.githubusercontent.com/u/29180158?v=4",
                "events_url": "https://api.github.com/users/dumbasPL/events{/privacy}",
                "followers_url": "https://api.github.com/users/dumbasPL/followers",
                "following_url": "https://api.github.com/users/dumbasPL/following{/other_user}",
                "gists_url": "https://api.github.com/users/dumbasPL/gists{/gist_id}",
                "gravatar_id": "",
                "html_url": "https://github.com/dumbasPL",
                "id": 29180158,
                "login": "dumbasPL",
                "node_id": "MDQ6VXNlcjI5MTgwMTU4",
                "organizations_url": "https://api.github.com/users/dumbasPL/orgs",
                "received_events_url": "https://api.github.com/users/dumbasPL/received_events",
                "repos_url": "https://api.github.com/users/dumbasPL/repos",
                "site_admin": false,
                "starred_url": "https://api.github.com/users/dumbasPL/starred{/owner}{/repo}",
                "subscriptions_url": "https://api.github.com/users/dumbasPL/subscriptions",
                "type": "User",
                "url": "https://api.github.com/users/dumbasPL"
            },
            "comments_url": "https://api.github.com/repos/PrismarineJS/mineflayer/commits/20be927f09b389c4b502dfc8a662ff84b2a0f2e5/comments",
            "commit": {
                "author": {
                    "date": "2022-02-27T15:02:17Z",
                    "email": "29180158+dumbasPL@users.noreply.github.com",
                    "name": "nezu"
                },
                "comment_count": 0,
                "committer": {
                    "date": "2022-02-27T15:02:17Z",
                    "email": "29180158+dumbasPL@users.noreply.github.com",
                    "name": "nezu"
                },
                "message": "add missing extraInfos argument to Bot.blockAt function",
                "tree": {
                    "sha": "b91bdf99491b88ea81789a2f819641dd914e5c99",
                    "url": "https://api.github.com/repos/PrismarineJS/mineflayer/git/trees/b91bdf99491b88ea81789a2f819641dd914e5c99"
                },
                "url": "https://api.github.com/repos/PrismarineJS/mineflayer/git/commits/20be927f09b389c4b502dfc8a662ff84b2a0f2e5",
                "verification": {
                    "payload": null,
                    "reason": "unsigned",
                    "signature": null,
                    "verified": false
                }
            },
            "committer": {
                "avatar_url": "https://avatars.githubusercontent.com/u/29180158?v=4",
                "events_url": "https://api.github.com/users/dumbasPL/events{/privacy}",
                "followers_url": "https://api.github.com/users/dumbasPL/followers",
                "following_url": "https://api.github.com/users/dumbasPL/following{/other_user}",
                "gists_url": "https://api.github.com/users/dumbasPL/gists{/gist_id}",
                "gravatar_id": "",
                "html_url": "https://github.com/dumbasPL",
                "id": 29180158,
                "login": "dumbasPL",
                "node_id": "MDQ6VXNlcjI5MTgwMTU4",
                "organizations_url": "https://api.github.com/users/dumbasPL/orgs",
                "received_events_url": "https://api.github.com/users/dumbasPL/received_events",
                "repos_url": "https://api.github.com/users/dumbasPL/repos",
                "site_admin": false,
                "starred_url": "https://api.github.com/users/dumbasPL/starred{/owner}{/repo}",
                "subscriptions_url": "https://api.github.com/users/dumbasPL/subscriptions",
                "type": "User",
                "url": "https://api.github.com/users/dumbasPL"
            },
            "html_url": "https://github.com/PrismarineJS/mineflayer/commit/20be927f09b389c4b502dfc8a662ff84b2a0f2e5",
            "node_id": "C_kwDOABOYWdoAKDIwYmU5MjdmMDliMzg5YzRiNTAyZGZjOGE2NjJmZjg0YjJhMGYyZTU",
            "parents": [
                {
                    "html_url": "https://github.com/PrismarineJS/mineflayer/commit/27ed99f76f4b209ef61e82eb6dad40cfaa3a7f04",
                    "sha": "27ed99f76f4b209ef61e82eb6dad40cfaa3a7f04",
                    "url": "https://api.github.com/repos/PrismarineJS/mineflayer/commits/27ed99f76f4b209ef61e82eb6dad40cfaa3a7f04"
                }
            ],
            "sha": "20be927f09b389c4b502dfc8a662ff84b2a0f2e5",
            "url": "https://api.github.com/repos/PrismarineJS/mineflayer/commits/20be927f09b389c4b502dfc8a662ff84b2a0f2e5"
        }
    ],
    "commits": 1,
    "commits_url": "https://api.github.com/repos/PrismarineJS/mineflayer/pulls/2497/commits",
    "created_at": "2022-02-27T15:06:08Z",
    "deletions": 1,
    "diff_url": "https://github.com/PrismarineJS/mineflayer/pull/2497.diff",
    "draft": false,
    "head": {
        "label": "dumbasPL:master",
        "ref": "master",
        "repo": null,
        "sha": "20be927f09b389c4b502dfc8a662ff84b2a0f2e5",
        "user": {
            "avatar_url": "https://avatars.githubusercontent.com/u/29180158?v=4",
            "events_url": "https://api.github.com/users/dumbasPL/events{/privacy}",
            "followers_url": "https://api.github.com/users/dumbasPL/followers",
            "following_url": "https://api.github.com/users/dumbasPL/following{/other_user}",
            "gists_url": "https://api.github.com/users/dumbasPL/gists{/gist_id}",
            "gravatar_id": "",
            "html_url": "https://github.com/dumbasPL",
            "id": 29180158,
            "login": "dumbasPL",
            "node_id": "MDQ6VXNlcjI5MTgwMTU4",
            "organizations_url": "https://api.github.com/users/dumbasPL/orgs",
            "received_events_url": "https://api.github.com/users/dumbasPL/received_events",
            "repos_url": "https://api.github.com/users/dumbasPL/repos",
            "site_admin": false,
            "starred_url": "https://api.github.com/users/dumbasPL/starred{/owner}{/repo}",
            "subscriptions_url": "https://api.github.com/users/dumbasPL/subscriptions",
            "type": "User",
            "url": "https://api.github.com/users/dumbasPL"
        }
    },
    "html_url": "https://github.com/PrismarineJS/mineflayer/pull/2497",
    "id": 866088318,
    "issue_url": "https://api.github.com/repos/PrismarineJS/mineflayer/issues/2497",
    "labels": [],
    "locked": false,
    "maintainer_can_modify": false,
    "merge_commit_sha": "bc0dad257fb07242295a6cb3d00ce0ed7106514b",
    "mergeable": null,
    "mergeable_state": "unknown",
    "merged": true,
    "merged_at": "2022-03-07T23:03:37Z",
    "merged_by": {
        "avatar_url": "https://avatars.githubusercontent.com/u/2346494?v=4",
        "events_url": "https://api.github.com/users/rom1504/events{/privacy}",
        "followers_url": "https://api.github.com/users/rom1504/followers",
        "following_url": "https://api.github.com/users/rom1504/following{/other_user}",
        "gists_url": "https://api.github.com/users/rom1504/gists{/gist_id}",
        "gravatar_id": "",
        "html_url": "https://github.com/rom1504",
        "id": 2346494,
        "login": "rom1504",
        "node_id": "MDQ6VXNlcjIzNDY0OTQ=",
        "organizations_url": "https://api.github.com/users/rom1504/orgs",
        "received_events_url": "https://api.github.com/users/rom1504/received_events",
        "repos_url": "https://api.github.com/users/rom1504/repos",
        "site_admin": false,
        "starred_url": "https://api.github.com/users/rom1504/starred{/owner}{/repo}",
        "subscriptions_url": "https://api.github.com/users/rom1504/subscriptions",
        "type": "User",
        "url": "https://api.github.com/users/rom1504"
    },
    "milestone": null,
    "node_id": "PR_kwDOABOYWc4zn3V-",
    "number": 2497,
    "patch_url": "https://github.com/PrismarineJS/mineflayer/pull/2497.patch",
    "rebaseable": null,
    "requested_reviewers": [],
    "requested_teams": [],
    "review_comment_url": "https://api.github.com/repos/PrismarineJS/mineflayer/pulls/comments{/number}",
    "review_comments": 0,
    "review_comments_url": "https://api.github.com/repos/PrismarineJS/mineflayer/pulls/2497/comments",
    "state": "closed",
    "statuses_url": "https://api.github.com/repos/PrismarineJS/mineflayer/statuses/20be927f09b389c4b502dfc8a662ff84b2a0f2e5",
    "title": "Update missing/outdated typescript definitions",
    "updated_at": "2022-03-07T23:03:38Z",
    "url": "https://api.github.com/repos/PrismarineJS/mineflayer/pulls/2497",
    "user": {
        "avatar_url": "https://avatars.githubusercontent.com/u/29180158?v=4",
        "events_url": "https://api.github.com/users/dumbasPL/events{/privacy}",
        "followers_url": "https://api.github.com/users/dumbasPL/followers",
        "following_url": "https://api.github.com/users/dumbasPL/following{/other_user}",
        "gists_url": "https://api.github.com/users/dumbasPL/gists{/gist_id}",
        "gravatar_id": "",
        "html_url": "https://github.com/dumbasPL",
        "id": 29180158,
        "login": "dumbasPL",
        "node_id": "MDQ6VXNlcjI5MTgwMTU4",
        "organizations_url": "https://api.github.com/users/dumbasPL/orgs",
        "received_events_url": "https://api.github.com/users/dumbasPL/received_events",
        "repos_url": "https://api.github.com/users/dumbasPL/repos",
        "site_admin": false,
        "starred_url": "https://api.github.com/users/dumbasPL/starred{/owner}{/repo}",
        "subscriptions_url": "https://api.github.com/users/dumbasPL/subscriptions",
        "type": "User",
        "url": "https://api.github.com/users/dumbasPL"
    }
}