{
    "_links": {
        "comments": {
            "href": "https://api.github.com/repos/PrismarineJS/mineflayer/issues/2994/comments"
        },
        "commits": {
            "href": "https://api.github.com/repos/PrismarineJS/mineflayer/pulls/2994/commits"
        },
        "html": {
            "href": "https://github.com/PrismarineJS/mineflayer/pull/2994"
        },
        "issue": {
            "href": "https://api.github.com/repos/PrismarineJS/mineflayer/issues/2994"
        },
        "review_comment": {
            "href": "https://api.github.com/repos/PrismarineJS/mineflayer/pulls/comments{/number}"
        },
        "review_comments": {
            "href": "https://api.github.com/repos/PrismarineJS/mineflayer/pulls/2994/comments"
        },
        "self": {
            "href": "https://api.github.com/repos/PrismarineJS/mineflayer/pulls/2994"
        },
        "statuses": {
            "href": "https://api.github.com/repos/PrismarineJS/mineflayer/statuses/e5301550d10fbe211085483702597c8c16f3a76d"
        }
    },
    "active_lock_reason": null,
    "additions": 2,
    "assignee": null,
    "assignees": [],
    "author_association": "CONTRIBUTOR",
    "auto_merge": null,
    "base": {
        "label": "PrismarineJS:master",
        "ref": "master",
        "repo": {
            "allow_forking": true,
            "archive_url": "https://api.github.com/repos/PrismarineJS/mineflayer/{archive_format}{/ref}",
            "archived": false,
            "assignees_url": "https://api.github.com/repos/PrismarineJS/mineflayer/assignees{/user}",
            "blobs_url": "https://api.github.com/repos/PrismarineJS/mineflayer/git/blobs{/sha}",
            "branches_url": "https://api.github.com/repos/PrismarineJS/mineflayer/branches{/branch}",
            "clone_url": "https://github.com/PrismarineJS/mineflayer.git",
            "collaborators_url": "https://api.github.com/repos/PrismarineJS/mineflayer/collaborators{/collaborator}",
            "comments_url": "https://api.github.com/repos/PrismarineJS/mineflayer/comments{/number}",
            "commits_url": "https://api.github.com/repos/PrismarineJS/mineflayer/commits{/sha}",
            "compare_url": "https://api.github.com/repos/PrismarineJS/mineflayer/compare/{base}...{head}",
            "contents_url": "https://api.github.com/repos/PrismarineJS/mineflayer/contents/{+path}",
            "contributors_url": "https://api.github.com/repos/PrismarineJS/mineflayer/contributors",
            "created_at": "2011-01-23T09:41:55Z",
            "default_branch": "master",
            "deployments_url": "https://api.github.com/repos/PrismarineJS/mineflayer/deployments",
            "description": "Create Minecraft bots with a powerful, stable, and high level JavaScript API.",
            "disabled": false,
            "downloads_url": "https://api.github.com/repos/PrismarineJS/mineflayer/downloads",
            "events_url": "https://api.github.com/repos/PrismarineJS/mineflayer/events",
            "fork": false,
            "forks": 747,
            "forks_count": 747,
            "forks_url": "https://api.github.com/repos/PrismarineJS/mineflayer/forks",
            "full_name": "PrismarineJS/mineflayer",
            "git_commits_url": "https://api.github.com/repos/PrismarineJS/mineflayer/git/commits{/sha}",
            "git_refs_url": "https://api.github.com/repos/PrismarineJS/mineflayer/git/refs{/sha}",
            "git_tags_url": "https://api.github.com/repos/PrismarineJS/mineflayer/git/tags{/sha}",
            "git_url": "git://github.com/PrismarineJS/mineflayer.git",
            "has_discussions": true,
            "has_downloads": true,
            "has_issues": true,
            "has_pages": true,
            "has_projects": true,
            "has_wiki": true,
            "homepage": "https://prismarinejs.github.io/mineflayer/",
            "hooks_url": "https://api.github.com/repos/PrismarineJS/mineflayer/hooks",
            "html_url": "https://github.com/PrismarineJS/mineflayer",
            "id": 1284185,
            "is_template": false,
            "issue_comment_url": "https://api.github.com/repos/PrismarineJS/mineflayer/issues/comments{/number}",
            "issue_events_url": "https://api.github.com/repos/PrismarineJS/mineflayer/issues/events{/number}",
            "issues_url": "https://api.github.com/repos/PrismarineJS/mineflayer/issues{/number}",
            "keys_url": "https://api.github.com/repos/PrismarineJS/mineflayer/keys{/key_id}",
            "labels_url": "https://api.github.com/repos/PrismarineJS/mineflayer/labels{/name}",
            "language": "JavaScript",
            "languages_url": "https://api.github.com/repos/PrismarineJS/mineflayer/languages",
            "license": {
                "key": "mit",
                "name": "MIT License",
                "node_id": "MDc6TGljZW5zZTEz",
                "spdx_id": "MIT",
                "url": "https://api.github.com/licenses/mit"
            },
            "merges_url": "https://api.github.com/repos/PrismarineJS/mineflayer/merges",
            "milestones_url": "https://api.github.com/repos/PrismarineJS/mineflayer/milestones{/number}",
            "mirror_url": null,
            "name": "mineflayer",
            "node_id": "MDEwOlJlcG9zaXRvcnkxMjg0MTg1",
            "notifications_url": "https://api.github.com/repos/PrismarineJS/mineflayer/notifications{?since,all,participating}",
            "open_issues": 270,
            "open_issues_count": 270,
            "owner": {
                "avatar_url": "https://avatars.githubusercontent.com/u/11053411?v=4",
                "events_url": "https://api.github.com/users/PrismarineJS/events{/privacy}",
                "followers_url": "https://api.github.com/users/PrismarineJS/followers",
                "following_url": "https://api.github.com/users/PrismarineJS/following{/other_user}",
                "gists_url": "https://api.github.com/users/PrismarineJS/gists{/gist_id}",
                "gravatar_id": "",
                "html_url": "https://github.com/PrismarineJS",
                "id": 11053411,
                "login": "PrismarineJS",
                "node_id": "MDEyOk9yZ2FuaXphdGlvbjExMDUzNDEx",
                "organizations_url": "https://api.github.com/users/PrismarineJS/orgs",
                "received_events_url": "https://api.github.com/users/PrismarineJS/received_events",
                "repos_url": "https://api.github.com/users/PrismarineJS/repos",
                "site_admin": false,
                "starred_url": "https://api.github.com/users/PrismarineJS/starred{/owner}{/repo}",
                "subscriptions_url": "https://api.github.com/users/PrismarineJS/subscriptions",
                "type": "Organization",
                "url": "https://api.github.com/users/PrismarineJS"
            },
            "private": false,
            "pulls_url": "https://api.github.com/repos/PrismarineJS/mineflayer/pulls{/number}",
            "pushed_at": "2023-04-25T00:44:52Z",
            "releases_url": "https://api.github.com/repos/PrismarineJS/mineflayer/releases{/id}",
            "size": 12493,
            "ssh_url": "git@github.com:PrismarineJS/mineflayer.git",
            "stargazers_count": 3704,
            "stargazers_url": "https://api.github.com/repos/PrismarineJS/mineflayer/stargazers",
            "statuses_url": "https://api.github.com/repos/PrismarineJS/mineflayer/statuses/{sha}",
            "subscribers_url": "https://api.github.com/repos/PrismarineJS/mineflayer/subscribers",
            "subscription_url": "https://api.github.com/repos/PrismarineJS/mineflayer/subscription",
            "svn_url": "https://github.com/PrismarineJS/mineflayer",
            "tags_url": "https://api.github.com/repos/PrismarineJS/mineflayer/tags",
            "teams_url": "https://api.github.com/repos/PrismarineJS/mineflayer/teams",
            "topics": [
                "bot",
                "minecraft",
                "minecraft-api",
                "minecraft-bot",
                "network",
                "nodejs"
            ],
            "trees_url": "https://api.github.com/repos/PrismarineJS/mineflayer/git/trees{/sha}",
            "updated_at": "2023-04-30T22:39:05Z",
            "url": "https://api.github.com/repos/PrismarineJS/mineflayer",
            "visibility": "public",
            "watchers": 3704,
            "watchers_count": 3704,
            "web_commit_signoff_required": false
        },
        "sha": "1ad9ba1ac2169b74dbaff7726049944bd920fed0",
        "user": {
            "avatar_url": "https://avatars.githubusercontent.com/u/11053411?v=4",
            "events_url": "https://api.github.com/users/PrismarineJS/events{/privacy}",
            "followers_url": "https://api.github.com/users/PrismarineJS/followers",
            "following_url": "https://api.github.com/users/PrismarineJS/following{/other_user}",
            "gists_url": "https://api.github.com/users/PrismarineJS/gists{/gist_id}",
            "gravatar_id": "",
            "html_url": "https://github.com/PrismarineJS",
            "id": 11053411,
            "login": "PrismarineJS",
            "node_id": "MDEyOk9yZ2FuaXphdGlvbjExMDUzNDEx",
            "organizations_url": "https://api.github.com/users/PrismarineJS/orgs",
            "received_events_url": "https://api.github.com/users/PrismarineJS/received_events",
            "repos_url": "https://api.github.com/users/PrismarineJS/repos",
            "site_admin": false,
            "starred_url": "https://api.github.com/users/PrismarineJS/starred{/owner}{/repo}",
            "subscriptions_url": "https://api.github.com/users/PrismarineJS/subscriptions",
            "type": "Organization",
            "url": "https://api.github.com/users/PrismarineJS"
        }
    },
    "body": null,
    "changed_files": 1,
    "closed_at": "2023-03-28T13:05:47Z",
    "comment_data": [],
    "comment_regular_data": [
        {
            "author_association": "MEMBER",
            "body": "LGTM",
            "created_at": "2023-03-28T00:09:01Z",
            "html_url": "https://github.com/PrismarineJS/mineflayer/pull/2994#issuecomment-1486024964",
            "id": 1486024964,
            "issue_url": "https://api.github.com/repos/PrismarineJS/mineflayer/issues/2994",
            "node_id": "IC_kwDOABOYWc5YkvEE",
            "performed_via_github_app": null,
            "reactions": {
                "+1": 0,
                "-1": 0,
                "confused": 0,
                "eyes": 0,
                "heart": 0,
                "hooray": 0,
                "laugh": 0,
                "rocket": 0,
                "total_count": 0,
                "url": "https://api.github.com/repos/PrismarineJS/mineflayer/issues/comments/1486024964/reactions"
            },
            "updated_at": "2023-03-28T00:09:01Z",
            "url": "https://api.github.com/repos/PrismarineJS/mineflayer/issues/comments/1486024964",
            "user": {
                "avatar_url": "https://avatars.githubusercontent.com/u/61137113?v=4",
                "events_url": "https://api.github.com/users/IceTank/events{/privacy}",
                "followers_url": "https://api.github.com/users/IceTank/followers",
                "following_url": "https://api.github.com/users/IceTank/following{/other_user}",
                "gists_url": "https://api.github.com/users/IceTank/gists{/gist_id}",
                "gravatar_id": "",
                "html_url": "https://github.com/IceTank",
                "id": 61137113,
                "login": "IceTank",
                "node_id": "MDQ6VXNlcjYxMTM3MTEz",
                "organizations_url": "https://api.github.com/users/IceTank/orgs",
                "received_events_url": "https://api.github.com/users/IceTank/received_events",
                "repos_url": "https://api.github.com/users/IceTank/repos",
                "site_admin": false,
                "starred_url": "https://api.github.com/users/IceTank/starred{/owner}{/repo}",
                "subscriptions_url": "https://api.github.com/users/IceTank/subscriptions",
                "type": "User",
                "url": "https://api.github.com/users/IceTank"
            }
        }
    ],
    "comments": 1,
    "comments_url": "https://api.github.com/repos/PrismarineJS/mineflayer/issues/2994/comments",
    "commit_data": [
        {
            "author": {
                "avatar_url": "https://avatars.githubusercontent.com/u/81325987?v=4",
                "events_url": "https://api.github.com/users/182exe/events{/privacy}",
                "followers_url": "https://api.github.com/users/182exe/followers",
                "following_url": "https://api.github.com/users/182exe/following{/other_user}",
                "gists_url": "https://api.github.com/users/182exe/gists{/gist_id}",
                "gravatar_id": "",
                "html_url": "https://github.com/182exe",
                "id": 81325987,
                "login": "182exe",
                "node_id": "MDQ6VXNlcjgxMzI1OTg3",
                "organizations_url": "https://api.github.com/users/182exe/orgs",
                "received_events_url": "https://api.github.com/users/182exe/received_events",
                "repos_url": "https://api.github.com/users/182exe/repos",
                "site_admin": false,
                "starred_url": "https://api.github.com/users/182exe/starred{/owner}{/repo}",
                "subscriptions_url": "https://api.github.com/users/182exe/subscriptions",
                "type": "User",
                "url": "https://api.github.com/users/182exe"
            },
            "comments_url": "https://api.github.com/repos/PrismarineJS/mineflayer/commits/e5301550d10fbe211085483702597c8c16f3a76d/comments",
            "commit": {
                "author": {
                    "date": "2023-03-26T05:56:22Z",
                    "email": "81325987+182exe@users.noreply.github.com",
                    "name": "182exe"
                },
                "comment_count": 0,
                "committer": {
                    "date": "2023-03-26T05:56:22Z",
                    "email": "noreply@github.com",
                    "name": "GitHub"
                },
                "message": "Update link + fix one singular typo",
                "tree": {
                    "sha": "ca49b78977aef747dac695f69f88fc060edc8703",
                    "url": "https://api.github.com/repos/PrismarineJS/mineflayer/git/trees/ca49b78977aef747dac695f69f88fc060edc8703"
                },
                "url": "https://api.github.com/repos/PrismarineJS/mineflayer/git/commits/e5301550d10fbe211085483702597c8c16f3a76d",
                "verification": {
                    "payload": "tree ca49b78977aef747dac695f69f88fc060edc8703\nparent 1ad9ba1ac2169b74dbaff7726049944bd920fed0\nauthor 182exe <81325987+182exe@users.noreply.github.com> 1679810182 -0700\ncommitter GitHub <noreply@github.com> 1679810182 -0700\n\nUpdate link + fix one singular typo",
                    "reason": "valid",
                    "signature": "-----BEGIN PGP SIGNATURE-----\n\nwsBcBAABCAAQBQJkH96GCRBK7hj4Ov3rIwAAArUIAEYDAdvicOGIbhTToZg2PpIg\nFbcTPHeXyOjbR+7TDNGkXaJRrLXb+f3Y1/EUFaDah+6AB7hjV9Vxj3v3QM/TI3Yn\nYuQTRJalMQ/vIifjO1a6tQ0UdO5MBzBilhm2XrMox/pQqqmZJC8/5G9pyGPl9L2A\ndwE1JYUoEmhidAMM8fInaJJLz9ntQ0XCWcVVK/kRsRJ8VNtsKw9gkH/IA3bIUeyX\ngWeIQBAqm5tW/s+ydni33XmF+sohc/W4yN9PqkrE3GvOmovu4hU3k11z5027Nn9P\nGY4nfnmbL2m7nivySOXk0QexdJTPhsisLcelOuWfRvbWRB3Ep8QOIqOiJjqxHm4=\n=nzlB\n-----END PGP SIGNATURE-----\n",
                    "verified": true
                }
            },
            "committer": {
                "avatar_url": "https://avatars.githubusercontent.com/u/19864447?v=4",
                "events_url": "https://api.github.com/users/web-flow/events{/privacy}",
                "followers_url": "https://api.github.com/users/web-flow/followers",
                "following_url": "https://api.github.com/users/web-flow/following{/other_user}",
                "gists_url": "https://api.github.com/users/web-flow/gists{/gist_id}",
                "gravatar_id": "",
                "html_url": "https://github.com/web-flow",
                "id": 19864447,
                "login": "web-flow",
                "node_id": "MDQ6VXNlcjE5ODY0NDQ3",
                "organizations_url": "https://api.github.com/users/web-flow/orgs",
                "received_events_url": "https://api.github.com/users/web-flow/received_events",
                "repos_url": "https://api.github.com/users/web-flow/repos",
                "site_admin": false,
                "starred_url": "https://api.github.com/users/web-flow/starred{/owner}{/repo}",
                "subscriptions_url": "https://api.github.com/users/web-flow/subscriptions",
                "type": "User",
                "url": "https://api.github.com/users/web-flow"
            },
            "html_url": "https://github.com/PrismarineJS/mineflayer/commit/e5301550d10fbe211085483702597c8c16f3a76d",
            "node_id": "C_kwDOJOYG-NoAKGU1MzAxNTUwZDEwZmJlMjExMDg1NDgzNzAyNTk3YzhjMTZmM2E3NmQ",
            "parents": [
                {
                    "html_url": "https://github.com/PrismarineJS/mineflayer/commit/1ad9ba1ac2169b74dbaff7726049944bd920fed0",
                    "sha": "1ad9ba1ac2169b74dbaff7726049944bd920fed0",
                    "url": "https://api.github.com/repos/PrismarineJS/mineflayer/commits/1ad9ba1ac2169b74dbaff7726049944bd920fed0"
                }
            ],
            "sha": "e5301550d10fbe211085483702597c8c16f3a76d",
            "url": "https://api.github.com/repos/PrismarineJS/mineflayer/commits/e5301550d10fbe211085483702597c8c16f3a76d"
        }
    ],
    "commits": 1,
    "commits_url": "https://api.github.com/repos/PrismarineJS/mineflayer/pulls/2994/commits",
    "created_at": "2023-03-26T05:56:31Z",
    "deletions": 2,
    "diff_url": "https://github.com/PrismarineJS/mineflayer/pull/2994.diff",
    "draft": false,
    "head": {
        "label": "182exe:patch-1",
        "ref": "patch-1",
        "repo": {
            "allow_forking": true,
            "archive_url": "https://api.github.com/repos/182exe/mineflayer/{archive_format}{/ref}",
            "archived": false,
            "assignees_url": "https://api.github.com/repos/182exe/mineflayer/assignees{/user}",
            "blobs_url": "https://api.github.com/repos/182exe/mineflayer/git/blobs{/sha}",
            "branches_url": "https://api.github.com/repos/182exe/mineflayer/branches{/branch}",
            "clone_url": "https://github.com/182exe/mineflayer.git",
            "collaborators_url": "https://api.github.com/repos/182exe/mineflayer/collaborators{/collaborator}",
            "comments_url": "https://api.github.com/repos/182exe/mineflayer/comments{/number}",
            "commits_url": "https://api.github.com/repos/182exe/mineflayer/commits{/sha}",
            "compare_url": "https://api.github.com/repos/182exe/mineflayer/compare/{base}...{head}",
            "contents_url": "https://api.github.com/repos/182exe/mineflayer/contents/{+path}",
            "contributors_url": "https://api.github.com/repos/182exe/mineflayer/contributors",
            "created_at": "2023-03-26T05:55:04Z",
            "default_branch": "master",
            "deployments_url": "https://api.github.com/repos/182exe/mineflayer/deployments",
            "description": "Create Minecraft bots with a powerful, stable, and high level JavaScript API.",
            "disabled": false,
            "downloads_url": "https://api.github.com/repos/182exe/mineflayer/downloads",
            "events_url": "https://api.github.com/repos/182exe/mineflayer/events",
            "fork": true,
            "forks": 0,
            "forks_count": 0,
            "forks_url": "https://api.github.com/repos/182exe/mineflayer/forks",
            "full_name": "182exe/mineflayer",
            "git_commits_url": "https://api.github.com/repos/182exe/mineflayer/git/commits{/sha}",
            "git_refs_url": "https://api.github.com/repos/182exe/mineflayer/git/refs{/sha}",
            "git_tags_url": "https://api.github.com/repos/182exe/mineflayer/git/tags{/sha}",
            "git_url": "git://github.com/182exe/mineflayer.git",
            "has_discussions": false,
            "has_downloads": true,
            "has_issues": false,
            "has_pages": false,
            "has_projects": true,
            "has_wiki": true,
            "homepage": "https://mineflayer.prismarine.js.org",
            "hooks_url": "https://api.github.com/repos/182exe/mineflayer/hooks",
            "html_url": "https://github.com/182exe/mineflayer",
            "id": 619054840,
            "is_template": false,
            "issue_comment_url": "https://api.github.com/repos/182exe/mineflayer/issues/comments{/number}",
            "issue_events_url": "https://api.github.com/repos/182exe/mineflayer/issues/events{/number}",
            "issues_url": "https://api.github.com/repos/182exe/mineflayer/issues{/number}",
            "keys_url": "https://api.github.com/repos/182exe/mineflayer/keys{/key_id}",
            "labels_url": "https://api.github.com/repos/182exe/mineflayer/labels{/name}",
            "language": null,
            "languages_url": "https://api.github.com/repos/182exe/mineflayer/languages",
            "license": {
                "key": "mit",
                "name": "MIT License",
                "node_id": "MDc6TGljZW5zZTEz",
                "spdx_id": "MIT",
                "url": "https://api.github.com/licenses/mit"
            },
            "merges_url": "https://api.github.com/repos/182exe/mineflayer/merges",
            "milestones_url": "https://api.github.com/repos/182exe/mineflayer/milestones{/number}",
            "mirror_url": null,
            "name": "mineflayer",
            "node_id": "R_kgDOJOYG-A",
            "notifications_url": "https://api.github.com/repos/182exe/mineflayer/notifications{?since,all,participating}",
            "open_issues": 0,
            "open_issues_count": 0,
            "owner": {
                "avatar_url": "https://avatars.githubusercontent.com/u/81325987?v=4",
                "events_url": "https://api.github.com/users/182exe/events{/privacy}",
                "followers_url": "https://api.github.com/users/182exe/followers",
                "following_url": "https://api.github.com/users/182exe/following{/other_user}",
                "gists_url": "https://api.github.com/users/182exe/gists{/gist_id}",
                "gravatar_id": "",
                "html_url": "https://github.com/182exe",
                "id": 81325987,
                "login": "182exe",
                "node_id": "MDQ6VXNlcjgxMzI1OTg3",
                "organizations_url": "https://api.github.com/users/182exe/orgs",
                "received_events_url": "https://api.github.com/users/182exe/received_events",
                "repos_url": "https://api.github.com/users/182exe/repos",
                "site_admin": false,
                "starred_url": "https://api.github.com/users/182exe/starred{/owner}{/repo}",
                "subscriptions_url": "https://api.github.com/users/182exe/subscriptions",
                "type": "User",
                "url": "https://api.github.com/users/182exe"
            },
            "private": false,
            "pulls_url": "https://api.github.com/repos/182exe/mineflayer/pulls{/number}",
            "pushed_at": "2023-05-01T05:31:17Z",
            "releases_url": "https://api.github.com/repos/182exe/mineflayer/releases{/id}",
            "size": 12422,
            "ssh_url": "git@github.com:182exe/mineflayer.git",
            "stargazers_count": 0,
            "stargazers_url": "https://api.github.com/repos/182exe/mineflayer/stargazers",
            "statuses_url": "https://api.github.com/repos/182exe/mineflayer/statuses/{sha}",
            "subscribers_url": "https://api.github.com/repos/182exe/mineflayer/subscribers",
            "subscription_url": "https://api.github.com/repos/182exe/mineflayer/subscription",
            "svn_url": "https://github.com/182exe/mineflayer",
            "tags_url": "https://api.github.com/repos/182exe/mineflayer/tags",
            "teams_url": "https://api.github.com/repos/182exe/mineflayer/teams",
            "topics": [],
            "trees_url": "https://api.github.com/repos/182exe/mineflayer/git/trees{/sha}",
            "updated_at": "2023-03-26T05:37:57Z",
            "url": "https://api.github.com/repos/182exe/mineflayer",
            "visibility": "public",
            "watchers": 0,
            "watchers_count": 0,
            "web_commit_signoff_required": false
        },
        "sha": "e5301550d10fbe211085483702597c8c16f3a76d",
        "user": {
            "avatar_url": "https://avatars.githubusercontent.com/u/81325987?v=4",
            "events_url": "https://api.github.com/users/182exe/events{/privacy}",
            "followers_url": "https://api.github.com/users/182exe/followers",
            "following_url": "https://api.github.com/users/182exe/following{/other_user}",
            "gists_url": "https://api.github.com/users/182exe/gists{/gist_id}",
            "gravatar_id": "",
            "html_url": "https://github.com/182exe",
            "id": 81325987,
            "login": "182exe",
            "node_id": "MDQ6VXNlcjgxMzI1OTg3",
            "organizations_url": "https://api.github.com/users/182exe/orgs",
            "received_events_url": "https://api.github.com/users/182exe/received_events",
            "repos_url": "https://api.github.com/users/182exe/repos",
            "site_admin": false,
            "starred_url": "https://api.github.com/users/182exe/starred{/owner}{/repo}",
            "subscriptions_url": "https://api.github.com/users/182exe/subscriptions",
            "type": "User",
            "url": "https://api.github.com/users/182exe"
        }
    },
    "html_url": "https://github.com/PrismarineJS/mineflayer/pull/2994",
    "id": 1290244648,
    "issue_url": "https://api.github.com/repos/PrismarineJS/mineflayer/issues/2994",
    "labels": [],
    "locked": false,
    "maintainer_can_modify": false,
    "merge_commit_sha": "68538e2bf69ef8a44b68dc3de6f3994886fda6ec",
    "mergeable": null,
    "mergeable_state": "unknown",
    "merged": true,
    "merged_at": "2023-03-28T13:05:47Z",
    "merged_by": {
        "avatar_url": "https://avatars.githubusercontent.com/u/43508353?v=4",
        "events_url": "https://api.github.com/users/u9g/events{/privacy}",
        "followers_url": "https://api.github.com/users/u9g/followers",
        "following_url": "https://api.github.com/users/u9g/following{/other_user}",
        "gists_url": "https://api.github.com/users/u9g/gists{/gist_id}",
        "gravatar_id": "",
        "html_url": "https://github.com/u9g",
        "id": 43508353,
        "login": "u9g",
        "node_id": "MDQ6VXNlcjQzNTA4MzUz",
        "organizations_url": "https://api.github.com/users/u9g/orgs",
        "received_events_url": "https://api.github.com/users/u9g/received_events",
        "repos_url": "https://api.github.com/users/u9g/repos",
        "site_admin": false,
        "starred_url": "https://api.github.com/users/u9g/starred{/owner}{/repo}",
        "subscriptions_url": "https://api.github.com/users/u9g/subscriptions",
        "type": "User",
        "url": "https://api.github.com/users/u9g"
    },
    "milestone": null,
    "node_id": "PR_kwDOABOYWc5M55Io",
    "number": 2994,
    "patch_url": "https://github.com/PrismarineJS/mineflayer/pull/2994.patch",
    "rebaseable": null,
    "requested_reviewers": [],
    "requested_teams": [],
    "review_comment_url": "https://api.github.com/repos/PrismarineJS/mineflayer/pulls/comments{/number}",
    "review_comments": 0,
    "review_comments_url": "https://api.github.com/repos/PrismarineJS/mineflayer/pulls/2994/comments",
    "state": "closed",
    "statuses_url": "https://api.github.com/repos/PrismarineJS/mineflayer/statuses/e5301550d10fbe211085483702597c8c16f3a76d",
    "title": "Update link + fix one singular typo",
    "updated_at": "2023-05-01T05:31:17Z",
    "url": "https://api.github.com/repos/PrismarineJS/mineflayer/pulls/2994",
    "user": {
        "avatar_url": "https://avatars.githubusercontent.com/u/81325987?v=4",
        "events_url": "https://api.github.com/users/182exe/events{/privacy}",
        "followers_url": "https://api.github.com/users/182exe/followers",
        "following_url": "https://api.github.com/users/182exe/following{/other_user}",
        "gists_url": "https://api.github.com/users/182exe/gists{/gist_id}",
        "gravatar_id": "",
        "html_url": "https://github.com/182exe",
        "id": 81325987,
        "login": "182exe",
        "node_id": "MDQ6VXNlcjgxMzI1OTg3",
        "organizations_url": "https://api.github.com/users/182exe/orgs",
        "received_events_url": "https://api.github.com/users/182exe/received_events",
        "repos_url": "https://api.github.com/users/182exe/repos",
        "site_admin": false,
        "starred_url": "https://api.github.com/users/182exe/starred{/owner}{/repo}",
        "subscriptions_url": "https://api.github.com/users/182exe/subscriptions",
        "type": "User",
        "url": "https://api.github.com/users/182exe"
    }
}