{
    "_links": {
        "comments": {
            "href": "https://api.github.com/repos/PrismarineJS/mineflayer/issues/3159/comments"
        },
        "commits": {
            "href": "https://api.github.com/repos/PrismarineJS/mineflayer/pulls/3159/commits"
        },
        "html": {
            "href": "https://github.com/PrismarineJS/mineflayer/pull/3159"
        },
        "issue": {
            "href": "https://api.github.com/repos/PrismarineJS/mineflayer/issues/3159"
        },
        "review_comment": {
            "href": "https://api.github.com/repos/PrismarineJS/mineflayer/pulls/comments{/number}"
        },
        "review_comments": {
            "href": "https://api.github.com/repos/PrismarineJS/mineflayer/pulls/3159/comments"
        },
        "self": {
            "href": "https://api.github.com/repos/PrismarineJS/mineflayer/pulls/3159"
        },
        "statuses": {
            "href": "https://api.github.com/repos/PrismarineJS/mineflayer/statuses/02d5035f000445fedf7f6fa4f2f2c2722696b3c9"
        }
    },
    "active_lock_reason": null,
    "additions": 1,
    "assignee": null,
    "assignees": [],
    "author_association": "NONE",
    "auto_merge": null,
    "base": {
        "label": "PrismarineJS:master",
        "ref": "master",
        "repo": {
            "allow_forking": true,
            "archive_url": "https://api.github.com/repos/PrismarineJS/mineflayer/{archive_format}{/ref}",
            "archived": false,
            "assignees_url": "https://api.github.com/repos/PrismarineJS/mineflayer/assignees{/user}",
            "blobs_url": "https://api.github.com/repos/PrismarineJS/mineflayer/git/blobs{/sha}",
            "branches_url": "https://api.github.com/repos/PrismarineJS/mineflayer/branches{/branch}",
            "clone_url": "https://github.com/PrismarineJS/mineflayer.git",
            "collaborators_url": "https://api.github.com/repos/PrismarineJS/mineflayer/collaborators{/collaborator}",
            "comments_url": "https://api.github.com/repos/PrismarineJS/mineflayer/comments{/number}",
            "commits_url": "https://api.github.com/repos/PrismarineJS/mineflayer/commits{/sha}",
            "compare_url": "https://api.github.com/repos/PrismarineJS/mineflayer/compare/{base}...{head}",
            "contents_url": "https://api.github.com/repos/PrismarineJS/mineflayer/contents/{+path}",
            "contributors_url": "https://api.github.com/repos/PrismarineJS/mineflayer/contributors",
            "created_at": "2011-01-23T09:41:55Z",
            "default_branch": "master",
            "deployments_url": "https://api.github.com/repos/PrismarineJS/mineflayer/deployments",
            "description": "Create Minecraft bots with a powerful, stable, and high level JavaScript API.",
            "disabled": false,
            "downloads_url": "https://api.github.com/repos/PrismarineJS/mineflayer/downloads",
            "events_url": "https://api.github.com/repos/PrismarineJS/mineflayer/events",
            "fork": false,
            "forks": 813,
            "forks_count": 813,
            "forks_url": "https://api.github.com/repos/PrismarineJS/mineflayer/forks",
            "full_name": "PrismarineJS/mineflayer",
            "git_commits_url": "https://api.github.com/repos/PrismarineJS/mineflayer/git/commits{/sha}",
            "git_refs_url": "https://api.github.com/repos/PrismarineJS/mineflayer/git/refs{/sha}",
            "git_tags_url": "https://api.github.com/repos/PrismarineJS/mineflayer/git/tags{/sha}",
            "git_url": "git://github.com/PrismarineJS/mineflayer.git",
            "has_discussions": true,
            "has_downloads": true,
            "has_issues": true,
            "has_pages": true,
            "has_projects": true,
            "has_wiki": true,
            "homepage": "https://prismarinejs.github.io/mineflayer/",
            "hooks_url": "https://api.github.com/repos/PrismarineJS/mineflayer/hooks",
            "html_url": "https://github.com/PrismarineJS/mineflayer",
            "id": 1284185,
            "is_template": false,
            "issue_comment_url": "https://api.github.com/repos/PrismarineJS/mineflayer/issues/comments{/number}",
            "issue_events_url": "https://api.github.com/repos/PrismarineJS/mineflayer/issues/events{/number}",
            "issues_url": "https://api.github.com/repos/PrismarineJS/mineflayer/issues{/number}",
            "keys_url": "https://api.github.com/repos/PrismarineJS/mineflayer/keys{/key_id}",
            "labels_url": "https://api.github.com/repos/PrismarineJS/mineflayer/labels{/name}",
            "language": "JavaScript",
            "languages_url": "https://api.github.com/repos/PrismarineJS/mineflayer/languages",
            "license": {
                "key": "mit",
                "name": "MIT License",
                "node_id": "MDc6TGljZW5zZTEz",
                "spdx_id": "MIT",
                "url": "https://api.github.com/licenses/mit"
            },
            "merges_url": "https://api.github.com/repos/PrismarineJS/mineflayer/merges",
            "milestones_url": "https://api.github.com/repos/PrismarineJS/mineflayer/milestones{/number}",
            "mirror_url": null,
            "name": "mineflayer",
            "node_id": "MDEwOlJlcG9zaXRvcnkxMjg0MTg1",
            "notifications_url": "https://api.github.com/repos/PrismarineJS/mineflayer/notifications{?since,all,participating}",
            "open_issues": 292,
            "open_issues_count": 292,
            "owner": {
                "avatar_url": "https://avatars.githubusercontent.com/u/11053411?v=4",
                "events_url": "https://api.github.com/users/PrismarineJS/events{/privacy}",
                "followers_url": "https://api.github.com/users/PrismarineJS/followers",
                "following_url": "https://api.github.com/users/PrismarineJS/following{/other_user}",
                "gists_url": "https://api.github.com/users/PrismarineJS/gists{/gist_id}",
                "gravatar_id": "",
                "html_url": "https://github.com/PrismarineJS",
                "id": 11053411,
                "login": "PrismarineJS",
                "node_id": "MDEyOk9yZ2FuaXphdGlvbjExMDUzNDEx",
                "organizations_url": "https://api.github.com/users/PrismarineJS/orgs",
                "received_events_url": "https://api.github.com/users/PrismarineJS/received_events",
                "repos_url": "https://api.github.com/users/PrismarineJS/repos",
                "site_admin": false,
                "starred_url": "https://api.github.com/users/PrismarineJS/starred{/owner}{/repo}",
                "subscriptions_url": "https://api.github.com/users/PrismarineJS/subscriptions",
                "type": "Organization",
                "url": "https://api.github.com/users/PrismarineJS"
            },
            "private": false,
            "pulls_url": "https://api.github.com/repos/PrismarineJS/mineflayer/pulls{/number}",
            "pushed_at": "2023-11-12T21:05:55Z",
            "releases_url": "https://api.github.com/repos/PrismarineJS/mineflayer/releases{/id}",
            "size": 12808,
            "ssh_url": "git@github.com:PrismarineJS/mineflayer.git",
            "stargazers_count": 4244,
            "stargazers_url": "https://api.github.com/repos/PrismarineJS/mineflayer/stargazers",
            "statuses_url": "https://api.github.com/repos/PrismarineJS/mineflayer/statuses/{sha}",
            "subscribers_url": "https://api.github.com/repos/PrismarineJS/mineflayer/subscribers",
            "subscription_url": "https://api.github.com/repos/PrismarineJS/mineflayer/subscription",
            "svn_url": "https://github.com/PrismarineJS/mineflayer",
            "tags_url": "https://api.github.com/repos/PrismarineJS/mineflayer/tags",
            "teams_url": "https://api.github.com/repos/PrismarineJS/mineflayer/teams",
            "topics": [
                "bot",
                "minecraft",
                "minecraft-api",
                "minecraft-bot",
                "network",
                "nodejs"
            ],
            "trees_url": "https://api.github.com/repos/PrismarineJS/mineflayer/git/trees{/sha}",
            "updated_at": "2023-12-03T11:40:52Z",
            "url": "https://api.github.com/repos/PrismarineJS/mineflayer",
            "visibility": "public",
            "watchers": 4244,
            "watchers_count": 4244,
            "web_commit_signoff_required": false
        },
        "sha": "d0eb3a1afe6cda7b04ae2f88052cd868ba0c0c4f",
        "user": {
            "avatar_url": "https://avatars.githubusercontent.com/u/11053411?v=4",
            "events_url": "https://api.github.com/users/PrismarineJS/events{/privacy}",
            "followers_url": "https://api.github.com/users/PrismarineJS/followers",
            "following_url": "https://api.github.com/users/PrismarineJS/following{/other_user}",
            "gists_url": "https://api.github.com/users/PrismarineJS/gists{/gist_id}",
            "gravatar_id": "",
            "html_url": "https://github.com/PrismarineJS",
            "id": 11053411,
            "login": "PrismarineJS",
            "node_id": "MDEyOk9yZ2FuaXphdGlvbjExMDUzNDEx",
            "organizations_url": "https://api.github.com/users/PrismarineJS/orgs",
            "received_events_url": "https://api.github.com/users/PrismarineJS/received_events",
            "repos_url": "https://api.github.com/users/PrismarineJS/repos",
            "site_admin": false,
            "starred_url": "https://api.github.com/users/PrismarineJS/starred{/owner}{/repo}",
            "subscriptions_url": "https://api.github.com/users/PrismarineJS/subscriptions",
            "type": "Organization",
            "url": "https://api.github.com/users/PrismarineJS"
        }
    },
    "body": "In my testing singeplayer in the web client works well. I'm using flying-squid (which seems to work only on 1.16) where all events are processed in both clients synchronously. So right after initial player data set, spawn event fires where I should synchronously use gamemode of the current player",
    "changed_files": 1,
    "closed_at": "2023-08-18T00:33:31Z",
    "comment_data": [],
    "comment_regular_data": [
        {
            "author_association": "NONE",
            "body": "okay, nevermind, I see there is `bot.game.gameMode` that is more reliable than `bot.player.gamemode` eg it gets correctly updated on gamemode change. I think `bot.player.gamemode` should be deprecated",
            "created_at": "2023-08-18T00:33:31Z",
            "html_url": "https://github.com/PrismarineJS/mineflayer/pull/3159#issuecomment-1683156111",
            "id": 1683156111,
            "issue_url": "https://api.github.com/repos/PrismarineJS/mineflayer/issues/3159",
            "node_id": "IC_kwDOABOYWc5kUuyP",
            "performed_via_github_app": null,
            "reactions": {
                "+1": 0,
                "-1": 0,
                "confused": 0,
                "eyes": 0,
                "heart": 0,
                "hooray": 0,
                "laugh": 0,
                "rocket": 0,
                "total_count": 0,
                "url": "https://api.github.com/repos/PrismarineJS/mineflayer/issues/comments/1683156111/reactions"
            },
            "updated_at": "2023-08-18T00:33:31Z",
            "url": "https://api.github.com/repos/PrismarineJS/mineflayer/issues/comments/1683156111",
            "user": {
                "avatar_url": "https://avatars.githubusercontent.com/u/46503702?v=4",
                "events_url": "https://api.github.com/users/zardoy/events{/privacy}",
                "followers_url": "https://api.github.com/users/zardoy/followers",
                "following_url": "https://api.github.com/users/zardoy/following{/other_user}",
                "gists_url": "https://api.github.com/users/zardoy/gists{/gist_id}",
                "gravatar_id": "",
                "html_url": "https://github.com/zardoy",
                "id": 46503702,
                "login": "zardoy",
                "node_id": "MDQ6VXNlcjQ2NTAzNzAy",
                "organizations_url": "https://api.github.com/users/zardoy/orgs",
                "received_events_url": "https://api.github.com/users/zardoy/received_events",
                "repos_url": "https://api.github.com/users/zardoy/repos",
                "site_admin": false,
                "starred_url": "https://api.github.com/users/zardoy/starred{/owner}{/repo}",
                "subscriptions_url": "https://api.github.com/users/zardoy/subscriptions",
                "type": "User",
                "url": "https://api.github.com/users/zardoy"
            }
        }
    ],
    "comments": 1,
    "comments_url": "https://api.github.com/repos/PrismarineJS/mineflayer/issues/3159/comments",
    "commit_data": [
        {
            "author": {
                "avatar_url": "https://avatars.githubusercontent.com/u/46503702?v=4",
                "events_url": "https://api.github.com/users/zardoy/events{/privacy}",
                "followers_url": "https://api.github.com/users/zardoy/followers",
                "following_url": "https://api.github.com/users/zardoy/following{/other_user}",
                "gists_url": "https://api.github.com/users/zardoy/gists{/gist_id}",
                "gravatar_id": "",
                "html_url": "https://github.com/zardoy",
                "id": 46503702,
                "login": "zardoy",
                "node_id": "MDQ6VXNlcjQ2NTAzNzAy",
                "organizations_url": "https://api.github.com/users/zardoy/orgs",
                "received_events_url": "https://api.github.com/users/zardoy/received_events",
                "repos_url": "https://api.github.com/users/zardoy/repos",
                "site_admin": false,
                "starred_url": "https://api.github.com/users/zardoy/starred{/owner}{/repo}",
                "subscriptions_url": "https://api.github.com/users/zardoy/subscriptions",
                "type": "User",
                "url": "https://api.github.com/users/zardoy"
            },
            "comments_url": "https://api.github.com/repos/PrismarineJS/mineflayer/commits/02d5035f000445fedf7f6fa4f2f2c2722696b3c9/comments",
            "commit": {
                "author": {
                    "date": "2023-08-17T23:15:26Z",
                    "email": "vital2580@icloud.com",
                    "name": "Vitaly"
                },
                "comment_count": 0,
                "committer": {
                    "date": "2023-08-17T23:15:26Z",
                    "email": "noreply@github.com",
                    "name": "GitHub"
                },
                "message": "add gamemode on player init packet",
                "tree": {
                    "sha": "aaeb9251deff5f770527e36513e2f08da7ece406",
                    "url": "https://api.github.com/repos/PrismarineJS/mineflayer/git/trees/aaeb9251deff5f770527e36513e2f08da7ece406"
                },
                "url": "https://api.github.com/repos/PrismarineJS/mineflayer/git/commits/02d5035f000445fedf7f6fa4f2f2c2722696b3c9",
                "verification": {
                    "payload": "tree aaeb9251deff5f770527e36513e2f08da7ece406\nparent d0eb3a1afe6cda7b04ae2f88052cd868ba0c0c4f\nauthor Vitaly <vital2580@icloud.com> 1692314126 +0300\ncommitter GitHub <noreply@github.com> 1692314126 +0300\n\nadd gamemode on player init packet",
                    "reason": "valid",
                    "signature": "-----BEGIN PGP SIGNATURE-----\n\nwsBcBAABCAAQBQJk3qoOCRBK7hj4Ov3rIwAA47sIADm5xoda0y/5ire87rF1Cz/A\nOyRkM9tzRQz1y1Sx3epxZ6YlouKddcqlPlxiC4+Q6d/jdZM3Cwx3Q+x5safJ88i0\niID8XKutdq5x7E/x6zXrmOJttfwFdxVoJLvYaiayfWJDVxiMiEOTEhZGAxnouR68\nM3EgUVjR7DdW1nEhp/JSs4D1c3TLku1Zlw5TAOp0FBJIGLMBELp74ErxiXMx7bm2\nKD1htgi6L/SV3tE2MgMses86ZPDQlcuU53gYMmxMiGCAYe0ou7QCkUr7O1dgbFmV\nfNIcnCA1NFKPT1ODmBDyRhcjdyK/PXgOd23aP3aw5Rp41IALCS+0hm31Qcfz3iw=\n=5mWa\n-----END PGP SIGNATURE-----\n",
                    "verified": true
                }
            },
            "committer": {
                "avatar_url": "https://avatars.githubusercontent.com/u/19864447?v=4",
                "events_url": "https://api.github.com/users/web-flow/events{/privacy}",
                "followers_url": "https://api.github.com/users/web-flow/followers",
                "following_url": "https://api.github.com/users/web-flow/following{/other_user}",
                "gists_url": "https://api.github.com/users/web-flow/gists{/gist_id}",
                "gravatar_id": "",
                "html_url": "https://github.com/web-flow",
                "id": 19864447,
                "login": "web-flow",
                "node_id": "MDQ6VXNlcjE5ODY0NDQ3",
                "organizations_url": "https://api.github.com/users/web-flow/orgs",
                "received_events_url": "https://api.github.com/users/web-flow/received_events",
                "repos_url": "https://api.github.com/users/web-flow/repos",
                "site_admin": false,
                "starred_url": "https://api.github.com/users/web-flow/starred{/owner}{/repo}",
                "subscriptions_url": "https://api.github.com/users/web-flow/subscriptions",
                "type": "User",
                "url": "https://api.github.com/users/web-flow"
            },
            "html_url": "https://github.com/PrismarineJS/mineflayer/commit/02d5035f000445fedf7f6fa4f2f2c2722696b3c9",
            "node_id": "C_kwDOKIaxItoAKDAyZDUwMzVmMDAwNDQ1ZmVkZjdmNmZhNGYyZjJjMjcyMjY5NmIzYzk",
            "parents": [
                {
                    "html_url": "https://github.com/PrismarineJS/mineflayer/commit/d0eb3a1afe6cda7b04ae2f88052cd868ba0c0c4f",
                    "sha": "d0eb3a1afe6cda7b04ae2f88052cd868ba0c0c4f",
                    "url": "https://api.github.com/repos/PrismarineJS/mineflayer/commits/d0eb3a1afe6cda7b04ae2f88052cd868ba0c0c4f"
                }
            ],
            "sha": "02d5035f000445fedf7f6fa4f2f2c2722696b3c9",
            "url": "https://api.github.com/repos/PrismarineJS/mineflayer/commits/02d5035f000445fedf7f6fa4f2f2c2722696b3c9"
        }
    ],
    "commits": 1,
    "commits_url": "https://api.github.com/repos/PrismarineJS/mineflayer/pulls/3159/commits",
    "created_at": "2023-08-18T00:29:18Z",
    "deletions": 0,
    "diff_url": "https://github.com/PrismarineJS/mineflayer/pull/3159.diff",
    "draft": false,
    "head": {
        "label": "zardoy:patch-1",
        "ref": "patch-1",
        "repo": {
            "allow_forking": true,
            "archive_url": "https://api.github.com/repos/zardoy/mineflayer/{archive_format}{/ref}",
            "archived": false,
            "assignees_url": "https://api.github.com/repos/zardoy/mineflayer/assignees{/user}",
            "blobs_url": "https://api.github.com/repos/zardoy/mineflayer/git/blobs{/sha}",
            "branches_url": "https://api.github.com/repos/zardoy/mineflayer/branches{/branch}",
            "clone_url": "https://github.com/zardoy/mineflayer.git",
            "collaborators_url": "https://api.github.com/repos/zardoy/mineflayer/collaborators{/collaborator}",
            "comments_url": "https://api.github.com/repos/zardoy/mineflayer/comments{/number}",
            "commits_url": "https://api.github.com/repos/zardoy/mineflayer/commits{/sha}",
            "compare_url": "https://api.github.com/repos/zardoy/mineflayer/compare/{base}...{head}",
            "contents_url": "https://api.github.com/repos/zardoy/mineflayer/contents/{+path}",
            "contributors_url": "https://api.github.com/repos/zardoy/mineflayer/contributors",
            "created_at": "2023-08-17T23:15:17Z",
            "default_branch": "master",
            "deployments_url": "https://api.github.com/repos/zardoy/mineflayer/deployments",
            "description": "Create Minecraft bots with a powerful, stable, and high level JavaScript API.",
            "disabled": false,
            "downloads_url": "https://api.github.com/repos/zardoy/mineflayer/downloads",
            "events_url": "https://api.github.com/repos/zardoy/mineflayer/events",
            "fork": true,
            "forks": 0,
            "forks_count": 0,
            "forks_url": "https://api.github.com/repos/zardoy/mineflayer/forks",
            "full_name": "zardoy/mineflayer",
            "git_commits_url": "https://api.github.com/repos/zardoy/mineflayer/git/commits{/sha}",
            "git_refs_url": "https://api.github.com/repos/zardoy/mineflayer/git/refs{/sha}",
            "git_tags_url": "https://api.github.com/repos/zardoy/mineflayer/git/tags{/sha}",
            "git_url": "git://github.com/zardoy/mineflayer.git",
            "has_discussions": false,
            "has_downloads": true,
            "has_issues": false,
            "has_pages": false,
            "has_projects": true,
            "has_wiki": true,
            "homepage": "https://prismarinejs.github.io/mineflayer/",
            "hooks_url": "https://api.github.com/repos/zardoy/mineflayer/hooks",
            "html_url": "https://github.com/zardoy/mineflayer",
            "id": 679915810,
            "is_template": false,
            "issue_comment_url": "https://api.github.com/repos/zardoy/mineflayer/issues/comments{/number}",
            "issue_events_url": "https://api.github.com/repos/zardoy/mineflayer/issues/events{/number}",
            "issues_url": "https://api.github.com/repos/zardoy/mineflayer/issues{/number}",
            "keys_url": "https://api.github.com/repos/zardoy/mineflayer/keys{/key_id}",
            "labels_url": "https://api.github.com/repos/zardoy/mineflayer/labels{/name}",
            "language": null,
            "languages_url": "https://api.github.com/repos/zardoy/mineflayer/languages",
            "license": {
                "key": "mit",
                "name": "MIT License",
                "node_id": "MDc6TGljZW5zZTEz",
                "spdx_id": "MIT",
                "url": "https://api.github.com/licenses/mit"
            },
            "merges_url": "https://api.github.com/repos/zardoy/mineflayer/merges",
            "milestones_url": "https://api.github.com/repos/zardoy/mineflayer/milestones{/number}",
            "mirror_url": null,
            "name": "mineflayer",
            "node_id": "R_kgDOKIaxIg",
            "notifications_url": "https://api.github.com/repos/zardoy/mineflayer/notifications{?since,all,participating}",
            "open_issues": 0,
            "open_issues_count": 0,
            "owner": {
                "avatar_url": "https://avatars.githubusercontent.com/u/46503702?v=4",
                "events_url": "https://api.github.com/users/zardoy/events{/privacy}",
                "followers_url": "https://api.github.com/users/zardoy/followers",
                "following_url": "https://api.github.com/users/zardoy/following{/other_user}",
                "gists_url": "https://api.github.com/users/zardoy/gists{/gist_id}",
                "gravatar_id": "",
                "html_url": "https://github.com/zardoy",
                "id": 46503702,
                "login": "zardoy",
                "node_id": "MDQ6VXNlcjQ2NTAzNzAy",
                "organizations_url": "https://api.github.com/users/zardoy/orgs",
                "received_events_url": "https://api.github.com/users/zardoy/received_events",
                "repos_url": "https://api.github.com/users/zardoy/repos",
                "site_admin": false,
                "starred_url": "https://api.github.com/users/zardoy/starred{/owner}{/repo}",
                "subscriptions_url": "https://api.github.com/users/zardoy/subscriptions",
                "type": "User",
                "url": "https://api.github.com/users/zardoy"
            },
            "private": false,
            "pulls_url": "https://api.github.com/repos/zardoy/mineflayer/pulls{/number}",
            "pushed_at": "2023-10-13T20:41:50Z",
            "releases_url": "https://api.github.com/repos/zardoy/mineflayer/releases{/id}",
            "size": 12691,
            "ssh_url": "git@github.com:zardoy/mineflayer.git",
            "stargazers_count": 0,
            "stargazers_url": "https://api.github.com/repos/zardoy/mineflayer/stargazers",
            "statuses_url": "https://api.github.com/repos/zardoy/mineflayer/statuses/{sha}",
            "subscribers_url": "https://api.github.com/repos/zardoy/mineflayer/subscribers",
            "subscription_url": "https://api.github.com/repos/zardoy/mineflayer/subscription",
            "svn_url": "https://github.com/zardoy/mineflayer",
            "tags_url": "https://api.github.com/repos/zardoy/mineflayer/tags",
            "teams_url": "https://api.github.com/repos/zardoy/mineflayer/teams",
            "topics": [],
            "trees_url": "https://api.github.com/repos/zardoy/mineflayer/git/trees{/sha}",
            "updated_at": "2023-08-17T23:15:18Z",
            "url": "https://api.github.com/repos/zardoy/mineflayer",
            "visibility": "public",
            "watchers": 0,
            "watchers_count": 0,
            "web_commit_signoff_required": false
        },
        "sha": "02d5035f000445fedf7f6fa4f2f2c2722696b3c9",
        "user": {
            "avatar_url": "https://avatars.githubusercontent.com/u/46503702?v=4",
            "events_url": "https://api.github.com/users/zardoy/events{/privacy}",
            "followers_url": "https://api.github.com/users/zardoy/followers",
            "following_url": "https://api.github.com/users/zardoy/following{/other_user}",
            "gists_url": "https://api.github.com/users/zardoy/gists{/gist_id}",
            "gravatar_id": "",
            "html_url": "https://github.com/zardoy",
            "id": 46503702,
            "login": "zardoy",
            "node_id": "MDQ6VXNlcjQ2NTAzNzAy",
            "organizations_url": "https://api.github.com/users/zardoy/orgs",
            "received_events_url": "https://api.github.com/users/zardoy/received_events",
            "repos_url": "https://api.github.com/users/zardoy/repos",
            "site_admin": false,
            "starred_url": "https://api.github.com/users/zardoy/starred{/owner}{/repo}",
            "subscriptions_url": "https://api.github.com/users/zardoy/subscriptions",
            "type": "User",
            "url": "https://api.github.com/users/zardoy"
        }
    },
    "html_url": "https://github.com/PrismarineJS/mineflayer/pull/3159",
    "id": 1479825177,
    "issue_url": "https://api.github.com/repos/PrismarineJS/mineflayer/issues/3159",
    "labels": [],
    "locked": false,
    "maintainer_can_modify": false,
    "merge_commit_sha": "4ce69015c8dbf5fdd002f1e9838c044a86d6ca2c",
    "mergeable": null,
    "mergeable_state": "unknown",
    "merged": false,
    "merged_at": null,
    "merged_by": null,
    "milestone": null,
    "node_id": "PR_kwDOABOYWc5YNFcZ",
    "number": 3159,
    "patch_url": "https://github.com/PrismarineJS/mineflayer/pull/3159.patch",
    "rebaseable": null,
    "requested_reviewers": [],
    "requested_teams": [],
    "review_comment_url": "https://api.github.com/repos/PrismarineJS/mineflayer/pulls/comments{/number}",
    "review_comments": 0,
    "review_comments_url": "https://api.github.com/repos/PrismarineJS/mineflayer/pulls/3159/comments",
    "state": "closed",
    "statuses_url": "https://api.github.com/repos/PrismarineJS/mineflayer/statuses/02d5035f000445fedf7f6fa4f2f2c2722696b3c9",
    "title": "add gamemode on player init packet",
    "updated_at": "2023-08-18T00:33:32Z",
    "url": "https://api.github.com/repos/PrismarineJS/mineflayer/pulls/3159",
    "user": {
        "avatar_url": "https://avatars.githubusercontent.com/u/46503702?v=4",
        "events_url": "https://api.github.com/users/zardoy/events{/privacy}",
        "followers_url": "https://api.github.com/users/zardoy/followers",
        "following_url": "https://api.github.com/users/zardoy/following{/other_user}",
        "gists_url": "https://api.github.com/users/zardoy/gists{/gist_id}",
        "gravatar_id": "",
        "html_url": "https://github.com/zardoy",
        "id": 46503702,
        "login": "zardoy",
        "node_id": "MDQ6VXNlcjQ2NTAzNzAy",
        "organizations_url": "https://api.github.com/users/zardoy/orgs",
        "received_events_url": "https://api.github.com/users/zardoy/received_events",
        "repos_url": "https://api.github.com/users/zardoy/repos",
        "site_admin": false,
        "starred_url": "https://api.github.com/users/zardoy/starred{/owner}{/repo}",
        "subscriptions_url": "https://api.github.com/users/zardoy/subscriptions",
        "type": "User",
        "url": "https://api.github.com/users/zardoy"
    }
}