{
    "_links": {
        "comments": {
            "href": "https://api.github.com/repos/PrismarineJS/mineflayer/issues/3191/comments"
        },
        "commits": {
            "href": "https://api.github.com/repos/PrismarineJS/mineflayer/pulls/3191/commits"
        },
        "html": {
            "href": "https://github.com/PrismarineJS/mineflayer/pull/3191"
        },
        "issue": {
            "href": "https://api.github.com/repos/PrismarineJS/mineflayer/issues/3191"
        },
        "review_comment": {
            "href": "https://api.github.com/repos/PrismarineJS/mineflayer/pulls/comments{/number}"
        },
        "review_comments": {
            "href": "https://api.github.com/repos/PrismarineJS/mineflayer/pulls/3191/comments"
        },
        "self": {
            "href": "https://api.github.com/repos/PrismarineJS/mineflayer/pulls/3191"
        },
        "statuses": {
            "href": "https://api.github.com/repos/PrismarineJS/mineflayer/statuses/0e59cae29f93bf89c01f5ac10cc58f43a2b94f6c"
        }
    },
    "active_lock_reason": null,
    "additions": 4,
    "assignee": null,
    "assignees": [],
    "author_association": "CONTRIBUTOR",
    "auto_merge": null,
    "base": {
        "label": "PrismarineJS:master",
        "ref": "master",
        "repo": {
            "allow_forking": true,
            "archive_url": "https://api.github.com/repos/PrismarineJS/mineflayer/{archive_format}{/ref}",
            "archived": false,
            "assignees_url": "https://api.github.com/repos/PrismarineJS/mineflayer/assignees{/user}",
            "blobs_url": "https://api.github.com/repos/PrismarineJS/mineflayer/git/blobs{/sha}",
            "branches_url": "https://api.github.com/repos/PrismarineJS/mineflayer/branches{/branch}",
            "clone_url": "https://github.com/PrismarineJS/mineflayer.git",
            "collaborators_url": "https://api.github.com/repos/PrismarineJS/mineflayer/collaborators{/collaborator}",
            "comments_url": "https://api.github.com/repos/PrismarineJS/mineflayer/comments{/number}",
            "commits_url": "https://api.github.com/repos/PrismarineJS/mineflayer/commits{/sha}",
            "compare_url": "https://api.github.com/repos/PrismarineJS/mineflayer/compare/{base}...{head}",
            "contents_url": "https://api.github.com/repos/PrismarineJS/mineflayer/contents/{+path}",
            "contributors_url": "https://api.github.com/repos/PrismarineJS/mineflayer/contributors",
            "created_at": "2011-01-23T09:41:55Z",
            "default_branch": "master",
            "deployments_url": "https://api.github.com/repos/PrismarineJS/mineflayer/deployments",
            "description": "Create Minecraft bots with a powerful, stable, and high level JavaScript API.",
            "disabled": false,
            "downloads_url": "https://api.github.com/repos/PrismarineJS/mineflayer/downloads",
            "events_url": "https://api.github.com/repos/PrismarineJS/mineflayer/events",
            "fork": false,
            "forks": 813,
            "forks_count": 813,
            "forks_url": "https://api.github.com/repos/PrismarineJS/mineflayer/forks",
            "full_name": "PrismarineJS/mineflayer",
            "git_commits_url": "https://api.github.com/repos/PrismarineJS/mineflayer/git/commits{/sha}",
            "git_refs_url": "https://api.github.com/repos/PrismarineJS/mineflayer/git/refs{/sha}",
            "git_tags_url": "https://api.github.com/repos/PrismarineJS/mineflayer/git/tags{/sha}",
            "git_url": "git://github.com/PrismarineJS/mineflayer.git",
            "has_discussions": true,
            "has_downloads": true,
            "has_issues": true,
            "has_pages": true,
            "has_projects": true,
            "has_wiki": true,
            "homepage": "https://prismarinejs.github.io/mineflayer/",
            "hooks_url": "https://api.github.com/repos/PrismarineJS/mineflayer/hooks",
            "html_url": "https://github.com/PrismarineJS/mineflayer",
            "id": 1284185,
            "is_template": false,
            "issue_comment_url": "https://api.github.com/repos/PrismarineJS/mineflayer/issues/comments{/number}",
            "issue_events_url": "https://api.github.com/repos/PrismarineJS/mineflayer/issues/events{/number}",
            "issues_url": "https://api.github.com/repos/PrismarineJS/mineflayer/issues{/number}",
            "keys_url": "https://api.github.com/repos/PrismarineJS/mineflayer/keys{/key_id}",
            "labels_url": "https://api.github.com/repos/PrismarineJS/mineflayer/labels{/name}",
            "language": "JavaScript",
            "languages_url": "https://api.github.com/repos/PrismarineJS/mineflayer/languages",
            "license": {
                "key": "mit",
                "name": "MIT License",
                "node_id": "MDc6TGljZW5zZTEz",
                "spdx_id": "MIT",
                "url": "https://api.github.com/licenses/mit"
            },
            "merges_url": "https://api.github.com/repos/PrismarineJS/mineflayer/merges",
            "milestones_url": "https://api.github.com/repos/PrismarineJS/mineflayer/milestones{/number}",
            "mirror_url": null,
            "name": "mineflayer",
            "node_id": "MDEwOlJlcG9zaXRvcnkxMjg0MTg1",
            "notifications_url": "https://api.github.com/repos/PrismarineJS/mineflayer/notifications{?since,all,participating}",
            "open_issues": 292,
            "open_issues_count": 292,
            "owner": {
                "avatar_url": "https://avatars.githubusercontent.com/u/11053411?v=4",
                "events_url": "https://api.github.com/users/PrismarineJS/events{/privacy}",
                "followers_url": "https://api.github.com/users/PrismarineJS/followers",
                "following_url": "https://api.github.com/users/PrismarineJS/following{/other_user}",
                "gists_url": "https://api.github.com/users/PrismarineJS/gists{/gist_id}",
                "gravatar_id": "",
                "html_url": "https://github.com/PrismarineJS",
                "id": 11053411,
                "login": "PrismarineJS",
                "node_id": "MDEyOk9yZ2FuaXphdGlvbjExMDUzNDEx",
                "organizations_url": "https://api.github.com/users/PrismarineJS/orgs",
                "received_events_url": "https://api.github.com/users/PrismarineJS/received_events",
                "repos_url": "https://api.github.com/users/PrismarineJS/repos",
                "site_admin": false,
                "starred_url": "https://api.github.com/users/PrismarineJS/starred{/owner}{/repo}",
                "subscriptions_url": "https://api.github.com/users/PrismarineJS/subscriptions",
                "type": "Organization",
                "url": "https://api.github.com/users/PrismarineJS"
            },
            "private": false,
            "pulls_url": "https://api.github.com/repos/PrismarineJS/mineflayer/pulls{/number}",
            "pushed_at": "2023-11-12T21:05:55Z",
            "releases_url": "https://api.github.com/repos/PrismarineJS/mineflayer/releases{/id}",
            "size": 12808,
            "ssh_url": "git@github.com:PrismarineJS/mineflayer.git",
            "stargazers_count": 4244,
            "stargazers_url": "https://api.github.com/repos/PrismarineJS/mineflayer/stargazers",
            "statuses_url": "https://api.github.com/repos/PrismarineJS/mineflayer/statuses/{sha}",
            "subscribers_url": "https://api.github.com/repos/PrismarineJS/mineflayer/subscribers",
            "subscription_url": "https://api.github.com/repos/PrismarineJS/mineflayer/subscription",
            "svn_url": "https://github.com/PrismarineJS/mineflayer",
            "tags_url": "https://api.github.com/repos/PrismarineJS/mineflayer/tags",
            "teams_url": "https://api.github.com/repos/PrismarineJS/mineflayer/teams",
            "topics": [
                "bot",
                "minecraft",
                "minecraft-api",
                "minecraft-bot",
                "network",
                "nodejs"
            ],
            "trees_url": "https://api.github.com/repos/PrismarineJS/mineflayer/git/trees{/sha}",
            "updated_at": "2023-12-03T11:40:52Z",
            "url": "https://api.github.com/repos/PrismarineJS/mineflayer",
            "visibility": "public",
            "watchers": 4244,
            "watchers_count": 4244,
            "web_commit_signoff_required": false
        },
        "sha": "e571e54edf46ac6da000e1c84f36bec3b75ccf24",
        "user": {
            "avatar_url": "https://avatars.githubusercontent.com/u/11053411?v=4",
            "events_url": "https://api.github.com/users/PrismarineJS/events{/privacy}",
            "followers_url": "https://api.github.com/users/PrismarineJS/followers",
            "following_url": "https://api.github.com/users/PrismarineJS/following{/other_user}",
            "gists_url": "https://api.github.com/users/PrismarineJS/gists{/gist_id}",
            "gravatar_id": "",
            "html_url": "https://github.com/PrismarineJS",
            "id": 11053411,
            "login": "PrismarineJS",
            "node_id": "MDEyOk9yZ2FuaXphdGlvbjExMDUzNDEx",
            "organizations_url": "https://api.github.com/users/PrismarineJS/orgs",
            "received_events_url": "https://api.github.com/users/PrismarineJS/received_events",
            "repos_url": "https://api.github.com/users/PrismarineJS/repos",
            "site_admin": false,
            "starred_url": "https://api.github.com/users/PrismarineJS/starred{/owner}{/repo}",
            "subscriptions_url": "https://api.github.com/users/PrismarineJS/subscriptions",
            "type": "Organization",
            "url": "https://api.github.com/users/PrismarineJS"
        }
    },
    "body": "Currently mineflayer will throw if given a scoreboard objective packet with the update action if the objective does not exist.\r\n\r\nThis \"fixes\" that by simply emitting an error event instead, allowing the user to do their own error handling.\r\n\r\n\r\nVanilla client will also throw when this happens, but will not disconnect the client, so I think simply emitting the error event is the right thing to do, so the user can handle it themselves and decide whether or not to disconnect. Cross-checked only with Vanilla 1.8 client, might have different behaviour in higher versions, but regardless I don't think we can handle it any different than this.",
    "changed_files": 1,
    "closed_at": "2023-09-10T18:55:06Z",
    "comment_data": [
        {
            "_links": {
                "html": {
                    "href": "https://github.com/PrismarineJS/mineflayer/pull/3191#discussion_r1320602754"
                },
                "pull_request": {
                    "href": "https://api.github.com/repos/PrismarineJS/mineflayer/pulls/3191"
                },
                "self": {
                    "href": "https://api.github.com/repos/PrismarineJS/mineflayer/pulls/comments/1320602754"
                }
            },
            "author_association": "MEMBER",
            "body": "in operator has unexpected behavior in JavaScript, see https://developer.mozilla.org/en-US/docs/Web/JavaScript/Reference/Operators/in\r\nIn short it operates on Object which is not only a dictionary\r\n\r\nOne way that works is scoreboards[packet.name] !== undefined ",
            "commit_id": "0e59cae29f93bf89c01f5ac10cc58f43a2b94f6c",
            "created_at": "2023-09-09T16:25:57Z",
            "diff_hunk": "@@ -19,6 +19,10 @@ function inject (bot) {\n     }\n \n     if (packet.action === 2) {\n+      if (!(packet.name in scoreboards)) {",
            "html_url": "https://github.com/PrismarineJS/mineflayer/pull/3191#discussion_r1320602754",
            "id": 1320602754,
            "line": null,
            "node_id": "PRRC_kwDOABOYWc5OtsyC",
            "original_commit_id": "31b772cf0650c410c3f2114648403bb079baec22",
            "original_line": 22,
            "original_position": 4,
            "original_start_line": null,
            "path": "lib/plugins/scoreboard.js",
            "position": null,
            "pull_request_review_id": 1618669216,
            "pull_request_url": "https://api.github.com/repos/PrismarineJS/mineflayer/pulls/3191",
            "reactions": {
                "+1": 0,
                "-1": 0,
                "confused": 0,
                "eyes": 0,
                "heart": 0,
                "hooray": 0,
                "laugh": 0,
                "rocket": 0,
                "total_count": 0,
                "url": "https://api.github.com/repos/PrismarineJS/mineflayer/pulls/comments/1320602754/reactions"
            },
            "side": "RIGHT",
            "start_line": null,
            "start_side": null,
            "subject_type": "line",
            "updated_at": "2023-09-09T16:25:57Z",
            "url": "https://api.github.com/repos/PrismarineJS/mineflayer/pulls/comments/1320602754",
            "user": {
                "avatar_url": "https://avatars.githubusercontent.com/u/2346494?v=4",
                "events_url": "https://api.github.com/users/rom1504/events{/privacy}",
                "followers_url": "https://api.github.com/users/rom1504/followers",
                "following_url": "https://api.github.com/users/rom1504/following{/other_user}",
                "gists_url": "https://api.github.com/users/rom1504/gists{/gist_id}",
                "gravatar_id": "",
                "html_url": "https://github.com/rom1504",
                "id": 2346494,
                "login": "rom1504",
                "node_id": "MDQ6VXNlcjIzNDY0OTQ=",
                "organizations_url": "https://api.github.com/users/rom1504/orgs",
                "received_events_url": "https://api.github.com/users/rom1504/received_events",
                "repos_url": "https://api.github.com/users/rom1504/repos",
                "site_admin": false,
                "starred_url": "https://api.github.com/users/rom1504/starred{/owner}{/repo}",
                "subscriptions_url": "https://api.github.com/users/rom1504/subscriptions",
                "type": "User",
                "url": "https://api.github.com/users/rom1504"
            }
        },
        {
            "_links": {
                "html": {
                    "href": "https://github.com/PrismarineJS/mineflayer/pull/3191#discussion_r1320604340"
                },
                "pull_request": {
                    "href": "https://api.github.com/repos/PrismarineJS/mineflayer/pulls/3191"
                },
                "self": {
                    "href": "https://api.github.com/repos/PrismarineJS/mineflayer/pulls/comments/1320604340"
                }
            },
            "author_association": "CONTRIBUTOR",
            "body": "We know that scoreboards is a dictionary so that shouldn't really be an issue as far as I am concerned?",
            "commit_id": "0e59cae29f93bf89c01f5ac10cc58f43a2b94f6c",
            "created_at": "2023-09-09T16:34:06Z",
            "diff_hunk": "@@ -19,6 +19,10 @@ function inject (bot) {\n     }\n \n     if (packet.action === 2) {\n+      if (!(packet.name in scoreboards)) {",
            "html_url": "https://github.com/PrismarineJS/mineflayer/pull/3191#discussion_r1320604340",
            "id": 1320604340,
            "in_reply_to_id": 1320602754,
            "line": null,
            "node_id": "PRRC_kwDOABOYWc5OttK0",
            "original_commit_id": "31b772cf0650c410c3f2114648403bb079baec22",
            "original_line": 22,
            "original_position": 4,
            "original_start_line": null,
            "path": "lib/plugins/scoreboard.js",
            "position": null,
            "pull_request_review_id": 1618670036,
            "pull_request_url": "https://api.github.com/repos/PrismarineJS/mineflayer/pulls/3191",
            "reactions": {
                "+1": 0,
                "-1": 0,
                "confused": 0,
                "eyes": 0,
                "heart": 0,
                "hooray": 0,
                "laugh": 0,
                "rocket": 0,
                "total_count": 0,
                "url": "https://api.github.com/repos/PrismarineJS/mineflayer/pulls/comments/1320604340/reactions"
            },
            "side": "RIGHT",
            "start_line": null,
            "start_side": null,
            "subject_type": "line",
            "updated_at": "2023-09-09T16:34:06Z",
            "url": "https://api.github.com/repos/PrismarineJS/mineflayer/pulls/comments/1320604340",
            "user": {
                "avatar_url": "https://avatars.githubusercontent.com/u/13559737?v=4",
                "events_url": "https://api.github.com/users/frej4189/events{/privacy}",
                "followers_url": "https://api.github.com/users/frej4189/followers",
                "following_url": "https://api.github.com/users/frej4189/following{/other_user}",
                "gists_url": "https://api.github.com/users/frej4189/gists{/gist_id}",
                "gravatar_id": "",
                "html_url": "https://github.com/frej4189",
                "id": 13559737,
                "login": "frej4189",
                "node_id": "MDQ6VXNlcjEzNTU5NzM3",
                "organizations_url": "https://api.github.com/users/frej4189/orgs",
                "received_events_url": "https://api.github.com/users/frej4189/received_events",
                "repos_url": "https://api.github.com/users/frej4189/repos",
                "site_admin": false,
                "starred_url": "https://api.github.com/users/frej4189/starred{/owner}{/repo}",
                "subscriptions_url": "https://api.github.com/users/frej4189/subscriptions",
                "type": "User",
                "url": "https://api.github.com/users/frej4189"
            }
        },
        {
            "_links": {
                "html": {
                    "href": "https://github.com/PrismarineJS/mineflayer/pull/3191#discussion_r1320606668"
                },
                "pull_request": {
                    "href": "https://api.github.com/repos/PrismarineJS/mineflayer/pulls/3191"
                },
                "self": {
                    "href": "https://api.github.com/repos/PrismarineJS/mineflayer/pulls/comments/1320606668"
                }
            },
            "author_association": "MEMBER",
            "body": "scoreboards is not analogous to a dictionary, it's an Object. Which has special properties inside of it, relating to the prototype. Even if a property inside scoreboards is undefined, `in` will return true because the property is not considered \"empty\" inside JS.\r\n\r\nEg.\r\n```js\r\nconst x = { y: 2 }\r\nx.y = undefined\r\n'y' in x == true\r\n```\r\n\r\nAlso, this should probably be using `Object.hasOwn(scoreboards, packet.name)` to not match on prototype data inside the object.",
            "commit_id": "0e59cae29f93bf89c01f5ac10cc58f43a2b94f6c",
            "created_at": "2023-09-09T16:47:17Z",
            "diff_hunk": "@@ -19,6 +19,10 @@ function inject (bot) {\n     }\n \n     if (packet.action === 2) {\n+      if (!(packet.name in scoreboards)) {",
            "html_url": "https://github.com/PrismarineJS/mineflayer/pull/3191#discussion_r1320606668",
            "id": 1320606668,
            "in_reply_to_id": 1320602754,
            "line": null,
            "node_id": "PRRC_kwDOABOYWc5OttvM",
            "original_commit_id": "31b772cf0650c410c3f2114648403bb079baec22",
            "original_line": 22,
            "original_position": 4,
            "original_start_line": null,
            "path": "lib/plugins/scoreboard.js",
            "position": null,
            "pull_request_review_id": 1618671325,
            "pull_request_url": "https://api.github.com/repos/PrismarineJS/mineflayer/pulls/3191",
            "reactions": {
                "+1": 0,
                "-1": 0,
                "confused": 0,
                "eyes": 0,
                "heart": 0,
                "hooray": 0,
                "laugh": 0,
                "rocket": 0,
                "total_count": 0,
                "url": "https://api.github.com/repos/PrismarineJS/mineflayer/pulls/comments/1320606668/reactions"
            },
            "side": "RIGHT",
            "start_line": null,
            "start_side": null,
            "subject_type": "line",
            "updated_at": "2023-09-09T16:47:17Z",
            "url": "https://api.github.com/repos/PrismarineJS/mineflayer/pulls/comments/1320606668",
            "user": {
                "avatar_url": "https://avatars.githubusercontent.com/u/13713600?v=4",
                "events_url": "https://api.github.com/users/extremeheat/events{/privacy}",
                "followers_url": "https://api.github.com/users/extremeheat/followers",
                "following_url": "https://api.github.com/users/extremeheat/following{/other_user}",
                "gists_url": "https://api.github.com/users/extremeheat/gists{/gist_id}",
                "gravatar_id": "",
                "html_url": "https://github.com/extremeheat",
                "id": 13713600,
                "login": "extremeheat",
                "node_id": "MDQ6VXNlcjEzNzEzNjAw",
                "organizations_url": "https://api.github.com/users/extremeheat/orgs",
                "received_events_url": "https://api.github.com/users/extremeheat/received_events",
                "repos_url": "https://api.github.com/users/extremeheat/repos",
                "site_admin": false,
                "starred_url": "https://api.github.com/users/extremeheat/starred{/owner}{/repo}",
                "subscriptions_url": "https://api.github.com/users/extremeheat/subscriptions",
                "type": "User",
                "url": "https://api.github.com/users/extremeheat"
            }
        },
        {
            "_links": {
                "html": {
                    "href": "https://github.com/PrismarineJS/mineflayer/pull/3191#discussion_r1320610347"
                },
                "pull_request": {
                    "href": "https://api.github.com/repos/PrismarineJS/mineflayer/pulls/3191"
                },
                "self": {
                    "href": "https://api.github.com/repos/PrismarineJS/mineflayer/pulls/comments/1320610347"
                }
            },
            "author_association": "CONTRIBUTOR",
            "body": "Makes sense.",
            "commit_id": "0e59cae29f93bf89c01f5ac10cc58f43a2b94f6c",
            "created_at": "2023-09-09T17:07:55Z",
            "diff_hunk": "@@ -19,6 +19,10 @@ function inject (bot) {\n     }\n \n     if (packet.action === 2) {\n+      if (!(packet.name in scoreboards)) {",
            "html_url": "https://github.com/PrismarineJS/mineflayer/pull/3191#discussion_r1320610347",
            "id": 1320610347,
            "in_reply_to_id": 1320602754,
            "line": null,
            "node_id": "PRRC_kwDOABOYWc5Otuor",
            "original_commit_id": "31b772cf0650c410c3f2114648403bb079baec22",
            "original_line": 22,
            "original_position": 4,
            "original_start_line": null,
            "path": "lib/plugins/scoreboard.js",
            "position": null,
            "pull_request_review_id": 1618673235,
            "pull_request_url": "https://api.github.com/repos/PrismarineJS/mineflayer/pulls/3191",
            "reactions": {
                "+1": 0,
                "-1": 0,
                "confused": 0,
                "eyes": 0,
                "heart": 0,
                "hooray": 0,
                "laugh": 0,
                "rocket": 0,
                "total_count": 0,
                "url": "https://api.github.com/repos/PrismarineJS/mineflayer/pulls/comments/1320610347/reactions"
            },
            "side": "RIGHT",
            "start_line": null,
            "start_side": null,
            "subject_type": "line",
            "updated_at": "2023-09-09T17:07:55Z",
            "url": "https://api.github.com/repos/PrismarineJS/mineflayer/pulls/comments/1320610347",
            "user": {
                "avatar_url": "https://avatars.githubusercontent.com/u/13559737?v=4",
                "events_url": "https://api.github.com/users/frej4189/events{/privacy}",
                "followers_url": "https://api.github.com/users/frej4189/followers",
                "following_url": "https://api.github.com/users/frej4189/following{/other_user}",
                "gists_url": "https://api.github.com/users/frej4189/gists{/gist_id}",
                "gravatar_id": "",
                "html_url": "https://github.com/frej4189",
                "id": 13559737,
                "login": "frej4189",
                "node_id": "MDQ6VXNlcjEzNTU5NzM3",
                "organizations_url": "https://api.github.com/users/frej4189/orgs",
                "received_events_url": "https://api.github.com/users/frej4189/received_events",
                "repos_url": "https://api.github.com/users/frej4189/repos",
                "site_admin": false,
                "starred_url": "https://api.github.com/users/frej4189/starred{/owner}{/repo}",
                "subscriptions_url": "https://api.github.com/users/frej4189/subscriptions",
                "type": "User",
                "url": "https://api.github.com/users/frej4189"
            }
        },
        {
            "_links": {
                "html": {
                    "href": "https://github.com/PrismarineJS/mineflayer/pull/3191#discussion_r1320619585"
                },
                "pull_request": {
                    "href": "https://api.github.com/repos/PrismarineJS/mineflayer/pulls/3191"
                },
                "self": {
                    "href": "https://api.github.com/repos/PrismarineJS/mineflayer/pulls/comments/1320619585"
                }
            },
            "author_association": "CONTRIBUTOR",
            "body": "Fixed with latest commit.",
            "commit_id": "0e59cae29f93bf89c01f5ac10cc58f43a2b94f6c",
            "created_at": "2023-09-09T18:01:27Z",
            "diff_hunk": "@@ -19,6 +19,10 @@ function inject (bot) {\n     }\n \n     if (packet.action === 2) {\n+      if (!(packet.name in scoreboards)) {",
            "html_url": "https://github.com/PrismarineJS/mineflayer/pull/3191#discussion_r1320619585",
            "id": 1320619585,
            "in_reply_to_id": 1320602754,
            "line": null,
            "node_id": "PRRC_kwDOABOYWc5Otw5B",
            "original_commit_id": "31b772cf0650c410c3f2114648403bb079baec22",
            "original_line": 22,
            "original_position": 4,
            "original_start_line": null,
            "path": "lib/plugins/scoreboard.js",
            "position": null,
            "pull_request_review_id": 1618678468,
            "pull_request_url": "https://api.github.com/repos/PrismarineJS/mineflayer/pulls/3191",
            "reactions": {
                "+1": 0,
                "-1": 0,
                "confused": 0,
                "eyes": 0,
                "heart": 0,
                "hooray": 0,
                "laugh": 0,
                "rocket": 0,
                "total_count": 0,
                "url": "https://api.github.com/repos/PrismarineJS/mineflayer/pulls/comments/1320619585/reactions"
            },
            "side": "RIGHT",
            "start_line": null,
            "start_side": null,
            "subject_type": "line",
            "updated_at": "2023-09-09T18:01:27Z",
            "url": "https://api.github.com/repos/PrismarineJS/mineflayer/pulls/comments/1320619585",
            "user": {
                "avatar_url": "https://avatars.githubusercontent.com/u/13559737?v=4",
                "events_url": "https://api.github.com/users/frej4189/events{/privacy}",
                "followers_url": "https://api.github.com/users/frej4189/followers",
                "following_url": "https://api.github.com/users/frej4189/following{/other_user}",
                "gists_url": "https://api.github.com/users/frej4189/gists{/gist_id}",
                "gravatar_id": "",
                "html_url": "https://github.com/frej4189",
                "id": 13559737,
                "login": "frej4189",
                "node_id": "MDQ6VXNlcjEzNTU5NzM3",
                "organizations_url": "https://api.github.com/users/frej4189/orgs",
                "received_events_url": "https://api.github.com/users/frej4189/received_events",
                "repos_url": "https://api.github.com/users/frej4189/repos",
                "site_admin": false,
                "starred_url": "https://api.github.com/users/frej4189/starred{/owner}{/repo}",
                "subscriptions_url": "https://api.github.com/users/frej4189/subscriptions",
                "type": "User",
                "url": "https://api.github.com/users/frej4189"
            }
        }
    ],
    "comment_regular_data": [],
    "comments": 0,
    "comments_url": "https://api.github.com/repos/PrismarineJS/mineflayer/issues/3191/comments",
    "commit_data": [
        {
            "author": null,
            "comments_url": "https://api.github.com/repos/PrismarineJS/mineflayer/commits/6f54d3d23d4dc3dc37ab84ed7f2cd7dd825b7a12/comments",
            "commit": {
                "author": {
                    "date": "2023-09-09T15:31:47Z",
                    "email": "frej@valoks.com",
                    "name": "Frej Alexander Nielsen"
                },
                "comment_count": 0,
                "committer": {
                    "date": "2023-09-09T15:31:47Z",
                    "email": "frej@valoks.com",
                    "name": "Frej Alexander Nielsen"
                },
                "message": "Handle unknown scoreboard objectives",
                "tree": {
                    "sha": "30a9bd507299a16904f017a3f584f1b8cc483709",
                    "url": "https://api.github.com/repos/PrismarineJS/mineflayer/git/trees/30a9bd507299a16904f017a3f584f1b8cc483709"
                },
                "url": "https://api.github.com/repos/PrismarineJS/mineflayer/git/commits/6f54d3d23d4dc3dc37ab84ed7f2cd7dd825b7a12",
                "verification": {
                    "payload": null,
                    "reason": "unsigned",
                    "signature": null,
                    "verified": false
                }
            },
            "committer": null,
            "html_url": "https://github.com/PrismarineJS/mineflayer/commit/6f54d3d23d4dc3dc37ab84ed7f2cd7dd825b7a12",
            "node_id": "C_kwDOIn03k9oAKDZmNTRkM2QyM2Q0ZGMzZGMzN2FiODRlZDdmMmNkN2RkODI1YjdhMTI",
            "parents": [
                {
                    "html_url": "https://github.com/PrismarineJS/mineflayer/commit/7474564da5432295c682e8a4f827f58e3c3f3be8",
                    "sha": "7474564da5432295c682e8a4f827f58e3c3f3be8",
                    "url": "https://api.github.com/repos/PrismarineJS/mineflayer/commits/7474564da5432295c682e8a4f827f58e3c3f3be8"
                }
            ],
            "sha": "6f54d3d23d4dc3dc37ab84ed7f2cd7dd825b7a12",
            "url": "https://api.github.com/repos/PrismarineJS/mineflayer/commits/6f54d3d23d4dc3dc37ab84ed7f2cd7dd825b7a12"
        },
        {
            "author": null,
            "comments_url": "https://api.github.com/repos/PrismarineJS/mineflayer/commits/955d4bb901775e21a239e19a39b1fd82e89e6903/comments",
            "commit": {
                "author": {
                    "date": "2023-09-09T15:36:02Z",
                    "email": "frej@valoks.com",
                    "name": "Frej Alexander Nielsen"
                },
                "comment_count": 0,
                "committer": {
                    "date": "2023-09-09T15:36:02Z",
                    "email": "frej@valoks.com",
                    "name": "Frej Alexander Nielsen"
                },
                "message": "Fix lint",
                "tree": {
                    "sha": "b5186e3a6b1d58bfcf852a33b9bd4566a33ea51d",
                    "url": "https://api.github.com/repos/PrismarineJS/mineflayer/git/trees/b5186e3a6b1d58bfcf852a33b9bd4566a33ea51d"
                },
                "url": "https://api.github.com/repos/PrismarineJS/mineflayer/git/commits/955d4bb901775e21a239e19a39b1fd82e89e6903",
                "verification": {
                    "payload": null,
                    "reason": "unsigned",
                    "signature": null,
                    "verified": false
                }
            },
            "committer": null,
            "html_url": "https://github.com/PrismarineJS/mineflayer/commit/955d4bb901775e21a239e19a39b1fd82e89e6903",
            "node_id": "C_kwDOIn03k9oAKDk1NWQ0YmI5MDE3NzVlMjFhMjM5ZTE5YTM5YjFmZDgyZTg5ZTY5MDM",
            "parents": [
                {
                    "html_url": "https://github.com/PrismarineJS/mineflayer/commit/6f54d3d23d4dc3dc37ab84ed7f2cd7dd825b7a12",
                    "sha": "6f54d3d23d4dc3dc37ab84ed7f2cd7dd825b7a12",
                    "url": "https://api.github.com/repos/PrismarineJS/mineflayer/commits/6f54d3d23d4dc3dc37ab84ed7f2cd7dd825b7a12"
                }
            ],
            "sha": "955d4bb901775e21a239e19a39b1fd82e89e6903",
            "url": "https://api.github.com/repos/PrismarineJS/mineflayer/commits/955d4bb901775e21a239e19a39b1fd82e89e6903"
        },
        {
            "author": null,
            "comments_url": "https://api.github.com/repos/PrismarineJS/mineflayer/commits/e9e81ace891c3e42a8e1a3687e29a8b8bafc02d3/comments",
            "commit": {
                "author": {
                    "date": "2023-09-09T15:41:31Z",
                    "email": "frej@valoks.com",
                    "name": "Frej Alexander Nielsen"
                },
                "comment_count": 0,
                "committer": {
                    "date": "2023-09-09T15:41:31Z",
                    "email": "frej@valoks.com",
                    "name": "Frej Alexander Nielsen"
                },
                "message": "Throw as error instead of string",
                "tree": {
                    "sha": "54679263b3804bf2889782e41afd40b2dcd89a3c",
                    "url": "https://api.github.com/repos/PrismarineJS/mineflayer/git/trees/54679263b3804bf2889782e41afd40b2dcd89a3c"
                },
                "url": "https://api.github.com/repos/PrismarineJS/mineflayer/git/commits/e9e81ace891c3e42a8e1a3687e29a8b8bafc02d3",
                "verification": {
                    "payload": null,
                    "reason": "unsigned",
                    "signature": null,
                    "verified": false
                }
            },
            "committer": null,
            "html_url": "https://github.com/PrismarineJS/mineflayer/commit/e9e81ace891c3e42a8e1a3687e29a8b8bafc02d3",
            "node_id": "C_kwDOIn03k9oAKGU5ZTgxYWNlODkxYzNlNDJhOGUxYTM2ODdlMjlhOGI4YmFmYzAyZDM",
            "parents": [
                {
                    "html_url": "https://github.com/PrismarineJS/mineflayer/commit/955d4bb901775e21a239e19a39b1fd82e89e6903",
                    "sha": "955d4bb901775e21a239e19a39b1fd82e89e6903",
                    "url": "https://api.github.com/repos/PrismarineJS/mineflayer/commits/955d4bb901775e21a239e19a39b1fd82e89e6903"
                }
            ],
            "sha": "e9e81ace891c3e42a8e1a3687e29a8b8bafc02d3",
            "url": "https://api.github.com/repos/PrismarineJS/mineflayer/commits/e9e81ace891c3e42a8e1a3687e29a8b8bafc02d3"
        },
        {
            "author": {
                "avatar_url": "https://avatars.githubusercontent.com/u/2346494?v=4",
                "events_url": "https://api.github.com/users/rom1504/events{/privacy}",
                "followers_url": "https://api.github.com/users/rom1504/followers",
                "following_url": "https://api.github.com/users/rom1504/following{/other_user}",
                "gists_url": "https://api.github.com/users/rom1504/gists{/gist_id}",
                "gravatar_id": "",
                "html_url": "https://github.com/rom1504",
                "id": 2346494,
                "login": "rom1504",
                "node_id": "MDQ6VXNlcjIzNDY0OTQ=",
                "organizations_url": "https://api.github.com/users/rom1504/orgs",
                "received_events_url": "https://api.github.com/users/rom1504/received_events",
                "repos_url": "https://api.github.com/users/rom1504/repos",
                "site_admin": false,
                "starred_url": "https://api.github.com/users/rom1504/starred{/owner}{/repo}",
                "subscriptions_url": "https://api.github.com/users/rom1504/subscriptions",
                "type": "User",
                "url": "https://api.github.com/users/rom1504"
            },
            "comments_url": "https://api.github.com/repos/PrismarineJS/mineflayer/commits/31b772cf0650c410c3f2114648403bb079baec22/comments",
            "commit": {
                "author": {
                    "date": "2023-09-09T15:56:36Z",
                    "email": "romain.rom1@gmail.com",
                    "name": "Romain Beaumont"
                },
                "comment_count": 0,
                "committer": {
                    "date": "2023-09-09T15:56:36Z",
                    "email": "noreply@github.com",
                    "name": "GitHub"
                },
                "message": "Merge branch 'master' into master",
                "tree": {
                    "sha": "fdc4043ad952056624e2f3d373917dad088d8a72",
                    "url": "https://api.github.com/repos/PrismarineJS/mineflayer/git/trees/fdc4043ad952056624e2f3d373917dad088d8a72"
                },
                "url": "https://api.github.com/repos/PrismarineJS/mineflayer/git/commits/31b772cf0650c410c3f2114648403bb079baec22",
                "verification": {
                    "payload": "tree fdc4043ad952056624e2f3d373917dad088d8a72\nparent e9e81ace891c3e42a8e1a3687e29a8b8bafc02d3\nparent 7987e3c546038de0eaa6d573596f51d3edc383bb\nauthor Romain Beaumont <romain.rom1@gmail.com> 1694274996 +0300\ncommitter GitHub <noreply@github.com> 1694274996 +0300\n\nMerge branch 'master' into master",
                    "reason": "valid",
                    "signature": "-----BEGIN PGP SIGNATURE-----\n\nwsBcBAABCAAQBQJk/JW0CRBK7hj4Ov3rIwAAHYMIAE/tvSFWqGqEfCaBAK3P6G/G\nKApNbAxhH/fWaWslUgdW3GGqn8w/GMIBDdEROq4tn7e5ULeMhMdYspTWx6pk5DMK\nuceShIRhfdr9AjAq5FpSgSimK9dj1FQE3AVqwo0ksNQI1CWaBk/+XE21rZtExuKQ\nPiJaeGIKgYhYB5wgvFpBxHAWbf9EgZTNLebcCh1UrKGnS+76OJC5zK983WVwy08y\nCcGQxzRgtGZ3jD8VkD6F5b+5BmWmBHQAtQT/RiaXr8kSO1dvFoushf//HXSBDyex\n+XbI8TogKi9pbGnCrqhkX+KGyXPK1KXtCE6V7J0u2xZerei9eji10Zu70UW2bL4=\n=2YvL\n-----END PGP SIGNATURE-----\n",
                    "verified": true
                }
            },
            "committer": {
                "avatar_url": "https://avatars.githubusercontent.com/u/19864447?v=4",
                "events_url": "https://api.github.com/users/web-flow/events{/privacy}",
                "followers_url": "https://api.github.com/users/web-flow/followers",
                "following_url": "https://api.github.com/users/web-flow/following{/other_user}",
                "gists_url": "https://api.github.com/users/web-flow/gists{/gist_id}",
                "gravatar_id": "",
                "html_url": "https://github.com/web-flow",
                "id": 19864447,
                "login": "web-flow",
                "node_id": "MDQ6VXNlcjE5ODY0NDQ3",
                "organizations_url": "https://api.github.com/users/web-flow/orgs",
                "received_events_url": "https://api.github.com/users/web-flow/received_events",
                "repos_url": "https://api.github.com/users/web-flow/repos",
                "site_admin": false,
                "starred_url": "https://api.github.com/users/web-flow/starred{/owner}{/repo}",
                "subscriptions_url": "https://api.github.com/users/web-flow/subscriptions",
                "type": "User",
                "url": "https://api.github.com/users/web-flow"
            },
            "html_url": "https://github.com/PrismarineJS/mineflayer/commit/31b772cf0650c410c3f2114648403bb079baec22",
            "node_id": "C_kwDOIn03k9oAKDMxYjc3MmNmMDY1MGM0MTBjM2YyMTE0NjQ4NDAzYmIwNzliYWVjMjI",
            "parents": [
                {
                    "html_url": "https://github.com/PrismarineJS/mineflayer/commit/e9e81ace891c3e42a8e1a3687e29a8b8bafc02d3",
                    "sha": "e9e81ace891c3e42a8e1a3687e29a8b8bafc02d3",
                    "url": "https://api.github.com/repos/PrismarineJS/mineflayer/commits/e9e81ace891c3e42a8e1a3687e29a8b8bafc02d3"
                },
                {
                    "html_url": "https://github.com/PrismarineJS/mineflayer/commit/7987e3c546038de0eaa6d573596f51d3edc383bb",
                    "sha": "7987e3c546038de0eaa6d573596f51d3edc383bb",
                    "url": "https://api.github.com/repos/PrismarineJS/mineflayer/commits/7987e3c546038de0eaa6d573596f51d3edc383bb"
                }
            ],
            "sha": "31b772cf0650c410c3f2114648403bb079baec22",
            "url": "https://api.github.com/repos/PrismarineJS/mineflayer/commits/31b772cf0650c410c3f2114648403bb079baec22"
        },
        {
            "author": null,
            "comments_url": "https://api.github.com/repos/PrismarineJS/mineflayer/commits/a97e8ed5737249663b0bea1ec9dfef06d21bb86c/comments",
            "commit": {
                "author": {
                    "date": "2023-09-09T18:00:22Z",
                    "email": "frej@valoks.com",
                    "name": "Frej Alexander Nielsen"
                },
                "comment_count": 0,
                "committer": {
                    "date": "2023-09-09T18:00:22Z",
                    "email": "frej@valoks.com",
                    "name": "Frej Alexander Nielsen"
                },
                "message": "Use Object.hasOwn instead of in operator",
                "tree": {
                    "sha": "5416e493168754183cc630702cde2ff167bdd93e",
                    "url": "https://api.github.com/repos/PrismarineJS/mineflayer/git/trees/5416e493168754183cc630702cde2ff167bdd93e"
                },
                "url": "https://api.github.com/repos/PrismarineJS/mineflayer/git/commits/a97e8ed5737249663b0bea1ec9dfef06d21bb86c",
                "verification": {
                    "payload": null,
                    "reason": "unsigned",
                    "signature": null,
                    "verified": false
                }
            },
            "committer": null,
            "html_url": "https://github.com/PrismarineJS/mineflayer/commit/a97e8ed5737249663b0bea1ec9dfef06d21bb86c",
            "node_id": "C_kwDOIn03k9oAKGE5N2U4ZWQ1NzM3MjQ5NjYzYjBiZWExZWM5ZGZlZjA2ZDIxYmI4NmM",
            "parents": [
                {
                    "html_url": "https://github.com/PrismarineJS/mineflayer/commit/e9e81ace891c3e42a8e1a3687e29a8b8bafc02d3",
                    "sha": "e9e81ace891c3e42a8e1a3687e29a8b8bafc02d3",
                    "url": "https://api.github.com/repos/PrismarineJS/mineflayer/commits/e9e81ace891c3e42a8e1a3687e29a8b8bafc02d3"
                }
            ],
            "sha": "a97e8ed5737249663b0bea1ec9dfef06d21bb86c",
            "url": "https://api.github.com/repos/PrismarineJS/mineflayer/commits/a97e8ed5737249663b0bea1ec9dfef06d21bb86c"
        },
        {
            "author": null,
            "comments_url": "https://api.github.com/repos/PrismarineJS/mineflayer/commits/54f2c4d714f1fc62d5d31f0d43f011b3982cb280/comments",
            "commit": {
                "author": {
                    "date": "2023-09-09T18:00:38Z",
                    "email": "frej@valoks.com",
                    "name": "Frej Alexander Nielsen"
                },
                "comment_count": 0,
                "committer": {
                    "date": "2023-09-09T18:00:38Z",
                    "email": "frej@valoks.com",
                    "name": "Frej Alexander Nielsen"
                },
                "message": "Merge branch 'master' of https://github.com/frej4189/mineflayer",
                "tree": {
                    "sha": "b9448b602732084f4b7842be221a8a50b6f768d5",
                    "url": "https://api.github.com/repos/PrismarineJS/mineflayer/git/trees/b9448b602732084f4b7842be221a8a50b6f768d5"
                },
                "url": "https://api.github.com/repos/PrismarineJS/mineflayer/git/commits/54f2c4d714f1fc62d5d31f0d43f011b3982cb280",
                "verification": {
                    "payload": null,
                    "reason": "unsigned",
                    "signature": null,
                    "verified": false
                }
            },
            "committer": null,
            "html_url": "https://github.com/PrismarineJS/mineflayer/commit/54f2c4d714f1fc62d5d31f0d43f011b3982cb280",
            "node_id": "C_kwDOIn03k9oAKDU0ZjJjNGQ3MTRmMWZjNjJkNWQzMWYwZDQzZjAxMWIzOTgyY2IyODA",
            "parents": [
                {
                    "html_url": "https://github.com/PrismarineJS/mineflayer/commit/a97e8ed5737249663b0bea1ec9dfef06d21bb86c",
                    "sha": "a97e8ed5737249663b0bea1ec9dfef06d21bb86c",
                    "url": "https://api.github.com/repos/PrismarineJS/mineflayer/commits/a97e8ed5737249663b0bea1ec9dfef06d21bb86c"
                },
                {
                    "html_url": "https://github.com/PrismarineJS/mineflayer/commit/31b772cf0650c410c3f2114648403bb079baec22",
                    "sha": "31b772cf0650c410c3f2114648403bb079baec22",
                    "url": "https://api.github.com/repos/PrismarineJS/mineflayer/commits/31b772cf0650c410c3f2114648403bb079baec22"
                }
            ],
            "sha": "54f2c4d714f1fc62d5d31f0d43f011b3982cb280",
            "url": "https://api.github.com/repos/PrismarineJS/mineflayer/commits/54f2c4d714f1fc62d5d31f0d43f011b3982cb280"
        },
        {
            "author": {
                "avatar_url": "https://avatars.githubusercontent.com/u/13559737?v=4",
                "events_url": "https://api.github.com/users/frej4189/events{/privacy}",
                "followers_url": "https://api.github.com/users/frej4189/followers",
                "following_url": "https://api.github.com/users/frej4189/following{/other_user}",
                "gists_url": "https://api.github.com/users/frej4189/gists{/gist_id}",
                "gravatar_id": "",
                "html_url": "https://github.com/frej4189",
                "id": 13559737,
                "login": "frej4189",
                "node_id": "MDQ6VXNlcjEzNTU5NzM3",
                "organizations_url": "https://api.github.com/users/frej4189/orgs",
                "received_events_url": "https://api.github.com/users/frej4189/received_events",
                "repos_url": "https://api.github.com/users/frej4189/repos",
                "site_admin": false,
                "starred_url": "https://api.github.com/users/frej4189/starred{/owner}{/repo}",
                "subscriptions_url": "https://api.github.com/users/frej4189/subscriptions",
                "type": "User",
                "url": "https://api.github.com/users/frej4189"
            },
            "comments_url": "https://api.github.com/repos/PrismarineJS/mineflayer/commits/0e59cae29f93bf89c01f5ac10cc58f43a2b94f6c/comments",
            "commit": {
                "author": {
                    "date": "2023-09-09T18:01:09Z",
                    "email": "frejnielsen59@gmail.com",
                    "name": "Frej Alexander Nielsen"
                },
                "comment_count": 0,
                "committer": {
                    "date": "2023-09-09T18:01:09Z",
                    "email": "noreply@github.com",
                    "name": "GitHub"
                },
                "message": "Merge branch 'master' into master",
                "tree": {
                    "sha": "b81133552efd2ef64eecfb37edd6dcd8b0be5b58",
                    "url": "https://api.github.com/repos/PrismarineJS/mineflayer/git/trees/b81133552efd2ef64eecfb37edd6dcd8b0be5b58"
                },
                "url": "https://api.github.com/repos/PrismarineJS/mineflayer/git/commits/0e59cae29f93bf89c01f5ac10cc58f43a2b94f6c",
                "verification": {
                    "payload": "tree b81133552efd2ef64eecfb37edd6dcd8b0be5b58\nparent 54f2c4d714f1fc62d5d31f0d43f011b3982cb280\nparent e571e54edf46ac6da000e1c84f36bec3b75ccf24\nauthor Frej Alexander Nielsen <frejnielsen59@gmail.com> 1694282469 +0200\ncommitter GitHub <noreply@github.com> 1694282469 +0200\n\nMerge branch 'master' into master",
                    "reason": "valid",
                    "signature": "-----BEGIN PGP SIGNATURE-----\n\nwsBcBAABCAAQBQJk/LLlCRBK7hj4Ov3rIwAAIUAIAG+ByCOcK8WPjJ2D8FQ93Idf\n6zwSXIn9TMX9b8zfRzpoCD8GCtvBKjn+KoqfgnIRdTDnCbkPAtVM0SSwK/YpbX0X\nVpAU5DQMS6oHWqgfRFUJwXfCpoHciV4I68kcTnFDK+i9G4QuXvye/2qjAXxlDApf\nrA1ZHrbk5CwAfurDiKtmMAUDYlRj0lP5MbDsKaqgDS1U+8MtOteuNTMoPRxrlAPm\njf7iUL5gDY2GDwPd5tUzeIfuTSJagUMaEYIicg6vY9z3r9XGn1YnTfVKsJOh2qcn\ndaYQbiOTH7JWsWwzZrm4vAMGILdgtyZ+DJpRf5AxsqYmM7+oZTSWj+ahTXwtOas=\n=1go2\n-----END PGP SIGNATURE-----\n",
                    "verified": true
                }
            },
            "committer": {
                "avatar_url": "https://avatars.githubusercontent.com/u/19864447?v=4",
                "events_url": "https://api.github.com/users/web-flow/events{/privacy}",
                "followers_url": "https://api.github.com/users/web-flow/followers",
                "following_url": "https://api.github.com/users/web-flow/following{/other_user}",
                "gists_url": "https://api.github.com/users/web-flow/gists{/gist_id}",
                "gravatar_id": "",
                "html_url": "https://github.com/web-flow",
                "id": 19864447,
                "login": "web-flow",
                "node_id": "MDQ6VXNlcjE5ODY0NDQ3",
                "organizations_url": "https://api.github.com/users/web-flow/orgs",
                "received_events_url": "https://api.github.com/users/web-flow/received_events",
                "repos_url": "https://api.github.com/users/web-flow/repos",
                "site_admin": false,
                "starred_url": "https://api.github.com/users/web-flow/starred{/owner}{/repo}",
                "subscriptions_url": "https://api.github.com/users/web-flow/subscriptions",
                "type": "User",
                "url": "https://api.github.com/users/web-flow"
            },
            "html_url": "https://github.com/PrismarineJS/mineflayer/commit/0e59cae29f93bf89c01f5ac10cc58f43a2b94f6c",
            "node_id": "C_kwDOIn03k9oAKDBlNTljYWUyOWY5M2JmODljMDFmNWFjMTBjYzU4ZjQzYTJiOTRmNmM",
            "parents": [
                {
                    "html_url": "https://github.com/PrismarineJS/mineflayer/commit/54f2c4d714f1fc62d5d31f0d43f011b3982cb280",
                    "sha": "54f2c4d714f1fc62d5d31f0d43f011b3982cb280",
                    "url": "https://api.github.com/repos/PrismarineJS/mineflayer/commits/54f2c4d714f1fc62d5d31f0d43f011b3982cb280"
                },
                {
                    "html_url": "https://github.com/PrismarineJS/mineflayer/commit/e571e54edf46ac6da000e1c84f36bec3b75ccf24",
                    "sha": "e571e54edf46ac6da000e1c84f36bec3b75ccf24",
                    "url": "https://api.github.com/repos/PrismarineJS/mineflayer/commits/e571e54edf46ac6da000e1c84f36bec3b75ccf24"
                }
            ],
            "sha": "0e59cae29f93bf89c01f5ac10cc58f43a2b94f6c",
            "url": "https://api.github.com/repos/PrismarineJS/mineflayer/commits/0e59cae29f93bf89c01f5ac10cc58f43a2b94f6c"
        }
    ],
    "commits": 7,
    "commits_url": "https://api.github.com/repos/PrismarineJS/mineflayer/pulls/3191/commits",
    "created_at": "2023-09-09T15:34:39Z",
    "deletions": 0,
    "diff_url": "https://github.com/PrismarineJS/mineflayer/pull/3191.diff",
    "draft": false,
    "head": {
        "label": "frej4189:master",
        "ref": "master",
        "repo": {
            "allow_forking": true,
            "archive_url": "https://api.github.com/repos/frej4189/mineflayer/{archive_format}{/ref}",
            "archived": false,
            "assignees_url": "https://api.github.com/repos/frej4189/mineflayer/assignees{/user}",
            "blobs_url": "https://api.github.com/repos/frej4189/mineflayer/git/blobs{/sha}",
            "branches_url": "https://api.github.com/repos/frej4189/mineflayer/branches{/branch}",
            "clone_url": "https://github.com/frej4189/mineflayer.git",
            "collaborators_url": "https://api.github.com/repos/frej4189/mineflayer/collaborators{/collaborator}",
            "comments_url": "https://api.github.com/repos/frej4189/mineflayer/comments{/number}",
            "commits_url": "https://api.github.com/repos/frej4189/mineflayer/commits{/sha}",
            "compare_url": "https://api.github.com/repos/frej4189/mineflayer/compare/{base}...{head}",
            "contents_url": "https://api.github.com/repos/frej4189/mineflayer/contents/{+path}",
            "contributors_url": "https://api.github.com/repos/frej4189/mineflayer/contributors",
            "created_at": "2022-12-15T14:11:30Z",
            "default_branch": "master",
            "deployments_url": "https://api.github.com/repos/frej4189/mineflayer/deployments",
            "description": "Create Minecraft bots with a powerful, stable, and high level JavaScript API.",
            "disabled": false,
            "downloads_url": "https://api.github.com/repos/frej4189/mineflayer/downloads",
            "events_url": "https://api.github.com/repos/frej4189/mineflayer/events",
            "fork": true,
            "forks": 0,
            "forks_count": 0,
            "forks_url": "https://api.github.com/repos/frej4189/mineflayer/forks",
            "full_name": "frej4189/mineflayer",
            "git_commits_url": "https://api.github.com/repos/frej4189/mineflayer/git/commits{/sha}",
            "git_refs_url": "https://api.github.com/repos/frej4189/mineflayer/git/refs{/sha}",
            "git_tags_url": "https://api.github.com/repos/frej4189/mineflayer/git/tags{/sha}",
            "git_url": "git://github.com/frej4189/mineflayer.git",
            "has_discussions": false,
            "has_downloads": true,
            "has_issues": false,
            "has_pages": false,
            "has_projects": true,
            "has_wiki": true,
            "homepage": "https://mineflayer.prismarine.js.org",
            "hooks_url": "https://api.github.com/repos/frej4189/mineflayer/hooks",
            "html_url": "https://github.com/frej4189/mineflayer",
            "id": 578631571,
            "is_template": false,
            "issue_comment_url": "https://api.github.com/repos/frej4189/mineflayer/issues/comments{/number}",
            "issue_events_url": "https://api.github.com/repos/frej4189/mineflayer/issues/events{/number}",
            "issues_url": "https://api.github.com/repos/frej4189/mineflayer/issues{/number}",
            "keys_url": "https://api.github.com/repos/frej4189/mineflayer/keys{/key_id}",
            "labels_url": "https://api.github.com/repos/frej4189/mineflayer/labels{/name}",
            "language": "JavaScript",
            "languages_url": "https://api.github.com/repos/frej4189/mineflayer/languages",
            "license": {
                "key": "mit",
                "name": "MIT License",
                "node_id": "MDc6TGljZW5zZTEz",
                "spdx_id": "MIT",
                "url": "https://api.github.com/licenses/mit"
            },
            "merges_url": "https://api.github.com/repos/frej4189/mineflayer/merges",
            "milestones_url": "https://api.github.com/repos/frej4189/mineflayer/milestones{/number}",
            "mirror_url": null,
            "name": "mineflayer",
            "node_id": "R_kgDOIn03kw",
            "notifications_url": "https://api.github.com/repos/frej4189/mineflayer/notifications{?since,all,participating}",
            "open_issues": 0,
            "open_issues_count": 0,
            "owner": {
                "avatar_url": "https://avatars.githubusercontent.com/u/13559737?v=4",
                "events_url": "https://api.github.com/users/frej4189/events{/privacy}",
                "followers_url": "https://api.github.com/users/frej4189/followers",
                "following_url": "https://api.github.com/users/frej4189/following{/other_user}",
                "gists_url": "https://api.github.com/users/frej4189/gists{/gist_id}",
                "gravatar_id": "",
                "html_url": "https://github.com/frej4189",
                "id": 13559737,
                "login": "frej4189",
                "node_id": "MDQ6VXNlcjEzNTU5NzM3",
                "organizations_url": "https://api.github.com/users/frej4189/orgs",
                "received_events_url": "https://api.github.com/users/frej4189/received_events",
                "repos_url": "https://api.github.com/users/frej4189/repos",
                "site_admin": false,
                "starred_url": "https://api.github.com/users/frej4189/starred{/owner}{/repo}",
                "subscriptions_url": "https://api.github.com/users/frej4189/subscriptions",
                "type": "User",
                "url": "https://api.github.com/users/frej4189"
            },
            "private": false,
            "pulls_url": "https://api.github.com/repos/frej4189/mineflayer/pulls{/number}",
            "pushed_at": "2023-09-09T18:01:09Z",
            "releases_url": "https://api.github.com/repos/frej4189/mineflayer/releases{/id}",
            "size": 12611,
            "ssh_url": "git@github.com:frej4189/mineflayer.git",
            "stargazers_count": 1,
            "stargazers_url": "https://api.github.com/repos/frej4189/mineflayer/stargazers",
            "statuses_url": "https://api.github.com/repos/frej4189/mineflayer/statuses/{sha}",
            "subscribers_url": "https://api.github.com/repos/frej4189/mineflayer/subscribers",
            "subscription_url": "https://api.github.com/repos/frej4189/mineflayer/subscription",
            "svn_url": "https://github.com/frej4189/mineflayer",
            "tags_url": "https://api.github.com/repos/frej4189/mineflayer/tags",
            "teams_url": "https://api.github.com/repos/frej4189/mineflayer/teams",
            "topics": [],
            "trees_url": "https://api.github.com/repos/frej4189/mineflayer/git/trees{/sha}",
            "updated_at": "2023-02-20T14:32:48Z",
            "url": "https://api.github.com/repos/frej4189/mineflayer",
            "visibility": "public",
            "watchers": 1,
            "watchers_count": 1,
            "web_commit_signoff_required": false
        },
        "sha": "0e59cae29f93bf89c01f5ac10cc58f43a2b94f6c",
        "user": {
            "avatar_url": "https://avatars.githubusercontent.com/u/13559737?v=4",
            "events_url": "https://api.github.com/users/frej4189/events{/privacy}",
            "followers_url": "https://api.github.com/users/frej4189/followers",
            "following_url": "https://api.github.com/users/frej4189/following{/other_user}",
            "gists_url": "https://api.github.com/users/frej4189/gists{/gist_id}",
            "gravatar_id": "",
            "html_url": "https://github.com/frej4189",
            "id": 13559737,
            "login": "frej4189",
            "node_id": "MDQ6VXNlcjEzNTU5NzM3",
            "organizations_url": "https://api.github.com/users/frej4189/orgs",
            "received_events_url": "https://api.github.com/users/frej4189/received_events",
            "repos_url": "https://api.github.com/users/frej4189/repos",
            "site_admin": false,
            "starred_url": "https://api.github.com/users/frej4189/starred{/owner}{/repo}",
            "subscriptions_url": "https://api.github.com/users/frej4189/subscriptions",
            "type": "User",
            "url": "https://api.github.com/users/frej4189"
        }
    },
    "html_url": "https://github.com/PrismarineJS/mineflayer/pull/3191",
    "id": 1508869643,
    "issue_url": "https://api.github.com/repos/PrismarineJS/mineflayer/issues/3191",
    "labels": [],
    "locked": false,
    "maintainer_can_modify": false,
    "merge_commit_sha": "2e02cee82d6d154b3b7bfb30d213479e7c4fbc59",
    "mergeable": null,
    "mergeable_state": "unknown",
    "merged": true,
    "merged_at": "2023-09-10T18:55:06Z",
    "merged_by": {
        "avatar_url": "https://avatars.githubusercontent.com/u/2346494?v=4",
        "events_url": "https://api.github.com/users/rom1504/events{/privacy}",
        "followers_url": "https://api.github.com/users/rom1504/followers",
        "following_url": "https://api.github.com/users/rom1504/following{/other_user}",
        "gists_url": "https://api.github.com/users/rom1504/gists{/gist_id}",
        "gravatar_id": "",
        "html_url": "https://github.com/rom1504",
        "id": 2346494,
        "login": "rom1504",
        "node_id": "MDQ6VXNlcjIzNDY0OTQ=",
        "organizations_url": "https://api.github.com/users/rom1504/orgs",
        "received_events_url": "https://api.github.com/users/rom1504/received_events",
        "repos_url": "https://api.github.com/users/rom1504/repos",
        "site_admin": false,
        "starred_url": "https://api.github.com/users/rom1504/starred{/owner}{/repo}",
        "subscriptions_url": "https://api.github.com/users/rom1504/subscriptions",
        "type": "User",
        "url": "https://api.github.com/users/rom1504"
    },
    "milestone": null,
    "node_id": "PR_kwDOABOYWc5Z74YL",
    "number": 3191,
    "patch_url": "https://github.com/PrismarineJS/mineflayer/pull/3191.patch",
    "rebaseable": null,
    "requested_reviewers": [],
    "requested_teams": [],
    "review_comment_url": "https://api.github.com/repos/PrismarineJS/mineflayer/pulls/comments{/number}",
    "review_comments": 5,
    "review_comments_url": "https://api.github.com/repos/PrismarineJS/mineflayer/pulls/3191/comments",
    "state": "closed",
    "statuses_url": "https://api.github.com/repos/PrismarineJS/mineflayer/statuses/0e59cae29f93bf89c01f5ac10cc58f43a2b94f6c",
    "title": "Handle unknown scoreboard objectives",
    "updated_at": "2023-09-10T18:55:07Z",
    "url": "https://api.github.com/repos/PrismarineJS/mineflayer/pulls/3191",
    "user": {
        "avatar_url": "https://avatars.githubusercontent.com/u/13559737?v=4",
        "events_url": "https://api.github.com/users/frej4189/events{/privacy}",
        "followers_url": "https://api.github.com/users/frej4189/followers",
        "following_url": "https://api.github.com/users/frej4189/following{/other_user}",
        "gists_url": "https://api.github.com/users/frej4189/gists{/gist_id}",
        "gravatar_id": "",
        "html_url": "https://github.com/frej4189",
        "id": 13559737,
        "login": "frej4189",
        "node_id": "MDQ6VXNlcjEzNTU5NzM3",
        "organizations_url": "https://api.github.com/users/frej4189/orgs",
        "received_events_url": "https://api.github.com/users/frej4189/received_events",
        "repos_url": "https://api.github.com/users/frej4189/repos",
        "site_admin": false,
        "starred_url": "https://api.github.com/users/frej4189/starred{/owner}{/repo}",
        "subscriptions_url": "https://api.github.com/users/frej4189/subscriptions",
        "type": "User",
        "url": "https://api.github.com/users/frej4189"
    }
}