{
    "_links": {
        "comments": {
            "href": "https://api.github.com/repos/PrismarineJS/mineflayer/issues/3264/comments"
        },
        "commits": {
            "href": "https://api.github.com/repos/PrismarineJS/mineflayer/pulls/3264/commits"
        },
        "html": {
            "href": "https://github.com/PrismarineJS/mineflayer/pull/3264"
        },
        "issue": {
            "href": "https://api.github.com/repos/PrismarineJS/mineflayer/issues/3264"
        },
        "review_comment": {
            "href": "https://api.github.com/repos/PrismarineJS/mineflayer/pulls/comments{/number}"
        },
        "review_comments": {
            "href": "https://api.github.com/repos/PrismarineJS/mineflayer/pulls/3264/comments"
        },
        "self": {
            "href": "https://api.github.com/repos/PrismarineJS/mineflayer/pulls/3264"
        },
        "statuses": {
            "href": "https://api.github.com/repos/PrismarineJS/mineflayer/statuses/24bb61a2953dc6cd47c5f93c51a6f40b6e72401e"
        }
    },
    "active_lock_reason": null,
    "additions": 1,
    "assignee": null,
    "assignees": [],
    "author_association": "MEMBER",
    "auto_merge": null,
    "base": {
        "label": "PrismarineJS:master",
        "ref": "master",
        "repo": {
            "allow_forking": true,
            "archive_url": "https://api.github.com/repos/PrismarineJS/mineflayer/{archive_format}{/ref}",
            "archived": false,
            "assignees_url": "https://api.github.com/repos/PrismarineJS/mineflayer/assignees{/user}",
            "blobs_url": "https://api.github.com/repos/PrismarineJS/mineflayer/git/blobs{/sha}",
            "branches_url": "https://api.github.com/repos/PrismarineJS/mineflayer/branches{/branch}",
            "clone_url": "https://github.com/PrismarineJS/mineflayer.git",
            "collaborators_url": "https://api.github.com/repos/PrismarineJS/mineflayer/collaborators{/collaborator}",
            "comments_url": "https://api.github.com/repos/PrismarineJS/mineflayer/comments{/number}",
            "commits_url": "https://api.github.com/repos/PrismarineJS/mineflayer/commits{/sha}",
            "compare_url": "https://api.github.com/repos/PrismarineJS/mineflayer/compare/{base}...{head}",
            "contents_url": "https://api.github.com/repos/PrismarineJS/mineflayer/contents/{+path}",
            "contributors_url": "https://api.github.com/repos/PrismarineJS/mineflayer/contributors",
            "created_at": "2011-01-23T09:41:55Z",
            "default_branch": "master",
            "deployments_url": "https://api.github.com/repos/PrismarineJS/mineflayer/deployments",
            "description": "Create Minecraft bots with a powerful, stable, and high level JavaScript API.",
            "disabled": false,
            "downloads_url": "https://api.github.com/repos/PrismarineJS/mineflayer/downloads",
            "events_url": "https://api.github.com/repos/PrismarineJS/mineflayer/events",
            "fork": false,
            "forks": 819,
            "forks_count": 819,
            "forks_url": "https://api.github.com/repos/PrismarineJS/mineflayer/forks",
            "full_name": "PrismarineJS/mineflayer",
            "git_commits_url": "https://api.github.com/repos/PrismarineJS/mineflayer/git/commits{/sha}",
            "git_refs_url": "https://api.github.com/repos/PrismarineJS/mineflayer/git/refs{/sha}",
            "git_tags_url": "https://api.github.com/repos/PrismarineJS/mineflayer/git/tags{/sha}",
            "git_url": "git://github.com/PrismarineJS/mineflayer.git",
            "has_discussions": true,
            "has_downloads": true,
            "has_issues": true,
            "has_pages": true,
            "has_projects": true,
            "has_wiki": true,
            "homepage": "https://prismarinejs.github.io/mineflayer/",
            "hooks_url": "https://api.github.com/repos/PrismarineJS/mineflayer/hooks",
            "html_url": "https://github.com/PrismarineJS/mineflayer",
            "id": 1284185,
            "is_template": false,
            "issue_comment_url": "https://api.github.com/repos/PrismarineJS/mineflayer/issues/comments{/number}",
            "issue_events_url": "https://api.github.com/repos/PrismarineJS/mineflayer/issues/events{/number}",
            "issues_url": "https://api.github.com/repos/PrismarineJS/mineflayer/issues{/number}",
            "keys_url": "https://api.github.com/repos/PrismarineJS/mineflayer/keys{/key_id}",
            "labels_url": "https://api.github.com/repos/PrismarineJS/mineflayer/labels{/name}",
            "language": "JavaScript",
            "languages_url": "https://api.github.com/repos/PrismarineJS/mineflayer/languages",
            "license": {
                "key": "mit",
                "name": "MIT License",
                "node_id": "MDc6TGljZW5zZTEz",
                "spdx_id": "MIT",
                "url": "https://api.github.com/licenses/mit"
            },
            "merges_url": "https://api.github.com/repos/PrismarineJS/mineflayer/merges",
            "milestones_url": "https://api.github.com/repos/PrismarineJS/mineflayer/milestones{/number}",
            "mirror_url": null,
            "name": "mineflayer",
            "node_id": "MDEwOlJlcG9zaXRvcnkxMjg0MTg1",
            "notifications_url": "https://api.github.com/repos/PrismarineJS/mineflayer/notifications{?since,all,participating}",
            "open_issues": 285,
            "open_issues_count": 285,
            "owner": {
                "avatar_url": "https://avatars.githubusercontent.com/u/11053411?v=4",
                "events_url": "https://api.github.com/users/PrismarineJS/events{/privacy}",
                "followers_url": "https://api.github.com/users/PrismarineJS/followers",
                "following_url": "https://api.github.com/users/PrismarineJS/following{/other_user}",
                "gists_url": "https://api.github.com/users/PrismarineJS/gists{/gist_id}",
                "gravatar_id": "",
                "html_url": "https://github.com/PrismarineJS",
                "id": 11053411,
                "login": "PrismarineJS",
                "node_id": "MDEyOk9yZ2FuaXphdGlvbjExMDUzNDEx",
                "organizations_url": "https://api.github.com/users/PrismarineJS/orgs",
                "received_events_url": "https://api.github.com/users/PrismarineJS/received_events",
                "repos_url": "https://api.github.com/users/PrismarineJS/repos",
                "site_admin": false,
                "starred_url": "https://api.github.com/users/PrismarineJS/starred{/owner}{/repo}",
                "subscriptions_url": "https://api.github.com/users/PrismarineJS/subscriptions",
                "type": "Organization",
                "url": "https://api.github.com/users/PrismarineJS"
            },
            "private": false,
            "pulls_url": "https://api.github.com/repos/PrismarineJS/mineflayer/pulls{/number}",
            "pushed_at": "2023-12-31T14:33:20Z",
            "releases_url": "https://api.github.com/repos/PrismarineJS/mineflayer/releases{/id}",
            "size": 12179,
            "ssh_url": "git@github.com:PrismarineJS/mineflayer.git",
            "stargazers_count": 4288,
            "stargazers_url": "https://api.github.com/repos/PrismarineJS/mineflayer/stargazers",
            "statuses_url": "https://api.github.com/repos/PrismarineJS/mineflayer/statuses/{sha}",
            "subscribers_url": "https://api.github.com/repos/PrismarineJS/mineflayer/subscribers",
            "subscription_url": "https://api.github.com/repos/PrismarineJS/mineflayer/subscription",
            "svn_url": "https://github.com/PrismarineJS/mineflayer",
            "tags_url": "https://api.github.com/repos/PrismarineJS/mineflayer/tags",
            "teams_url": "https://api.github.com/repos/PrismarineJS/mineflayer/teams",
            "topics": [
                "bot",
                "minecraft",
                "minecraft-api",
                "minecraft-bot",
                "network",
                "nodejs"
            ],
            "trees_url": "https://api.github.com/repos/PrismarineJS/mineflayer/git/trees{/sha}",
            "updated_at": "2023-12-31T08:36:38Z",
            "url": "https://api.github.com/repos/PrismarineJS/mineflayer",
            "visibility": "public",
            "watchers": 4288,
            "watchers_count": 4288,
            "web_commit_signoff_required": false
        },
        "sha": "88d361f9209cdc2bc4620b32118fb2245f6dcdf9",
        "user": {
            "avatar_url": "https://avatars.githubusercontent.com/u/11053411?v=4",
            "events_url": "https://api.github.com/users/PrismarineJS/events{/privacy}",
            "followers_url": "https://api.github.com/users/PrismarineJS/followers",
            "following_url": "https://api.github.com/users/PrismarineJS/following{/other_user}",
            "gists_url": "https://api.github.com/users/PrismarineJS/gists{/gist_id}",
            "gravatar_id": "",
            "html_url": "https://github.com/PrismarineJS",
            "id": 11053411,
            "login": "PrismarineJS",
            "node_id": "MDEyOk9yZ2FuaXphdGlvbjExMDUzNDEx",
            "organizations_url": "https://api.github.com/users/PrismarineJS/orgs",
            "received_events_url": "https://api.github.com/users/PrismarineJS/received_events",
            "repos_url": "https://api.github.com/users/PrismarineJS/repos",
            "site_admin": false,
            "starred_url": "https://api.github.com/users/PrismarineJS/starred{/owner}{/repo}",
            "subscriptions_url": "https://api.github.com/users/PrismarineJS/subscriptions",
            "type": "Organization",
            "url": "https://api.github.com/users/PrismarineJS"
        }
    },
    "body": null,
    "changed_files": 1,
    "closed_at": "2023-12-31T11:14:51Z",
    "comment_data": [],
    "comment_regular_data": [
        {
            "author_association": "MEMBER",
            "body": "what do you think @extremeheat ?",
            "created_at": "2023-12-30T23:41:22Z",
            "html_url": "https://github.com/PrismarineJS/mineflayer/pull/3264#issuecomment-1872627081",
            "id": 1872627081,
            "issue_url": "https://api.github.com/repos/PrismarineJS/mineflayer/issues/3264",
            "node_id": "IC_kwDOABOYWc5vngWJ",
            "performed_via_github_app": null,
            "reactions": {
                "+1": 0,
                "-1": 0,
                "confused": 0,
                "eyes": 0,
                "heart": 0,
                "hooray": 0,
                "laugh": 0,
                "rocket": 0,
                "total_count": 0,
                "url": "https://api.github.com/repos/PrismarineJS/mineflayer/issues/comments/1872627081/reactions"
            },
            "updated_at": "2023-12-30T23:41:22Z",
            "url": "https://api.github.com/repos/PrismarineJS/mineflayer/issues/comments/1872627081",
            "user": {
                "avatar_url": "https://avatars.githubusercontent.com/u/2346494?v=4",
                "events_url": "https://api.github.com/users/rom1504/events{/privacy}",
                "followers_url": "https://api.github.com/users/rom1504/followers",
                "following_url": "https://api.github.com/users/rom1504/following{/other_user}",
                "gists_url": "https://api.github.com/users/rom1504/gists{/gist_id}",
                "gravatar_id": "",
                "html_url": "https://github.com/rom1504",
                "id": 2346494,
                "login": "rom1504",
                "node_id": "MDQ6VXNlcjIzNDY0OTQ=",
                "organizations_url": "https://api.github.com/users/rom1504/orgs",
                "received_events_url": "https://api.github.com/users/rom1504/received_events",
                "repos_url": "https://api.github.com/users/rom1504/repos",
                "site_admin": false,
                "starred_url": "https://api.github.com/users/rom1504/starred{/owner}{/repo}",
                "subscriptions_url": "https://api.github.com/users/rom1504/subscriptions",
                "type": "User",
                "url": "https://api.github.com/users/rom1504"
            }
        }
    ],
    "comments": 1,
    "comments_url": "https://api.github.com/repos/PrismarineJS/mineflayer/issues/3264/comments",
    "commit_data": [
        {
            "author": {
                "avatar_url": "https://avatars.githubusercontent.com/u/2346494?v=4",
                "events_url": "https://api.github.com/users/rom1504/events{/privacy}",
                "followers_url": "https://api.github.com/users/rom1504/followers",
                "following_url": "https://api.github.com/users/rom1504/following{/other_user}",
                "gists_url": "https://api.github.com/users/rom1504/gists{/gist_id}",
                "gravatar_id": "",
                "html_url": "https://github.com/rom1504",
                "id": 2346494,
                "login": "rom1504",
                "node_id": "MDQ6VXNlcjIzNDY0OTQ=",
                "organizations_url": "https://api.github.com/users/rom1504/orgs",
                "received_events_url": "https://api.github.com/users/rom1504/received_events",
                "repos_url": "https://api.github.com/users/rom1504/repos",
                "site_admin": false,
                "starred_url": "https://api.github.com/users/rom1504/starred{/owner}{/repo}",
                "subscriptions_url": "https://api.github.com/users/rom1504/subscriptions",
                "type": "User",
                "url": "https://api.github.com/users/rom1504"
            },
            "comments_url": "https://api.github.com/repos/PrismarineJS/mineflayer/commits/24bb61a2953dc6cd47c5f93c51a6f40b6e72401e/comments",
            "commit": {
                "author": {
                    "date": "2023-12-30T23:41:09Z",
                    "email": "romain.rom1@gmail.com",
                    "name": "Romain Beaumont"
                },
                "comment_count": 0,
                "committer": {
                    "date": "2023-12-30T23:41:09Z",
                    "email": "noreply@github.com",
                    "name": "GitHub"
                },
                "message": "Make explicit supported versions in readme",
                "tree": {
                    "sha": "2891a94c739c337dcedfb1a72970551fd998bce1",
                    "url": "https://api.github.com/repos/PrismarineJS/mineflayer/git/trees/2891a94c739c337dcedfb1a72970551fd998bce1"
                },
                "url": "https://api.github.com/repos/PrismarineJS/mineflayer/git/commits/24bb61a2953dc6cd47c5f93c51a6f40b6e72401e",
                "verification": {
                    "payload": "tree 2891a94c739c337dcedfb1a72970551fd998bce1\nparent 88d361f9209cdc2bc4620b32118fb2245f6dcdf9\nauthor Romain Beaumont <romain.rom1@gmail.com> 1703979669 +0100\ncommitter GitHub <noreply@github.com> 1703979669 +0100\n\nMake explicit supported versions in readme",
                    "reason": "valid",
                    "signature": "-----BEGIN PGP SIGNATURE-----\n\nwsBcBAABCAAQBQJlkKqVCRBK7hj4Ov3rIwAAV8cIALAi49oDkL/WIhRicJz6RIjR\nb25FW9B6NI++y2dJJ7Vp9i2lD4DIPzSThWfNsENV8nKhEGVVtlzUR8TNG1aRnp/j\nMdqofSiwECV51qHKgtSSlePsF1C1+GiTfjBKI5fVnYAjNaSnxFr34hkfk1o3Rxlf\n7gzwwbk//8ikwKchisprpC22qdXF2sT6ISRyk7TEgW7ZcdGy7/CX+DvbL59ZwLXO\nFWf2+eCs1VWNlw9Ej9IwCcNKXYXz2lCNMyDtsmEVSeo+N9HVLQwwaPOc/2nenfEz\nr1z5xTWxQENpzacNZo9fMfTNpxIqXEOX7Mx5o7gt41br5/z5OJqtemwxNEu6dbo=\n=vhR3\n-----END PGP SIGNATURE-----\n",
                    "verified": true
                }
            },
            "committer": {
                "avatar_url": "https://avatars.githubusercontent.com/u/19864447?v=4",
                "events_url": "https://api.github.com/users/web-flow/events{/privacy}",
                "followers_url": "https://api.github.com/users/web-flow/followers",
                "following_url": "https://api.github.com/users/web-flow/following{/other_user}",
                "gists_url": "https://api.github.com/users/web-flow/gists{/gist_id}",
                "gravatar_id": "",
                "html_url": "https://github.com/web-flow",
                "id": 19864447,
                "login": "web-flow",
                "node_id": "MDQ6VXNlcjE5ODY0NDQ3",
                "organizations_url": "https://api.github.com/users/web-flow/orgs",
                "received_events_url": "https://api.github.com/users/web-flow/received_events",
                "repos_url": "https://api.github.com/users/web-flow/repos",
                "site_admin": false,
                "starred_url": "https://api.github.com/users/web-flow/starred{/owner}{/repo}",
                "subscriptions_url": "https://api.github.com/users/web-flow/subscriptions",
                "type": "User",
                "url": "https://api.github.com/users/web-flow"
            },
            "html_url": "https://github.com/PrismarineJS/mineflayer/commit/24bb61a2953dc6cd47c5f93c51a6f40b6e72401e",
            "node_id": "C_kwDOABOYWdoAKDI0YmI2MWEyOTUzZGM2Y2Q0N2M1ZjkzYzUxYTZmNDBiNmU3MjQwMWU",
            "parents": [
                {
                    "html_url": "https://github.com/PrismarineJS/mineflayer/commit/88d361f9209cdc2bc4620b32118fb2245f6dcdf9",
                    "sha": "88d361f9209cdc2bc4620b32118fb2245f6dcdf9",
                    "url": "https://api.github.com/repos/PrismarineJS/mineflayer/commits/88d361f9209cdc2bc4620b32118fb2245f6dcdf9"
                }
            ],
            "sha": "24bb61a2953dc6cd47c5f93c51a6f40b6e72401e",
            "url": "https://api.github.com/repos/PrismarineJS/mineflayer/commits/24bb61a2953dc6cd47c5f93c51a6f40b6e72401e"
        }
    ],
    "commits": 1,
    "commits_url": "https://api.github.com/repos/PrismarineJS/mineflayer/pulls/3264/commits",
    "created_at": "2023-12-30T23:41:13Z",
    "deletions": 1,
    "diff_url": "https://github.com/PrismarineJS/mineflayer/pull/3264.diff",
    "draft": false,
    "head": {
        "label": "PrismarineJS:improve_versions_in_readme",
        "ref": "improve_versions_in_readme",
        "repo": {
            "allow_forking": true,
            "archive_url": "https://api.github.com/repos/PrismarineJS/mineflayer/{archive_format}{/ref}",
            "archived": false,
            "assignees_url": "https://api.github.com/repos/PrismarineJS/mineflayer/assignees{/user}",
            "blobs_url": "https://api.github.com/repos/PrismarineJS/mineflayer/git/blobs{/sha}",
            "branches_url": "https://api.github.com/repos/PrismarineJS/mineflayer/branches{/branch}",
            "clone_url": "https://github.com/PrismarineJS/mineflayer.git",
            "collaborators_url": "https://api.github.com/repos/PrismarineJS/mineflayer/collaborators{/collaborator}",
            "comments_url": "https://api.github.com/repos/PrismarineJS/mineflayer/comments{/number}",
            "commits_url": "https://api.github.com/repos/PrismarineJS/mineflayer/commits{/sha}",
            "compare_url": "https://api.github.com/repos/PrismarineJS/mineflayer/compare/{base}...{head}",
            "contents_url": "https://api.github.com/repos/PrismarineJS/mineflayer/contents/{+path}",
            "contributors_url": "https://api.github.com/repos/PrismarineJS/mineflayer/contributors",
            "created_at": "2011-01-23T09:41:55Z",
            "default_branch": "master",
            "deployments_url": "https://api.github.com/repos/PrismarineJS/mineflayer/deployments",
            "description": "Create Minecraft bots with a powerful, stable, and high level JavaScript API.",
            "disabled": false,
            "downloads_url": "https://api.github.com/repos/PrismarineJS/mineflayer/downloads",
            "events_url": "https://api.github.com/repos/PrismarineJS/mineflayer/events",
            "fork": false,
            "forks": 819,
            "forks_count": 819,
            "forks_url": "https://api.github.com/repos/PrismarineJS/mineflayer/forks",
            "full_name": "PrismarineJS/mineflayer",
            "git_commits_url": "https://api.github.com/repos/PrismarineJS/mineflayer/git/commits{/sha}",
            "git_refs_url": "https://api.github.com/repos/PrismarineJS/mineflayer/git/refs{/sha}",
            "git_tags_url": "https://api.github.com/repos/PrismarineJS/mineflayer/git/tags{/sha}",
            "git_url": "git://github.com/PrismarineJS/mineflayer.git",
            "has_discussions": true,
            "has_downloads": true,
            "has_issues": true,
            "has_pages": true,
            "has_projects": true,
            "has_wiki": true,
            "homepage": "https://prismarinejs.github.io/mineflayer/",
            "hooks_url": "https://api.github.com/repos/PrismarineJS/mineflayer/hooks",
            "html_url": "https://github.com/PrismarineJS/mineflayer",
            "id": 1284185,
            "is_template": false,
            "issue_comment_url": "https://api.github.com/repos/PrismarineJS/mineflayer/issues/comments{/number}",
            "issue_events_url": "https://api.github.com/repos/PrismarineJS/mineflayer/issues/events{/number}",
            "issues_url": "https://api.github.com/repos/PrismarineJS/mineflayer/issues{/number}",
            "keys_url": "https://api.github.com/repos/PrismarineJS/mineflayer/keys{/key_id}",
            "labels_url": "https://api.github.com/repos/PrismarineJS/mineflayer/labels{/name}",
            "language": "JavaScript",
            "languages_url": "https://api.github.com/repos/PrismarineJS/mineflayer/languages",
            "license": {
                "key": "mit",
                "name": "MIT License",
                "node_id": "MDc6TGljZW5zZTEz",
                "spdx_id": "MIT",
                "url": "https://api.github.com/licenses/mit"
            },
            "merges_url": "https://api.github.com/repos/PrismarineJS/mineflayer/merges",
            "milestones_url": "https://api.github.com/repos/PrismarineJS/mineflayer/milestones{/number}",
            "mirror_url": null,
            "name": "mineflayer",
            "node_id": "MDEwOlJlcG9zaXRvcnkxMjg0MTg1",
            "notifications_url": "https://api.github.com/repos/PrismarineJS/mineflayer/notifications{?since,all,participating}",
            "open_issues": 285,
            "open_issues_count": 285,
            "owner": {
                "avatar_url": "https://avatars.githubusercontent.com/u/11053411?v=4",
                "events_url": "https://api.github.com/users/PrismarineJS/events{/privacy}",
                "followers_url": "https://api.github.com/users/PrismarineJS/followers",
                "following_url": "https://api.github.com/users/PrismarineJS/following{/other_user}",
                "gists_url": "https://api.github.com/users/PrismarineJS/gists{/gist_id}",
                "gravatar_id": "",
                "html_url": "https://github.com/PrismarineJS",
                "id": 11053411,
                "login": "PrismarineJS",
                "node_id": "MDEyOk9yZ2FuaXphdGlvbjExMDUzNDEx",
                "organizations_url": "https://api.github.com/users/PrismarineJS/orgs",
                "received_events_url": "https://api.github.com/users/PrismarineJS/received_events",
                "repos_url": "https://api.github.com/users/PrismarineJS/repos",
                "site_admin": false,
                "starred_url": "https://api.github.com/users/PrismarineJS/starred{/owner}{/repo}",
                "subscriptions_url": "https://api.github.com/users/PrismarineJS/subscriptions",
                "type": "Organization",
                "url": "https://api.github.com/users/PrismarineJS"
            },
            "private": false,
            "pulls_url": "https://api.github.com/repos/PrismarineJS/mineflayer/pulls{/number}",
            "pushed_at": "2023-12-31T14:33:20Z",
            "releases_url": "https://api.github.com/repos/PrismarineJS/mineflayer/releases{/id}",
            "size": 12179,
            "ssh_url": "git@github.com:PrismarineJS/mineflayer.git",
            "stargazers_count": 4288,
            "stargazers_url": "https://api.github.com/repos/PrismarineJS/mineflayer/stargazers",
            "statuses_url": "https://api.github.com/repos/PrismarineJS/mineflayer/statuses/{sha}",
            "subscribers_url": "https://api.github.com/repos/PrismarineJS/mineflayer/subscribers",
            "subscription_url": "https://api.github.com/repos/PrismarineJS/mineflayer/subscription",
            "svn_url": "https://github.com/PrismarineJS/mineflayer",
            "tags_url": "https://api.github.com/repos/PrismarineJS/mineflayer/tags",
            "teams_url": "https://api.github.com/repos/PrismarineJS/mineflayer/teams",
            "topics": [
                "bot",
                "minecraft",
                "minecraft-api",
                "minecraft-bot",
                "network",
                "nodejs"
            ],
            "trees_url": "https://api.github.com/repos/PrismarineJS/mineflayer/git/trees{/sha}",
            "updated_at": "2023-12-31T08:36:38Z",
            "url": "https://api.github.com/repos/PrismarineJS/mineflayer",
            "visibility": "public",
            "watchers": 4288,
            "watchers_count": 4288,
            "web_commit_signoff_required": false
        },
        "sha": "24bb61a2953dc6cd47c5f93c51a6f40b6e72401e",
        "user": {
            "avatar_url": "https://avatars.githubusercontent.com/u/11053411?v=4",
            "events_url": "https://api.github.com/users/PrismarineJS/events{/privacy}",
            "followers_url": "https://api.github.com/users/PrismarineJS/followers",
            "following_url": "https://api.github.com/users/PrismarineJS/following{/other_user}",
            "gists_url": "https://api.github.com/users/PrismarineJS/gists{/gist_id}",
            "gravatar_id": "",
            "html_url": "https://github.com/PrismarineJS",
            "id": 11053411,
            "login": "PrismarineJS",
            "node_id": "MDEyOk9yZ2FuaXphdGlvbjExMDUzNDEx",
            "organizations_url": "https://api.github.com/users/PrismarineJS/orgs",
            "received_events_url": "https://api.github.com/users/PrismarineJS/received_events",
            "repos_url": "https://api.github.com/users/PrismarineJS/repos",
            "site_admin": false,
            "starred_url": "https://api.github.com/users/PrismarineJS/starred{/owner}{/repo}",
            "subscriptions_url": "https://api.github.com/users/PrismarineJS/subscriptions",
            "type": "Organization",
            "url": "https://api.github.com/users/PrismarineJS"
        }
    },
    "html_url": "https://github.com/PrismarineJS/mineflayer/pull/3264",
    "id": 1660525261,
    "issue_url": "https://api.github.com/repos/PrismarineJS/mineflayer/issues/3264",
    "labels": [],
    "locked": false,
    "maintainer_can_modify": false,
    "merge_commit_sha": "931a4187965aef686c6188b944de84455c65b827",
    "mergeable": null,
    "mergeable_state": "unknown",
    "merged": true,
    "merged_at": "2023-12-31T11:14:51Z",
    "merged_by": {
        "avatar_url": "https://avatars.githubusercontent.com/u/2346494?v=4",
        "events_url": "https://api.github.com/users/rom1504/events{/privacy}",
        "followers_url": "https://api.github.com/users/rom1504/followers",
        "following_url": "https://api.github.com/users/rom1504/following{/other_user}",
        "gists_url": "https://api.github.com/users/rom1504/gists{/gist_id}",
        "gravatar_id": "",
        "html_url": "https://github.com/rom1504",
        "id": 2346494,
        "login": "rom1504",
        "node_id": "MDQ6VXNlcjIzNDY0OTQ=",
        "organizations_url": "https://api.github.com/users/rom1504/orgs",
        "received_events_url": "https://api.github.com/users/rom1504/received_events",
        "repos_url": "https://api.github.com/users/rom1504/repos",
        "site_admin": false,
        "starred_url": "https://api.github.com/users/rom1504/starred{/owner}{/repo}",
        "subscriptions_url": "https://api.github.com/users/rom1504/subscriptions",
        "type": "User",
        "url": "https://api.github.com/users/rom1504"
    },
    "milestone": null,
    "node_id": "PR_kwDOABOYWc5i-ZrN",
    "number": 3264,
    "patch_url": "https://github.com/PrismarineJS/mineflayer/pull/3264.patch",
    "rebaseable": null,
    "requested_reviewers": [],
    "requested_teams": [],
    "review_comment_url": "https://api.github.com/repos/PrismarineJS/mineflayer/pulls/comments{/number}",
    "review_comments": 0,
    "review_comments_url": "https://api.github.com/repos/PrismarineJS/mineflayer/pulls/3264/comments",
    "state": "closed",
    "statuses_url": "https://api.github.com/repos/PrismarineJS/mineflayer/statuses/24bb61a2953dc6cd47c5f93c51a6f40b6e72401e",
    "title": "Make explicit supported versions in readme",
    "updated_at": "2023-12-31T11:14:51Z",
    "url": "https://api.github.com/repos/PrismarineJS/mineflayer/pulls/3264",
    "user": {
        "avatar_url": "https://avatars.githubusercontent.com/u/2346494?v=4",
        "events_url": "https://api.github.com/users/rom1504/events{/privacy}",
        "followers_url": "https://api.github.com/users/rom1504/followers",
        "following_url": "https://api.github.com/users/rom1504/following{/other_user}",
        "gists_url": "https://api.github.com/users/rom1504/gists{/gist_id}",
        "gravatar_id": "",
        "html_url": "https://github.com/rom1504",
        "id": 2346494,
        "login": "rom1504",
        "node_id": "MDQ6VXNlcjIzNDY0OTQ=",
        "organizations_url": "https://api.github.com/users/rom1504/orgs",
        "received_events_url": "https://api.github.com/users/rom1504/received_events",
        "repos_url": "https://api.github.com/users/rom1504/repos",
        "site_admin": false,
        "starred_url": "https://api.github.com/users/rom1504/starred{/owner}{/repo}",
        "subscriptions_url": "https://api.github.com/users/rom1504/subscriptions",
        "type": "User",
        "url": "https://api.github.com/users/rom1504"
    }
}