{
    "_links": {
        "comments": {
            "href": "https://api.github.com/repos/PrismarineJS/mineflayer/issues/3335/comments"
        },
        "commits": {
            "href": "https://api.github.com/repos/PrismarineJS/mineflayer/pulls/3335/commits"
        },
        "html": {
            "href": "https://github.com/PrismarineJS/mineflayer/pull/3335"
        },
        "issue": {
            "href": "https://api.github.com/repos/PrismarineJS/mineflayer/issues/3335"
        },
        "review_comment": {
            "href": "https://api.github.com/repos/PrismarineJS/mineflayer/pulls/comments{/number}"
        },
        "review_comments": {
            "href": "https://api.github.com/repos/PrismarineJS/mineflayer/pulls/3335/comments"
        },
        "self": {
            "href": "https://api.github.com/repos/PrismarineJS/mineflayer/pulls/3335"
        },
        "statuses": {
            "href": "https://api.github.com/repos/PrismarineJS/mineflayer/statuses/495a5540f5bb48a422296212008a431580184c86"
        }
    },
    "active_lock_reason": null,
    "additions": 7,
    "assignee": null,
    "assignees": [],
    "author_association": "NONE",
    "auto_merge": null,
    "base": {
        "label": "PrismarineJS:master",
        "ref": "master",
        "repo": {
            "allow_forking": true,
            "archive_url": "https://api.github.com/repos/PrismarineJS/mineflayer/{archive_format}{/ref}",
            "archived": false,
            "assignees_url": "https://api.github.com/repos/PrismarineJS/mineflayer/assignees{/user}",
            "blobs_url": "https://api.github.com/repos/PrismarineJS/mineflayer/git/blobs{/sha}",
            "branches_url": "https://api.github.com/repos/PrismarineJS/mineflayer/branches{/branch}",
            "clone_url": "https://github.com/PrismarineJS/mineflayer.git",
            "collaborators_url": "https://api.github.com/repos/PrismarineJS/mineflayer/collaborators{/collaborator}",
            "comments_url": "https://api.github.com/repos/PrismarineJS/mineflayer/comments{/number}",
            "commits_url": "https://api.github.com/repos/PrismarineJS/mineflayer/commits{/sha}",
            "compare_url": "https://api.github.com/repos/PrismarineJS/mineflayer/compare/{base}...{head}",
            "contents_url": "https://api.github.com/repos/PrismarineJS/mineflayer/contents/{+path}",
            "contributors_url": "https://api.github.com/repos/PrismarineJS/mineflayer/contributors",
            "created_at": "2011-01-23T09:41:55Z",
            "default_branch": "master",
            "deployments_url": "https://api.github.com/repos/PrismarineJS/mineflayer/deployments",
            "description": "Create Minecraft bots with a powerful, stable, and high level JavaScript API.",
            "disabled": false,
            "downloads_url": "https://api.github.com/repos/PrismarineJS/mineflayer/downloads",
            "events_url": "https://api.github.com/repos/PrismarineJS/mineflayer/events",
            "fork": false,
            "forks": 826,
            "forks_count": 826,
            "forks_url": "https://api.github.com/repos/PrismarineJS/mineflayer/forks",
            "full_name": "PrismarineJS/mineflayer",
            "git_commits_url": "https://api.github.com/repos/PrismarineJS/mineflayer/git/commits{/sha}",
            "git_refs_url": "https://api.github.com/repos/PrismarineJS/mineflayer/git/refs{/sha}",
            "git_tags_url": "https://api.github.com/repos/PrismarineJS/mineflayer/git/tags{/sha}",
            "git_url": "git://github.com/PrismarineJS/mineflayer.git",
            "has_discussions": true,
            "has_downloads": true,
            "has_issues": true,
            "has_pages": true,
            "has_projects": true,
            "has_wiki": true,
            "homepage": "https://prismarinejs.github.io/mineflayer/",
            "hooks_url": "https://api.github.com/repos/PrismarineJS/mineflayer/hooks",
            "html_url": "https://github.com/PrismarineJS/mineflayer",
            "id": 1284185,
            "is_template": false,
            "issue_comment_url": "https://api.github.com/repos/PrismarineJS/mineflayer/issues/comments{/number}",
            "issue_events_url": "https://api.github.com/repos/PrismarineJS/mineflayer/issues/events{/number}",
            "issues_url": "https://api.github.com/repos/PrismarineJS/mineflayer/issues{/number}",
            "keys_url": "https://api.github.com/repos/PrismarineJS/mineflayer/keys{/key_id}",
            "labels_url": "https://api.github.com/repos/PrismarineJS/mineflayer/labels{/name}",
            "language": "JavaScript",
            "languages_url": "https://api.github.com/repos/PrismarineJS/mineflayer/languages",
            "license": {
                "key": "mit",
                "name": "MIT License",
                "node_id": "MDc6TGljZW5zZTEz",
                "spdx_id": "MIT",
                "url": "https://api.github.com/licenses/mit"
            },
            "merges_url": "https://api.github.com/repos/PrismarineJS/mineflayer/merges",
            "milestones_url": "https://api.github.com/repos/PrismarineJS/mineflayer/milestones{/number}",
            "mirror_url": null,
            "name": "mineflayer",
            "node_id": "MDEwOlJlcG9zaXRvcnkxMjg0MTg1",
            "notifications_url": "https://api.github.com/repos/PrismarineJS/mineflayer/notifications{?since,all,participating}",
            "open_issues": 295,
            "open_issues_count": 295,
            "owner": {
                "avatar_url": "https://avatars.githubusercontent.com/u/11053411?v=4",
                "events_url": "https://api.github.com/users/PrismarineJS/events{/privacy}",
                "followers_url": "https://api.github.com/users/PrismarineJS/followers",
                "following_url": "https://api.github.com/users/PrismarineJS/following{/other_user}",
                "gists_url": "https://api.github.com/users/PrismarineJS/gists{/gist_id}",
                "gravatar_id": "",
                "html_url": "https://github.com/PrismarineJS",
                "id": 11053411,
                "login": "PrismarineJS",
                "node_id": "MDEyOk9yZ2FuaXphdGlvbjExMDUzNDEx",
                "organizations_url": "https://api.github.com/users/PrismarineJS/orgs",
                "received_events_url": "https://api.github.com/users/PrismarineJS/received_events",
                "repos_url": "https://api.github.com/users/PrismarineJS/repos",
                "site_admin": false,
                "starred_url": "https://api.github.com/users/PrismarineJS/starred{/owner}{/repo}",
                "subscriptions_url": "https://api.github.com/users/PrismarineJS/subscriptions",
                "type": "Organization",
                "url": "https://api.github.com/users/PrismarineJS"
            },
            "private": false,
            "pulls_url": "https://api.github.com/repos/PrismarineJS/mineflayer/pulls{/number}",
            "pushed_at": "2024-03-24T08:24:56Z",
            "releases_url": "https://api.github.com/repos/PrismarineJS/mineflayer/releases{/id}",
            "size": 12384,
            "ssh_url": "git@github.com:PrismarineJS/mineflayer.git",
            "stargazers_count": 4504,
            "stargazers_url": "https://api.github.com/repos/PrismarineJS/mineflayer/stargazers",
            "statuses_url": "https://api.github.com/repos/PrismarineJS/mineflayer/statuses/{sha}",
            "subscribers_url": "https://api.github.com/repos/PrismarineJS/mineflayer/subscribers",
            "subscription_url": "https://api.github.com/repos/PrismarineJS/mineflayer/subscription",
            "svn_url": "https://github.com/PrismarineJS/mineflayer",
            "tags_url": "https://api.github.com/repos/PrismarineJS/mineflayer/tags",
            "teams_url": "https://api.github.com/repos/PrismarineJS/mineflayer/teams",
            "topics": [
                "bot",
                "minecraft",
                "minecraft-api",
                "minecraft-bot",
                "network",
                "nodejs"
            ],
            "trees_url": "https://api.github.com/repos/PrismarineJS/mineflayer/git/trees{/sha}",
            "updated_at": "2024-03-24T20:17:02Z",
            "url": "https://api.github.com/repos/PrismarineJS/mineflayer",
            "visibility": "public",
            "watchers": 4504,
            "watchers_count": 4504,
            "web_commit_signoff_required": false
        },
        "sha": "195b3cbd70a110080af9b77a4659991c5d9e484a",
        "user": {
            "avatar_url": "https://avatars.githubusercontent.com/u/11053411?v=4",
            "events_url": "https://api.github.com/users/PrismarineJS/events{/privacy}",
            "followers_url": "https://api.github.com/users/PrismarineJS/followers",
            "following_url": "https://api.github.com/users/PrismarineJS/following{/other_user}",
            "gists_url": "https://api.github.com/users/PrismarineJS/gists{/gist_id}",
            "gravatar_id": "",
            "html_url": "https://github.com/PrismarineJS",
            "id": 11053411,
            "login": "PrismarineJS",
            "node_id": "MDEyOk9yZ2FuaXphdGlvbjExMDUzNDEx",
            "organizations_url": "https://api.github.com/users/PrismarineJS/orgs",
            "received_events_url": "https://api.github.com/users/PrismarineJS/received_events",
            "repos_url": "https://api.github.com/users/PrismarineJS/repos",
            "site_admin": false,
            "starred_url": "https://api.github.com/users/PrismarineJS/starred{/owner}{/repo}",
            "subscriptions_url": "https://api.github.com/users/PrismarineJS/subscriptions",
            "type": "Organization",
            "url": "https://api.github.com/users/PrismarineJS"
        }
    },
    "body": "Added a more detailed code example, showing how to make a command and bot response.",
    "changed_files": 1,
    "closed_at": "2024-03-24T15:22:00Z",
    "comment_data": [],
    "comment_regular_data": [
        {
            "author_association": "MEMBER",
            "body": "The point of the example is to be simple. Your change seems to make it more complex by wrapping one event in another event and removing the recursion check, so I don't see the improvement here",
            "created_at": "2024-03-24T09:20:59Z",
            "html_url": "https://github.com/PrismarineJS/mineflayer/pull/3335#issuecomment-2016746243",
            "id": 2016746243,
            "issue_url": "https://api.github.com/repos/PrismarineJS/mineflayer/issues/3335",
            "node_id": "IC_kwDOABOYWc54NRsD",
            "performed_via_github_app": null,
            "reactions": {
                "+1": 0,
                "-1": 0,
                "confused": 0,
                "eyes": 0,
                "heart": 0,
                "hooray": 0,
                "laugh": 0,
                "rocket": 0,
                "total_count": 0,
                "url": "https://api.github.com/repos/PrismarineJS/mineflayer/issues/comments/2016746243/reactions"
            },
            "updated_at": "2024-03-24T09:20:59Z",
            "url": "https://api.github.com/repos/PrismarineJS/mineflayer/issues/comments/2016746243",
            "user": {
                "avatar_url": "https://avatars.githubusercontent.com/u/13713600?v=4",
                "events_url": "https://api.github.com/users/extremeheat/events{/privacy}",
                "followers_url": "https://api.github.com/users/extremeheat/followers",
                "following_url": "https://api.github.com/users/extremeheat/following{/other_user}",
                "gists_url": "https://api.github.com/users/extremeheat/gists{/gist_id}",
                "gravatar_id": "",
                "html_url": "https://github.com/extremeheat",
                "id": 13713600,
                "login": "extremeheat",
                "node_id": "MDQ6VXNlcjEzNzEzNjAw",
                "organizations_url": "https://api.github.com/users/extremeheat/orgs",
                "received_events_url": "https://api.github.com/users/extremeheat/received_events",
                "repos_url": "https://api.github.com/users/extremeheat/repos",
                "site_admin": false,
                "starred_url": "https://api.github.com/users/extremeheat/starred{/owner}{/repo}",
                "subscriptions_url": "https://api.github.com/users/extremeheat/subscriptions",
                "type": "User",
                "url": "https://api.github.com/users/extremeheat"
            }
        },
        {
            "author_association": "NONE",
            "body": "> The point of the example is to be simple. Your change seems to make it more complex by wrapping one event in another event and removing the recursion check, so I don't see the improvement here\r\n@extremeheat \r\n\r\nUnderstandable enough. I thought it might be nice to give a more in depth example, because even though it is slightly more confusing, it is more detailed and better. Apologies, have a great day.\r\n",
            "created_at": "2024-03-24T15:22:00Z",
            "html_url": "https://github.com/PrismarineJS/mineflayer/pull/3335#issuecomment-2016843116",
            "id": 2016843116,
            "issue_url": "https://api.github.com/repos/PrismarineJS/mineflayer/issues/3335",
            "node_id": "IC_kwDOABOYWc54NpVs",
            "performed_via_github_app": null,
            "reactions": {
                "+1": 0,
                "-1": 0,
                "confused": 0,
                "eyes": 0,
                "heart": 0,
                "hooray": 0,
                "laugh": 0,
                "rocket": 0,
                "total_count": 0,
                "url": "https://api.github.com/repos/PrismarineJS/mineflayer/issues/comments/2016843116/reactions"
            },
            "updated_at": "2024-03-24T15:22:00Z",
            "url": "https://api.github.com/repos/PrismarineJS/mineflayer/issues/comments/2016843116",
            "user": {
                "avatar_url": "https://avatars.githubusercontent.com/u/157256550?v=4",
                "events_url": "https://api.github.com/users/ChrisArbogast/events{/privacy}",
                "followers_url": "https://api.github.com/users/ChrisArbogast/followers",
                "following_url": "https://api.github.com/users/ChrisArbogast/following{/other_user}",
                "gists_url": "https://api.github.com/users/ChrisArbogast/gists{/gist_id}",
                "gravatar_id": "",
                "html_url": "https://github.com/ChrisArbogast",
                "id": 157256550,
                "login": "ChrisArbogast",
                "node_id": "U_kgDOCV-LZg",
                "organizations_url": "https://api.github.com/users/ChrisArbogast/orgs",
                "received_events_url": "https://api.github.com/users/ChrisArbogast/received_events",
                "repos_url": "https://api.github.com/users/ChrisArbogast/repos",
                "site_admin": false,
                "starred_url": "https://api.github.com/users/ChrisArbogast/starred{/owner}{/repo}",
                "subscriptions_url": "https://api.github.com/users/ChrisArbogast/subscriptions",
                "type": "User",
                "url": "https://api.github.com/users/ChrisArbogast"
            }
        }
    ],
    "comments": 2,
    "comments_url": "https://api.github.com/repos/PrismarineJS/mineflayer/issues/3335/comments",
    "commit_data": [
        {
            "author": {
                "avatar_url": "https://avatars.githubusercontent.com/u/157256550?v=4",
                "events_url": "https://api.github.com/users/ChrisArbogast/events{/privacy}",
                "followers_url": "https://api.github.com/users/ChrisArbogast/followers",
                "following_url": "https://api.github.com/users/ChrisArbogast/following{/other_user}",
                "gists_url": "https://api.github.com/users/ChrisArbogast/gists{/gist_id}",
                "gravatar_id": "",
                "html_url": "https://github.com/ChrisArbogast",
                "id": 157256550,
                "login": "ChrisArbogast",
                "node_id": "U_kgDOCV-LZg",
                "organizations_url": "https://api.github.com/users/ChrisArbogast/orgs",
                "received_events_url": "https://api.github.com/users/ChrisArbogast/received_events",
                "repos_url": "https://api.github.com/users/ChrisArbogast/repos",
                "site_admin": false,
                "starred_url": "https://api.github.com/users/ChrisArbogast/starred{/owner}{/repo}",
                "subscriptions_url": "https://api.github.com/users/ChrisArbogast/subscriptions",
                "type": "User",
                "url": "https://api.github.com/users/ChrisArbogast"
            },
            "comments_url": "https://api.github.com/repos/PrismarineJS/mineflayer/commits/495a5540f5bb48a422296212008a431580184c86/comments",
            "commit": {
                "author": {
                    "date": "2024-03-24T08:23:49Z",
                    "email": "157256550+ChrisArbogast@users.noreply.github.com",
                    "name": "Christian Arbogast"
                },
                "comment_count": 0,
                "committer": {
                    "date": "2024-03-24T08:23:49Z",
                    "email": "noreply@github.com",
                    "name": "GitHub"
                },
                "message": "Update README.md\n\nAdded a more detailed code example, showing how to make a command and bot response.",
                "tree": {
                    "sha": "9169eab42731438a1382e2b2afb9c4e8768a87a1",
                    "url": "https://api.github.com/repos/PrismarineJS/mineflayer/git/trees/9169eab42731438a1382e2b2afb9c4e8768a87a1"
                },
                "url": "https://api.github.com/repos/PrismarineJS/mineflayer/git/commits/495a5540f5bb48a422296212008a431580184c86",
                "verification": {
                    "payload": "tree 9169eab42731438a1382e2b2afb9c4e8768a87a1\nparent 195b3cbd70a110080af9b77a4659991c5d9e484a\nauthor Christian Arbogast <157256550+ChrisArbogast@users.noreply.github.com> 1711268629 -0700\ncommitter GitHub <noreply@github.com> 1711268629 -0700\n\nUpdate README.md\n\nAdded a more detailed code example, showing how to make a command and bot response.",
                    "reason": "valid",
                    "signature": "-----BEGIN PGP SIGNATURE-----\n\nwsFcBAABCAAQBQJl/+MVCRC1aQ7uu5UhlAAAHrcQAFJ783lF/oAlu27YT78Y1MAn\nP3XZ70w8EoWZwnC+LNCj9f6TVzrW2SNn8KQcW6ktQ6U1X2tesXx/hpzGS0dRBn/n\nHoCd0a172KkxIkWe4znOJEDvZceNtbrkVuabwtPXfBcxt+Xjh/xqBfLib/nd2dUW\nLaqUhWRrvvY2qLDGyZCUz4iMiSqP1VenR0U1vvAcOOkS2SyI5GOCGrgVqO3ug5Ci\nq4d8hRTW2Y0MRuoPJJGulvbK8Nn0v1CyCGCQiJ8D432k8JW5AmlgwuWS3olTuVji\nlu8BKs3oQtn4LA1Ox7oq8WS+GoJfZAWEKdNt+PbCnCdHr8dnP1R3P9YS6uztxXBH\nHHLShRKvmbHs8GHg5k/5L6QsevKQNph2g2PwL+KFwIhTI14lh/RWcDaotgOGFYsk\nJB/OWLn5lsJFS8/epFdAHjNKO85CejkIOBMVXkHNl0Ihqq5Y6RJMv0pHj7mfOsAp\nXS/uJwX4Gj0boU6Jd4m/wR+8oLLkZBX/g3J2IAfb2C+deYy4Q6WpmwYbXz/e9qjA\nIpjJpJ7CGpHqUBg6m6HMqwYd6UT5+XrB8CMMupkL52xFBQBxTyWDfWxroh8riK33\nby3ENI/5Ss45xzxP3FyQ0vth3sSp9w3Jx9CDn3bdtSRmim7eXsmfNAjJr4Y6/Z4Y\nCgp3wD8Vypc4wn8uW3eC\n=/lpk\n-----END PGP SIGNATURE-----\n",
                    "verified": true
                }
            },
            "committer": {
                "avatar_url": "https://avatars.githubusercontent.com/u/19864447?v=4",
                "events_url": "https://api.github.com/users/web-flow/events{/privacy}",
                "followers_url": "https://api.github.com/users/web-flow/followers",
                "following_url": "https://api.github.com/users/web-flow/following{/other_user}",
                "gists_url": "https://api.github.com/users/web-flow/gists{/gist_id}",
                "gravatar_id": "",
                "html_url": "https://github.com/web-flow",
                "id": 19864447,
                "login": "web-flow",
                "node_id": "MDQ6VXNlcjE5ODY0NDQ3",
                "organizations_url": "https://api.github.com/users/web-flow/orgs",
                "received_events_url": "https://api.github.com/users/web-flow/received_events",
                "repos_url": "https://api.github.com/users/web-flow/repos",
                "site_admin": false,
                "starred_url": "https://api.github.com/users/web-flow/starred{/owner}{/repo}",
                "subscriptions_url": "https://api.github.com/users/web-flow/subscriptions",
                "type": "User",
                "url": "https://api.github.com/users/web-flow"
            },
            "html_url": "https://github.com/PrismarineJS/mineflayer/commit/495a5540f5bb48a422296212008a431580184c86",
            "node_id": "C_kwDOABOYWdoAKDQ5NWE1NTQwZjViYjQ4YTQyMjI5NjIxMjAwOGE0MzE1ODAxODRjODY",
            "parents": [
                {
                    "html_url": "https://github.com/PrismarineJS/mineflayer/commit/195b3cbd70a110080af9b77a4659991c5d9e484a",
                    "sha": "195b3cbd70a110080af9b77a4659991c5d9e484a",
                    "url": "https://api.github.com/repos/PrismarineJS/mineflayer/commits/195b3cbd70a110080af9b77a4659991c5d9e484a"
                }
            ],
            "sha": "495a5540f5bb48a422296212008a431580184c86",
            "url": "https://api.github.com/repos/PrismarineJS/mineflayer/commits/495a5540f5bb48a422296212008a431580184c86"
        }
    ],
    "commits": 1,
    "commits_url": "https://api.github.com/repos/PrismarineJS/mineflayer/pulls/3335/commits",
    "created_at": "2024-03-24T08:24:56Z",
    "deletions": 4,
    "diff_url": "https://github.com/PrismarineJS/mineflayer/pull/3335.diff",
    "draft": false,
    "head": {
        "label": "ChrisArbogast:master",
        "ref": "master",
        "repo": {
            "allow_forking": true,
            "archive_url": "https://api.github.com/repos/ChrisArbogast/mineflayer/{archive_format}{/ref}",
            "archived": false,
            "assignees_url": "https://api.github.com/repos/ChrisArbogast/mineflayer/assignees{/user}",
            "blobs_url": "https://api.github.com/repos/ChrisArbogast/mineflayer/git/blobs{/sha}",
            "branches_url": "https://api.github.com/repos/ChrisArbogast/mineflayer/branches{/branch}",
            "clone_url": "https://github.com/ChrisArbogast/mineflayer.git",
            "collaborators_url": "https://api.github.com/repos/ChrisArbogast/mineflayer/collaborators{/collaborator}",
            "comments_url": "https://api.github.com/repos/ChrisArbogast/mineflayer/comments{/number}",
            "commits_url": "https://api.github.com/repos/ChrisArbogast/mineflayer/commits{/sha}",
            "compare_url": "https://api.github.com/repos/ChrisArbogast/mineflayer/compare/{base}...{head}",
            "contents_url": "https://api.github.com/repos/ChrisArbogast/mineflayer/contents/{+path}",
            "contributors_url": "https://api.github.com/repos/ChrisArbogast/mineflayer/contributors",
            "created_at": "2024-03-24T08:19:33Z",
            "default_branch": "master",
            "deployments_url": "https://api.github.com/repos/ChrisArbogast/mineflayer/deployments",
            "description": "Create Minecraft bots with a powerful, stable, and high level JavaScript API.",
            "disabled": true,
            "downloads_url": "https://api.github.com/repos/ChrisArbogast/mineflayer/downloads",
            "events_url": "https://api.github.com/repos/ChrisArbogast/mineflayer/events",
            "fork": true,
            "forks": 0,
            "forks_count": 0,
            "forks_url": "https://api.github.com/repos/ChrisArbogast/mineflayer/forks",
            "full_name": "ChrisArbogast/mineflayer",
            "git_commits_url": "https://api.github.com/repos/ChrisArbogast/mineflayer/git/commits{/sha}",
            "git_refs_url": "https://api.github.com/repos/ChrisArbogast/mineflayer/git/refs{/sha}",
            "git_tags_url": "https://api.github.com/repos/ChrisArbogast/mineflayer/git/tags{/sha}",
            "git_url": "git://github.com/ChrisArbogast/mineflayer.git",
            "has_discussions": false,
            "has_downloads": true,
            "has_issues": false,
            "has_pages": false,
            "has_projects": true,
            "has_wiki": true,
            "homepage": "https://prismarinejs.github.io/mineflayer/",
            "hooks_url": "https://api.github.com/repos/ChrisArbogast/mineflayer/hooks",
            "html_url": "https://github.com/ChrisArbogast/mineflayer",
            "id": 776697560,
            "is_template": false,
            "issue_comment_url": "https://api.github.com/repos/ChrisArbogast/mineflayer/issues/comments{/number}",
            "issue_events_url": "https://api.github.com/repos/ChrisArbogast/mineflayer/issues/events{/number}",
            "issues_url": "https://api.github.com/repos/ChrisArbogast/mineflayer/issues{/number}",
            "keys_url": "https://api.github.com/repos/ChrisArbogast/mineflayer/keys{/key_id}",
            "labels_url": "https://api.github.com/repos/ChrisArbogast/mineflayer/labels{/name}",
            "language": "JavaScript",
            "languages_url": "https://api.github.com/repos/ChrisArbogast/mineflayer/languages",
            "license": {
                "key": "mit",
                "name": "MIT License",
                "node_id": "MDc6TGljZW5zZTEz",
                "spdx_id": "MIT",
                "url": "https://api.github.com/licenses/mit"
            },
            "merges_url": "https://api.github.com/repos/ChrisArbogast/mineflayer/merges",
            "milestones_url": "https://api.github.com/repos/ChrisArbogast/mineflayer/milestones{/number}",
            "mirror_url": null,
            "name": "mineflayer",
            "node_id": "R_kgDOLkt22A",
            "notifications_url": "https://api.github.com/repos/ChrisArbogast/mineflayer/notifications{?since,all,participating}",
            "open_issues": 0,
            "open_issues_count": 0,
            "owner": {
                "avatar_url": "https://avatars.githubusercontent.com/u/157256550?v=4",
                "events_url": "https://api.github.com/users/ChrisArbogast/events{/privacy}",
                "followers_url": "https://api.github.com/users/ChrisArbogast/followers",
                "following_url": "https://api.github.com/users/ChrisArbogast/following{/other_user}",
                "gists_url": "https://api.github.com/users/ChrisArbogast/gists{/gist_id}",
                "gravatar_id": "",
                "html_url": "https://github.com/ChrisArbogast",
                "id": 157256550,
                "login": "ChrisArbogast",
                "node_id": "U_kgDOCV-LZg",
                "organizations_url": "https://api.github.com/users/ChrisArbogast/orgs",
                "received_events_url": "https://api.github.com/users/ChrisArbogast/received_events",
                "repos_url": "https://api.github.com/users/ChrisArbogast/repos",
                "site_admin": false,
                "starred_url": "https://api.github.com/users/ChrisArbogast/starred{/owner}{/repo}",
                "subscriptions_url": "https://api.github.com/users/ChrisArbogast/subscriptions",
                "type": "User",
                "url": "https://api.github.com/users/ChrisArbogast"
            },
            "private": false,
            "pulls_url": "https://api.github.com/repos/ChrisArbogast/mineflayer/pulls{/number}",
            "pushed_at": "2024-03-24T08:23:49Z",
            "releases_url": "https://api.github.com/repos/ChrisArbogast/mineflayer/releases{/id}",
            "size": 12252,
            "ssh_url": "git@github.com:ChrisArbogast/mineflayer.git",
            "stargazers_count": 0,
            "stargazers_url": "https://api.github.com/repos/ChrisArbogast/mineflayer/stargazers",
            "statuses_url": "https://api.github.com/repos/ChrisArbogast/mineflayer/statuses/{sha}",
            "subscribers_url": "https://api.github.com/repos/ChrisArbogast/mineflayer/subscribers",
            "subscription_url": "https://api.github.com/repos/ChrisArbogast/mineflayer/subscription",
            "svn_url": "https://github.com/ChrisArbogast/mineflayer",
            "tags_url": "https://api.github.com/repos/ChrisArbogast/mineflayer/tags",
            "teams_url": "https://api.github.com/repos/ChrisArbogast/mineflayer/teams",
            "topics": [],
            "trees_url": "https://api.github.com/repos/ChrisArbogast/mineflayer/git/trees{/sha}",
            "updated_at": "2024-03-24T15:25:16Z",
            "url": "https://api.github.com/repos/ChrisArbogast/mineflayer",
            "visibility": "public",
            "watchers": 0,
            "watchers_count": 0,
            "web_commit_signoff_required": false
        },
        "sha": "495a5540f5bb48a422296212008a431580184c86",
        "user": {
            "avatar_url": "https://avatars.githubusercontent.com/u/157256550?v=4",
            "events_url": "https://api.github.com/users/ChrisArbogast/events{/privacy}",
            "followers_url": "https://api.github.com/users/ChrisArbogast/followers",
            "following_url": "https://api.github.com/users/ChrisArbogast/following{/other_user}",
            "gists_url": "https://api.github.com/users/ChrisArbogast/gists{/gist_id}",
            "gravatar_id": "",
            "html_url": "https://github.com/ChrisArbogast",
            "id": 157256550,
            "login": "ChrisArbogast",
            "node_id": "U_kgDOCV-LZg",
            "organizations_url": "https://api.github.com/users/ChrisArbogast/orgs",
            "received_events_url": "https://api.github.com/users/ChrisArbogast/received_events",
            "repos_url": "https://api.github.com/users/ChrisArbogast/repos",
            "site_admin": false,
            "starred_url": "https://api.github.com/users/ChrisArbogast/starred{/owner}{/repo}",
            "subscriptions_url": "https://api.github.com/users/ChrisArbogast/subscriptions",
            "type": "User",
            "url": "https://api.github.com/users/ChrisArbogast"
        }
    },
    "html_url": "https://github.com/PrismarineJS/mineflayer/pull/3335",
    "id": 1788099980,
    "issue_url": "https://api.github.com/repos/PrismarineJS/mineflayer/issues/3335",
    "labels": [],
    "locked": false,
    "maintainer_can_modify": false,
    "merge_commit_sha": "4dae3081eed13787d17aa47f731430cdbf684ed9",
    "mergeable": true,
    "mergeable_state": "blocked",
    "merged": false,
    "merged_at": null,
    "merged_by": null,
    "milestone": null,
    "node_id": "PR_kwDOABOYWc5qlD2M",
    "number": 3335,
    "patch_url": "https://github.com/PrismarineJS/mineflayer/pull/3335.patch",
    "rebaseable": false,
    "requested_reviewers": [],
    "requested_teams": [],
    "review_comment_url": "https://api.github.com/repos/PrismarineJS/mineflayer/pulls/comments{/number}",
    "review_comments": 0,
    "review_comments_url": "https://api.github.com/repos/PrismarineJS/mineflayer/pulls/3335/comments",
    "state": "closed",
    "statuses_url": "https://api.github.com/repos/PrismarineJS/mineflayer/statuses/495a5540f5bb48a422296212008a431580184c86",
    "title": "Update README.md",
    "updated_at": "2024-03-24T15:22:00Z",
    "url": "https://api.github.com/repos/PrismarineJS/mineflayer/pulls/3335",
    "user": {
        "avatar_url": "https://avatars.githubusercontent.com/u/157256550?v=4",
        "events_url": "https://api.github.com/users/ChrisArbogast/events{/privacy}",
        "followers_url": "https://api.github.com/users/ChrisArbogast/followers",
        "following_url": "https://api.github.com/users/ChrisArbogast/following{/other_user}",
        "gists_url": "https://api.github.com/users/ChrisArbogast/gists{/gist_id}",
        "gravatar_id": "",
        "html_url": "https://github.com/ChrisArbogast",
        "id": 157256550,
        "login": "ChrisArbogast",
        "node_id": "U_kgDOCV-LZg",
        "organizations_url": "https://api.github.com/users/ChrisArbogast/orgs",
        "received_events_url": "https://api.github.com/users/ChrisArbogast/received_events",
        "repos_url": "https://api.github.com/users/ChrisArbogast/repos",
        "site_admin": false,
        "starred_url": "https://api.github.com/users/ChrisArbogast/starred{/owner}{/repo}",
        "subscriptions_url": "https://api.github.com/users/ChrisArbogast/subscriptions",
        "type": "User",
        "url": "https://api.github.com/users/ChrisArbogast"
    }
}