{
    "_links": {
        "comments": {
            "href": "https://api.github.com/repos/PrismarineJS/mineflayer/issues/3603/comments"
        },
        "commits": {
            "href": "https://api.github.com/repos/PrismarineJS/mineflayer/pulls/3603/commits"
        },
        "html": {
            "href": "https://github.com/PrismarineJS/mineflayer/pull/3603"
        },
        "issue": {
            "href": "https://api.github.com/repos/PrismarineJS/mineflayer/issues/3603"
        },
        "review_comment": {
            "href": "https://api.github.com/repos/PrismarineJS/mineflayer/pulls/comments{/number}"
        },
        "review_comments": {
            "href": "https://api.github.com/repos/PrismarineJS/mineflayer/pulls/3603/comments"
        },
        "self": {
            "href": "https://api.github.com/repos/PrismarineJS/mineflayer/pulls/3603"
        },
        "statuses": {
            "href": "https://api.github.com/repos/PrismarineJS/mineflayer/statuses/4435fc905e0ad43097b356197cbf30511cacfc34"
        }
    },
    "active_lock_reason": null,
    "additions": 1,
    "assignee": null,
    "assignees": [],
    "author_association": "FIRST_TIME_CONTRIBUTOR",
    "auto_merge": null,
    "base": {
        "label": "PrismarineJS:master",
        "ref": "master",
        "repo": {
            "allow_forking": true,
            "archive_url": "https://api.github.com/repos/PrismarineJS/mineflayer/{archive_format}{/ref}",
            "archived": false,
            "assignees_url": "https://api.github.com/repos/PrismarineJS/mineflayer/assignees{/user}",
            "blobs_url": "https://api.github.com/repos/PrismarineJS/mineflayer/git/blobs{/sha}",
            "branches_url": "https://api.github.com/repos/PrismarineJS/mineflayer/branches{/branch}",
            "clone_url": "https://github.com/PrismarineJS/mineflayer.git",
            "collaborators_url": "https://api.github.com/repos/PrismarineJS/mineflayer/collaborators{/collaborator}",
            "comments_url": "https://api.github.com/repos/PrismarineJS/mineflayer/comments{/number}",
            "commits_url": "https://api.github.com/repos/PrismarineJS/mineflayer/commits{/sha}",
            "compare_url": "https://api.github.com/repos/PrismarineJS/mineflayer/compare/{base}...{head}",
            "contents_url": "https://api.github.com/repos/PrismarineJS/mineflayer/contents/{+path}",
            "contributors_url": "https://api.github.com/repos/PrismarineJS/mineflayer/contributors",
            "created_at": "2011-01-23T09:41:55Z",
            "default_branch": "master",
            "deployments_url": "https://api.github.com/repos/PrismarineJS/mineflayer/deployments",
            "description": "Create Minecraft bots with a powerful, stable, and high level JavaScript API.",
            "disabled": false,
            "downloads_url": "https://api.github.com/repos/PrismarineJS/mineflayer/downloads",
            "events_url": "https://api.github.com/repos/PrismarineJS/mineflayer/events",
            "fork": false,
            "forks": 987,
            "forks_count": 987,
            "forks_url": "https://api.github.com/repos/PrismarineJS/mineflayer/forks",
            "full_name": "PrismarineJS/mineflayer",
            "git_commits_url": "https://api.github.com/repos/PrismarineJS/mineflayer/git/commits{/sha}",
            "git_refs_url": "https://api.github.com/repos/PrismarineJS/mineflayer/git/refs{/sha}",
            "git_tags_url": "https://api.github.com/repos/PrismarineJS/mineflayer/git/tags{/sha}",
            "git_url": "git://github.com/PrismarineJS/mineflayer.git",
            "has_discussions": true,
            "has_downloads": true,
            "has_issues": true,
            "has_pages": true,
            "has_projects": true,
            "has_wiki": true,
            "homepage": "https://prismarinejs.github.io/mineflayer/",
            "hooks_url": "https://api.github.com/repos/PrismarineJS/mineflayer/hooks",
            "html_url": "https://github.com/PrismarineJS/mineflayer",
            "id": 1284185,
            "is_template": false,
            "issue_comment_url": "https://api.github.com/repos/PrismarineJS/mineflayer/issues/comments{/number}",
            "issue_events_url": "https://api.github.com/repos/PrismarineJS/mineflayer/issues/events{/number}",
            "issues_url": "https://api.github.com/repos/PrismarineJS/mineflayer/issues{/number}",
            "keys_url": "https://api.github.com/repos/PrismarineJS/mineflayer/keys{/key_id}",
            "labels_url": "https://api.github.com/repos/PrismarineJS/mineflayer/labels{/name}",
            "language": "JavaScript",
            "languages_url": "https://api.github.com/repos/PrismarineJS/mineflayer/languages",
            "license": {
                "key": "mit",
                "name": "MIT License",
                "node_id": "MDc6TGljZW5zZTEz",
                "spdx_id": "MIT",
                "url": "https://api.github.com/licenses/mit"
            },
            "merges_url": "https://api.github.com/repos/PrismarineJS/mineflayer/merges",
            "milestones_url": "https://api.github.com/repos/PrismarineJS/mineflayer/milestones{/number}",
            "mirror_url": null,
            "name": "mineflayer",
            "node_id": "MDEwOlJlcG9zaXRvcnkxMjg0MTg1",
            "notifications_url": "https://api.github.com/repos/PrismarineJS/mineflayer/notifications{?since,all,participating}",
            "open_issues": 358,
            "open_issues_count": 358,
            "owner": {
                "avatar_url": "https://avatars.githubusercontent.com/u/11053411?v=4",
                "events_url": "https://api.github.com/users/PrismarineJS/events{/privacy}",
                "followers_url": "https://api.github.com/users/PrismarineJS/followers",
                "following_url": "https://api.github.com/users/PrismarineJS/following{/other_user}",
                "gists_url": "https://api.github.com/users/PrismarineJS/gists{/gist_id}",
                "gravatar_id": "",
                "html_url": "https://github.com/PrismarineJS",
                "id": 11053411,
                "login": "PrismarineJS",
                "node_id": "MDEyOk9yZ2FuaXphdGlvbjExMDUzNDEx",
                "organizations_url": "https://api.github.com/users/PrismarineJS/orgs",
                "received_events_url": "https://api.github.com/users/PrismarineJS/received_events",
                "repos_url": "https://api.github.com/users/PrismarineJS/repos",
                "site_admin": false,
                "starred_url": "https://api.github.com/users/PrismarineJS/starred{/owner}{/repo}",
                "subscriptions_url": "https://api.github.com/users/PrismarineJS/subscriptions",
                "type": "Organization",
                "url": "https://api.github.com/users/PrismarineJS",
                "user_view_type": "public"
            },
            "private": false,
            "pulls_url": "https://api.github.com/repos/PrismarineJS/mineflayer/pulls{/number}",
            "pushed_at": "2025-01-26T21:48:09Z",
            "releases_url": "https://api.github.com/repos/PrismarineJS/mineflayer/releases{/id}",
            "size": 12407,
            "ssh_url": "git@github.com:PrismarineJS/mineflayer.git",
            "stargazers_count": 5470,
            "stargazers_url": "https://api.github.com/repos/PrismarineJS/mineflayer/stargazers",
            "statuses_url": "https://api.github.com/repos/PrismarineJS/mineflayer/statuses/{sha}",
            "subscribers_url": "https://api.github.com/repos/PrismarineJS/mineflayer/subscribers",
            "subscription_url": "https://api.github.com/repos/PrismarineJS/mineflayer/subscription",
            "svn_url": "https://github.com/PrismarineJS/mineflayer",
            "tags_url": "https://api.github.com/repos/PrismarineJS/mineflayer/tags",
            "teams_url": "https://api.github.com/repos/PrismarineJS/mineflayer/teams",
            "topics": [
                "bot",
                "minecraft",
                "minecraft-api",
                "minecraft-bot",
                "network",
                "nodejs"
            ],
            "trees_url": "https://api.github.com/repos/PrismarineJS/mineflayer/git/trees{/sha}",
            "updated_at": "2025-03-09T08:34:19Z",
            "url": "https://api.github.com/repos/PrismarineJS/mineflayer",
            "visibility": "public",
            "watchers": 5470,
            "watchers_count": 5470,
            "web_commit_signoff_required": false
        },
        "sha": "33627f79d9e6243f2b9f19daa6be3418467c4518",
        "user": {
            "avatar_url": "https://avatars.githubusercontent.com/u/11053411?v=4",
            "events_url": "https://api.github.com/users/PrismarineJS/events{/privacy}",
            "followers_url": "https://api.github.com/users/PrismarineJS/followers",
            "following_url": "https://api.github.com/users/PrismarineJS/following{/other_user}",
            "gists_url": "https://api.github.com/users/PrismarineJS/gists{/gist_id}",
            "gravatar_id": "",
            "html_url": "https://github.com/PrismarineJS",
            "id": 11053411,
            "login": "PrismarineJS",
            "node_id": "MDEyOk9yZ2FuaXphdGlvbjExMDUzNDEx",
            "organizations_url": "https://api.github.com/users/PrismarineJS/orgs",
            "received_events_url": "https://api.github.com/users/PrismarineJS/received_events",
            "repos_url": "https://api.github.com/users/PrismarineJS/repos",
            "site_admin": false,
            "starred_url": "https://api.github.com/users/PrismarineJS/starred{/owner}{/repo}",
            "subscriptions_url": "https://api.github.com/users/PrismarineJS/subscriptions",
            "type": "Organization",
            "url": "https://api.github.com/users/PrismarineJS",
            "user_view_type": "public"
        }
    },
    "body": "`addNewNonPlayer` was missing setting the UUID",
    "changed_files": 1,
    "closed_at": null,
    "comment_data": [],
    "comment_regular_data": [],
    "comments": 0,
    "comments_url": "https://api.github.com/repos/PrismarineJS/mineflayer/issues/3603/comments",
    "commit_data": [
        {
            "author": {
                "avatar_url": "https://avatars.githubusercontent.com/u/43215895?v=4",
                "events_url": "https://api.github.com/users/SinanAkkoyun/events{/privacy}",
                "followers_url": "https://api.github.com/users/SinanAkkoyun/followers",
                "following_url": "https://api.github.com/users/SinanAkkoyun/following{/other_user}",
                "gists_url": "https://api.github.com/users/SinanAkkoyun/gists{/gist_id}",
                "gravatar_id": "",
                "html_url": "https://github.com/SinanAkkoyun",
                "id": 43215895,
                "login": "SinanAkkoyun",
                "node_id": "MDQ6VXNlcjQzMjE1ODk1",
                "organizations_url": "https://api.github.com/users/SinanAkkoyun/orgs",
                "received_events_url": "https://api.github.com/users/SinanAkkoyun/received_events",
                "repos_url": "https://api.github.com/users/SinanAkkoyun/repos",
                "site_admin": false,
                "starred_url": "https://api.github.com/users/SinanAkkoyun/starred{/owner}{/repo}",
                "subscriptions_url": "https://api.github.com/users/SinanAkkoyun/subscriptions",
                "type": "User",
                "url": "https://api.github.com/users/SinanAkkoyun",
                "user_view_type": "public"
            },
            "comments_url": "https://api.github.com/repos/PrismarineJS/mineflayer/commits/4435fc905e0ad43097b356197cbf30511cacfc34/comments",
            "commit": {
                "author": {
                    "date": "2025-03-09T10:10:24Z",
                    "email": "shuriken209master@googlemail.com",
                    "name": "Sinan"
                },
                "comment_count": 0,
                "committer": {
                    "date": "2025-03-09T10:10:24Z",
                    "email": "noreply@github.com",
                    "name": "GitHub"
                },
                "message": "Saving uuid for non-players too",
                "tree": {
                    "sha": "78492419765ec173ee66f970790806a6f2feef9f",
                    "url": "https://api.github.com/repos/PrismarineJS/mineflayer/git/trees/78492419765ec173ee66f970790806a6f2feef9f"
                },
                "url": "https://api.github.com/repos/PrismarineJS/mineflayer/git/commits/4435fc905e0ad43097b356197cbf30511cacfc34",
                "verification": {
                    "payload": "tree 78492419765ec173ee66f970790806a6f2feef9f\nparent 33627f79d9e6243f2b9f19daa6be3418467c4518\nauthor Sinan <shuriken209master@googlemail.com> 1741515024 +0100\ncommitter GitHub <noreply@github.com> 1741515024 +0100\n\nSaving uuid for non-players too",
                    "reason": "valid",
                    "signature": "-----BEGIN PGP SIGNATURE-----\n\nwsFcBAABCAAQBQJnzWkQCRC1aQ7uu5UhlAAAGbkQAAiDSKHiLi0XRs9dKrlXDODD\nbsEwfYwE8nNPRQrTk+mIn/zuuyDyUUbLQUhGw2H25nf5mtJei7IlgKHq/UXxAScP\n39rrfZoSTi+7ohkMRL5E6ngP4n8f5PhG7+lDpjunDMVK98eDd6tB90+Ag6Jc8esu\nj7AVKV7JvfsPLY1aZG7V9m5zlXYE/KwP6ILFsq7O911tAk+6RB7xpMQ9ikLf45LB\nh7hA57Bk+Vj7rPckCd8O/FRcD5QCWYbuQfdnTMvALK0AwecLUpuYAT1unPPlLmJx\nP3XbL8R9umyK+kTFLIK5tehcEhPXGj5WHWkXdI1y26MK/Ss90eMAvWQW6bVw2MDy\nFc4tUjd2y208ImryKXEaMebPiYfKJNXzws1vNY9BiNmOyCF7MG8NK6HdLGjMmUzq\nUQGF+P6asvLtJH1fekUPQl6fQgnsDyi3JnuY+9NTrzUmHhSVNj/rFTEfYor6Ju7r\nilF9YDppakojQ2EWOHACXPWQjuKzv4s7ez7jsaE46PG+pxWL1I6cFWWtJ1zbJDpT\nTeVMkO4FuacY7cpJ4yWmXDLHVucGk4QWpGHD672cB9iHUix25tKseQobZjkKzgcX\nAACGDVmc3Aa43xJK7eNAX6MEWPsDY49PUC1/hQR7s9MfwsrNGvtujLS8BTAcNa/m\nrsvYMsiaOPXLGUC1keOP\n=VNF8\n-----END PGP SIGNATURE-----\n",
                    "verified": true,
                    "verified_at": "2025-03-09T10:10:35Z"
                }
            },
            "committer": {
                "avatar_url": "https://avatars.githubusercontent.com/u/19864447?v=4",
                "events_url": "https://api.github.com/users/web-flow/events{/privacy}",
                "followers_url": "https://api.github.com/users/web-flow/followers",
                "following_url": "https://api.github.com/users/web-flow/following{/other_user}",
                "gists_url": "https://api.github.com/users/web-flow/gists{/gist_id}",
                "gravatar_id": "",
                "html_url": "https://github.com/web-flow",
                "id": 19864447,
                "login": "web-flow",
                "node_id": "MDQ6VXNlcjE5ODY0NDQ3",
                "organizations_url": "https://api.github.com/users/web-flow/orgs",
                "received_events_url": "https://api.github.com/users/web-flow/received_events",
                "repos_url": "https://api.github.com/users/web-flow/repos",
                "site_admin": false,
                "starred_url": "https://api.github.com/users/web-flow/starred{/owner}{/repo}",
                "subscriptions_url": "https://api.github.com/users/web-flow/subscriptions",
                "type": "User",
                "url": "https://api.github.com/users/web-flow",
                "user_view_type": "public"
            },
            "html_url": "https://github.com/PrismarineJS/mineflayer/commit/4435fc905e0ad43097b356197cbf30511cacfc34",
            "node_id": "C_kwDOL0nLMdoAKDQ0MzVmYzkwNWUwYWQ0MzA5N2IzNTYxOTdjYmYzMDUxMWNhY2ZjMzQ",
            "parents": [
                {
                    "html_url": "https://github.com/PrismarineJS/mineflayer/commit/33627f79d9e6243f2b9f19daa6be3418467c4518",
                    "sha": "33627f79d9e6243f2b9f19daa6be3418467c4518",
                    "url": "https://api.github.com/repos/PrismarineJS/mineflayer/commits/33627f79d9e6243f2b9f19daa6be3418467c4518"
                }
            ],
            "sha": "4435fc905e0ad43097b356197cbf30511cacfc34",
            "url": "https://api.github.com/repos/PrismarineJS/mineflayer/commits/4435fc905e0ad43097b356197cbf30511cacfc34"
        }
    ],
    "commits": 1,
    "commits_url": "https://api.github.com/repos/PrismarineJS/mineflayer/pulls/3603/commits",
    "created_at": "2025-03-09T10:11:02Z",
    "deletions": 0,
    "diff_url": "https://github.com/PrismarineJS/mineflayer/pull/3603.diff",
    "draft": false,
    "head": {
        "label": "SinanAkkoyun:uuid-fix",
        "ref": "uuid-fix",
        "repo": {
            "allow_forking": true,
            "archive_url": "https://api.github.com/repos/SinanAkkoyun/mineflayer.js/{archive_format}{/ref}",
            "archived": false,
            "assignees_url": "https://api.github.com/repos/SinanAkkoyun/mineflayer.js/assignees{/user}",
            "blobs_url": "https://api.github.com/repos/SinanAkkoyun/mineflayer.js/git/blobs{/sha}",
            "branches_url": "https://api.github.com/repos/SinanAkkoyun/mineflayer.js/branches{/branch}",
            "clone_url": "https://github.com/SinanAkkoyun/mineflayer.js.git",
            "collaborators_url": "https://api.github.com/repos/SinanAkkoyun/mineflayer.js/collaborators{/collaborator}",
            "comments_url": "https://api.github.com/repos/SinanAkkoyun/mineflayer.js/comments{/number}",
            "commits_url": "https://api.github.com/repos/SinanAkkoyun/mineflayer.js/commits{/sha}",
            "compare_url": "https://api.github.com/repos/SinanAkkoyun/mineflayer.js/compare/{base}...{head}",
            "contents_url": "https://api.github.com/repos/SinanAkkoyun/mineflayer.js/contents/{+path}",
            "contributors_url": "https://api.github.com/repos/SinanAkkoyun/mineflayer.js/contributors",
            "created_at": "2024-04-29T04:54:30Z",
            "default_branch": "master",
            "deployments_url": "https://api.github.com/repos/SinanAkkoyun/mineflayer.js/deployments",
            "description": null,
            "disabled": false,
            "downloads_url": "https://api.github.com/repos/SinanAkkoyun/mineflayer.js/downloads",
            "events_url": "https://api.github.com/repos/SinanAkkoyun/mineflayer.js/events",
            "fork": true,
            "forks": 0,
            "forks_count": 0,
            "forks_url": "https://api.github.com/repos/SinanAkkoyun/mineflayer.js/forks",
            "full_name": "SinanAkkoyun/mineflayer.js",
            "git_commits_url": "https://api.github.com/repos/SinanAkkoyun/mineflayer.js/git/commits{/sha}",
            "git_refs_url": "https://api.github.com/repos/SinanAkkoyun/mineflayer.js/git/refs{/sha}",
            "git_tags_url": "https://api.github.com/repos/SinanAkkoyun/mineflayer.js/git/tags{/sha}",
            "git_url": "git://github.com/SinanAkkoyun/mineflayer.js.git",
            "has_discussions": false,
            "has_downloads": true,
            "has_issues": false,
            "has_pages": false,
            "has_projects": true,
            "has_wiki": true,
            "homepage": "https://prismarinejs.github.io/mineflayer/",
            "hooks_url": "https://api.github.com/repos/SinanAkkoyun/mineflayer.js/hooks",
            "html_url": "https://github.com/SinanAkkoyun/mineflayer.js",
            "id": 793365297,
            "is_template": false,
            "issue_comment_url": "https://api.github.com/repos/SinanAkkoyun/mineflayer.js/issues/comments{/number}",
            "issue_events_url": "https://api.github.com/repos/SinanAkkoyun/mineflayer.js/issues/events{/number}",
            "issues_url": "https://api.github.com/repos/SinanAkkoyun/mineflayer.js/issues{/number}",
            "keys_url": "https://api.github.com/repos/SinanAkkoyun/mineflayer.js/keys{/key_id}",
            "labels_url": "https://api.github.com/repos/SinanAkkoyun/mineflayer.js/labels{/name}",
            "language": "JavaScript",
            "languages_url": "https://api.github.com/repos/SinanAkkoyun/mineflayer.js/languages",
            "license": {
                "key": "mit",
                "name": "MIT License",
                "node_id": "MDc6TGljZW5zZTEz",
                "spdx_id": "MIT",
                "url": "https://api.github.com/licenses/mit"
            },
            "merges_url": "https://api.github.com/repos/SinanAkkoyun/mineflayer.js/merges",
            "milestones_url": "https://api.github.com/repos/SinanAkkoyun/mineflayer.js/milestones{/number}",
            "mirror_url": null,
            "name": "mineflayer.js",
            "node_id": "R_kgDOL0nLMQ",
            "notifications_url": "https://api.github.com/repos/SinanAkkoyun/mineflayer.js/notifications{?since,all,participating}",
            "open_issues": 1,
            "open_issues_count": 1,
            "owner": {
                "avatar_url": "https://avatars.githubusercontent.com/u/43215895?v=4",
                "events_url": "https://api.github.com/users/SinanAkkoyun/events{/privacy}",
                "followers_url": "https://api.github.com/users/SinanAkkoyun/followers",
                "following_url": "https://api.github.com/users/SinanAkkoyun/following{/other_user}",
                "gists_url": "https://api.github.com/users/SinanAkkoyun/gists{/gist_id}",
                "gravatar_id": "",
                "html_url": "https://github.com/SinanAkkoyun",
                "id": 43215895,
                "login": "SinanAkkoyun",
                "node_id": "MDQ6VXNlcjQzMjE1ODk1",
                "organizations_url": "https://api.github.com/users/SinanAkkoyun/orgs",
                "received_events_url": "https://api.github.com/users/SinanAkkoyun/received_events",
                "repos_url": "https://api.github.com/users/SinanAkkoyun/repos",
                "site_admin": false,
                "starred_url": "https://api.github.com/users/SinanAkkoyun/starred{/owner}{/repo}",
                "subscriptions_url": "https://api.github.com/users/SinanAkkoyun/subscriptions",
                "type": "User",
                "url": "https://api.github.com/users/SinanAkkoyun",
                "user_view_type": "public"
            },
            "private": false,
            "pulls_url": "https://api.github.com/repos/SinanAkkoyun/mineflayer.js/pulls{/number}",
            "pushed_at": "2025-03-09T10:10:24Z",
            "releases_url": "https://api.github.com/repos/SinanAkkoyun/mineflayer.js/releases{/id}",
            "size": 12405,
            "ssh_url": "git@github.com:SinanAkkoyun/mineflayer.js.git",
            "stargazers_count": 0,
            "stargazers_url": "https://api.github.com/repos/SinanAkkoyun/mineflayer.js/stargazers",
            "statuses_url": "https://api.github.com/repos/SinanAkkoyun/mineflayer.js/statuses/{sha}",
            "subscribers_url": "https://api.github.com/repos/SinanAkkoyun/mineflayer.js/subscribers",
            "subscription_url": "https://api.github.com/repos/SinanAkkoyun/mineflayer.js/subscription",
            "svn_url": "https://github.com/SinanAkkoyun/mineflayer.js",
            "tags_url": "https://api.github.com/repos/SinanAkkoyun/mineflayer.js/tags",
            "teams_url": "https://api.github.com/repos/SinanAkkoyun/mineflayer.js/teams",
            "topics": [],
            "trees_url": "https://api.github.com/repos/SinanAkkoyun/mineflayer.js/git/trees{/sha}",
            "updated_at": "2025-03-03T22:59:36Z",
            "url": "https://api.github.com/repos/SinanAkkoyun/mineflayer.js",
            "visibility": "public",
            "watchers": 0,
            "watchers_count": 0,
            "web_commit_signoff_required": false
        },
        "sha": "4435fc905e0ad43097b356197cbf30511cacfc34",
        "user": {
            "avatar_url": "https://avatars.githubusercontent.com/u/43215895?v=4",
            "events_url": "https://api.github.com/users/SinanAkkoyun/events{/privacy}",
            "followers_url": "https://api.github.com/users/SinanAkkoyun/followers",
            "following_url": "https://api.github.com/users/SinanAkkoyun/following{/other_user}",
            "gists_url": "https://api.github.com/users/SinanAkkoyun/gists{/gist_id}",
            "gravatar_id": "",
            "html_url": "https://github.com/SinanAkkoyun",
            "id": 43215895,
            "login": "SinanAkkoyun",
            "node_id": "MDQ6VXNlcjQzMjE1ODk1",
            "organizations_url": "https://api.github.com/users/SinanAkkoyun/orgs",
            "received_events_url": "https://api.github.com/users/SinanAkkoyun/received_events",
            "repos_url": "https://api.github.com/users/SinanAkkoyun/repos",
            "site_admin": false,
            "starred_url": "https://api.github.com/users/SinanAkkoyun/starred{/owner}{/repo}",
            "subscriptions_url": "https://api.github.com/users/SinanAkkoyun/subscriptions",
            "type": "User",
            "url": "https://api.github.com/users/SinanAkkoyun",
            "user_view_type": "public"
        }
    },
    "html_url": "https://github.com/PrismarineJS/mineflayer/pull/3603",
    "id": 2380605755,
    "issue_url": "https://api.github.com/repos/PrismarineJS/mineflayer/issues/3603",
    "labels": [],
    "locked": false,
    "maintainer_can_modify": true,
    "merge_commit_sha": "9d7f8ff60c42e87542ded729950618ca00fa6ea9",
    "mergeable": true,
    "mergeable_state": "blocked",
    "merged": false,
    "merged_at": null,
    "merged_by": null,
    "milestone": null,
    "node_id": "PR_kwDOABOYWc6N5Sk7",
    "number": 3603,
    "patch_url": "https://github.com/PrismarineJS/mineflayer/pull/3603.patch",
    "rebaseable": true,
    "requested_reviewers": [],
    "requested_teams": [],
    "review_comment_url": "https://api.github.com/repos/PrismarineJS/mineflayer/pulls/comments{/number}",
    "review_comments": 0,
    "review_comments_url": "https://api.github.com/repos/PrismarineJS/mineflayer/pulls/3603/comments",
    "state": "open",
    "statuses_url": "https://api.github.com/repos/PrismarineJS/mineflayer/statuses/4435fc905e0ad43097b356197cbf30511cacfc34",
    "title": "Saving uuid for non-players too",
    "updated_at": "2025-03-09T10:11:02Z",
    "url": "https://api.github.com/repos/PrismarineJS/mineflayer/pulls/3603",
    "user": {
        "avatar_url": "https://avatars.githubusercontent.com/u/43215895?v=4",
        "events_url": "https://api.github.com/users/SinanAkkoyun/events{/privacy}",
        "followers_url": "https://api.github.com/users/SinanAkkoyun/followers",
        "following_url": "https://api.github.com/users/SinanAkkoyun/following{/other_user}",
        "gists_url": "https://api.github.com/users/SinanAkkoyun/gists{/gist_id}",
        "gravatar_id": "",
        "html_url": "https://github.com/SinanAkkoyun",
        "id": 43215895,
        "login": "SinanAkkoyun",
        "node_id": "MDQ6VXNlcjQzMjE1ODk1",
        "organizations_url": "https://api.github.com/users/SinanAkkoyun/orgs",
        "received_events_url": "https://api.github.com/users/SinanAkkoyun/received_events",
        "repos_url": "https://api.github.com/users/SinanAkkoyun/repos",
        "site_admin": false,
        "starred_url": "https://api.github.com/users/SinanAkkoyun/starred{/owner}{/repo}",
        "subscriptions_url": "https://api.github.com/users/SinanAkkoyun/subscriptions",
        "type": "User",
        "url": "https://api.github.com/users/SinanAkkoyun",
        "user_view_type": "public"
    }
}