{
    "_links": {
        "comments": {
            "href": "https://api.github.com/repos/PrismarineJS/mineflayer/issues/496/comments"
        },
        "commits": {
            "href": "https://api.github.com/repos/PrismarineJS/mineflayer/pulls/496/commits"
        },
        "html": {
            "href": "https://github.com/PrismarineJS/mineflayer/pull/496"
        },
        "issue": {
            "href": "https://api.github.com/repos/PrismarineJS/mineflayer/issues/496"
        },
        "review_comment": {
            "href": "https://api.github.com/repos/PrismarineJS/mineflayer/pulls/comments{/number}"
        },
        "review_comments": {
            "href": "https://api.github.com/repos/PrismarineJS/mineflayer/pulls/496/comments"
        },
        "self": {
            "href": "https://api.github.com/repos/PrismarineJS/mineflayer/pulls/496"
        },
        "statuses": {
            "href": "https://api.github.com/repos/PrismarineJS/mineflayer/statuses/3f9357257c25f5df448694f233d3ea78b8bf9da8"
        }
    },
    "active_lock_reason": null,
    "additions": 1,
    "assignee": null,
    "assignees": [],
    "author_association": "CONTRIBUTOR",
    "auto_merge": null,
    "base": {
        "label": "PrismarineJS:master",
        "ref": "master",
        "repo": {
            "allow_forking": true,
            "archive_url": "https://api.github.com/repos/PrismarineJS/mineflayer/{archive_format}{/ref}",
            "archived": false,
            "assignees_url": "https://api.github.com/repos/PrismarineJS/mineflayer/assignees{/user}",
            "blobs_url": "https://api.github.com/repos/PrismarineJS/mineflayer/git/blobs{/sha}",
            "branches_url": "https://api.github.com/repos/PrismarineJS/mineflayer/branches{/branch}",
            "clone_url": "https://github.com/PrismarineJS/mineflayer.git",
            "collaborators_url": "https://api.github.com/repos/PrismarineJS/mineflayer/collaborators{/collaborator}",
            "comments_url": "https://api.github.com/repos/PrismarineJS/mineflayer/comments{/number}",
            "commits_url": "https://api.github.com/repos/PrismarineJS/mineflayer/commits{/sha}",
            "compare_url": "https://api.github.com/repos/PrismarineJS/mineflayer/compare/{base}...{head}",
            "contents_url": "https://api.github.com/repos/PrismarineJS/mineflayer/contents/{+path}",
            "contributors_url": "https://api.github.com/repos/PrismarineJS/mineflayer/contributors",
            "created_at": "2011-01-23T09:41:55Z",
            "default_branch": "master",
            "deployments_url": "https://api.github.com/repos/PrismarineJS/mineflayer/deployments",
            "description": "Create Minecraft bots with a powerful, stable, and high level JavaScript API.",
            "disabled": false,
            "downloads_url": "https://api.github.com/repos/PrismarineJS/mineflayer/downloads",
            "events_url": "https://api.github.com/repos/PrismarineJS/mineflayer/events",
            "fork": false,
            "forks": 748,
            "forks_count": 748,
            "forks_url": "https://api.github.com/repos/PrismarineJS/mineflayer/forks",
            "full_name": "PrismarineJS/mineflayer",
            "git_commits_url": "https://api.github.com/repos/PrismarineJS/mineflayer/git/commits{/sha}",
            "git_refs_url": "https://api.github.com/repos/PrismarineJS/mineflayer/git/refs{/sha}",
            "git_tags_url": "https://api.github.com/repos/PrismarineJS/mineflayer/git/tags{/sha}",
            "git_url": "git://github.com/PrismarineJS/mineflayer.git",
            "has_discussions": true,
            "has_downloads": true,
            "has_issues": true,
            "has_pages": true,
            "has_projects": true,
            "has_wiki": true,
            "homepage": "https://prismarinejs.github.io/mineflayer/",
            "hooks_url": "https://api.github.com/repos/PrismarineJS/mineflayer/hooks",
            "html_url": "https://github.com/PrismarineJS/mineflayer",
            "id": 1284185,
            "is_template": false,
            "issue_comment_url": "https://api.github.com/repos/PrismarineJS/mineflayer/issues/comments{/number}",
            "issue_events_url": "https://api.github.com/repos/PrismarineJS/mineflayer/issues/events{/number}",
            "issues_url": "https://api.github.com/repos/PrismarineJS/mineflayer/issues{/number}",
            "keys_url": "https://api.github.com/repos/PrismarineJS/mineflayer/keys{/key_id}",
            "labels_url": "https://api.github.com/repos/PrismarineJS/mineflayer/labels{/name}",
            "language": "JavaScript",
            "languages_url": "https://api.github.com/repos/PrismarineJS/mineflayer/languages",
            "license": {
                "key": "mit",
                "name": "MIT License",
                "node_id": "MDc6TGljZW5zZTEz",
                "spdx_id": "MIT",
                "url": "https://api.github.com/licenses/mit"
            },
            "merges_url": "https://api.github.com/repos/PrismarineJS/mineflayer/merges",
            "milestones_url": "https://api.github.com/repos/PrismarineJS/mineflayer/milestones{/number}",
            "mirror_url": null,
            "name": "mineflayer",
            "node_id": "MDEwOlJlcG9zaXRvcnkxMjg0MTg1",
            "notifications_url": "https://api.github.com/repos/PrismarineJS/mineflayer/notifications{?since,all,participating}",
            "open_issues": 269,
            "open_issues_count": 269,
            "owner": {
                "avatar_url": "https://avatars.githubusercontent.com/u/11053411?v=4",
                "events_url": "https://api.github.com/users/PrismarineJS/events{/privacy}",
                "followers_url": "https://api.github.com/users/PrismarineJS/followers",
                "following_url": "https://api.github.com/users/PrismarineJS/following{/other_user}",
                "gists_url": "https://api.github.com/users/PrismarineJS/gists{/gist_id}",
                "gravatar_id": "",
                "html_url": "https://github.com/PrismarineJS",
                "id": 11053411,
                "login": "PrismarineJS",
                "node_id": "MDEyOk9yZ2FuaXphdGlvbjExMDUzNDEx",
                "organizations_url": "https://api.github.com/users/PrismarineJS/orgs",
                "received_events_url": "https://api.github.com/users/PrismarineJS/received_events",
                "repos_url": "https://api.github.com/users/PrismarineJS/repos",
                "site_admin": false,
                "starred_url": "https://api.github.com/users/PrismarineJS/starred{/owner}{/repo}",
                "subscriptions_url": "https://api.github.com/users/PrismarineJS/subscriptions",
                "type": "Organization",
                "url": "https://api.github.com/users/PrismarineJS"
            },
            "private": false,
            "pulls_url": "https://api.github.com/repos/PrismarineJS/mineflayer/pulls{/number}",
            "pushed_at": "2023-04-25T00:44:52Z",
            "releases_url": "https://api.github.com/repos/PrismarineJS/mineflayer/releases{/id}",
            "size": 12493,
            "ssh_url": "git@github.com:PrismarineJS/mineflayer.git",
            "stargazers_count": 3698,
            "stargazers_url": "https://api.github.com/repos/PrismarineJS/mineflayer/stargazers",
            "statuses_url": "https://api.github.com/repos/PrismarineJS/mineflayer/statuses/{sha}",
            "subscribers_url": "https://api.github.com/repos/PrismarineJS/mineflayer/subscribers",
            "subscription_url": "https://api.github.com/repos/PrismarineJS/mineflayer/subscription",
            "svn_url": "https://github.com/PrismarineJS/mineflayer",
            "tags_url": "https://api.github.com/repos/PrismarineJS/mineflayer/tags",
            "teams_url": "https://api.github.com/repos/PrismarineJS/mineflayer/teams",
            "topics": [
                "bot",
                "minecraft",
                "minecraft-api",
                "minecraft-bot",
                "network",
                "nodejs"
            ],
            "trees_url": "https://api.github.com/repos/PrismarineJS/mineflayer/git/trees{/sha}",
            "updated_at": "2023-04-25T14:07:03Z",
            "url": "https://api.github.com/repos/PrismarineJS/mineflayer",
            "visibility": "public",
            "watchers": 3698,
            "watchers_count": 3698,
            "web_commit_signoff_required": false
        },
        "sha": "06b1e102895bdffc1d7836011e0b405fcb394612",
        "user": {
            "avatar_url": "https://avatars.githubusercontent.com/u/11053411?v=4",
            "events_url": "https://api.github.com/users/PrismarineJS/events{/privacy}",
            "followers_url": "https://api.github.com/users/PrismarineJS/followers",
            "following_url": "https://api.github.com/users/PrismarineJS/following{/other_user}",
            "gists_url": "https://api.github.com/users/PrismarineJS/gists{/gist_id}",
            "gravatar_id": "",
            "html_url": "https://github.com/PrismarineJS",
            "id": 11053411,
            "login": "PrismarineJS",
            "node_id": "MDEyOk9yZ2FuaXphdGlvbjExMDUzNDEx",
            "organizations_url": "https://api.github.com/users/PrismarineJS/orgs",
            "received_events_url": "https://api.github.com/users/PrismarineJS/received_events",
            "repos_url": "https://api.github.com/users/PrismarineJS/repos",
            "site_admin": false,
            "starred_url": "https://api.github.com/users/PrismarineJS/starred{/owner}{/repo}",
            "subscriptions_url": "https://api.github.com/users/PrismarineJS/subscriptions",
            "type": "Organization",
            "url": "https://api.github.com/users/PrismarineJS"
        }
    },
    "body": "Hello lovely humans,\n\n[prismarine-chunk](https://www.npmjs.com/package/prismarine-chunk) just published its new version 1.5.1.\n\n<table>\n  <tr>\n    <th align=left>\n      State\n    </th>\n    <td>\n      Failing tests :rotating_light:\n    </td>\n  </tr>\n  <tr>\n    <th align=left>\n      Dependency\n    </td>\n    <td>\n      prismarine-chunk\n    </td>\n  </tr>\n  <tr>\n    <th align=left>\n      New version\n    </td>\n    <td>\n      1.5.1\n    </td>\n  </tr>\n  <tr>\n    <th align=left>\n      Type\n    </td>\n    <td>\n      devDependency\n    </td>\n  </tr>\n</table>\n\nThis version is **covered** by your **current version range** and after updating it in your project **the build went from success to failure**.\n\nAs prismarine-chunk is “only” a devDependency of this project it **might not break production or downstream projects**, but “only” your build or test tools – **preventing new deploys or publishes**.\n\nI recommend you give this issue a high priority. I’m sure you can resolve this :muscle:\n\n\nOf course this could just be a false positive, caused by a flaky test suite, or third parties that are currently broken or unavailable, but that would be another problem I’d recommend working on.\n\n\nDo you have any ideas how I could improve these pull requests? Did I report anything you think isn’t right?\nAre you unsure about how things are supposed to work?\n\nThere is a collection of [frequently asked questions](https://greenkeeper.io/faq.html) and while I’m just a bot, there is a group of people who are happy to teach me new things. [Let them know](https://github.com/greenkeeperio/greenkeeper/issues/new).\n\nGood luck with your project :sparkles:\n\nYou rock!\n\n:palm_tree:\n\n---\nThe new version differs by 66 commits .\n\n- [`ca6f8b6`](https://github.com/PrismarineJS/prismarine-chunk/commit/ca6f8b64dc8fb661fcda8193ba0b963af60efc26) <code>Release 1.5.1</code>\n- [`f3f10ea`](https://github.com/PrismarineJS/prismarine-chunk/commit/f3f10ea6afba6b69e71a1ab75b8914e6c99c8aa6) <code>use last protodef, fix longToByte (no countTypeArgs), and remove gulp</code>\n- [`f7e5d0b`](https://github.com/PrismarineJS/prismarine-chunk/commit/f7e5d0bd0a8e0334e33fe8bce97557a19fda5127) <code>Release 1.5.0</code>\n- [`8d88841`](https://github.com/PrismarineJS/prismarine-chunk/commit/8d888415859eafbdec4f831a9ae02b331cd85fa8) <code>chunk format didn't change in 1.10 and 1.11</code>\n- [`267e79e`](https://github.com/PrismarineJS/prismarine-chunk/commit/267e79e6a958a29de41413a70270ee3ccb525e82) <code>update contributors list in package.json</code>\n- [`c528de1`](https://github.com/PrismarineJS/prismarine-chunk/commit/c528de16fbddeb6cb3a834c7d6bdabf4de368872) <code>Release 1.4.0</code>\n- [`bdc95df`](https://github.com/PrismarineJS/prismarine-chunk/commit/bdc95df41761b35404921789817122a0ae2156f4) <code>and delete .dump</code>\n- [`981797c`](https://github.com/PrismarineJS/prismarine-chunk/commit/981797c36ad68583bddf463cadc1652470cec7ea) <code>delete file</code>\n- [`36d234a`](https://github.com/PrismarineJS/prismarine-chunk/commit/36d234af97921904354fd20fc5a23f51267fe05a) <code>delete chunk.js.orig</code>\n- [`d3af698`](https://github.com/PrismarineJS/prismarine-chunk/commit/d3af698ce1e7e228e06443aa8db0ec3e8ac72131) <code>Merge pull request #23 from Flynnn/master</code>\n- [`05f3fea`](https://github.com/PrismarineJS/prismarine-chunk/commit/05f3feac813eb0ddda7db5305b5f6668d09acef2) <code>Deleted mergefiles</code>\n- [`a765ac9`](https://github.com/PrismarineJS/prismarine-chunk/commit/a765ac97edac0cb8e4cc668cd2d914695542a0ea) <code>Fixed load() and cycletest.js. Now passes both cycletest and test.</code>\n- [`7b44c45`](https://github.com/PrismarineJS/prismarine-chunk/commit/7b44c45f73f0d8c21fc66355c156b1ca2a4d86d7) <code>Fixed load() and cycletest.js. Now passes both cycletest and test.</code>\n- [`2220c13`](https://github.com/PrismarineJS/prismarine-chunk/commit/2220c138d527b82daf6e90f60baf0b4a1564682d) <code>use 6.0.0 in circle ci</code>\n- [`7008195`](https://github.com/PrismarineJS/prismarine-chunk/commit/7008195bb892f5a9342850743dfc7ca1b44b6502) <code>some cleanup</code>\n\n\nThere are 66 commits in total. See the [full diff](https://github.com/PrismarineJS/prismarine-chunk/compare/7db4beb398b684c738ea339b6176d8063c8f0cf7...ca6f8b64dc8fb661fcda8193ba0b963af60efc26).\n\n---\n| ✨ Try the all new [Greenkeeper GitHub Integration](https://git.io/uptodate) ✨ |\n| --- |\n| With [Integrations](https://developer.github.com/early-access/integrations/) **first-class bot support** landed on GitHub and we’ve rewritten Greenkeeper to take full advantage of it. **Simpler setup, fewer pull-requests, faster than ever**.<br><br> <details><summary>Screencast</summary><img src=\"https://cloud.githubusercontent.com/assets/908178/19868156/20c1c0c4-9fa7-11e6-9f17-611c51677dbd.gif\" /></details><br> [**Try it today**](https://git.io/uptodate). Free for private repositories during beta. |",
    "changed_files": 1,
    "closed_at": "2017-02-26T23:07:31Z",
    "comment_data": [],
    "comment_regular_data": [],
    "comments": 0,
    "comments_url": "https://api.github.com/repos/PrismarineJS/mineflayer/issues/496/comments",
    "commit_data": [
        {
            "author": {
                "avatar_url": "https://avatars.githubusercontent.com/u/14790466?v=4",
                "events_url": "https://api.github.com/users/greenkeeperio-bot/events{/privacy}",
                "followers_url": "https://api.github.com/users/greenkeeperio-bot/followers",
                "following_url": "https://api.github.com/users/greenkeeperio-bot/following{/other_user}",
                "gists_url": "https://api.github.com/users/greenkeeperio-bot/gists{/gist_id}",
                "gravatar_id": "",
                "html_url": "https://github.com/greenkeeperio-bot",
                "id": 14790466,
                "login": "greenkeeperio-bot",
                "node_id": "MDQ6VXNlcjE0NzkwNDY2",
                "organizations_url": "https://api.github.com/users/greenkeeperio-bot/orgs",
                "received_events_url": "https://api.github.com/users/greenkeeperio-bot/received_events",
                "repos_url": "https://api.github.com/users/greenkeeperio-bot/repos",
                "site_admin": false,
                "starred_url": "https://api.github.com/users/greenkeeperio-bot/starred{/owner}{/repo}",
                "subscriptions_url": "https://api.github.com/users/greenkeeperio-bot/subscriptions",
                "type": "User",
                "url": "https://api.github.com/users/greenkeeperio-bot"
            },
            "comments_url": "https://api.github.com/repos/PrismarineJS/mineflayer/commits/3f9357257c25f5df448694f233d3ea78b8bf9da8/comments",
            "commit": {
                "author": {
                    "date": "2017-02-26T19:58:50Z",
                    "email": "support@greenkeeper.io",
                    "name": "greenkeeperio-bot"
                },
                "comment_count": 0,
                "committer": {
                    "date": "2017-02-26T19:58:50Z",
                    "email": "support@greenkeeper.io",
                    "name": "greenkeeperio-bot"
                },
                "message": "chore(package): update prismarine-chunk to version 1.5.1\n\nhttps://greenkeeper.io/",
                "tree": {
                    "sha": "5975b4d4080c37b7e94a3c973d8499f618592ef0",
                    "url": "https://api.github.com/repos/PrismarineJS/mineflayer/git/trees/5975b4d4080c37b7e94a3c973d8499f618592ef0"
                },
                "url": "https://api.github.com/repos/PrismarineJS/mineflayer/git/commits/3f9357257c25f5df448694f233d3ea78b8bf9da8",
                "verification": {
                    "payload": null,
                    "reason": "unsigned",
                    "signature": null,
                    "verified": false
                }
            },
            "committer": {
                "avatar_url": "https://avatars.githubusercontent.com/u/14790466?v=4",
                "events_url": "https://api.github.com/users/greenkeeperio-bot/events{/privacy}",
                "followers_url": "https://api.github.com/users/greenkeeperio-bot/followers",
                "following_url": "https://api.github.com/users/greenkeeperio-bot/following{/other_user}",
                "gists_url": "https://api.github.com/users/greenkeeperio-bot/gists{/gist_id}",
                "gravatar_id": "",
                "html_url": "https://github.com/greenkeeperio-bot",
                "id": 14790466,
                "login": "greenkeeperio-bot",
                "node_id": "MDQ6VXNlcjE0NzkwNDY2",
                "organizations_url": "https://api.github.com/users/greenkeeperio-bot/orgs",
                "received_events_url": "https://api.github.com/users/greenkeeperio-bot/received_events",
                "repos_url": "https://api.github.com/users/greenkeeperio-bot/repos",
                "site_admin": false,
                "starred_url": "https://api.github.com/users/greenkeeperio-bot/starred{/owner}{/repo}",
                "subscriptions_url": "https://api.github.com/users/greenkeeperio-bot/subscriptions",
                "type": "User",
                "url": "https://api.github.com/users/greenkeeperio-bot"
            },
            "html_url": "https://github.com/PrismarineJS/mineflayer/commit/3f9357257c25f5df448694f233d3ea78b8bf9da8",
            "node_id": "MDY6Q29tbWl0MTI4NDE4NTozZjkzNTcyNTdjMjVmNWRmNDQ4Njk0ZjIzM2QzZWE3OGI4YmY5ZGE4",
            "parents": [
                {
                    "html_url": "https://github.com/PrismarineJS/mineflayer/commit/06b1e102895bdffc1d7836011e0b405fcb394612",
                    "sha": "06b1e102895bdffc1d7836011e0b405fcb394612",
                    "url": "https://api.github.com/repos/PrismarineJS/mineflayer/commits/06b1e102895bdffc1d7836011e0b405fcb394612"
                }
            ],
            "sha": "3f9357257c25f5df448694f233d3ea78b8bf9da8",
            "url": "https://api.github.com/repos/PrismarineJS/mineflayer/commits/3f9357257c25f5df448694f233d3ea78b8bf9da8"
        }
    ],
    "commits": 1,
    "commits_url": "https://api.github.com/repos/PrismarineJS/mineflayer/pulls/496/commits",
    "created_at": "2017-02-26T19:59:47Z",
    "deletions": 1,
    "diff_url": "https://github.com/PrismarineJS/mineflayer/pull/496.diff",
    "draft": false,
    "head": {
        "label": "PrismarineJS:greenkeeper-prismarine-chunk-1.5.1",
        "ref": "greenkeeper-prismarine-chunk-1.5.1",
        "repo": {
            "allow_forking": true,
            "archive_url": "https://api.github.com/repos/PrismarineJS/mineflayer/{archive_format}{/ref}",
            "archived": false,
            "assignees_url": "https://api.github.com/repos/PrismarineJS/mineflayer/assignees{/user}",
            "blobs_url": "https://api.github.com/repos/PrismarineJS/mineflayer/git/blobs{/sha}",
            "branches_url": "https://api.github.com/repos/PrismarineJS/mineflayer/branches{/branch}",
            "clone_url": "https://github.com/PrismarineJS/mineflayer.git",
            "collaborators_url": "https://api.github.com/repos/PrismarineJS/mineflayer/collaborators{/collaborator}",
            "comments_url": "https://api.github.com/repos/PrismarineJS/mineflayer/comments{/number}",
            "commits_url": "https://api.github.com/repos/PrismarineJS/mineflayer/commits{/sha}",
            "compare_url": "https://api.github.com/repos/PrismarineJS/mineflayer/compare/{base}...{head}",
            "contents_url": "https://api.github.com/repos/PrismarineJS/mineflayer/contents/{+path}",
            "contributors_url": "https://api.github.com/repos/PrismarineJS/mineflayer/contributors",
            "created_at": "2011-01-23T09:41:55Z",
            "default_branch": "master",
            "deployments_url": "https://api.github.com/repos/PrismarineJS/mineflayer/deployments",
            "description": "Create Minecraft bots with a powerful, stable, and high level JavaScript API.",
            "disabled": false,
            "downloads_url": "https://api.github.com/repos/PrismarineJS/mineflayer/downloads",
            "events_url": "https://api.github.com/repos/PrismarineJS/mineflayer/events",
            "fork": false,
            "forks": 748,
            "forks_count": 748,
            "forks_url": "https://api.github.com/repos/PrismarineJS/mineflayer/forks",
            "full_name": "PrismarineJS/mineflayer",
            "git_commits_url": "https://api.github.com/repos/PrismarineJS/mineflayer/git/commits{/sha}",
            "git_refs_url": "https://api.github.com/repos/PrismarineJS/mineflayer/git/refs{/sha}",
            "git_tags_url": "https://api.github.com/repos/PrismarineJS/mineflayer/git/tags{/sha}",
            "git_url": "git://github.com/PrismarineJS/mineflayer.git",
            "has_discussions": true,
            "has_downloads": true,
            "has_issues": true,
            "has_pages": true,
            "has_projects": true,
            "has_wiki": true,
            "homepage": "https://prismarinejs.github.io/mineflayer/",
            "hooks_url": "https://api.github.com/repos/PrismarineJS/mineflayer/hooks",
            "html_url": "https://github.com/PrismarineJS/mineflayer",
            "id": 1284185,
            "is_template": false,
            "issue_comment_url": "https://api.github.com/repos/PrismarineJS/mineflayer/issues/comments{/number}",
            "issue_events_url": "https://api.github.com/repos/PrismarineJS/mineflayer/issues/events{/number}",
            "issues_url": "https://api.github.com/repos/PrismarineJS/mineflayer/issues{/number}",
            "keys_url": "https://api.github.com/repos/PrismarineJS/mineflayer/keys{/key_id}",
            "labels_url": "https://api.github.com/repos/PrismarineJS/mineflayer/labels{/name}",
            "language": "JavaScript",
            "languages_url": "https://api.github.com/repos/PrismarineJS/mineflayer/languages",
            "license": {
                "key": "mit",
                "name": "MIT License",
                "node_id": "MDc6TGljZW5zZTEz",
                "spdx_id": "MIT",
                "url": "https://api.github.com/licenses/mit"
            },
            "merges_url": "https://api.github.com/repos/PrismarineJS/mineflayer/merges",
            "milestones_url": "https://api.github.com/repos/PrismarineJS/mineflayer/milestones{/number}",
            "mirror_url": null,
            "name": "mineflayer",
            "node_id": "MDEwOlJlcG9zaXRvcnkxMjg0MTg1",
            "notifications_url": "https://api.github.com/repos/PrismarineJS/mineflayer/notifications{?since,all,participating}",
            "open_issues": 269,
            "open_issues_count": 269,
            "owner": {
                "avatar_url": "https://avatars.githubusercontent.com/u/11053411?v=4",
                "events_url": "https://api.github.com/users/PrismarineJS/events{/privacy}",
                "followers_url": "https://api.github.com/users/PrismarineJS/followers",
                "following_url": "https://api.github.com/users/PrismarineJS/following{/other_user}",
                "gists_url": "https://api.github.com/users/PrismarineJS/gists{/gist_id}",
                "gravatar_id": "",
                "html_url": "https://github.com/PrismarineJS",
                "id": 11053411,
                "login": "PrismarineJS",
                "node_id": "MDEyOk9yZ2FuaXphdGlvbjExMDUzNDEx",
                "organizations_url": "https://api.github.com/users/PrismarineJS/orgs",
                "received_events_url": "https://api.github.com/users/PrismarineJS/received_events",
                "repos_url": "https://api.github.com/users/PrismarineJS/repos",
                "site_admin": false,
                "starred_url": "https://api.github.com/users/PrismarineJS/starred{/owner}{/repo}",
                "subscriptions_url": "https://api.github.com/users/PrismarineJS/subscriptions",
                "type": "Organization",
                "url": "https://api.github.com/users/PrismarineJS"
            },
            "private": false,
            "pulls_url": "https://api.github.com/repos/PrismarineJS/mineflayer/pulls{/number}",
            "pushed_at": "2023-04-25T00:44:52Z",
            "releases_url": "https://api.github.com/repos/PrismarineJS/mineflayer/releases{/id}",
            "size": 12493,
            "ssh_url": "git@github.com:PrismarineJS/mineflayer.git",
            "stargazers_count": 3698,
            "stargazers_url": "https://api.github.com/repos/PrismarineJS/mineflayer/stargazers",
            "statuses_url": "https://api.github.com/repos/PrismarineJS/mineflayer/statuses/{sha}",
            "subscribers_url": "https://api.github.com/repos/PrismarineJS/mineflayer/subscribers",
            "subscription_url": "https://api.github.com/repos/PrismarineJS/mineflayer/subscription",
            "svn_url": "https://github.com/PrismarineJS/mineflayer",
            "tags_url": "https://api.github.com/repos/PrismarineJS/mineflayer/tags",
            "teams_url": "https://api.github.com/repos/PrismarineJS/mineflayer/teams",
            "topics": [
                "bot",
                "minecraft",
                "minecraft-api",
                "minecraft-bot",
                "network",
                "nodejs"
            ],
            "trees_url": "https://api.github.com/repos/PrismarineJS/mineflayer/git/trees{/sha}",
            "updated_at": "2023-04-25T14:07:03Z",
            "url": "https://api.github.com/repos/PrismarineJS/mineflayer",
            "visibility": "public",
            "watchers": 3698,
            "watchers_count": 3698,
            "web_commit_signoff_required": false
        },
        "sha": "3f9357257c25f5df448694f233d3ea78b8bf9da8",
        "user": {
            "avatar_url": "https://avatars.githubusercontent.com/u/11053411?v=4",
            "events_url": "https://api.github.com/users/PrismarineJS/events{/privacy}",
            "followers_url": "https://api.github.com/users/PrismarineJS/followers",
            "following_url": "https://api.github.com/users/PrismarineJS/following{/other_user}",
            "gists_url": "https://api.github.com/users/PrismarineJS/gists{/gist_id}",
            "gravatar_id": "",
            "html_url": "https://github.com/PrismarineJS",
            "id": 11053411,
            "login": "PrismarineJS",
            "node_id": "MDEyOk9yZ2FuaXphdGlvbjExMDUzNDEx",
            "organizations_url": "https://api.github.com/users/PrismarineJS/orgs",
            "received_events_url": "https://api.github.com/users/PrismarineJS/received_events",
            "repos_url": "https://api.github.com/users/PrismarineJS/repos",
            "site_admin": false,
            "starred_url": "https://api.github.com/users/PrismarineJS/starred{/owner}{/repo}",
            "subscriptions_url": "https://api.github.com/users/PrismarineJS/subscriptions",
            "type": "Organization",
            "url": "https://api.github.com/users/PrismarineJS"
        }
    },
    "html_url": "https://github.com/PrismarineJS/mineflayer/pull/496",
    "id": 108019127,
    "issue_url": "https://api.github.com/repos/PrismarineJS/mineflayer/issues/496",
    "labels": [
        {
            "color": "ededed",
            "default": false,
            "description": null,
            "id": 351380056,
            "name": "greenkeeper",
            "node_id": "MDU6TGFiZWwzNTEzODAwNTY=",
            "url": "https://api.github.com/repos/PrismarineJS/mineflayer/labels/greenkeeper"
        }
    ],
    "locked": false,
    "maintainer_can_modify": false,
    "merge_commit_sha": "9480d8ac02506141bff9d838ffbc3adf2312a30d",
    "mergeable": null,
    "mergeable_state": "unknown",
    "merged": false,
    "merged_at": null,
    "merged_by": null,
    "milestone": null,
    "node_id": "MDExOlB1bGxSZXF1ZXN0MTA4MDE5MTI3",
    "number": 496,
    "patch_url": "https://github.com/PrismarineJS/mineflayer/pull/496.patch",
    "rebaseable": null,
    "requested_reviewers": [],
    "requested_teams": [],
    "review_comment_url": "https://api.github.com/repos/PrismarineJS/mineflayer/pulls/comments{/number}",
    "review_comments": 0,
    "review_comments_url": "https://api.github.com/repos/PrismarineJS/mineflayer/pulls/496/comments",
    "state": "closed",
    "statuses_url": "https://api.github.com/repos/PrismarineJS/mineflayer/statuses/3f9357257c25f5df448694f233d3ea78b8bf9da8",
    "title": "prismarine-chunk@1.5.1 breaks build 🚨",
    "updated_at": "2017-02-26T23:08:07Z",
    "url": "https://api.github.com/repos/PrismarineJS/mineflayer/pulls/496",
    "user": {
        "avatar_url": "https://avatars.githubusercontent.com/u/14790466?v=4",
        "events_url": "https://api.github.com/users/greenkeeperio-bot/events{/privacy}",
        "followers_url": "https://api.github.com/users/greenkeeperio-bot/followers",
        "following_url": "https://api.github.com/users/greenkeeperio-bot/following{/other_user}",
        "gists_url": "https://api.github.com/users/greenkeeperio-bot/gists{/gist_id}",
        "gravatar_id": "",
        "html_url": "https://github.com/greenkeeperio-bot",
        "id": 14790466,
        "login": "greenkeeperio-bot",
        "node_id": "MDQ6VXNlcjE0NzkwNDY2",
        "organizations_url": "https://api.github.com/users/greenkeeperio-bot/orgs",
        "received_events_url": "https://api.github.com/users/greenkeeperio-bot/received_events",
        "repos_url": "https://api.github.com/users/greenkeeperio-bot/repos",
        "site_admin": false,
        "starred_url": "https://api.github.com/users/greenkeeperio-bot/starred{/owner}{/repo}",
        "subscriptions_url": "https://api.github.com/users/greenkeeperio-bot/subscriptions",
        "type": "User",
        "url": "https://api.github.com/users/greenkeeperio-bot"
    }
}