{
    "_links": {
        "comments": {
            "href": "https://api.github.com/repos/PrismarineJS/minecraft-data-generator/issues/30/comments"
        },
        "commits": {
            "href": "https://api.github.com/repos/PrismarineJS/minecraft-data-generator/pulls/30/commits"
        },
        "html": {
            "href": "https://github.com/PrismarineJS/minecraft-data-generator/pull/30"
        },
        "issue": {
            "href": "https://api.github.com/repos/PrismarineJS/minecraft-data-generator/issues/30"
        },
        "review_comment": {
            "href": "https://api.github.com/repos/PrismarineJS/minecraft-data-generator/pulls/comments{/number}"
        },
        "review_comments": {
            "href": "https://api.github.com/repos/PrismarineJS/minecraft-data-generator/pulls/30/comments"
        },
        "self": {
            "href": "https://api.github.com/repos/PrismarineJS/minecraft-data-generator/pulls/30"
        },
        "statuses": {
            "href": "https://api.github.com/repos/PrismarineJS/minecraft-data-generator/statuses/e56e74ffe477a787b13697919cd129c4ddfe310e"
        }
    },
    "active_lock_reason": null,
    "additions": 173,
    "assignee": null,
    "assignees": [],
    "author_association": "COLLABORATOR",
    "auto_merge": null,
    "base": {
        "label": "PrismarineJS:main",
        "ref": "main",
        "repo": {
            "allow_forking": true,
            "archive_url": "https://api.github.com/repos/PrismarineJS/minecraft-data-generator/{archive_format}{/ref}",
            "archived": false,
            "assignees_url": "https://api.github.com/repos/PrismarineJS/minecraft-data-generator/assignees{/user}",
            "blobs_url": "https://api.github.com/repos/PrismarineJS/minecraft-data-generator/git/blobs{/sha}",
            "branches_url": "https://api.github.com/repos/PrismarineJS/minecraft-data-generator/branches{/branch}",
            "clone_url": "https://github.com/PrismarineJS/minecraft-data-generator.git",
            "collaborators_url": "https://api.github.com/repos/PrismarineJS/minecraft-data-generator/collaborators{/collaborator}",
            "comments_url": "https://api.github.com/repos/PrismarineJS/minecraft-data-generator/comments{/number}",
            "commits_url": "https://api.github.com/repos/PrismarineJS/minecraft-data-generator/commits{/sha}",
            "compare_url": "https://api.github.com/repos/PrismarineJS/minecraft-data-generator/compare/{base}...{head}",
            "contents_url": "https://api.github.com/repos/PrismarineJS/minecraft-data-generator/contents/{+path}",
            "contributors_url": "https://api.github.com/repos/PrismarineJS/minecraft-data-generator/contributors",
            "created_at": "2022-05-05T20:01:46Z",
            "default_branch": "main",
            "deployments_url": "https://api.github.com/repos/PrismarineJS/minecraft-data-generator/deployments",
            "description": "Data generator for Minecraft data based on client mod ",
            "disabled": false,
            "downloads_url": "https://api.github.com/repos/PrismarineJS/minecraft-data-generator/downloads",
            "events_url": "https://api.github.com/repos/PrismarineJS/minecraft-data-generator/events",
            "fork": false,
            "forks": 14,
            "forks_count": 14,
            "forks_url": "https://api.github.com/repos/PrismarineJS/minecraft-data-generator/forks",
            "full_name": "PrismarineJS/minecraft-data-generator",
            "git_commits_url": "https://api.github.com/repos/PrismarineJS/minecraft-data-generator/git/commits{/sha}",
            "git_refs_url": "https://api.github.com/repos/PrismarineJS/minecraft-data-generator/git/refs{/sha}",
            "git_tags_url": "https://api.github.com/repos/PrismarineJS/minecraft-data-generator/git/tags{/sha}",
            "git_url": "git://github.com/PrismarineJS/minecraft-data-generator.git",
            "has_discussions": false,
            "has_downloads": true,
            "has_issues": true,
            "has_pages": false,
            "has_projects": true,
            "has_wiki": true,
            "homepage": "",
            "hooks_url": "https://api.github.com/repos/PrismarineJS/minecraft-data-generator/hooks",
            "html_url": "https://github.com/PrismarineJS/minecraft-data-generator",
            "id": 489110385,
            "is_template": false,
            "issue_comment_url": "https://api.github.com/repos/PrismarineJS/minecraft-data-generator/issues/comments{/number}",
            "issue_events_url": "https://api.github.com/repos/PrismarineJS/minecraft-data-generator/issues/events{/number}",
            "issues_url": "https://api.github.com/repos/PrismarineJS/minecraft-data-generator/issues{/number}",
            "keys_url": "https://api.github.com/repos/PrismarineJS/minecraft-data-generator/keys{/key_id}",
            "labels_url": "https://api.github.com/repos/PrismarineJS/minecraft-data-generator/labels{/name}",
            "language": "Java",
            "languages_url": "https://api.github.com/repos/PrismarineJS/minecraft-data-generator/languages",
            "license": {
                "key": "mit",
                "name": "MIT License",
                "node_id": "MDc6TGljZW5zZTEz",
                "spdx_id": "MIT",
                "url": "https://api.github.com/licenses/mit"
            },
            "merges_url": "https://api.github.com/repos/PrismarineJS/minecraft-data-generator/merges",
            "milestones_url": "https://api.github.com/repos/PrismarineJS/minecraft-data-generator/milestones{/number}",
            "mirror_url": null,
            "name": "minecraft-data-generator",
            "node_id": "R_kgDOHSc7cQ",
            "notifications_url": "https://api.github.com/repos/PrismarineJS/minecraft-data-generator/notifications{?since,all,participating}",
            "open_issues": 6,
            "open_issues_count": 6,
            "owner": {
                "avatar_url": "https://avatars.githubusercontent.com/u/11053411?v=4",
                "events_url": "https://api.github.com/users/PrismarineJS/events{/privacy}",
                "followers_url": "https://api.github.com/users/PrismarineJS/followers",
                "following_url": "https://api.github.com/users/PrismarineJS/following{/other_user}",
                "gists_url": "https://api.github.com/users/PrismarineJS/gists{/gist_id}",
                "gravatar_id": "",
                "html_url": "https://github.com/PrismarineJS",
                "id": 11053411,
                "login": "PrismarineJS",
                "node_id": "MDEyOk9yZ2FuaXphdGlvbjExMDUzNDEx",
                "organizations_url": "https://api.github.com/users/PrismarineJS/orgs",
                "received_events_url": "https://api.github.com/users/PrismarineJS/received_events",
                "repos_url": "https://api.github.com/users/PrismarineJS/repos",
                "site_admin": false,
                "starred_url": "https://api.github.com/users/PrismarineJS/starred{/owner}{/repo}",
                "subscriptions_url": "https://api.github.com/users/PrismarineJS/subscriptions",
                "type": "Organization",
                "url": "https://api.github.com/users/PrismarineJS",
                "user_view_type": "public"
            },
            "private": false,
            "pulls_url": "https://api.github.com/repos/PrismarineJS/minecraft-data-generator/pulls{/number}",
            "pushed_at": "2024-10-27T14:07:25Z",
            "releases_url": "https://api.github.com/repos/PrismarineJS/minecraft-data-generator/releases{/id}",
            "size": 396,
            "ssh_url": "git@github.com:PrismarineJS/minecraft-data-generator.git",
            "stargazers_count": 8,
            "stargazers_url": "https://api.github.com/repos/PrismarineJS/minecraft-data-generator/stargazers",
            "statuses_url": "https://api.github.com/repos/PrismarineJS/minecraft-data-generator/statuses/{sha}",
            "subscribers_url": "https://api.github.com/repos/PrismarineJS/minecraft-data-generator/subscribers",
            "subscription_url": "https://api.github.com/repos/PrismarineJS/minecraft-data-generator/subscription",
            "svn_url": "https://github.com/PrismarineJS/minecraft-data-generator",
            "tags_url": "https://api.github.com/repos/PrismarineJS/minecraft-data-generator/tags",
            "teams_url": "https://api.github.com/repos/PrismarineJS/minecraft-data-generator/teams",
            "topics": [],
            "trees_url": "https://api.github.com/repos/PrismarineJS/minecraft-data-generator/git/trees{/sha}",
            "updated_at": "2024-10-27T14:07:29Z",
            "url": "https://api.github.com/repos/PrismarineJS/minecraft-data-generator",
            "visibility": "public",
            "watchers": 8,
            "watchers_count": 8,
            "web_commit_signoff_required": false
        },
        "sha": "91251bcf0654bcf2e6760e5b9214c8cddfea37d3",
        "user": {
            "avatar_url": "https://avatars.githubusercontent.com/u/11053411?v=4",
            "events_url": "https://api.github.com/users/PrismarineJS/events{/privacy}",
            "followers_url": "https://api.github.com/users/PrismarineJS/followers",
            "following_url": "https://api.github.com/users/PrismarineJS/following{/other_user}",
            "gists_url": "https://api.github.com/users/PrismarineJS/gists{/gist_id}",
            "gravatar_id": "",
            "html_url": "https://github.com/PrismarineJS",
            "id": 11053411,
            "login": "PrismarineJS",
            "node_id": "MDEyOk9yZ2FuaXphdGlvbjExMDUzNDEx",
            "organizations_url": "https://api.github.com/users/PrismarineJS/orgs",
            "received_events_url": "https://api.github.com/users/PrismarineJS/received_events",
            "repos_url": "https://api.github.com/users/PrismarineJS/repos",
            "site_admin": false,
            "starred_url": "https://api.github.com/users/PrismarineJS/starred{/owner}{/repo}",
            "subscriptions_url": "https://api.github.com/users/PrismarineJS/subscriptions",
            "type": "Organization",
            "url": "https://api.github.com/users/PrismarineJS",
            "user_view_type": "public"
        }
    },
    "body": "Also disables fail fast so other generators run even if one generator fails.",
    "changed_files": 12,
    "closed_at": "2024-10-27T14:07:25Z",
    "comment_data": [],
    "comment_regular_data": [
        {
            "author_association": "COLLABORATOR",
            "body": "@rom1504 This is the real situation of the project. Some versions actually fail, but so far the CI never failed if some generators compile, but fail during generation.",
            "created_at": "2024-10-27T11:04:19Z",
            "html_url": "https://github.com/PrismarineJS/minecraft-data-generator/pull/30#issuecomment-2439968601",
            "id": 2439968601,
            "issue_url": "https://api.github.com/repos/PrismarineJS/minecraft-data-generator/issues/30",
            "node_id": "IC_kwDOHSc7cc6RbvdZ",
            "performed_via_github_app": null,
            "reactions": {
                "+1": 0,
                "-1": 0,
                "confused": 0,
                "eyes": 0,
                "heart": 0,
                "hooray": 0,
                "laugh": 0,
                "rocket": 0,
                "total_count": 0,
                "url": "https://api.github.com/repos/PrismarineJS/minecraft-data-generator/issues/comments/2439968601/reactions"
            },
            "updated_at": "2024-10-27T11:32:10Z",
            "url": "https://api.github.com/repos/PrismarineJS/minecraft-data-generator/issues/comments/2439968601",
            "user": {
                "avatar_url": "https://avatars.githubusercontent.com/u/40795980?v=4",
                "events_url": "https://api.github.com/users/AlexProgrammerDE/events{/privacy}",
                "followers_url": "https://api.github.com/users/AlexProgrammerDE/followers",
                "following_url": "https://api.github.com/users/AlexProgrammerDE/following{/other_user}",
                "gists_url": "https://api.github.com/users/AlexProgrammerDE/gists{/gist_id}",
                "gravatar_id": "",
                "html_url": "https://github.com/AlexProgrammerDE",
                "id": 40795980,
                "login": "AlexProgrammerDE",
                "node_id": "MDQ6VXNlcjQwNzk1OTgw",
                "organizations_url": "https://api.github.com/users/AlexProgrammerDE/orgs",
                "received_events_url": "https://api.github.com/users/AlexProgrammerDE/received_events",
                "repos_url": "https://api.github.com/users/AlexProgrammerDE/repos",
                "site_admin": false,
                "starred_url": "https://api.github.com/users/AlexProgrammerDE/starred{/owner}{/repo}",
                "subscriptions_url": "https://api.github.com/users/AlexProgrammerDE/subscriptions",
                "type": "User",
                "url": "https://api.github.com/users/AlexProgrammerDE",
                "user_view_type": "public"
            }
        },
        {
            "author_association": "MEMBER",
            "body": "Great, let's fix it",
            "created_at": "2024-10-27T12:09:06Z",
            "html_url": "https://github.com/PrismarineJS/minecraft-data-generator/pull/30#issuecomment-2439988787",
            "id": 2439988787,
            "issue_url": "https://api.github.com/repos/PrismarineJS/minecraft-data-generator/issues/30",
            "node_id": "IC_kwDOHSc7cc6Rb0Yz",
            "performed_via_github_app": null,
            "reactions": {
                "+1": 0,
                "-1": 0,
                "confused": 0,
                "eyes": 0,
                "heart": 0,
                "hooray": 0,
                "laugh": 0,
                "rocket": 0,
                "total_count": 0,
                "url": "https://api.github.com/repos/PrismarineJS/minecraft-data-generator/issues/comments/2439988787/reactions"
            },
            "updated_at": "2024-10-27T12:09:06Z",
            "url": "https://api.github.com/repos/PrismarineJS/minecraft-data-generator/issues/comments/2439988787",
            "user": {
                "avatar_url": "https://avatars.githubusercontent.com/u/2346494?v=4",
                "events_url": "https://api.github.com/users/rom1504/events{/privacy}",
                "followers_url": "https://api.github.com/users/rom1504/followers",
                "following_url": "https://api.github.com/users/rom1504/following{/other_user}",
                "gists_url": "https://api.github.com/users/rom1504/gists{/gist_id}",
                "gravatar_id": "",
                "html_url": "https://github.com/rom1504",
                "id": 2346494,
                "login": "rom1504",
                "node_id": "MDQ6VXNlcjIzNDY0OTQ=",
                "organizations_url": "https://api.github.com/users/rom1504/orgs",
                "received_events_url": "https://api.github.com/users/rom1504/received_events",
                "repos_url": "https://api.github.com/users/rom1504/repos",
                "site_admin": false,
                "starred_url": "https://api.github.com/users/rom1504/starred{/owner}{/repo}",
                "subscriptions_url": "https://api.github.com/users/rom1504/subscriptions",
                "type": "User",
                "url": "https://api.github.com/users/rom1504",
                "user_view_type": "public"
            }
        },
        {
            "author_association": "COLLABORATOR",
            "body": "@rom1504 Fixed! 🌮 \r\nReady for merge.",
            "created_at": "2024-10-27T13:08:25Z",
            "html_url": "https://github.com/PrismarineJS/minecraft-data-generator/pull/30#issuecomment-2440009601",
            "id": 2440009601,
            "issue_url": "https://api.github.com/repos/PrismarineJS/minecraft-data-generator/issues/30",
            "node_id": "IC_kwDOHSc7cc6Rb5eB",
            "performed_via_github_app": null,
            "reactions": {
                "+1": 0,
                "-1": 0,
                "confused": 0,
                "eyes": 0,
                "heart": 0,
                "hooray": 0,
                "laugh": 0,
                "rocket": 0,
                "total_count": 0,
                "url": "https://api.github.com/repos/PrismarineJS/minecraft-data-generator/issues/comments/2440009601/reactions"
            },
            "updated_at": "2024-10-27T13:08:25Z",
            "url": "https://api.github.com/repos/PrismarineJS/minecraft-data-generator/issues/comments/2440009601",
            "user": {
                "avatar_url": "https://avatars.githubusercontent.com/u/40795980?v=4",
                "events_url": "https://api.github.com/users/AlexProgrammerDE/events{/privacy}",
                "followers_url": "https://api.github.com/users/AlexProgrammerDE/followers",
                "following_url": "https://api.github.com/users/AlexProgrammerDE/following{/other_user}",
                "gists_url": "https://api.github.com/users/AlexProgrammerDE/gists{/gist_id}",
                "gravatar_id": "",
                "html_url": "https://github.com/AlexProgrammerDE",
                "id": 40795980,
                "login": "AlexProgrammerDE",
                "node_id": "MDQ6VXNlcjQwNzk1OTgw",
                "organizations_url": "https://api.github.com/users/AlexProgrammerDE/orgs",
                "received_events_url": "https://api.github.com/users/AlexProgrammerDE/received_events",
                "repos_url": "https://api.github.com/users/AlexProgrammerDE/repos",
                "site_admin": false,
                "starred_url": "https://api.github.com/users/AlexProgrammerDE/starred{/owner}{/repo}",
                "subscriptions_url": "https://api.github.com/users/AlexProgrammerDE/subscriptions",
                "type": "User",
                "url": "https://api.github.com/users/AlexProgrammerDE",
                "user_view_type": "public"
            }
        },
        {
            "author_association": "MEMBER",
            "body": "Awesome ",
            "created_at": "2024-10-27T14:07:31Z",
            "html_url": "https://github.com/PrismarineJS/minecraft-data-generator/pull/30#issuecomment-2440038253",
            "id": 2440038253,
            "issue_url": "https://api.github.com/repos/PrismarineJS/minecraft-data-generator/issues/30",
            "node_id": "IC_kwDOHSc7cc6RcAdt",
            "performed_via_github_app": null,
            "reactions": {
                "+1": 0,
                "-1": 0,
                "confused": 0,
                "eyes": 0,
                "heart": 0,
                "hooray": 0,
                "laugh": 0,
                "rocket": 0,
                "total_count": 0,
                "url": "https://api.github.com/repos/PrismarineJS/minecraft-data-generator/issues/comments/2440038253/reactions"
            },
            "updated_at": "2024-10-27T14:07:31Z",
            "url": "https://api.github.com/repos/PrismarineJS/minecraft-data-generator/issues/comments/2440038253",
            "user": {
                "avatar_url": "https://avatars.githubusercontent.com/u/2346494?v=4",
                "events_url": "https://api.github.com/users/rom1504/events{/privacy}",
                "followers_url": "https://api.github.com/users/rom1504/followers",
                "following_url": "https://api.github.com/users/rom1504/following{/other_user}",
                "gists_url": "https://api.github.com/users/rom1504/gists{/gist_id}",
                "gravatar_id": "",
                "html_url": "https://github.com/rom1504",
                "id": 2346494,
                "login": "rom1504",
                "node_id": "MDQ6VXNlcjIzNDY0OTQ=",
                "organizations_url": "https://api.github.com/users/rom1504/orgs",
                "received_events_url": "https://api.github.com/users/rom1504/received_events",
                "repos_url": "https://api.github.com/users/rom1504/repos",
                "site_admin": false,
                "starred_url": "https://api.github.com/users/rom1504/starred{/owner}{/repo}",
                "subscriptions_url": "https://api.github.com/users/rom1504/subscriptions",
                "type": "User",
                "url": "https://api.github.com/users/rom1504",
                "user_view_type": "public"
            }
        }
    ],
    "comments": 4,
    "comments_url": "https://api.github.com/repos/PrismarineJS/minecraft-data-generator/issues/30/comments",
    "commit_data": [
        {
            "author": {
                "avatar_url": "https://avatars.githubusercontent.com/u/40795980?v=4",
                "events_url": "https://api.github.com/users/AlexProgrammerDE/events{/privacy}",
                "followers_url": "https://api.github.com/users/AlexProgrammerDE/followers",
                "following_url": "https://api.github.com/users/AlexProgrammerDE/following{/other_user}",
                "gists_url": "https://api.github.com/users/AlexProgrammerDE/gists{/gist_id}",
                "gravatar_id": "",
                "html_url": "https://github.com/AlexProgrammerDE",
                "id": 40795980,
                "login": "AlexProgrammerDE",
                "node_id": "MDQ6VXNlcjQwNzk1OTgw",
                "organizations_url": "https://api.github.com/users/AlexProgrammerDE/orgs",
                "received_events_url": "https://api.github.com/users/AlexProgrammerDE/received_events",
                "repos_url": "https://api.github.com/users/AlexProgrammerDE/repos",
                "site_admin": false,
                "starred_url": "https://api.github.com/users/AlexProgrammerDE/starred{/owner}{/repo}",
                "subscriptions_url": "https://api.github.com/users/AlexProgrammerDE/subscriptions",
                "type": "User",
                "url": "https://api.github.com/users/AlexProgrammerDE",
                "user_view_type": "public"
            },
            "comments_url": "https://api.github.com/repos/PrismarineJS/minecraft-data-generator/commits/dcae412b6210b6123587e1d0a8724281385364d3/comments",
            "commit": {
                "author": {
                    "date": "2024-10-27T10:59:24Z",
                    "email": "40795980+AlexProgrammerDE@users.noreply.github.com",
                    "name": "AlexProgrammerDE"
                },
                "comment_count": 0,
                "committer": {
                    "date": "2024-10-27T10:59:24Z",
                    "email": "40795980+AlexProgrammerDE@users.noreply.github.com",
                    "name": "AlexProgrammerDE"
                },
                "message": "Actually fail unit tests if generation fails",
                "tree": {
                    "sha": "0678503ba4d8ed099b35a5833ae108057531416f",
                    "url": "https://api.github.com/repos/PrismarineJS/minecraft-data-generator/git/trees/0678503ba4d8ed099b35a5833ae108057531416f"
                },
                "url": "https://api.github.com/repos/PrismarineJS/minecraft-data-generator/git/commits/dcae412b6210b6123587e1d0a8724281385364d3",
                "verification": {
                    "payload": null,
                    "reason": "unsigned",
                    "signature": null,
                    "verified": false
                }
            },
            "committer": {
                "avatar_url": "https://avatars.githubusercontent.com/u/40795980?v=4",
                "events_url": "https://api.github.com/users/AlexProgrammerDE/events{/privacy}",
                "followers_url": "https://api.github.com/users/AlexProgrammerDE/followers",
                "following_url": "https://api.github.com/users/AlexProgrammerDE/following{/other_user}",
                "gists_url": "https://api.github.com/users/AlexProgrammerDE/gists{/gist_id}",
                "gravatar_id": "",
                "html_url": "https://github.com/AlexProgrammerDE",
                "id": 40795980,
                "login": "AlexProgrammerDE",
                "node_id": "MDQ6VXNlcjQwNzk1OTgw",
                "organizations_url": "https://api.github.com/users/AlexProgrammerDE/orgs",
                "received_events_url": "https://api.github.com/users/AlexProgrammerDE/received_events",
                "repos_url": "https://api.github.com/users/AlexProgrammerDE/repos",
                "site_admin": false,
                "starred_url": "https://api.github.com/users/AlexProgrammerDE/starred{/owner}{/repo}",
                "subscriptions_url": "https://api.github.com/users/AlexProgrammerDE/subscriptions",
                "type": "User",
                "url": "https://api.github.com/users/AlexProgrammerDE",
                "user_view_type": "public"
            },
            "html_url": "https://github.com/PrismarineJS/minecraft-data-generator/commit/dcae412b6210b6123587e1d0a8724281385364d3",
            "node_id": "C_kwDOKq35cNoAKGRjYWU0MTJiNjIxMGI2MTIzNTg3ZTFkMGE4NzI0MjgxMzg1MzY0ZDM",
            "parents": [
                {
                    "html_url": "https://github.com/PrismarineJS/minecraft-data-generator/commit/2c423f77f83f860bd57948fca712b4e9a04c0502",
                    "sha": "2c423f77f83f860bd57948fca712b4e9a04c0502",
                    "url": "https://api.github.com/repos/PrismarineJS/minecraft-data-generator/commits/2c423f77f83f860bd57948fca712b4e9a04c0502"
                }
            ],
            "sha": "dcae412b6210b6123587e1d0a8724281385364d3",
            "url": "https://api.github.com/repos/PrismarineJS/minecraft-data-generator/commits/dcae412b6210b6123587e1d0a8724281385364d3"
        },
        {
            "author": {
                "avatar_url": "https://avatars.githubusercontent.com/u/40795980?v=4",
                "events_url": "https://api.github.com/users/AlexProgrammerDE/events{/privacy}",
                "followers_url": "https://api.github.com/users/AlexProgrammerDE/followers",
                "following_url": "https://api.github.com/users/AlexProgrammerDE/following{/other_user}",
                "gists_url": "https://api.github.com/users/AlexProgrammerDE/gists{/gist_id}",
                "gravatar_id": "",
                "html_url": "https://github.com/AlexProgrammerDE",
                "id": 40795980,
                "login": "AlexProgrammerDE",
                "node_id": "MDQ6VXNlcjQwNzk1OTgw",
                "organizations_url": "https://api.github.com/users/AlexProgrammerDE/orgs",
                "received_events_url": "https://api.github.com/users/AlexProgrammerDE/received_events",
                "repos_url": "https://api.github.com/users/AlexProgrammerDE/repos",
                "site_admin": false,
                "starred_url": "https://api.github.com/users/AlexProgrammerDE/starred{/owner}{/repo}",
                "subscriptions_url": "https://api.github.com/users/AlexProgrammerDE/subscriptions",
                "type": "User",
                "url": "https://api.github.com/users/AlexProgrammerDE",
                "user_view_type": "public"
            },
            "comments_url": "https://api.github.com/repos/PrismarineJS/minecraft-data-generator/commits/6a7fba23e3d431dbf980608d8630911e3f1625bc/comments",
            "commit": {
                "author": {
                    "date": "2024-10-27T11:00:41Z",
                    "email": "40795980+AlexProgrammerDE@users.noreply.github.com",
                    "name": "AlexProgrammerDE"
                },
                "comment_count": 0,
                "committer": {
                    "date": "2024-10-27T11:00:41Z",
                    "email": "40795980+AlexProgrammerDE@users.noreply.github.com",
                    "name": "AlexProgrammerDE"
                },
                "message": "Do not fail fast",
                "tree": {
                    "sha": "50965e48c61dc51e1cb3ff32e4333fe2a57cacb2",
                    "url": "https://api.github.com/repos/PrismarineJS/minecraft-data-generator/git/trees/50965e48c61dc51e1cb3ff32e4333fe2a57cacb2"
                },
                "url": "https://api.github.com/repos/PrismarineJS/minecraft-data-generator/git/commits/6a7fba23e3d431dbf980608d8630911e3f1625bc",
                "verification": {
                    "payload": null,
                    "reason": "unsigned",
                    "signature": null,
                    "verified": false
                }
            },
            "committer": {
                "avatar_url": "https://avatars.githubusercontent.com/u/40795980?v=4",
                "events_url": "https://api.github.com/users/AlexProgrammerDE/events{/privacy}",
                "followers_url": "https://api.github.com/users/AlexProgrammerDE/followers",
                "following_url": "https://api.github.com/users/AlexProgrammerDE/following{/other_user}",
                "gists_url": "https://api.github.com/users/AlexProgrammerDE/gists{/gist_id}",
                "gravatar_id": "",
                "html_url": "https://github.com/AlexProgrammerDE",
                "id": 40795980,
                "login": "AlexProgrammerDE",
                "node_id": "MDQ6VXNlcjQwNzk1OTgw",
                "organizations_url": "https://api.github.com/users/AlexProgrammerDE/orgs",
                "received_events_url": "https://api.github.com/users/AlexProgrammerDE/received_events",
                "repos_url": "https://api.github.com/users/AlexProgrammerDE/repos",
                "site_admin": false,
                "starred_url": "https://api.github.com/users/AlexProgrammerDE/starred{/owner}{/repo}",
                "subscriptions_url": "https://api.github.com/users/AlexProgrammerDE/subscriptions",
                "type": "User",
                "url": "https://api.github.com/users/AlexProgrammerDE",
                "user_view_type": "public"
            },
            "html_url": "https://github.com/PrismarineJS/minecraft-data-generator/commit/6a7fba23e3d431dbf980608d8630911e3f1625bc",
            "node_id": "C_kwDOKq35cNoAKDZhN2ZiYTIzZTNkNDMxZGJmOTgwNjA4ZDg2MzA5MTFlM2YxNjI1YmM",
            "parents": [
                {
                    "html_url": "https://github.com/PrismarineJS/minecraft-data-generator/commit/dcae412b6210b6123587e1d0a8724281385364d3",
                    "sha": "dcae412b6210b6123587e1d0a8724281385364d3",
                    "url": "https://api.github.com/repos/PrismarineJS/minecraft-data-generator/commits/dcae412b6210b6123587e1d0a8724281385364d3"
                }
            ],
            "sha": "6a7fba23e3d431dbf980608d8630911e3f1625bc",
            "url": "https://api.github.com/repos/PrismarineJS/minecraft-data-generator/commits/6a7fba23e3d431dbf980608d8630911e3f1625bc"
        },
        {
            "author": {
                "avatar_url": "https://avatars.githubusercontent.com/u/40795980?v=4",
                "events_url": "https://api.github.com/users/AlexProgrammerDE/events{/privacy}",
                "followers_url": "https://api.github.com/users/AlexProgrammerDE/followers",
                "following_url": "https://api.github.com/users/AlexProgrammerDE/following{/other_user}",
                "gists_url": "https://api.github.com/users/AlexProgrammerDE/gists{/gist_id}",
                "gravatar_id": "",
                "html_url": "https://github.com/AlexProgrammerDE",
                "id": 40795980,
                "login": "AlexProgrammerDE",
                "node_id": "MDQ6VXNlcjQwNzk1OTgw",
                "organizations_url": "https://api.github.com/users/AlexProgrammerDE/orgs",
                "received_events_url": "https://api.github.com/users/AlexProgrammerDE/received_events",
                "repos_url": "https://api.github.com/users/AlexProgrammerDE/repos",
                "site_admin": false,
                "starred_url": "https://api.github.com/users/AlexProgrammerDE/starred{/owner}{/repo}",
                "subscriptions_url": "https://api.github.com/users/AlexProgrammerDE/subscriptions",
                "type": "User",
                "url": "https://api.github.com/users/AlexProgrammerDE",
                "user_view_type": "public"
            },
            "comments_url": "https://api.github.com/repos/PrismarineJS/minecraft-data-generator/commits/93dcf7b3e0b4c972ee72d1a1c3e572251adf966f/comments",
            "commit": {
                "author": {
                    "date": "2024-10-27T11:30:11Z",
                    "email": "40795980+AlexProgrammerDE@users.noreply.github.com",
                    "name": "AlexProgrammerDE"
                },
                "comment_count": 0,
                "committer": {
                    "date": "2024-10-27T11:30:11Z",
                    "email": "40795980+AlexProgrammerDE@users.noreply.github.com",
                    "name": "AlexProgrammerDE"
                },
                "message": "Fix 1.8.9 spam",
                "tree": {
                    "sha": "8d8fd11ceb613fc6493cf060cb189c0fc0241b3e",
                    "url": "https://api.github.com/repos/PrismarineJS/minecraft-data-generator/git/trees/8d8fd11ceb613fc6493cf060cb189c0fc0241b3e"
                },
                "url": "https://api.github.com/repos/PrismarineJS/minecraft-data-generator/git/commits/93dcf7b3e0b4c972ee72d1a1c3e572251adf966f",
                "verification": {
                    "payload": null,
                    "reason": "unsigned",
                    "signature": null,
                    "verified": false
                }
            },
            "committer": {
                "avatar_url": "https://avatars.githubusercontent.com/u/40795980?v=4",
                "events_url": "https://api.github.com/users/AlexProgrammerDE/events{/privacy}",
                "followers_url": "https://api.github.com/users/AlexProgrammerDE/followers",
                "following_url": "https://api.github.com/users/AlexProgrammerDE/following{/other_user}",
                "gists_url": "https://api.github.com/users/AlexProgrammerDE/gists{/gist_id}",
                "gravatar_id": "",
                "html_url": "https://github.com/AlexProgrammerDE",
                "id": 40795980,
                "login": "AlexProgrammerDE",
                "node_id": "MDQ6VXNlcjQwNzk1OTgw",
                "organizations_url": "https://api.github.com/users/AlexProgrammerDE/orgs",
                "received_events_url": "https://api.github.com/users/AlexProgrammerDE/received_events",
                "repos_url": "https://api.github.com/users/AlexProgrammerDE/repos",
                "site_admin": false,
                "starred_url": "https://api.github.com/users/AlexProgrammerDE/starred{/owner}{/repo}",
                "subscriptions_url": "https://api.github.com/users/AlexProgrammerDE/subscriptions",
                "type": "User",
                "url": "https://api.github.com/users/AlexProgrammerDE",
                "user_view_type": "public"
            },
            "html_url": "https://github.com/PrismarineJS/minecraft-data-generator/commit/93dcf7b3e0b4c972ee72d1a1c3e572251adf966f",
            "node_id": "C_kwDOKq35cNoAKDkzZGNmN2IzZTBiNGM5NzJlZTcyZDFhMWMzZTU3MjI1MWFkZjk2NmY",
            "parents": [
                {
                    "html_url": "https://github.com/PrismarineJS/minecraft-data-generator/commit/6a7fba23e3d431dbf980608d8630911e3f1625bc",
                    "sha": "6a7fba23e3d431dbf980608d8630911e3f1625bc",
                    "url": "https://api.github.com/repos/PrismarineJS/minecraft-data-generator/commits/6a7fba23e3d431dbf980608d8630911e3f1625bc"
                }
            ],
            "sha": "93dcf7b3e0b4c972ee72d1a1c3e572251adf966f",
            "url": "https://api.github.com/repos/PrismarineJS/minecraft-data-generator/commits/93dcf7b3e0b4c972ee72d1a1c3e572251adf966f"
        },
        {
            "author": {
                "avatar_url": "https://avatars.githubusercontent.com/u/40795980?v=4",
                "events_url": "https://api.github.com/users/AlexProgrammerDE/events{/privacy}",
                "followers_url": "https://api.github.com/users/AlexProgrammerDE/followers",
                "following_url": "https://api.github.com/users/AlexProgrammerDE/following{/other_user}",
                "gists_url": "https://api.github.com/users/AlexProgrammerDE/gists{/gist_id}",
                "gravatar_id": "",
                "html_url": "https://github.com/AlexProgrammerDE",
                "id": 40795980,
                "login": "AlexProgrammerDE",
                "node_id": "MDQ6VXNlcjQwNzk1OTgw",
                "organizations_url": "https://api.github.com/users/AlexProgrammerDE/orgs",
                "received_events_url": "https://api.github.com/users/AlexProgrammerDE/received_events",
                "repos_url": "https://api.github.com/users/AlexProgrammerDE/repos",
                "site_admin": false,
                "starred_url": "https://api.github.com/users/AlexProgrammerDE/starred{/owner}{/repo}",
                "subscriptions_url": "https://api.github.com/users/AlexProgrammerDE/subscriptions",
                "type": "User",
                "url": "https://api.github.com/users/AlexProgrammerDE",
                "user_view_type": "public"
            },
            "comments_url": "https://api.github.com/repos/PrismarineJS/minecraft-data-generator/commits/810aea7d259a29bfe8733c5b35fbebd218ea574a/comments",
            "commit": {
                "author": {
                    "date": "2024-10-27T11:44:33Z",
                    "email": "40795980+AlexProgrammerDE@users.noreply.github.com",
                    "name": "AlexProgrammerDE"
                },
                "comment_count": 0,
                "committer": {
                    "date": "2024-10-27T11:45:03Z",
                    "email": "40795980+AlexProgrammerDE@users.noreply.github.com",
                    "name": "AlexProgrammerDE"
                },
                "message": "Fix 1.8.9 generation",
                "tree": {
                    "sha": "f533aea1383e05fac3b018b470f6e9126b850f26",
                    "url": "https://api.github.com/repos/PrismarineJS/minecraft-data-generator/git/trees/f533aea1383e05fac3b018b470f6e9126b850f26"
                },
                "url": "https://api.github.com/repos/PrismarineJS/minecraft-data-generator/git/commits/810aea7d259a29bfe8733c5b35fbebd218ea574a",
                "verification": {
                    "payload": null,
                    "reason": "unsigned",
                    "signature": null,
                    "verified": false
                }
            },
            "committer": {
                "avatar_url": "https://avatars.githubusercontent.com/u/40795980?v=4",
                "events_url": "https://api.github.com/users/AlexProgrammerDE/events{/privacy}",
                "followers_url": "https://api.github.com/users/AlexProgrammerDE/followers",
                "following_url": "https://api.github.com/users/AlexProgrammerDE/following{/other_user}",
                "gists_url": "https://api.github.com/users/AlexProgrammerDE/gists{/gist_id}",
                "gravatar_id": "",
                "html_url": "https://github.com/AlexProgrammerDE",
                "id": 40795980,
                "login": "AlexProgrammerDE",
                "node_id": "MDQ6VXNlcjQwNzk1OTgw",
                "organizations_url": "https://api.github.com/users/AlexProgrammerDE/orgs",
                "received_events_url": "https://api.github.com/users/AlexProgrammerDE/received_events",
                "repos_url": "https://api.github.com/users/AlexProgrammerDE/repos",
                "site_admin": false,
                "starred_url": "https://api.github.com/users/AlexProgrammerDE/starred{/owner}{/repo}",
                "subscriptions_url": "https://api.github.com/users/AlexProgrammerDE/subscriptions",
                "type": "User",
                "url": "https://api.github.com/users/AlexProgrammerDE",
                "user_view_type": "public"
            },
            "html_url": "https://github.com/PrismarineJS/minecraft-data-generator/commit/810aea7d259a29bfe8733c5b35fbebd218ea574a",
            "node_id": "C_kwDOKq35cNoAKDgxMGFlYTdkMjU5YTI5YmZlODczM2M1YjM1ZmJlYmQyMThlYTU3NGE",
            "parents": [
                {
                    "html_url": "https://github.com/PrismarineJS/minecraft-data-generator/commit/93dcf7b3e0b4c972ee72d1a1c3e572251adf966f",
                    "sha": "93dcf7b3e0b4c972ee72d1a1c3e572251adf966f",
                    "url": "https://api.github.com/repos/PrismarineJS/minecraft-data-generator/commits/93dcf7b3e0b4c972ee72d1a1c3e572251adf966f"
                }
            ],
            "sha": "810aea7d259a29bfe8733c5b35fbebd218ea574a",
            "url": "https://api.github.com/repos/PrismarineJS/minecraft-data-generator/commits/810aea7d259a29bfe8733c5b35fbebd218ea574a"
        },
        {
            "author": {
                "avatar_url": "https://avatars.githubusercontent.com/u/40795980?v=4",
                "events_url": "https://api.github.com/users/AlexProgrammerDE/events{/privacy}",
                "followers_url": "https://api.github.com/users/AlexProgrammerDE/followers",
                "following_url": "https://api.github.com/users/AlexProgrammerDE/following{/other_user}",
                "gists_url": "https://api.github.com/users/AlexProgrammerDE/gists{/gist_id}",
                "gravatar_id": "",
                "html_url": "https://github.com/AlexProgrammerDE",
                "id": 40795980,
                "login": "AlexProgrammerDE",
                "node_id": "MDQ6VXNlcjQwNzk1OTgw",
                "organizations_url": "https://api.github.com/users/AlexProgrammerDE/orgs",
                "received_events_url": "https://api.github.com/users/AlexProgrammerDE/received_events",
                "repos_url": "https://api.github.com/users/AlexProgrammerDE/repos",
                "site_admin": false,
                "starred_url": "https://api.github.com/users/AlexProgrammerDE/starred{/owner}{/repo}",
                "subscriptions_url": "https://api.github.com/users/AlexProgrammerDE/subscriptions",
                "type": "User",
                "url": "https://api.github.com/users/AlexProgrammerDE",
                "user_view_type": "public"
            },
            "comments_url": "https://api.github.com/repos/PrismarineJS/minecraft-data-generator/commits/c7622cb5b3c69286803fdb475fde0ab75e51a0cd/comments",
            "commit": {
                "author": {
                    "date": "2024-10-27T11:47:13Z",
                    "email": "40795980+AlexProgrammerDE@users.noreply.github.com",
                    "name": "AlexProgrammerDE"
                },
                "comment_count": 0,
                "committer": {
                    "date": "2024-10-27T11:47:13Z",
                    "email": "40795980+AlexProgrammerDE@users.noreply.github.com",
                    "name": "AlexProgrammerDE"
                },
                "message": "Merge remote-tracking branch 'upstream/main'",
                "tree": {
                    "sha": "fd80d9e2a7cfb72b72f741e9d5919f77fcbd8fed",
                    "url": "https://api.github.com/repos/PrismarineJS/minecraft-data-generator/git/trees/fd80d9e2a7cfb72b72f741e9d5919f77fcbd8fed"
                },
                "url": "https://api.github.com/repos/PrismarineJS/minecraft-data-generator/git/commits/c7622cb5b3c69286803fdb475fde0ab75e51a0cd",
                "verification": {
                    "payload": null,
                    "reason": "unsigned",
                    "signature": null,
                    "verified": false
                }
            },
            "committer": {
                "avatar_url": "https://avatars.githubusercontent.com/u/40795980?v=4",
                "events_url": "https://api.github.com/users/AlexProgrammerDE/events{/privacy}",
                "followers_url": "https://api.github.com/users/AlexProgrammerDE/followers",
                "following_url": "https://api.github.com/users/AlexProgrammerDE/following{/other_user}",
                "gists_url": "https://api.github.com/users/AlexProgrammerDE/gists{/gist_id}",
                "gravatar_id": "",
                "html_url": "https://github.com/AlexProgrammerDE",
                "id": 40795980,
                "login": "AlexProgrammerDE",
                "node_id": "MDQ6VXNlcjQwNzk1OTgw",
                "organizations_url": "https://api.github.com/users/AlexProgrammerDE/orgs",
                "received_events_url": "https://api.github.com/users/AlexProgrammerDE/received_events",
                "repos_url": "https://api.github.com/users/AlexProgrammerDE/repos",
                "site_admin": false,
                "starred_url": "https://api.github.com/users/AlexProgrammerDE/starred{/owner}{/repo}",
                "subscriptions_url": "https://api.github.com/users/AlexProgrammerDE/subscriptions",
                "type": "User",
                "url": "https://api.github.com/users/AlexProgrammerDE",
                "user_view_type": "public"
            },
            "html_url": "https://github.com/PrismarineJS/minecraft-data-generator/commit/c7622cb5b3c69286803fdb475fde0ab75e51a0cd",
            "node_id": "C_kwDOKq35cNoAKGM3NjIyY2I1YjNjNjkyODY4MDNmZGI0NzVmZGUwYWI3NWU1MWEwY2Q",
            "parents": [
                {
                    "html_url": "https://github.com/PrismarineJS/minecraft-data-generator/commit/810aea7d259a29bfe8733c5b35fbebd218ea574a",
                    "sha": "810aea7d259a29bfe8733c5b35fbebd218ea574a",
                    "url": "https://api.github.com/repos/PrismarineJS/minecraft-data-generator/commits/810aea7d259a29bfe8733c5b35fbebd218ea574a"
                },
                {
                    "html_url": "https://github.com/PrismarineJS/minecraft-data-generator/commit/91251bcf0654bcf2e6760e5b9214c8cddfea37d3",
                    "sha": "91251bcf0654bcf2e6760e5b9214c8cddfea37d3",
                    "url": "https://api.github.com/repos/PrismarineJS/minecraft-data-generator/commits/91251bcf0654bcf2e6760e5b9214c8cddfea37d3"
                }
            ],
            "sha": "c7622cb5b3c69286803fdb475fde0ab75e51a0cd",
            "url": "https://api.github.com/repos/PrismarineJS/minecraft-data-generator/commits/c7622cb5b3c69286803fdb475fde0ab75e51a0cd"
        },
        {
            "author": {
                "avatar_url": "https://avatars.githubusercontent.com/u/40795980?v=4",
                "events_url": "https://api.github.com/users/AlexProgrammerDE/events{/privacy}",
                "followers_url": "https://api.github.com/users/AlexProgrammerDE/followers",
                "following_url": "https://api.github.com/users/AlexProgrammerDE/following{/other_user}",
                "gists_url": "https://api.github.com/users/AlexProgrammerDE/gists{/gist_id}",
                "gravatar_id": "",
                "html_url": "https://github.com/AlexProgrammerDE",
                "id": 40795980,
                "login": "AlexProgrammerDE",
                "node_id": "MDQ6VXNlcjQwNzk1OTgw",
                "organizations_url": "https://api.github.com/users/AlexProgrammerDE/orgs",
                "received_events_url": "https://api.github.com/users/AlexProgrammerDE/received_events",
                "repos_url": "https://api.github.com/users/AlexProgrammerDE/repos",
                "site_admin": false,
                "starred_url": "https://api.github.com/users/AlexProgrammerDE/starred{/owner}{/repo}",
                "subscriptions_url": "https://api.github.com/users/AlexProgrammerDE/subscriptions",
                "type": "User",
                "url": "https://api.github.com/users/AlexProgrammerDE",
                "user_view_type": "public"
            },
            "comments_url": "https://api.github.com/repos/PrismarineJS/minecraft-data-generator/commits/7bd21e96f58512545527f5b85be815dca0a38f7d/comments",
            "commit": {
                "author": {
                    "date": "2024-10-27T12:22:40Z",
                    "email": "40795980+AlexProgrammerDE@users.noreply.github.com",
                    "name": "AlexProgrammerDE"
                },
                "comment_count": 0,
                "committer": {
                    "date": "2024-10-27T12:22:40Z",
                    "email": "40795980+AlexProgrammerDE@users.noreply.github.com",
                    "name": "AlexProgrammerDE"
                },
                "message": "Fix 1.8.9 generation",
                "tree": {
                    "sha": "e7e7266d9f9c9740b05bb9516715b88803a78ab3",
                    "url": "https://api.github.com/repos/PrismarineJS/minecraft-data-generator/git/trees/e7e7266d9f9c9740b05bb9516715b88803a78ab3"
                },
                "url": "https://api.github.com/repos/PrismarineJS/minecraft-data-generator/git/commits/7bd21e96f58512545527f5b85be815dca0a38f7d",
                "verification": {
                    "payload": null,
                    "reason": "unsigned",
                    "signature": null,
                    "verified": false
                }
            },
            "committer": {
                "avatar_url": "https://avatars.githubusercontent.com/u/40795980?v=4",
                "events_url": "https://api.github.com/users/AlexProgrammerDE/events{/privacy}",
                "followers_url": "https://api.github.com/users/AlexProgrammerDE/followers",
                "following_url": "https://api.github.com/users/AlexProgrammerDE/following{/other_user}",
                "gists_url": "https://api.github.com/users/AlexProgrammerDE/gists{/gist_id}",
                "gravatar_id": "",
                "html_url": "https://github.com/AlexProgrammerDE",
                "id": 40795980,
                "login": "AlexProgrammerDE",
                "node_id": "MDQ6VXNlcjQwNzk1OTgw",
                "organizations_url": "https://api.github.com/users/AlexProgrammerDE/orgs",
                "received_events_url": "https://api.github.com/users/AlexProgrammerDE/received_events",
                "repos_url": "https://api.github.com/users/AlexProgrammerDE/repos",
                "site_admin": false,
                "starred_url": "https://api.github.com/users/AlexProgrammerDE/starred{/owner}{/repo}",
                "subscriptions_url": "https://api.github.com/users/AlexProgrammerDE/subscriptions",
                "type": "User",
                "url": "https://api.github.com/users/AlexProgrammerDE",
                "user_view_type": "public"
            },
            "html_url": "https://github.com/PrismarineJS/minecraft-data-generator/commit/7bd21e96f58512545527f5b85be815dca0a38f7d",
            "node_id": "C_kwDOKq35cNoAKDdiZDIxZTk2ZjU4NTEyNTQ1NTI3ZjViODViZTgxNWRjYTBhMzhmN2Q",
            "parents": [
                {
                    "html_url": "https://github.com/PrismarineJS/minecraft-data-generator/commit/c7622cb5b3c69286803fdb475fde0ab75e51a0cd",
                    "sha": "c7622cb5b3c69286803fdb475fde0ab75e51a0cd",
                    "url": "https://api.github.com/repos/PrismarineJS/minecraft-data-generator/commits/c7622cb5b3c69286803fdb475fde0ab75e51a0cd"
                }
            ],
            "sha": "7bd21e96f58512545527f5b85be815dca0a38f7d",
            "url": "https://api.github.com/repos/PrismarineJS/minecraft-data-generator/commits/7bd21e96f58512545527f5b85be815dca0a38f7d"
        },
        {
            "author": {
                "avatar_url": "https://avatars.githubusercontent.com/u/40795980?v=4",
                "events_url": "https://api.github.com/users/AlexProgrammerDE/events{/privacy}",
                "followers_url": "https://api.github.com/users/AlexProgrammerDE/followers",
                "following_url": "https://api.github.com/users/AlexProgrammerDE/following{/other_user}",
                "gists_url": "https://api.github.com/users/AlexProgrammerDE/gists{/gist_id}",
                "gravatar_id": "",
                "html_url": "https://github.com/AlexProgrammerDE",
                "id": 40795980,
                "login": "AlexProgrammerDE",
                "node_id": "MDQ6VXNlcjQwNzk1OTgw",
                "organizations_url": "https://api.github.com/users/AlexProgrammerDE/orgs",
                "received_events_url": "https://api.github.com/users/AlexProgrammerDE/received_events",
                "repos_url": "https://api.github.com/users/AlexProgrammerDE/repos",
                "site_admin": false,
                "starred_url": "https://api.github.com/users/AlexProgrammerDE/starred{/owner}{/repo}",
                "subscriptions_url": "https://api.github.com/users/AlexProgrammerDE/subscriptions",
                "type": "User",
                "url": "https://api.github.com/users/AlexProgrammerDE",
                "user_view_type": "public"
            },
            "comments_url": "https://api.github.com/repos/PrismarineJS/minecraft-data-generator/commits/885f216caeede00e8d5fa348795d9d26da9384f0/comments",
            "commit": {
                "author": {
                    "date": "2024-10-27T13:00:36Z",
                    "email": "40795980+AlexProgrammerDE@users.noreply.github.com",
                    "name": "AlexProgrammerDE"
                },
                "comment_count": 0,
                "committer": {
                    "date": "2024-10-27T13:00:36Z",
                    "email": "40795980+AlexProgrammerDE@users.noreply.github.com",
                    "name": "AlexProgrammerDE"
                },
                "message": "Fix entity generation on 4 versions",
                "tree": {
                    "sha": "93ce56fe42b7460f9f70e01b374174ca194a134d",
                    "url": "https://api.github.com/repos/PrismarineJS/minecraft-data-generator/git/trees/93ce56fe42b7460f9f70e01b374174ca194a134d"
                },
                "url": "https://api.github.com/repos/PrismarineJS/minecraft-data-generator/git/commits/885f216caeede00e8d5fa348795d9d26da9384f0",
                "verification": {
                    "payload": null,
                    "reason": "unsigned",
                    "signature": null,
                    "verified": false
                }
            },
            "committer": {
                "avatar_url": "https://avatars.githubusercontent.com/u/40795980?v=4",
                "events_url": "https://api.github.com/users/AlexProgrammerDE/events{/privacy}",
                "followers_url": "https://api.github.com/users/AlexProgrammerDE/followers",
                "following_url": "https://api.github.com/users/AlexProgrammerDE/following{/other_user}",
                "gists_url": "https://api.github.com/users/AlexProgrammerDE/gists{/gist_id}",
                "gravatar_id": "",
                "html_url": "https://github.com/AlexProgrammerDE",
                "id": 40795980,
                "login": "AlexProgrammerDE",
                "node_id": "MDQ6VXNlcjQwNzk1OTgw",
                "organizations_url": "https://api.github.com/users/AlexProgrammerDE/orgs",
                "received_events_url": "https://api.github.com/users/AlexProgrammerDE/received_events",
                "repos_url": "https://api.github.com/users/AlexProgrammerDE/repos",
                "site_admin": false,
                "starred_url": "https://api.github.com/users/AlexProgrammerDE/starred{/owner}{/repo}",
                "subscriptions_url": "https://api.github.com/users/AlexProgrammerDE/subscriptions",
                "type": "User",
                "url": "https://api.github.com/users/AlexProgrammerDE",
                "user_view_type": "public"
            },
            "html_url": "https://github.com/PrismarineJS/minecraft-data-generator/commit/885f216caeede00e8d5fa348795d9d26da9384f0",
            "node_id": "C_kwDOKq35cNoAKDg4NWYyMTZjYWVlZGUwMGU4ZDVmYTM0ODc5NWQ5ZDI2ZGE5Mzg0ZjA",
            "parents": [
                {
                    "html_url": "https://github.com/PrismarineJS/minecraft-data-generator/commit/7bd21e96f58512545527f5b85be815dca0a38f7d",
                    "sha": "7bd21e96f58512545527f5b85be815dca0a38f7d",
                    "url": "https://api.github.com/repos/PrismarineJS/minecraft-data-generator/commits/7bd21e96f58512545527f5b85be815dca0a38f7d"
                }
            ],
            "sha": "885f216caeede00e8d5fa348795d9d26da9384f0",
            "url": "https://api.github.com/repos/PrismarineJS/minecraft-data-generator/commits/885f216caeede00e8d5fa348795d9d26da9384f0"
        },
        {
            "author": {
                "avatar_url": "https://avatars.githubusercontent.com/u/40795980?v=4",
                "events_url": "https://api.github.com/users/AlexProgrammerDE/events{/privacy}",
                "followers_url": "https://api.github.com/users/AlexProgrammerDE/followers",
                "following_url": "https://api.github.com/users/AlexProgrammerDE/following{/other_user}",
                "gists_url": "https://api.github.com/users/AlexProgrammerDE/gists{/gist_id}",
                "gravatar_id": "",
                "html_url": "https://github.com/AlexProgrammerDE",
                "id": 40795980,
                "login": "AlexProgrammerDE",
                "node_id": "MDQ6VXNlcjQwNzk1OTgw",
                "organizations_url": "https://api.github.com/users/AlexProgrammerDE/orgs",
                "received_events_url": "https://api.github.com/users/AlexProgrammerDE/received_events",
                "repos_url": "https://api.github.com/users/AlexProgrammerDE/repos",
                "site_admin": false,
                "starred_url": "https://api.github.com/users/AlexProgrammerDE/starred{/owner}{/repo}",
                "subscriptions_url": "https://api.github.com/users/AlexProgrammerDE/subscriptions",
                "type": "User",
                "url": "https://api.github.com/users/AlexProgrammerDE",
                "user_view_type": "public"
            },
            "comments_url": "https://api.github.com/repos/PrismarineJS/minecraft-data-generator/commits/896b697d78e122c1fa42e58a861ef1eb26ed5bad/comments",
            "commit": {
                "author": {
                    "date": "2024-10-27T13:04:32Z",
                    "email": "40795980+AlexProgrammerDE@users.noreply.github.com",
                    "name": "AlexProgrammerDE"
                },
                "comment_count": 0,
                "committer": {
                    "date": "2024-10-27T13:04:32Z",
                    "email": "40795980+AlexProgrammerDE@users.noreply.github.com",
                    "name": "AlexProgrammerDE"
                },
                "message": "Fix projectile thrown package",
                "tree": {
                    "sha": "709100a9bfbe19ba01b62634f06c2d295128fd2e",
                    "url": "https://api.github.com/repos/PrismarineJS/minecraft-data-generator/git/trees/709100a9bfbe19ba01b62634f06c2d295128fd2e"
                },
                "url": "https://api.github.com/repos/PrismarineJS/minecraft-data-generator/git/commits/896b697d78e122c1fa42e58a861ef1eb26ed5bad",
                "verification": {
                    "payload": null,
                    "reason": "unsigned",
                    "signature": null,
                    "verified": false
                }
            },
            "committer": {
                "avatar_url": "https://avatars.githubusercontent.com/u/40795980?v=4",
                "events_url": "https://api.github.com/users/AlexProgrammerDE/events{/privacy}",
                "followers_url": "https://api.github.com/users/AlexProgrammerDE/followers",
                "following_url": "https://api.github.com/users/AlexProgrammerDE/following{/other_user}",
                "gists_url": "https://api.github.com/users/AlexProgrammerDE/gists{/gist_id}",
                "gravatar_id": "",
                "html_url": "https://github.com/AlexProgrammerDE",
                "id": 40795980,
                "login": "AlexProgrammerDE",
                "node_id": "MDQ6VXNlcjQwNzk1OTgw",
                "organizations_url": "https://api.github.com/users/AlexProgrammerDE/orgs",
                "received_events_url": "https://api.github.com/users/AlexProgrammerDE/received_events",
                "repos_url": "https://api.github.com/users/AlexProgrammerDE/repos",
                "site_admin": false,
                "starred_url": "https://api.github.com/users/AlexProgrammerDE/starred{/owner}{/repo}",
                "subscriptions_url": "https://api.github.com/users/AlexProgrammerDE/subscriptions",
                "type": "User",
                "url": "https://api.github.com/users/AlexProgrammerDE",
                "user_view_type": "public"
            },
            "html_url": "https://github.com/PrismarineJS/minecraft-data-generator/commit/896b697d78e122c1fa42e58a861ef1eb26ed5bad",
            "node_id": "C_kwDOKq35cNoAKDg5NmI2OTdkNzhlMTIyYzFmYTQyZTU4YTg2MWVmMWViMjZlZDViYWQ",
            "parents": [
                {
                    "html_url": "https://github.com/PrismarineJS/minecraft-data-generator/commit/885f216caeede00e8d5fa348795d9d26da9384f0",
                    "sha": "885f216caeede00e8d5fa348795d9d26da9384f0",
                    "url": "https://api.github.com/repos/PrismarineJS/minecraft-data-generator/commits/885f216caeede00e8d5fa348795d9d26da9384f0"
                }
            ],
            "sha": "896b697d78e122c1fa42e58a861ef1eb26ed5bad",
            "url": "https://api.github.com/repos/PrismarineJS/minecraft-data-generator/commits/896b697d78e122c1fa42e58a861ef1eb26ed5bad"
        },
        {
            "author": {
                "avatar_url": "https://avatars.githubusercontent.com/u/40795980?v=4",
                "events_url": "https://api.github.com/users/AlexProgrammerDE/events{/privacy}",
                "followers_url": "https://api.github.com/users/AlexProgrammerDE/followers",
                "following_url": "https://api.github.com/users/AlexProgrammerDE/following{/other_user}",
                "gists_url": "https://api.github.com/users/AlexProgrammerDE/gists{/gist_id}",
                "gravatar_id": "",
                "html_url": "https://github.com/AlexProgrammerDE",
                "id": 40795980,
                "login": "AlexProgrammerDE",
                "node_id": "MDQ6VXNlcjQwNzk1OTgw",
                "organizations_url": "https://api.github.com/users/AlexProgrammerDE/orgs",
                "received_events_url": "https://api.github.com/users/AlexProgrammerDE/received_events",
                "repos_url": "https://api.github.com/users/AlexProgrammerDE/repos",
                "site_admin": false,
                "starred_url": "https://api.github.com/users/AlexProgrammerDE/starred{/owner}{/repo}",
                "subscriptions_url": "https://api.github.com/users/AlexProgrammerDE/subscriptions",
                "type": "User",
                "url": "https://api.github.com/users/AlexProgrammerDE",
                "user_view_type": "public"
            },
            "comments_url": "https://api.github.com/repos/PrismarineJS/minecraft-data-generator/commits/e56e74ffe477a787b13697919cd129c4ddfe310e/comments",
            "commit": {
                "author": {
                    "date": "2024-10-27T13:06:17Z",
                    "email": "40795980+AlexProgrammerDE@users.noreply.github.com",
                    "name": "AlexProgrammerDE"
                },
                "comment_count": 0,
                "committer": {
                    "date": "2024-10-27T13:06:17Z",
                    "email": "40795980+AlexProgrammerDE@users.noreply.github.com",
                    "name": "AlexProgrammerDE"
                },
                "message": "Disable 1.17 recipe generator",
                "tree": {
                    "sha": "de492a7a36dc5e6c01d2644ff7dbae878d8d8bf2",
                    "url": "https://api.github.com/repos/PrismarineJS/minecraft-data-generator/git/trees/de492a7a36dc5e6c01d2644ff7dbae878d8d8bf2"
                },
                "url": "https://api.github.com/repos/PrismarineJS/minecraft-data-generator/git/commits/e56e74ffe477a787b13697919cd129c4ddfe310e",
                "verification": {
                    "payload": null,
                    "reason": "unsigned",
                    "signature": null,
                    "verified": false
                }
            },
            "committer": {
                "avatar_url": "https://avatars.githubusercontent.com/u/40795980?v=4",
                "events_url": "https://api.github.com/users/AlexProgrammerDE/events{/privacy}",
                "followers_url": "https://api.github.com/users/AlexProgrammerDE/followers",
                "following_url": "https://api.github.com/users/AlexProgrammerDE/following{/other_user}",
                "gists_url": "https://api.github.com/users/AlexProgrammerDE/gists{/gist_id}",
                "gravatar_id": "",
                "html_url": "https://github.com/AlexProgrammerDE",
                "id": 40795980,
                "login": "AlexProgrammerDE",
                "node_id": "MDQ6VXNlcjQwNzk1OTgw",
                "organizations_url": "https://api.github.com/users/AlexProgrammerDE/orgs",
                "received_events_url": "https://api.github.com/users/AlexProgrammerDE/received_events",
                "repos_url": "https://api.github.com/users/AlexProgrammerDE/repos",
                "site_admin": false,
                "starred_url": "https://api.github.com/users/AlexProgrammerDE/starred{/owner}{/repo}",
                "subscriptions_url": "https://api.github.com/users/AlexProgrammerDE/subscriptions",
                "type": "User",
                "url": "https://api.github.com/users/AlexProgrammerDE",
                "user_view_type": "public"
            },
            "html_url": "https://github.com/PrismarineJS/minecraft-data-generator/commit/e56e74ffe477a787b13697919cd129c4ddfe310e",
            "node_id": "C_kwDOKq35cNoAKGU1NmU3NGZmZTQ3N2E3ODdiMTM2OTc5MTljZDEyOWM0ZGRmZTMxMGU",
            "parents": [
                {
                    "html_url": "https://github.com/PrismarineJS/minecraft-data-generator/commit/896b697d78e122c1fa42e58a861ef1eb26ed5bad",
                    "sha": "896b697d78e122c1fa42e58a861ef1eb26ed5bad",
                    "url": "https://api.github.com/repos/PrismarineJS/minecraft-data-generator/commits/896b697d78e122c1fa42e58a861ef1eb26ed5bad"
                }
            ],
            "sha": "e56e74ffe477a787b13697919cd129c4ddfe310e",
            "url": "https://api.github.com/repos/PrismarineJS/minecraft-data-generator/commits/e56e74ffe477a787b13697919cd129c4ddfe310e"
        }
    ],
    "commits": 9,
    "commits_url": "https://api.github.com/repos/PrismarineJS/minecraft-data-generator/pulls/30/commits",
    "created_at": "2024-10-27T11:01:08Z",
    "deletions": 143,
    "diff_url": "https://github.com/PrismarineJS/minecraft-data-generator/pull/30.diff",
    "draft": false,
    "head": {
        "label": "AlexProgrammerDE:fail-unit-tests",
        "ref": "fail-unit-tests",
        "repo": {
            "allow_forking": true,
            "archive_url": "https://api.github.com/repos/AlexProgrammerDE/minecraft-data-generator-server/{archive_format}{/ref}",
            "archived": false,
            "assignees_url": "https://api.github.com/repos/AlexProgrammerDE/minecraft-data-generator-server/assignees{/user}",
            "blobs_url": "https://api.github.com/repos/AlexProgrammerDE/minecraft-data-generator-server/git/blobs{/sha}",
            "branches_url": "https://api.github.com/repos/AlexProgrammerDE/minecraft-data-generator-server/branches{/branch}",
            "clone_url": "https://github.com/AlexProgrammerDE/minecraft-data-generator-server.git",
            "collaborators_url": "https://api.github.com/repos/AlexProgrammerDE/minecraft-data-generator-server/collaborators{/collaborator}",
            "comments_url": "https://api.github.com/repos/AlexProgrammerDE/minecraft-data-generator-server/comments{/number}",
            "commits_url": "https://api.github.com/repos/AlexProgrammerDE/minecraft-data-generator-server/commits{/sha}",
            "compare_url": "https://api.github.com/repos/AlexProgrammerDE/minecraft-data-generator-server/compare/{base}...{head}",
            "contents_url": "https://api.github.com/repos/AlexProgrammerDE/minecraft-data-generator-server/contents/{+path}",
            "contributors_url": "https://api.github.com/repos/AlexProgrammerDE/minecraft-data-generator-server/contributors",
            "created_at": "2023-11-08T11:05:39Z",
            "default_branch": "main",
            "deployments_url": "https://api.github.com/repos/AlexProgrammerDE/minecraft-data-generator-server/deployments",
            "description": null,
            "disabled": false,
            "downloads_url": "https://api.github.com/repos/AlexProgrammerDE/minecraft-data-generator-server/downloads",
            "events_url": "https://api.github.com/repos/AlexProgrammerDE/minecraft-data-generator-server/events",
            "fork": true,
            "forks": 0,
            "forks_count": 0,
            "forks_url": "https://api.github.com/repos/AlexProgrammerDE/minecraft-data-generator-server/forks",
            "full_name": "AlexProgrammerDE/minecraft-data-generator-server",
            "git_commits_url": "https://api.github.com/repos/AlexProgrammerDE/minecraft-data-generator-server/git/commits{/sha}",
            "git_refs_url": "https://api.github.com/repos/AlexProgrammerDE/minecraft-data-generator-server/git/refs{/sha}",
            "git_tags_url": "https://api.github.com/repos/AlexProgrammerDE/minecraft-data-generator-server/git/tags{/sha}",
            "git_url": "git://github.com/AlexProgrammerDE/minecraft-data-generator-server.git",
            "has_discussions": false,
            "has_downloads": true,
            "has_issues": false,
            "has_pages": false,
            "has_projects": true,
            "has_wiki": true,
            "homepage": null,
            "hooks_url": "https://api.github.com/repos/AlexProgrammerDE/minecraft-data-generator-server/hooks",
            "html_url": "https://github.com/AlexProgrammerDE/minecraft-data-generator-server",
            "id": 716044656,
            "is_template": false,
            "issue_comment_url": "https://api.github.com/repos/AlexProgrammerDE/minecraft-data-generator-server/issues/comments{/number}",
            "issue_events_url": "https://api.github.com/repos/AlexProgrammerDE/minecraft-data-generator-server/issues/events{/number}",
            "issues_url": "https://api.github.com/repos/AlexProgrammerDE/minecraft-data-generator-server/issues{/number}",
            "keys_url": "https://api.github.com/repos/AlexProgrammerDE/minecraft-data-generator-server/keys{/key_id}",
            "labels_url": "https://api.github.com/repos/AlexProgrammerDE/minecraft-data-generator-server/labels{/name}",
            "language": "Java",
            "languages_url": "https://api.github.com/repos/AlexProgrammerDE/minecraft-data-generator-server/languages",
            "license": {
                "key": "mit",
                "name": "MIT License",
                "node_id": "MDc6TGljZW5zZTEz",
                "spdx_id": "MIT",
                "url": "https://api.github.com/licenses/mit"
            },
            "merges_url": "https://api.github.com/repos/AlexProgrammerDE/minecraft-data-generator-server/merges",
            "milestones_url": "https://api.github.com/repos/AlexProgrammerDE/minecraft-data-generator-server/milestones{/number}",
            "mirror_url": null,
            "name": "minecraft-data-generator-server",
            "node_id": "R_kgDOKq35cA",
            "notifications_url": "https://api.github.com/repos/AlexProgrammerDE/minecraft-data-generator-server/notifications{?since,all,participating}",
            "open_issues": 0,
            "open_issues_count": 0,
            "owner": {
                "avatar_url": "https://avatars.githubusercontent.com/u/40795980?v=4",
                "events_url": "https://api.github.com/users/AlexProgrammerDE/events{/privacy}",
                "followers_url": "https://api.github.com/users/AlexProgrammerDE/followers",
                "following_url": "https://api.github.com/users/AlexProgrammerDE/following{/other_user}",
                "gists_url": "https://api.github.com/users/AlexProgrammerDE/gists{/gist_id}",
                "gravatar_id": "",
                "html_url": "https://github.com/AlexProgrammerDE",
                "id": 40795980,
                "login": "AlexProgrammerDE",
                "node_id": "MDQ6VXNlcjQwNzk1OTgw",
                "organizations_url": "https://api.github.com/users/AlexProgrammerDE/orgs",
                "received_events_url": "https://api.github.com/users/AlexProgrammerDE/received_events",
                "repos_url": "https://api.github.com/users/AlexProgrammerDE/repos",
                "site_admin": false,
                "starred_url": "https://api.github.com/users/AlexProgrammerDE/starred{/owner}{/repo}",
                "subscriptions_url": "https://api.github.com/users/AlexProgrammerDE/subscriptions",
                "type": "User",
                "url": "https://api.github.com/users/AlexProgrammerDE",
                "user_view_type": "public"
            },
            "private": false,
            "pulls_url": "https://api.github.com/repos/AlexProgrammerDE/minecraft-data-generator-server/pulls{/number}",
            "pushed_at": "2024-10-27T13:06:21Z",
            "releases_url": "https://api.github.com/repos/AlexProgrammerDE/minecraft-data-generator-server/releases{/id}",
            "size": 909,
            "ssh_url": "git@github.com:AlexProgrammerDE/minecraft-data-generator-server.git",
            "stargazers_count": 0,
            "stargazers_url": "https://api.github.com/repos/AlexProgrammerDE/minecraft-data-generator-server/stargazers",
            "statuses_url": "https://api.github.com/repos/AlexProgrammerDE/minecraft-data-generator-server/statuses/{sha}",
            "subscribers_url": "https://api.github.com/repos/AlexProgrammerDE/minecraft-data-generator-server/subscribers",
            "subscription_url": "https://api.github.com/repos/AlexProgrammerDE/minecraft-data-generator-server/subscription",
            "svn_url": "https://github.com/AlexProgrammerDE/minecraft-data-generator-server",
            "tags_url": "https://api.github.com/repos/AlexProgrammerDE/minecraft-data-generator-server/tags",
            "teams_url": "https://api.github.com/repos/AlexProgrammerDE/minecraft-data-generator-server/teams",
            "topics": [],
            "trees_url": "https://api.github.com/repos/AlexProgrammerDE/minecraft-data-generator-server/git/trees{/sha}",
            "updated_at": "2023-11-08T11:47:22Z",
            "url": "https://api.github.com/repos/AlexProgrammerDE/minecraft-data-generator-server",
            "visibility": "public",
            "watchers": 0,
            "watchers_count": 0,
            "web_commit_signoff_required": false
        },
        "sha": "e56e74ffe477a787b13697919cd129c4ddfe310e",
        "user": {
            "avatar_url": "https://avatars.githubusercontent.com/u/40795980?v=4",
            "events_url": "https://api.github.com/users/AlexProgrammerDE/events{/privacy}",
            "followers_url": "https://api.github.com/users/AlexProgrammerDE/followers",
            "following_url": "https://api.github.com/users/AlexProgrammerDE/following{/other_user}",
            "gists_url": "https://api.github.com/users/AlexProgrammerDE/gists{/gist_id}",
            "gravatar_id": "",
            "html_url": "https://github.com/AlexProgrammerDE",
            "id": 40795980,
            "login": "AlexProgrammerDE",
            "node_id": "MDQ6VXNlcjQwNzk1OTgw",
            "organizations_url": "https://api.github.com/users/AlexProgrammerDE/orgs",
            "received_events_url": "https://api.github.com/users/AlexProgrammerDE/received_events",
            "repos_url": "https://api.github.com/users/AlexProgrammerDE/repos",
            "site_admin": false,
            "starred_url": "https://api.github.com/users/AlexProgrammerDE/starred{/owner}{/repo}",
            "subscriptions_url": "https://api.github.com/users/AlexProgrammerDE/subscriptions",
            "type": "User",
            "url": "https://api.github.com/users/AlexProgrammerDE",
            "user_view_type": "public"
        }
    },
    "html_url": "https://github.com/PrismarineJS/minecraft-data-generator/pull/30",
    "id": 2147664728,
    "issue_url": "https://api.github.com/repos/PrismarineJS/minecraft-data-generator/issues/30",
    "labels": [],
    "locked": false,
    "maintainer_can_modify": false,
    "merge_commit_sha": "b8e0215b2af6b6b777ff4f48ff834ea250399d07",
    "mergeable": null,
    "mergeable_state": "unknown",
    "merged": true,
    "merged_at": "2024-10-27T14:07:25Z",
    "merged_by": {
        "avatar_url": "https://avatars.githubusercontent.com/u/2346494?v=4",
        "events_url": "https://api.github.com/users/rom1504/events{/privacy}",
        "followers_url": "https://api.github.com/users/rom1504/followers",
        "following_url": "https://api.github.com/users/rom1504/following{/other_user}",
        "gists_url": "https://api.github.com/users/rom1504/gists{/gist_id}",
        "gravatar_id": "",
        "html_url": "https://github.com/rom1504",
        "id": 2346494,
        "login": "rom1504",
        "node_id": "MDQ6VXNlcjIzNDY0OTQ=",
        "organizations_url": "https://api.github.com/users/rom1504/orgs",
        "received_events_url": "https://api.github.com/users/rom1504/received_events",
        "repos_url": "https://api.github.com/users/rom1504/repos",
        "site_admin": false,
        "starred_url": "https://api.github.com/users/rom1504/starred{/owner}{/repo}",
        "subscriptions_url": "https://api.github.com/users/rom1504/subscriptions",
        "type": "User",
        "url": "https://api.github.com/users/rom1504",
        "user_view_type": "public"
    },
    "milestone": null,
    "node_id": "PR_kwDOHSc7cc6AAsNY",
    "number": 30,
    "patch_url": "https://github.com/PrismarineJS/minecraft-data-generator/pull/30.patch",
    "rebaseable": null,
    "requested_reviewers": [],
    "requested_teams": [],
    "review_comment_url": "https://api.github.com/repos/PrismarineJS/minecraft-data-generator/pulls/comments{/number}",
    "review_comments": 0,
    "review_comments_url": "https://api.github.com/repos/PrismarineJS/minecraft-data-generator/pulls/30/comments",
    "state": "closed",
    "statuses_url": "https://api.github.com/repos/PrismarineJS/minecraft-data-generator/statuses/e56e74ffe477a787b13697919cd129c4ddfe310e",
    "title": "Actually fail CI if generation fails",
    "updated_at": "2024-10-27T14:07:32Z",
    "url": "https://api.github.com/repos/PrismarineJS/minecraft-data-generator/pulls/30",
    "user": {
        "avatar_url": "https://avatars.githubusercontent.com/u/40795980?v=4",
        "events_url": "https://api.github.com/users/AlexProgrammerDE/events{/privacy}",
        "followers_url": "https://api.github.com/users/AlexProgrammerDE/followers",
        "following_url": "https://api.github.com/users/AlexProgrammerDE/following{/other_user}",
        "gists_url": "https://api.github.com/users/AlexProgrammerDE/gists{/gist_id}",
        "gravatar_id": "",
        "html_url": "https://github.com/AlexProgrammerDE",
        "id": 40795980,
        "login": "AlexProgrammerDE",
        "node_id": "MDQ6VXNlcjQwNzk1OTgw",
        "organizations_url": "https://api.github.com/users/AlexProgrammerDE/orgs",
        "received_events_url": "https://api.github.com/users/AlexProgrammerDE/received_events",
        "repos_url": "https://api.github.com/users/AlexProgrammerDE/repos",
        "site_admin": false,
        "starred_url": "https://api.github.com/users/AlexProgrammerDE/starred{/owner}{/repo}",
        "subscriptions_url": "https://api.github.com/users/AlexProgrammerDE/subscriptions",
        "type": "User",
        "url": "https://api.github.com/users/AlexProgrammerDE",
        "user_view_type": "public"
    }
}