{
    "active_lock_reason": null,
    "assignee": null,
    "assignees": [],
    "author_association": "NONE",
    "body": "Dependencies:\r\n```\r\nprismarine-auth@2.3.0\r\n      └─┬ @xboxreplay/xboxlive-auth@3.3.3\r\n        └── axios@0.21.4\r\n```\r\n\r\nAxios versions from 0.8.1 through 1.5.1 are affected by a moderate severity Cross-Site Request Forgery (CSRF) vulnerability, and the issue has been patched in version 1.6.0.\r\n\r\n\r\nI talked to Alexis B who have made Xboxreplay and he will try to update to a new 5.0.0 version asap",
    "closed_at": null,
    "comment_data": [
        {
            "author_association": "MEMBER",
            "body": "2 notes: CSRF is only a thing in browsers, and it's only a problem if loading data from arbitrary URLs. For example, user is logged into a website, then someone on a Github comment posts a link to that website, then someone clicks it and the website does some action automatically on their behalf because their auth data was cached. Referrer checks, CORS, special headers, etc can block that.\r\n\r\nSince prismarine-auth doesn't formally support the browser (due to CORS restrictions), and since the xboxlive auth dep shouldn't be loading dynamic websites, there is no security impact for prismarine-auth. However, just to note that dep is only used at all if password auth is used, not done by default. We may remove in the future, but updating to a new major version is breaking and would require code changes.",
            "created_at": "2023-12-09T03:10:30Z",
            "html_url": "https://github.com/PrismarineJS/prismarine-auth/issues/86#issuecomment-1848196594",
            "id": 1848196594,
            "issue_url": "https://api.github.com/repos/PrismarineJS/prismarine-auth/issues/86",
            "node_id": "IC_kwDOFq9oF85uKT3y",
            "performed_via_github_app": null,
            "reactions": {
                "+1": 0,
                "-1": 0,
                "confused": 0,
                "eyes": 0,
                "heart": 0,
                "hooray": 0,
                "laugh": 0,
                "rocket": 0,
                "total_count": 0,
                "url": "https://api.github.com/repos/PrismarineJS/prismarine-auth/issues/comments/1848196594/reactions"
            },
            "updated_at": "2023-12-09T03:10:30Z",
            "url": "https://api.github.com/repos/PrismarineJS/prismarine-auth/issues/comments/1848196594",
            "user": {
                "avatar_url": "https://avatars.githubusercontent.com/u/13713600?v=4",
                "events_url": "https://api.github.com/users/extremeheat/events{/privacy}",
                "followers_url": "https://api.github.com/users/extremeheat/followers",
                "following_url": "https://api.github.com/users/extremeheat/following{/other_user}",
                "gists_url": "https://api.github.com/users/extremeheat/gists{/gist_id}",
                "gravatar_id": "",
                "html_url": "https://github.com/extremeheat",
                "id": 13713600,
                "login": "extremeheat",
                "node_id": "MDQ6VXNlcjEzNzEzNjAw",
                "organizations_url": "https://api.github.com/users/extremeheat/orgs",
                "received_events_url": "https://api.github.com/users/extremeheat/received_events",
                "repos_url": "https://api.github.com/users/extremeheat/repos",
                "site_admin": false,
                "starred_url": "https://api.github.com/users/extremeheat/starred{/owner}{/repo}",
                "subscriptions_url": "https://api.github.com/users/extremeheat/subscriptions",
                "type": "User",
                "url": "https://api.github.com/users/extremeheat"
            }
        }
    ],
    "comments": 1,
    "comments_url": "https://api.github.com/repos/PrismarineJS/prismarine-auth/issues/86/comments",
    "created_at": "2023-12-08T22:56:23Z",
    "event_data": [],
    "events_url": "https://api.github.com/repos/PrismarineJS/prismarine-auth/issues/86/events",
    "html_url": "https://github.com/PrismarineJS/prismarine-auth/issues/86",
    "id": 2033408138,
    "labels": [],
    "labels_url": "https://api.github.com/repos/PrismarineJS/prismarine-auth/issues/86/labels{/name}",
    "locked": false,
    "milestone": null,
    "node_id": "I_kwDOFq9oF855M1iK",
    "number": 86,
    "performed_via_github_app": null,
    "reactions": {
        "+1": 0,
        "-1": 0,
        "confused": 0,
        "eyes": 0,
        "heart": 0,
        "hooray": 0,
        "laugh": 0,
        "rocket": 0,
        "total_count": 0,
        "url": "https://api.github.com/repos/PrismarineJS/prismarine-auth/issues/86/reactions"
    },
    "repository_url": "https://api.github.com/repos/PrismarineJS/prismarine-auth",
    "state": "open",
    "state_reason": null,
    "timeline_url": "https://api.github.com/repos/PrismarineJS/prismarine-auth/issues/86/timeline",
    "title": "The dependency Axios has a security breach",
    "updated_at": "2023-12-09T03:10:31Z",
    "url": "https://api.github.com/repos/PrismarineJS/prismarine-auth/issues/86",
    "user": {
        "avatar_url": "https://avatars.githubusercontent.com/u/48380481?v=4",
        "events_url": "https://api.github.com/users/AwesomeCap/events{/privacy}",
        "followers_url": "https://api.github.com/users/AwesomeCap/followers",
        "following_url": "https://api.github.com/users/AwesomeCap/following{/other_user}",
        "gists_url": "https://api.github.com/users/AwesomeCap/gists{/gist_id}",
        "gravatar_id": "",
        "html_url": "https://github.com/AwesomeCap",
        "id": 48380481,
        "login": "AwesomeCap",
        "node_id": "MDQ6VXNlcjQ4MzgwNDgx",
        "organizations_url": "https://api.github.com/users/AwesomeCap/orgs",
        "received_events_url": "https://api.github.com/users/AwesomeCap/received_events",
        "repos_url": "https://api.github.com/users/AwesomeCap/repos",
        "site_admin": false,
        "starred_url": "https://api.github.com/users/AwesomeCap/starred{/owner}{/repo}",
        "subscriptions_url": "https://api.github.com/users/AwesomeCap/subscriptions",
        "type": "User",
        "url": "https://api.github.com/users/AwesomeCap"
    }
}