{
    "_links": {
        "comments": {
            "href": "https://api.github.com/repos/PrismarineJS/flying-squid/issues/258/comments"
        },
        "commits": {
            "href": "https://api.github.com/repos/PrismarineJS/flying-squid/pulls/258/commits"
        },
        "html": {
            "href": "https://github.com/PrismarineJS/flying-squid/pull/258"
        },
        "issue": {
            "href": "https://api.github.com/repos/PrismarineJS/flying-squid/issues/258"
        },
        "review_comment": {
            "href": "https://api.github.com/repos/PrismarineJS/flying-squid/pulls/comments{/number}"
        },
        "review_comments": {
            "href": "https://api.github.com/repos/PrismarineJS/flying-squid/pulls/258/comments"
        },
        "self": {
            "href": "https://api.github.com/repos/PrismarineJS/flying-squid/pulls/258"
        },
        "statuses": {
            "href": "https://api.github.com/repos/PrismarineJS/flying-squid/statuses/9d72795c24257294586a245026cb3e5d95011b3f"
        }
    },
    "active_lock_reason": null,
    "additions": 1,
    "assignee": null,
    "assignees": [],
    "author_association": "CONTRIBUTOR",
    "auto_merge": null,
    "base": {
        "label": "PrismarineJS:master",
        "ref": "master",
        "repo": {
            "allow_forking": true,
            "archive_url": "https://api.github.com/repos/PrismarineJS/flying-squid/{archive_format}{/ref}",
            "archived": false,
            "assignees_url": "https://api.github.com/repos/PrismarineJS/flying-squid/assignees{/user}",
            "blobs_url": "https://api.github.com/repos/PrismarineJS/flying-squid/git/blobs{/sha}",
            "branches_url": "https://api.github.com/repos/PrismarineJS/flying-squid/branches{/branch}",
            "clone_url": "https://github.com/PrismarineJS/flying-squid.git",
            "collaborators_url": "https://api.github.com/repos/PrismarineJS/flying-squid/collaborators{/collaborator}",
            "comments_url": "https://api.github.com/repos/PrismarineJS/flying-squid/comments{/number}",
            "commits_url": "https://api.github.com/repos/PrismarineJS/flying-squid/commits{/sha}",
            "compare_url": "https://api.github.com/repos/PrismarineJS/flying-squid/compare/{base}...{head}",
            "contents_url": "https://api.github.com/repos/PrismarineJS/flying-squid/contents/{+path}",
            "contributors_url": "https://api.github.com/repos/PrismarineJS/flying-squid/contributors",
            "created_at": "2015-08-25T23:30:19Z",
            "default_branch": "master",
            "deployments_url": "https://api.github.com/repos/PrismarineJS/flying-squid/deployments",
            "description": "Create Minecraft servers with a powerful, stable, and high level JavaScript API.",
            "disabled": false,
            "downloads_url": "https://api.github.com/repos/PrismarineJS/flying-squid/downloads",
            "events_url": "https://api.github.com/repos/PrismarineJS/flying-squid/events",
            "fork": false,
            "forks": 86,
            "forks_count": 86,
            "forks_url": "https://api.github.com/repos/PrismarineJS/flying-squid/forks",
            "full_name": "PrismarineJS/flying-squid",
            "git_commits_url": "https://api.github.com/repos/PrismarineJS/flying-squid/git/commits{/sha}",
            "git_refs_url": "https://api.github.com/repos/PrismarineJS/flying-squid/git/refs{/sha}",
            "git_tags_url": "https://api.github.com/repos/PrismarineJS/flying-squid/git/tags{/sha}",
            "git_url": "git://github.com/PrismarineJS/flying-squid.git",
            "has_discussions": false,
            "has_downloads": true,
            "has_issues": true,
            "has_pages": true,
            "has_projects": true,
            "has_wiki": true,
            "homepage": "https://prismarinejs.github.io/flying-squid/",
            "hooks_url": "https://api.github.com/repos/PrismarineJS/flying-squid/hooks",
            "html_url": "https://github.com/PrismarineJS/flying-squid",
            "id": 41393164,
            "is_template": false,
            "issue_comment_url": "https://api.github.com/repos/PrismarineJS/flying-squid/issues/comments{/number}",
            "issue_events_url": "https://api.github.com/repos/PrismarineJS/flying-squid/issues/events{/number}",
            "issues_url": "https://api.github.com/repos/PrismarineJS/flying-squid/issues{/number}",
            "keys_url": "https://api.github.com/repos/PrismarineJS/flying-squid/keys{/key_id}",
            "labels_url": "https://api.github.com/repos/PrismarineJS/flying-squid/labels{/name}",
            "language": "JavaScript",
            "languages_url": "https://api.github.com/repos/PrismarineJS/flying-squid/languages",
            "license": {
                "key": "mit",
                "name": "MIT License",
                "node_id": "MDc6TGljZW5zZTEz",
                "spdx_id": "MIT",
                "url": "https://api.github.com/licenses/mit"
            },
            "merges_url": "https://api.github.com/repos/PrismarineJS/flying-squid/merges",
            "milestones_url": "https://api.github.com/repos/PrismarineJS/flying-squid/milestones{/number}",
            "mirror_url": null,
            "name": "flying-squid",
            "node_id": "MDEwOlJlcG9zaXRvcnk0MTM5MzE2NA==",
            "notifications_url": "https://api.github.com/repos/PrismarineJS/flying-squid/notifications{?since,all,participating}",
            "open_issues": 105,
            "open_issues_count": 105,
            "owner": {
                "avatar_url": "https://avatars.githubusercontent.com/u/11053411?v=4",
                "events_url": "https://api.github.com/users/PrismarineJS/events{/privacy}",
                "followers_url": "https://api.github.com/users/PrismarineJS/followers",
                "following_url": "https://api.github.com/users/PrismarineJS/following{/other_user}",
                "gists_url": "https://api.github.com/users/PrismarineJS/gists{/gist_id}",
                "gravatar_id": "",
                "html_url": "https://github.com/PrismarineJS",
                "id": 11053411,
                "login": "PrismarineJS",
                "node_id": "MDEyOk9yZ2FuaXphdGlvbjExMDUzNDEx",
                "organizations_url": "https://api.github.com/users/PrismarineJS/orgs",
                "received_events_url": "https://api.github.com/users/PrismarineJS/received_events",
                "repos_url": "https://api.github.com/users/PrismarineJS/repos",
                "site_admin": false,
                "starred_url": "https://api.github.com/users/PrismarineJS/starred{/owner}{/repo}",
                "subscriptions_url": "https://api.github.com/users/PrismarineJS/subscriptions",
                "type": "Organization",
                "url": "https://api.github.com/users/PrismarineJS"
            },
            "private": false,
            "pulls_url": "https://api.github.com/repos/PrismarineJS/flying-squid/pulls{/number}",
            "pushed_at": "2023-04-25T07:58:15Z",
            "releases_url": "https://api.github.com/repos/PrismarineJS/flying-squid/releases{/id}",
            "size": 1044,
            "ssh_url": "git@github.com:PrismarineJS/flying-squid.git",
            "stargazers_count": 471,
            "stargazers_url": "https://api.github.com/repos/PrismarineJS/flying-squid/stargazers",
            "statuses_url": "https://api.github.com/repos/PrismarineJS/flying-squid/statuses/{sha}",
            "subscribers_url": "https://api.github.com/repos/PrismarineJS/flying-squid/subscribers",
            "subscription_url": "https://api.github.com/repos/PrismarineJS/flying-squid/subscription",
            "svn_url": "https://github.com/PrismarineJS/flying-squid",
            "tags_url": "https://api.github.com/repos/PrismarineJS/flying-squid/tags",
            "teams_url": "https://api.github.com/repos/PrismarineJS/flying-squid/teams",
            "topics": [
                "game",
                "minecraft",
                "minecraft-server",
                "protocol",
                "server",
                "voxel"
            ],
            "trees_url": "https://api.github.com/repos/PrismarineJS/flying-squid/git/trees{/sha}",
            "updated_at": "2023-04-20T15:15:59Z",
            "url": "https://api.github.com/repos/PrismarineJS/flying-squid",
            "visibility": "public",
            "watchers": 471,
            "watchers_count": 471,
            "web_commit_signoff_required": false
        },
        "sha": "1bf9242cd1636ebdace9dc26c4b592b58648f4aa",
        "user": {
            "avatar_url": "https://avatars.githubusercontent.com/u/11053411?v=4",
            "events_url": "https://api.github.com/users/PrismarineJS/events{/privacy}",
            "followers_url": "https://api.github.com/users/PrismarineJS/followers",
            "following_url": "https://api.github.com/users/PrismarineJS/following{/other_user}",
            "gists_url": "https://api.github.com/users/PrismarineJS/gists{/gist_id}",
            "gravatar_id": "",
            "html_url": "https://github.com/PrismarineJS",
            "id": 11053411,
            "login": "PrismarineJS",
            "node_id": "MDEyOk9yZ2FuaXphdGlvbjExMDUzNDEx",
            "organizations_url": "https://api.github.com/users/PrismarineJS/orgs",
            "received_events_url": "https://api.github.com/users/PrismarineJS/received_events",
            "repos_url": "https://api.github.com/users/PrismarineJS/repos",
            "site_admin": false,
            "starred_url": "https://api.github.com/users/PrismarineJS/starred{/owner}{/repo}",
            "subscriptions_url": "https://api.github.com/users/PrismarineJS/subscriptions",
            "type": "Organization",
            "url": "https://api.github.com/users/PrismarineJS"
        }
    },
    "body": "Hello lovely humans,\n\n[request-promise](https://www.npmjs.com/package/request-promise) just published its new version 4.0.0.\n\n<table>\n  <tr>\n    <th align=left>\n      State\n    </th>\n    <td>\n      Update :rocket:\n    </td>\n  </tr>\n  <tr>\n    <th align=left>\n      Dependency\n    </td>\n    <td>\n      request-promise\n    </td>\n  </tr>\n  <tr>\n    <th align=left>\n      New version\n    </td>\n    <td>\n      4.0.0\n    </td>\n  </tr>\n  <tr>\n    <th align=left>\n      Type\n    </td>\n    <td>\n      dependency\n    </td>\n  </tr>\n</table>\n\n\nThis version is **not covered** by your **current version range**.\n\nWithout accepting this pull request your project will work just like it did before. There might be a bunch of new features, fixes and perf improvements that the maintainers worked on for you though.\n\nI recommend you look into these changes and try to get onto the latest version of request-promise.\nGiven that you have a decent test suite, a passing build is a strong indicator that you can take advantage of these changes by merging the proposed change into your project. Otherwise this branch is a great starting point for you to work on the update.\n\nDo you have any ideas how I could improve these pull requests? Did I report anything you think isn’t right?\nAre you unsure about how things are supposed to work?\n\nThere is a collection of [frequently asked questions](https://greenkeeper.io/faq.html) and while I’m just a bot, there is a group of people who are happy to teach me new things. [Let them know](https://github.com/greenkeeperio/greenkeeper/issues/new).\n\nGood luck with your project :sparkles:\n\nYou rock!\n\n:palm_tree:\n\n---\n\nThe new version differs by 17 commits .\n- [`9b533b0`](https://github.com/request/request-promise/commit/9b533b04ca8b846e9909e3945c8ab4e033276ac3) <code>Version 4.0.0</code>\n- [`796b317`](https://github.com/request/request-promise/commit/796b3172f04e992ce77f6ee9cfada3a41eea2900) <code>docs: updated for v4 release</code>\n- [`6833954`](https://github.com/request/request-promise/commit/6833954071ec86e3a9b75cd2d1f7559f1e728a27) <code>chore: updated promise-core</code>\n- [`8aa5d1a`](https://github.com/request/request-promise/commit/8aa5d1af1f99b74ecaae44dba91427fec062aee3) <code>docs: updated instructions for running request tests</code>\n- [`e791f17`](https://github.com/request/request-promise/commit/e791f17421c52a7f8028749665b5830ab29cdd57) <code>feat: better error message for missing peer dependency</code>\n- [`8c42fda`](https://github.com/request/request-promise/commit/8c42fda58cefb43ca3fe526a8c856ba8930bbf25) <code>feat: inform about dropped CLS support</code>\n- [`82ed81d`](https://github.com/request/request-promise/commit/82ed81d3cb778939746f74409dc07f69087929eb) <code>docs: added change for the upcoming v4 release</code>\n- [`510e272`](https://github.com/request/request-promise/commit/510e272d0c4b54b862e84718fb15b79d7a30b0cb) <code>docs: listed changes for the upcoming v4 release</code>\n- [`b963290`](https://github.com/request/request-promise/commit/b96329079a96beaf6b11726a72b5cbb763de17b5) <code>docs: grammar</code>\n- [`1cc3202`](https://github.com/request/request-promise/commit/1cc320230335ab1dfd2e738e86ce223b467b26c9) <code>feat: full reimplementation using (at)request/promise-core</code>\n- [`56a6fa1`](https://github.com/request/request-promise/commit/56a6fa1c52f3089747998c1739333fe847d658c1) <code>Merge pull request #118 from jmm/api-opt-defaults</code>\n- [`2b1c11b`](https://github.com/request/request-promise/commit/2b1c11b2e0f959f9888e87a6cc54179f860b01fb) <code>Add default opt values to API docs</code>\n- [`061a6ae`](https://github.com/request/request-promise/commit/061a6aee23116f585ba51c6956cab34fbdb52a04) <code>chore: node v6 support</code>\n- [`364ec40`](https://github.com/request/request-promise/commit/364ec4034188829e7f89225d378c884f77d9cf9a) <code>chore: improved formatting</code>\n- [`7a5522f`](https://github.com/request/request-promise/commit/7a5522fe4f6882d0c7c5f3fc6b1dca3a420c7671) <code>fix: typo</code>\n\nThere are 17 commits in total. See the [full diff](https://github.com/request/request-promise/compare/2854e0461b179140f7d348e27ed227d32badfecb...9b533b04ca8b846e9909e3945c8ab4e033276ac3).\n\n---\n\nThis pull request was created by [greenkeeper.io](https://greenkeeper.io/).\n\n<sub>Tired of seeing this sponsor message? :zap: `greenkeeper upgrade`</sub>\n",
    "changed_files": 1,
    "closed_at": "2016-08-01T09:29:02Z",
    "comment_data": [],
    "comment_regular_data": [],
    "comments": 0,
    "comments_url": "https://api.github.com/repos/PrismarineJS/flying-squid/issues/258/comments",
    "commit_data": [
        {
            "author": {
                "avatar_url": "https://avatars.githubusercontent.com/u/14790466?v=4",
                "events_url": "https://api.github.com/users/greenkeeperio-bot/events{/privacy}",
                "followers_url": "https://api.github.com/users/greenkeeperio-bot/followers",
                "following_url": "https://api.github.com/users/greenkeeperio-bot/following{/other_user}",
                "gists_url": "https://api.github.com/users/greenkeeperio-bot/gists{/gist_id}",
                "gravatar_id": "",
                "html_url": "https://github.com/greenkeeperio-bot",
                "id": 14790466,
                "login": "greenkeeperio-bot",
                "node_id": "MDQ6VXNlcjE0NzkwNDY2",
                "organizations_url": "https://api.github.com/users/greenkeeperio-bot/orgs",
                "received_events_url": "https://api.github.com/users/greenkeeperio-bot/received_events",
                "repos_url": "https://api.github.com/users/greenkeeperio-bot/repos",
                "site_admin": false,
                "starred_url": "https://api.github.com/users/greenkeeperio-bot/starred{/owner}{/repo}",
                "subscriptions_url": "https://api.github.com/users/greenkeeperio-bot/subscriptions",
                "type": "User",
                "url": "https://api.github.com/users/greenkeeperio-bot"
            },
            "comments_url": "https://api.github.com/repos/PrismarineJS/flying-squid/commits/9d72795c24257294586a245026cb3e5d95011b3f/comments",
            "commit": {
                "author": {
                    "date": "2016-07-16T00:37:25Z",
                    "email": "support@greenkeeper.io",
                    "name": "greenkeeperio-bot"
                },
                "comment_count": 0,
                "committer": {
                    "date": "2016-07-16T00:37:25Z",
                    "email": "support@greenkeeper.io",
                    "name": "greenkeeperio-bot"
                },
                "message": "chore(package): update request-promise to version 4.0.0\n\nhttps://greenkeeper.io/",
                "tree": {
                    "sha": "22fde864aeac3c3762b9e5461b8b20768242922e",
                    "url": "https://api.github.com/repos/PrismarineJS/flying-squid/git/trees/22fde864aeac3c3762b9e5461b8b20768242922e"
                },
                "url": "https://api.github.com/repos/PrismarineJS/flying-squid/git/commits/9d72795c24257294586a245026cb3e5d95011b3f",
                "verification": {
                    "payload": null,
                    "reason": "unsigned",
                    "signature": null,
                    "verified": false
                }
            },
            "committer": {
                "avatar_url": "https://avatars.githubusercontent.com/u/14790466?v=4",
                "events_url": "https://api.github.com/users/greenkeeperio-bot/events{/privacy}",
                "followers_url": "https://api.github.com/users/greenkeeperio-bot/followers",
                "following_url": "https://api.github.com/users/greenkeeperio-bot/following{/other_user}",
                "gists_url": "https://api.github.com/users/greenkeeperio-bot/gists{/gist_id}",
                "gravatar_id": "",
                "html_url": "https://github.com/greenkeeperio-bot",
                "id": 14790466,
                "login": "greenkeeperio-bot",
                "node_id": "MDQ6VXNlcjE0NzkwNDY2",
                "organizations_url": "https://api.github.com/users/greenkeeperio-bot/orgs",
                "received_events_url": "https://api.github.com/users/greenkeeperio-bot/received_events",
                "repos_url": "https://api.github.com/users/greenkeeperio-bot/repos",
                "site_admin": false,
                "starred_url": "https://api.github.com/users/greenkeeperio-bot/starred{/owner}{/repo}",
                "subscriptions_url": "https://api.github.com/users/greenkeeperio-bot/subscriptions",
                "type": "User",
                "url": "https://api.github.com/users/greenkeeperio-bot"
            },
            "html_url": "https://github.com/PrismarineJS/flying-squid/commit/9d72795c24257294586a245026cb3e5d95011b3f",
            "node_id": "MDY6Q29tbWl0NDEzOTMxNjQ6OWQ3Mjc5NWMyNDI1NzI5NDU4NmEyNDUwMjZjYjNlNWQ5NTAxMWIzZg==",
            "parents": [
                {
                    "html_url": "https://github.com/PrismarineJS/flying-squid/commit/1bf9242cd1636ebdace9dc26c4b592b58648f4aa",
                    "sha": "1bf9242cd1636ebdace9dc26c4b592b58648f4aa",
                    "url": "https://api.github.com/repos/PrismarineJS/flying-squid/commits/1bf9242cd1636ebdace9dc26c4b592b58648f4aa"
                }
            ],
            "sha": "9d72795c24257294586a245026cb3e5d95011b3f",
            "url": "https://api.github.com/repos/PrismarineJS/flying-squid/commits/9d72795c24257294586a245026cb3e5d95011b3f"
        }
    ],
    "commits": 1,
    "commits_url": "https://api.github.com/repos/PrismarineJS/flying-squid/pulls/258/commits",
    "created_at": "2016-07-16T00:37:31Z",
    "deletions": 1,
    "diff_url": "https://github.com/PrismarineJS/flying-squid/pull/258.diff",
    "draft": false,
    "head": {
        "label": "PrismarineJS:greenkeeper-request-promise-4.0.0",
        "ref": "greenkeeper-request-promise-4.0.0",
        "repo": {
            "allow_forking": true,
            "archive_url": "https://api.github.com/repos/PrismarineJS/flying-squid/{archive_format}{/ref}",
            "archived": false,
            "assignees_url": "https://api.github.com/repos/PrismarineJS/flying-squid/assignees{/user}",
            "blobs_url": "https://api.github.com/repos/PrismarineJS/flying-squid/git/blobs{/sha}",
            "branches_url": "https://api.github.com/repos/PrismarineJS/flying-squid/branches{/branch}",
            "clone_url": "https://github.com/PrismarineJS/flying-squid.git",
            "collaborators_url": "https://api.github.com/repos/PrismarineJS/flying-squid/collaborators{/collaborator}",
            "comments_url": "https://api.github.com/repos/PrismarineJS/flying-squid/comments{/number}",
            "commits_url": "https://api.github.com/repos/PrismarineJS/flying-squid/commits{/sha}",
            "compare_url": "https://api.github.com/repos/PrismarineJS/flying-squid/compare/{base}...{head}",
            "contents_url": "https://api.github.com/repos/PrismarineJS/flying-squid/contents/{+path}",
            "contributors_url": "https://api.github.com/repos/PrismarineJS/flying-squid/contributors",
            "created_at": "2015-08-25T23:30:19Z",
            "default_branch": "master",
            "deployments_url": "https://api.github.com/repos/PrismarineJS/flying-squid/deployments",
            "description": "Create Minecraft servers with a powerful, stable, and high level JavaScript API.",
            "disabled": false,
            "downloads_url": "https://api.github.com/repos/PrismarineJS/flying-squid/downloads",
            "events_url": "https://api.github.com/repos/PrismarineJS/flying-squid/events",
            "fork": false,
            "forks": 86,
            "forks_count": 86,
            "forks_url": "https://api.github.com/repos/PrismarineJS/flying-squid/forks",
            "full_name": "PrismarineJS/flying-squid",
            "git_commits_url": "https://api.github.com/repos/PrismarineJS/flying-squid/git/commits{/sha}",
            "git_refs_url": "https://api.github.com/repos/PrismarineJS/flying-squid/git/refs{/sha}",
            "git_tags_url": "https://api.github.com/repos/PrismarineJS/flying-squid/git/tags{/sha}",
            "git_url": "git://github.com/PrismarineJS/flying-squid.git",
            "has_discussions": false,
            "has_downloads": true,
            "has_issues": true,
            "has_pages": true,
            "has_projects": true,
            "has_wiki": true,
            "homepage": "https://prismarinejs.github.io/flying-squid/",
            "hooks_url": "https://api.github.com/repos/PrismarineJS/flying-squid/hooks",
            "html_url": "https://github.com/PrismarineJS/flying-squid",
            "id": 41393164,
            "is_template": false,
            "issue_comment_url": "https://api.github.com/repos/PrismarineJS/flying-squid/issues/comments{/number}",
            "issue_events_url": "https://api.github.com/repos/PrismarineJS/flying-squid/issues/events{/number}",
            "issues_url": "https://api.github.com/repos/PrismarineJS/flying-squid/issues{/number}",
            "keys_url": "https://api.github.com/repos/PrismarineJS/flying-squid/keys{/key_id}",
            "labels_url": "https://api.github.com/repos/PrismarineJS/flying-squid/labels{/name}",
            "language": "JavaScript",
            "languages_url": "https://api.github.com/repos/PrismarineJS/flying-squid/languages",
            "license": {
                "key": "mit",
                "name": "MIT License",
                "node_id": "MDc6TGljZW5zZTEz",
                "spdx_id": "MIT",
                "url": "https://api.github.com/licenses/mit"
            },
            "merges_url": "https://api.github.com/repos/PrismarineJS/flying-squid/merges",
            "milestones_url": "https://api.github.com/repos/PrismarineJS/flying-squid/milestones{/number}",
            "mirror_url": null,
            "name": "flying-squid",
            "node_id": "MDEwOlJlcG9zaXRvcnk0MTM5MzE2NA==",
            "notifications_url": "https://api.github.com/repos/PrismarineJS/flying-squid/notifications{?since,all,participating}",
            "open_issues": 105,
            "open_issues_count": 105,
            "owner": {
                "avatar_url": "https://avatars.githubusercontent.com/u/11053411?v=4",
                "events_url": "https://api.github.com/users/PrismarineJS/events{/privacy}",
                "followers_url": "https://api.github.com/users/PrismarineJS/followers",
                "following_url": "https://api.github.com/users/PrismarineJS/following{/other_user}",
                "gists_url": "https://api.github.com/users/PrismarineJS/gists{/gist_id}",
                "gravatar_id": "",
                "html_url": "https://github.com/PrismarineJS",
                "id": 11053411,
                "login": "PrismarineJS",
                "node_id": "MDEyOk9yZ2FuaXphdGlvbjExMDUzNDEx",
                "organizations_url": "https://api.github.com/users/PrismarineJS/orgs",
                "received_events_url": "https://api.github.com/users/PrismarineJS/received_events",
                "repos_url": "https://api.github.com/users/PrismarineJS/repos",
                "site_admin": false,
                "starred_url": "https://api.github.com/users/PrismarineJS/starred{/owner}{/repo}",
                "subscriptions_url": "https://api.github.com/users/PrismarineJS/subscriptions",
                "type": "Organization",
                "url": "https://api.github.com/users/PrismarineJS"
            },
            "private": false,
            "pulls_url": "https://api.github.com/repos/PrismarineJS/flying-squid/pulls{/number}",
            "pushed_at": "2023-04-25T07:58:15Z",
            "releases_url": "https://api.github.com/repos/PrismarineJS/flying-squid/releases{/id}",
            "size": 1044,
            "ssh_url": "git@github.com:PrismarineJS/flying-squid.git",
            "stargazers_count": 471,
            "stargazers_url": "https://api.github.com/repos/PrismarineJS/flying-squid/stargazers",
            "statuses_url": "https://api.github.com/repos/PrismarineJS/flying-squid/statuses/{sha}",
            "subscribers_url": "https://api.github.com/repos/PrismarineJS/flying-squid/subscribers",
            "subscription_url": "https://api.github.com/repos/PrismarineJS/flying-squid/subscription",
            "svn_url": "https://github.com/PrismarineJS/flying-squid",
            "tags_url": "https://api.github.com/repos/PrismarineJS/flying-squid/tags",
            "teams_url": "https://api.github.com/repos/PrismarineJS/flying-squid/teams",
            "topics": [
                "game",
                "minecraft",
                "minecraft-server",
                "protocol",
                "server",
                "voxel"
            ],
            "trees_url": "https://api.github.com/repos/PrismarineJS/flying-squid/git/trees{/sha}",
            "updated_at": "2023-04-20T15:15:59Z",
            "url": "https://api.github.com/repos/PrismarineJS/flying-squid",
            "visibility": "public",
            "watchers": 471,
            "watchers_count": 471,
            "web_commit_signoff_required": false
        },
        "sha": "9d72795c24257294586a245026cb3e5d95011b3f",
        "user": {
            "avatar_url": "https://avatars.githubusercontent.com/u/11053411?v=4",
            "events_url": "https://api.github.com/users/PrismarineJS/events{/privacy}",
            "followers_url": "https://api.github.com/users/PrismarineJS/followers",
            "following_url": "https://api.github.com/users/PrismarineJS/following{/other_user}",
            "gists_url": "https://api.github.com/users/PrismarineJS/gists{/gist_id}",
            "gravatar_id": "",
            "html_url": "https://github.com/PrismarineJS",
            "id": 11053411,
            "login": "PrismarineJS",
            "node_id": "MDEyOk9yZ2FuaXphdGlvbjExMDUzNDEx",
            "organizations_url": "https://api.github.com/users/PrismarineJS/orgs",
            "received_events_url": "https://api.github.com/users/PrismarineJS/received_events",
            "repos_url": "https://api.github.com/users/PrismarineJS/repos",
            "site_admin": false,
            "starred_url": "https://api.github.com/users/PrismarineJS/starred{/owner}{/repo}",
            "subscriptions_url": "https://api.github.com/users/PrismarineJS/subscriptions",
            "type": "Organization",
            "url": "https://api.github.com/users/PrismarineJS"
        }
    },
    "html_url": "https://github.com/PrismarineJS/flying-squid/pull/258",
    "id": 77695126,
    "issue_url": "https://api.github.com/repos/PrismarineJS/flying-squid/issues/258",
    "labels": [
        {
            "color": "ededed",
            "default": false,
            "description": null,
            "id": 351380055,
            "name": "greenkeeper",
            "node_id": "MDU6TGFiZWwzNTEzODAwNTU=",
            "url": "https://api.github.com/repos/PrismarineJS/flying-squid/labels/greenkeeper"
        }
    ],
    "locked": false,
    "maintainer_can_modify": false,
    "merge_commit_sha": "6a66c6197b19671a5564ec76fc409aa7cd8698b2",
    "mergeable": false,
    "mergeable_state": "dirty",
    "merged": false,
    "merged_at": null,
    "merged_by": null,
    "milestone": null,
    "node_id": "MDExOlB1bGxSZXF1ZXN0Nzc2OTUxMjY=",
    "number": 258,
    "patch_url": "https://github.com/PrismarineJS/flying-squid/pull/258.patch",
    "rebaseable": false,
    "requested_reviewers": [],
    "requested_teams": [],
    "review_comment_url": "https://api.github.com/repos/PrismarineJS/flying-squid/pulls/comments{/number}",
    "review_comments": 0,
    "review_comments_url": "https://api.github.com/repos/PrismarineJS/flying-squid/pulls/258/comments",
    "state": "closed",
    "statuses_url": "https://api.github.com/repos/PrismarineJS/flying-squid/statuses/9d72795c24257294586a245026cb3e5d95011b3f",
    "title": "Update request-promise to version 4.0.0 🚀",
    "updated_at": "2016-08-01T09:29:02Z",
    "url": "https://api.github.com/repos/PrismarineJS/flying-squid/pulls/258",
    "user": {
        "avatar_url": "https://avatars.githubusercontent.com/u/14790466?v=4",
        "events_url": "https://api.github.com/users/greenkeeperio-bot/events{/privacy}",
        "followers_url": "https://api.github.com/users/greenkeeperio-bot/followers",
        "following_url": "https://api.github.com/users/greenkeeperio-bot/following{/other_user}",
        "gists_url": "https://api.github.com/users/greenkeeperio-bot/gists{/gist_id}",
        "gravatar_id": "",
        "html_url": "https://github.com/greenkeeperio-bot",
        "id": 14790466,
        "login": "greenkeeperio-bot",
        "node_id": "MDQ6VXNlcjE0NzkwNDY2",
        "organizations_url": "https://api.github.com/users/greenkeeperio-bot/orgs",
        "received_events_url": "https://api.github.com/users/greenkeeperio-bot/received_events",
        "repos_url": "https://api.github.com/users/greenkeeperio-bot/repos",
        "site_admin": false,
        "starred_url": "https://api.github.com/users/greenkeeperio-bot/starred{/owner}{/repo}",
        "subscriptions_url": "https://api.github.com/users/greenkeeperio-bot/subscriptions",
        "type": "User",
        "url": "https://api.github.com/users/greenkeeperio-bot"
    }
}