{
    "_links": {
        "comments": {
            "href": "https://api.github.com/repos/PrismarineJS/flying-squid/issues/482/comments"
        },
        "commits": {
            "href": "https://api.github.com/repos/PrismarineJS/flying-squid/pulls/482/commits"
        },
        "html": {
            "href": "https://github.com/PrismarineJS/flying-squid/pull/482"
        },
        "issue": {
            "href": "https://api.github.com/repos/PrismarineJS/flying-squid/issues/482"
        },
        "review_comment": {
            "href": "https://api.github.com/repos/PrismarineJS/flying-squid/pulls/comments{/number}"
        },
        "review_comments": {
            "href": "https://api.github.com/repos/PrismarineJS/flying-squid/pulls/482/comments"
        },
        "self": {
            "href": "https://api.github.com/repos/PrismarineJS/flying-squid/pulls/482"
        },
        "statuses": {
            "href": "https://api.github.com/repos/PrismarineJS/flying-squid/statuses/44bbaa13cd748070c2c8f8cccf1b86495c19e6f9"
        }
    },
    "active_lock_reason": null,
    "additions": 134,
    "assignee": null,
    "assignees": [],
    "author_association": "MEMBER",
    "auto_merge": null,
    "base": {
        "label": "PrismarineJS:master",
        "ref": "master",
        "repo": {
            "allow_forking": true,
            "archive_url": "https://api.github.com/repos/PrismarineJS/flying-squid/{archive_format}{/ref}",
            "archived": false,
            "assignees_url": "https://api.github.com/repos/PrismarineJS/flying-squid/assignees{/user}",
            "blobs_url": "https://api.github.com/repos/PrismarineJS/flying-squid/git/blobs{/sha}",
            "branches_url": "https://api.github.com/repos/PrismarineJS/flying-squid/branches{/branch}",
            "clone_url": "https://github.com/PrismarineJS/flying-squid.git",
            "collaborators_url": "https://api.github.com/repos/PrismarineJS/flying-squid/collaborators{/collaborator}",
            "comments_url": "https://api.github.com/repos/PrismarineJS/flying-squid/comments{/number}",
            "commits_url": "https://api.github.com/repos/PrismarineJS/flying-squid/commits{/sha}",
            "compare_url": "https://api.github.com/repos/PrismarineJS/flying-squid/compare/{base}...{head}",
            "contents_url": "https://api.github.com/repos/PrismarineJS/flying-squid/contents/{+path}",
            "contributors_url": "https://api.github.com/repos/PrismarineJS/flying-squid/contributors",
            "created_at": "2015-08-25T23:30:19Z",
            "default_branch": "master",
            "deployments_url": "https://api.github.com/repos/PrismarineJS/flying-squid/deployments",
            "description": "Create Minecraft servers with a powerful, stable, and high level JavaScript API.",
            "disabled": false,
            "downloads_url": "https://api.github.com/repos/PrismarineJS/flying-squid/downloads",
            "events_url": "https://api.github.com/repos/PrismarineJS/flying-squid/events",
            "fork": false,
            "forks": 86,
            "forks_count": 86,
            "forks_url": "https://api.github.com/repos/PrismarineJS/flying-squid/forks",
            "full_name": "PrismarineJS/flying-squid",
            "git_commits_url": "https://api.github.com/repos/PrismarineJS/flying-squid/git/commits{/sha}",
            "git_refs_url": "https://api.github.com/repos/PrismarineJS/flying-squid/git/refs{/sha}",
            "git_tags_url": "https://api.github.com/repos/PrismarineJS/flying-squid/git/tags{/sha}",
            "git_url": "git://github.com/PrismarineJS/flying-squid.git",
            "has_discussions": false,
            "has_downloads": true,
            "has_issues": true,
            "has_pages": true,
            "has_projects": true,
            "has_wiki": true,
            "homepage": "https://prismarinejs.github.io/flying-squid/",
            "hooks_url": "https://api.github.com/repos/PrismarineJS/flying-squid/hooks",
            "html_url": "https://github.com/PrismarineJS/flying-squid",
            "id": 41393164,
            "is_template": false,
            "issue_comment_url": "https://api.github.com/repos/PrismarineJS/flying-squid/issues/comments{/number}",
            "issue_events_url": "https://api.github.com/repos/PrismarineJS/flying-squid/issues/events{/number}",
            "issues_url": "https://api.github.com/repos/PrismarineJS/flying-squid/issues{/number}",
            "keys_url": "https://api.github.com/repos/PrismarineJS/flying-squid/keys{/key_id}",
            "labels_url": "https://api.github.com/repos/PrismarineJS/flying-squid/labels{/name}",
            "language": "JavaScript",
            "languages_url": "https://api.github.com/repos/PrismarineJS/flying-squid/languages",
            "license": {
                "key": "mit",
                "name": "MIT License",
                "node_id": "MDc6TGljZW5zZTEz",
                "spdx_id": "MIT",
                "url": "https://api.github.com/licenses/mit"
            },
            "merges_url": "https://api.github.com/repos/PrismarineJS/flying-squid/merges",
            "milestones_url": "https://api.github.com/repos/PrismarineJS/flying-squid/milestones{/number}",
            "mirror_url": null,
            "name": "flying-squid",
            "node_id": "MDEwOlJlcG9zaXRvcnk0MTM5MzE2NA==",
            "notifications_url": "https://api.github.com/repos/PrismarineJS/flying-squid/notifications{?since,all,participating}",
            "open_issues": 105,
            "open_issues_count": 105,
            "owner": {
                "avatar_url": "https://avatars.githubusercontent.com/u/11053411?v=4",
                "events_url": "https://api.github.com/users/PrismarineJS/events{/privacy}",
                "followers_url": "https://api.github.com/users/PrismarineJS/followers",
                "following_url": "https://api.github.com/users/PrismarineJS/following{/other_user}",
                "gists_url": "https://api.github.com/users/PrismarineJS/gists{/gist_id}",
                "gravatar_id": "",
                "html_url": "https://github.com/PrismarineJS",
                "id": 11053411,
                "login": "PrismarineJS",
                "node_id": "MDEyOk9yZ2FuaXphdGlvbjExMDUzNDEx",
                "organizations_url": "https://api.github.com/users/PrismarineJS/orgs",
                "received_events_url": "https://api.github.com/users/PrismarineJS/received_events",
                "repos_url": "https://api.github.com/users/PrismarineJS/repos",
                "site_admin": false,
                "starred_url": "https://api.github.com/users/PrismarineJS/starred{/owner}{/repo}",
                "subscriptions_url": "https://api.github.com/users/PrismarineJS/subscriptions",
                "type": "Organization",
                "url": "https://api.github.com/users/PrismarineJS"
            },
            "private": false,
            "pulls_url": "https://api.github.com/repos/PrismarineJS/flying-squid/pulls{/number}",
            "pushed_at": "2023-04-25T07:58:15Z",
            "releases_url": "https://api.github.com/repos/PrismarineJS/flying-squid/releases{/id}",
            "size": 1044,
            "ssh_url": "git@github.com:PrismarineJS/flying-squid.git",
            "stargazers_count": 471,
            "stargazers_url": "https://api.github.com/repos/PrismarineJS/flying-squid/stargazers",
            "statuses_url": "https://api.github.com/repos/PrismarineJS/flying-squid/statuses/{sha}",
            "subscribers_url": "https://api.github.com/repos/PrismarineJS/flying-squid/subscribers",
            "subscription_url": "https://api.github.com/repos/PrismarineJS/flying-squid/subscription",
            "svn_url": "https://github.com/PrismarineJS/flying-squid",
            "tags_url": "https://api.github.com/repos/PrismarineJS/flying-squid/tags",
            "teams_url": "https://api.github.com/repos/PrismarineJS/flying-squid/teams",
            "topics": [
                "game",
                "minecraft",
                "minecraft-server",
                "protocol",
                "server",
                "voxel"
            ],
            "trees_url": "https://api.github.com/repos/PrismarineJS/flying-squid/git/trees{/sha}",
            "updated_at": "2023-04-20T15:15:59Z",
            "url": "https://api.github.com/repos/PrismarineJS/flying-squid",
            "visibility": "public",
            "watchers": 471,
            "watchers_count": 471,
            "web_commit_signoff_required": false
        },
        "sha": "fe341862756f2b26b07febb8fd690391f32d70f2",
        "user": {
            "avatar_url": "https://avatars.githubusercontent.com/u/11053411?v=4",
            "events_url": "https://api.github.com/users/PrismarineJS/events{/privacy}",
            "followers_url": "https://api.github.com/users/PrismarineJS/followers",
            "following_url": "https://api.github.com/users/PrismarineJS/following{/other_user}",
            "gists_url": "https://api.github.com/users/PrismarineJS/gists{/gist_id}",
            "gravatar_id": "",
            "html_url": "https://github.com/PrismarineJS",
            "id": 11053411,
            "login": "PrismarineJS",
            "node_id": "MDEyOk9yZ2FuaXphdGlvbjExMDUzNDEx",
            "organizations_url": "https://api.github.com/users/PrismarineJS/orgs",
            "received_events_url": "https://api.github.com/users/PrismarineJS/received_events",
            "repos_url": "https://api.github.com/users/PrismarineJS/repos",
            "site_admin": false,
            "starred_url": "https://api.github.com/users/PrismarineJS/starred{/owner}{/repo}",
            "subscriptions_url": "https://api.github.com/users/PrismarineJS/subscriptions",
            "type": "Organization",
            "url": "https://api.github.com/users/PrismarineJS"
        }
    },
    "body": "",
    "changed_files": 3,
    "closed_at": "2021-02-15T07:19:37Z",
    "comment_data": [],
    "comment_regular_data": [],
    "comments": 0,
    "comments_url": "https://api.github.com/repos/PrismarineJS/flying-squid/issues/482/comments",
    "commit_data": [
        {
            "author": {
                "avatar_url": "https://avatars.githubusercontent.com/u/43508353?v=4",
                "events_url": "https://api.github.com/users/u9g/events{/privacy}",
                "followers_url": "https://api.github.com/users/u9g/followers",
                "following_url": "https://api.github.com/users/u9g/following{/other_user}",
                "gists_url": "https://api.github.com/users/u9g/gists{/gist_id}",
                "gravatar_id": "",
                "html_url": "https://github.com/u9g",
                "id": 43508353,
                "login": "u9g",
                "node_id": "MDQ6VXNlcjQzNTA4MzUz",
                "organizations_url": "https://api.github.com/users/u9g/orgs",
                "received_events_url": "https://api.github.com/users/u9g/received_events",
                "repos_url": "https://api.github.com/users/u9g/repos",
                "site_admin": false,
                "starred_url": "https://api.github.com/users/u9g/starred{/owner}{/repo}",
                "subscriptions_url": "https://api.github.com/users/u9g/subscriptions",
                "type": "User",
                "url": "https://api.github.com/users/u9g"
            },
            "comments_url": "https://api.github.com/repos/PrismarineJS/flying-squid/commits/8643d752d559e170b924a6ef100726e99d0fc857/comments",
            "commit": {
                "author": {
                    "date": "2021-02-12T20:43:08Z",
                    "email": "43508353+u9g@users.noreply.github.com",
                    "name": "u9g"
                },
                "comment_count": 0,
                "committer": {
                    "date": "2021-02-12T20:43:08Z",
                    "email": "noreply@github.com",
                    "name": "GitHub"
                },
                "message": "Create gamemode.js",
                "tree": {
                    "sha": "57625460b651048c1566c7e189a670aaf9923956",
                    "url": "https://api.github.com/repos/PrismarineJS/flying-squid/git/trees/57625460b651048c1566c7e189a670aaf9923956"
                },
                "url": "https://api.github.com/repos/PrismarineJS/flying-squid/git/commits/8643d752d559e170b924a6ef100726e99d0fc857",
                "verification": {
                    "payload": "tree 57625460b651048c1566c7e189a670aaf9923956\nparent 2f9f6fb8dac55596eea6532653b11d1e554231cb\nauthor u9g <43508353+u9g@users.noreply.github.com> 1613162588 -0500\ncommitter GitHub <noreply@github.com> 1613162588 -0500\n\nCreate gamemode.js",
                    "reason": "valid",
                    "signature": "-----BEGIN PGP SIGNATURE-----\n\nwsBcBAABCAAQBQJgJuhcCRBK7hj4Ov3rIwAAdHIIADQxFi7N0guFQH9V05em0NTp\n7LoiGoWcjn1Ni9kLRqXRFXHmodhcWAXjbBzHJ08VWkL98qeUUX7Ys9zwgEWlWomj\nUaDotc0t8X8UcISrR1E/hVEnoiUtlxRCwkvOo5EVCH/hUgp3VPP1n913g8vHmiQW\ncnIDOkgddckzplbnVkoTJTlkDawhgNkuVFUlspNDe2+Moq8IRGNDmPk1DO3u6FCU\nO5OeMRw1wkMh2NXMifm4qn6cV2T8bwk6M2gaAx5wODJGNcRqQx4Ydzl+hQCwLzk2\nlU4D2skdIDWCqNoi2sHwetrUCyQTUiAERgn7j6mflViAyl1/Wumh0TOzUPkRnwA=\n=kpEj\n-----END PGP SIGNATURE-----\n",
                    "verified": true
                }
            },
            "committer": {
                "avatar_url": "https://avatars.githubusercontent.com/u/19864447?v=4",
                "events_url": "https://api.github.com/users/web-flow/events{/privacy}",
                "followers_url": "https://api.github.com/users/web-flow/followers",
                "following_url": "https://api.github.com/users/web-flow/following{/other_user}",
                "gists_url": "https://api.github.com/users/web-flow/gists{/gist_id}",
                "gravatar_id": "",
                "html_url": "https://github.com/web-flow",
                "id": 19864447,
                "login": "web-flow",
                "node_id": "MDQ6VXNlcjE5ODY0NDQ3",
                "organizations_url": "https://api.github.com/users/web-flow/orgs",
                "received_events_url": "https://api.github.com/users/web-flow/received_events",
                "repos_url": "https://api.github.com/users/web-flow/repos",
                "site_admin": false,
                "starred_url": "https://api.github.com/users/web-flow/starred{/owner}{/repo}",
                "subscriptions_url": "https://api.github.com/users/web-flow/subscriptions",
                "type": "User",
                "url": "https://api.github.com/users/web-flow"
            },
            "html_url": "https://github.com/PrismarineJS/flying-squid/commit/8643d752d559e170b924a6ef100726e99d0fc857",
            "node_id": "MDY6Q29tbWl0MzM4NDI4NjY3Ojg2NDNkNzUyZDU1OWUxNzBiOTI0YTZlZjEwMDcyNmU5OWQwZmM4NTc=",
            "parents": [
                {
                    "html_url": "https://github.com/PrismarineJS/flying-squid/commit/2f9f6fb8dac55596eea6532653b11d1e554231cb",
                    "sha": "2f9f6fb8dac55596eea6532653b11d1e554231cb",
                    "url": "https://api.github.com/repos/PrismarineJS/flying-squid/commits/2f9f6fb8dac55596eea6532653b11d1e554231cb"
                }
            ],
            "sha": "8643d752d559e170b924a6ef100726e99d0fc857",
            "url": "https://api.github.com/repos/PrismarineJS/flying-squid/commits/8643d752d559e170b924a6ef100726e99d0fc857"
        },
        {
            "author": {
                "avatar_url": "https://avatars.githubusercontent.com/u/43508353?v=4",
                "events_url": "https://api.github.com/users/u9g/events{/privacy}",
                "followers_url": "https://api.github.com/users/u9g/followers",
                "following_url": "https://api.github.com/users/u9g/following{/other_user}",
                "gists_url": "https://api.github.com/users/u9g/gists{/gist_id}",
                "gravatar_id": "",
                "html_url": "https://github.com/u9g",
                "id": 43508353,
                "login": "u9g",
                "node_id": "MDQ6VXNlcjQzNTA4MzUz",
                "organizations_url": "https://api.github.com/users/u9g/orgs",
                "received_events_url": "https://api.github.com/users/u9g/received_events",
                "repos_url": "https://api.github.com/users/u9g/repos",
                "site_admin": false,
                "starred_url": "https://api.github.com/users/u9g/starred{/owner}{/repo}",
                "subscriptions_url": "https://api.github.com/users/u9g/subscriptions",
                "type": "User",
                "url": "https://api.github.com/users/u9g"
            },
            "comments_url": "https://api.github.com/repos/PrismarineJS/flying-squid/commits/4b00d87308ea3b5542c501b84d3e94c369287710/comments",
            "commit": {
                "author": {
                    "date": "2021-02-12T20:43:50Z",
                    "email": "43508353+u9g@users.noreply.github.com",
                    "name": "u9g"
                },
                "comment_count": 0,
                "committer": {
                    "date": "2021-02-12T20:43:50Z",
                    "email": "noreply@github.com",
                    "name": "GitHub"
                },
                "message": "Create brigadier.js",
                "tree": {
                    "sha": "075a9d63a655ca2560a5d344afff13628d2a67a9",
                    "url": "https://api.github.com/repos/PrismarineJS/flying-squid/git/trees/075a9d63a655ca2560a5d344afff13628d2a67a9"
                },
                "url": "https://api.github.com/repos/PrismarineJS/flying-squid/git/commits/4b00d87308ea3b5542c501b84d3e94c369287710",
                "verification": {
                    "payload": "tree 075a9d63a655ca2560a5d344afff13628d2a67a9\nparent 8643d752d559e170b924a6ef100726e99d0fc857\nauthor u9g <43508353+u9g@users.noreply.github.com> 1613162630 -0500\ncommitter GitHub <noreply@github.com> 1613162630 -0500\n\nCreate brigadier.js",
                    "reason": "valid",
                    "signature": "-----BEGIN PGP SIGNATURE-----\n\nwsBcBAABCAAQBQJgJuiGCRBK7hj4Ov3rIwAAdHIIAD8Gg/oY3L87KM+N35CRS8Y3\nN9iEfX18aH5pI1n3jvtGxYx3dvrQMZVIF/kv9/HjETZYBGpyerSFwSg7+N8IMOZw\n7r82ltwOlGc76ML0hGR9Nempso/IUT3T81rE+NwaRNXvKCbb6FcEKzjxcTOjJJeK\nW+jNuvzkXrA42NuyG7E7OuV2f7iBR9ZlXphhMpVV6gjKpA1e8jUG3f79+Nvto9kF\noPSoqnGUu3WILUTeu5f0oz3niUEgsxhuXzP+gr9Dj3VUaBuETbMwVlIuWKo1gn9X\n5+3kOos6REscQQgvqFyAWUTF6KEaojnvjWeA59bb0+1M4B7P6GyaIB2K2uxah44=\n=CHLC\n-----END PGP SIGNATURE-----\n",
                    "verified": true
                }
            },
            "committer": {
                "avatar_url": "https://avatars.githubusercontent.com/u/19864447?v=4",
                "events_url": "https://api.github.com/users/web-flow/events{/privacy}",
                "followers_url": "https://api.github.com/users/web-flow/followers",
                "following_url": "https://api.github.com/users/web-flow/following{/other_user}",
                "gists_url": "https://api.github.com/users/web-flow/gists{/gist_id}",
                "gravatar_id": "",
                "html_url": "https://github.com/web-flow",
                "id": 19864447,
                "login": "web-flow",
                "node_id": "MDQ6VXNlcjE5ODY0NDQ3",
                "organizations_url": "https://api.github.com/users/web-flow/orgs",
                "received_events_url": "https://api.github.com/users/web-flow/received_events",
                "repos_url": "https://api.github.com/users/web-flow/repos",
                "site_admin": false,
                "starred_url": "https://api.github.com/users/web-flow/starred{/owner}{/repo}",
                "subscriptions_url": "https://api.github.com/users/web-flow/subscriptions",
                "type": "User",
                "url": "https://api.github.com/users/web-flow"
            },
            "html_url": "https://github.com/PrismarineJS/flying-squid/commit/4b00d87308ea3b5542c501b84d3e94c369287710",
            "node_id": "MDY6Q29tbWl0MzM4NDI4NjY3OjRiMDBkODczMDhlYTNiNTU0MmM1MDFiODRkM2U5NGMzNjkyODc3MTA=",
            "parents": [
                {
                    "html_url": "https://github.com/PrismarineJS/flying-squid/commit/8643d752d559e170b924a6ef100726e99d0fc857",
                    "sha": "8643d752d559e170b924a6ef100726e99d0fc857",
                    "url": "https://api.github.com/repos/PrismarineJS/flying-squid/commits/8643d752d559e170b924a6ef100726e99d0fc857"
                }
            ],
            "sha": "4b00d87308ea3b5542c501b84d3e94c369287710",
            "url": "https://api.github.com/repos/PrismarineJS/flying-squid/commits/4b00d87308ea3b5542c501b84d3e94c369287710"
        },
        {
            "author": {
                "avatar_url": "https://avatars.githubusercontent.com/u/43508353?v=4",
                "events_url": "https://api.github.com/users/u9g/events{/privacy}",
                "followers_url": "https://api.github.com/users/u9g/followers",
                "following_url": "https://api.github.com/users/u9g/following{/other_user}",
                "gists_url": "https://api.github.com/users/u9g/gists{/gist_id}",
                "gravatar_id": "",
                "html_url": "https://github.com/u9g",
                "id": 43508353,
                "login": "u9g",
                "node_id": "MDQ6VXNlcjQzNTA4MzUz",
                "organizations_url": "https://api.github.com/users/u9g/orgs",
                "received_events_url": "https://api.github.com/users/u9g/received_events",
                "repos_url": "https://api.github.com/users/u9g/repos",
                "site_admin": false,
                "starred_url": "https://api.github.com/users/u9g/starred{/owner}{/repo}",
                "subscriptions_url": "https://api.github.com/users/u9g/subscriptions",
                "type": "User",
                "url": "https://api.github.com/users/u9g"
            },
            "comments_url": "https://api.github.com/repos/PrismarineJS/flying-squid/commits/71056d4e9c9902ad0fcd33289adc52b7a51cfd20/comments",
            "commit": {
                "author": {
                    "date": "2021-02-12T21:09:18Z",
                    "email": "43508353+u9g@users.noreply.github.com",
                    "name": "u9g"
                },
                "comment_count": 0,
                "committer": {
                    "date": "2021-02-12T21:09:18Z",
                    "email": "noreply@github.com",
                    "name": "GitHub"
                },
                "message": "Delete brigadier.js",
                "tree": {
                    "sha": "57625460b651048c1566c7e189a670aaf9923956",
                    "url": "https://api.github.com/repos/PrismarineJS/flying-squid/git/trees/57625460b651048c1566c7e189a670aaf9923956"
                },
                "url": "https://api.github.com/repos/PrismarineJS/flying-squid/git/commits/71056d4e9c9902ad0fcd33289adc52b7a51cfd20",
                "verification": {
                    "payload": "tree 57625460b651048c1566c7e189a670aaf9923956\nparent 4b00d87308ea3b5542c501b84d3e94c369287710\nauthor u9g <43508353+u9g@users.noreply.github.com> 1613164158 -0500\ncommitter GitHub <noreply@github.com> 1613164158 -0500\n\nDelete brigadier.js",
                    "reason": "valid",
                    "signature": "-----BEGIN PGP SIGNATURE-----\n\nwsBcBAABCAAQBQJgJu5+CRBK7hj4Ov3rIwAAdHIIAFjPdGlGVKLgHup8uRVHjyPI\nENG8ArurD/cNAbXTbvWsrXRje1d9yRdFh0vHcP2JwSUzuYqvz4QBt1D4OZEOIbCK\nQ8y1QG/53XN98yGI1cv1hkFH++hq2MM5TD87aub09FekYgEJTJAB70xtIcF2zhiR\nLr53uC3GXtgusokz+IFb4uw6zf3aeuQmP5sRBb8twTTVeu4K+OEKqVXvaNk2j/Ki\nLiY5XOa9ATeS2/DNDiAwmSNFiVI1sxKv4eExnWSipwcmCP7KrYJGoUFtLUGsj36g\nx6duUOpgdpnGtbhm6aj4JoycjC1SnRe/Rc9IV8dhuP4Iz36RvFXNoidwpy6k4aU=\n=Awie\n-----END PGP SIGNATURE-----\n",
                    "verified": true
                }
            },
            "committer": {
                "avatar_url": "https://avatars.githubusercontent.com/u/19864447?v=4",
                "events_url": "https://api.github.com/users/web-flow/events{/privacy}",
                "followers_url": "https://api.github.com/users/web-flow/followers",
                "following_url": "https://api.github.com/users/web-flow/following{/other_user}",
                "gists_url": "https://api.github.com/users/web-flow/gists{/gist_id}",
                "gravatar_id": "",
                "html_url": "https://github.com/web-flow",
                "id": 19864447,
                "login": "web-flow",
                "node_id": "MDQ6VXNlcjE5ODY0NDQ3",
                "organizations_url": "https://api.github.com/users/web-flow/orgs",
                "received_events_url": "https://api.github.com/users/web-flow/received_events",
                "repos_url": "https://api.github.com/users/web-flow/repos",
                "site_admin": false,
                "starred_url": "https://api.github.com/users/web-flow/starred{/owner}{/repo}",
                "subscriptions_url": "https://api.github.com/users/web-flow/subscriptions",
                "type": "User",
                "url": "https://api.github.com/users/web-flow"
            },
            "html_url": "https://github.com/PrismarineJS/flying-squid/commit/71056d4e9c9902ad0fcd33289adc52b7a51cfd20",
            "node_id": "MDY6Q29tbWl0MzM4NDI4NjY3OjcxMDU2ZDRlOWM5OTAyYWQwZmNkMzMyODlhZGM1MmI3YTUxY2ZkMjA=",
            "parents": [
                {
                    "html_url": "https://github.com/PrismarineJS/flying-squid/commit/4b00d87308ea3b5542c501b84d3e94c369287710",
                    "sha": "4b00d87308ea3b5542c501b84d3e94c369287710",
                    "url": "https://api.github.com/repos/PrismarineJS/flying-squid/commits/4b00d87308ea3b5542c501b84d3e94c369287710"
                }
            ],
            "sha": "71056d4e9c9902ad0fcd33289adc52b7a51cfd20",
            "url": "https://api.github.com/repos/PrismarineJS/flying-squid/commits/71056d4e9c9902ad0fcd33289adc52b7a51cfd20"
        },
        {
            "author": {
                "avatar_url": "https://avatars.githubusercontent.com/u/43508353?v=4",
                "events_url": "https://api.github.com/users/u9g/events{/privacy}",
                "followers_url": "https://api.github.com/users/u9g/followers",
                "following_url": "https://api.github.com/users/u9g/following{/other_user}",
                "gists_url": "https://api.github.com/users/u9g/gists{/gist_id}",
                "gravatar_id": "",
                "html_url": "https://github.com/u9g",
                "id": 43508353,
                "login": "u9g",
                "node_id": "MDQ6VXNlcjQzNTA4MzUz",
                "organizations_url": "https://api.github.com/users/u9g/orgs",
                "received_events_url": "https://api.github.com/users/u9g/received_events",
                "repos_url": "https://api.github.com/users/u9g/repos",
                "site_admin": false,
                "starred_url": "https://api.github.com/users/u9g/starred{/owner}{/repo}",
                "subscriptions_url": "https://api.github.com/users/u9g/subscriptions",
                "type": "User",
                "url": "https://api.github.com/users/u9g"
            },
            "comments_url": "https://api.github.com/repos/PrismarineJS/flying-squid/commits/95637157858888967b66e22839da5cf35cc1ca95/comments",
            "commit": {
                "author": {
                    "date": "2021-02-12T21:09:30Z",
                    "email": "43508353+u9g@users.noreply.github.com",
                    "name": "u9g"
                },
                "comment_count": 0,
                "committer": {
                    "date": "2021-02-12T21:09:30Z",
                    "email": "noreply@github.com",
                    "name": "GitHub"
                },
                "message": "Create brigadier.js",
                "tree": {
                    "sha": "6c44909c0fcf74d66236d18f1bc26c4d18344eab",
                    "url": "https://api.github.com/repos/PrismarineJS/flying-squid/git/trees/6c44909c0fcf74d66236d18f1bc26c4d18344eab"
                },
                "url": "https://api.github.com/repos/PrismarineJS/flying-squid/git/commits/95637157858888967b66e22839da5cf35cc1ca95",
                "verification": {
                    "payload": "tree 6c44909c0fcf74d66236d18f1bc26c4d18344eab\nparent 71056d4e9c9902ad0fcd33289adc52b7a51cfd20\nauthor u9g <43508353+u9g@users.noreply.github.com> 1613164170 -0500\ncommitter GitHub <noreply@github.com> 1613164170 -0500\n\nCreate brigadier.js",
                    "reason": "valid",
                    "signature": "-----BEGIN PGP SIGNATURE-----\n\nwsBcBAABCAAQBQJgJu6KCRBK7hj4Ov3rIwAAdHIIAIssE/VDatxv2lhin74gHMER\nmmscGyb7yWB4LlFN0kxEn9Gcu2/0EIWeJetEy7a+t+M6cInDA56Tf1Tg+MXSNA9A\njWCioYSAAGT8+d20Bt/wKDL7R4K+RRlJ3UoXikHNfL35m1/1q9Ma36mV9v7Es2bA\nj+32dSZFuyxsfDyrYdYBZBdgs9B4WnUbKWpA4BCZn//ra2Pp2LuZvxNdMB8SLL68\n3o6adN1Am0qMhn5fn/SjCxJRvrazVyhLDydM8a4qbtmRMtkyCKmX3IlB2WcglCcw\nWvoIuxXJrsV6fTu4SoNqAAImawJ/qf2zgVAMPlbV/V8IgY/agpIN5QnGvrgU3tw=\n=Mfvk\n-----END PGP SIGNATURE-----\n",
                    "verified": true
                }
            },
            "committer": {
                "avatar_url": "https://avatars.githubusercontent.com/u/19864447?v=4",
                "events_url": "https://api.github.com/users/web-flow/events{/privacy}",
                "followers_url": "https://api.github.com/users/web-flow/followers",
                "following_url": "https://api.github.com/users/web-flow/following{/other_user}",
                "gists_url": "https://api.github.com/users/web-flow/gists{/gist_id}",
                "gravatar_id": "",
                "html_url": "https://github.com/web-flow",
                "id": 19864447,
                "login": "web-flow",
                "node_id": "MDQ6VXNlcjE5ODY0NDQ3",
                "organizations_url": "https://api.github.com/users/web-flow/orgs",
                "received_events_url": "https://api.github.com/users/web-flow/received_events",
                "repos_url": "https://api.github.com/users/web-flow/repos",
                "site_admin": false,
                "starred_url": "https://api.github.com/users/web-flow/starred{/owner}{/repo}",
                "subscriptions_url": "https://api.github.com/users/web-flow/subscriptions",
                "type": "User",
                "url": "https://api.github.com/users/web-flow"
            },
            "html_url": "https://github.com/PrismarineJS/flying-squid/commit/95637157858888967b66e22839da5cf35cc1ca95",
            "node_id": "MDY6Q29tbWl0MzM4NDI4NjY3Ojk1NjM3MTU3ODU4ODg4OTY3YjY2ZTIyODM5ZGE1Y2YzNWNjMWNhOTU=",
            "parents": [
                {
                    "html_url": "https://github.com/PrismarineJS/flying-squid/commit/71056d4e9c9902ad0fcd33289adc52b7a51cfd20",
                    "sha": "71056d4e9c9902ad0fcd33289adc52b7a51cfd20",
                    "url": "https://api.github.com/repos/PrismarineJS/flying-squid/commits/71056d4e9c9902ad0fcd33289adc52b7a51cfd20"
                }
            ],
            "sha": "95637157858888967b66e22839da5cf35cc1ca95",
            "url": "https://api.github.com/repos/PrismarineJS/flying-squid/commits/95637157858888967b66e22839da5cf35cc1ca95"
        },
        {
            "author": {
                "avatar_url": "https://avatars.githubusercontent.com/u/43508353?v=4",
                "events_url": "https://api.github.com/users/u9g/events{/privacy}",
                "followers_url": "https://api.github.com/users/u9g/followers",
                "following_url": "https://api.github.com/users/u9g/following{/other_user}",
                "gists_url": "https://api.github.com/users/u9g/gists{/gist_id}",
                "gravatar_id": "",
                "html_url": "https://github.com/u9g",
                "id": 43508353,
                "login": "u9g",
                "node_id": "MDQ6VXNlcjQzNTA4MzUz",
                "organizations_url": "https://api.github.com/users/u9g/orgs",
                "received_events_url": "https://api.github.com/users/u9g/received_events",
                "repos_url": "https://api.github.com/users/u9g/repos",
                "site_admin": false,
                "starred_url": "https://api.github.com/users/u9g/starred{/owner}{/repo}",
                "subscriptions_url": "https://api.github.com/users/u9g/subscriptions",
                "type": "User",
                "url": "https://api.github.com/users/u9g"
            },
            "comments_url": "https://api.github.com/repos/PrismarineJS/flying-squid/commits/a0ef1b856c01c4b96f329a3498a4a344191b256f/comments",
            "commit": {
                "author": {
                    "date": "2021-02-12T22:02:17Z",
                    "email": "43508353+u9g@users.noreply.github.com",
                    "name": "u9g"
                },
                "comment_count": 0,
                "committer": {
                    "date": "2021-02-12T22:02:17Z",
                    "email": "noreply@github.com",
                    "name": "GitHub"
                },
                "message": "Update players.js",
                "tree": {
                    "sha": "f8d4e1630cda17c89d8c4ea46cc8523c2400c491",
                    "url": "https://api.github.com/repos/PrismarineJS/flying-squid/git/trees/f8d4e1630cda17c89d8c4ea46cc8523c2400c491"
                },
                "url": "https://api.github.com/repos/PrismarineJS/flying-squid/git/commits/a0ef1b856c01c4b96f329a3498a4a344191b256f",
                "verification": {
                    "payload": "tree f8d4e1630cda17c89d8c4ea46cc8523c2400c491\nparent 95637157858888967b66e22839da5cf35cc1ca95\nauthor u9g <43508353+u9g@users.noreply.github.com> 1613167337 -0500\ncommitter GitHub <noreply@github.com> 1613167337 -0500\n\nUpdate players.js",
                    "reason": "valid",
                    "signature": "-----BEGIN PGP SIGNATURE-----\n\nwsBcBAABCAAQBQJgJvrpCRBK7hj4Ov3rIwAAdHIIAHm3rKtFTYoaer9NeeJOBOwq\nG5Nc+5U2eX5IrHFERnuGt1I/LpgclKZauUM+EDK9Fsmm4iL0YfCko0lnLTkeNQ4s\ngoAB26G+JJMcSjwgqyDit0N8DCCfCzKfqlk5YoaVsZKK9Afcdu1l0G/a5fJZwleR\nMBZvBR2p8oCCQUazfvN1tdeXsDorWafKqOr4ipxFOSrhr3TWIdmoRtuSIzALotnK\ntS/bERlrhCmok4UB7OAg6w5Szt2FTC8WL5FNh2HNnDAczALlxScUOYYhyMdkh/fW\nokXatuREX5D2hz/u/b/6VkZWhA8xDlCe5BTueGzn3aFv6CVY2hTz8Kc10VQqqpE=\n=GufI\n-----END PGP SIGNATURE-----\n",
                    "verified": true
                }
            },
            "committer": {
                "avatar_url": "https://avatars.githubusercontent.com/u/19864447?v=4",
                "events_url": "https://api.github.com/users/web-flow/events{/privacy}",
                "followers_url": "https://api.github.com/users/web-flow/followers",
                "following_url": "https://api.github.com/users/web-flow/following{/other_user}",
                "gists_url": "https://api.github.com/users/web-flow/gists{/gist_id}",
                "gravatar_id": "",
                "html_url": "https://github.com/web-flow",
                "id": 19864447,
                "login": "web-flow",
                "node_id": "MDQ6VXNlcjE5ODY0NDQ3",
                "organizations_url": "https://api.github.com/users/web-flow/orgs",
                "received_events_url": "https://api.github.com/users/web-flow/received_events",
                "repos_url": "https://api.github.com/users/web-flow/repos",
                "site_admin": false,
                "starred_url": "https://api.github.com/users/web-flow/starred{/owner}{/repo}",
                "subscriptions_url": "https://api.github.com/users/web-flow/subscriptions",
                "type": "User",
                "url": "https://api.github.com/users/web-flow"
            },
            "html_url": "https://github.com/PrismarineJS/flying-squid/commit/a0ef1b856c01c4b96f329a3498a4a344191b256f",
            "node_id": "MDY6Q29tbWl0MzM4NDI4NjY3OmEwZWYxYjg1NmMwMWM0Yjk2ZjMyOWEzNDk4YTRhMzQ0MTkxYjI1NmY=",
            "parents": [
                {
                    "html_url": "https://github.com/PrismarineJS/flying-squid/commit/95637157858888967b66e22839da5cf35cc1ca95",
                    "sha": "95637157858888967b66e22839da5cf35cc1ca95",
                    "url": "https://api.github.com/repos/PrismarineJS/flying-squid/commits/95637157858888967b66e22839da5cf35cc1ca95"
                }
            ],
            "sha": "a0ef1b856c01c4b96f329a3498a4a344191b256f",
            "url": "https://api.github.com/repos/PrismarineJS/flying-squid/commits/a0ef1b856c01c4b96f329a3498a4a344191b256f"
        },
        {
            "author": {
                "avatar_url": "https://avatars.githubusercontent.com/u/43508353?v=4",
                "events_url": "https://api.github.com/users/u9g/events{/privacy}",
                "followers_url": "https://api.github.com/users/u9g/followers",
                "following_url": "https://api.github.com/users/u9g/following{/other_user}",
                "gists_url": "https://api.github.com/users/u9g/gists{/gist_id}",
                "gravatar_id": "",
                "html_url": "https://github.com/u9g",
                "id": 43508353,
                "login": "u9g",
                "node_id": "MDQ6VXNlcjQzNTA4MzUz",
                "organizations_url": "https://api.github.com/users/u9g/orgs",
                "received_events_url": "https://api.github.com/users/u9g/received_events",
                "repos_url": "https://api.github.com/users/u9g/repos",
                "site_admin": false,
                "starred_url": "https://api.github.com/users/u9g/starred{/owner}{/repo}",
                "subscriptions_url": "https://api.github.com/users/u9g/subscriptions",
                "type": "User",
                "url": "https://api.github.com/users/u9g"
            },
            "comments_url": "https://api.github.com/repos/PrismarineJS/flying-squid/commits/c612cd9f9cd3024c1648b633337cf998fe082213/comments",
            "commit": {
                "author": {
                    "date": "2021-02-12T22:02:59Z",
                    "email": "43508353+u9g@users.noreply.github.com",
                    "name": "u9g"
                },
                "comment_count": 0,
                "committer": {
                    "date": "2021-02-12T22:02:59Z",
                    "email": "noreply@github.com",
                    "name": "GitHub"
                },
                "message": "Create brigadier.js",
                "tree": {
                    "sha": "9327fecd8c1a15e98ad222fe5bbd1b2cb19950b8",
                    "url": "https://api.github.com/repos/PrismarineJS/flying-squid/git/trees/9327fecd8c1a15e98ad222fe5bbd1b2cb19950b8"
                },
                "url": "https://api.github.com/repos/PrismarineJS/flying-squid/git/commits/c612cd9f9cd3024c1648b633337cf998fe082213",
                "verification": {
                    "payload": "tree 9327fecd8c1a15e98ad222fe5bbd1b2cb19950b8\nparent a0ef1b856c01c4b96f329a3498a4a344191b256f\nauthor u9g <43508353+u9g@users.noreply.github.com> 1613167379 -0500\ncommitter GitHub <noreply@github.com> 1613167379 -0500\n\nCreate brigadier.js",
                    "reason": "valid",
                    "signature": "-----BEGIN PGP SIGNATURE-----\n\nwsBcBAABCAAQBQJgJvsTCRBK7hj4Ov3rIwAAdHIIAGt3v/0Iv0Z+yjnWv6iXw782\n53jXJVB84f9FNofS+70NFBWMC1qgHMrYa9N6O1KLSCBUjjDE+mf24qJRF8upfB36\nijaClqepmq4/ld5olI6IFBrKeYCafBcX2UeNDLdqZ35TyGVqREImuOjji2GJfohz\nyrg7WN7b6QLZyAj/ZzPPdCW6n8uvNAP19MISKzy5xTGLEeYgm/gTYzlSfHGdJs9m\nKLNBlb3iZd8A7Dzf4psNWShaUmvcvF+dpkqJaFTXn9b09/ZYaP4Jit8l0aLl5lyv\nb93+3sUpIjxEsR9vQgowv28qigkgp2vK7Nvp5fV6cXWTfN2ZBeheNKvDvxMHKlw=\n=Imng\n-----END PGP SIGNATURE-----\n",
                    "verified": true
                }
            },
            "committer": {
                "avatar_url": "https://avatars.githubusercontent.com/u/19864447?v=4",
                "events_url": "https://api.github.com/users/web-flow/events{/privacy}",
                "followers_url": "https://api.github.com/users/web-flow/followers",
                "following_url": "https://api.github.com/users/web-flow/following{/other_user}",
                "gists_url": "https://api.github.com/users/web-flow/gists{/gist_id}",
                "gravatar_id": "",
                "html_url": "https://github.com/web-flow",
                "id": 19864447,
                "login": "web-flow",
                "node_id": "MDQ6VXNlcjE5ODY0NDQ3",
                "organizations_url": "https://api.github.com/users/web-flow/orgs",
                "received_events_url": "https://api.github.com/users/web-flow/received_events",
                "repos_url": "https://api.github.com/users/web-flow/repos",
                "site_admin": false,
                "starred_url": "https://api.github.com/users/web-flow/starred{/owner}{/repo}",
                "subscriptions_url": "https://api.github.com/users/web-flow/subscriptions",
                "type": "User",
                "url": "https://api.github.com/users/web-flow"
            },
            "html_url": "https://github.com/PrismarineJS/flying-squid/commit/c612cd9f9cd3024c1648b633337cf998fe082213",
            "node_id": "MDY6Q29tbWl0MzM4NDI4NjY3OmM2MTJjZDlmOWNkMzAyNGMxNjQ4YjYzMzMzN2NmOTk4ZmUwODIyMTM=",
            "parents": [
                {
                    "html_url": "https://github.com/PrismarineJS/flying-squid/commit/a0ef1b856c01c4b96f329a3498a4a344191b256f",
                    "sha": "a0ef1b856c01c4b96f329a3498a4a344191b256f",
                    "url": "https://api.github.com/repos/PrismarineJS/flying-squid/commits/a0ef1b856c01c4b96f329a3498a4a344191b256f"
                }
            ],
            "sha": "c612cd9f9cd3024c1648b633337cf998fe082213",
            "url": "https://api.github.com/repos/PrismarineJS/flying-squid/commits/c612cd9f9cd3024c1648b633337cf998fe082213"
        },
        {
            "author": {
                "avatar_url": "https://avatars.githubusercontent.com/u/43508353?v=4",
                "events_url": "https://api.github.com/users/u9g/events{/privacy}",
                "followers_url": "https://api.github.com/users/u9g/followers",
                "following_url": "https://api.github.com/users/u9g/following{/other_user}",
                "gists_url": "https://api.github.com/users/u9g/gists{/gist_id}",
                "gravatar_id": "",
                "html_url": "https://github.com/u9g",
                "id": 43508353,
                "login": "u9g",
                "node_id": "MDQ6VXNlcjQzNTA4MzUz",
                "organizations_url": "https://api.github.com/users/u9g/orgs",
                "received_events_url": "https://api.github.com/users/u9g/received_events",
                "repos_url": "https://api.github.com/users/u9g/repos",
                "site_admin": false,
                "starred_url": "https://api.github.com/users/u9g/starred{/owner}{/repo}",
                "subscriptions_url": "https://api.github.com/users/u9g/subscriptions",
                "type": "User",
                "url": "https://api.github.com/users/u9g"
            },
            "comments_url": "https://api.github.com/repos/PrismarineJS/flying-squid/commits/aff7db050d22f339b9d9e512ef2b7f34cf4f1a77/comments",
            "commit": {
                "author": {
                    "date": "2021-02-12T22:03:04Z",
                    "email": "43508353+u9g@users.noreply.github.com",
                    "name": "u9g"
                },
                "comment_count": 0,
                "committer": {
                    "date": "2021-02-12T22:03:04Z",
                    "email": "noreply@github.com",
                    "name": "GitHub"
                },
                "message": "Delete brigadier.js",
                "tree": {
                    "sha": "89fb87f5ef982295b1d8008e577cb814e6bb8362",
                    "url": "https://api.github.com/repos/PrismarineJS/flying-squid/git/trees/89fb87f5ef982295b1d8008e577cb814e6bb8362"
                },
                "url": "https://api.github.com/repos/PrismarineJS/flying-squid/git/commits/aff7db050d22f339b9d9e512ef2b7f34cf4f1a77",
                "verification": {
                    "payload": "tree 89fb87f5ef982295b1d8008e577cb814e6bb8362\nparent c612cd9f9cd3024c1648b633337cf998fe082213\nauthor u9g <43508353+u9g@users.noreply.github.com> 1613167384 -0500\ncommitter GitHub <noreply@github.com> 1613167384 -0500\n\nDelete brigadier.js",
                    "reason": "valid",
                    "signature": "-----BEGIN PGP SIGNATURE-----\n\nwsBcBAABCAAQBQJgJvsYCRBK7hj4Ov3rIwAAdHIIAGJeYNHqJjwr4LrGKUkPZ31L\nOVfiVLCC8DmXLjTXw5M2THGIkmA23Ryx4mEK0BIhU3rZj/Rdgm9zLHA1zqs929ZL\nDSeHBBErvVWVxWacTquX4BMxc5Keo3RXfsffIfu3U61pF2ZkcgDorWASYLj6dY7w\nOlR0mrL4BLCdxCum3sQeEu+bYVzPObfA0G3A/P/l3zFZ2fBLdI4Jd9lLPbBnv7ck\nas8k0hK/0Xr1vKlolzpLtixkJxTYYOV5afXWUH2Bb8xsESb4VjIntwQAh+6p4l+7\nlkdDtpRck4/e1w5pjcxJIGN6WdOvRQaHG2W0sGt7iQroS/zdt113skB9dkHppdA=\n=rR4M\n-----END PGP SIGNATURE-----\n",
                    "verified": true
                }
            },
            "committer": {
                "avatar_url": "https://avatars.githubusercontent.com/u/19864447?v=4",
                "events_url": "https://api.github.com/users/web-flow/events{/privacy}",
                "followers_url": "https://api.github.com/users/web-flow/followers",
                "following_url": "https://api.github.com/users/web-flow/following{/other_user}",
                "gists_url": "https://api.github.com/users/web-flow/gists{/gist_id}",
                "gravatar_id": "",
                "html_url": "https://github.com/web-flow",
                "id": 19864447,
                "login": "web-flow",
                "node_id": "MDQ6VXNlcjE5ODY0NDQ3",
                "organizations_url": "https://api.github.com/users/web-flow/orgs",
                "received_events_url": "https://api.github.com/users/web-flow/received_events",
                "repos_url": "https://api.github.com/users/web-flow/repos",
                "site_admin": false,
                "starred_url": "https://api.github.com/users/web-flow/starred{/owner}{/repo}",
                "subscriptions_url": "https://api.github.com/users/web-flow/subscriptions",
                "type": "User",
                "url": "https://api.github.com/users/web-flow"
            },
            "html_url": "https://github.com/PrismarineJS/flying-squid/commit/aff7db050d22f339b9d9e512ef2b7f34cf4f1a77",
            "node_id": "MDY6Q29tbWl0MzM4NDI4NjY3OmFmZjdkYjA1MGQyMmYzMzliOWQ5ZTUxMmVmMmI3ZjM0Y2Y0ZjFhNzc=",
            "parents": [
                {
                    "html_url": "https://github.com/PrismarineJS/flying-squid/commit/c612cd9f9cd3024c1648b633337cf998fe082213",
                    "sha": "c612cd9f9cd3024c1648b633337cf998fe082213",
                    "url": "https://api.github.com/repos/PrismarineJS/flying-squid/commits/c612cd9f9cd3024c1648b633337cf998fe082213"
                }
            ],
            "sha": "aff7db050d22f339b9d9e512ef2b7f34cf4f1a77",
            "url": "https://api.github.com/repos/PrismarineJS/flying-squid/commits/aff7db050d22f339b9d9e512ef2b7f34cf4f1a77"
        },
        {
            "author": {
                "avatar_url": "https://avatars.githubusercontent.com/u/43508353?v=4",
                "events_url": "https://api.github.com/users/u9g/events{/privacy}",
                "followers_url": "https://api.github.com/users/u9g/followers",
                "following_url": "https://api.github.com/users/u9g/following{/other_user}",
                "gists_url": "https://api.github.com/users/u9g/gists{/gist_id}",
                "gravatar_id": "",
                "html_url": "https://github.com/u9g",
                "id": 43508353,
                "login": "u9g",
                "node_id": "MDQ6VXNlcjQzNTA4MzUz",
                "organizations_url": "https://api.github.com/users/u9g/orgs",
                "received_events_url": "https://api.github.com/users/u9g/received_events",
                "repos_url": "https://api.github.com/users/u9g/repos",
                "site_admin": false,
                "starred_url": "https://api.github.com/users/u9g/starred{/owner}{/repo}",
                "subscriptions_url": "https://api.github.com/users/u9g/subscriptions",
                "type": "User",
                "url": "https://api.github.com/users/u9g"
            },
            "comments_url": "https://api.github.com/repos/PrismarineJS/flying-squid/commits/44bbaa13cd748070c2c8f8cccf1b86495c19e6f9/comments",
            "commit": {
                "author": {
                    "date": "2021-02-15T07:19:31Z",
                    "email": "43508353+u9g@users.noreply.github.com",
                    "name": "u9g"
                },
                "comment_count": 0,
                "committer": {
                    "date": "2021-02-15T07:19:31Z",
                    "email": "noreply@github.com",
                    "name": "GitHub"
                },
                "message": "Merge branch 'master' into master",
                "tree": {
                    "sha": "7ad3d442babe5609e0b00b51f700ed19a2062c01",
                    "url": "https://api.github.com/repos/PrismarineJS/flying-squid/git/trees/7ad3d442babe5609e0b00b51f700ed19a2062c01"
                },
                "url": "https://api.github.com/repos/PrismarineJS/flying-squid/git/commits/44bbaa13cd748070c2c8f8cccf1b86495c19e6f9",
                "verification": {
                    "payload": "tree 7ad3d442babe5609e0b00b51f700ed19a2062c01\nparent aff7db050d22f339b9d9e512ef2b7f34cf4f1a77\nparent fe341862756f2b26b07febb8fd690391f32d70f2\nauthor u9g <43508353+u9g@users.noreply.github.com> 1613373571 -0500\ncommitter GitHub <noreply@github.com> 1613373571 -0500\n\nMerge branch 'master' into master",
                    "reason": "valid",
                    "signature": "-----BEGIN PGP SIGNATURE-----\n\nwsBcBAABCAAQBQJgKiCDCRBK7hj4Ov3rIwAAdHIIAJpUcddheqhVbgZZ1iWZDObm\nl8VsCM4uE7U0xWqTw61LsNfmhGDwgxvrPrLMC1GvM3Hz6HV3+6NF7/CylQ3eI6nx\nKY7shflW9td9lwfxGjYKlZD+I4UYYClrTt76oyAKUcqlvKRRgPAuGzEk3EWRcVAn\necd6+Sqzku6z7fr60/Pl6f6PI8ITL3K4v0KUIvzlQyprMZsaOid3CXYu3XxC/ViW\nCdnUS/V3A2Jc9paYSDBnSl/jmUvl90srml2sXY/r1hp6ekv8M/RGOdglhmrGfDL8\nR/16CAEfpblys0Y34WSYqQV/ESbhYolDSy6ftmyq8x5g4kfNaLTNu9Kcf4wPxNo=\n=HJFB\n-----END PGP SIGNATURE-----\n",
                    "verified": true
                }
            },
            "committer": {
                "avatar_url": "https://avatars.githubusercontent.com/u/19864447?v=4",
                "events_url": "https://api.github.com/users/web-flow/events{/privacy}",
                "followers_url": "https://api.github.com/users/web-flow/followers",
                "following_url": "https://api.github.com/users/web-flow/following{/other_user}",
                "gists_url": "https://api.github.com/users/web-flow/gists{/gist_id}",
                "gravatar_id": "",
                "html_url": "https://github.com/web-flow",
                "id": 19864447,
                "login": "web-flow",
                "node_id": "MDQ6VXNlcjE5ODY0NDQ3",
                "organizations_url": "https://api.github.com/users/web-flow/orgs",
                "received_events_url": "https://api.github.com/users/web-flow/received_events",
                "repos_url": "https://api.github.com/users/web-flow/repos",
                "site_admin": false,
                "starred_url": "https://api.github.com/users/web-flow/starred{/owner}{/repo}",
                "subscriptions_url": "https://api.github.com/users/web-flow/subscriptions",
                "type": "User",
                "url": "https://api.github.com/users/web-flow"
            },
            "html_url": "https://github.com/PrismarineJS/flying-squid/commit/44bbaa13cd748070c2c8f8cccf1b86495c19e6f9",
            "node_id": "MDY6Q29tbWl0MzM4NDI4NjY3OjQ0YmJhYTEzY2Q3NDgwNzBjMmM4ZjhjY2NmMWI4NjQ5NWMxOWU2Zjk=",
            "parents": [
                {
                    "html_url": "https://github.com/PrismarineJS/flying-squid/commit/aff7db050d22f339b9d9e512ef2b7f34cf4f1a77",
                    "sha": "aff7db050d22f339b9d9e512ef2b7f34cf4f1a77",
                    "url": "https://api.github.com/repos/PrismarineJS/flying-squid/commits/aff7db050d22f339b9d9e512ef2b7f34cf4f1a77"
                },
                {
                    "html_url": "https://github.com/PrismarineJS/flying-squid/commit/fe341862756f2b26b07febb8fd690391f32d70f2",
                    "sha": "fe341862756f2b26b07febb8fd690391f32d70f2",
                    "url": "https://api.github.com/repos/PrismarineJS/flying-squid/commits/fe341862756f2b26b07febb8fd690391f32d70f2"
                }
            ],
            "sha": "44bbaa13cd748070c2c8f8cccf1b86495c19e6f9",
            "url": "https://api.github.com/repos/PrismarineJS/flying-squid/commits/44bbaa13cd748070c2c8f8cccf1b86495c19e6f9"
        }
    ],
    "commits": 8,
    "commits_url": "https://api.github.com/repos/PrismarineJS/flying-squid/pulls/482/commits",
    "created_at": "2021-02-15T07:19:20Z",
    "deletions": 0,
    "diff_url": "https://github.com/PrismarineJS/flying-squid/pull/482.diff",
    "draft": false,
    "head": {
        "label": "u9g:master",
        "ref": "master",
        "repo": {
            "allow_forking": true,
            "archive_url": "https://api.github.com/repos/u9g/flying-squid/{archive_format}{/ref}",
            "archived": false,
            "assignees_url": "https://api.github.com/repos/u9g/flying-squid/assignees{/user}",
            "blobs_url": "https://api.github.com/repos/u9g/flying-squid/git/blobs{/sha}",
            "branches_url": "https://api.github.com/repos/u9g/flying-squid/branches{/branch}",
            "clone_url": "https://github.com/u9g/flying-squid.git",
            "collaborators_url": "https://api.github.com/repos/u9g/flying-squid/collaborators{/collaborator}",
            "comments_url": "https://api.github.com/repos/u9g/flying-squid/comments{/number}",
            "commits_url": "https://api.github.com/repos/u9g/flying-squid/commits{/sha}",
            "compare_url": "https://api.github.com/repos/u9g/flying-squid/compare/{base}...{head}",
            "contents_url": "https://api.github.com/repos/u9g/flying-squid/contents/{+path}",
            "contributors_url": "https://api.github.com/repos/u9g/flying-squid/contributors",
            "created_at": "2021-02-12T20:42:13Z",
            "default_branch": "master",
            "deployments_url": "https://api.github.com/repos/u9g/flying-squid/deployments",
            "description": "Create Minecraft servers with a powerful, stable, and high level JavaScript API.",
            "disabled": false,
            "downloads_url": "https://api.github.com/repos/u9g/flying-squid/downloads",
            "events_url": "https://api.github.com/repos/u9g/flying-squid/events",
            "fork": true,
            "forks": 0,
            "forks_count": 0,
            "forks_url": "https://api.github.com/repos/u9g/flying-squid/forks",
            "full_name": "u9g/flying-squid",
            "git_commits_url": "https://api.github.com/repos/u9g/flying-squid/git/commits{/sha}",
            "git_refs_url": "https://api.github.com/repos/u9g/flying-squid/git/refs{/sha}",
            "git_tags_url": "https://api.github.com/repos/u9g/flying-squid/git/tags{/sha}",
            "git_url": "git://github.com/u9g/flying-squid.git",
            "has_discussions": false,
            "has_downloads": true,
            "has_issues": false,
            "has_pages": false,
            "has_projects": true,
            "has_wiki": true,
            "homepage": "http://flying-squid.prismarine.js.org",
            "hooks_url": "https://api.github.com/repos/u9g/flying-squid/hooks",
            "html_url": "https://github.com/u9g/flying-squid",
            "id": 338428667,
            "is_template": false,
            "issue_comment_url": "https://api.github.com/repos/u9g/flying-squid/issues/comments{/number}",
            "issue_events_url": "https://api.github.com/repos/u9g/flying-squid/issues/events{/number}",
            "issues_url": "https://api.github.com/repos/u9g/flying-squid/issues{/number}",
            "keys_url": "https://api.github.com/repos/u9g/flying-squid/keys{/key_id}",
            "labels_url": "https://api.github.com/repos/u9g/flying-squid/labels{/name}",
            "language": "JavaScript",
            "languages_url": "https://api.github.com/repos/u9g/flying-squid/languages",
            "license": {
                "key": "mit",
                "name": "MIT License",
                "node_id": "MDc6TGljZW5zZTEz",
                "spdx_id": "MIT",
                "url": "https://api.github.com/licenses/mit"
            },
            "merges_url": "https://api.github.com/repos/u9g/flying-squid/merges",
            "milestones_url": "https://api.github.com/repos/u9g/flying-squid/milestones{/number}",
            "mirror_url": null,
            "name": "flying-squid",
            "node_id": "MDEwOlJlcG9zaXRvcnkzMzg0Mjg2Njc=",
            "notifications_url": "https://api.github.com/repos/u9g/flying-squid/notifications{?since,all,participating}",
            "open_issues": 2,
            "open_issues_count": 2,
            "owner": {
                "avatar_url": "https://avatars.githubusercontent.com/u/43508353?v=4",
                "events_url": "https://api.github.com/users/u9g/events{/privacy}",
                "followers_url": "https://api.github.com/users/u9g/followers",
                "following_url": "https://api.github.com/users/u9g/following{/other_user}",
                "gists_url": "https://api.github.com/users/u9g/gists{/gist_id}",
                "gravatar_id": "",
                "html_url": "https://github.com/u9g",
                "id": 43508353,
                "login": "u9g",
                "node_id": "MDQ6VXNlcjQzNTA4MzUz",
                "organizations_url": "https://api.github.com/users/u9g/orgs",
                "received_events_url": "https://api.github.com/users/u9g/received_events",
                "repos_url": "https://api.github.com/users/u9g/repos",
                "site_admin": false,
                "starred_url": "https://api.github.com/users/u9g/starred{/owner}{/repo}",
                "subscriptions_url": "https://api.github.com/users/u9g/subscriptions",
                "type": "User",
                "url": "https://api.github.com/users/u9g"
            },
            "private": false,
            "pulls_url": "https://api.github.com/repos/u9g/flying-squid/pulls{/number}",
            "pushed_at": "2023-04-10T01:09:45Z",
            "releases_url": "https://api.github.com/repos/u9g/flying-squid/releases{/id}",
            "size": 1118,
            "ssh_url": "git@github.com:u9g/flying-squid.git",
            "stargazers_count": 0,
            "stargazers_url": "https://api.github.com/repos/u9g/flying-squid/stargazers",
            "statuses_url": "https://api.github.com/repos/u9g/flying-squid/statuses/{sha}",
            "subscribers_url": "https://api.github.com/repos/u9g/flying-squid/subscribers",
            "subscription_url": "https://api.github.com/repos/u9g/flying-squid/subscription",
            "svn_url": "https://github.com/u9g/flying-squid",
            "tags_url": "https://api.github.com/repos/u9g/flying-squid/tags",
            "teams_url": "https://api.github.com/repos/u9g/flying-squid/teams",
            "topics": [],
            "trees_url": "https://api.github.com/repos/u9g/flying-squid/git/trees{/sha}",
            "updated_at": "2022-03-24T13:42:34Z",
            "url": "https://api.github.com/repos/u9g/flying-squid",
            "visibility": "public",
            "watchers": 0,
            "watchers_count": 0,
            "web_commit_signoff_required": false
        },
        "sha": "44bbaa13cd748070c2c8f8cccf1b86495c19e6f9",
        "user": {
            "avatar_url": "https://avatars.githubusercontent.com/u/43508353?v=4",
            "events_url": "https://api.github.com/users/u9g/events{/privacy}",
            "followers_url": "https://api.github.com/users/u9g/followers",
            "following_url": "https://api.github.com/users/u9g/following{/other_user}",
            "gists_url": "https://api.github.com/users/u9g/gists{/gist_id}",
            "gravatar_id": "",
            "html_url": "https://github.com/u9g",
            "id": 43508353,
            "login": "u9g",
            "node_id": "MDQ6VXNlcjQzNTA4MzUz",
            "organizations_url": "https://api.github.com/users/u9g/orgs",
            "received_events_url": "https://api.github.com/users/u9g/received_events",
            "repos_url": "https://api.github.com/users/u9g/repos",
            "site_admin": false,
            "starred_url": "https://api.github.com/users/u9g/starred{/owner}{/repo}",
            "subscriptions_url": "https://api.github.com/users/u9g/subscriptions",
            "type": "User",
            "url": "https://api.github.com/users/u9g"
        }
    },
    "html_url": "https://github.com/PrismarineJS/flying-squid/pull/482",
    "id": 573329743,
    "issue_url": "https://api.github.com/repos/PrismarineJS/flying-squid/issues/482",
    "labels": [],
    "locked": false,
    "maintainer_can_modify": false,
    "merge_commit_sha": "26891f716ffee07a27a0989c0be6786856800ac6",
    "mergeable": null,
    "mergeable_state": "unknown",
    "merged": false,
    "merged_at": null,
    "merged_by": null,
    "milestone": null,
    "node_id": "MDExOlB1bGxSZXF1ZXN0NTczMzI5NzQz",
    "number": 482,
    "patch_url": "https://github.com/PrismarineJS/flying-squid/pull/482.patch",
    "rebaseable": null,
    "requested_reviewers": [],
    "requested_teams": [],
    "review_comment_url": "https://api.github.com/repos/PrismarineJS/flying-squid/pulls/comments{/number}",
    "review_comments": 0,
    "review_comments_url": "https://api.github.com/repos/PrismarineJS/flying-squid/pulls/482/comments",
    "state": "closed",
    "statuses_url": "https://api.github.com/repos/PrismarineJS/flying-squid/statuses/44bbaa13cd748070c2c8f8cccf1b86495c19e6f9",
    "title": "merge",
    "updated_at": "2021-02-15T07:19:37Z",
    "url": "https://api.github.com/repos/PrismarineJS/flying-squid/pulls/482",
    "user": {
        "avatar_url": "https://avatars.githubusercontent.com/u/43508353?v=4",
        "events_url": "https://api.github.com/users/u9g/events{/privacy}",
        "followers_url": "https://api.github.com/users/u9g/followers",
        "following_url": "https://api.github.com/users/u9g/following{/other_user}",
        "gists_url": "https://api.github.com/users/u9g/gists{/gist_id}",
        "gravatar_id": "",
        "html_url": "https://github.com/u9g",
        "id": 43508353,
        "login": "u9g",
        "node_id": "MDQ6VXNlcjQzNTA4MzUz",
        "organizations_url": "https://api.github.com/users/u9g/orgs",
        "received_events_url": "https://api.github.com/users/u9g/received_events",
        "repos_url": "https://api.github.com/users/u9g/repos",
        "site_admin": false,
        "starred_url": "https://api.github.com/users/u9g/starred{/owner}{/repo}",
        "subscriptions_url": "https://api.github.com/users/u9g/subscriptions",
        "type": "User",
        "url": "https://api.github.com/users/u9g"
    }
}