{
    "_links": {
        "comments": {
            "href": "https://api.github.com/repos/PrismarineJS/flying-squid/issues/510/comments"
        },
        "commits": {
            "href": "https://api.github.com/repos/PrismarineJS/flying-squid/pulls/510/commits"
        },
        "html": {
            "href": "https://github.com/PrismarineJS/flying-squid/pull/510"
        },
        "issue": {
            "href": "https://api.github.com/repos/PrismarineJS/flying-squid/issues/510"
        },
        "review_comment": {
            "href": "https://api.github.com/repos/PrismarineJS/flying-squid/pulls/comments{/number}"
        },
        "review_comments": {
            "href": "https://api.github.com/repos/PrismarineJS/flying-squid/pulls/510/comments"
        },
        "self": {
            "href": "https://api.github.com/repos/PrismarineJS/flying-squid/pulls/510"
        },
        "statuses": {
            "href": "https://api.github.com/repos/PrismarineJS/flying-squid/statuses/58ade8f69552443e2bea1fb6a85951338ad60236"
        }
    },
    "active_lock_reason": null,
    "additions": 1,
    "assignee": null,
    "assignees": [],
    "author_association": "CONTRIBUTOR",
    "auto_merge": null,
    "base": {
        "label": "PrismarineJS:master",
        "ref": "master",
        "repo": {
            "allow_forking": true,
            "archive_url": "https://api.github.com/repos/PrismarineJS/flying-squid/{archive_format}{/ref}",
            "archived": false,
            "assignees_url": "https://api.github.com/repos/PrismarineJS/flying-squid/assignees{/user}",
            "blobs_url": "https://api.github.com/repos/PrismarineJS/flying-squid/git/blobs{/sha}",
            "branches_url": "https://api.github.com/repos/PrismarineJS/flying-squid/branches{/branch}",
            "clone_url": "https://github.com/PrismarineJS/flying-squid.git",
            "collaborators_url": "https://api.github.com/repos/PrismarineJS/flying-squid/collaborators{/collaborator}",
            "comments_url": "https://api.github.com/repos/PrismarineJS/flying-squid/comments{/number}",
            "commits_url": "https://api.github.com/repos/PrismarineJS/flying-squid/commits{/sha}",
            "compare_url": "https://api.github.com/repos/PrismarineJS/flying-squid/compare/{base}...{head}",
            "contents_url": "https://api.github.com/repos/PrismarineJS/flying-squid/contents/{+path}",
            "contributors_url": "https://api.github.com/repos/PrismarineJS/flying-squid/contributors",
            "created_at": "2015-08-25T23:30:19Z",
            "default_branch": "master",
            "deployments_url": "https://api.github.com/repos/PrismarineJS/flying-squid/deployments",
            "description": "Create Minecraft servers with a powerful, stable, and high level JavaScript API.",
            "disabled": false,
            "downloads_url": "https://api.github.com/repos/PrismarineJS/flying-squid/downloads",
            "events_url": "https://api.github.com/repos/PrismarineJS/flying-squid/events",
            "fork": false,
            "forks": 86,
            "forks_count": 86,
            "forks_url": "https://api.github.com/repos/PrismarineJS/flying-squid/forks",
            "full_name": "PrismarineJS/flying-squid",
            "git_commits_url": "https://api.github.com/repos/PrismarineJS/flying-squid/git/commits{/sha}",
            "git_refs_url": "https://api.github.com/repos/PrismarineJS/flying-squid/git/refs{/sha}",
            "git_tags_url": "https://api.github.com/repos/PrismarineJS/flying-squid/git/tags{/sha}",
            "git_url": "git://github.com/PrismarineJS/flying-squid.git",
            "has_discussions": false,
            "has_downloads": true,
            "has_issues": true,
            "has_pages": true,
            "has_projects": true,
            "has_wiki": true,
            "homepage": "https://prismarinejs.github.io/flying-squid/",
            "hooks_url": "https://api.github.com/repos/PrismarineJS/flying-squid/hooks",
            "html_url": "https://github.com/PrismarineJS/flying-squid",
            "id": 41393164,
            "is_template": false,
            "issue_comment_url": "https://api.github.com/repos/PrismarineJS/flying-squid/issues/comments{/number}",
            "issue_events_url": "https://api.github.com/repos/PrismarineJS/flying-squid/issues/events{/number}",
            "issues_url": "https://api.github.com/repos/PrismarineJS/flying-squid/issues{/number}",
            "keys_url": "https://api.github.com/repos/PrismarineJS/flying-squid/keys{/key_id}",
            "labels_url": "https://api.github.com/repos/PrismarineJS/flying-squid/labels{/name}",
            "language": "JavaScript",
            "languages_url": "https://api.github.com/repos/PrismarineJS/flying-squid/languages",
            "license": {
                "key": "mit",
                "name": "MIT License",
                "node_id": "MDc6TGljZW5zZTEz",
                "spdx_id": "MIT",
                "url": "https://api.github.com/licenses/mit"
            },
            "merges_url": "https://api.github.com/repos/PrismarineJS/flying-squid/merges",
            "milestones_url": "https://api.github.com/repos/PrismarineJS/flying-squid/milestones{/number}",
            "mirror_url": null,
            "name": "flying-squid",
            "node_id": "MDEwOlJlcG9zaXRvcnk0MTM5MzE2NA==",
            "notifications_url": "https://api.github.com/repos/PrismarineJS/flying-squid/notifications{?since,all,participating}",
            "open_issues": 105,
            "open_issues_count": 105,
            "owner": {
                "avatar_url": "https://avatars.githubusercontent.com/u/11053411?v=4",
                "events_url": "https://api.github.com/users/PrismarineJS/events{/privacy}",
                "followers_url": "https://api.github.com/users/PrismarineJS/followers",
                "following_url": "https://api.github.com/users/PrismarineJS/following{/other_user}",
                "gists_url": "https://api.github.com/users/PrismarineJS/gists{/gist_id}",
                "gravatar_id": "",
                "html_url": "https://github.com/PrismarineJS",
                "id": 11053411,
                "login": "PrismarineJS",
                "node_id": "MDEyOk9yZ2FuaXphdGlvbjExMDUzNDEx",
                "organizations_url": "https://api.github.com/users/PrismarineJS/orgs",
                "received_events_url": "https://api.github.com/users/PrismarineJS/received_events",
                "repos_url": "https://api.github.com/users/PrismarineJS/repos",
                "site_admin": false,
                "starred_url": "https://api.github.com/users/PrismarineJS/starred{/owner}{/repo}",
                "subscriptions_url": "https://api.github.com/users/PrismarineJS/subscriptions",
                "type": "Organization",
                "url": "https://api.github.com/users/PrismarineJS"
            },
            "private": false,
            "pulls_url": "https://api.github.com/repos/PrismarineJS/flying-squid/pulls{/number}",
            "pushed_at": "2023-04-25T07:58:15Z",
            "releases_url": "https://api.github.com/repos/PrismarineJS/flying-squid/releases{/id}",
            "size": 1044,
            "ssh_url": "git@github.com:PrismarineJS/flying-squid.git",
            "stargazers_count": 471,
            "stargazers_url": "https://api.github.com/repos/PrismarineJS/flying-squid/stargazers",
            "statuses_url": "https://api.github.com/repos/PrismarineJS/flying-squid/statuses/{sha}",
            "subscribers_url": "https://api.github.com/repos/PrismarineJS/flying-squid/subscribers",
            "subscription_url": "https://api.github.com/repos/PrismarineJS/flying-squid/subscription",
            "svn_url": "https://github.com/PrismarineJS/flying-squid",
            "tags_url": "https://api.github.com/repos/PrismarineJS/flying-squid/tags",
            "teams_url": "https://api.github.com/repos/PrismarineJS/flying-squid/teams",
            "topics": [
                "game",
                "minecraft",
                "minecraft-server",
                "protocol",
                "server",
                "voxel"
            ],
            "trees_url": "https://api.github.com/repos/PrismarineJS/flying-squid/git/trees{/sha}",
            "updated_at": "2023-04-20T15:15:59Z",
            "url": "https://api.github.com/repos/PrismarineJS/flying-squid",
            "visibility": "public",
            "watchers": 471,
            "watchers_count": 471,
            "web_commit_signoff_required": false
        },
        "sha": "73dd100d6f29c9e8b053e6f176da339254df102f",
        "user": {
            "avatar_url": "https://avatars.githubusercontent.com/u/11053411?v=4",
            "events_url": "https://api.github.com/users/PrismarineJS/events{/privacy}",
            "followers_url": "https://api.github.com/users/PrismarineJS/followers",
            "following_url": "https://api.github.com/users/PrismarineJS/following{/other_user}",
            "gists_url": "https://api.github.com/users/PrismarineJS/gists{/gist_id}",
            "gravatar_id": "",
            "html_url": "https://github.com/PrismarineJS",
            "id": 11053411,
            "login": "PrismarineJS",
            "node_id": "MDEyOk9yZ2FuaXphdGlvbjExMDUzNDEx",
            "organizations_url": "https://api.github.com/users/PrismarineJS/orgs",
            "received_events_url": "https://api.github.com/users/PrismarineJS/received_events",
            "repos_url": "https://api.github.com/users/PrismarineJS/repos",
            "site_admin": false,
            "starred_url": "https://api.github.com/users/PrismarineJS/starred{/owner}{/repo}",
            "subscriptions_url": "https://api.github.com/users/PrismarineJS/subscriptions",
            "type": "Organization",
            "url": "https://api.github.com/users/PrismarineJS"
        }
    },
    "body": "Bumps [jest](https://github.com/facebook/jest) from 26.6.3 to 27.0.5.\n<details>\n<summary>Release notes</summary>\n<p><em>Sourced from <a href=\"https://github.com/facebook/jest/releases\">jest's releases</a>.</em></p>\n<blockquote>\n<h2>27.0.5</h2>\n<h3>Features</h3>\n<ul>\n<li><code>[@jest/fake-timers]</code> Flush callbacks scheduled with <code>requestAnimationFrame</code> every 16ms when using legacy timers. (<a href=\"https://github-redirect.dependabot.com/facebook/jest/pull/11567\">#11523</a>)</li>\n<li><code>[pretty-format]</code> Use <code>globalThis</code> (with polyfill if required) to bring support for esbuild's browser bundling mode (<a href=\"https://github-redirect.dependabot.com/facebook/jest/pull/11569\">#11569</a></li>\n</ul>\n<h3>Fixes</h3>\n<ul>\n<li><code>[jest-core]</code> Support special characters like <code>@</code>, <code>+</code> and <code>()</code> on Windows with <code>--findRelatedTests</code> (<a href=\"https://github-redirect.dependabot.com/facebook/jest/pull/11548\">#11548</a>)</li>\n<li><code>[@jest/fake-timers]</code> Do not add <code>setImmediate</code> and <code>clearImmediate</code> if they do not exist in the global environment (<a href=\"https://github-redirect.dependabot.com/facebook/jest/pull/11599\">#11599</a>)</li>\n<li><code>[@jest/reporters]</code> Allow <code>node-notifier@10</code> as peer dependency (<a href=\"https://github-redirect.dependabot.com/facebook/jest/pull/11523\">#11523</a>)</li>\n<li><code>[@jest/reporters]</code> Update <code>v8-to-istanbul</code> (<a href=\"https://github-redirect.dependabot.com/facebook/jest/pull/11523\">#11523</a>)</li>\n</ul>\n<h2>27.0.4</h2>\n<h3>Fixes</h3>\n<ul>\n<li><code>[jest-config, jest-resolve]</code> Pass in <code>require.resolve</code> to resolvers to resolve from correct base (<a href=\"https://github-redirect.dependabot.com/facebook/jest/pull/11493\">#11493</a>)</li>\n</ul>\n<h2>27.0.3</h2>\n<h3>Fixes</h3>\n<ul>\n<li><code>[jest-config]</code> <code>require.resolve</code> on default test sequencer and test environment (<a href=\"https://github-redirect.dependabot.com/facebook/jest/pull/11482\">#11482</a>)</li>\n<li><code>[jest-mock]</code> Fixed <code>fn</code> and <code>spyOn</code> exports (<a href=\"https://github-redirect.dependabot.com/facebook/jest/pull/11480\">#11480</a>)</li>\n</ul>\n<h2>27.0.2</h2>\n<h3>Features</h3>\n<ul>\n<li><code>[jest-circus]</code> Add some APIs to make it easier to build your own test runner</li>\n<li><code>[jest-reporters]</code> Expose the <code>getResultHeader</code> util (<a href=\"https://github-redirect.dependabot.com/facebook/jest/pull/11460\">#11460</a>)</li>\n<li><code>[jest-resolver]</code> Export <code>resolve*</code> utils for different Jest modules (<a href=\"https://github-redirect.dependabot.com/facebook/jest/pull/11466\">#11466</a>)</li>\n<li><code>[@jest/test-result]</code> Export <code>Test</code>, <code>TestEvents</code> and <code>TestFileEvent</code> (<a href=\"https://github-redirect.dependabot.com/facebook/jest/pull/11466\">#11466</a>)</li>\n</ul>\n<h3>Fixes</h3>\n<ul>\n<li><code>[jest-circus]</code> Add missing <code>slash</code> dependency (<a href=\"https://github-redirect.dependabot.com/facebook/jest/pull/11465\">#11465</a>)</li>\n<li><code>[jest-circus, @jest/test-sequencer]</code> Remove dependency on <code>jest-runner</code> (<a href=\"https://github-redirect.dependabot.com/facebook/jest/pull/11466\">#11466</a>)</li>\n<li><code>[jest-config]</code> Resolve <code>config.runner</code> to absolute path (<a href=\"https://github-redirect.dependabot.com/facebook/jest/pull/11465\">#11465</a>)</li>\n<li><code>[jest-config]</code> Make sure to support functions as config (<a href=\"https://github-redirect.dependabot.com/facebook/jest/pull/11475\">#11475</a>)</li>\n<li><code>[jest-core]</code> Do not warn about <code>DNSCHANNEL</code> handles when using the <code>--detectOpenHandles</code> option (<a href=\"https://github-redirect.dependabot.com/facebook/jest/pull/11470\">#11470</a>)</li>\n<li><code>[jest-runner]</code> Remove dependency on <code>jest-config</code> (<a href=\"https://github-redirect.dependabot.com/facebook/jest/pull/11466\">#11466</a>)</li>\n<li><code>[jest-worker]</code> Loosen engine requirement to <code>&gt;= 10.13.0</code> (<a href=\"https://github-redirect.dependabot.com/facebook/jest/pull/11451\">#11451</a>)</li>\n</ul>\n<h2>27.0.1</h2>\n<h3>Fixes</h3>\n<ul>\n<li><code>[jest-environment-jsdom]</code> Bump version of JSDOM to avoid deprecated <code>request</code> package (<a href=\"https://github-redirect.dependabot.com/facebook/jest/pull/11442\">#11442</a>)</li>\n</ul>\n<h2>27.0.0</h2>\n<p><a href=\"https://jestjs.io/blog/2021/03/09/jest-website-upgrade\">Blog post</a></p>\n<!-- raw HTML omitted -->\n</blockquote>\n<p>... (truncated)</p>\n</details>\n<details>\n<summary>Changelog</summary>\n<p><em>Sourced from <a href=\"https://github.com/facebook/jest/blob/master/CHANGELOG.md\">jest's changelog</a>.</em></p>\n<blockquote>\n<h2>27.0.5</h2>\n<h3>Features</h3>\n<ul>\n<li><code>[@jest/fake-timers]</code> Flush callbacks scheduled with <code>requestAnimationFrame</code> every 16ms when using legacy timers. (<a href=\"https://github-redirect.dependabot.com/facebook/jest/pull/11567\">#11523</a>)</li>\n<li><code>[pretty-format]</code> Use <code>globalThis</code> (with polyfill if required) to bring support for esbuild's browser bundling mode (<a href=\"https://github-redirect.dependabot.com/facebook/jest/pull/11569\">#11569</a></li>\n</ul>\n<h3>Fixes</h3>\n<ul>\n<li><code>[jest-core]</code> Support special characters like <code>@</code>, <code>+</code> and <code>()</code> on Windows with <code>--findRelatedTests</code> (<a href=\"https://github-redirect.dependabot.com/facebook/jest/pull/11548\">#11548</a>)</li>\n<li><code>[@jest/fake-timers]</code> Do not add <code>setImmediate</code> and <code>clearImmediate</code> if they do not exist in the global environment (<a href=\"https://github-redirect.dependabot.com/facebook/jest/pull/11599\">#11599</a>)</li>\n<li><code>[@jest/reporters]</code> Allow <code>node-notifier@10</code> as peer dependency (<a href=\"https://github-redirect.dependabot.com/facebook/jest/pull/11523\">#11523</a>)</li>\n<li><code>[@jest/reporters]</code> Update <code>v8-to-istanbul</code> (<a href=\"https://github-redirect.dependabot.com/facebook/jest/pull/11523\">#11523</a>)</li>\n</ul>\n<h2>27.0.4</h2>\n<h3>Fixes</h3>\n<ul>\n<li><code>[jest-config, jest-resolve]</code> Pass in <code>require.resolve</code> to resolvers to resolve from correct base (<a href=\"https://github-redirect.dependabot.com/facebook/jest/pull/11493\">#11493</a>)</li>\n</ul>\n<h2>27.0.3</h2>\n<h3>Fixes</h3>\n<ul>\n<li><code>[jest-config]</code> <code>require.resolve</code> on default test sequencer and test environment (<a href=\"https://github-redirect.dependabot.com/facebook/jest/pull/11482\">#11482</a>)</li>\n<li><code>[jest-mock]</code> Fixed <code>fn</code> and <code>spyOn</code> exports (<a href=\"https://github-redirect.dependabot.com/facebook/jest/pull/11480\">#11480</a>)</li>\n</ul>\n<h2>27.0.2</h2>\n<h3>Features</h3>\n<ul>\n<li><code>[jest-circus]</code> Add some APIs to make it easier to build your own test runner</li>\n<li><code>[jest-reporters]</code> Expose the <code>getResultHeader</code> util (<a href=\"https://github-redirect.dependabot.com/facebook/jest/pull/11460\">#11460</a>)</li>\n<li><code>[jest-resolver]</code> Export <code>resolve*</code> utils for different Jest modules (<a href=\"https://github-redirect.dependabot.com/facebook/jest/pull/11466\">#11466</a>)</li>\n<li><code>[@jest/test-result]</code> Export <code>Test</code>, <code>TestEvents</code> and <code>TestFileEvent</code> (<a href=\"https://github-redirect.dependabot.com/facebook/jest/pull/11466\">#11466</a>)</li>\n</ul>\n<h3>Fixes</h3>\n<ul>\n<li><code>[jest-circus]</code> Add missing <code>slash</code> dependency (<a href=\"https://github-redirect.dependabot.com/facebook/jest/pull/11465\">#11465</a>)</li>\n<li><code>[jest-circus, @jest/test-sequencer]</code> Remove dependency on <code>jest-runner</code> (<a href=\"https://github-redirect.dependabot.com/facebook/jest/pull/11466\">#11466</a>)</li>\n<li><code>[jest-config]</code> Resolve <code>config.runner</code> to absolute path (<a href=\"https://github-redirect.dependabot.com/facebook/jest/pull/11465\">#11465</a>)</li>\n<li><code>[jest-config]</code> Make sure to support functions as config (<a href=\"https://github-redirect.dependabot.com/facebook/jest/pull/11475\">#11475</a>)</li>\n<li><code>[jest-core]</code> Do not warn about <code>DNSCHANNEL</code> handles when using the <code>--detectOpenHandles</code> option (<a href=\"https://github-redirect.dependabot.com/facebook/jest/pull/11470\">#11470</a>)</li>\n<li><code>[jest-runner]</code> Remove dependency on <code>jest-config</code> (<a href=\"https://github-redirect.dependabot.com/facebook/jest/pull/11466\">#11466</a>)</li>\n<li><code>[jest-worker]</code> Loosen engine requirement to <code>&gt;= 10.13.0</code> (<a href=\"https://github-redirect.dependabot.com/facebook/jest/pull/11451\">#11451</a>)</li>\n</ul>\n<h2>27.0.1</h2>\n<h3>Fixes</h3>\n<!-- raw HTML omitted -->\n</blockquote>\n<p>... (truncated)</p>\n</details>\n<details>\n<summary>Commits</summary>\n<ul>\n<li><a href=\"https://github.com/facebook/jest/commit/dafa4737dc02887314fd99e4be92781c9f8f9415\"><code>dafa473</code></a> v27.0.5</li>\n<li><a href=\"https://github.com/facebook/jest/commit/83a7ca3def185e4f30d62f976f727a88aeda07ce\"><code>83a7ca3</code></a> chore: update changelog for release</li>\n<li><a href=\"https://github.com/facebook/jest/commit/63735298887ae02a9e403e4395f59f4db647112c\"><code>6373529</code></a> fix(legacy-timers): Do not add <code>setImmediate</code> and <code>clearImmediate</code> if they do...</li>\n<li><a href=\"https://github.com/facebook/jest/commit/e5f9f2197be4dc7663987d313fc8f173be626f53\"><code>e5f9f21</code></a> chore(docs): run prettier</li>\n<li><a href=\"https://github.com/facebook/jest/commit/6826764078cdcc5ea10033c69e8687b4594b1f73\"><code>6826764</code></a> chore(docs): correct generated mock example</li>\n<li><a href=\"https://github.com/facebook/jest/commit/6308b6c8e43b0f2a4301c224b6c2177dd3270fc9\"><code>6308b6c</code></a> Fix docs: Update MockFunctions.md (<a href=\"https://github-redirect.dependabot.com/facebook/jest/issues/11556\">#11556</a>)</li>\n<li><a href=\"https://github.com/facebook/jest/commit/0a210dc434fe1658f328d493064a8f08829b8925\"><code>0a210dc</code></a> docs: enable syntax highlighting to a code block (<a href=\"https://github-redirect.dependabot.com/facebook/jest/issues/11594\">#11594</a>)</li>\n<li><a href=\"https://github.com/facebook/jest/commit/7be63ef9a2ed03d533c4f485a4022c998c3dcbc1\"><code>7be63ef</code></a> Use <code>globalThis</code> (with fallback if needed) instead of <code>global</code> to enable esbu...</li>\n<li><a href=\"https://github.com/facebook/jest/commit/012f9f07af326de4976d69bd10062efb7f2e40a8\"><code>012f9f0</code></a> chore: run prettier on documentation files</li>\n<li><a href=\"https://github.com/facebook/jest/commit/6df4ad4a8eb4f63fa4580d6f5664f43762940379\"><code>6df4ad4</code></a> Fix documentation typo s/looke/look/ (<a href=\"https://github-redirect.dependabot.com/facebook/jest/issues/11553\">#11553</a>)</li>\n<li>Additional commits viewable in <a href=\"https://github.com/facebook/jest/compare/v26.6.3...v27.0.5\">compare view</a></li>\n</ul>\n</details>\n<br />\n\n\n[![Dependabot compatibility score](https://dependabot-badges.githubapp.com/badges/compatibility_score?dependency-name=jest&package-manager=npm_and_yarn&previous-version=26.6.3&new-version=27.0.5)](https://docs.github.com/en/github/managing-security-vulnerabilities/about-dependabot-security-updates#about-compatibility-scores)\n\nDependabot will resolve any conflicts with this PR as long as you don't alter it yourself. You can also trigger a rebase manually by commenting `@dependabot rebase`.\n\n[//]: # (dependabot-automerge-start)\n[//]: # (dependabot-automerge-end)\n\n---\n\n<details>\n<summary>Dependabot commands and options</summary>\n<br />\n\nYou can trigger Dependabot actions by commenting on this PR:\n- `@dependabot rebase` will rebase this PR\n- `@dependabot recreate` will recreate this PR, overwriting any edits that have been made to it\n- `@dependabot merge` will merge this PR after your CI passes on it\n- `@dependabot squash and merge` will squash and merge this PR after your CI passes on it\n- `@dependabot cancel merge` will cancel a previously requested merge and block automerging\n- `@dependabot reopen` will reopen this PR if it is closed\n- `@dependabot close` will close this PR and stop Dependabot recreating it. You can achieve the same result by closing it manually\n- `@dependabot ignore this major version` will close this PR and stop Dependabot creating any more for this major version (unless you reopen the PR or upgrade to it yourself)\n- `@dependabot ignore this minor version` will close this PR and stop Dependabot creating any more for this minor version (unless you reopen the PR or upgrade to it yourself)\n- `@dependabot ignore this dependency` will close this PR and stop Dependabot creating any more for this dependency (unless you reopen the PR or upgrade to it yourself)\n\n\n</details>",
    "changed_files": 1,
    "closed_at": "2021-06-23T13:28:58Z",
    "comment_data": [],
    "comment_regular_data": [
        {
            "author_association": "CONTRIBUTOR",
            "body": "OK, I won't notify you again about this release, but will get in touch when a new version is available. If you'd rather skip all updates until the next major or minor version, let me know by commenting `@dependabot ignore this major version` or `@dependabot ignore this minor version`. You can also ignore all major, minor, or patch releases for a dependency by adding an [`ignore` condition](https://docs.github.com/en/code-security/supply-chain-security/configuration-options-for-dependency-updates#ignore) with the desired `update_types` to your config file.\n\nIf you change your mind, just re-open this PR and I'll resolve any conflicts on it.",
            "created_at": "2021-06-23T13:29:00Z",
            "html_url": "https://github.com/PrismarineJS/flying-squid/pull/510#issuecomment-866836390",
            "id": 866836390,
            "issue_url": "https://api.github.com/repos/PrismarineJS/flying-squid/issues/510",
            "node_id": "MDEyOklzc3VlQ29tbWVudDg2NjgzNjM5MA==",
            "performed_via_github_app": null,
            "reactions": {
                "+1": 0,
                "-1": 0,
                "confused": 0,
                "eyes": 0,
                "heart": 0,
                "hooray": 0,
                "laugh": 0,
                "rocket": 0,
                "total_count": 0,
                "url": "https://api.github.com/repos/PrismarineJS/flying-squid/issues/comments/866836390/reactions"
            },
            "updated_at": "2021-06-23T13:29:00Z",
            "url": "https://api.github.com/repos/PrismarineJS/flying-squid/issues/comments/866836390",
            "user": {
                "avatar_url": "https://avatars.githubusercontent.com/in/29110?v=4",
                "events_url": "https://api.github.com/users/dependabot%5Bbot%5D/events{/privacy}",
                "followers_url": "https://api.github.com/users/dependabot%5Bbot%5D/followers",
                "following_url": "https://api.github.com/users/dependabot%5Bbot%5D/following{/other_user}",
                "gists_url": "https://api.github.com/users/dependabot%5Bbot%5D/gists{/gist_id}",
                "gravatar_id": "",
                "html_url": "https://github.com/apps/dependabot",
                "id": 49699333,
                "login": "dependabot[bot]",
                "node_id": "MDM6Qm90NDk2OTkzMzM=",
                "organizations_url": "https://api.github.com/users/dependabot%5Bbot%5D/orgs",
                "received_events_url": "https://api.github.com/users/dependabot%5Bbot%5D/received_events",
                "repos_url": "https://api.github.com/users/dependabot%5Bbot%5D/repos",
                "site_admin": false,
                "starred_url": "https://api.github.com/users/dependabot%5Bbot%5D/starred{/owner}{/repo}",
                "subscriptions_url": "https://api.github.com/users/dependabot%5Bbot%5D/subscriptions",
                "type": "Bot",
                "url": "https://api.github.com/users/dependabot%5Bbot%5D"
            }
        }
    ],
    "comments": 1,
    "comments_url": "https://api.github.com/repos/PrismarineJS/flying-squid/issues/510/comments",
    "commit_data": [
        {
            "author": {
                "avatar_url": "https://avatars.githubusercontent.com/in/29110?v=4",
                "events_url": "https://api.github.com/users/dependabot%5Bbot%5D/events{/privacy}",
                "followers_url": "https://api.github.com/users/dependabot%5Bbot%5D/followers",
                "following_url": "https://api.github.com/users/dependabot%5Bbot%5D/following{/other_user}",
                "gists_url": "https://api.github.com/users/dependabot%5Bbot%5D/gists{/gist_id}",
                "gravatar_id": "",
                "html_url": "https://github.com/apps/dependabot",
                "id": 49699333,
                "login": "dependabot[bot]",
                "node_id": "MDM6Qm90NDk2OTkzMzM=",
                "organizations_url": "https://api.github.com/users/dependabot%5Bbot%5D/orgs",
                "received_events_url": "https://api.github.com/users/dependabot%5Bbot%5D/received_events",
                "repos_url": "https://api.github.com/users/dependabot%5Bbot%5D/repos",
                "site_admin": false,
                "starred_url": "https://api.github.com/users/dependabot%5Bbot%5D/starred{/owner}{/repo}",
                "subscriptions_url": "https://api.github.com/users/dependabot%5Bbot%5D/subscriptions",
                "type": "Bot",
                "url": "https://api.github.com/users/dependabot%5Bbot%5D"
            },
            "comments_url": "https://api.github.com/repos/PrismarineJS/flying-squid/commits/58ade8f69552443e2bea1fb6a85951338ad60236/comments",
            "commit": {
                "author": {
                    "date": "2021-06-23T07:13:03Z",
                    "email": "49699333+dependabot[bot]@users.noreply.github.com",
                    "name": "dependabot[bot]"
                },
                "comment_count": 0,
                "committer": {
                    "date": "2021-06-23T07:13:03Z",
                    "email": "noreply@github.com",
                    "name": "GitHub"
                },
                "message": "Bump jest from 26.6.3 to 27.0.5\n\nBumps [jest](https://github.com/facebook/jest) from 26.6.3 to 27.0.5.\n- [Release notes](https://github.com/facebook/jest/releases)\n- [Changelog](https://github.com/facebook/jest/blob/master/CHANGELOG.md)\n- [Commits](https://github.com/facebook/jest/compare/v26.6.3...v27.0.5)\n\n---\nupdated-dependencies:\n- dependency-name: jest\n  dependency-type: direct:development\n  update-type: version-update:semver-major\n...\n\nSigned-off-by: dependabot[bot] <support@github.com>",
                "tree": {
                    "sha": "abd591a08851a2369c87de9e75e69d2c79d61185",
                    "url": "https://api.github.com/repos/PrismarineJS/flying-squid/git/trees/abd591a08851a2369c87de9e75e69d2c79d61185"
                },
                "url": "https://api.github.com/repos/PrismarineJS/flying-squid/git/commits/58ade8f69552443e2bea1fb6a85951338ad60236",
                "verification": {
                    "payload": "tree abd591a08851a2369c87de9e75e69d2c79d61185\nparent 73dd100d6f29c9e8b053e6f176da339254df102f\nauthor dependabot[bot] <49699333+dependabot[bot]@users.noreply.github.com> 1624432383 +0000\ncommitter GitHub <noreply@github.com> 1624432383 +0000\n\nBump jest from 26.6.3 to 27.0.5\n\nBumps [jest](https://github.com/facebook/jest) from 26.6.3 to 27.0.5.\n- [Release notes](https://github.com/facebook/jest/releases)\n- [Changelog](https://github.com/facebook/jest/blob/master/CHANGELOG.md)\n- [Commits](https://github.com/facebook/jest/compare/v26.6.3...v27.0.5)\n\n---\nupdated-dependencies:\n- dependency-name: jest\n  dependency-type: direct:development\n  update-type: version-update:semver-major\n...\n\nSigned-off-by: dependabot[bot] <support@github.com>",
                    "reason": "valid",
                    "signature": "-----BEGIN PGP SIGNATURE-----\n\nwsBcBAABCAAQBQJg0t7/CRBK7hj4Ov3rIwAAxYwIAJNivhshQwbswA2rKIzGWQnX\ncdGAG2ZMbn3+e5vgHPc1KHe4SEyWJaXqXa9+uMcAQqXsRStNKYsjdGEvI/+0rBsN\njf8CWVh5gjgTUGoZjZmNBcMJRke2xC6vEz1awJf+u0HRiyZImBsweOxUh2CkHThs\n6TEFSAEYIixyUOuy31FOA85QdPgZfyhp3tYFBg3ntOiaoLEZhQEvhIiIYZptwZB5\nPG+zAmDePk7c8zmRPSUFvBaJ9+1D6Ib8wQgwkrHt5tBStgNt7+NxMd+MJ+5kEsFe\n6Y86EUYPhEjilZOfPzNJ9+TcBaQbw7u6gsBKRuZdqLsdcsuEIHLzxiI1n1/Ffpw=\n=rW9O\n-----END PGP SIGNATURE-----\n",
                    "verified": true
                }
            },
            "committer": {
                "avatar_url": "https://avatars.githubusercontent.com/u/19864447?v=4",
                "events_url": "https://api.github.com/users/web-flow/events{/privacy}",
                "followers_url": "https://api.github.com/users/web-flow/followers",
                "following_url": "https://api.github.com/users/web-flow/following{/other_user}",
                "gists_url": "https://api.github.com/users/web-flow/gists{/gist_id}",
                "gravatar_id": "",
                "html_url": "https://github.com/web-flow",
                "id": 19864447,
                "login": "web-flow",
                "node_id": "MDQ6VXNlcjE5ODY0NDQ3",
                "organizations_url": "https://api.github.com/users/web-flow/orgs",
                "received_events_url": "https://api.github.com/users/web-flow/received_events",
                "repos_url": "https://api.github.com/users/web-flow/repos",
                "site_admin": false,
                "starred_url": "https://api.github.com/users/web-flow/starred{/owner}{/repo}",
                "subscriptions_url": "https://api.github.com/users/web-flow/subscriptions",
                "type": "User",
                "url": "https://api.github.com/users/web-flow"
            },
            "html_url": "https://github.com/PrismarineJS/flying-squid/commit/58ade8f69552443e2bea1fb6a85951338ad60236",
            "node_id": "MDY6Q29tbWl0NDEzOTMxNjQ6NThhZGU4ZjY5NTUyNDQzZTJiZWExZmI2YTg1OTUxMzM4YWQ2MDIzNg==",
            "parents": [
                {
                    "html_url": "https://github.com/PrismarineJS/flying-squid/commit/73dd100d6f29c9e8b053e6f176da339254df102f",
                    "sha": "73dd100d6f29c9e8b053e6f176da339254df102f",
                    "url": "https://api.github.com/repos/PrismarineJS/flying-squid/commits/73dd100d6f29c9e8b053e6f176da339254df102f"
                }
            ],
            "sha": "58ade8f69552443e2bea1fb6a85951338ad60236",
            "url": "https://api.github.com/repos/PrismarineJS/flying-squid/commits/58ade8f69552443e2bea1fb6a85951338ad60236"
        }
    ],
    "commits": 1,
    "commits_url": "https://api.github.com/repos/PrismarineJS/flying-squid/pulls/510/commits",
    "created_at": "2021-06-23T07:13:04Z",
    "deletions": 1,
    "diff_url": "https://github.com/PrismarineJS/flying-squid/pull/510.diff",
    "draft": false,
    "head": {
        "label": "PrismarineJS:dependabot/npm_and_yarn/jest-27.0.5",
        "ref": "dependabot/npm_and_yarn/jest-27.0.5",
        "repo": {
            "allow_forking": true,
            "archive_url": "https://api.github.com/repos/PrismarineJS/flying-squid/{archive_format}{/ref}",
            "archived": false,
            "assignees_url": "https://api.github.com/repos/PrismarineJS/flying-squid/assignees{/user}",
            "blobs_url": "https://api.github.com/repos/PrismarineJS/flying-squid/git/blobs{/sha}",
            "branches_url": "https://api.github.com/repos/PrismarineJS/flying-squid/branches{/branch}",
            "clone_url": "https://github.com/PrismarineJS/flying-squid.git",
            "collaborators_url": "https://api.github.com/repos/PrismarineJS/flying-squid/collaborators{/collaborator}",
            "comments_url": "https://api.github.com/repos/PrismarineJS/flying-squid/comments{/number}",
            "commits_url": "https://api.github.com/repos/PrismarineJS/flying-squid/commits{/sha}",
            "compare_url": "https://api.github.com/repos/PrismarineJS/flying-squid/compare/{base}...{head}",
            "contents_url": "https://api.github.com/repos/PrismarineJS/flying-squid/contents/{+path}",
            "contributors_url": "https://api.github.com/repos/PrismarineJS/flying-squid/contributors",
            "created_at": "2015-08-25T23:30:19Z",
            "default_branch": "master",
            "deployments_url": "https://api.github.com/repos/PrismarineJS/flying-squid/deployments",
            "description": "Create Minecraft servers with a powerful, stable, and high level JavaScript API.",
            "disabled": false,
            "downloads_url": "https://api.github.com/repos/PrismarineJS/flying-squid/downloads",
            "events_url": "https://api.github.com/repos/PrismarineJS/flying-squid/events",
            "fork": false,
            "forks": 86,
            "forks_count": 86,
            "forks_url": "https://api.github.com/repos/PrismarineJS/flying-squid/forks",
            "full_name": "PrismarineJS/flying-squid",
            "git_commits_url": "https://api.github.com/repos/PrismarineJS/flying-squid/git/commits{/sha}",
            "git_refs_url": "https://api.github.com/repos/PrismarineJS/flying-squid/git/refs{/sha}",
            "git_tags_url": "https://api.github.com/repos/PrismarineJS/flying-squid/git/tags{/sha}",
            "git_url": "git://github.com/PrismarineJS/flying-squid.git",
            "has_discussions": false,
            "has_downloads": true,
            "has_issues": true,
            "has_pages": true,
            "has_projects": true,
            "has_wiki": true,
            "homepage": "https://prismarinejs.github.io/flying-squid/",
            "hooks_url": "https://api.github.com/repos/PrismarineJS/flying-squid/hooks",
            "html_url": "https://github.com/PrismarineJS/flying-squid",
            "id": 41393164,
            "is_template": false,
            "issue_comment_url": "https://api.github.com/repos/PrismarineJS/flying-squid/issues/comments{/number}",
            "issue_events_url": "https://api.github.com/repos/PrismarineJS/flying-squid/issues/events{/number}",
            "issues_url": "https://api.github.com/repos/PrismarineJS/flying-squid/issues{/number}",
            "keys_url": "https://api.github.com/repos/PrismarineJS/flying-squid/keys{/key_id}",
            "labels_url": "https://api.github.com/repos/PrismarineJS/flying-squid/labels{/name}",
            "language": "JavaScript",
            "languages_url": "https://api.github.com/repos/PrismarineJS/flying-squid/languages",
            "license": {
                "key": "mit",
                "name": "MIT License",
                "node_id": "MDc6TGljZW5zZTEz",
                "spdx_id": "MIT",
                "url": "https://api.github.com/licenses/mit"
            },
            "merges_url": "https://api.github.com/repos/PrismarineJS/flying-squid/merges",
            "milestones_url": "https://api.github.com/repos/PrismarineJS/flying-squid/milestones{/number}",
            "mirror_url": null,
            "name": "flying-squid",
            "node_id": "MDEwOlJlcG9zaXRvcnk0MTM5MzE2NA==",
            "notifications_url": "https://api.github.com/repos/PrismarineJS/flying-squid/notifications{?since,all,participating}",
            "open_issues": 105,
            "open_issues_count": 105,
            "owner": {
                "avatar_url": "https://avatars.githubusercontent.com/u/11053411?v=4",
                "events_url": "https://api.github.com/users/PrismarineJS/events{/privacy}",
                "followers_url": "https://api.github.com/users/PrismarineJS/followers",
                "following_url": "https://api.github.com/users/PrismarineJS/following{/other_user}",
                "gists_url": "https://api.github.com/users/PrismarineJS/gists{/gist_id}",
                "gravatar_id": "",
                "html_url": "https://github.com/PrismarineJS",
                "id": 11053411,
                "login": "PrismarineJS",
                "node_id": "MDEyOk9yZ2FuaXphdGlvbjExMDUzNDEx",
                "organizations_url": "https://api.github.com/users/PrismarineJS/orgs",
                "received_events_url": "https://api.github.com/users/PrismarineJS/received_events",
                "repos_url": "https://api.github.com/users/PrismarineJS/repos",
                "site_admin": false,
                "starred_url": "https://api.github.com/users/PrismarineJS/starred{/owner}{/repo}",
                "subscriptions_url": "https://api.github.com/users/PrismarineJS/subscriptions",
                "type": "Organization",
                "url": "https://api.github.com/users/PrismarineJS"
            },
            "private": false,
            "pulls_url": "https://api.github.com/repos/PrismarineJS/flying-squid/pulls{/number}",
            "pushed_at": "2023-04-25T07:58:15Z",
            "releases_url": "https://api.github.com/repos/PrismarineJS/flying-squid/releases{/id}",
            "size": 1044,
            "ssh_url": "git@github.com:PrismarineJS/flying-squid.git",
            "stargazers_count": 471,
            "stargazers_url": "https://api.github.com/repos/PrismarineJS/flying-squid/stargazers",
            "statuses_url": "https://api.github.com/repos/PrismarineJS/flying-squid/statuses/{sha}",
            "subscribers_url": "https://api.github.com/repos/PrismarineJS/flying-squid/subscribers",
            "subscription_url": "https://api.github.com/repos/PrismarineJS/flying-squid/subscription",
            "svn_url": "https://github.com/PrismarineJS/flying-squid",
            "tags_url": "https://api.github.com/repos/PrismarineJS/flying-squid/tags",
            "teams_url": "https://api.github.com/repos/PrismarineJS/flying-squid/teams",
            "topics": [
                "game",
                "minecraft",
                "minecraft-server",
                "protocol",
                "server",
                "voxel"
            ],
            "trees_url": "https://api.github.com/repos/PrismarineJS/flying-squid/git/trees{/sha}",
            "updated_at": "2023-04-20T15:15:59Z",
            "url": "https://api.github.com/repos/PrismarineJS/flying-squid",
            "visibility": "public",
            "watchers": 471,
            "watchers_count": 471,
            "web_commit_signoff_required": false
        },
        "sha": "58ade8f69552443e2bea1fb6a85951338ad60236",
        "user": {
            "avatar_url": "https://avatars.githubusercontent.com/u/11053411?v=4",
            "events_url": "https://api.github.com/users/PrismarineJS/events{/privacy}",
            "followers_url": "https://api.github.com/users/PrismarineJS/followers",
            "following_url": "https://api.github.com/users/PrismarineJS/following{/other_user}",
            "gists_url": "https://api.github.com/users/PrismarineJS/gists{/gist_id}",
            "gravatar_id": "",
            "html_url": "https://github.com/PrismarineJS",
            "id": 11053411,
            "login": "PrismarineJS",
            "node_id": "MDEyOk9yZ2FuaXphdGlvbjExMDUzNDEx",
            "organizations_url": "https://api.github.com/users/PrismarineJS/orgs",
            "received_events_url": "https://api.github.com/users/PrismarineJS/received_events",
            "repos_url": "https://api.github.com/users/PrismarineJS/repos",
            "site_admin": false,
            "starred_url": "https://api.github.com/users/PrismarineJS/starred{/owner}{/repo}",
            "subscriptions_url": "https://api.github.com/users/PrismarineJS/subscriptions",
            "type": "Organization",
            "url": "https://api.github.com/users/PrismarineJS"
        }
    },
    "html_url": "https://github.com/PrismarineJS/flying-squid/pull/510",
    "id": 676015063,
    "issue_url": "https://api.github.com/repos/PrismarineJS/flying-squid/issues/510",
    "labels": [
        {
            "color": "0366d6",
            "default": false,
            "description": "Pull requests that update a dependency file",
            "id": 2067071727,
            "name": "dependencies",
            "node_id": "MDU6TGFiZWwyMDY3MDcxNzI3",
            "url": "https://api.github.com/repos/PrismarineJS/flying-squid/labels/dependencies"
        }
    ],
    "locked": false,
    "maintainer_can_modify": false,
    "merge_commit_sha": "b8cb28a772c3577adb0dbd0ff16e59547f4941cf",
    "mergeable": null,
    "mergeable_state": "unknown",
    "merged": false,
    "merged_at": null,
    "merged_by": null,
    "milestone": null,
    "node_id": "MDExOlB1bGxSZXF1ZXN0Njc2MDE1MDYz",
    "number": 510,
    "patch_url": "https://github.com/PrismarineJS/flying-squid/pull/510.patch",
    "rebaseable": null,
    "requested_reviewers": [],
    "requested_teams": [],
    "review_comment_url": "https://api.github.com/repos/PrismarineJS/flying-squid/pulls/comments{/number}",
    "review_comments": 0,
    "review_comments_url": "https://api.github.com/repos/PrismarineJS/flying-squid/pulls/510/comments",
    "state": "closed",
    "statuses_url": "https://api.github.com/repos/PrismarineJS/flying-squid/statuses/58ade8f69552443e2bea1fb6a85951338ad60236",
    "title": "Bump jest from 26.6.3 to 27.0.5",
    "updated_at": "2021-06-23T13:29:19Z",
    "url": "https://api.github.com/repos/PrismarineJS/flying-squid/pulls/510",
    "user": {
        "avatar_url": "https://avatars.githubusercontent.com/in/29110?v=4",
        "events_url": "https://api.github.com/users/dependabot%5Bbot%5D/events{/privacy}",
        "followers_url": "https://api.github.com/users/dependabot%5Bbot%5D/followers",
        "following_url": "https://api.github.com/users/dependabot%5Bbot%5D/following{/other_user}",
        "gists_url": "https://api.github.com/users/dependabot%5Bbot%5D/gists{/gist_id}",
        "gravatar_id": "",
        "html_url": "https://github.com/apps/dependabot",
        "id": 49699333,
        "login": "dependabot[bot]",
        "node_id": "MDM6Qm90NDk2OTkzMzM=",
        "organizations_url": "https://api.github.com/users/dependabot%5Bbot%5D/orgs",
        "received_events_url": "https://api.github.com/users/dependabot%5Bbot%5D/received_events",
        "repos_url": "https://api.github.com/users/dependabot%5Bbot%5D/repos",
        "site_admin": false,
        "starred_url": "https://api.github.com/users/dependabot%5Bbot%5D/starred{/owner}{/repo}",
        "subscriptions_url": "https://api.github.com/users/dependabot%5Bbot%5D/subscriptions",
        "type": "Bot",
        "url": "https://api.github.com/users/dependabot%5Bbot%5D"
    }
}