{
    "_links": {
        "comments": {
            "href": "https://api.github.com/repos/PrismarineJS/flying-squid/issues/527/comments"
        },
        "commits": {
            "href": "https://api.github.com/repos/PrismarineJS/flying-squid/pulls/527/commits"
        },
        "html": {
            "href": "https://github.com/PrismarineJS/flying-squid/pull/527"
        },
        "issue": {
            "href": "https://api.github.com/repos/PrismarineJS/flying-squid/issues/527"
        },
        "review_comment": {
            "href": "https://api.github.com/repos/PrismarineJS/flying-squid/pulls/comments{/number}"
        },
        "review_comments": {
            "href": "https://api.github.com/repos/PrismarineJS/flying-squid/pulls/527/comments"
        },
        "self": {
            "href": "https://api.github.com/repos/PrismarineJS/flying-squid/pulls/527"
        },
        "statuses": {
            "href": "https://api.github.com/repos/PrismarineJS/flying-squid/statuses/946886b804ae033dbcdc81bf2d294b10fd32a969"
        }
    },
    "active_lock_reason": null,
    "additions": 1,
    "assignee": null,
    "assignees": [],
    "author_association": "CONTRIBUTOR",
    "auto_merge": null,
    "base": {
        "label": "PrismarineJS:master",
        "ref": "master",
        "repo": {
            "allow_forking": true,
            "archive_url": "https://api.github.com/repos/PrismarineJS/flying-squid/{archive_format}{/ref}",
            "archived": false,
            "assignees_url": "https://api.github.com/repos/PrismarineJS/flying-squid/assignees{/user}",
            "blobs_url": "https://api.github.com/repos/PrismarineJS/flying-squid/git/blobs{/sha}",
            "branches_url": "https://api.github.com/repos/PrismarineJS/flying-squid/branches{/branch}",
            "clone_url": "https://github.com/PrismarineJS/flying-squid.git",
            "collaborators_url": "https://api.github.com/repos/PrismarineJS/flying-squid/collaborators{/collaborator}",
            "comments_url": "https://api.github.com/repos/PrismarineJS/flying-squid/comments{/number}",
            "commits_url": "https://api.github.com/repos/PrismarineJS/flying-squid/commits{/sha}",
            "compare_url": "https://api.github.com/repos/PrismarineJS/flying-squid/compare/{base}...{head}",
            "contents_url": "https://api.github.com/repos/PrismarineJS/flying-squid/contents/{+path}",
            "contributors_url": "https://api.github.com/repos/PrismarineJS/flying-squid/contributors",
            "created_at": "2015-08-25T23:30:19Z",
            "default_branch": "master",
            "deployments_url": "https://api.github.com/repos/PrismarineJS/flying-squid/deployments",
            "description": "Create Minecraft servers with a powerful, stable, and high level JavaScript API.",
            "disabled": false,
            "downloads_url": "https://api.github.com/repos/PrismarineJS/flying-squid/downloads",
            "events_url": "https://api.github.com/repos/PrismarineJS/flying-squid/events",
            "fork": false,
            "forks": 86,
            "forks_count": 86,
            "forks_url": "https://api.github.com/repos/PrismarineJS/flying-squid/forks",
            "full_name": "PrismarineJS/flying-squid",
            "git_commits_url": "https://api.github.com/repos/PrismarineJS/flying-squid/git/commits{/sha}",
            "git_refs_url": "https://api.github.com/repos/PrismarineJS/flying-squid/git/refs{/sha}",
            "git_tags_url": "https://api.github.com/repos/PrismarineJS/flying-squid/git/tags{/sha}",
            "git_url": "git://github.com/PrismarineJS/flying-squid.git",
            "has_discussions": false,
            "has_downloads": true,
            "has_issues": true,
            "has_pages": true,
            "has_projects": true,
            "has_wiki": true,
            "homepage": "https://prismarinejs.github.io/flying-squid/",
            "hooks_url": "https://api.github.com/repos/PrismarineJS/flying-squid/hooks",
            "html_url": "https://github.com/PrismarineJS/flying-squid",
            "id": 41393164,
            "is_template": false,
            "issue_comment_url": "https://api.github.com/repos/PrismarineJS/flying-squid/issues/comments{/number}",
            "issue_events_url": "https://api.github.com/repos/PrismarineJS/flying-squid/issues/events{/number}",
            "issues_url": "https://api.github.com/repos/PrismarineJS/flying-squid/issues{/number}",
            "keys_url": "https://api.github.com/repos/PrismarineJS/flying-squid/keys{/key_id}",
            "labels_url": "https://api.github.com/repos/PrismarineJS/flying-squid/labels{/name}",
            "language": "JavaScript",
            "languages_url": "https://api.github.com/repos/PrismarineJS/flying-squid/languages",
            "license": {
                "key": "mit",
                "name": "MIT License",
                "node_id": "MDc6TGljZW5zZTEz",
                "spdx_id": "MIT",
                "url": "https://api.github.com/licenses/mit"
            },
            "merges_url": "https://api.github.com/repos/PrismarineJS/flying-squid/merges",
            "milestones_url": "https://api.github.com/repos/PrismarineJS/flying-squid/milestones{/number}",
            "mirror_url": null,
            "name": "flying-squid",
            "node_id": "MDEwOlJlcG9zaXRvcnk0MTM5MzE2NA==",
            "notifications_url": "https://api.github.com/repos/PrismarineJS/flying-squid/notifications{?since,all,participating}",
            "open_issues": 105,
            "open_issues_count": 105,
            "owner": {
                "avatar_url": "https://avatars.githubusercontent.com/u/11053411?v=4",
                "events_url": "https://api.github.com/users/PrismarineJS/events{/privacy}",
                "followers_url": "https://api.github.com/users/PrismarineJS/followers",
                "following_url": "https://api.github.com/users/PrismarineJS/following{/other_user}",
                "gists_url": "https://api.github.com/users/PrismarineJS/gists{/gist_id}",
                "gravatar_id": "",
                "html_url": "https://github.com/PrismarineJS",
                "id": 11053411,
                "login": "PrismarineJS",
                "node_id": "MDEyOk9yZ2FuaXphdGlvbjExMDUzNDEx",
                "organizations_url": "https://api.github.com/users/PrismarineJS/orgs",
                "received_events_url": "https://api.github.com/users/PrismarineJS/received_events",
                "repos_url": "https://api.github.com/users/PrismarineJS/repos",
                "site_admin": false,
                "starred_url": "https://api.github.com/users/PrismarineJS/starred{/owner}{/repo}",
                "subscriptions_url": "https://api.github.com/users/PrismarineJS/subscriptions",
                "type": "Organization",
                "url": "https://api.github.com/users/PrismarineJS"
            },
            "private": false,
            "pulls_url": "https://api.github.com/repos/PrismarineJS/flying-squid/pulls{/number}",
            "pushed_at": "2023-04-25T07:58:15Z",
            "releases_url": "https://api.github.com/repos/PrismarineJS/flying-squid/releases{/id}",
            "size": 1044,
            "ssh_url": "git@github.com:PrismarineJS/flying-squid.git",
            "stargazers_count": 471,
            "stargazers_url": "https://api.github.com/repos/PrismarineJS/flying-squid/stargazers",
            "statuses_url": "https://api.github.com/repos/PrismarineJS/flying-squid/statuses/{sha}",
            "subscribers_url": "https://api.github.com/repos/PrismarineJS/flying-squid/subscribers",
            "subscription_url": "https://api.github.com/repos/PrismarineJS/flying-squid/subscription",
            "svn_url": "https://github.com/PrismarineJS/flying-squid",
            "tags_url": "https://api.github.com/repos/PrismarineJS/flying-squid/tags",
            "teams_url": "https://api.github.com/repos/PrismarineJS/flying-squid/teams",
            "topics": [
                "game",
                "minecraft",
                "minecraft-server",
                "protocol",
                "server",
                "voxel"
            ],
            "trees_url": "https://api.github.com/repos/PrismarineJS/flying-squid/git/trees{/sha}",
            "updated_at": "2023-04-20T15:15:59Z",
            "url": "https://api.github.com/repos/PrismarineJS/flying-squid",
            "visibility": "public",
            "watchers": 471,
            "watchers_count": 471,
            "web_commit_signoff_required": false
        },
        "sha": "7796f289ba8ee8af4d2010efdf903c24680c235f",
        "user": {
            "avatar_url": "https://avatars.githubusercontent.com/u/11053411?v=4",
            "events_url": "https://api.github.com/users/PrismarineJS/events{/privacy}",
            "followers_url": "https://api.github.com/users/PrismarineJS/followers",
            "following_url": "https://api.github.com/users/PrismarineJS/following{/other_user}",
            "gists_url": "https://api.github.com/users/PrismarineJS/gists{/gist_id}",
            "gravatar_id": "",
            "html_url": "https://github.com/PrismarineJS",
            "id": 11053411,
            "login": "PrismarineJS",
            "node_id": "MDEyOk9yZ2FuaXphdGlvbjExMDUzNDEx",
            "organizations_url": "https://api.github.com/users/PrismarineJS/orgs",
            "received_events_url": "https://api.github.com/users/PrismarineJS/received_events",
            "repos_url": "https://api.github.com/users/PrismarineJS/repos",
            "site_admin": false,
            "starred_url": "https://api.github.com/users/PrismarineJS/starred{/owner}{/repo}",
            "subscriptions_url": "https://api.github.com/users/PrismarineJS/subscriptions",
            "type": "Organization",
            "url": "https://api.github.com/users/PrismarineJS"
        }
    },
    "body": "Bumps [jest](https://github.com/facebook/jest) from 26.6.3 to 27.2.2.\n<details>\n<summary>Release notes</summary>\n<p><em>Sourced from <a href=\"https://github.com/facebook/jest/releases\">jest's releases</a>.</em></p>\n<blockquote>\n<h2>27.2.2</h2>\n<h3>Fixes</h3>\n<ul>\n<li><code>[jest-runtime]</code> Correct <code>wrapperLength</code> value for ESM modules. (<a href=\"https://github-redirect.dependabot.com/facebook/jest/pull/11893\">#11893</a>)</li>\n</ul>\n<h2>27.2.1</h2>\n<h3>Features</h3>\n<ul>\n<li><code>[jest-transform]</code> Improve the unexpected token error message. (<a href=\"https://github-redirect.dependabot.com/facebook/jest/pull/11807\">#11807</a>)</li>\n</ul>\n<h3>Fixes</h3>\n<ul>\n<li><code>[jest-runtime]</code> Fix regression when using <code>jest.isolateModules</code> and mocks (<a href=\"https://github-redirect.dependabot.com/facebook/jest/pull/11882\">#11882</a>)</li>\n<li><code>[jest-runtime]</code> Include test name when importing modules after test has completed (<a href=\"https://github-redirect.dependabot.com/facebook/jest/pull/11885\">#11885</a>)</li>\n<li><code>[jest-runtime]</code> Error when ESM import is used after test is torn down (<a href=\"https://github-redirect.dependabot.com/facebook/jest/pull/11885\">#11885</a>)</li>\n</ul>\n<h2>27.2.0</h2>\n<h3>Features</h3>\n<ul>\n<li><code>[jest-resolver, jest-runtime]</code> Pass <code>conditions</code> to custom resolvers to enable them to implement support for package.json <code>exports</code> field (<a href=\"https://github-redirect.dependabot.com/facebook/jest/pull/11859\">#11859</a>)</li>\n<li><code>[jest-runtime]</code> Allow custom envs to specify <code>exportConditions</code> which is passed together with Jest's own conditions to custom resolvers (<a href=\"https://github-redirect.dependabot.com/facebook/jest/pull/11863\">#11863</a>)</li>\n</ul>\n<h3>Fixes</h3>\n<ul>\n<li><code>[@jest/reporters]</code> Use async transform if available to transform files with no coverage (<a href=\"https://github-redirect.dependabot.com/facebook/jest/pull/11852\">#11852</a>)</li>\n<li><code>[jest-util]</code> Return correct value from <code>process.send</code> stub (<a href=\"https://github-redirect.dependabot.com/facebook/jest/pull/11799\">#11799</a>)</li>\n</ul>\n<h2>27.1.1</h2>\n<h3>Features</h3>\n<ul>\n<li><code>[jest-runtime]</code> Add experimental, limited (and undocumented) support for mocking ECMAScript Modules (<a href=\"https://github-redirect.dependabot.com/facebook/jest/pull/11818\">#11818</a>)</li>\n</ul>\n<h3>Fixes</h3>\n<ul>\n<li><code>[jest-resolver]</code> Support <code>node:</code> prefix when importing Node core modules with ESM (<a href=\"https://github-redirect.dependabot.com/facebook/jest/pull/11817\">#11817</a>)</li>\n<li><code>[jest-types]</code> Export the <code>PrettyFormatOptions</code> interface (<a href=\"https://github-redirect.dependabot.com/facebook/jest/pull/11801\">#11801</a>)</li>\n</ul>\n<h2>27.1.0</h2>\n<h3>Features</h3>\n<ul>\n<li><code>[jest-haste-map]</code> Use watchman suffix-set option for faster file indexing. (<a href=\"https://github-redirect.dependabot.com/facebook/jest/pull/11784\">#11784</a>)</li>\n<li><code>[jest-cli]</code> Adds a new config options <code>snapshotFormat</code> which offers a way to override any of the formatting settings which come with <a href=\"https://www.npmjs.com/package/pretty-format#usage-with-options\">pretty-format</a>. (<a href=\"https://github-redirect.dependabot.com/facebook/jest/pull/11654\">#11654</a>)</li>\n<li><code>[jest-reporters]</code> Expose the <code>getSummary</code> util (<a href=\"https://github-redirect.dependabot.com/facebook/jest/pull/11695\">#11695</a>).</li>\n<li><code>[jest-resolver]</code> Support <code>node:</code> prefix when importing Node core modules (<a href=\"https://github-redirect.dependabot.com/facebook/jest/pull/11331\">#11331</a>)</li>\n</ul>\n<h3>Fixes</h3>\n<ul>\n<li><code>[jest-each]</code> Relaxed the validation to allow multibyte characters in headings (<a href=\"https://github-redirect.dependabot.com/facebook/jest/pull/11575\">#11575</a>)</li>\n<li><code>[jest-environment-jsdom]</code> Add support for <code>userAgent</code> option (<a href=\"https://github-redirect.dependabot.com/facebook/jest/pull/11773\">#11773</a>)</li>\n<li><code>[jest-environment-node]</code> Add <code>Event</code> and <code>EventTarget</code> to node global environment. (<a href=\"https://github-redirect.dependabot.com/facebook/jest/pull/11727\">#11727</a>)</li>\n</ul>\n<!-- raw HTML omitted -->\n</blockquote>\n<p>... (truncated)</p>\n</details>\n<details>\n<summary>Changelog</summary>\n<p><em>Sourced from <a href=\"https://github.com/facebook/jest/blob/main/CHANGELOG.md\">jest's changelog</a>.</em></p>\n<blockquote>\n<h2>27.2.2</h2>\n<h3>Fixes</h3>\n<ul>\n<li><code>[jest-runtime]</code> Correct <code>wrapperLength</code> value for ESM modules. (<a href=\"https://github-redirect.dependabot.com/facebook/jest/pull/11893\">#11893</a>)</li>\n</ul>\n<h2>27.2.1</h2>\n<h3>Features</h3>\n<ul>\n<li><code>[jest-transform]</code> Improve the unexpected token error message. (<a href=\"https://github-redirect.dependabot.com/facebook/jest/pull/11807\">#11807</a>)</li>\n</ul>\n<h3>Fixes</h3>\n<ul>\n<li><code>[jest-runtime]</code> Fix regression when using <code>jest.isolateModules</code> and mocks (<a href=\"https://github-redirect.dependabot.com/facebook/jest/pull/11882\">#11882</a>)</li>\n<li><code>[jest-runtime]</code> Include test name when importing modules after test has completed (<a href=\"https://github-redirect.dependabot.com/facebook/jest/pull/11885\">#11885</a>)</li>\n<li><code>[jest-runtime]</code> Error when ESM import is used after test is torn down (<a href=\"https://github-redirect.dependabot.com/facebook/jest/pull/11885\">#11885</a>)</li>\n</ul>\n<h2>27.2.0</h2>\n<h3>Features</h3>\n<ul>\n<li><code>[jest-resolver, jest-runtime]</code> Pass <code>conditions</code> to custom resolvers to enable them to implement support for package.json <code>exports</code> field (<a href=\"https://github-redirect.dependabot.com/facebook/jest/pull/11859\">#11859</a>)</li>\n<li><code>[jest-runtime]</code> Allow custom envs to specify <code>exportConditions</code> which is passed together with Jest's own conditions to custom resolvers (<a href=\"https://github-redirect.dependabot.com/facebook/jest/pull/11863\">#11863</a>)</li>\n</ul>\n<h3>Fixes</h3>\n<ul>\n<li><code>[@jest/reporters]</code> Use async transform if available to transform files with no coverage (<a href=\"https://github-redirect.dependabot.com/facebook/jest/pull/11852\">#11852</a>)</li>\n<li><code>[jest-util]</code> Return correct value from <code>process.send</code> stub (<a href=\"https://github-redirect.dependabot.com/facebook/jest/pull/11799\">#11799</a>)</li>\n</ul>\n<h2>27.1.1</h2>\n<h3>Features</h3>\n<ul>\n<li><code>[jest-runtime]</code> Add experimental, limited (and undocumented) support for mocking ECMAScript Modules (<a href=\"https://github-redirect.dependabot.com/facebook/jest/pull/11818\">#11818</a>)</li>\n</ul>\n<h3>Fixes</h3>\n<ul>\n<li><code>[jest-resolver]</code> Support <code>node:</code> prefix when importing Node core modules with ESM (<a href=\"https://github-redirect.dependabot.com/facebook/jest/pull/11817\">#11817</a>)</li>\n<li><code>[jest-types]</code> Export the <code>PrettyFormatOptions</code> interface (<a href=\"https://github-redirect.dependabot.com/facebook/jest/pull/11801\">#11801</a>)</li>\n</ul>\n<h2>27.1.0</h2>\n<h3>Features</h3>\n<ul>\n<li><code>[jest-haste-map]</code> Use watchman suffix-set option for faster file indexing. (<a href=\"https://github-redirect.dependabot.com/facebook/jest/pull/11784\">#11784</a>)</li>\n<li><code>[jest-cli]</code> Adds a new config options <code>snapshotFormat</code> which offers a way to override any of the formatting settings which come with <a href=\"https://www.npmjs.com/package/pretty-format#usage-with-options\">pretty-format</a>. (<a href=\"https://github-redirect.dependabot.com/facebook/jest/pull/11654\">#11654</a>)</li>\n<li><code>[jest-reporters]</code> Expose the <code>getSummary</code> util (<a href=\"https://github-redirect.dependabot.com/facebook/jest/pull/11695\">#11695</a>).</li>\n<li><code>[jest-resolver]</code> Support <code>node:</code> prefix when importing Node core modules (<a href=\"https://github-redirect.dependabot.com/facebook/jest/pull/11331\">#11331</a>)</li>\n</ul>\n<!-- raw HTML omitted -->\n</blockquote>\n<p>... (truncated)</p>\n</details>\n<details>\n<summary>Commits</summary>\n<ul>\n<li><a href=\"https://github.com/facebook/jest/commit/f54d96fec55518640b900d6994b2c4153316d1ed\"><code>f54d96f</code></a> v27.2.2</li>\n<li><a href=\"https://github.com/facebook/jest/commit/5cf3294e440ae9aded1964cd7d9e6570e4f6a166\"><code>5cf3294</code></a> chore: update changelog for release</li>\n<li><a href=\"https://github.com/facebook/jest/commit/d4fff6a7c049a95479f86e72572d193fefc1d480\"><code>d4fff6a</code></a> fix (jest-runtime): correct <code>wrapperLength</code> value for ESM modules (<a href=\"https://github-redirect.dependabot.com/facebook/jest/issues/11893\">#11893</a>)</li>\n<li><a href=\"https://github.com/facebook/jest/commit/da7c4a42840230ddaa7c101dbc86edb752787c64\"><code>da7c4a4</code></a> chore: update <code>npm</code> instructions in README (<a href=\"https://github-redirect.dependabot.com/facebook/jest/issues/11890\">#11890</a>)</li>\n<li><a href=\"https://github.com/facebook/jest/commit/4f5dab05db8adba559586d2adffecd71fcc69437\"><code>4f5dab0</code></a> chore: force patched version of ansi-regex (<a href=\"https://github-redirect.dependabot.com/facebook/jest/issues/11889\">#11889</a>)</li>\n<li><a href=\"https://github.com/facebook/jest/commit/06d2c2c54b11db054a2abb4faec9b7ff3ab52aa0\"><code>06d2c2c</code></a> chore: update lockfile after publish</li>\n<li><a href=\"https://github.com/facebook/jest/commit/50862b410c358107ec893cfdd9bb9a689ad8e622\"><code>50862b4</code></a> v27.2.1</li>\n<li><a href=\"https://github.com/facebook/jest/commit/5aad21f59dda9d0842e5a886f5c576fbcdd87bd0\"><code>5aad21f</code></a> chore: update changelog for release</li>\n<li><a href=\"https://github.com/facebook/jest/commit/6175fa1cf31259e3427925f0ead62106b675588a\"><code>6175fa1</code></a> make the syntax error message more helpful for TS users (<a href=\"https://github-redirect.dependabot.com/facebook/jest/issues/11807\">#11807</a>)</li>\n<li><a href=\"https://github.com/facebook/jest/commit/31cad209cdfa70c3227ab212c6f4fdb736cf4689\"><code>31cad20</code></a> fix: include path to test file in &quot;after teardown&quot; error (<a href=\"https://github-redirect.dependabot.com/facebook/jest/issues/11885\">#11885</a>)</li>\n<li>Additional commits viewable in <a href=\"https://github.com/facebook/jest/compare/v26.6.3...v27.2.2\">compare view</a></li>\n</ul>\n</details>\n<br />\n\n\n[![Dependabot compatibility score](https://dependabot-badges.githubapp.com/badges/compatibility_score?dependency-name=jest&package-manager=npm_and_yarn&previous-version=26.6.3&new-version=27.2.2)](https://docs.github.com/en/github/managing-security-vulnerabilities/about-dependabot-security-updates#about-compatibility-scores)\n\nDependabot will resolve any conflicts with this PR as long as you don't alter it yourself. You can also trigger a rebase manually by commenting `@dependabot rebase`.\n\n[//]: # (dependabot-automerge-start)\n[//]: # (dependabot-automerge-end)\n\n---\n\n<details>\n<summary>Dependabot commands and options</summary>\n<br />\n\nYou can trigger Dependabot actions by commenting on this PR:\n- `@dependabot rebase` will rebase this PR\n- `@dependabot recreate` will recreate this PR, overwriting any edits that have been made to it\n- `@dependabot merge` will merge this PR after your CI passes on it\n- `@dependabot squash and merge` will squash and merge this PR after your CI passes on it\n- `@dependabot cancel merge` will cancel a previously requested merge and block automerging\n- `@dependabot reopen` will reopen this PR if it is closed\n- `@dependabot close` will close this PR and stop Dependabot recreating it. You can achieve the same result by closing it manually\n- `@dependabot ignore this major version` will close this PR and stop Dependabot creating any more for this major version (unless you reopen the PR or upgrade to it yourself)\n- `@dependabot ignore this minor version` will close this PR and stop Dependabot creating any more for this minor version (unless you reopen the PR or upgrade to it yourself)\n- `@dependabot ignore this dependency` will close this PR and stop Dependabot creating any more for this dependency (unless you reopen the PR or upgrade to it yourself)\n\n\n</details>",
    "changed_files": 1,
    "closed_at": "2021-09-29T07:10:20Z",
    "comment_data": [],
    "comment_regular_data": [
        {
            "author_association": "CONTRIBUTOR",
            "body": "Superseded by #528.",
            "created_at": "2021-09-29T07:10:20Z",
            "html_url": "https://github.com/PrismarineJS/flying-squid/pull/527#issuecomment-929899530",
            "id": 929899530,
            "issue_url": "https://api.github.com/repos/PrismarineJS/flying-squid/issues/527",
            "node_id": "IC_kwDOAnecDM43bSQK",
            "performed_via_github_app": null,
            "reactions": {
                "+1": 0,
                "-1": 0,
                "confused": 0,
                "eyes": 0,
                "heart": 0,
                "hooray": 0,
                "laugh": 0,
                "rocket": 0,
                "total_count": 0,
                "url": "https://api.github.com/repos/PrismarineJS/flying-squid/issues/comments/929899530/reactions"
            },
            "updated_at": "2021-09-29T07:10:20Z",
            "url": "https://api.github.com/repos/PrismarineJS/flying-squid/issues/comments/929899530",
            "user": {
                "avatar_url": "https://avatars.githubusercontent.com/in/29110?v=4",
                "events_url": "https://api.github.com/users/dependabot%5Bbot%5D/events{/privacy}",
                "followers_url": "https://api.github.com/users/dependabot%5Bbot%5D/followers",
                "following_url": "https://api.github.com/users/dependabot%5Bbot%5D/following{/other_user}",
                "gists_url": "https://api.github.com/users/dependabot%5Bbot%5D/gists{/gist_id}",
                "gravatar_id": "",
                "html_url": "https://github.com/apps/dependabot",
                "id": 49699333,
                "login": "dependabot[bot]",
                "node_id": "MDM6Qm90NDk2OTkzMzM=",
                "organizations_url": "https://api.github.com/users/dependabot%5Bbot%5D/orgs",
                "received_events_url": "https://api.github.com/users/dependabot%5Bbot%5D/received_events",
                "repos_url": "https://api.github.com/users/dependabot%5Bbot%5D/repos",
                "site_admin": false,
                "starred_url": "https://api.github.com/users/dependabot%5Bbot%5D/starred{/owner}{/repo}",
                "subscriptions_url": "https://api.github.com/users/dependabot%5Bbot%5D/subscriptions",
                "type": "Bot",
                "url": "https://api.github.com/users/dependabot%5Bbot%5D"
            }
        }
    ],
    "comments": 1,
    "comments_url": "https://api.github.com/repos/PrismarineJS/flying-squid/issues/527/comments",
    "commit_data": [
        {
            "author": {
                "avatar_url": "https://avatars.githubusercontent.com/in/29110?v=4",
                "events_url": "https://api.github.com/users/dependabot%5Bbot%5D/events{/privacy}",
                "followers_url": "https://api.github.com/users/dependabot%5Bbot%5D/followers",
                "following_url": "https://api.github.com/users/dependabot%5Bbot%5D/following{/other_user}",
                "gists_url": "https://api.github.com/users/dependabot%5Bbot%5D/gists{/gist_id}",
                "gravatar_id": "",
                "html_url": "https://github.com/apps/dependabot",
                "id": 49699333,
                "login": "dependabot[bot]",
                "node_id": "MDM6Qm90NDk2OTkzMzM=",
                "organizations_url": "https://api.github.com/users/dependabot%5Bbot%5D/orgs",
                "received_events_url": "https://api.github.com/users/dependabot%5Bbot%5D/received_events",
                "repos_url": "https://api.github.com/users/dependabot%5Bbot%5D/repos",
                "site_admin": false,
                "starred_url": "https://api.github.com/users/dependabot%5Bbot%5D/starred{/owner}{/repo}",
                "subscriptions_url": "https://api.github.com/users/dependabot%5Bbot%5D/subscriptions",
                "type": "Bot",
                "url": "https://api.github.com/users/dependabot%5Bbot%5D"
            },
            "comments_url": "https://api.github.com/repos/PrismarineJS/flying-squid/commits/946886b804ae033dbcdc81bf2d294b10fd32a969/comments",
            "commit": {
                "author": {
                    "date": "2021-09-27T07:12:39Z",
                    "email": "49699333+dependabot[bot]@users.noreply.github.com",
                    "name": "dependabot[bot]"
                },
                "comment_count": 0,
                "committer": {
                    "date": "2021-09-27T07:12:39Z",
                    "email": "noreply@github.com",
                    "name": "GitHub"
                },
                "message": "Bump jest from 26.6.3 to 27.2.2\n\nBumps [jest](https://github.com/facebook/jest) from 26.6.3 to 27.2.2.\n- [Release notes](https://github.com/facebook/jest/releases)\n- [Changelog](https://github.com/facebook/jest/blob/main/CHANGELOG.md)\n- [Commits](https://github.com/facebook/jest/compare/v26.6.3...v27.2.2)\n\n---\nupdated-dependencies:\n- dependency-name: jest\n  dependency-type: direct:development\n  update-type: version-update:semver-major\n...\n\nSigned-off-by: dependabot[bot] <support@github.com>",
                "tree": {
                    "sha": "43c69677aa48303e75fee8e79b8e1783bcb5040b",
                    "url": "https://api.github.com/repos/PrismarineJS/flying-squid/git/trees/43c69677aa48303e75fee8e79b8e1783bcb5040b"
                },
                "url": "https://api.github.com/repos/PrismarineJS/flying-squid/git/commits/946886b804ae033dbcdc81bf2d294b10fd32a969",
                "verification": {
                    "payload": "tree 43c69677aa48303e75fee8e79b8e1783bcb5040b\nparent 7796f289ba8ee8af4d2010efdf903c24680c235f\nauthor dependabot[bot] <49699333+dependabot[bot]@users.noreply.github.com> 1632726759 +0000\ncommitter GitHub <noreply@github.com> 1632726759 +0000\n\nBump jest from 26.6.3 to 27.2.2\n\nBumps [jest](https://github.com/facebook/jest) from 26.6.3 to 27.2.2.\n- [Release notes](https://github.com/facebook/jest/releases)\n- [Changelog](https://github.com/facebook/jest/blob/main/CHANGELOG.md)\n- [Commits](https://github.com/facebook/jest/compare/v26.6.3...v27.2.2)\n\n---\nupdated-dependencies:\n- dependency-name: jest\n  dependency-type: direct:development\n  update-type: version-update:semver-major\n...\n\nSigned-off-by: dependabot[bot] <support@github.com>",
                    "reason": "valid",
                    "signature": "-----BEGIN PGP SIGNATURE-----\n\nwsBcBAABCAAQBQJhUW7nCRBK7hj4Ov3rIwAA1ToIAHRLPV9go271I39G+y9bBNtY\n4StHy9FSie/UdBgq+piad78f/pjOt+ReZrVYCKCiwhK9W2+BSA+S9dsAC/ZiI+4c\ngY6at060BaJfOmB5FTqnK5IMkkNkcPexVG1DqdmzsRMHSdqH4E/HhrEg8Ke01TR2\nBBHG4GXArzNQN2HwwUrFO7HQH/iU1OWkIeU5N4DADnJkkpi0urZpEj1pWEAt6f6l\nDH2rBw1ZsMLJ3l2r2tnMhvhL9YK5vlq6bKTpAuJTwO6VqlgAOHlVHfJ+JN8L49pd\ncd+FAZ1ot66F/TRkDo+DjWxbZSFUn38H5qPVUbn67LDimanlasLkR9x6oa5q6tg=\n=i4uK\n-----END PGP SIGNATURE-----\n",
                    "verified": true
                }
            },
            "committer": {
                "avatar_url": "https://avatars.githubusercontent.com/u/19864447?v=4",
                "events_url": "https://api.github.com/users/web-flow/events{/privacy}",
                "followers_url": "https://api.github.com/users/web-flow/followers",
                "following_url": "https://api.github.com/users/web-flow/following{/other_user}",
                "gists_url": "https://api.github.com/users/web-flow/gists{/gist_id}",
                "gravatar_id": "",
                "html_url": "https://github.com/web-flow",
                "id": 19864447,
                "login": "web-flow",
                "node_id": "MDQ6VXNlcjE5ODY0NDQ3",
                "organizations_url": "https://api.github.com/users/web-flow/orgs",
                "received_events_url": "https://api.github.com/users/web-flow/received_events",
                "repos_url": "https://api.github.com/users/web-flow/repos",
                "site_admin": false,
                "starred_url": "https://api.github.com/users/web-flow/starred{/owner}{/repo}",
                "subscriptions_url": "https://api.github.com/users/web-flow/subscriptions",
                "type": "User",
                "url": "https://api.github.com/users/web-flow"
            },
            "html_url": "https://github.com/PrismarineJS/flying-squid/commit/946886b804ae033dbcdc81bf2d294b10fd32a969",
            "node_id": "C_kwDOAnecDNoAKDk0Njg4NmI4MDRhZTAzM2RiY2RjODFiZjJkMjk0YjEwZmQzMmE5Njk",
            "parents": [
                {
                    "html_url": "https://github.com/PrismarineJS/flying-squid/commit/7796f289ba8ee8af4d2010efdf903c24680c235f",
                    "sha": "7796f289ba8ee8af4d2010efdf903c24680c235f",
                    "url": "https://api.github.com/repos/PrismarineJS/flying-squid/commits/7796f289ba8ee8af4d2010efdf903c24680c235f"
                }
            ],
            "sha": "946886b804ae033dbcdc81bf2d294b10fd32a969",
            "url": "https://api.github.com/repos/PrismarineJS/flying-squid/commits/946886b804ae033dbcdc81bf2d294b10fd32a969"
        }
    ],
    "commits": 1,
    "commits_url": "https://api.github.com/repos/PrismarineJS/flying-squid/pulls/527/commits",
    "created_at": "2021-09-27T07:12:39Z",
    "deletions": 1,
    "diff_url": "https://github.com/PrismarineJS/flying-squid/pull/527.diff",
    "draft": false,
    "head": {
        "label": "PrismarineJS:dependabot/npm_and_yarn/jest-27.2.2",
        "ref": "dependabot/npm_and_yarn/jest-27.2.2",
        "repo": {
            "allow_forking": true,
            "archive_url": "https://api.github.com/repos/PrismarineJS/flying-squid/{archive_format}{/ref}",
            "archived": false,
            "assignees_url": "https://api.github.com/repos/PrismarineJS/flying-squid/assignees{/user}",
            "blobs_url": "https://api.github.com/repos/PrismarineJS/flying-squid/git/blobs{/sha}",
            "branches_url": "https://api.github.com/repos/PrismarineJS/flying-squid/branches{/branch}",
            "clone_url": "https://github.com/PrismarineJS/flying-squid.git",
            "collaborators_url": "https://api.github.com/repos/PrismarineJS/flying-squid/collaborators{/collaborator}",
            "comments_url": "https://api.github.com/repos/PrismarineJS/flying-squid/comments{/number}",
            "commits_url": "https://api.github.com/repos/PrismarineJS/flying-squid/commits{/sha}",
            "compare_url": "https://api.github.com/repos/PrismarineJS/flying-squid/compare/{base}...{head}",
            "contents_url": "https://api.github.com/repos/PrismarineJS/flying-squid/contents/{+path}",
            "contributors_url": "https://api.github.com/repos/PrismarineJS/flying-squid/contributors",
            "created_at": "2015-08-25T23:30:19Z",
            "default_branch": "master",
            "deployments_url": "https://api.github.com/repos/PrismarineJS/flying-squid/deployments",
            "description": "Create Minecraft servers with a powerful, stable, and high level JavaScript API.",
            "disabled": false,
            "downloads_url": "https://api.github.com/repos/PrismarineJS/flying-squid/downloads",
            "events_url": "https://api.github.com/repos/PrismarineJS/flying-squid/events",
            "fork": false,
            "forks": 86,
            "forks_count": 86,
            "forks_url": "https://api.github.com/repos/PrismarineJS/flying-squid/forks",
            "full_name": "PrismarineJS/flying-squid",
            "git_commits_url": "https://api.github.com/repos/PrismarineJS/flying-squid/git/commits{/sha}",
            "git_refs_url": "https://api.github.com/repos/PrismarineJS/flying-squid/git/refs{/sha}",
            "git_tags_url": "https://api.github.com/repos/PrismarineJS/flying-squid/git/tags{/sha}",
            "git_url": "git://github.com/PrismarineJS/flying-squid.git",
            "has_discussions": false,
            "has_downloads": true,
            "has_issues": true,
            "has_pages": true,
            "has_projects": true,
            "has_wiki": true,
            "homepage": "https://prismarinejs.github.io/flying-squid/",
            "hooks_url": "https://api.github.com/repos/PrismarineJS/flying-squid/hooks",
            "html_url": "https://github.com/PrismarineJS/flying-squid",
            "id": 41393164,
            "is_template": false,
            "issue_comment_url": "https://api.github.com/repos/PrismarineJS/flying-squid/issues/comments{/number}",
            "issue_events_url": "https://api.github.com/repos/PrismarineJS/flying-squid/issues/events{/number}",
            "issues_url": "https://api.github.com/repos/PrismarineJS/flying-squid/issues{/number}",
            "keys_url": "https://api.github.com/repos/PrismarineJS/flying-squid/keys{/key_id}",
            "labels_url": "https://api.github.com/repos/PrismarineJS/flying-squid/labels{/name}",
            "language": "JavaScript",
            "languages_url": "https://api.github.com/repos/PrismarineJS/flying-squid/languages",
            "license": {
                "key": "mit",
                "name": "MIT License",
                "node_id": "MDc6TGljZW5zZTEz",
                "spdx_id": "MIT",
                "url": "https://api.github.com/licenses/mit"
            },
            "merges_url": "https://api.github.com/repos/PrismarineJS/flying-squid/merges",
            "milestones_url": "https://api.github.com/repos/PrismarineJS/flying-squid/milestones{/number}",
            "mirror_url": null,
            "name": "flying-squid",
            "node_id": "MDEwOlJlcG9zaXRvcnk0MTM5MzE2NA==",
            "notifications_url": "https://api.github.com/repos/PrismarineJS/flying-squid/notifications{?since,all,participating}",
            "open_issues": 105,
            "open_issues_count": 105,
            "owner": {
                "avatar_url": "https://avatars.githubusercontent.com/u/11053411?v=4",
                "events_url": "https://api.github.com/users/PrismarineJS/events{/privacy}",
                "followers_url": "https://api.github.com/users/PrismarineJS/followers",
                "following_url": "https://api.github.com/users/PrismarineJS/following{/other_user}",
                "gists_url": "https://api.github.com/users/PrismarineJS/gists{/gist_id}",
                "gravatar_id": "",
                "html_url": "https://github.com/PrismarineJS",
                "id": 11053411,
                "login": "PrismarineJS",
                "node_id": "MDEyOk9yZ2FuaXphdGlvbjExMDUzNDEx",
                "organizations_url": "https://api.github.com/users/PrismarineJS/orgs",
                "received_events_url": "https://api.github.com/users/PrismarineJS/received_events",
                "repos_url": "https://api.github.com/users/PrismarineJS/repos",
                "site_admin": false,
                "starred_url": "https://api.github.com/users/PrismarineJS/starred{/owner}{/repo}",
                "subscriptions_url": "https://api.github.com/users/PrismarineJS/subscriptions",
                "type": "Organization",
                "url": "https://api.github.com/users/PrismarineJS"
            },
            "private": false,
            "pulls_url": "https://api.github.com/repos/PrismarineJS/flying-squid/pulls{/number}",
            "pushed_at": "2023-04-25T07:58:15Z",
            "releases_url": "https://api.github.com/repos/PrismarineJS/flying-squid/releases{/id}",
            "size": 1044,
            "ssh_url": "git@github.com:PrismarineJS/flying-squid.git",
            "stargazers_count": 471,
            "stargazers_url": "https://api.github.com/repos/PrismarineJS/flying-squid/stargazers",
            "statuses_url": "https://api.github.com/repos/PrismarineJS/flying-squid/statuses/{sha}",
            "subscribers_url": "https://api.github.com/repos/PrismarineJS/flying-squid/subscribers",
            "subscription_url": "https://api.github.com/repos/PrismarineJS/flying-squid/subscription",
            "svn_url": "https://github.com/PrismarineJS/flying-squid",
            "tags_url": "https://api.github.com/repos/PrismarineJS/flying-squid/tags",
            "teams_url": "https://api.github.com/repos/PrismarineJS/flying-squid/teams",
            "topics": [
                "game",
                "minecraft",
                "minecraft-server",
                "protocol",
                "server",
                "voxel"
            ],
            "trees_url": "https://api.github.com/repos/PrismarineJS/flying-squid/git/trees{/sha}",
            "updated_at": "2023-04-20T15:15:59Z",
            "url": "https://api.github.com/repos/PrismarineJS/flying-squid",
            "visibility": "public",
            "watchers": 471,
            "watchers_count": 471,
            "web_commit_signoff_required": false
        },
        "sha": "946886b804ae033dbcdc81bf2d294b10fd32a969",
        "user": {
            "avatar_url": "https://avatars.githubusercontent.com/u/11053411?v=4",
            "events_url": "https://api.github.com/users/PrismarineJS/events{/privacy}",
            "followers_url": "https://api.github.com/users/PrismarineJS/followers",
            "following_url": "https://api.github.com/users/PrismarineJS/following{/other_user}",
            "gists_url": "https://api.github.com/users/PrismarineJS/gists{/gist_id}",
            "gravatar_id": "",
            "html_url": "https://github.com/PrismarineJS",
            "id": 11053411,
            "login": "PrismarineJS",
            "node_id": "MDEyOk9yZ2FuaXphdGlvbjExMDUzNDEx",
            "organizations_url": "https://api.github.com/users/PrismarineJS/orgs",
            "received_events_url": "https://api.github.com/users/PrismarineJS/received_events",
            "repos_url": "https://api.github.com/users/PrismarineJS/repos",
            "site_admin": false,
            "starred_url": "https://api.github.com/users/PrismarineJS/starred{/owner}{/repo}",
            "subscriptions_url": "https://api.github.com/users/PrismarineJS/subscriptions",
            "type": "Organization",
            "url": "https://api.github.com/users/PrismarineJS"
        }
    },
    "html_url": "https://github.com/PrismarineJS/flying-squid/pull/527",
    "id": 743164891,
    "issue_url": "https://api.github.com/repos/PrismarineJS/flying-squid/issues/527",
    "labels": [
        {
            "color": "0366d6",
            "default": false,
            "description": "Pull requests that update a dependency file",
            "id": 2067071727,
            "name": "dependencies",
            "node_id": "MDU6TGFiZWwyMDY3MDcxNzI3",
            "url": "https://api.github.com/repos/PrismarineJS/flying-squid/labels/dependencies"
        }
    ],
    "locked": false,
    "maintainer_can_modify": false,
    "merge_commit_sha": "3e95f19a2cd8f31c8ffa4a8d53dce601f3826a03",
    "mergeable": null,
    "mergeable_state": "unknown",
    "merged": false,
    "merged_at": null,
    "merged_by": null,
    "milestone": null,
    "node_id": "PR_kwDOAnecDM4sS8vb",
    "number": 527,
    "patch_url": "https://github.com/PrismarineJS/flying-squid/pull/527.patch",
    "rebaseable": null,
    "requested_reviewers": [],
    "requested_teams": [],
    "review_comment_url": "https://api.github.com/repos/PrismarineJS/flying-squid/pulls/comments{/number}",
    "review_comments": 0,
    "review_comments_url": "https://api.github.com/repos/PrismarineJS/flying-squid/pulls/527/comments",
    "state": "closed",
    "statuses_url": "https://api.github.com/repos/PrismarineJS/flying-squid/statuses/946886b804ae033dbcdc81bf2d294b10fd32a969",
    "title": "Bump jest from 26.6.3 to 27.2.2",
    "updated_at": "2021-09-29T07:10:22Z",
    "url": "https://api.github.com/repos/PrismarineJS/flying-squid/pulls/527",
    "user": {
        "avatar_url": "https://avatars.githubusercontent.com/in/29110?v=4",
        "events_url": "https://api.github.com/users/dependabot%5Bbot%5D/events{/privacy}",
        "followers_url": "https://api.github.com/users/dependabot%5Bbot%5D/followers",
        "following_url": "https://api.github.com/users/dependabot%5Bbot%5D/following{/other_user}",
        "gists_url": "https://api.github.com/users/dependabot%5Bbot%5D/gists{/gist_id}",
        "gravatar_id": "",
        "html_url": "https://github.com/apps/dependabot",
        "id": 49699333,
        "login": "dependabot[bot]",
        "node_id": "MDM6Qm90NDk2OTkzMzM=",
        "organizations_url": "https://api.github.com/users/dependabot%5Bbot%5D/orgs",
        "received_events_url": "https://api.github.com/users/dependabot%5Bbot%5D/received_events",
        "repos_url": "https://api.github.com/users/dependabot%5Bbot%5D/repos",
        "site_admin": false,
        "starred_url": "https://api.github.com/users/dependabot%5Bbot%5D/starred{/owner}{/repo}",
        "subscriptions_url": "https://api.github.com/users/dependabot%5Bbot%5D/subscriptions",
        "type": "Bot",
        "url": "https://api.github.com/users/dependabot%5Bbot%5D"
    }
}