{
    "active_lock_reason": null,
    "assignee": null,
    "assignees": [],
    "author_association": "NONE",
    "body": "Is the 1.13 data complete? I see no dark_oak_fence.png. dark_oak_fence_gate.png for example.\r\n",
    "closed_at": "2020-05-09T20:39:11Z",
    "comment_data": [
        {
            "author_association": "MEMBER",
            "body": "Ah indeed it seems to be missing. Anything that is null in\nhttps://github.com/PrismarineJS/minecraft-assets/blob/master/data/1.13/blocks_textures.json#L2745\nis missing.\nFor some things such as bed it's normal because the texture is \"builtin\"\nbut maybe fence is missing for other reasons. I'll look into it.\n\nOn Wed, Nov 7, 2018, 05:09 Uncovery <notifications@github.com> wrote:\n\n> Is the 1.13 data complete? I see no dark_oak_fence.png.\n> dark_oak_fence_gate.png for example.\n>\n> —\n> You are receiving this because you are subscribed to this thread.\n> Reply to this email directly, view it on GitHub\n> <https://github.com/PrismarineJS/minecraft-assets/issues/3>, or mute the\n> thread\n> <https://github.com/notifications/unsubscribe-auth/ACPN_vwWSQ3cJPGPuyTn40lIdxlxR5I1ks5uslzzgaJpZM4YRwB4>\n> .\n>\n",
            "created_at": "2018-11-07T07:38:34Z",
            "html_url": "https://github.com/PrismarineJS/minecraft-assets/issues/3#issuecomment-436531931",
            "id": 436531931,
            "issue_url": "https://api.github.com/repos/PrismarineJS/minecraft-assets/issues/3",
            "node_id": "MDEyOklzc3VlQ29tbWVudDQzNjUzMTkzMQ==",
            "performed_via_github_app": null,
            "reactions": {
                "+1": 0,
                "-1": 0,
                "confused": 0,
                "eyes": 0,
                "heart": 0,
                "hooray": 0,
                "laugh": 0,
                "rocket": 0,
                "total_count": 0,
                "url": "https://api.github.com/repos/PrismarineJS/minecraft-assets/issues/comments/436531931/reactions"
            },
            "updated_at": "2018-11-07T07:38:34Z",
            "url": "https://api.github.com/repos/PrismarineJS/minecraft-assets/issues/comments/436531931",
            "user": {
                "avatar_url": "https://avatars.githubusercontent.com/u/2346494?v=4",
                "events_url": "https://api.github.com/users/rom1504/events{/privacy}",
                "followers_url": "https://api.github.com/users/rom1504/followers",
                "following_url": "https://api.github.com/users/rom1504/following{/other_user}",
                "gists_url": "https://api.github.com/users/rom1504/gists{/gist_id}",
                "gravatar_id": "",
                "html_url": "https://github.com/rom1504",
                "id": 2346494,
                "login": "rom1504",
                "node_id": "MDQ6VXNlcjIzNDY0OTQ=",
                "organizations_url": "https://api.github.com/users/rom1504/orgs",
                "received_events_url": "https://api.github.com/users/rom1504/received_events",
                "repos_url": "https://api.github.com/users/rom1504/repos",
                "site_admin": false,
                "starred_url": "https://api.github.com/users/rom1504/starred{/owner}{/repo}",
                "subscriptions_url": "https://api.github.com/users/rom1504/subscriptions",
                "type": "User",
                "url": "https://api.github.com/users/rom1504"
            }
        }
    ],
    "comments": 1,
    "comments_url": "https://api.github.com/repos/PrismarineJS/minecraft-assets/issues/3/comments",
    "created_at": "2018-11-07T04:09:23Z",
    "event_data": [
        {
            "actor": {
                "avatar_url": "https://avatars.githubusercontent.com/u/2346494?v=4",
                "events_url": "https://api.github.com/users/rom1504/events{/privacy}",
                "followers_url": "https://api.github.com/users/rom1504/followers",
                "following_url": "https://api.github.com/users/rom1504/following{/other_user}",
                "gists_url": "https://api.github.com/users/rom1504/gists{/gist_id}",
                "gravatar_id": "",
                "html_url": "https://github.com/rom1504",
                "id": 2346494,
                "login": "rom1504",
                "node_id": "MDQ6VXNlcjIzNDY0OTQ=",
                "organizations_url": "https://api.github.com/users/rom1504/orgs",
                "received_events_url": "https://api.github.com/users/rom1504/received_events",
                "repos_url": "https://api.github.com/users/rom1504/repos",
                "site_admin": false,
                "starred_url": "https://api.github.com/users/rom1504/starred{/owner}{/repo}",
                "subscriptions_url": "https://api.github.com/users/rom1504/subscriptions",
                "type": "User",
                "url": "https://api.github.com/users/rom1504"
            },
            "commit_id": null,
            "commit_url": null,
            "created_at": "2020-05-09T20:39:11Z",
            "event": "closed",
            "id": 3319727836,
            "node_id": "MDExOkNsb3NlZEV2ZW50MzMxOTcyNzgzNg==",
            "performed_via_github_app": null,
            "state_reason": null,
            "url": "https://api.github.com/repos/PrismarineJS/minecraft-assets/issues/events/3319727836"
        }
    ],
    "events_url": "https://api.github.com/repos/PrismarineJS/minecraft-assets/issues/3/events",
    "html_url": "https://github.com/PrismarineJS/minecraft-assets/issues/3",
    "id": 378135510,
    "labels": [],
    "labels_url": "https://api.github.com/repos/PrismarineJS/minecraft-assets/issues/3/labels{/name}",
    "locked": false,
    "milestone": null,
    "node_id": "MDU6SXNzdWUzNzgxMzU1MTA=",
    "number": 3,
    "performed_via_github_app": null,
    "reactions": {
        "+1": 0,
        "-1": 0,
        "confused": 0,
        "eyes": 0,
        "heart": 0,
        "hooray": 0,
        "laugh": 0,
        "rocket": 0,
        "total_count": 0,
        "url": "https://api.github.com/repos/PrismarineJS/minecraft-assets/issues/3/reactions"
    },
    "repository_url": "https://api.github.com/repos/PrismarineJS/minecraft-assets",
    "state": "closed",
    "state_reason": "completed",
    "timeline_url": "https://api.github.com/repos/PrismarineJS/minecraft-assets/issues/3/timeline",
    "title": "1.13 complete data?",
    "updated_at": "2020-05-09T20:39:11Z",
    "url": "https://api.github.com/repos/PrismarineJS/minecraft-assets/issues/3",
    "user": {
        "avatar_url": "https://avatars.githubusercontent.com/u/583808?v=4",
        "events_url": "https://api.github.com/users/uncovery/events{/privacy}",
        "followers_url": "https://api.github.com/users/uncovery/followers",
        "following_url": "https://api.github.com/users/uncovery/following{/other_user}",
        "gists_url": "https://api.github.com/users/uncovery/gists{/gist_id}",
        "gravatar_id": "",
        "html_url": "https://github.com/uncovery",
        "id": 583808,
        "login": "uncovery",
        "node_id": "MDQ6VXNlcjU4MzgwOA==",
        "organizations_url": "https://api.github.com/users/uncovery/orgs",
        "received_events_url": "https://api.github.com/users/uncovery/received_events",
        "repos_url": "https://api.github.com/users/uncovery/repos",
        "site_admin": false,
        "starred_url": "https://api.github.com/users/uncovery/starred{/owner}{/repo}",
        "subscriptions_url": "https://api.github.com/users/uncovery/subscriptions",
        "type": "User",
        "url": "https://api.github.com/users/uncovery"
    }
}