{
    "_links": {
        "comments": {
            "href": "https://api.github.com/repos/PrismarineJS/MineflayerArmorManager/issues/255/comments"
        },
        "commits": {
            "href": "https://api.github.com/repos/PrismarineJS/MineflayerArmorManager/pulls/255/commits"
        },
        "html": {
            "href": "https://github.com/PrismarineJS/MineflayerArmorManager/pull/255"
        },
        "issue": {
            "href": "https://api.github.com/repos/PrismarineJS/MineflayerArmorManager/issues/255"
        },
        "review_comment": {
            "href": "https://api.github.com/repos/PrismarineJS/MineflayerArmorManager/pulls/comments{/number}"
        },
        "review_comments": {
            "href": "https://api.github.com/repos/PrismarineJS/MineflayerArmorManager/pulls/255/comments"
        },
        "self": {
            "href": "https://api.github.com/repos/PrismarineJS/MineflayerArmorManager/pulls/255"
        },
        "statuses": {
            "href": "https://api.github.com/repos/PrismarineJS/MineflayerArmorManager/statuses/7dc0790f09de3559554e60f48489e6067fbb840d"
        }
    },
    "active_lock_reason": null,
    "additions": 3,
    "assignee": null,
    "assignees": [],
    "author_association": "CONTRIBUTOR",
    "auto_merge": null,
    "base": {
        "label": "PrismarineJS:master",
        "ref": "master",
        "repo": {
            "allow_forking": true,
            "archive_url": "https://api.github.com/repos/PrismarineJS/MineflayerArmorManager/{archive_format}{/ref}",
            "archived": false,
            "assignees_url": "https://api.github.com/repos/PrismarineJS/MineflayerArmorManager/assignees{/user}",
            "blobs_url": "https://api.github.com/repos/PrismarineJS/MineflayerArmorManager/git/blobs{/sha}",
            "branches_url": "https://api.github.com/repos/PrismarineJS/MineflayerArmorManager/branches{/branch}",
            "clone_url": "https://github.com/PrismarineJS/MineflayerArmorManager.git",
            "collaborators_url": "https://api.github.com/repos/PrismarineJS/MineflayerArmorManager/collaborators{/collaborator}",
            "comments_url": "https://api.github.com/repos/PrismarineJS/MineflayerArmorManager/comments{/number}",
            "commits_url": "https://api.github.com/repos/PrismarineJS/MineflayerArmorManager/commits{/sha}",
            "compare_url": "https://api.github.com/repos/PrismarineJS/MineflayerArmorManager/compare/{base}...{head}",
            "contents_url": "https://api.github.com/repos/PrismarineJS/MineflayerArmorManager/contents/{+path}",
            "contributors_url": "https://api.github.com/repos/PrismarineJS/MineflayerArmorManager/contributors",
            "created_at": "2016-02-10T05:47:15Z",
            "default_branch": "master",
            "deployments_url": "https://api.github.com/repos/PrismarineJS/MineflayerArmorManager/deployments",
            "description": null,
            "disabled": false,
            "downloads_url": "https://api.github.com/repos/PrismarineJS/MineflayerArmorManager/downloads",
            "events_url": "https://api.github.com/repos/PrismarineJS/MineflayerArmorManager/events",
            "fork": false,
            "forks": 7,
            "forks_count": 7,
            "forks_url": "https://api.github.com/repos/PrismarineJS/MineflayerArmorManager/forks",
            "full_name": "PrismarineJS/MineflayerArmorManager",
            "git_commits_url": "https://api.github.com/repos/PrismarineJS/MineflayerArmorManager/git/commits{/sha}",
            "git_refs_url": "https://api.github.com/repos/PrismarineJS/MineflayerArmorManager/git/refs{/sha}",
            "git_tags_url": "https://api.github.com/repos/PrismarineJS/MineflayerArmorManager/git/tags{/sha}",
            "git_url": "git://github.com/PrismarineJS/MineflayerArmorManager.git",
            "has_discussions": false,
            "has_downloads": true,
            "has_issues": true,
            "has_pages": false,
            "has_projects": true,
            "has_wiki": false,
            "homepage": null,
            "hooks_url": "https://api.github.com/repos/PrismarineJS/MineflayerArmorManager/hooks",
            "html_url": "https://github.com/PrismarineJS/MineflayerArmorManager",
            "id": 51423400,
            "is_template": false,
            "issue_comment_url": "https://api.github.com/repos/PrismarineJS/MineflayerArmorManager/issues/comments{/number}",
            "issue_events_url": "https://api.github.com/repos/PrismarineJS/MineflayerArmorManager/issues/events{/number}",
            "issues_url": "https://api.github.com/repos/PrismarineJS/MineflayerArmorManager/issues{/number}",
            "keys_url": "https://api.github.com/repos/PrismarineJS/MineflayerArmorManager/keys{/key_id}",
            "labels_url": "https://api.github.com/repos/PrismarineJS/MineflayerArmorManager/labels{/name}",
            "language": "TypeScript",
            "languages_url": "https://api.github.com/repos/PrismarineJS/MineflayerArmorManager/languages",
            "license": {
                "key": "mit",
                "name": "MIT License",
                "node_id": "MDc6TGljZW5zZTEz",
                "spdx_id": "MIT",
                "url": "https://api.github.com/licenses/mit"
            },
            "merges_url": "https://api.github.com/repos/PrismarineJS/MineflayerArmorManager/merges",
            "milestones_url": "https://api.github.com/repos/PrismarineJS/MineflayerArmorManager/milestones{/number}",
            "mirror_url": null,
            "name": "MineflayerArmorManager",
            "node_id": "MDEwOlJlcG9zaXRvcnk1MTQyMzQwMA==",
            "notifications_url": "https://api.github.com/repos/PrismarineJS/MineflayerArmorManager/notifications{?since,all,participating}",
            "open_issues": 6,
            "open_issues_count": 6,
            "owner": {
                "avatar_url": "https://avatars.githubusercontent.com/u/11053411?v=4",
                "events_url": "https://api.github.com/users/PrismarineJS/events{/privacy}",
                "followers_url": "https://api.github.com/users/PrismarineJS/followers",
                "following_url": "https://api.github.com/users/PrismarineJS/following{/other_user}",
                "gists_url": "https://api.github.com/users/PrismarineJS/gists{/gist_id}",
                "gravatar_id": "",
                "html_url": "https://github.com/PrismarineJS",
                "id": 11053411,
                "login": "PrismarineJS",
                "node_id": "MDEyOk9yZ2FuaXphdGlvbjExMDUzNDEx",
                "organizations_url": "https://api.github.com/users/PrismarineJS/orgs",
                "received_events_url": "https://api.github.com/users/PrismarineJS/received_events",
                "repos_url": "https://api.github.com/users/PrismarineJS/repos",
                "site_admin": false,
                "starred_url": "https://api.github.com/users/PrismarineJS/starred{/owner}{/repo}",
                "subscriptions_url": "https://api.github.com/users/PrismarineJS/subscriptions",
                "type": "Organization",
                "url": "https://api.github.com/users/PrismarineJS"
            },
            "private": false,
            "pulls_url": "https://api.github.com/repos/PrismarineJS/MineflayerArmorManager/pulls{/number}",
            "pushed_at": "2024-06-21T09:24:37Z",
            "releases_url": "https://api.github.com/repos/PrismarineJS/MineflayerArmorManager/releases{/id}",
            "size": 2758,
            "ssh_url": "git@github.com:PrismarineJS/MineflayerArmorManager.git",
            "stargazers_count": 21,
            "stargazers_url": "https://api.github.com/repos/PrismarineJS/MineflayerArmorManager/stargazers",
            "statuses_url": "https://api.github.com/repos/PrismarineJS/MineflayerArmorManager/statuses/{sha}",
            "subscribers_url": "https://api.github.com/repos/PrismarineJS/MineflayerArmorManager/subscribers",
            "subscription_url": "https://api.github.com/repos/PrismarineJS/MineflayerArmorManager/subscription",
            "svn_url": "https://github.com/PrismarineJS/MineflayerArmorManager",
            "tags_url": "https://api.github.com/repos/PrismarineJS/MineflayerArmorManager/tags",
            "teams_url": "https://api.github.com/repos/PrismarineJS/MineflayerArmorManager/teams",
            "topics": [
                "bot",
                "minecraft",
                "mineflayer-bot"
            ],
            "trees_url": "https://api.github.com/repos/PrismarineJS/MineflayerArmorManager/git/trees{/sha}",
            "updated_at": "2024-06-21T09:24:34Z",
            "url": "https://api.github.com/repos/PrismarineJS/MineflayerArmorManager",
            "visibility": "public",
            "watchers": 21,
            "watchers_count": 21,
            "web_commit_signoff_required": false
        },
        "sha": "080b72336d00688245a269218287d66b5d303498",
        "user": {
            "avatar_url": "https://avatars.githubusercontent.com/u/11053411?v=4",
            "events_url": "https://api.github.com/users/PrismarineJS/events{/privacy}",
            "followers_url": "https://api.github.com/users/PrismarineJS/followers",
            "following_url": "https://api.github.com/users/PrismarineJS/following{/other_user}",
            "gists_url": "https://api.github.com/users/PrismarineJS/gists{/gist_id}",
            "gravatar_id": "",
            "html_url": "https://github.com/PrismarineJS",
            "id": 11053411,
            "login": "PrismarineJS",
            "node_id": "MDEyOk9yZ2FuaXphdGlvbjExMDUzNDEx",
            "organizations_url": "https://api.github.com/users/PrismarineJS/orgs",
            "received_events_url": "https://api.github.com/users/PrismarineJS/received_events",
            "repos_url": "https://api.github.com/users/PrismarineJS/repos",
            "site_admin": false,
            "starred_url": "https://api.github.com/users/PrismarineJS/starred{/owner}{/repo}",
            "subscriptions_url": "https://api.github.com/users/PrismarineJS/subscriptions",
            "type": "Organization",
            "url": "https://api.github.com/users/PrismarineJS"
        }
    },
    "body": "Bumps [typescript](https://github.com/Microsoft/TypeScript) from 5.4.5 to 5.5.2.\n<details>\n<summary>Release notes</summary>\n<p><em>Sourced from <a href=\"https://github.com/Microsoft/TypeScript/releases\">typescript's releases</a>.</em></p>\n<blockquote>\n<h2>TypeScript 5.5</h2>\n<p>For release notes, check out the <a href=\"https://devblogs.microsoft.com/typescript/announcing-typescript-5-5/\">release announcement</a>.</p>\n<p>For the complete list of fixed issues, check out the</p>\n<ul>\n<li><a href=\"https://github.com/Microsoft/TypeScript/issues?utf8=%E2%9C%93&amp;q=is%3Aissue+milestone%3A%22TypeScript+5.5.2%22+is%3Aclosed+\">fixed issues query for TypeScript v5.5.2 (Stable)</a>.</li>\n<li><a href=\"https://github.com/Microsoft/TypeScript/issues?utf8=%E2%9C%93&amp;q=is%3Aissue+milestone%3A%22TypeScript+5.5.1%22+is%3Aclosed+\">fixed issues query for TypeScript v5.5.1 (RC)</a>.</li>\n<li><a href=\"https://github.com/Microsoft/TypeScript/issues?utf8=%E2%9C%93&amp;q=is%3Aissue+milestone%3A%22TypeScript+5.5.0%22+is%3Aclosed+\">fixed issues query for TypeScript v5.5.0 (Beta)</a>.</li>\n</ul>\n<p>Downloads are available on:</p>\n<ul>\n<li><a href=\"https://www.npmjs.com/package/typescript\">npm</a></li>\n<li><a href=\"https://www.nuget.org/packages/Microsoft.TypeScript.MSBuild\">NuGet package</a></li>\n</ul>\n<h2>TypeScript 5.5 RC</h2>\n<p>For release notes, check out the <a href=\"https://devblogs.microsoft.com/typescript/announcing-typescript-5-5-rc/\">release announcement</a>.</p>\n<p>For the complete list of fixed issues, check out the</p>\n<ul>\n<li><a href=\"https://github.com/Microsoft/TypeScript/issues?utf8=%E2%9C%93&amp;q=milestone%3A%22TypeScript+5.5.0%22+is%3Aclosed+\">fixed issues query for Typescript 5.5.0 (Beta)</a>.</li>\n<li><a href=\"https://github.com/Microsoft/TypeScript/issues?utf8=%E2%9C%93&amp;q=milestone%3A%22TypeScript+5.5.1%22+is%3Aclosed+\">fixed issues query for Typescript 5.5.1 (RC)</a>.</li>\n</ul>\n<p>Downloads are available on:</p>\n<ul>\n<li><a href=\"https://www.nuget.org/packages/Microsoft.TypeScript.MSBuild\">NuGet package</a></li>\n</ul>\n<h2>TypeScript 5.5 Beta</h2>\n<p>For release notes, check out the <a href=\"https://devblogs.microsoft.com/typescript/announcing-typescript-5-5-beta/\">release announcement</a>.</p>\n<p>For the complete list of fixed issues, check out the</p>\n<ul>\n<li><a href=\"https://github.com/Microsoft/TypeScript/issues?utf8=%E2%9C%93&amp;q=milestone%3A%22TypeScript+5.5.0%22+is%3Aclosed+\">fixed issues query for Typescript 5.5.0 (Beta)</a>.</li>\n</ul>\n<p>Downloads are available on:</p>\n<ul>\n<li><a href=\"https://www.npmjs.com/package/typescript\">npm</a></li>\n<li><a href=\"https://www.nuget.org/packages/Microsoft.TypeScript.MSBuild\">NuGet package</a></li>\n</ul>\n</blockquote>\n</details>\n<details>\n<summary>Commits</summary>\n<ul>\n<li><a href=\"https://github.com/microsoft/TypeScript/commit/ce2e60e4ea15a65992e54a9e8877d16be9d42abb\"><code>ce2e60e</code></a> Update LKG</li>\n<li><a href=\"https://github.com/microsoft/TypeScript/commit/f3b21a2033206e585b2b7b18622104f09eb87f2e\"><code>f3b21a2</code></a> 🤖 Pick PR <a href=\"https://redirect.github.com/Microsoft/TypeScript/issues/58931\">#58931</a> (Defer creation of barebonesLibSourc...) into release-5.5 (#...</li>\n<li><a href=\"https://github.com/microsoft/TypeScript/commit/7b1620bea227ea47f8944a2b02a7ed91691c3046\"><code>7b1620b</code></a> 🤖 Pick PR <a href=\"https://redirect.github.com/Microsoft/TypeScript/issues/58811\">#58811</a> (fix(58801): &quot;Move to file&quot; on globa...) into release-5.5 (#...</li>\n<li><a href=\"https://github.com/microsoft/TypeScript/commit/5367ae10f58edfacd6d3b1e77bd05576036b8ca2\"><code>5367ae1</code></a> Bump version to 5.5.2 and LKG</li>\n<li><a href=\"https://github.com/microsoft/TypeScript/commit/02132e5b8183b0ee73e52d75ff6e28ff0c9fe3d2\"><code>02132e5</code></a> 🤖 Pick PR <a href=\"https://redirect.github.com/Microsoft/TypeScript/issues/58895\">#58895</a> (Fix global when typescript.js loade...) into release-5.5 (#...</li>\n<li><a href=\"https://github.com/microsoft/TypeScript/commit/45b1e3c25444c4193cefb4ca97dfd1064f75a561\"><code>45b1e3c</code></a> 🤖 Pick PR <a href=\"https://redirect.github.com/Microsoft/TypeScript/issues/58872\">#58872</a> (Fix declaration emit crash) into release-5.5 (<a href=\"https://redirect.github.com/Microsoft/TypeScript/issues/58874\">#58874</a>)</li>\n<li><a href=\"https://github.com/microsoft/TypeScript/commit/17933ee33af4a3c44233820abf8bdb0ad2bf143a\"><code>17933ee</code></a> 🤖 Pick PR <a href=\"https://redirect.github.com/Microsoft/TypeScript/issues/58810\">#58810</a> (Fixed declaration emit issue relate...) into release-5.5 (#...</li>\n<li><a href=\"https://github.com/microsoft/TypeScript/commit/552b07e795ec5db98c37fd4ace730133bbf0e781\"><code>552b07e</code></a> 🤖 Pick PR <a href=\"https://redirect.github.com/Microsoft/TypeScript/issues/58786\">#58786</a> (Fixed declaration emit crash relate...) into release-5.5 (#...</li>\n<li><a href=\"https://github.com/microsoft/TypeScript/commit/39c9eebf1707b194b525a4c471b8b6bfe3f52642\"><code>39c9eeb</code></a> Pick <a href=\"https://redirect.github.com/Microsoft/TypeScript/issues/58857\">#58857</a> to release-5.5 (<a href=\"https://redirect.github.com/Microsoft/TypeScript/issues/58858\">#58858</a>)</li>\n<li><a href=\"https://github.com/microsoft/TypeScript/commit/2b0009c6790d66bbc943fc3975eb8bc9e8dec83f\"><code>2b0009c</code></a> 🤖 Pick PR <a href=\"https://redirect.github.com/Microsoft/TypeScript/issues/58846\">#58846</a> (Ensure the updates with crashes rev...) into release-5.5 (#...</li>\n<li>Additional commits viewable in <a href=\"https://github.com/Microsoft/TypeScript/compare/v5.4.5...v5.5.2\">compare view</a></li>\n</ul>\n</details>\n<br />\n\n\n[![Dependabot compatibility score](https://dependabot-badges.githubapp.com/badges/compatibility_score?dependency-name=typescript&package-manager=npm_and_yarn&previous-version=5.4.5&new-version=5.5.2)](https://docs.github.com/en/github/managing-security-vulnerabilities/about-dependabot-security-updates#about-compatibility-scores)\n\nDependabot will resolve any conflicts with this PR as long as you don't alter it yourself. You can also trigger a rebase manually by commenting `@dependabot rebase`.\n\n[//]: # (dependabot-automerge-start)\n[//]: # (dependabot-automerge-end)\n\n---\n\n<details>\n<summary>Dependabot commands and options</summary>\n<br />\n\nYou can trigger Dependabot actions by commenting on this PR:\n- `@dependabot rebase` will rebase this PR\n- `@dependabot recreate` will recreate this PR, overwriting any edits that have been made to it\n- `@dependabot merge` will merge this PR after your CI passes on it\n- `@dependabot squash and merge` will squash and merge this PR after your CI passes on it\n- `@dependabot cancel merge` will cancel a previously requested merge and block automerging\n- `@dependabot reopen` will reopen this PR if it is closed\n- `@dependabot close` will close this PR and stop Dependabot recreating it. You can achieve the same result by closing it manually\n- `@dependabot show <dependency name> ignore conditions` will show all of the ignore conditions of the specified dependency\n- `@dependabot ignore this major version` will close this PR and stop Dependabot creating any more for this major version (unless you reopen the PR or upgrade to it yourself)\n- `@dependabot ignore this minor version` will close this PR and stop Dependabot creating any more for this minor version (unless you reopen the PR or upgrade to it yourself)\n- `@dependabot ignore this dependency` will close this PR and stop Dependabot creating any more for this dependency (unless you reopen the PR or upgrade to it yourself)\n\n\n</details>",
    "changed_files": 1,
    "closed_at": "2024-06-21T09:24:30Z",
    "comment_data": [],
    "comment_regular_data": [],
    "comments": 0,
    "comments_url": "https://api.github.com/repos/PrismarineJS/MineflayerArmorManager/issues/255/comments",
    "commit_data": [
        {
            "author": {
                "avatar_url": "https://avatars.githubusercontent.com/in/29110?v=4",
                "events_url": "https://api.github.com/users/dependabot%5Bbot%5D/events{/privacy}",
                "followers_url": "https://api.github.com/users/dependabot%5Bbot%5D/followers",
                "following_url": "https://api.github.com/users/dependabot%5Bbot%5D/following{/other_user}",
                "gists_url": "https://api.github.com/users/dependabot%5Bbot%5D/gists{/gist_id}",
                "gravatar_id": "",
                "html_url": "https://github.com/apps/dependabot",
                "id": 49699333,
                "login": "dependabot[bot]",
                "node_id": "MDM6Qm90NDk2OTkzMzM=",
                "organizations_url": "https://api.github.com/users/dependabot%5Bbot%5D/orgs",
                "received_events_url": "https://api.github.com/users/dependabot%5Bbot%5D/received_events",
                "repos_url": "https://api.github.com/users/dependabot%5Bbot%5D/repos",
                "site_admin": false,
                "starred_url": "https://api.github.com/users/dependabot%5Bbot%5D/starred{/owner}{/repo}",
                "subscriptions_url": "https://api.github.com/users/dependabot%5Bbot%5D/subscriptions",
                "type": "Bot",
                "url": "https://api.github.com/users/dependabot%5Bbot%5D"
            },
            "comments_url": "https://api.github.com/repos/PrismarineJS/MineflayerArmorManager/commits/7dc0790f09de3559554e60f48489e6067fbb840d/comments",
            "commit": {
                "author": {
                    "date": "2024-06-21T09:24:12Z",
                    "email": "49699333+dependabot[bot]@users.noreply.github.com",
                    "name": "dependabot[bot]"
                },
                "comment_count": 0,
                "committer": {
                    "date": "2024-06-21T09:24:12Z",
                    "email": "noreply@github.com",
                    "name": "GitHub"
                },
                "message": "build(deps-dev): bump typescript from 5.4.5 to 5.5.2\n\nBumps [typescript](https://github.com/Microsoft/TypeScript) from 5.4.5 to 5.5.2.\n- [Release notes](https://github.com/Microsoft/TypeScript/releases)\n- [Changelog](https://github.com/microsoft/TypeScript/blob/main/azure-pipelines.release.yml)\n- [Commits](https://github.com/Microsoft/TypeScript/compare/v5.4.5...v5.5.2)\n\n---\nupdated-dependencies:\n- dependency-name: typescript\n  dependency-type: direct:development\n  update-type: version-update:semver-minor\n...\n\nSigned-off-by: dependabot[bot] <support@github.com>",
                "tree": {
                    "sha": "2f06b1caa4a97e372b2a7033aee57426372a03f8",
                    "url": "https://api.github.com/repos/PrismarineJS/MineflayerArmorManager/git/trees/2f06b1caa4a97e372b2a7033aee57426372a03f8"
                },
                "url": "https://api.github.com/repos/PrismarineJS/MineflayerArmorManager/git/commits/7dc0790f09de3559554e60f48489e6067fbb840d",
                "verification": {
                    "payload": "tree 2f06b1caa4a97e372b2a7033aee57426372a03f8\nparent 080b72336d00688245a269218287d66b5d303498\nauthor dependabot[bot] <49699333+dependabot[bot]@users.noreply.github.com> 1718961852 +0000\ncommitter GitHub <noreply@github.com> 1718961852 +0000\n\nbuild(deps-dev): bump typescript from 5.4.5 to 5.5.2\n\nBumps [typescript](https://github.com/Microsoft/TypeScript) from 5.4.5 to 5.5.2.\n- [Release notes](https://github.com/Microsoft/TypeScript/releases)\n- [Changelog](https://github.com/microsoft/TypeScript/blob/main/azure-pipelines.release.yml)\n- [Commits](https://github.com/Microsoft/TypeScript/compare/v5.4.5...v5.5.2)\n\n---\nupdated-dependencies:\n- dependency-name: typescript\n  dependency-type: direct:development\n  update-type: version-update:semver-minor\n...\n\nSigned-off-by: dependabot[bot] <support@github.com>",
                    "reason": "valid",
                    "signature": "-----BEGIN PGP SIGNATURE-----\n\nwsFcBAABCAAQBQJmdUa8CRC1aQ7uu5UhlAAAIoIQAHcpMJjaKv/UoODdFUhIfwVZ\nRk7/41vjQgQj8rHqzs9n3iKoQMcSS8YNc9yhulh6TGQKMRaIzSldbu0vGFAiTKG5\nRGdEvoFqCvoNqNtgBfr3mYs/FQM1QzsWMxWNCHRL3VDVEthjvJvTOf5TN9C3tnpX\nc2ZvcbrleCwLuPJhI+2l2p9rYk+LVPmk9RfoMDaZNCUU0MK4MXuFBs93fe4h8BOK\nziGdLIqeJeao+OsYjZzqNNDW8J4evL+VPY0r5lwRmnep4AMRXLX5wjLl6OqV/ro3\nDiXmAhJ7oMXW4VHC42AP9Ud5BZLTPuQony2lrBp62LWUK/qRe2p0RWY4cZhAoe/V\nb/HgEjmpXOxhaoMXX2F0lTiCRZ3ZWBp/plNYKd96/ScM8q96jUsJ4/GX7jYx9tm3\nd189iI4QyCVASv+TdSLSIiHWTPOIhEx6elRHtnruP/mx9c+x5oU0uhEBG3J+OK1+\n5EUfnz4XHrX9QTioljctCG4FfrtZdH/XwtKwMlckCjf0nI2zFSKvVeZb2sPx/4Aq\nvWyYiJSNZX2p2TzWuvZktNlnRRT4dPl9/R9wCh+Ct2NZNJQsw6Mv5tSMXnGffjhy\nhhKZ/3RNKeTxd9A1YPapTatlnegeJSmJ1iORyeuxqwZsTJfWQhfsxBAw0s4pedc9\npaqz2pRQXeq+7i2gEZUE\n=32G+\n-----END PGP SIGNATURE-----\n",
                    "verified": true
                }
            },
            "committer": {
                "avatar_url": "https://avatars.githubusercontent.com/u/19864447?v=4",
                "events_url": "https://api.github.com/users/web-flow/events{/privacy}",
                "followers_url": "https://api.github.com/users/web-flow/followers",
                "following_url": "https://api.github.com/users/web-flow/following{/other_user}",
                "gists_url": "https://api.github.com/users/web-flow/gists{/gist_id}",
                "gravatar_id": "",
                "html_url": "https://github.com/web-flow",
                "id": 19864447,
                "login": "web-flow",
                "node_id": "MDQ6VXNlcjE5ODY0NDQ3",
                "organizations_url": "https://api.github.com/users/web-flow/orgs",
                "received_events_url": "https://api.github.com/users/web-flow/received_events",
                "repos_url": "https://api.github.com/users/web-flow/repos",
                "site_admin": false,
                "starred_url": "https://api.github.com/users/web-flow/starred{/owner}{/repo}",
                "subscriptions_url": "https://api.github.com/users/web-flow/subscriptions",
                "type": "User",
                "url": "https://api.github.com/users/web-flow"
            },
            "html_url": "https://github.com/PrismarineJS/MineflayerArmorManager/commit/7dc0790f09de3559554e60f48489e6067fbb840d",
            "node_id": "C_kwDOAxCoqNoAKDdkYzA3OTBmMDlkZTM1NTk1NTRlNjBmNDg0ODllNjA2N2ZiYjg0MGQ",
            "parents": [
                {
                    "html_url": "https://github.com/PrismarineJS/MineflayerArmorManager/commit/080b72336d00688245a269218287d66b5d303498",
                    "sha": "080b72336d00688245a269218287d66b5d303498",
                    "url": "https://api.github.com/repos/PrismarineJS/MineflayerArmorManager/commits/080b72336d00688245a269218287d66b5d303498"
                }
            ],
            "sha": "7dc0790f09de3559554e60f48489e6067fbb840d",
            "url": "https://api.github.com/repos/PrismarineJS/MineflayerArmorManager/commits/7dc0790f09de3559554e60f48489e6067fbb840d"
        }
    ],
    "commits": 1,
    "commits_url": "https://api.github.com/repos/PrismarineJS/MineflayerArmorManager/pulls/255/commits",
    "created_at": "2024-06-21T09:24:13Z",
    "deletions": 102,
    "diff_url": "https://github.com/PrismarineJS/MineflayerArmorManager/pull/255.diff",
    "draft": false,
    "head": {
        "label": "PrismarineJS:dependabot/npm_and_yarn/typescript-5.5.2",
        "ref": "dependabot/npm_and_yarn/typescript-5.5.2",
        "repo": {
            "allow_forking": true,
            "archive_url": "https://api.github.com/repos/PrismarineJS/MineflayerArmorManager/{archive_format}{/ref}",
            "archived": false,
            "assignees_url": "https://api.github.com/repos/PrismarineJS/MineflayerArmorManager/assignees{/user}",
            "blobs_url": "https://api.github.com/repos/PrismarineJS/MineflayerArmorManager/git/blobs{/sha}",
            "branches_url": "https://api.github.com/repos/PrismarineJS/MineflayerArmorManager/branches{/branch}",
            "clone_url": "https://github.com/PrismarineJS/MineflayerArmorManager.git",
            "collaborators_url": "https://api.github.com/repos/PrismarineJS/MineflayerArmorManager/collaborators{/collaborator}",
            "comments_url": "https://api.github.com/repos/PrismarineJS/MineflayerArmorManager/comments{/number}",
            "commits_url": "https://api.github.com/repos/PrismarineJS/MineflayerArmorManager/commits{/sha}",
            "compare_url": "https://api.github.com/repos/PrismarineJS/MineflayerArmorManager/compare/{base}...{head}",
            "contents_url": "https://api.github.com/repos/PrismarineJS/MineflayerArmorManager/contents/{+path}",
            "contributors_url": "https://api.github.com/repos/PrismarineJS/MineflayerArmorManager/contributors",
            "created_at": "2016-02-10T05:47:15Z",
            "default_branch": "master",
            "deployments_url": "https://api.github.com/repos/PrismarineJS/MineflayerArmorManager/deployments",
            "description": null,
            "disabled": false,
            "downloads_url": "https://api.github.com/repos/PrismarineJS/MineflayerArmorManager/downloads",
            "events_url": "https://api.github.com/repos/PrismarineJS/MineflayerArmorManager/events",
            "fork": false,
            "forks": 7,
            "forks_count": 7,
            "forks_url": "https://api.github.com/repos/PrismarineJS/MineflayerArmorManager/forks",
            "full_name": "PrismarineJS/MineflayerArmorManager",
            "git_commits_url": "https://api.github.com/repos/PrismarineJS/MineflayerArmorManager/git/commits{/sha}",
            "git_refs_url": "https://api.github.com/repos/PrismarineJS/MineflayerArmorManager/git/refs{/sha}",
            "git_tags_url": "https://api.github.com/repos/PrismarineJS/MineflayerArmorManager/git/tags{/sha}",
            "git_url": "git://github.com/PrismarineJS/MineflayerArmorManager.git",
            "has_discussions": false,
            "has_downloads": true,
            "has_issues": true,
            "has_pages": false,
            "has_projects": true,
            "has_wiki": false,
            "homepage": null,
            "hooks_url": "https://api.github.com/repos/PrismarineJS/MineflayerArmorManager/hooks",
            "html_url": "https://github.com/PrismarineJS/MineflayerArmorManager",
            "id": 51423400,
            "is_template": false,
            "issue_comment_url": "https://api.github.com/repos/PrismarineJS/MineflayerArmorManager/issues/comments{/number}",
            "issue_events_url": "https://api.github.com/repos/PrismarineJS/MineflayerArmorManager/issues/events{/number}",
            "issues_url": "https://api.github.com/repos/PrismarineJS/MineflayerArmorManager/issues{/number}",
            "keys_url": "https://api.github.com/repos/PrismarineJS/MineflayerArmorManager/keys{/key_id}",
            "labels_url": "https://api.github.com/repos/PrismarineJS/MineflayerArmorManager/labels{/name}",
            "language": "TypeScript",
            "languages_url": "https://api.github.com/repos/PrismarineJS/MineflayerArmorManager/languages",
            "license": {
                "key": "mit",
                "name": "MIT License",
                "node_id": "MDc6TGljZW5zZTEz",
                "spdx_id": "MIT",
                "url": "https://api.github.com/licenses/mit"
            },
            "merges_url": "https://api.github.com/repos/PrismarineJS/MineflayerArmorManager/merges",
            "milestones_url": "https://api.github.com/repos/PrismarineJS/MineflayerArmorManager/milestones{/number}",
            "mirror_url": null,
            "name": "MineflayerArmorManager",
            "node_id": "MDEwOlJlcG9zaXRvcnk1MTQyMzQwMA==",
            "notifications_url": "https://api.github.com/repos/PrismarineJS/MineflayerArmorManager/notifications{?since,all,participating}",
            "open_issues": 6,
            "open_issues_count": 6,
            "owner": {
                "avatar_url": "https://avatars.githubusercontent.com/u/11053411?v=4",
                "events_url": "https://api.github.com/users/PrismarineJS/events{/privacy}",
                "followers_url": "https://api.github.com/users/PrismarineJS/followers",
                "following_url": "https://api.github.com/users/PrismarineJS/following{/other_user}",
                "gists_url": "https://api.github.com/users/PrismarineJS/gists{/gist_id}",
                "gravatar_id": "",
                "html_url": "https://github.com/PrismarineJS",
                "id": 11053411,
                "login": "PrismarineJS",
                "node_id": "MDEyOk9yZ2FuaXphdGlvbjExMDUzNDEx",
                "organizations_url": "https://api.github.com/users/PrismarineJS/orgs",
                "received_events_url": "https://api.github.com/users/PrismarineJS/received_events",
                "repos_url": "https://api.github.com/users/PrismarineJS/repos",
                "site_admin": false,
                "starred_url": "https://api.github.com/users/PrismarineJS/starred{/owner}{/repo}",
                "subscriptions_url": "https://api.github.com/users/PrismarineJS/subscriptions",
                "type": "Organization",
                "url": "https://api.github.com/users/PrismarineJS"
            },
            "private": false,
            "pulls_url": "https://api.github.com/repos/PrismarineJS/MineflayerArmorManager/pulls{/number}",
            "pushed_at": "2024-06-21T09:24:37Z",
            "releases_url": "https://api.github.com/repos/PrismarineJS/MineflayerArmorManager/releases{/id}",
            "size": 2758,
            "ssh_url": "git@github.com:PrismarineJS/MineflayerArmorManager.git",
            "stargazers_count": 21,
            "stargazers_url": "https://api.github.com/repos/PrismarineJS/MineflayerArmorManager/stargazers",
            "statuses_url": "https://api.github.com/repos/PrismarineJS/MineflayerArmorManager/statuses/{sha}",
            "subscribers_url": "https://api.github.com/repos/PrismarineJS/MineflayerArmorManager/subscribers",
            "subscription_url": "https://api.github.com/repos/PrismarineJS/MineflayerArmorManager/subscription",
            "svn_url": "https://github.com/PrismarineJS/MineflayerArmorManager",
            "tags_url": "https://api.github.com/repos/PrismarineJS/MineflayerArmorManager/tags",
            "teams_url": "https://api.github.com/repos/PrismarineJS/MineflayerArmorManager/teams",
            "topics": [
                "bot",
                "minecraft",
                "mineflayer-bot"
            ],
            "trees_url": "https://api.github.com/repos/PrismarineJS/MineflayerArmorManager/git/trees{/sha}",
            "updated_at": "2024-06-21T09:24:34Z",
            "url": "https://api.github.com/repos/PrismarineJS/MineflayerArmorManager",
            "visibility": "public",
            "watchers": 21,
            "watchers_count": 21,
            "web_commit_signoff_required": false
        },
        "sha": "7dc0790f09de3559554e60f48489e6067fbb840d",
        "user": {
            "avatar_url": "https://avatars.githubusercontent.com/u/11053411?v=4",
            "events_url": "https://api.github.com/users/PrismarineJS/events{/privacy}",
            "followers_url": "https://api.github.com/users/PrismarineJS/followers",
            "following_url": "https://api.github.com/users/PrismarineJS/following{/other_user}",
            "gists_url": "https://api.github.com/users/PrismarineJS/gists{/gist_id}",
            "gravatar_id": "",
            "html_url": "https://github.com/PrismarineJS",
            "id": 11053411,
            "login": "PrismarineJS",
            "node_id": "MDEyOk9yZ2FuaXphdGlvbjExMDUzNDEx",
            "organizations_url": "https://api.github.com/users/PrismarineJS/orgs",
            "received_events_url": "https://api.github.com/users/PrismarineJS/received_events",
            "repos_url": "https://api.github.com/users/PrismarineJS/repos",
            "site_admin": false,
            "starred_url": "https://api.github.com/users/PrismarineJS/starred{/owner}{/repo}",
            "subscriptions_url": "https://api.github.com/users/PrismarineJS/subscriptions",
            "type": "Organization",
            "url": "https://api.github.com/users/PrismarineJS"
        }
    },
    "html_url": "https://github.com/PrismarineJS/MineflayerArmorManager/pull/255",
    "id": 1932101291,
    "issue_url": "https://api.github.com/repos/PrismarineJS/MineflayerArmorManager/issues/255",
    "labels": [
        {
            "color": "0366d6",
            "default": false,
            "description": "Pull requests that update a dependency file",
            "id": 2211501809,
            "name": "dependencies",
            "node_id": "MDU6TGFiZWwyMjExNTAxODA5",
            "url": "https://api.github.com/repos/PrismarineJS/MineflayerArmorManager/labels/dependencies"
        }
    ],
    "locked": false,
    "maintainer_can_modify": false,
    "merge_commit_sha": "46a1a00a73fa8e11439562408dbd81e32915947d",
    "mergeable": null,
    "mergeable_state": "unknown",
    "merged": true,
    "merged_at": "2024-06-21T09:24:30Z",
    "merged_by": {
        "avatar_url": "https://avatars.githubusercontent.com/in/15368?v=4",
        "events_url": "https://api.github.com/users/github-actions%5Bbot%5D/events{/privacy}",
        "followers_url": "https://api.github.com/users/github-actions%5Bbot%5D/followers",
        "following_url": "https://api.github.com/users/github-actions%5Bbot%5D/following{/other_user}",
        "gists_url": "https://api.github.com/users/github-actions%5Bbot%5D/gists{/gist_id}",
        "gravatar_id": "",
        "html_url": "https://github.com/apps/github-actions",
        "id": 41898282,
        "login": "github-actions[bot]",
        "node_id": "MDM6Qm90NDE4OTgyODI=",
        "organizations_url": "https://api.github.com/users/github-actions%5Bbot%5D/orgs",
        "received_events_url": "https://api.github.com/users/github-actions%5Bbot%5D/received_events",
        "repos_url": "https://api.github.com/users/github-actions%5Bbot%5D/repos",
        "site_admin": false,
        "starred_url": "https://api.github.com/users/github-actions%5Bbot%5D/starred{/owner}{/repo}",
        "subscriptions_url": "https://api.github.com/users/github-actions%5Bbot%5D/subscriptions",
        "type": "Bot",
        "url": "https://api.github.com/users/github-actions%5Bbot%5D"
    },
    "milestone": null,
    "node_id": "PR_kwDOAxCoqM5zKYar",
    "number": 255,
    "patch_url": "https://github.com/PrismarineJS/MineflayerArmorManager/pull/255.patch",
    "rebaseable": null,
    "requested_reviewers": [],
    "requested_teams": [],
    "review_comment_url": "https://api.github.com/repos/PrismarineJS/MineflayerArmorManager/pulls/comments{/number}",
    "review_comments": 0,
    "review_comments_url": "https://api.github.com/repos/PrismarineJS/MineflayerArmorManager/pulls/255/comments",
    "state": "closed",
    "statuses_url": "https://api.github.com/repos/PrismarineJS/MineflayerArmorManager/statuses/7dc0790f09de3559554e60f48489e6067fbb840d",
    "title": "build(deps-dev): bump typescript from 5.4.5 to 5.5.2",
    "updated_at": "2024-06-21T09:24:38Z",
    "url": "https://api.github.com/repos/PrismarineJS/MineflayerArmorManager/pulls/255",
    "user": {
        "avatar_url": "https://avatars.githubusercontent.com/in/29110?v=4",
        "events_url": "https://api.github.com/users/dependabot%5Bbot%5D/events{/privacy}",
        "followers_url": "https://api.github.com/users/dependabot%5Bbot%5D/followers",
        "following_url": "https://api.github.com/users/dependabot%5Bbot%5D/following{/other_user}",
        "gists_url": "https://api.github.com/users/dependabot%5Bbot%5D/gists{/gist_id}",
        "gravatar_id": "",
        "html_url": "https://github.com/apps/dependabot",
        "id": 49699333,
        "login": "dependabot[bot]",
        "node_id": "MDM6Qm90NDk2OTkzMzM=",
        "organizations_url": "https://api.github.com/users/dependabot%5Bbot%5D/orgs",
        "received_events_url": "https://api.github.com/users/dependabot%5Bbot%5D/received_events",
        "repos_url": "https://api.github.com/users/dependabot%5Bbot%5D/repos",
        "site_admin": false,
        "starred_url": "https://api.github.com/users/dependabot%5Bbot%5D/starred{/owner}{/repo}",
        "subscriptions_url": "https://api.github.com/users/dependabot%5Bbot%5D/subscriptions",
        "type": "Bot",
        "url": "https://api.github.com/users/dependabot%5Bbot%5D"
    }
}