{
    "_links": {
        "comments": {
            "href": "https://api.github.com/repos/PrismarineJS/MineflayerArmorManager/issues/305/comments"
        },
        "commits": {
            "href": "https://api.github.com/repos/PrismarineJS/MineflayerArmorManager/pulls/305/commits"
        },
        "html": {
            "href": "https://github.com/PrismarineJS/MineflayerArmorManager/pull/305"
        },
        "issue": {
            "href": "https://api.github.com/repos/PrismarineJS/MineflayerArmorManager/issues/305"
        },
        "review_comment": {
            "href": "https://api.github.com/repos/PrismarineJS/MineflayerArmorManager/pulls/comments{/number}"
        },
        "review_comments": {
            "href": "https://api.github.com/repos/PrismarineJS/MineflayerArmorManager/pulls/305/comments"
        },
        "self": {
            "href": "https://api.github.com/repos/PrismarineJS/MineflayerArmorManager/pulls/305"
        },
        "statuses": {
            "href": "https://api.github.com/repos/PrismarineJS/MineflayerArmorManager/statuses/cd49ad759bdb394f4e6a34499e58f589a25d2b74"
        }
    },
    "active_lock_reason": null,
    "additions": 246,
    "assignee": null,
    "assignees": [],
    "author_association": "CONTRIBUTOR",
    "auto_merge": null,
    "base": {
        "label": "PrismarineJS:master",
        "ref": "master",
        "repo": {
            "allow_forking": true,
            "archive_url": "https://api.github.com/repos/PrismarineJS/MineflayerArmorManager/{archive_format}{/ref}",
            "archived": false,
            "assignees_url": "https://api.github.com/repos/PrismarineJS/MineflayerArmorManager/assignees{/user}",
            "blobs_url": "https://api.github.com/repos/PrismarineJS/MineflayerArmorManager/git/blobs{/sha}",
            "branches_url": "https://api.github.com/repos/PrismarineJS/MineflayerArmorManager/branches{/branch}",
            "clone_url": "https://github.com/PrismarineJS/MineflayerArmorManager.git",
            "collaborators_url": "https://api.github.com/repos/PrismarineJS/MineflayerArmorManager/collaborators{/collaborator}",
            "comments_url": "https://api.github.com/repos/PrismarineJS/MineflayerArmorManager/comments{/number}",
            "commits_url": "https://api.github.com/repos/PrismarineJS/MineflayerArmorManager/commits{/sha}",
            "compare_url": "https://api.github.com/repos/PrismarineJS/MineflayerArmorManager/compare/{base}...{head}",
            "contents_url": "https://api.github.com/repos/PrismarineJS/MineflayerArmorManager/contents/{+path}",
            "contributors_url": "https://api.github.com/repos/PrismarineJS/MineflayerArmorManager/contributors",
            "created_at": "2016-02-10T05:47:15Z",
            "default_branch": "master",
            "deployments_url": "https://api.github.com/repos/PrismarineJS/MineflayerArmorManager/deployments",
            "description": null,
            "disabled": false,
            "downloads_url": "https://api.github.com/repos/PrismarineJS/MineflayerArmorManager/downloads",
            "events_url": "https://api.github.com/repos/PrismarineJS/MineflayerArmorManager/events",
            "fork": false,
            "forks": 7,
            "forks_count": 7,
            "forks_url": "https://api.github.com/repos/PrismarineJS/MineflayerArmorManager/forks",
            "full_name": "PrismarineJS/MineflayerArmorManager",
            "git_commits_url": "https://api.github.com/repos/PrismarineJS/MineflayerArmorManager/git/commits{/sha}",
            "git_refs_url": "https://api.github.com/repos/PrismarineJS/MineflayerArmorManager/git/refs{/sha}",
            "git_tags_url": "https://api.github.com/repos/PrismarineJS/MineflayerArmorManager/git/tags{/sha}",
            "git_url": "git://github.com/PrismarineJS/MineflayerArmorManager.git",
            "has_discussions": false,
            "has_downloads": true,
            "has_issues": true,
            "has_pages": false,
            "has_projects": true,
            "has_wiki": false,
            "homepage": null,
            "hooks_url": "https://api.github.com/repos/PrismarineJS/MineflayerArmorManager/hooks",
            "html_url": "https://github.com/PrismarineJS/MineflayerArmorManager",
            "id": 51423400,
            "is_template": false,
            "issue_comment_url": "https://api.github.com/repos/PrismarineJS/MineflayerArmorManager/issues/comments{/number}",
            "issue_events_url": "https://api.github.com/repos/PrismarineJS/MineflayerArmorManager/issues/events{/number}",
            "issues_url": "https://api.github.com/repos/PrismarineJS/MineflayerArmorManager/issues{/number}",
            "keys_url": "https://api.github.com/repos/PrismarineJS/MineflayerArmorManager/keys{/key_id}",
            "labels_url": "https://api.github.com/repos/PrismarineJS/MineflayerArmorManager/labels{/name}",
            "language": "TypeScript",
            "languages_url": "https://api.github.com/repos/PrismarineJS/MineflayerArmorManager/languages",
            "license": {
                "key": "mit",
                "name": "MIT License",
                "node_id": "MDc6TGljZW5zZTEz",
                "spdx_id": "MIT",
                "url": "https://api.github.com/licenses/mit"
            },
            "merges_url": "https://api.github.com/repos/PrismarineJS/MineflayerArmorManager/merges",
            "milestones_url": "https://api.github.com/repos/PrismarineJS/MineflayerArmorManager/milestones{/number}",
            "mirror_url": null,
            "name": "MineflayerArmorManager",
            "node_id": "MDEwOlJlcG9zaXRvcnk1MTQyMzQwMA==",
            "notifications_url": "https://api.github.com/repos/PrismarineJS/MineflayerArmorManager/notifications{?since,all,participating}",
            "open_issues": 6,
            "open_issues_count": 6,
            "owner": {
                "avatar_url": "https://avatars.githubusercontent.com/u/11053411?v=4",
                "events_url": "https://api.github.com/users/PrismarineJS/events{/privacy}",
                "followers_url": "https://api.github.com/users/PrismarineJS/followers",
                "following_url": "https://api.github.com/users/PrismarineJS/following{/other_user}",
                "gists_url": "https://api.github.com/users/PrismarineJS/gists{/gist_id}",
                "gravatar_id": "",
                "html_url": "https://github.com/PrismarineJS",
                "id": 11053411,
                "login": "PrismarineJS",
                "node_id": "MDEyOk9yZ2FuaXphdGlvbjExMDUzNDEx",
                "organizations_url": "https://api.github.com/users/PrismarineJS/orgs",
                "received_events_url": "https://api.github.com/users/PrismarineJS/received_events",
                "repos_url": "https://api.github.com/users/PrismarineJS/repos",
                "site_admin": false,
                "starred_url": "https://api.github.com/users/PrismarineJS/starred{/owner}{/repo}",
                "subscriptions_url": "https://api.github.com/users/PrismarineJS/subscriptions",
                "type": "Organization",
                "url": "https://api.github.com/users/PrismarineJS"
            },
            "private": false,
            "pulls_url": "https://api.github.com/repos/PrismarineJS/MineflayerArmorManager/pulls{/number}",
            "pushed_at": "2024-10-01T09:04:59Z",
            "releases_url": "https://api.github.com/repos/PrismarineJS/MineflayerArmorManager/releases{/id}",
            "size": 2861,
            "ssh_url": "git@github.com:PrismarineJS/MineflayerArmorManager.git",
            "stargazers_count": 24,
            "stargazers_url": "https://api.github.com/repos/PrismarineJS/MineflayerArmorManager/stargazers",
            "statuses_url": "https://api.github.com/repos/PrismarineJS/MineflayerArmorManager/statuses/{sha}",
            "subscribers_url": "https://api.github.com/repos/PrismarineJS/MineflayerArmorManager/subscribers",
            "subscription_url": "https://api.github.com/repos/PrismarineJS/MineflayerArmorManager/subscription",
            "svn_url": "https://github.com/PrismarineJS/MineflayerArmorManager",
            "tags_url": "https://api.github.com/repos/PrismarineJS/MineflayerArmorManager/tags",
            "teams_url": "https://api.github.com/repos/PrismarineJS/MineflayerArmorManager/teams",
            "topics": [
                "bot",
                "minecraft",
                "mineflayer-bot"
            ],
            "trees_url": "https://api.github.com/repos/PrismarineJS/MineflayerArmorManager/git/trees{/sha}",
            "updated_at": "2024-10-01T09:04:56Z",
            "url": "https://api.github.com/repos/PrismarineJS/MineflayerArmorManager",
            "visibility": "public",
            "watchers": 24,
            "watchers_count": 24,
            "web_commit_signoff_required": false
        },
        "sha": "2ab4fc0ba8da52ddec22e04d16fe17c9a0fa4018",
        "user": {
            "avatar_url": "https://avatars.githubusercontent.com/u/11053411?v=4",
            "events_url": "https://api.github.com/users/PrismarineJS/events{/privacy}",
            "followers_url": "https://api.github.com/users/PrismarineJS/followers",
            "following_url": "https://api.github.com/users/PrismarineJS/following{/other_user}",
            "gists_url": "https://api.github.com/users/PrismarineJS/gists{/gist_id}",
            "gravatar_id": "",
            "html_url": "https://github.com/PrismarineJS",
            "id": 11053411,
            "login": "PrismarineJS",
            "node_id": "MDEyOk9yZ2FuaXphdGlvbjExMDUzNDEx",
            "organizations_url": "https://api.github.com/users/PrismarineJS/orgs",
            "received_events_url": "https://api.github.com/users/PrismarineJS/received_events",
            "repos_url": "https://api.github.com/users/PrismarineJS/repos",
            "site_admin": false,
            "starred_url": "https://api.github.com/users/PrismarineJS/starred{/owner}{/repo}",
            "subscriptions_url": "https://api.github.com/users/PrismarineJS/subscriptions",
            "type": "Organization",
            "url": "https://api.github.com/users/PrismarineJS"
        }
    },
    "body": "Bumps [@typescript-eslint/eslint-plugin](https://github.com/typescript-eslint/typescript-eslint/tree/HEAD/packages/eslint-plugin) from 8.7.0 to 8.8.0.\n<details>\n<summary>Release notes</summary>\n<p><em>Sourced from <a href=\"https://github.com/typescript-eslint/typescript-eslint/releases\"><code>@​typescript-eslint/eslint-plugin</code>'s releases</a>.</em></p>\n<blockquote>\n<h2>v8.8.0</h2>\n<h2>8.8.0 (2024-09-30)</h2>\n<h3>🚀 Features</h3>\n<ul>\n<li><strong>eslint-plugin:</strong> [no-unnecessary-condition] add checkTypePredicates (<a href=\"https://redirect.github.com/typescript-eslint/typescript-eslint/pull/10009\">#10009</a>)</li>\n<li><strong>eslint-plugin:</strong> [return-await] check for-await loop iteree (<a href=\"https://redirect.github.com/typescript-eslint/typescript-eslint/pull/10008\">#10008</a>)</li>\n</ul>\n<h3>🩹 Fixes</h3>\n<ul>\n<li>remove <code>export type *</code> in d.ts to support TS&lt;5.0 (<a href=\"https://redirect.github.com/typescript-eslint/typescript-eslint/pull/10070\">#10070</a>)</li>\n<li><strong>eslint-plugin:</strong> [no-unnecessary-template-expression] should underline template syntax with squiggly lines (<a href=\"https://redirect.github.com/typescript-eslint/typescript-eslint/pull/10044\">#10044</a>)</li>\n<li><strong>eslint-plugin:</strong> [no-deprecated] max callstack exceeded when class implements itself (<a href=\"https://redirect.github.com/typescript-eslint/typescript-eslint/pull/10040\">#10040</a>)</li>\n<li><strong>eslint-plugin:</strong> [no-misused-promises] check contextual type (<a href=\"https://redirect.github.com/typescript-eslint/typescript-eslint/pull/10042\">#10042</a>)</li>\n<li><strong>eslint-plugin:</strong> [prefer-literal-enum-member] allow nested bitwise operations (<a href=\"https://redirect.github.com/typescript-eslint/typescript-eslint/pull/10037\">#10037</a>)</li>\n<li><strong>type-utils:</strong> check for type parameters on <code>isBuiltinSymbolLikeRecurser()</code> (<a href=\"https://redirect.github.com/typescript-eslint/typescript-eslint/pull/10026\">#10026</a>)</li>\n<li><strong>utils:</strong> update missing type information message (<a href=\"https://redirect.github.com/typescript-eslint/typescript-eslint/pull/10043\">#10043</a>)</li>\n</ul>\n<h3>❤️  Thank You</h3>\n<ul>\n<li>auvred <a href=\"https://github.com/auvred\"><code>@​auvred</code></a></li>\n<li>Josh Goldberg ✨</li>\n<li>Kirk Waiblinger <a href=\"https://github.com/kirkwaiblinger\"><code>@​kirkwaiblinger</code></a></li>\n<li>Ronen Amiel</li>\n<li>Tarun Chauhan <a href=\"https://github.com/tarunrajput\"><code>@​tarunrajput</code></a></li>\n<li>YeonJuan <a href=\"https://github.com/yeonjuan\"><code>@​yeonjuan</code></a></li>\n</ul>\n<p>You can read about our <a href=\"https://main--typescript-eslint.netlify.app/users/versioning\">versioning strategy</a> and <a href=\"https://main--typescript-eslint.netlify.app/users/releases\">releases</a> on our website.</p>\n</blockquote>\n</details>\n<details>\n<summary>Changelog</summary>\n<p><em>Sourced from <a href=\"https://github.com/typescript-eslint/typescript-eslint/blob/main/packages/eslint-plugin/CHANGELOG.md\"><code>@​typescript-eslint/eslint-plugin</code>'s changelog</a>.</em></p>\n<blockquote>\n<h2>8.8.0 (2024-09-30)</h2>\n<h3>🚀 Features</h3>\n<ul>\n<li>\n<p><strong>eslint-plugin:</strong> [no-unnecessary-condition] add checkTypePredicates</p>\n</li>\n<li>\n<p><strong>eslint-plugin:</strong> [return-await] check for-await loop iteree</p>\n</li>\n</ul>\n<h3>🩹 Fixes</h3>\n<ul>\n<li>\n<p>remove <code>export type *</code> in d.ts to support TS&lt;5.0</p>\n</li>\n<li>\n<p><strong>eslint-plugin:</strong> [no-unnecessary-template-expression] should underline template syntax with squiggly lines</p>\n</li>\n<li>\n<p><strong>type-utils:</strong> check for type parameters on <code>isBuiltinSymbolLikeRecurser()</code></p>\n</li>\n<li>\n<p><strong>eslint-plugin:</strong> [no-deprecated] max callstack exceeded when class implements itself</p>\n</li>\n<li>\n<p><strong>eslint-plugin:</strong> [no-misused-promises] check contextual type</p>\n</li>\n<li>\n<p><strong>eslint-plugin:</strong> [prefer-literal-enum-member] allow nested bitwise operations</p>\n</li>\n</ul>\n<h3>❤️  Thank You</h3>\n<ul>\n<li>auvred</li>\n<li>Josh Goldberg ✨</li>\n<li>Kirk Waiblinger</li>\n<li>Ronen Amiel</li>\n<li>Tarun Chauhan</li>\n<li>YeonJuan</li>\n</ul>\n<p>You can read about our <a href=\"https://main--typescript-eslint.netlify.app/users/versioning\">versioning strategy</a> and <a href=\"https://main--typescript-eslint.netlify.app/users/releases\">releases</a> on our website.</p>\n</blockquote>\n</details>\n<details>\n<summary>Commits</summary>\n<ul>\n<li><a href=\"https://github.com/typescript-eslint/typescript-eslint/commit/2055cfbbdef5d9b7ee4ed7180f0af93eed245235\"><code>2055cfb</code></a> chore(release): publish 8.8.0</li>\n<li><a href=\"https://github.com/typescript-eslint/typescript-eslint/commit/b121bd9557986799b6ccd5c4f9a6722c34329665\"><code>b121bd9</code></a> feat(eslint-plugin): [return-await] check for-await loop iteree (<a href=\"https://github.com/typescript-eslint/typescript-eslint/tree/HEAD/packages/eslint-plugin/issues/10008\">#10008</a>)</li>\n<li><a href=\"https://github.com/typescript-eslint/typescript-eslint/commit/9028d9d3d751a9e68f6f4376d2a99ce9bb64def9\"><code>9028d9d</code></a> docs: [no-unsafe-enum-comparison] clarify motivation and applicability (<a href=\"https://github.com/typescript-eslint/typescript-eslint/tree/HEAD/packages/eslint-plugin/issues/10029\">#10029</a>)</li>\n<li><a href=\"https://github.com/typescript-eslint/typescript-eslint/commit/977e0a1c41b8715d107898072d599fbc85c13b79\"><code>977e0a1</code></a> fix(eslint-plugin): [prefer-literal-enum-member] allow nested bitwise operati...</li>\n<li><a href=\"https://github.com/typescript-eslint/typescript-eslint/commit/6ce66b59ec3b4ab01d3a6505fb9d08955ef12008\"><code>6ce66b5</code></a> fix: remove <code>export type *</code> in d.ts to support TS&lt;5.0 (<a href=\"https://github.com/typescript-eslint/typescript-eslint/tree/HEAD/packages/eslint-plugin/issues/10070\">#10070</a>)</li>\n<li><a href=\"https://github.com/typescript-eslint/typescript-eslint/commit/a916ff27c151f10db9fdbb259828ed50796dfe61\"><code>a916ff2</code></a> feat(eslint-plugin): [no-unnecessary-condition] add checkTypePredicates (<a href=\"https://github.com/typescript-eslint/typescript-eslint/tree/HEAD/packages/eslint-plugin/issues/10009\">#10009</a>)</li>\n<li><a href=\"https://github.com/typescript-eslint/typescript-eslint/commit/b36d524d37c58cf8102e24dae021b57b37687159\"><code>b36d524</code></a> fix(eslint-plugin): [no-misused-promises] check contextual type (<a href=\"https://github.com/typescript-eslint/typescript-eslint/tree/HEAD/packages/eslint-plugin/issues/10042\">#10042</a>)</li>\n<li><a href=\"https://github.com/typescript-eslint/typescript-eslint/commit/7a216fe7b859fdd2498fcfa84ac8deb8c41530e8\"><code>7a216fe</code></a> fix(eslint-plugin): [no-deprecated] max callstack exceeded when class impleme...</li>\n<li><a href=\"https://github.com/typescript-eslint/typescript-eslint/commit/94c5484f747be901f1610fc37192714a619bb355\"><code>94c5484</code></a> fix(type-utils): check for type parameters on <code>isBuiltinSymbolLikeRecurser()</code>...</li>\n<li><a href=\"https://github.com/typescript-eslint/typescript-eslint/commit/ced951b415c0c30b9e476f13561993ecccee76fc\"><code>ced951b</code></a> docs: [prefer-literal-enum-member] fix bad examples (<a href=\"https://github.com/typescript-eslint/typescript-eslint/tree/HEAD/packages/eslint-plugin/issues/10035\">#10035</a>)</li>\n<li>Additional commits viewable in <a href=\"https://github.com/typescript-eslint/typescript-eslint/commits/v8.8.0/packages/eslint-plugin\">compare view</a></li>\n</ul>\n</details>\n<br />\n\n\n[![Dependabot compatibility score](https://dependabot-badges.githubapp.com/badges/compatibility_score?dependency-name=@typescript-eslint/eslint-plugin&package-manager=npm_and_yarn&previous-version=8.7.0&new-version=8.8.0)](https://docs.github.com/en/github/managing-security-vulnerabilities/about-dependabot-security-updates#about-compatibility-scores)\n\nDependabot will resolve any conflicts with this PR as long as you don't alter it yourself. You can also trigger a rebase manually by commenting `@dependabot rebase`.\n\n[//]: # (dependabot-automerge-start)\n[//]: # (dependabot-automerge-end)\n\n---\n\n<details>\n<summary>Dependabot commands and options</summary>\n<br />\n\nYou can trigger Dependabot actions by commenting on this PR:\n- `@dependabot rebase` will rebase this PR\n- `@dependabot recreate` will recreate this PR, overwriting any edits that have been made to it\n- `@dependabot merge` will merge this PR after your CI passes on it\n- `@dependabot squash and merge` will squash and merge this PR after your CI passes on it\n- `@dependabot cancel merge` will cancel a previously requested merge and block automerging\n- `@dependabot reopen` will reopen this PR if it is closed\n- `@dependabot close` will close this PR and stop Dependabot recreating it. You can achieve the same result by closing it manually\n- `@dependabot show <dependency name> ignore conditions` will show all of the ignore conditions of the specified dependency\n- `@dependabot ignore this major version` will close this PR and stop Dependabot creating any more for this major version (unless you reopen the PR or upgrade to it yourself)\n- `@dependabot ignore this minor version` will close this PR and stop Dependabot creating any more for this minor version (unless you reopen the PR or upgrade to it yourself)\n- `@dependabot ignore this dependency` will close this PR and stop Dependabot creating any more for this dependency (unless you reopen the PR or upgrade to it yourself)\n\n\n</details>",
    "changed_files": 1,
    "closed_at": "2024-10-01T09:04:52Z",
    "comment_data": [],
    "comment_regular_data": [],
    "comments": 0,
    "comments_url": "https://api.github.com/repos/PrismarineJS/MineflayerArmorManager/issues/305/comments",
    "commit_data": [
        {
            "author": {
                "avatar_url": "https://avatars.githubusercontent.com/in/29110?v=4",
                "events_url": "https://api.github.com/users/dependabot%5Bbot%5D/events{/privacy}",
                "followers_url": "https://api.github.com/users/dependabot%5Bbot%5D/followers",
                "following_url": "https://api.github.com/users/dependabot%5Bbot%5D/following{/other_user}",
                "gists_url": "https://api.github.com/users/dependabot%5Bbot%5D/gists{/gist_id}",
                "gravatar_id": "",
                "html_url": "https://github.com/apps/dependabot",
                "id": 49699333,
                "login": "dependabot[bot]",
                "node_id": "MDM6Qm90NDk2OTkzMzM=",
                "organizations_url": "https://api.github.com/users/dependabot%5Bbot%5D/orgs",
                "received_events_url": "https://api.github.com/users/dependabot%5Bbot%5D/received_events",
                "repos_url": "https://api.github.com/users/dependabot%5Bbot%5D/repos",
                "site_admin": false,
                "starred_url": "https://api.github.com/users/dependabot%5Bbot%5D/starred{/owner}{/repo}",
                "subscriptions_url": "https://api.github.com/users/dependabot%5Bbot%5D/subscriptions",
                "type": "Bot",
                "url": "https://api.github.com/users/dependabot%5Bbot%5D"
            },
            "comments_url": "https://api.github.com/repos/PrismarineJS/MineflayerArmorManager/commits/cd49ad759bdb394f4e6a34499e58f589a25d2b74/comments",
            "commit": {
                "author": {
                    "date": "2024-10-01T09:04:26Z",
                    "email": "49699333+dependabot[bot]@users.noreply.github.com",
                    "name": "dependabot[bot]"
                },
                "comment_count": 0,
                "committer": {
                    "date": "2024-10-01T09:04:26Z",
                    "email": "noreply@github.com",
                    "name": "GitHub"
                },
                "message": "build(deps-dev): bump @typescript-eslint/eslint-plugin\n\nBumps [@typescript-eslint/eslint-plugin](https://github.com/typescript-eslint/typescript-eslint/tree/HEAD/packages/eslint-plugin) from 8.7.0 to 8.8.0.\n- [Release notes](https://github.com/typescript-eslint/typescript-eslint/releases)\n- [Changelog](https://github.com/typescript-eslint/typescript-eslint/blob/main/packages/eslint-plugin/CHANGELOG.md)\n- [Commits](https://github.com/typescript-eslint/typescript-eslint/commits/v8.8.0/packages/eslint-plugin)\n\n---\nupdated-dependencies:\n- dependency-name: \"@typescript-eslint/eslint-plugin\"\n  dependency-type: direct:development\n  update-type: version-update:semver-minor\n...\n\nSigned-off-by: dependabot[bot] <support@github.com>",
                "tree": {
                    "sha": "71fea24e15805018d1676f970c133ac23c38812b",
                    "url": "https://api.github.com/repos/PrismarineJS/MineflayerArmorManager/git/trees/71fea24e15805018d1676f970c133ac23c38812b"
                },
                "url": "https://api.github.com/repos/PrismarineJS/MineflayerArmorManager/git/commits/cd49ad759bdb394f4e6a34499e58f589a25d2b74",
                "verification": {
                    "payload": "tree 71fea24e15805018d1676f970c133ac23c38812b\nparent 2ab4fc0ba8da52ddec22e04d16fe17c9a0fa4018\nauthor dependabot[bot] <49699333+dependabot[bot]@users.noreply.github.com> 1727773466 +0000\ncommitter GitHub <noreply@github.com> 1727773466 +0000\n\nbuild(deps-dev): bump @typescript-eslint/eslint-plugin\n\nBumps [@typescript-eslint/eslint-plugin](https://github.com/typescript-eslint/typescript-eslint/tree/HEAD/packages/eslint-plugin) from 8.7.0 to 8.8.0.\n- [Release notes](https://github.com/typescript-eslint/typescript-eslint/releases)\n- [Changelog](https://github.com/typescript-eslint/typescript-eslint/blob/main/packages/eslint-plugin/CHANGELOG.md)\n- [Commits](https://github.com/typescript-eslint/typescript-eslint/commits/v8.8.0/packages/eslint-plugin)\n\n---\nupdated-dependencies:\n- dependency-name: \"@typescript-eslint/eslint-plugin\"\n  dependency-type: direct:development\n  update-type: version-update:semver-minor\n...\n\nSigned-off-by: dependabot[bot] <support@github.com>",
                    "reason": "valid",
                    "signature": "-----BEGIN PGP SIGNATURE-----\n\nwsFcBAABCAAQBQJm+7saCRC1aQ7uu5UhlAAAw9sQABcV7znHSw111MAxnDSO3tbn\nscHgq4F3Tcw/3UyXnvRhOJUT2cXsQMxFy0Sb1vdKKTu2KparVGHiwC5hMu3y1Qx9\nptO/r43a+dwR5bxZ8SXMwgJHkfbdCMzEOCDUgFVhnEzsVB6L3GqvW5SrdjZJXhLh\n4aGpbW3qtVC1md5r6CwTfnBKAxr4kFfw/zIcBu7rBRFBayMjD+Z14n7q1bvPq9t9\nSsUEkhxLXiDaDSh8V4EB4E915lkSQJgyUy44romnh8y1EkXxNwcYNT7lMKDf3hAf\nn1+Ymn5i2SDcTIJ1Ehjcq2Ig1L0KcdW9KLZpGjgus3raFYItw0/8M3PPEkZaLLuw\nFb7Y3HV4bTly1VJx/am352w3FTpEuRShuNA+H7K7kofxmQyFBfLwXrCvxyTvuzZt\ntP/qwgtJ1x9jXV0WJw59QvGJGy7M4n2Wdzc6B/L8EGx1PZcnVvfe560B3yJK5aYu\n3I8CfRyCq3BbEKtw5+NB3WJdJORuXRQU1wpxmb1xMFullkHB/0YATJIyVg+dSe4U\nx+UsRp66koehiMT763suXprGSsFsSOmSRPWnUQf1Ng0IH2/Sk0R7L0DsASKvAHC9\nBMM5Sh38dNf88rY7XAX9o+0D4dOdzCsTPVgy04JieOMDtCKzCcmWs3sbXCzEPrUq\n4uv1UuA8k2pFndZRlT/b\n=6I86\n-----END PGP SIGNATURE-----\n",
                    "verified": true
                }
            },
            "committer": {
                "avatar_url": "https://avatars.githubusercontent.com/u/19864447?v=4",
                "events_url": "https://api.github.com/users/web-flow/events{/privacy}",
                "followers_url": "https://api.github.com/users/web-flow/followers",
                "following_url": "https://api.github.com/users/web-flow/following{/other_user}",
                "gists_url": "https://api.github.com/users/web-flow/gists{/gist_id}",
                "gravatar_id": "",
                "html_url": "https://github.com/web-flow",
                "id": 19864447,
                "login": "web-flow",
                "node_id": "MDQ6VXNlcjE5ODY0NDQ3",
                "organizations_url": "https://api.github.com/users/web-flow/orgs",
                "received_events_url": "https://api.github.com/users/web-flow/received_events",
                "repos_url": "https://api.github.com/users/web-flow/repos",
                "site_admin": false,
                "starred_url": "https://api.github.com/users/web-flow/starred{/owner}{/repo}",
                "subscriptions_url": "https://api.github.com/users/web-flow/subscriptions",
                "type": "User",
                "url": "https://api.github.com/users/web-flow"
            },
            "html_url": "https://github.com/PrismarineJS/MineflayerArmorManager/commit/cd49ad759bdb394f4e6a34499e58f589a25d2b74",
            "node_id": "C_kwDOAxCoqNoAKGNkNDlhZDc1OWJkYjM5NGY0ZTZhMzQ0OTllNThmNTg5YTI1ZDJiNzQ",
            "parents": [
                {
                    "html_url": "https://github.com/PrismarineJS/MineflayerArmorManager/commit/2ab4fc0ba8da52ddec22e04d16fe17c9a0fa4018",
                    "sha": "2ab4fc0ba8da52ddec22e04d16fe17c9a0fa4018",
                    "url": "https://api.github.com/repos/PrismarineJS/MineflayerArmorManager/commits/2ab4fc0ba8da52ddec22e04d16fe17c9a0fa4018"
                }
            ],
            "sha": "cd49ad759bdb394f4e6a34499e58f589a25d2b74",
            "url": "https://api.github.com/repos/PrismarineJS/MineflayerArmorManager/commits/cd49ad759bdb394f4e6a34499e58f589a25d2b74"
        }
    ],
    "commits": 1,
    "commits_url": "https://api.github.com/repos/PrismarineJS/MineflayerArmorManager/pulls/305/commits",
    "created_at": "2024-10-01T09:04:27Z",
    "deletions": 18,
    "diff_url": "https://github.com/PrismarineJS/MineflayerArmorManager/pull/305.diff",
    "draft": false,
    "head": {
        "label": "PrismarineJS:dependabot/npm_and_yarn/typescript-eslint/eslint-plugin-8.8.0",
        "ref": "dependabot/npm_and_yarn/typescript-eslint/eslint-plugin-8.8.0",
        "repo": {
            "allow_forking": true,
            "archive_url": "https://api.github.com/repos/PrismarineJS/MineflayerArmorManager/{archive_format}{/ref}",
            "archived": false,
            "assignees_url": "https://api.github.com/repos/PrismarineJS/MineflayerArmorManager/assignees{/user}",
            "blobs_url": "https://api.github.com/repos/PrismarineJS/MineflayerArmorManager/git/blobs{/sha}",
            "branches_url": "https://api.github.com/repos/PrismarineJS/MineflayerArmorManager/branches{/branch}",
            "clone_url": "https://github.com/PrismarineJS/MineflayerArmorManager.git",
            "collaborators_url": "https://api.github.com/repos/PrismarineJS/MineflayerArmorManager/collaborators{/collaborator}",
            "comments_url": "https://api.github.com/repos/PrismarineJS/MineflayerArmorManager/comments{/number}",
            "commits_url": "https://api.github.com/repos/PrismarineJS/MineflayerArmorManager/commits{/sha}",
            "compare_url": "https://api.github.com/repos/PrismarineJS/MineflayerArmorManager/compare/{base}...{head}",
            "contents_url": "https://api.github.com/repos/PrismarineJS/MineflayerArmorManager/contents/{+path}",
            "contributors_url": "https://api.github.com/repos/PrismarineJS/MineflayerArmorManager/contributors",
            "created_at": "2016-02-10T05:47:15Z",
            "default_branch": "master",
            "deployments_url": "https://api.github.com/repos/PrismarineJS/MineflayerArmorManager/deployments",
            "description": null,
            "disabled": false,
            "downloads_url": "https://api.github.com/repos/PrismarineJS/MineflayerArmorManager/downloads",
            "events_url": "https://api.github.com/repos/PrismarineJS/MineflayerArmorManager/events",
            "fork": false,
            "forks": 7,
            "forks_count": 7,
            "forks_url": "https://api.github.com/repos/PrismarineJS/MineflayerArmorManager/forks",
            "full_name": "PrismarineJS/MineflayerArmorManager",
            "git_commits_url": "https://api.github.com/repos/PrismarineJS/MineflayerArmorManager/git/commits{/sha}",
            "git_refs_url": "https://api.github.com/repos/PrismarineJS/MineflayerArmorManager/git/refs{/sha}",
            "git_tags_url": "https://api.github.com/repos/PrismarineJS/MineflayerArmorManager/git/tags{/sha}",
            "git_url": "git://github.com/PrismarineJS/MineflayerArmorManager.git",
            "has_discussions": false,
            "has_downloads": true,
            "has_issues": true,
            "has_pages": false,
            "has_projects": true,
            "has_wiki": false,
            "homepage": null,
            "hooks_url": "https://api.github.com/repos/PrismarineJS/MineflayerArmorManager/hooks",
            "html_url": "https://github.com/PrismarineJS/MineflayerArmorManager",
            "id": 51423400,
            "is_template": false,
            "issue_comment_url": "https://api.github.com/repos/PrismarineJS/MineflayerArmorManager/issues/comments{/number}",
            "issue_events_url": "https://api.github.com/repos/PrismarineJS/MineflayerArmorManager/issues/events{/number}",
            "issues_url": "https://api.github.com/repos/PrismarineJS/MineflayerArmorManager/issues{/number}",
            "keys_url": "https://api.github.com/repos/PrismarineJS/MineflayerArmorManager/keys{/key_id}",
            "labels_url": "https://api.github.com/repos/PrismarineJS/MineflayerArmorManager/labels{/name}",
            "language": "TypeScript",
            "languages_url": "https://api.github.com/repos/PrismarineJS/MineflayerArmorManager/languages",
            "license": {
                "key": "mit",
                "name": "MIT License",
                "node_id": "MDc6TGljZW5zZTEz",
                "spdx_id": "MIT",
                "url": "https://api.github.com/licenses/mit"
            },
            "merges_url": "https://api.github.com/repos/PrismarineJS/MineflayerArmorManager/merges",
            "milestones_url": "https://api.github.com/repos/PrismarineJS/MineflayerArmorManager/milestones{/number}",
            "mirror_url": null,
            "name": "MineflayerArmorManager",
            "node_id": "MDEwOlJlcG9zaXRvcnk1MTQyMzQwMA==",
            "notifications_url": "https://api.github.com/repos/PrismarineJS/MineflayerArmorManager/notifications{?since,all,participating}",
            "open_issues": 6,
            "open_issues_count": 6,
            "owner": {
                "avatar_url": "https://avatars.githubusercontent.com/u/11053411?v=4",
                "events_url": "https://api.github.com/users/PrismarineJS/events{/privacy}",
                "followers_url": "https://api.github.com/users/PrismarineJS/followers",
                "following_url": "https://api.github.com/users/PrismarineJS/following{/other_user}",
                "gists_url": "https://api.github.com/users/PrismarineJS/gists{/gist_id}",
                "gravatar_id": "",
                "html_url": "https://github.com/PrismarineJS",
                "id": 11053411,
                "login": "PrismarineJS",
                "node_id": "MDEyOk9yZ2FuaXphdGlvbjExMDUzNDEx",
                "organizations_url": "https://api.github.com/users/PrismarineJS/orgs",
                "received_events_url": "https://api.github.com/users/PrismarineJS/received_events",
                "repos_url": "https://api.github.com/users/PrismarineJS/repos",
                "site_admin": false,
                "starred_url": "https://api.github.com/users/PrismarineJS/starred{/owner}{/repo}",
                "subscriptions_url": "https://api.github.com/users/PrismarineJS/subscriptions",
                "type": "Organization",
                "url": "https://api.github.com/users/PrismarineJS"
            },
            "private": false,
            "pulls_url": "https://api.github.com/repos/PrismarineJS/MineflayerArmorManager/pulls{/number}",
            "pushed_at": "2024-10-01T09:04:59Z",
            "releases_url": "https://api.github.com/repos/PrismarineJS/MineflayerArmorManager/releases{/id}",
            "size": 2861,
            "ssh_url": "git@github.com:PrismarineJS/MineflayerArmorManager.git",
            "stargazers_count": 24,
            "stargazers_url": "https://api.github.com/repos/PrismarineJS/MineflayerArmorManager/stargazers",
            "statuses_url": "https://api.github.com/repos/PrismarineJS/MineflayerArmorManager/statuses/{sha}",
            "subscribers_url": "https://api.github.com/repos/PrismarineJS/MineflayerArmorManager/subscribers",
            "subscription_url": "https://api.github.com/repos/PrismarineJS/MineflayerArmorManager/subscription",
            "svn_url": "https://github.com/PrismarineJS/MineflayerArmorManager",
            "tags_url": "https://api.github.com/repos/PrismarineJS/MineflayerArmorManager/tags",
            "teams_url": "https://api.github.com/repos/PrismarineJS/MineflayerArmorManager/teams",
            "topics": [
                "bot",
                "minecraft",
                "mineflayer-bot"
            ],
            "trees_url": "https://api.github.com/repos/PrismarineJS/MineflayerArmorManager/git/trees{/sha}",
            "updated_at": "2024-10-01T09:04:56Z",
            "url": "https://api.github.com/repos/PrismarineJS/MineflayerArmorManager",
            "visibility": "public",
            "watchers": 24,
            "watchers_count": 24,
            "web_commit_signoff_required": false
        },
        "sha": "cd49ad759bdb394f4e6a34499e58f589a25d2b74",
        "user": {
            "avatar_url": "https://avatars.githubusercontent.com/u/11053411?v=4",
            "events_url": "https://api.github.com/users/PrismarineJS/events{/privacy}",
            "followers_url": "https://api.github.com/users/PrismarineJS/followers",
            "following_url": "https://api.github.com/users/PrismarineJS/following{/other_user}",
            "gists_url": "https://api.github.com/users/PrismarineJS/gists{/gist_id}",
            "gravatar_id": "",
            "html_url": "https://github.com/PrismarineJS",
            "id": 11053411,
            "login": "PrismarineJS",
            "node_id": "MDEyOk9yZ2FuaXphdGlvbjExMDUzNDEx",
            "organizations_url": "https://api.github.com/users/PrismarineJS/orgs",
            "received_events_url": "https://api.github.com/users/PrismarineJS/received_events",
            "repos_url": "https://api.github.com/users/PrismarineJS/repos",
            "site_admin": false,
            "starred_url": "https://api.github.com/users/PrismarineJS/starred{/owner}{/repo}",
            "subscriptions_url": "https://api.github.com/users/PrismarineJS/subscriptions",
            "type": "Organization",
            "url": "https://api.github.com/users/PrismarineJS"
        }
    },
    "html_url": "https://github.com/PrismarineJS/MineflayerArmorManager/pull/305",
    "id": 2100890583,
    "issue_url": "https://api.github.com/repos/PrismarineJS/MineflayerArmorManager/issues/305",
    "labels": [
        {
            "color": "0366d6",
            "default": false,
            "description": "Pull requests that update a dependency file",
            "id": 2211501809,
            "name": "dependencies",
            "node_id": "MDU6TGFiZWwyMjExNTAxODA5",
            "url": "https://api.github.com/repos/PrismarineJS/MineflayerArmorManager/labels/dependencies"
        }
    ],
    "locked": false,
    "maintainer_can_modify": false,
    "merge_commit_sha": "2ec90c4e49c3cf86f84b819eab910ddc662401c6",
    "mergeable": null,
    "mergeable_state": "unknown",
    "merged": true,
    "merged_at": "2024-10-01T09:04:52Z",
    "merged_by": {
        "avatar_url": "https://avatars.githubusercontent.com/in/15368?v=4",
        "events_url": "https://api.github.com/users/github-actions%5Bbot%5D/events{/privacy}",
        "followers_url": "https://api.github.com/users/github-actions%5Bbot%5D/followers",
        "following_url": "https://api.github.com/users/github-actions%5Bbot%5D/following{/other_user}",
        "gists_url": "https://api.github.com/users/github-actions%5Bbot%5D/gists{/gist_id}",
        "gravatar_id": "",
        "html_url": "https://github.com/apps/github-actions",
        "id": 41898282,
        "login": "github-actions[bot]",
        "node_id": "MDM6Qm90NDE4OTgyODI=",
        "organizations_url": "https://api.github.com/users/github-actions%5Bbot%5D/orgs",
        "received_events_url": "https://api.github.com/users/github-actions%5Bbot%5D/received_events",
        "repos_url": "https://api.github.com/users/github-actions%5Bbot%5D/repos",
        "site_admin": false,
        "starred_url": "https://api.github.com/users/github-actions%5Bbot%5D/starred{/owner}{/repo}",
        "subscriptions_url": "https://api.github.com/users/github-actions%5Bbot%5D/subscriptions",
        "type": "Bot",
        "url": "https://api.github.com/users/github-actions%5Bbot%5D"
    },
    "milestone": null,
    "node_id": "PR_kwDOAxCoqM59OQvX",
    "number": 305,
    "patch_url": "https://github.com/PrismarineJS/MineflayerArmorManager/pull/305.patch",
    "rebaseable": null,
    "requested_reviewers": [],
    "requested_teams": [],
    "review_comment_url": "https://api.github.com/repos/PrismarineJS/MineflayerArmorManager/pulls/comments{/number}",
    "review_comments": 0,
    "review_comments_url": "https://api.github.com/repos/PrismarineJS/MineflayerArmorManager/pulls/305/comments",
    "state": "closed",
    "statuses_url": "https://api.github.com/repos/PrismarineJS/MineflayerArmorManager/statuses/cd49ad759bdb394f4e6a34499e58f589a25d2b74",
    "title": "build(deps-dev): bump @typescript-eslint/eslint-plugin from 8.7.0 to 8.8.0",
    "updated_at": "2024-10-01T09:05:00Z",
    "url": "https://api.github.com/repos/PrismarineJS/MineflayerArmorManager/pulls/305",
    "user": {
        "avatar_url": "https://avatars.githubusercontent.com/in/29110?v=4",
        "events_url": "https://api.github.com/users/dependabot%5Bbot%5D/events{/privacy}",
        "followers_url": "https://api.github.com/users/dependabot%5Bbot%5D/followers",
        "following_url": "https://api.github.com/users/dependabot%5Bbot%5D/following{/other_user}",
        "gists_url": "https://api.github.com/users/dependabot%5Bbot%5D/gists{/gist_id}",
        "gravatar_id": "",
        "html_url": "https://github.com/apps/dependabot",
        "id": 49699333,
        "login": "dependabot[bot]",
        "node_id": "MDM6Qm90NDk2OTkzMzM=",
        "organizations_url": "https://api.github.com/users/dependabot%5Bbot%5D/orgs",
        "received_events_url": "https://api.github.com/users/dependabot%5Bbot%5D/received_events",
        "repos_url": "https://api.github.com/users/dependabot%5Bbot%5D/repos",
        "site_admin": false,
        "starred_url": "https://api.github.com/users/dependabot%5Bbot%5D/starred{/owner}{/repo}",
        "subscriptions_url": "https://api.github.com/users/dependabot%5Bbot%5D/subscriptions",
        "type": "Bot",
        "url": "https://api.github.com/users/dependabot%5Bbot%5D"
    }
}