{
    "_links": {
        "comments": {
            "href": "https://api.github.com/repos/PrismarineJS/MineflayerArmorManager/issues/317/comments"
        },
        "commits": {
            "href": "https://api.github.com/repos/PrismarineJS/MineflayerArmorManager/pulls/317/commits"
        },
        "html": {
            "href": "https://github.com/PrismarineJS/MineflayerArmorManager/pull/317"
        },
        "issue": {
            "href": "https://api.github.com/repos/PrismarineJS/MineflayerArmorManager/issues/317"
        },
        "review_comment": {
            "href": "https://api.github.com/repos/PrismarineJS/MineflayerArmorManager/pulls/comments{/number}"
        },
        "review_comments": {
            "href": "https://api.github.com/repos/PrismarineJS/MineflayerArmorManager/pulls/317/comments"
        },
        "self": {
            "href": "https://api.github.com/repos/PrismarineJS/MineflayerArmorManager/pulls/317"
        },
        "statuses": {
            "href": "https://api.github.com/repos/PrismarineJS/MineflayerArmorManager/statuses/e2c3c41796f34c5ad772c4618f5b3131d389b79e"
        }
    },
    "active_lock_reason": null,
    "additions": 35,
    "assignee": null,
    "assignees": [],
    "author_association": "CONTRIBUTOR",
    "auto_merge": null,
    "base": {
        "label": "PrismarineJS:master",
        "ref": "master",
        "repo": {
            "allow_forking": true,
            "archive_url": "https://api.github.com/repos/PrismarineJS/MineflayerArmorManager/{archive_format}{/ref}",
            "archived": false,
            "assignees_url": "https://api.github.com/repos/PrismarineJS/MineflayerArmorManager/assignees{/user}",
            "blobs_url": "https://api.github.com/repos/PrismarineJS/MineflayerArmorManager/git/blobs{/sha}",
            "branches_url": "https://api.github.com/repos/PrismarineJS/MineflayerArmorManager/branches{/branch}",
            "clone_url": "https://github.com/PrismarineJS/MineflayerArmorManager.git",
            "collaborators_url": "https://api.github.com/repos/PrismarineJS/MineflayerArmorManager/collaborators{/collaborator}",
            "comments_url": "https://api.github.com/repos/PrismarineJS/MineflayerArmorManager/comments{/number}",
            "commits_url": "https://api.github.com/repos/PrismarineJS/MineflayerArmorManager/commits{/sha}",
            "compare_url": "https://api.github.com/repos/PrismarineJS/MineflayerArmorManager/compare/{base}...{head}",
            "contents_url": "https://api.github.com/repos/PrismarineJS/MineflayerArmorManager/contents/{+path}",
            "contributors_url": "https://api.github.com/repos/PrismarineJS/MineflayerArmorManager/contributors",
            "created_at": "2016-02-10T05:47:15Z",
            "default_branch": "master",
            "deployments_url": "https://api.github.com/repos/PrismarineJS/MineflayerArmorManager/deployments",
            "description": null,
            "disabled": false,
            "downloads_url": "https://api.github.com/repos/PrismarineJS/MineflayerArmorManager/downloads",
            "events_url": "https://api.github.com/repos/PrismarineJS/MineflayerArmorManager/events",
            "fork": false,
            "forks": 7,
            "forks_count": 7,
            "forks_url": "https://api.github.com/repos/PrismarineJS/MineflayerArmorManager/forks",
            "full_name": "PrismarineJS/MineflayerArmorManager",
            "git_commits_url": "https://api.github.com/repos/PrismarineJS/MineflayerArmorManager/git/commits{/sha}",
            "git_refs_url": "https://api.github.com/repos/PrismarineJS/MineflayerArmorManager/git/refs{/sha}",
            "git_tags_url": "https://api.github.com/repos/PrismarineJS/MineflayerArmorManager/git/tags{/sha}",
            "git_url": "git://github.com/PrismarineJS/MineflayerArmorManager.git",
            "has_discussions": false,
            "has_downloads": true,
            "has_issues": true,
            "has_pages": false,
            "has_projects": true,
            "has_wiki": false,
            "homepage": null,
            "hooks_url": "https://api.github.com/repos/PrismarineJS/MineflayerArmorManager/hooks",
            "html_url": "https://github.com/PrismarineJS/MineflayerArmorManager",
            "id": 51423400,
            "is_template": false,
            "issue_comment_url": "https://api.github.com/repos/PrismarineJS/MineflayerArmorManager/issues/comments{/number}",
            "issue_events_url": "https://api.github.com/repos/PrismarineJS/MineflayerArmorManager/issues/events{/number}",
            "issues_url": "https://api.github.com/repos/PrismarineJS/MineflayerArmorManager/issues{/number}",
            "keys_url": "https://api.github.com/repos/PrismarineJS/MineflayerArmorManager/keys{/key_id}",
            "labels_url": "https://api.github.com/repos/PrismarineJS/MineflayerArmorManager/labels{/name}",
            "language": "TypeScript",
            "languages_url": "https://api.github.com/repos/PrismarineJS/MineflayerArmorManager/languages",
            "license": {
                "key": "mit",
                "name": "MIT License",
                "node_id": "MDc6TGljZW5zZTEz",
                "spdx_id": "MIT",
                "url": "https://api.github.com/licenses/mit"
            },
            "merges_url": "https://api.github.com/repos/PrismarineJS/MineflayerArmorManager/merges",
            "milestones_url": "https://api.github.com/repos/PrismarineJS/MineflayerArmorManager/milestones{/number}",
            "mirror_url": null,
            "name": "MineflayerArmorManager",
            "node_id": "MDEwOlJlcG9zaXRvcnk1MTQyMzQwMA==",
            "notifications_url": "https://api.github.com/repos/PrismarineJS/MineflayerArmorManager/notifications{?since,all,participating}",
            "open_issues": 6,
            "open_issues_count": 6,
            "owner": {
                "avatar_url": "https://avatars.githubusercontent.com/u/11053411?v=4",
                "events_url": "https://api.github.com/users/PrismarineJS/events{/privacy}",
                "followers_url": "https://api.github.com/users/PrismarineJS/followers",
                "following_url": "https://api.github.com/users/PrismarineJS/following{/other_user}",
                "gists_url": "https://api.github.com/users/PrismarineJS/gists{/gist_id}",
                "gravatar_id": "",
                "html_url": "https://github.com/PrismarineJS",
                "id": 11053411,
                "login": "PrismarineJS",
                "node_id": "MDEyOk9yZ2FuaXphdGlvbjExMDUzNDEx",
                "organizations_url": "https://api.github.com/users/PrismarineJS/orgs",
                "received_events_url": "https://api.github.com/users/PrismarineJS/received_events",
                "repos_url": "https://api.github.com/users/PrismarineJS/repos",
                "site_admin": false,
                "starred_url": "https://api.github.com/users/PrismarineJS/starred{/owner}{/repo}",
                "subscriptions_url": "https://api.github.com/users/PrismarineJS/subscriptions",
                "type": "Organization",
                "url": "https://api.github.com/users/PrismarineJS",
                "user_view_type": "public"
            },
            "private": false,
            "pulls_url": "https://api.github.com/repos/PrismarineJS/MineflayerArmorManager/pulls{/number}",
            "pushed_at": "2024-10-22T09:05:10Z",
            "releases_url": "https://api.github.com/repos/PrismarineJS/MineflayerArmorManager/releases{/id}",
            "size": 2665,
            "ssh_url": "git@github.com:PrismarineJS/MineflayerArmorManager.git",
            "stargazers_count": 24,
            "stargazers_url": "https://api.github.com/repos/PrismarineJS/MineflayerArmorManager/stargazers",
            "statuses_url": "https://api.github.com/repos/PrismarineJS/MineflayerArmorManager/statuses/{sha}",
            "subscribers_url": "https://api.github.com/repos/PrismarineJS/MineflayerArmorManager/subscribers",
            "subscription_url": "https://api.github.com/repos/PrismarineJS/MineflayerArmorManager/subscription",
            "svn_url": "https://github.com/PrismarineJS/MineflayerArmorManager",
            "tags_url": "https://api.github.com/repos/PrismarineJS/MineflayerArmorManager/tags",
            "teams_url": "https://api.github.com/repos/PrismarineJS/MineflayerArmorManager/teams",
            "topics": [
                "bot",
                "minecraft",
                "mineflayer-bot"
            ],
            "trees_url": "https://api.github.com/repos/PrismarineJS/MineflayerArmorManager/git/trees{/sha}",
            "updated_at": "2024-10-22T09:05:08Z",
            "url": "https://api.github.com/repos/PrismarineJS/MineflayerArmorManager",
            "visibility": "public",
            "watchers": 24,
            "watchers_count": 24,
            "web_commit_signoff_required": false
        },
        "sha": "1a6fd51327f7c16a3e63ec0060113f7cc0c7eb3d",
        "user": {
            "avatar_url": "https://avatars.githubusercontent.com/u/11053411?v=4",
            "events_url": "https://api.github.com/users/PrismarineJS/events{/privacy}",
            "followers_url": "https://api.github.com/users/PrismarineJS/followers",
            "following_url": "https://api.github.com/users/PrismarineJS/following{/other_user}",
            "gists_url": "https://api.github.com/users/PrismarineJS/gists{/gist_id}",
            "gravatar_id": "",
            "html_url": "https://github.com/PrismarineJS",
            "id": 11053411,
            "login": "PrismarineJS",
            "node_id": "MDEyOk9yZ2FuaXphdGlvbjExMDUzNDEx",
            "organizations_url": "https://api.github.com/users/PrismarineJS/orgs",
            "received_events_url": "https://api.github.com/users/PrismarineJS/received_events",
            "repos_url": "https://api.github.com/users/PrismarineJS/repos",
            "site_admin": false,
            "starred_url": "https://api.github.com/users/PrismarineJS/starred{/owner}{/repo}",
            "subscriptions_url": "https://api.github.com/users/PrismarineJS/subscriptions",
            "type": "Organization",
            "url": "https://api.github.com/users/PrismarineJS",
            "user_view_type": "public"
        }
    },
    "body": "Bumps [@typescript-eslint/eslint-plugin](https://github.com/typescript-eslint/typescript-eslint/tree/HEAD/packages/eslint-plugin) from 8.9.0 to 8.11.0.\n<details>\n<summary>Release notes</summary>\n<p><em>Sourced from <a href=\"https://github.com/typescript-eslint/typescript-eslint/releases\"><code>@​typescript-eslint/eslint-plugin</code>'s releases</a>.</em></p>\n<blockquote>\n<h2>v8.11.0</h2>\n<h2>8.11.0 (2024-10-21)</h2>\n<h3>🚀 Features</h3>\n<ul>\n<li><strong>eslint-plugin:</strong> [no-base-to-string] add support for catching toLocaleString (<a href=\"https://redirect.github.com/typescript-eslint/typescript-eslint/pull/10138\">#10138</a>)</li>\n<li><strong>eslint-plugin:</strong> [no-unnecessary-type-parameters] add suggestion fixer (<a href=\"https://redirect.github.com/typescript-eslint/typescript-eslint/pull/10149\">#10149</a>)</li>\n</ul>\n<h3>🩹 Fixes</h3>\n<ul>\n<li><strong>eslint-plugin:</strong> [class-literal-property-style] don't report nodes with <code>override</code> keyword (<a href=\"https://redirect.github.com/typescript-eslint/typescript-eslint/pull/10135\">#10135</a>)</li>\n<li><strong>rule-tester:</strong> allow custom filename outside directory (<a href=\"https://redirect.github.com/typescript-eslint/typescript-eslint/pull/10147\">#10147</a>)</li>\n</ul>\n<h3>❤️  Thank You</h3>\n<ul>\n<li>Kirk Waiblinger <a href=\"https://github.com/kirkwaiblinger\"><code>@​kirkwaiblinger</code></a></li>\n<li>Lotfi Meklati <a href=\"https://github.com/lotmek\"><code>@​lotmek</code></a></li>\n<li>Yukihiro Hasegawa <a href=\"https://github.com/y-hsgw\"><code>@​y-hsgw</code></a></li>\n</ul>\n<p>You can read about our <a href=\"https://main--typescript-eslint.netlify.app/users/versioning\">versioning strategy</a> and <a href=\"https://main--typescript-eslint.netlify.app/users/releases\">releases</a> on our website.</p>\n<h2>v8.10.0</h2>\n<h2>8.10.0 (2024-10-17)</h2>\n<h3>🚀 Features</h3>\n<ul>\n<li>support TypeScript 5.6 (<a href=\"https://redirect.github.com/typescript-eslint/typescript-eslint/pull/9972\">#9972</a>)</li>\n</ul>\n<h3>🩹 Fixes</h3>\n<ul>\n<li><strong>typescript-eslint:</strong> propagate <code>name</code> field to extended configs in <code>config</code> helper (<a href=\"https://redirect.github.com/typescript-eslint/typescript-eslint/pull/10094\">#10094</a>)</li>\n</ul>\n<h3>❤️  Thank You</h3>\n<ul>\n<li>auvred <a href=\"https://github.com/auvred\"><code>@​auvred</code></a></li>\n<li>Josh Goldberg ✨</li>\n</ul>\n<p>You can read about our <a href=\"https://main--typescript-eslint.netlify.app/users/versioning\">versioning strategy</a> and <a href=\"https://main--typescript-eslint.netlify.app/users/releases\">releases</a> on our website.</p>\n</blockquote>\n</details>\n<details>\n<summary>Changelog</summary>\n<p><em>Sourced from <a href=\"https://github.com/typescript-eslint/typescript-eslint/blob/main/packages/eslint-plugin/CHANGELOG.md\"><code>@​typescript-eslint/eslint-plugin</code>'s changelog</a>.</em></p>\n<blockquote>\n<h2>8.11.0 (2024-10-21)</h2>\n<h3>🚀 Features</h3>\n<ul>\n<li><strong>eslint-plugin:</strong> [no-unnecessary-type-parameters] add suggestion fixer (<a href=\"https://redirect.github.com/typescript-eslint/typescript-eslint/pull/10149\">#10149</a>)</li>\n<li><strong>eslint-plugin:</strong> [no-base-to-string] add support for catching toLocaleString (<a href=\"https://redirect.github.com/typescript-eslint/typescript-eslint/pull/10138\">#10138</a>)</li>\n</ul>\n<h3>🩹 Fixes</h3>\n<ul>\n<li><strong>eslint-plugin:</strong> [class-literal-property-style] don't report nodes with <code>override</code> keyword (<a href=\"https://redirect.github.com/typescript-eslint/typescript-eslint/pull/10135\">#10135</a>)</li>\n</ul>\n<h3>❤️  Thank You</h3>\n<ul>\n<li>Kirk Waiblinger <a href=\"https://github.com/kirkwaiblinger\"><code>@​kirkwaiblinger</code></a></li>\n<li>Yukihiro Hasegawa <a href=\"https://github.com/y-hsgw\"><code>@​y-hsgw</code></a></li>\n</ul>\n<p>You can read about our <a href=\"https://main--typescript-eslint.netlify.app/users/versioning\">versioning strategy</a> and <a href=\"https://main--typescript-eslint.netlify.app/users/releases\">releases</a> on our website.</p>\n<h2>8.10.0 (2024-10-17)</h2>\n<h3>🚀 Features</h3>\n<ul>\n<li>support TypeScript 5.6 (<a href=\"https://redirect.github.com/typescript-eslint/typescript-eslint/pull/9972\">#9972</a>)</li>\n</ul>\n<h3>❤️  Thank You</h3>\n<ul>\n<li>Josh Goldberg ✨</li>\n</ul>\n<p>You can read about our <a href=\"https://main--typescript-eslint.netlify.app/users/versioning\">versioning strategy</a> and <a href=\"https://main--typescript-eslint.netlify.app/users/releases\">releases</a> on our website.</p>\n</blockquote>\n</details>\n<details>\n<summary>Commits</summary>\n<ul>\n<li><a href=\"https://github.com/typescript-eslint/typescript-eslint/commit/79c27a822ee9d5e955b6bcd41a6a8c320938cdaf\"><code>79c27a8</code></a> chore(release): publish 8.11.0</li>\n<li><a href=\"https://github.com/typescript-eslint/typescript-eslint/commit/c8e7c27f341e7fcbe55629d03a2b92d269d2c01f\"><code>c8e7c27</code></a> feat(eslint-plugin): [no-unnecessary-type-parameters] add suggestion fixer (#...</li>\n<li><a href=\"https://github.com/typescript-eslint/typescript-eslint/commit/9a182d0f6041e8a0c9e46f0197e8080163da24e3\"><code>9a182d0</code></a> feat(eslint-plugin): [no-base-to-string] add support for catching toLocaleStr...</li>\n<li><a href=\"https://github.com/typescript-eslint/typescript-eslint/commit/8d35958494eb0c97cc36c3fc0844aea377542315\"><code>8d35958</code></a> chore: enable eslint-plugin-perfectionist on typescript-estree package (<a href=\"https://github.com/typescript-eslint/typescript-eslint/tree/HEAD/packages/eslint-plugin/issues/9852\">#9852</a>)</li>\n<li><a href=\"https://github.com/typescript-eslint/typescript-eslint/commit/0cbd4cdbacdd196c208a70527155e2c364661457\"><code>0cbd4cd</code></a> fix(eslint-plugin): [class-literal-property-style] don't report nodes with `o...</li>\n<li><a href=\"https://github.com/typescript-eslint/typescript-eslint/commit/127066ab0f809e7cd305bf521320e43e78415b3e\"><code>127066a</code></a> chore: coverage issues caused by using <code>export</code> assignments (<a href=\"https://github.com/typescript-eslint/typescript-eslint/tree/HEAD/packages/eslint-plugin/issues/10151\">#10151</a>)</li>\n<li><a href=\"https://github.com/typescript-eslint/typescript-eslint/commit/7effdea4307f44dcb2ad21529d42af0250907fad\"><code>7effdea</code></a> chore(release): publish 8.10.0</li>\n<li><a href=\"https://github.com/typescript-eslint/typescript-eslint/commit/f9c49e3989468768ca7da5833d6f8cb226e420c0\"><code>f9c49e3</code></a> feat: support TypeScript 5.6 (<a href=\"https://github.com/typescript-eslint/typescript-eslint/tree/HEAD/packages/eslint-plugin/issues/9972\">#9972</a>)</li>\n<li><a href=\"https://github.com/typescript-eslint/typescript-eslint/commit/d09d36de88dbef86575252a0542e92801fb6a890\"><code>d09d36d</code></a> docs: inject option descriptions into rule docs when possible (<a href=\"https://github.com/typescript-eslint/typescript-eslint/tree/HEAD/packages/eslint-plugin/issues/9925\">#9925</a>)</li>\n<li><a href=\"https://github.com/typescript-eslint/typescript-eslint/commit/373c63a40ccb6c5306999a0bd4cdb9cd5348988f\"><code>373c63a</code></a> chore(eslint-plugin): [no-unnecessary-condition] remove dead suggestion id (#...</li>\n<li>See full diff in <a href=\"https://github.com/typescript-eslint/typescript-eslint/commits/v8.11.0/packages/eslint-plugin\">compare view</a></li>\n</ul>\n</details>\n<br />\n\n\n[![Dependabot compatibility score](https://dependabot-badges.githubapp.com/badges/compatibility_score?dependency-name=@typescript-eslint/eslint-plugin&package-manager=npm_and_yarn&previous-version=8.9.0&new-version=8.11.0)](https://docs.github.com/en/github/managing-security-vulnerabilities/about-dependabot-security-updates#about-compatibility-scores)\n\nDependabot will resolve any conflicts with this PR as long as you don't alter it yourself. You can also trigger a rebase manually by commenting `@dependabot rebase`.\n\n[//]: # (dependabot-automerge-start)\n[//]: # (dependabot-automerge-end)\n\n---\n\n<details>\n<summary>Dependabot commands and options</summary>\n<br />\n\nYou can trigger Dependabot actions by commenting on this PR:\n- `@dependabot rebase` will rebase this PR\n- `@dependabot recreate` will recreate this PR, overwriting any edits that have been made to it\n- `@dependabot merge` will merge this PR after your CI passes on it\n- `@dependabot squash and merge` will squash and merge this PR after your CI passes on it\n- `@dependabot cancel merge` will cancel a previously requested merge and block automerging\n- `@dependabot reopen` will reopen this PR if it is closed\n- `@dependabot close` will close this PR and stop Dependabot recreating it. You can achieve the same result by closing it manually\n- `@dependabot show <dependency name> ignore conditions` will show all of the ignore conditions of the specified dependency\n- `@dependabot ignore this major version` will close this PR and stop Dependabot creating any more for this major version (unless you reopen the PR or upgrade to it yourself)\n- `@dependabot ignore this minor version` will close this PR and stop Dependabot creating any more for this minor version (unless you reopen the PR or upgrade to it yourself)\n- `@dependabot ignore this dependency` will close this PR and stop Dependabot creating any more for this dependency (unless you reopen the PR or upgrade to it yourself)\n\n\n</details>",
    "changed_files": 1,
    "closed_at": "2024-10-22T09:04:52Z",
    "comment_data": [],
    "comment_regular_data": [],
    "comments": 0,
    "comments_url": "https://api.github.com/repos/PrismarineJS/MineflayerArmorManager/issues/317/comments",
    "commit_data": [
        {
            "author": {
                "avatar_url": "https://avatars.githubusercontent.com/in/29110?v=4",
                "events_url": "https://api.github.com/users/dependabot%5Bbot%5D/events{/privacy}",
                "followers_url": "https://api.github.com/users/dependabot%5Bbot%5D/followers",
                "following_url": "https://api.github.com/users/dependabot%5Bbot%5D/following{/other_user}",
                "gists_url": "https://api.github.com/users/dependabot%5Bbot%5D/gists{/gist_id}",
                "gravatar_id": "",
                "html_url": "https://github.com/apps/dependabot",
                "id": 49699333,
                "login": "dependabot[bot]",
                "node_id": "MDM6Qm90NDk2OTkzMzM=",
                "organizations_url": "https://api.github.com/users/dependabot%5Bbot%5D/orgs",
                "received_events_url": "https://api.github.com/users/dependabot%5Bbot%5D/received_events",
                "repos_url": "https://api.github.com/users/dependabot%5Bbot%5D/repos",
                "site_admin": false,
                "starred_url": "https://api.github.com/users/dependabot%5Bbot%5D/starred{/owner}{/repo}",
                "subscriptions_url": "https://api.github.com/users/dependabot%5Bbot%5D/subscriptions",
                "type": "Bot",
                "url": "https://api.github.com/users/dependabot%5Bbot%5D",
                "user_view_type": "public"
            },
            "comments_url": "https://api.github.com/repos/PrismarineJS/MineflayerArmorManager/commits/e2c3c41796f34c5ad772c4618f5b3131d389b79e/comments",
            "commit": {
                "author": {
                    "date": "2024-10-22T09:04:36Z",
                    "email": "49699333+dependabot[bot]@users.noreply.github.com",
                    "name": "dependabot[bot]"
                },
                "comment_count": 0,
                "committer": {
                    "date": "2024-10-22T09:04:36Z",
                    "email": "noreply@github.com",
                    "name": "GitHub"
                },
                "message": "build(deps-dev): bump @typescript-eslint/eslint-plugin\n\nBumps [@typescript-eslint/eslint-plugin](https://github.com/typescript-eslint/typescript-eslint/tree/HEAD/packages/eslint-plugin) from 8.9.0 to 8.11.0.\n- [Release notes](https://github.com/typescript-eslint/typescript-eslint/releases)\n- [Changelog](https://github.com/typescript-eslint/typescript-eslint/blob/main/packages/eslint-plugin/CHANGELOG.md)\n- [Commits](https://github.com/typescript-eslint/typescript-eslint/commits/v8.11.0/packages/eslint-plugin)\n\n---\nupdated-dependencies:\n- dependency-name: \"@typescript-eslint/eslint-plugin\"\n  dependency-type: direct:development\n  update-type: version-update:semver-minor\n...\n\nSigned-off-by: dependabot[bot] <support@github.com>",
                "tree": {
                    "sha": "eb62b6588711aeb5253dd433038c667efa268221",
                    "url": "https://api.github.com/repos/PrismarineJS/MineflayerArmorManager/git/trees/eb62b6588711aeb5253dd433038c667efa268221"
                },
                "url": "https://api.github.com/repos/PrismarineJS/MineflayerArmorManager/git/commits/e2c3c41796f34c5ad772c4618f5b3131d389b79e",
                "verification": {
                    "payload": "tree eb62b6588711aeb5253dd433038c667efa268221\nparent 1a6fd51327f7c16a3e63ec0060113f7cc0c7eb3d\nauthor dependabot[bot] <49699333+dependabot[bot]@users.noreply.github.com> 1729587876 +0000\ncommitter GitHub <noreply@github.com> 1729587876 +0000\n\nbuild(deps-dev): bump @typescript-eslint/eslint-plugin\n\nBumps [@typescript-eslint/eslint-plugin](https://github.com/typescript-eslint/typescript-eslint/tree/HEAD/packages/eslint-plugin) from 8.9.0 to 8.11.0.\n- [Release notes](https://github.com/typescript-eslint/typescript-eslint/releases)\n- [Changelog](https://github.com/typescript-eslint/typescript-eslint/blob/main/packages/eslint-plugin/CHANGELOG.md)\n- [Commits](https://github.com/typescript-eslint/typescript-eslint/commits/v8.11.0/packages/eslint-plugin)\n\n---\nupdated-dependencies:\n- dependency-name: \"@typescript-eslint/eslint-plugin\"\n  dependency-type: direct:development\n  update-type: version-update:semver-minor\n...\n\nSigned-off-by: dependabot[bot] <support@github.com>",
                    "reason": "valid",
                    "signature": "-----BEGIN PGP SIGNATURE-----\n\nwsFcBAABCAAQBQJnF2qkCRC1aQ7uu5UhlAAAwnMQABqQcsgxmLGZZyAjm8cbZeKd\nLzZtMaQOfETO1JZh0/htqWrebyFZF7rzHV+PMcc31cwR7zPMqwCAi93Tj4quIZrm\nLCTSJ4QFJu1yixbqaD7ptQdC6cyzLe5eBzQaPQvlyCg2wDDV+QKjx9gmZmAS6YVR\npqJfysEUhJ6x4ceBPcOa637bynvITnCvv9kcLpVmeMPwDgt2ohWbfb3K7L9rkyXR\nNLEPa1qonhveyyLNLp3GdzgVx8Zap20xydEVtx610aRTGEIMo30uZKN/vmX4evOX\nNm3EPLDU9I6hNBuoLymC12+8Tbs/ZeBlnG+EX8cXqrTVnkX2uYhU2L7zV43rtS+H\nPCkqm6YP7O3LHmmRane0pYn62tv7IQwkfU/wg1/XB3mgmHLvqktiCRA5UhiWyEu3\nXTdZM6n1soOr7iJS+3SYuefxTz2Fa3mBGkGekjhNgVtykFKATq1Dtxm/Nqefxr3Q\nvIjO71a2cfADIrK7Xs0L+LGY8u4OT+vFAG0rMQuyZ96qVNtaNp0hJTOxInyLc+h7\ncj0fqstxFOPCOfXfsTOoon3rYAPxgK80GGlrU/Y4B/YFBWagOJ2ulRshsE63wmxP\nU61ZlKOHh7sC9aF7q1KuT3ZraA7nmMe7EcHC8mtbAdkSMZaHunnop3AgBDtiV20o\nXR6vy8GPaw+wW1VcBu2g\n=s0QN\n-----END PGP SIGNATURE-----\n",
                    "verified": true
                }
            },
            "committer": {
                "avatar_url": "https://avatars.githubusercontent.com/u/19864447?v=4",
                "events_url": "https://api.github.com/users/web-flow/events{/privacy}",
                "followers_url": "https://api.github.com/users/web-flow/followers",
                "following_url": "https://api.github.com/users/web-flow/following{/other_user}",
                "gists_url": "https://api.github.com/users/web-flow/gists{/gist_id}",
                "gravatar_id": "",
                "html_url": "https://github.com/web-flow",
                "id": 19864447,
                "login": "web-flow",
                "node_id": "MDQ6VXNlcjE5ODY0NDQ3",
                "organizations_url": "https://api.github.com/users/web-flow/orgs",
                "received_events_url": "https://api.github.com/users/web-flow/received_events",
                "repos_url": "https://api.github.com/users/web-flow/repos",
                "site_admin": false,
                "starred_url": "https://api.github.com/users/web-flow/starred{/owner}{/repo}",
                "subscriptions_url": "https://api.github.com/users/web-flow/subscriptions",
                "type": "User",
                "url": "https://api.github.com/users/web-flow",
                "user_view_type": "public"
            },
            "html_url": "https://github.com/PrismarineJS/MineflayerArmorManager/commit/e2c3c41796f34c5ad772c4618f5b3131d389b79e",
            "node_id": "C_kwDOAxCoqNoAKGUyYzNjNDE3OTZmMzRjNWFkNzcyYzQ2MThmNWIzMTMxZDM4OWI3OWU",
            "parents": [
                {
                    "html_url": "https://github.com/PrismarineJS/MineflayerArmorManager/commit/1a6fd51327f7c16a3e63ec0060113f7cc0c7eb3d",
                    "sha": "1a6fd51327f7c16a3e63ec0060113f7cc0c7eb3d",
                    "url": "https://api.github.com/repos/PrismarineJS/MineflayerArmorManager/commits/1a6fd51327f7c16a3e63ec0060113f7cc0c7eb3d"
                }
            ],
            "sha": "e2c3c41796f34c5ad772c4618f5b3131d389b79e",
            "url": "https://api.github.com/repos/PrismarineJS/MineflayerArmorManager/commits/e2c3c41796f34c5ad772c4618f5b3131d389b79e"
        }
    ],
    "commits": 1,
    "commits_url": "https://api.github.com/repos/PrismarineJS/MineflayerArmorManager/pulls/317/commits",
    "created_at": "2024-10-22T09:04:37Z",
    "deletions": 35,
    "diff_url": "https://github.com/PrismarineJS/MineflayerArmorManager/pull/317.diff",
    "draft": false,
    "head": {
        "label": "PrismarineJS:dependabot/npm_and_yarn/typescript-eslint/eslint-plugin-8.11.0",
        "ref": "dependabot/npm_and_yarn/typescript-eslint/eslint-plugin-8.11.0",
        "repo": {
            "allow_forking": true,
            "archive_url": "https://api.github.com/repos/PrismarineJS/MineflayerArmorManager/{archive_format}{/ref}",
            "archived": false,
            "assignees_url": "https://api.github.com/repos/PrismarineJS/MineflayerArmorManager/assignees{/user}",
            "blobs_url": "https://api.github.com/repos/PrismarineJS/MineflayerArmorManager/git/blobs{/sha}",
            "branches_url": "https://api.github.com/repos/PrismarineJS/MineflayerArmorManager/branches{/branch}",
            "clone_url": "https://github.com/PrismarineJS/MineflayerArmorManager.git",
            "collaborators_url": "https://api.github.com/repos/PrismarineJS/MineflayerArmorManager/collaborators{/collaborator}",
            "comments_url": "https://api.github.com/repos/PrismarineJS/MineflayerArmorManager/comments{/number}",
            "commits_url": "https://api.github.com/repos/PrismarineJS/MineflayerArmorManager/commits{/sha}",
            "compare_url": "https://api.github.com/repos/PrismarineJS/MineflayerArmorManager/compare/{base}...{head}",
            "contents_url": "https://api.github.com/repos/PrismarineJS/MineflayerArmorManager/contents/{+path}",
            "contributors_url": "https://api.github.com/repos/PrismarineJS/MineflayerArmorManager/contributors",
            "created_at": "2016-02-10T05:47:15Z",
            "default_branch": "master",
            "deployments_url": "https://api.github.com/repos/PrismarineJS/MineflayerArmorManager/deployments",
            "description": null,
            "disabled": false,
            "downloads_url": "https://api.github.com/repos/PrismarineJS/MineflayerArmorManager/downloads",
            "events_url": "https://api.github.com/repos/PrismarineJS/MineflayerArmorManager/events",
            "fork": false,
            "forks": 7,
            "forks_count": 7,
            "forks_url": "https://api.github.com/repos/PrismarineJS/MineflayerArmorManager/forks",
            "full_name": "PrismarineJS/MineflayerArmorManager",
            "git_commits_url": "https://api.github.com/repos/PrismarineJS/MineflayerArmorManager/git/commits{/sha}",
            "git_refs_url": "https://api.github.com/repos/PrismarineJS/MineflayerArmorManager/git/refs{/sha}",
            "git_tags_url": "https://api.github.com/repos/PrismarineJS/MineflayerArmorManager/git/tags{/sha}",
            "git_url": "git://github.com/PrismarineJS/MineflayerArmorManager.git",
            "has_discussions": false,
            "has_downloads": true,
            "has_issues": true,
            "has_pages": false,
            "has_projects": true,
            "has_wiki": false,
            "homepage": null,
            "hooks_url": "https://api.github.com/repos/PrismarineJS/MineflayerArmorManager/hooks",
            "html_url": "https://github.com/PrismarineJS/MineflayerArmorManager",
            "id": 51423400,
            "is_template": false,
            "issue_comment_url": "https://api.github.com/repos/PrismarineJS/MineflayerArmorManager/issues/comments{/number}",
            "issue_events_url": "https://api.github.com/repos/PrismarineJS/MineflayerArmorManager/issues/events{/number}",
            "issues_url": "https://api.github.com/repos/PrismarineJS/MineflayerArmorManager/issues{/number}",
            "keys_url": "https://api.github.com/repos/PrismarineJS/MineflayerArmorManager/keys{/key_id}",
            "labels_url": "https://api.github.com/repos/PrismarineJS/MineflayerArmorManager/labels{/name}",
            "language": "TypeScript",
            "languages_url": "https://api.github.com/repos/PrismarineJS/MineflayerArmorManager/languages",
            "license": {
                "key": "mit",
                "name": "MIT License",
                "node_id": "MDc6TGljZW5zZTEz",
                "spdx_id": "MIT",
                "url": "https://api.github.com/licenses/mit"
            },
            "merges_url": "https://api.github.com/repos/PrismarineJS/MineflayerArmorManager/merges",
            "milestones_url": "https://api.github.com/repos/PrismarineJS/MineflayerArmorManager/milestones{/number}",
            "mirror_url": null,
            "name": "MineflayerArmorManager",
            "node_id": "MDEwOlJlcG9zaXRvcnk1MTQyMzQwMA==",
            "notifications_url": "https://api.github.com/repos/PrismarineJS/MineflayerArmorManager/notifications{?since,all,participating}",
            "open_issues": 6,
            "open_issues_count": 6,
            "owner": {
                "avatar_url": "https://avatars.githubusercontent.com/u/11053411?v=4",
                "events_url": "https://api.github.com/users/PrismarineJS/events{/privacy}",
                "followers_url": "https://api.github.com/users/PrismarineJS/followers",
                "following_url": "https://api.github.com/users/PrismarineJS/following{/other_user}",
                "gists_url": "https://api.github.com/users/PrismarineJS/gists{/gist_id}",
                "gravatar_id": "",
                "html_url": "https://github.com/PrismarineJS",
                "id": 11053411,
                "login": "PrismarineJS",
                "node_id": "MDEyOk9yZ2FuaXphdGlvbjExMDUzNDEx",
                "organizations_url": "https://api.github.com/users/PrismarineJS/orgs",
                "received_events_url": "https://api.github.com/users/PrismarineJS/received_events",
                "repos_url": "https://api.github.com/users/PrismarineJS/repos",
                "site_admin": false,
                "starred_url": "https://api.github.com/users/PrismarineJS/starred{/owner}{/repo}",
                "subscriptions_url": "https://api.github.com/users/PrismarineJS/subscriptions",
                "type": "Organization",
                "url": "https://api.github.com/users/PrismarineJS",
                "user_view_type": "public"
            },
            "private": false,
            "pulls_url": "https://api.github.com/repos/PrismarineJS/MineflayerArmorManager/pulls{/number}",
            "pushed_at": "2024-10-22T09:05:10Z",
            "releases_url": "https://api.github.com/repos/PrismarineJS/MineflayerArmorManager/releases{/id}",
            "size": 2665,
            "ssh_url": "git@github.com:PrismarineJS/MineflayerArmorManager.git",
            "stargazers_count": 24,
            "stargazers_url": "https://api.github.com/repos/PrismarineJS/MineflayerArmorManager/stargazers",
            "statuses_url": "https://api.github.com/repos/PrismarineJS/MineflayerArmorManager/statuses/{sha}",
            "subscribers_url": "https://api.github.com/repos/PrismarineJS/MineflayerArmorManager/subscribers",
            "subscription_url": "https://api.github.com/repos/PrismarineJS/MineflayerArmorManager/subscription",
            "svn_url": "https://github.com/PrismarineJS/MineflayerArmorManager",
            "tags_url": "https://api.github.com/repos/PrismarineJS/MineflayerArmorManager/tags",
            "teams_url": "https://api.github.com/repos/PrismarineJS/MineflayerArmorManager/teams",
            "topics": [
                "bot",
                "minecraft",
                "mineflayer-bot"
            ],
            "trees_url": "https://api.github.com/repos/PrismarineJS/MineflayerArmorManager/git/trees{/sha}",
            "updated_at": "2024-10-22T09:05:08Z",
            "url": "https://api.github.com/repos/PrismarineJS/MineflayerArmorManager",
            "visibility": "public",
            "watchers": 24,
            "watchers_count": 24,
            "web_commit_signoff_required": false
        },
        "sha": "e2c3c41796f34c5ad772c4618f5b3131d389b79e",
        "user": {
            "avatar_url": "https://avatars.githubusercontent.com/u/11053411?v=4",
            "events_url": "https://api.github.com/users/PrismarineJS/events{/privacy}",
            "followers_url": "https://api.github.com/users/PrismarineJS/followers",
            "following_url": "https://api.github.com/users/PrismarineJS/following{/other_user}",
            "gists_url": "https://api.github.com/users/PrismarineJS/gists{/gist_id}",
            "gravatar_id": "",
            "html_url": "https://github.com/PrismarineJS",
            "id": 11053411,
            "login": "PrismarineJS",
            "node_id": "MDEyOk9yZ2FuaXphdGlvbjExMDUzNDEx",
            "organizations_url": "https://api.github.com/users/PrismarineJS/orgs",
            "received_events_url": "https://api.github.com/users/PrismarineJS/received_events",
            "repos_url": "https://api.github.com/users/PrismarineJS/repos",
            "site_admin": false,
            "starred_url": "https://api.github.com/users/PrismarineJS/starred{/owner}{/repo}",
            "subscriptions_url": "https://api.github.com/users/PrismarineJS/subscriptions",
            "type": "Organization",
            "url": "https://api.github.com/users/PrismarineJS",
            "user_view_type": "public"
        }
    },
    "html_url": "https://github.com/PrismarineJS/MineflayerArmorManager/pull/317",
    "id": 2137906063,
    "issue_url": "https://api.github.com/repos/PrismarineJS/MineflayerArmorManager/issues/317",
    "labels": [
        {
            "color": "0366d6",
            "default": false,
            "description": "Pull requests that update a dependency file",
            "id": 2211501809,
            "name": "dependencies",
            "node_id": "MDU6TGFiZWwyMjExNTAxODA5",
            "url": "https://api.github.com/repos/PrismarineJS/MineflayerArmorManager/labels/dependencies"
        }
    ],
    "locked": false,
    "maintainer_can_modify": false,
    "merge_commit_sha": "d8cd31e38f0f18159284590e3ec71bdf0091bc02",
    "mergeable": null,
    "mergeable_state": "unknown",
    "merged": true,
    "merged_at": "2024-10-22T09:04:52Z",
    "merged_by": {
        "avatar_url": "https://avatars.githubusercontent.com/in/15368?v=4",
        "events_url": "https://api.github.com/users/github-actions%5Bbot%5D/events{/privacy}",
        "followers_url": "https://api.github.com/users/github-actions%5Bbot%5D/followers",
        "following_url": "https://api.github.com/users/github-actions%5Bbot%5D/following{/other_user}",
        "gists_url": "https://api.github.com/users/github-actions%5Bbot%5D/gists{/gist_id}",
        "gravatar_id": "",
        "html_url": "https://github.com/apps/github-actions",
        "id": 41898282,
        "login": "github-actions[bot]",
        "node_id": "MDM6Qm90NDE4OTgyODI=",
        "organizations_url": "https://api.github.com/users/github-actions%5Bbot%5D/orgs",
        "received_events_url": "https://api.github.com/users/github-actions%5Bbot%5D/received_events",
        "repos_url": "https://api.github.com/users/github-actions%5Bbot%5D/repos",
        "site_admin": false,
        "starred_url": "https://api.github.com/users/github-actions%5Bbot%5D/starred{/owner}{/repo}",
        "subscriptions_url": "https://api.github.com/users/github-actions%5Bbot%5D/subscriptions",
        "type": "Bot",
        "url": "https://api.github.com/users/github-actions%5Bbot%5D",
        "user_view_type": "public"
    },
    "milestone": null,
    "node_id": "PR_kwDOAxCoqM5_bduP",
    "number": 317,
    "patch_url": "https://github.com/PrismarineJS/MineflayerArmorManager/pull/317.patch",
    "rebaseable": null,
    "requested_reviewers": [],
    "requested_teams": [],
    "review_comment_url": "https://api.github.com/repos/PrismarineJS/MineflayerArmorManager/pulls/comments{/number}",
    "review_comments": 0,
    "review_comments_url": "https://api.github.com/repos/PrismarineJS/MineflayerArmorManager/pulls/317/comments",
    "state": "closed",
    "statuses_url": "https://api.github.com/repos/PrismarineJS/MineflayerArmorManager/statuses/e2c3c41796f34c5ad772c4618f5b3131d389b79e",
    "title": "build(deps-dev): bump @typescript-eslint/eslint-plugin from 8.9.0 to 8.11.0",
    "updated_at": "2024-10-22T09:05:00Z",
    "url": "https://api.github.com/repos/PrismarineJS/MineflayerArmorManager/pulls/317",
    "user": {
        "avatar_url": "https://avatars.githubusercontent.com/in/29110?v=4",
        "events_url": "https://api.github.com/users/dependabot%5Bbot%5D/events{/privacy}",
        "followers_url": "https://api.github.com/users/dependabot%5Bbot%5D/followers",
        "following_url": "https://api.github.com/users/dependabot%5Bbot%5D/following{/other_user}",
        "gists_url": "https://api.github.com/users/dependabot%5Bbot%5D/gists{/gist_id}",
        "gravatar_id": "",
        "html_url": "https://github.com/apps/dependabot",
        "id": 49699333,
        "login": "dependabot[bot]",
        "node_id": "MDM6Qm90NDk2OTkzMzM=",
        "organizations_url": "https://api.github.com/users/dependabot%5Bbot%5D/orgs",
        "received_events_url": "https://api.github.com/users/dependabot%5Bbot%5D/received_events",
        "repos_url": "https://api.github.com/users/dependabot%5Bbot%5D/repos",
        "site_admin": false,
        "starred_url": "https://api.github.com/users/dependabot%5Bbot%5D/starred{/owner}{/repo}",
        "subscriptions_url": "https://api.github.com/users/dependabot%5Bbot%5D/subscriptions",
        "type": "Bot",
        "url": "https://api.github.com/users/dependabot%5Bbot%5D",
        "user_view_type": "public"
    }
}