{
    "_links": {
        "comments": {
            "href": "https://api.github.com/repos/PrismarineJS/MineflayerArmorManager/issues/64/comments"
        },
        "commits": {
            "href": "https://api.github.com/repos/PrismarineJS/MineflayerArmorManager/pulls/64/commits"
        },
        "html": {
            "href": "https://github.com/PrismarineJS/MineflayerArmorManager/pull/64"
        },
        "issue": {
            "href": "https://api.github.com/repos/PrismarineJS/MineflayerArmorManager/issues/64"
        },
        "review_comment": {
            "href": "https://api.github.com/repos/PrismarineJS/MineflayerArmorManager/pulls/comments{/number}"
        },
        "review_comments": {
            "href": "https://api.github.com/repos/PrismarineJS/MineflayerArmorManager/pulls/64/comments"
        },
        "self": {
            "href": "https://api.github.com/repos/PrismarineJS/MineflayerArmorManager/pulls/64"
        },
        "statuses": {
            "href": "https://api.github.com/repos/PrismarineJS/MineflayerArmorManager/statuses/32bf048370ad0adfdc707831205751464c50a6c8"
        }
    },
    "active_lock_reason": null,
    "additions": 4,
    "assignee": null,
    "assignees": [],
    "author_association": "CONTRIBUTOR",
    "auto_merge": null,
    "base": {
        "label": "PrismarineJS:master",
        "ref": "master",
        "repo": {
            "allow_forking": true,
            "archive_url": "https://api.github.com/repos/PrismarineJS/MineflayerArmorManager/{archive_format}{/ref}",
            "archived": false,
            "assignees_url": "https://api.github.com/repos/PrismarineJS/MineflayerArmorManager/assignees{/user}",
            "blobs_url": "https://api.github.com/repos/PrismarineJS/MineflayerArmorManager/git/blobs{/sha}",
            "branches_url": "https://api.github.com/repos/PrismarineJS/MineflayerArmorManager/branches{/branch}",
            "clone_url": "https://github.com/PrismarineJS/MineflayerArmorManager.git",
            "collaborators_url": "https://api.github.com/repos/PrismarineJS/MineflayerArmorManager/collaborators{/collaborator}",
            "comments_url": "https://api.github.com/repos/PrismarineJS/MineflayerArmorManager/comments{/number}",
            "commits_url": "https://api.github.com/repos/PrismarineJS/MineflayerArmorManager/commits{/sha}",
            "compare_url": "https://api.github.com/repos/PrismarineJS/MineflayerArmorManager/compare/{base}...{head}",
            "contents_url": "https://api.github.com/repos/PrismarineJS/MineflayerArmorManager/contents/{+path}",
            "contributors_url": "https://api.github.com/repos/PrismarineJS/MineflayerArmorManager/contributors",
            "created_at": "2016-02-10T05:47:15Z",
            "default_branch": "master",
            "deployments_url": "https://api.github.com/repos/PrismarineJS/MineflayerArmorManager/deployments",
            "description": null,
            "disabled": false,
            "downloads_url": "https://api.github.com/repos/PrismarineJS/MineflayerArmorManager/downloads",
            "events_url": "https://api.github.com/repos/PrismarineJS/MineflayerArmorManager/events",
            "fork": false,
            "forks": 6,
            "forks_count": 6,
            "forks_url": "https://api.github.com/repos/PrismarineJS/MineflayerArmorManager/forks",
            "full_name": "PrismarineJS/MineflayerArmorManager",
            "git_commits_url": "https://api.github.com/repos/PrismarineJS/MineflayerArmorManager/git/commits{/sha}",
            "git_refs_url": "https://api.github.com/repos/PrismarineJS/MineflayerArmorManager/git/refs{/sha}",
            "git_tags_url": "https://api.github.com/repos/PrismarineJS/MineflayerArmorManager/git/tags{/sha}",
            "git_url": "git://github.com/PrismarineJS/MineflayerArmorManager.git",
            "has_discussions": false,
            "has_downloads": true,
            "has_issues": true,
            "has_pages": false,
            "has_projects": true,
            "has_wiki": false,
            "homepage": null,
            "hooks_url": "https://api.github.com/repos/PrismarineJS/MineflayerArmorManager/hooks",
            "html_url": "https://github.com/PrismarineJS/MineflayerArmorManager",
            "id": 51423400,
            "is_template": false,
            "issue_comment_url": "https://api.github.com/repos/PrismarineJS/MineflayerArmorManager/issues/comments{/number}",
            "issue_events_url": "https://api.github.com/repos/PrismarineJS/MineflayerArmorManager/issues/events{/number}",
            "issues_url": "https://api.github.com/repos/PrismarineJS/MineflayerArmorManager/issues{/number}",
            "keys_url": "https://api.github.com/repos/PrismarineJS/MineflayerArmorManager/keys{/key_id}",
            "labels_url": "https://api.github.com/repos/PrismarineJS/MineflayerArmorManager/labels{/name}",
            "language": "TypeScript",
            "languages_url": "https://api.github.com/repos/PrismarineJS/MineflayerArmorManager/languages",
            "license": {
                "key": "mit",
                "name": "MIT License",
                "node_id": "MDc6TGljZW5zZTEz",
                "spdx_id": "MIT",
                "url": "https://api.github.com/licenses/mit"
            },
            "merges_url": "https://api.github.com/repos/PrismarineJS/MineflayerArmorManager/merges",
            "milestones_url": "https://api.github.com/repos/PrismarineJS/MineflayerArmorManager/milestones{/number}",
            "mirror_url": null,
            "name": "MineflayerArmorManager",
            "node_id": "MDEwOlJlcG9zaXRvcnk1MTQyMzQwMA==",
            "notifications_url": "https://api.github.com/repos/PrismarineJS/MineflayerArmorManager/notifications{?since,all,participating}",
            "open_issues": 5,
            "open_issues_count": 5,
            "owner": {
                "avatar_url": "https://avatars.githubusercontent.com/u/11053411?v=4",
                "events_url": "https://api.github.com/users/PrismarineJS/events{/privacy}",
                "followers_url": "https://api.github.com/users/PrismarineJS/followers",
                "following_url": "https://api.github.com/users/PrismarineJS/following{/other_user}",
                "gists_url": "https://api.github.com/users/PrismarineJS/gists{/gist_id}",
                "gravatar_id": "",
                "html_url": "https://github.com/PrismarineJS",
                "id": 11053411,
                "login": "PrismarineJS",
                "node_id": "MDEyOk9yZ2FuaXphdGlvbjExMDUzNDEx",
                "organizations_url": "https://api.github.com/users/PrismarineJS/orgs",
                "received_events_url": "https://api.github.com/users/PrismarineJS/received_events",
                "repos_url": "https://api.github.com/users/PrismarineJS/repos",
                "site_admin": false,
                "starred_url": "https://api.github.com/users/PrismarineJS/starred{/owner}{/repo}",
                "subscriptions_url": "https://api.github.com/users/PrismarineJS/subscriptions",
                "type": "Organization",
                "url": "https://api.github.com/users/PrismarineJS"
            },
            "private": false,
            "pulls_url": "https://api.github.com/repos/PrismarineJS/MineflayerArmorManager/pulls{/number}",
            "pushed_at": "2023-07-04T15:38:46Z",
            "releases_url": "https://api.github.com/repos/PrismarineJS/MineflayerArmorManager/releases{/id}",
            "size": 2258,
            "ssh_url": "git@github.com:PrismarineJS/MineflayerArmorManager.git",
            "stargazers_count": 15,
            "stargazers_url": "https://api.github.com/repos/PrismarineJS/MineflayerArmorManager/stargazers",
            "statuses_url": "https://api.github.com/repos/PrismarineJS/MineflayerArmorManager/statuses/{sha}",
            "subscribers_url": "https://api.github.com/repos/PrismarineJS/MineflayerArmorManager/subscribers",
            "subscription_url": "https://api.github.com/repos/PrismarineJS/MineflayerArmorManager/subscription",
            "svn_url": "https://github.com/PrismarineJS/MineflayerArmorManager",
            "tags_url": "https://api.github.com/repos/PrismarineJS/MineflayerArmorManager/tags",
            "teams_url": "https://api.github.com/repos/PrismarineJS/MineflayerArmorManager/teams",
            "topics": [
                "bot",
                "minecraft",
                "mineflayer-bot"
            ],
            "trees_url": "https://api.github.com/repos/PrismarineJS/MineflayerArmorManager/git/trees{/sha}",
            "updated_at": "2023-03-06T14:48:35Z",
            "url": "https://api.github.com/repos/PrismarineJS/MineflayerArmorManager",
            "visibility": "public",
            "watchers": 15,
            "watchers_count": 15,
            "web_commit_signoff_required": false
        },
        "sha": "ea7e3c6d5ced340a829255bc53e1f53c934b0046",
        "user": {
            "avatar_url": "https://avatars.githubusercontent.com/u/11053411?v=4",
            "events_url": "https://api.github.com/users/PrismarineJS/events{/privacy}",
            "followers_url": "https://api.github.com/users/PrismarineJS/followers",
            "following_url": "https://api.github.com/users/PrismarineJS/following{/other_user}",
            "gists_url": "https://api.github.com/users/PrismarineJS/gists{/gist_id}",
            "gravatar_id": "",
            "html_url": "https://github.com/PrismarineJS",
            "id": 11053411,
            "login": "PrismarineJS",
            "node_id": "MDEyOk9yZ2FuaXphdGlvbjExMDUzNDEx",
            "organizations_url": "https://api.github.com/users/PrismarineJS/orgs",
            "received_events_url": "https://api.github.com/users/PrismarineJS/received_events",
            "repos_url": "https://api.github.com/users/PrismarineJS/repos",
            "site_admin": false,
            "starred_url": "https://api.github.com/users/PrismarineJS/starred{/owner}{/repo}",
            "subscriptions_url": "https://api.github.com/users/PrismarineJS/subscriptions",
            "type": "Organization",
            "url": "https://api.github.com/users/PrismarineJS"
        }
    },
    "body": "Bumps [prismarine-item](https://github.com/PrismarineJS/prismarine-item) from 1.12.2 to 1.12.3.\n<details>\n<summary>Release notes</summary>\n<p><em>Sourced from <a href=\"https://github.com/PrismarineJS/prismarine-item/releases\">prismarine-item's releases</a>.</em></p>\n<blockquote>\n<h2>Release 1.12.3</h2>\n<p>1.12.3</p>\n</blockquote>\n</details>\n<details>\n<summary>Commits</summary>\n<ul>\n<li><a href=\"https://github.com/PrismarineJS/prismarine-item/commit/816ab75867db288039a29695d7b2de6eb455d466\"><code>816ab75</code></a> Release 1.12.3 (<a href=\"https://redirect.github.com/PrismarineJS/prismarine-item/issues/101\">#101</a>)</li>\n<li><a href=\"https://github.com/PrismarineJS/prismarine-item/commit/a4f5d593be8a80fbe539369efe2d1127c9785583\"><code>a4f5d59</code></a> add commands workflow (<a href=\"https://redirect.github.com/PrismarineJS/prismarine-item/issues/99\">#99</a>)</li>\n<li><a href=\"https://github.com/PrismarineJS/prismarine-item/commit/52098ca2b0a9eafa6bcde3cdfb3c2315bab258a5\"><code>52098ca</code></a> Update to node 18.0.0 (<a href=\"https://redirect.github.com/PrismarineJS/prismarine-item/issues/98\">#98</a>)</li>\n<li>See full diff in <a href=\"https://github.com/PrismarineJS/prismarine-item/compare/1.12.2...1.12.3\">compare view</a></li>\n</ul>\n</details>\n<br />\n\n\n[![Dependabot compatibility score](https://dependabot-badges.githubapp.com/badges/compatibility_score?dependency-name=prismarine-item&package-manager=npm_and_yarn&previous-version=1.12.2&new-version=1.12.3)](https://docs.github.com/en/github/managing-security-vulnerabilities/about-dependabot-security-updates#about-compatibility-scores)\n\nDependabot will resolve any conflicts with this PR as long as you don't alter it yourself. You can also trigger a rebase manually by commenting `@dependabot rebase`.\n\n[//]: # (dependabot-automerge-start)\n[//]: # (dependabot-automerge-end)\n\n---\n\n<details>\n<summary>Dependabot commands and options</summary>\n<br />\n\nYou can trigger Dependabot actions by commenting on this PR:\n- `@dependabot rebase` will rebase this PR\n- `@dependabot recreate` will recreate this PR, overwriting any edits that have been made to it\n- `@dependabot merge` will merge this PR after your CI passes on it\n- `@dependabot squash and merge` will squash and merge this PR after your CI passes on it\n- `@dependabot cancel merge` will cancel a previously requested merge and block automerging\n- `@dependabot reopen` will reopen this PR if it is closed\n- `@dependabot close` will close this PR and stop Dependabot recreating it. You can achieve the same result by closing it manually\n- `@dependabot ignore this major version` will close this PR and stop Dependabot creating any more for this major version (unless you reopen the PR or upgrade to it yourself)\n- `@dependabot ignore this minor version` will close this PR and stop Dependabot creating any more for this minor version (unless you reopen the PR or upgrade to it yourself)\n- `@dependabot ignore this dependency` will close this PR and stop Dependabot creating any more for this dependency (unless you reopen the PR or upgrade to it yourself)\n\n\n</details>",
    "changed_files": 1,
    "closed_at": "2023-07-04T15:38:33Z",
    "comment_data": [],
    "comment_regular_data": [
        {
            "author_association": "NONE",
            "body": "<!-- overview-comment -->\n**Updated dependencies detected.** Learn more about [Socket for GitHub ↗︎](https://socket.dev?utm_medium=gh)\n\n\n| Packages | Version | New capabilities | Transitives | Size | Publisher |\n|:--- |:--- |:--- |:--- |:--- |:--- |\n| [prismarine-item](https://socket.dev/npm/package/prismarine-item/overview/1.12.3) | [1.12.2...1.12.3](https://socket.dev/npm/package/prismarine-item/diff/1.12.3?from=1.12.2) | None | `+0/-0` | 71 kB | [rom1504](https://socket.dev/npm/user/rom1504) |\n\n",
            "created_at": "2023-07-03T10:00:25Z",
            "html_url": "https://github.com/PrismarineJS/MineflayerArmorManager/pull/64#issuecomment-1617773198",
            "id": 1617773198,
            "issue_url": "https://api.github.com/repos/PrismarineJS/MineflayerArmorManager/issues/64",
            "node_id": "IC_kwDOAxCoqM5gbUKO",
            "performed_via_github_app": null,
            "reactions": {
                "+1": 0,
                "-1": 0,
                "confused": 0,
                "eyes": 0,
                "heart": 0,
                "hooray": 0,
                "laugh": 0,
                "rocket": 0,
                "total_count": 0,
                "url": "https://api.github.com/repos/PrismarineJS/MineflayerArmorManager/issues/comments/1617773198/reactions"
            },
            "updated_at": "2023-07-03T10:00:25Z",
            "url": "https://api.github.com/repos/PrismarineJS/MineflayerArmorManager/issues/comments/1617773198",
            "user": {
                "avatar_url": "https://avatars.githubusercontent.com/in/156372?v=4",
                "events_url": "https://api.github.com/users/socket-security%5Bbot%5D/events{/privacy}",
                "followers_url": "https://api.github.com/users/socket-security%5Bbot%5D/followers",
                "following_url": "https://api.github.com/users/socket-security%5Bbot%5D/following{/other_user}",
                "gists_url": "https://api.github.com/users/socket-security%5Bbot%5D/gists{/gist_id}",
                "gravatar_id": "",
                "html_url": "https://github.com/apps/socket-security",
                "id": 95510084,
                "login": "socket-security[bot]",
                "node_id": "BOT_kgDOBbFeRA",
                "organizations_url": "https://api.github.com/users/socket-security%5Bbot%5D/orgs",
                "received_events_url": "https://api.github.com/users/socket-security%5Bbot%5D/received_events",
                "repos_url": "https://api.github.com/users/socket-security%5Bbot%5D/repos",
                "site_admin": false,
                "starred_url": "https://api.github.com/users/socket-security%5Bbot%5D/starred{/owner}{/repo}",
                "subscriptions_url": "https://api.github.com/users/socket-security%5Bbot%5D/subscriptions",
                "type": "Bot",
                "url": "https://api.github.com/users/socket-security%5Bbot%5D"
            }
        }
    ],
    "comments": 1,
    "comments_url": "https://api.github.com/repos/PrismarineJS/MineflayerArmorManager/issues/64/comments",
    "commit_data": [
        {
            "author": {
                "avatar_url": "https://avatars.githubusercontent.com/in/29110?v=4",
                "events_url": "https://api.github.com/users/dependabot%5Bbot%5D/events{/privacy}",
                "followers_url": "https://api.github.com/users/dependabot%5Bbot%5D/followers",
                "following_url": "https://api.github.com/users/dependabot%5Bbot%5D/following{/other_user}",
                "gists_url": "https://api.github.com/users/dependabot%5Bbot%5D/gists{/gist_id}",
                "gravatar_id": "",
                "html_url": "https://github.com/apps/dependabot",
                "id": 49699333,
                "login": "dependabot[bot]",
                "node_id": "MDM6Qm90NDk2OTkzMzM=",
                "organizations_url": "https://api.github.com/users/dependabot%5Bbot%5D/orgs",
                "received_events_url": "https://api.github.com/users/dependabot%5Bbot%5D/received_events",
                "repos_url": "https://api.github.com/users/dependabot%5Bbot%5D/repos",
                "site_admin": false,
                "starred_url": "https://api.github.com/users/dependabot%5Bbot%5D/starred{/owner}{/repo}",
                "subscriptions_url": "https://api.github.com/users/dependabot%5Bbot%5D/subscriptions",
                "type": "Bot",
                "url": "https://api.github.com/users/dependabot%5Bbot%5D"
            },
            "comments_url": "https://api.github.com/repos/PrismarineJS/MineflayerArmorManager/commits/32bf048370ad0adfdc707831205751464c50a6c8/comments",
            "commit": {
                "author": {
                    "date": "2023-07-03T09:59:00Z",
                    "email": "49699333+dependabot[bot]@users.noreply.github.com",
                    "name": "dependabot[bot]"
                },
                "comment_count": 0,
                "committer": {
                    "date": "2023-07-03T09:59:00Z",
                    "email": "noreply@github.com",
                    "name": "GitHub"
                },
                "message": "chore(deps-dev): bump prismarine-item from 1.12.2 to 1.12.3\n\nBumps [prismarine-item](https://github.com/PrismarineJS/prismarine-item) from 1.12.2 to 1.12.3.\n- [Release notes](https://github.com/PrismarineJS/prismarine-item/releases)\n- [Commits](https://github.com/PrismarineJS/prismarine-item/compare/1.12.2...1.12.3)\n\n---\nupdated-dependencies:\n- dependency-name: prismarine-item\n  dependency-type: direct:development\n  update-type: version-update:semver-patch\n...\n\nSigned-off-by: dependabot[bot] <support@github.com>",
                "tree": {
                    "sha": "de3dc7a5245a2a0b4ca88a64f33a6b2a464c924b",
                    "url": "https://api.github.com/repos/PrismarineJS/MineflayerArmorManager/git/trees/de3dc7a5245a2a0b4ca88a64f33a6b2a464c924b"
                },
                "url": "https://api.github.com/repos/PrismarineJS/MineflayerArmorManager/git/commits/32bf048370ad0adfdc707831205751464c50a6c8",
                "verification": {
                    "payload": "tree de3dc7a5245a2a0b4ca88a64f33a6b2a464c924b\nparent ea7e3c6d5ced340a829255bc53e1f53c934b0046\nauthor dependabot[bot] <49699333+dependabot[bot]@users.noreply.github.com> 1688378340 +0000\ncommitter GitHub <noreply@github.com> 1688378340 +0000\n\nchore(deps-dev): bump prismarine-item from 1.12.2 to 1.12.3\n\nBumps [prismarine-item](https://github.com/PrismarineJS/prismarine-item) from 1.12.2 to 1.12.3.\n- [Release notes](https://github.com/PrismarineJS/prismarine-item/releases)\n- [Commits](https://github.com/PrismarineJS/prismarine-item/compare/1.12.2...1.12.3)\n\n---\nupdated-dependencies:\n- dependency-name: prismarine-item\n  dependency-type: direct:development\n  update-type: version-update:semver-patch\n...\n\nSigned-off-by: dependabot[bot] <support@github.com>",
                    "reason": "valid",
                    "signature": "-----BEGIN PGP SIGNATURE-----\n\nwsBcBAABCAAQBQJkopvkCRBK7hj4Ov3rIwAAC4MIAC6zfDgxwUqGOtVqoo0GK8IU\nJeLkoGqCwEVv7e76Z9x1YfBuW0hBnJYNVWH94wL4tR4XWhU4oJ5QUTZ/SE/7PGsw\nO3ulJ2Mp3ZtYe4zO0pULR8j9/hUUuhTpqSFUn4KMyDg8uw2FfPRGj3VnrS1AjEGm\nPEhB3LNCmdneAJOoqV44WC/46J87uT4BsnBjgORlJye4vMP4SZi7cZmIo2rDqGKS\nlQSzm/hfviGcGJmlUOdP/ZbtpIqDg/4eCgM6lmjOIw6YubXUIk1ogAVx3TikY/yp\nIKGQar+87v/5fBBsZm5LVwCk5crN4PU1YpGer+NWswTwiPKU7Iaj+pbckbsA8Do=\n=TX1H\n-----END PGP SIGNATURE-----\n",
                    "verified": true
                }
            },
            "committer": {
                "avatar_url": "https://avatars.githubusercontent.com/u/19864447?v=4",
                "events_url": "https://api.github.com/users/web-flow/events{/privacy}",
                "followers_url": "https://api.github.com/users/web-flow/followers",
                "following_url": "https://api.github.com/users/web-flow/following{/other_user}",
                "gists_url": "https://api.github.com/users/web-flow/gists{/gist_id}",
                "gravatar_id": "",
                "html_url": "https://github.com/web-flow",
                "id": 19864447,
                "login": "web-flow",
                "node_id": "MDQ6VXNlcjE5ODY0NDQ3",
                "organizations_url": "https://api.github.com/users/web-flow/orgs",
                "received_events_url": "https://api.github.com/users/web-flow/received_events",
                "repos_url": "https://api.github.com/users/web-flow/repos",
                "site_admin": false,
                "starred_url": "https://api.github.com/users/web-flow/starred{/owner}{/repo}",
                "subscriptions_url": "https://api.github.com/users/web-flow/subscriptions",
                "type": "User",
                "url": "https://api.github.com/users/web-flow"
            },
            "html_url": "https://github.com/PrismarineJS/MineflayerArmorManager/commit/32bf048370ad0adfdc707831205751464c50a6c8",
            "node_id": "C_kwDOAxCoqNoAKDMyYmYwNDgzNzBhZDBhZGZkYzcwNzgzMTIwNTc1MTQ2NGM1MGE2Yzg",
            "parents": [
                {
                    "html_url": "https://github.com/PrismarineJS/MineflayerArmorManager/commit/ea7e3c6d5ced340a829255bc53e1f53c934b0046",
                    "sha": "ea7e3c6d5ced340a829255bc53e1f53c934b0046",
                    "url": "https://api.github.com/repos/PrismarineJS/MineflayerArmorManager/commits/ea7e3c6d5ced340a829255bc53e1f53c934b0046"
                }
            ],
            "sha": "32bf048370ad0adfdc707831205751464c50a6c8",
            "url": "https://api.github.com/repos/PrismarineJS/MineflayerArmorManager/commits/32bf048370ad0adfdc707831205751464c50a6c8"
        }
    ],
    "commits": 1,
    "commits_url": "https://api.github.com/repos/PrismarineJS/MineflayerArmorManager/pulls/64/commits",
    "created_at": "2023-07-03T09:59:01Z",
    "deletions": 10,
    "diff_url": "https://github.com/PrismarineJS/MineflayerArmorManager/pull/64.diff",
    "draft": false,
    "head": {
        "label": "PrismarineJS:dependabot/npm_and_yarn/prismarine-item-1.12.3",
        "ref": "dependabot/npm_and_yarn/prismarine-item-1.12.3",
        "repo": {
            "allow_forking": true,
            "archive_url": "https://api.github.com/repos/PrismarineJS/MineflayerArmorManager/{archive_format}{/ref}",
            "archived": false,
            "assignees_url": "https://api.github.com/repos/PrismarineJS/MineflayerArmorManager/assignees{/user}",
            "blobs_url": "https://api.github.com/repos/PrismarineJS/MineflayerArmorManager/git/blobs{/sha}",
            "branches_url": "https://api.github.com/repos/PrismarineJS/MineflayerArmorManager/branches{/branch}",
            "clone_url": "https://github.com/PrismarineJS/MineflayerArmorManager.git",
            "collaborators_url": "https://api.github.com/repos/PrismarineJS/MineflayerArmorManager/collaborators{/collaborator}",
            "comments_url": "https://api.github.com/repos/PrismarineJS/MineflayerArmorManager/comments{/number}",
            "commits_url": "https://api.github.com/repos/PrismarineJS/MineflayerArmorManager/commits{/sha}",
            "compare_url": "https://api.github.com/repos/PrismarineJS/MineflayerArmorManager/compare/{base}...{head}",
            "contents_url": "https://api.github.com/repos/PrismarineJS/MineflayerArmorManager/contents/{+path}",
            "contributors_url": "https://api.github.com/repos/PrismarineJS/MineflayerArmorManager/contributors",
            "created_at": "2016-02-10T05:47:15Z",
            "default_branch": "master",
            "deployments_url": "https://api.github.com/repos/PrismarineJS/MineflayerArmorManager/deployments",
            "description": null,
            "disabled": false,
            "downloads_url": "https://api.github.com/repos/PrismarineJS/MineflayerArmorManager/downloads",
            "events_url": "https://api.github.com/repos/PrismarineJS/MineflayerArmorManager/events",
            "fork": false,
            "forks": 6,
            "forks_count": 6,
            "forks_url": "https://api.github.com/repos/PrismarineJS/MineflayerArmorManager/forks",
            "full_name": "PrismarineJS/MineflayerArmorManager",
            "git_commits_url": "https://api.github.com/repos/PrismarineJS/MineflayerArmorManager/git/commits{/sha}",
            "git_refs_url": "https://api.github.com/repos/PrismarineJS/MineflayerArmorManager/git/refs{/sha}",
            "git_tags_url": "https://api.github.com/repos/PrismarineJS/MineflayerArmorManager/git/tags{/sha}",
            "git_url": "git://github.com/PrismarineJS/MineflayerArmorManager.git",
            "has_discussions": false,
            "has_downloads": true,
            "has_issues": true,
            "has_pages": false,
            "has_projects": true,
            "has_wiki": false,
            "homepage": null,
            "hooks_url": "https://api.github.com/repos/PrismarineJS/MineflayerArmorManager/hooks",
            "html_url": "https://github.com/PrismarineJS/MineflayerArmorManager",
            "id": 51423400,
            "is_template": false,
            "issue_comment_url": "https://api.github.com/repos/PrismarineJS/MineflayerArmorManager/issues/comments{/number}",
            "issue_events_url": "https://api.github.com/repos/PrismarineJS/MineflayerArmorManager/issues/events{/number}",
            "issues_url": "https://api.github.com/repos/PrismarineJS/MineflayerArmorManager/issues{/number}",
            "keys_url": "https://api.github.com/repos/PrismarineJS/MineflayerArmorManager/keys{/key_id}",
            "labels_url": "https://api.github.com/repos/PrismarineJS/MineflayerArmorManager/labels{/name}",
            "language": "TypeScript",
            "languages_url": "https://api.github.com/repos/PrismarineJS/MineflayerArmorManager/languages",
            "license": {
                "key": "mit",
                "name": "MIT License",
                "node_id": "MDc6TGljZW5zZTEz",
                "spdx_id": "MIT",
                "url": "https://api.github.com/licenses/mit"
            },
            "merges_url": "https://api.github.com/repos/PrismarineJS/MineflayerArmorManager/merges",
            "milestones_url": "https://api.github.com/repos/PrismarineJS/MineflayerArmorManager/milestones{/number}",
            "mirror_url": null,
            "name": "MineflayerArmorManager",
            "node_id": "MDEwOlJlcG9zaXRvcnk1MTQyMzQwMA==",
            "notifications_url": "https://api.github.com/repos/PrismarineJS/MineflayerArmorManager/notifications{?since,all,participating}",
            "open_issues": 5,
            "open_issues_count": 5,
            "owner": {
                "avatar_url": "https://avatars.githubusercontent.com/u/11053411?v=4",
                "events_url": "https://api.github.com/users/PrismarineJS/events{/privacy}",
                "followers_url": "https://api.github.com/users/PrismarineJS/followers",
                "following_url": "https://api.github.com/users/PrismarineJS/following{/other_user}",
                "gists_url": "https://api.github.com/users/PrismarineJS/gists{/gist_id}",
                "gravatar_id": "",
                "html_url": "https://github.com/PrismarineJS",
                "id": 11053411,
                "login": "PrismarineJS",
                "node_id": "MDEyOk9yZ2FuaXphdGlvbjExMDUzNDEx",
                "organizations_url": "https://api.github.com/users/PrismarineJS/orgs",
                "received_events_url": "https://api.github.com/users/PrismarineJS/received_events",
                "repos_url": "https://api.github.com/users/PrismarineJS/repos",
                "site_admin": false,
                "starred_url": "https://api.github.com/users/PrismarineJS/starred{/owner}{/repo}",
                "subscriptions_url": "https://api.github.com/users/PrismarineJS/subscriptions",
                "type": "Organization",
                "url": "https://api.github.com/users/PrismarineJS"
            },
            "private": false,
            "pulls_url": "https://api.github.com/repos/PrismarineJS/MineflayerArmorManager/pulls{/number}",
            "pushed_at": "2023-07-04T15:38:46Z",
            "releases_url": "https://api.github.com/repos/PrismarineJS/MineflayerArmorManager/releases{/id}",
            "size": 2258,
            "ssh_url": "git@github.com:PrismarineJS/MineflayerArmorManager.git",
            "stargazers_count": 15,
            "stargazers_url": "https://api.github.com/repos/PrismarineJS/MineflayerArmorManager/stargazers",
            "statuses_url": "https://api.github.com/repos/PrismarineJS/MineflayerArmorManager/statuses/{sha}",
            "subscribers_url": "https://api.github.com/repos/PrismarineJS/MineflayerArmorManager/subscribers",
            "subscription_url": "https://api.github.com/repos/PrismarineJS/MineflayerArmorManager/subscription",
            "svn_url": "https://github.com/PrismarineJS/MineflayerArmorManager",
            "tags_url": "https://api.github.com/repos/PrismarineJS/MineflayerArmorManager/tags",
            "teams_url": "https://api.github.com/repos/PrismarineJS/MineflayerArmorManager/teams",
            "topics": [
                "bot",
                "minecraft",
                "mineflayer-bot"
            ],
            "trees_url": "https://api.github.com/repos/PrismarineJS/MineflayerArmorManager/git/trees{/sha}",
            "updated_at": "2023-03-06T14:48:35Z",
            "url": "https://api.github.com/repos/PrismarineJS/MineflayerArmorManager",
            "visibility": "public",
            "watchers": 15,
            "watchers_count": 15,
            "web_commit_signoff_required": false
        },
        "sha": "32bf048370ad0adfdc707831205751464c50a6c8",
        "user": {
            "avatar_url": "https://avatars.githubusercontent.com/u/11053411?v=4",
            "events_url": "https://api.github.com/users/PrismarineJS/events{/privacy}",
            "followers_url": "https://api.github.com/users/PrismarineJS/followers",
            "following_url": "https://api.github.com/users/PrismarineJS/following{/other_user}",
            "gists_url": "https://api.github.com/users/PrismarineJS/gists{/gist_id}",
            "gravatar_id": "",
            "html_url": "https://github.com/PrismarineJS",
            "id": 11053411,
            "login": "PrismarineJS",
            "node_id": "MDEyOk9yZ2FuaXphdGlvbjExMDUzNDEx",
            "organizations_url": "https://api.github.com/users/PrismarineJS/orgs",
            "received_events_url": "https://api.github.com/users/PrismarineJS/received_events",
            "repos_url": "https://api.github.com/users/PrismarineJS/repos",
            "site_admin": false,
            "starred_url": "https://api.github.com/users/PrismarineJS/starred{/owner}{/repo}",
            "subscriptions_url": "https://api.github.com/users/PrismarineJS/subscriptions",
            "type": "Organization",
            "url": "https://api.github.com/users/PrismarineJS"
        }
    },
    "html_url": "https://github.com/PrismarineJS/MineflayerArmorManager/pull/64",
    "id": 1417789758,
    "issue_url": "https://api.github.com/repos/PrismarineJS/MineflayerArmorManager/issues/64",
    "labels": [
        {
            "color": "0366d6",
            "default": false,
            "description": "Pull requests that update a dependency file",
            "id": 2211501809,
            "name": "dependencies",
            "node_id": "MDU6TGFiZWwyMjExNTAxODA5",
            "url": "https://api.github.com/repos/PrismarineJS/MineflayerArmorManager/labels/dependencies"
        }
    ],
    "locked": false,
    "maintainer_can_modify": false,
    "merge_commit_sha": "a1c9c185a48e2c681edfc74d0dd7af5cfab70d5b",
    "mergeable": null,
    "mergeable_state": "unknown",
    "merged": true,
    "merged_at": "2023-07-04T15:38:33Z",
    "merged_by": {
        "avatar_url": "https://avatars.githubusercontent.com/u/6943514?v=4",
        "events_url": "https://api.github.com/users/G07cha/events{/privacy}",
        "followers_url": "https://api.github.com/users/G07cha/followers",
        "following_url": "https://api.github.com/users/G07cha/following{/other_user}",
        "gists_url": "https://api.github.com/users/G07cha/gists{/gist_id}",
        "gravatar_id": "",
        "html_url": "https://github.com/G07cha",
        "id": 6943514,
        "login": "G07cha",
        "node_id": "MDQ6VXNlcjY5NDM1MTQ=",
        "organizations_url": "https://api.github.com/users/G07cha/orgs",
        "received_events_url": "https://api.github.com/users/G07cha/received_events",
        "repos_url": "https://api.github.com/users/G07cha/repos",
        "site_admin": false,
        "starred_url": "https://api.github.com/users/G07cha/starred{/owner}{/repo}",
        "subscriptions_url": "https://api.github.com/users/G07cha/subscriptions",
        "type": "User",
        "url": "https://api.github.com/users/G07cha"
    },
    "milestone": null,
    "node_id": "PR_kwDOAxCoqM5UgcE-",
    "number": 64,
    "patch_url": "https://github.com/PrismarineJS/MineflayerArmorManager/pull/64.patch",
    "rebaseable": null,
    "requested_reviewers": [],
    "requested_teams": [],
    "review_comment_url": "https://api.github.com/repos/PrismarineJS/MineflayerArmorManager/pulls/comments{/number}",
    "review_comments": 0,
    "review_comments_url": "https://api.github.com/repos/PrismarineJS/MineflayerArmorManager/pulls/64/comments",
    "state": "closed",
    "statuses_url": "https://api.github.com/repos/PrismarineJS/MineflayerArmorManager/statuses/32bf048370ad0adfdc707831205751464c50a6c8",
    "title": "chore(deps-dev): bump prismarine-item from 1.12.2 to 1.12.3",
    "updated_at": "2023-07-04T15:38:43Z",
    "url": "https://api.github.com/repos/PrismarineJS/MineflayerArmorManager/pulls/64",
    "user": {
        "avatar_url": "https://avatars.githubusercontent.com/in/29110?v=4",
        "events_url": "https://api.github.com/users/dependabot%5Bbot%5D/events{/privacy}",
        "followers_url": "https://api.github.com/users/dependabot%5Bbot%5D/followers",
        "following_url": "https://api.github.com/users/dependabot%5Bbot%5D/following{/other_user}",
        "gists_url": "https://api.github.com/users/dependabot%5Bbot%5D/gists{/gist_id}",
        "gravatar_id": "",
        "html_url": "https://github.com/apps/dependabot",
        "id": 49699333,
        "login": "dependabot[bot]",
        "node_id": "MDM6Qm90NDk2OTkzMzM=",
        "organizations_url": "https://api.github.com/users/dependabot%5Bbot%5D/orgs",
        "received_events_url": "https://api.github.com/users/dependabot%5Bbot%5D/received_events",
        "repos_url": "https://api.github.com/users/dependabot%5Bbot%5D/repos",
        "site_admin": false,
        "starred_url": "https://api.github.com/users/dependabot%5Bbot%5D/starred{/owner}{/repo}",
        "subscriptions_url": "https://api.github.com/users/dependabot%5Bbot%5D/subscriptions",
        "type": "Bot",
        "url": "https://api.github.com/users/dependabot%5Bbot%5D"
    }
}