{
    "_links": {
        "comments": {
            "href": "https://api.github.com/repos/PrismarineJS/MineflayerArmorManager/issues/85/comments"
        },
        "commits": {
            "href": "https://api.github.com/repos/PrismarineJS/MineflayerArmorManager/pulls/85/commits"
        },
        "html": {
            "href": "https://github.com/PrismarineJS/MineflayerArmorManager/pull/85"
        },
        "issue": {
            "href": "https://api.github.com/repos/PrismarineJS/MineflayerArmorManager/issues/85"
        },
        "review_comment": {
            "href": "https://api.github.com/repos/PrismarineJS/MineflayerArmorManager/pulls/comments{/number}"
        },
        "review_comments": {
            "href": "https://api.github.com/repos/PrismarineJS/MineflayerArmorManager/pulls/85/comments"
        },
        "self": {
            "href": "https://api.github.com/repos/PrismarineJS/MineflayerArmorManager/pulls/85"
        },
        "statuses": {
            "href": "https://api.github.com/repos/PrismarineJS/MineflayerArmorManager/statuses/f80c08339a39eb3066506c27f27991d5c89b1906"
        }
    },
    "active_lock_reason": null,
    "additions": 3,
    "assignee": null,
    "assignees": [],
    "author_association": "CONTRIBUTOR",
    "auto_merge": null,
    "base": {
        "label": "PrismarineJS:master",
        "ref": "master",
        "repo": {
            "allow_forking": true,
            "archive_url": "https://api.github.com/repos/PrismarineJS/MineflayerArmorManager/{archive_format}{/ref}",
            "archived": false,
            "assignees_url": "https://api.github.com/repos/PrismarineJS/MineflayerArmorManager/assignees{/user}",
            "blobs_url": "https://api.github.com/repos/PrismarineJS/MineflayerArmorManager/git/blobs{/sha}",
            "branches_url": "https://api.github.com/repos/PrismarineJS/MineflayerArmorManager/branches{/branch}",
            "clone_url": "https://github.com/PrismarineJS/MineflayerArmorManager.git",
            "collaborators_url": "https://api.github.com/repos/PrismarineJS/MineflayerArmorManager/collaborators{/collaborator}",
            "comments_url": "https://api.github.com/repos/PrismarineJS/MineflayerArmorManager/comments{/number}",
            "commits_url": "https://api.github.com/repos/PrismarineJS/MineflayerArmorManager/commits{/sha}",
            "compare_url": "https://api.github.com/repos/PrismarineJS/MineflayerArmorManager/compare/{base}...{head}",
            "contents_url": "https://api.github.com/repos/PrismarineJS/MineflayerArmorManager/contents/{+path}",
            "contributors_url": "https://api.github.com/repos/PrismarineJS/MineflayerArmorManager/contributors",
            "created_at": "2016-02-10T05:47:15Z",
            "default_branch": "master",
            "deployments_url": "https://api.github.com/repos/PrismarineJS/MineflayerArmorManager/deployments",
            "description": null,
            "disabled": false,
            "downloads_url": "https://api.github.com/repos/PrismarineJS/MineflayerArmorManager/downloads",
            "events_url": "https://api.github.com/repos/PrismarineJS/MineflayerArmorManager/events",
            "fork": false,
            "forks": 6,
            "forks_count": 6,
            "forks_url": "https://api.github.com/repos/PrismarineJS/MineflayerArmorManager/forks",
            "full_name": "PrismarineJS/MineflayerArmorManager",
            "git_commits_url": "https://api.github.com/repos/PrismarineJS/MineflayerArmorManager/git/commits{/sha}",
            "git_refs_url": "https://api.github.com/repos/PrismarineJS/MineflayerArmorManager/git/refs{/sha}",
            "git_tags_url": "https://api.github.com/repos/PrismarineJS/MineflayerArmorManager/git/tags{/sha}",
            "git_url": "git://github.com/PrismarineJS/MineflayerArmorManager.git",
            "has_discussions": false,
            "has_downloads": true,
            "has_issues": true,
            "has_pages": false,
            "has_projects": true,
            "has_wiki": false,
            "homepage": null,
            "hooks_url": "https://api.github.com/repos/PrismarineJS/MineflayerArmorManager/hooks",
            "html_url": "https://github.com/PrismarineJS/MineflayerArmorManager",
            "id": 51423400,
            "is_template": false,
            "issue_comment_url": "https://api.github.com/repos/PrismarineJS/MineflayerArmorManager/issues/comments{/number}",
            "issue_events_url": "https://api.github.com/repos/PrismarineJS/MineflayerArmorManager/issues/events{/number}",
            "issues_url": "https://api.github.com/repos/PrismarineJS/MineflayerArmorManager/issues{/number}",
            "keys_url": "https://api.github.com/repos/PrismarineJS/MineflayerArmorManager/keys{/key_id}",
            "labels_url": "https://api.github.com/repos/PrismarineJS/MineflayerArmorManager/labels{/name}",
            "language": "TypeScript",
            "languages_url": "https://api.github.com/repos/PrismarineJS/MineflayerArmorManager/languages",
            "license": {
                "key": "mit",
                "name": "MIT License",
                "node_id": "MDc6TGljZW5zZTEz",
                "spdx_id": "MIT",
                "url": "https://api.github.com/licenses/mit"
            },
            "merges_url": "https://api.github.com/repos/PrismarineJS/MineflayerArmorManager/merges",
            "milestones_url": "https://api.github.com/repos/PrismarineJS/MineflayerArmorManager/milestones{/number}",
            "mirror_url": null,
            "name": "MineflayerArmorManager",
            "node_id": "MDEwOlJlcG9zaXRvcnk1MTQyMzQwMA==",
            "notifications_url": "https://api.github.com/repos/PrismarineJS/MineflayerArmorManager/notifications{?since,all,participating}",
            "open_issues": 3,
            "open_issues_count": 3,
            "owner": {
                "avatar_url": "https://avatars.githubusercontent.com/u/11053411?v=4",
                "events_url": "https://api.github.com/users/PrismarineJS/events{/privacy}",
                "followers_url": "https://api.github.com/users/PrismarineJS/followers",
                "following_url": "https://api.github.com/users/PrismarineJS/following{/other_user}",
                "gists_url": "https://api.github.com/users/PrismarineJS/gists{/gist_id}",
                "gravatar_id": "",
                "html_url": "https://github.com/PrismarineJS",
                "id": 11053411,
                "login": "PrismarineJS",
                "node_id": "MDEyOk9yZ2FuaXphdGlvbjExMDUzNDEx",
                "organizations_url": "https://api.github.com/users/PrismarineJS/orgs",
                "received_events_url": "https://api.github.com/users/PrismarineJS/received_events",
                "repos_url": "https://api.github.com/users/PrismarineJS/repos",
                "site_admin": false,
                "starred_url": "https://api.github.com/users/PrismarineJS/starred{/owner}{/repo}",
                "subscriptions_url": "https://api.github.com/users/PrismarineJS/subscriptions",
                "type": "Organization",
                "url": "https://api.github.com/users/PrismarineJS"
            },
            "private": false,
            "pulls_url": "https://api.github.com/repos/PrismarineJS/MineflayerArmorManager/pulls{/number}",
            "pushed_at": "2023-08-03T09:47:36Z",
            "releases_url": "https://api.github.com/repos/PrismarineJS/MineflayerArmorManager/releases{/id}",
            "size": 2397,
            "ssh_url": "git@github.com:PrismarineJS/MineflayerArmorManager.git",
            "stargazers_count": 16,
            "stargazers_url": "https://api.github.com/repos/PrismarineJS/MineflayerArmorManager/stargazers",
            "statuses_url": "https://api.github.com/repos/PrismarineJS/MineflayerArmorManager/statuses/{sha}",
            "subscribers_url": "https://api.github.com/repos/PrismarineJS/MineflayerArmorManager/subscribers",
            "subscription_url": "https://api.github.com/repos/PrismarineJS/MineflayerArmorManager/subscription",
            "svn_url": "https://github.com/PrismarineJS/MineflayerArmorManager",
            "tags_url": "https://api.github.com/repos/PrismarineJS/MineflayerArmorManager/tags",
            "teams_url": "https://api.github.com/repos/PrismarineJS/MineflayerArmorManager/teams",
            "topics": [
                "bot",
                "minecraft",
                "mineflayer-bot"
            ],
            "trees_url": "https://api.github.com/repos/PrismarineJS/MineflayerArmorManager/git/trees{/sha}",
            "updated_at": "2023-07-25T10:56:37Z",
            "url": "https://api.github.com/repos/PrismarineJS/MineflayerArmorManager",
            "visibility": "public",
            "watchers": 16,
            "watchers_count": 16,
            "web_commit_signoff_required": false
        },
        "sha": "eb8cd1cb523bd0dc432331feeb7b1f3ff35dd272",
        "user": {
            "avatar_url": "https://avatars.githubusercontent.com/u/11053411?v=4",
            "events_url": "https://api.github.com/users/PrismarineJS/events{/privacy}",
            "followers_url": "https://api.github.com/users/PrismarineJS/followers",
            "following_url": "https://api.github.com/users/PrismarineJS/following{/other_user}",
            "gists_url": "https://api.github.com/users/PrismarineJS/gists{/gist_id}",
            "gravatar_id": "",
            "html_url": "https://github.com/PrismarineJS",
            "id": 11053411,
            "login": "PrismarineJS",
            "node_id": "MDEyOk9yZ2FuaXphdGlvbjExMDUzNDEx",
            "organizations_url": "https://api.github.com/users/PrismarineJS/orgs",
            "received_events_url": "https://api.github.com/users/PrismarineJS/received_events",
            "repos_url": "https://api.github.com/users/PrismarineJS/repos",
            "site_admin": false,
            "starred_url": "https://api.github.com/users/PrismarineJS/starred{/owner}{/repo}",
            "subscriptions_url": "https://api.github.com/users/PrismarineJS/subscriptions",
            "type": "Organization",
            "url": "https://api.github.com/users/PrismarineJS"
        }
    },
    "body": "Bumps [prettier](https://github.com/prettier/prettier) from 3.0.0 to 3.0.1.\n<details>\n<summary>Release notes</summary>\n<p><em>Sourced from <a href=\"https://github.com/prettier/prettier/releases\">prettier's releases</a>.</em></p>\n<blockquote>\n<h2>3.0.1</h2>\n<p>🔗 <a href=\"https://github.com/prettier/prettier/blob/main/CHANGELOG.md#301\">Changelog</a></p>\n</blockquote>\n</details>\n<details>\n<summary>Changelog</summary>\n<p><em>Sourced from <a href=\"https://github.com/prettier/prettier/blob/main/CHANGELOG.md\">prettier's changelog</a>.</em></p>\n<blockquote>\n<h1>3.0.1</h1>\n<p><a href=\"https://github.com/prettier/prettier/compare/3.0.0...3.0.1\">diff</a></p>\n<h4>Fix cursor positioning for a special case (<a href=\"https://redirect.github.com/prettier/prettier/pull/14812\">#14812</a> by <a href=\"https://github.com/fisker\"><code>@​fisker</code></a>)</h4>\n<!-- raw HTML omitted -->\n<pre lang=\"js\"><code>// &lt;|&gt; is the cursor position\n<p>/* Input */\n// All messages are represented in JSON.\n// So, the prettier.py controls a subprocess which spawns &quot;node {this_file}&quot;.\nimport {&lt;|&gt;  } from &quot;fs&quot;</p>\n<p>/* Prettier 3.0.0 */\n// All messages are represented in JSON.\n// So, the prettier.py &lt;|&gt;controls a subprocess which spawns &quot;node {this_file}&quot;.\nimport {} from &quot;fs&quot;</p>\n<p>/* Prettier 3.0.1 */\n// All messages are represented in JSON.\n// So, the prettier.py controls a subprocess which spawns &quot;node {this_file}&quot;.\nimport {&lt;|&gt;} from &quot;fs&quot;\n</code></pre></p>\n<h4>Fix plugins/estree.d.ts to make it a module (<a href=\"https://redirect.github.com/prettier/prettier/pull/15018\">#15018</a> by <a href=\"https://github.com/kingyue737\"><code>@​kingyue737</code></a>)</h4>\n<p>Add <code>export {}</code> in <code>plugins/estree.d.ts</code> to fix the &quot;File is not a module&quot; error</p>\n<h4>Add parenthesis around leading multiline comment in return statement (<a href=\"https://redirect.github.com/prettier/prettier/pull/15037\">#15037</a> by <a href=\"https://github.com/auvred\"><code>@​auvred</code></a>)</h4>\n<!-- raw HTML omitted -->\n<pre lang=\"jsx\"><code>// Input\nfunction fn() {\n  return (\n    /**\n     * @type {...}\n     */ expresssion\n  )\n}\n<p>// Prettier 3.0.0\nfunction fn() {\nreturn /**</p>\n<ul>\n<li><a href=\"https://github.com/type\"><code>@​type</code></a> {...}\n*/ expresssion;\n}</li>\n</ul>\n<p>&lt;/tr&gt;&lt;/table&gt;\n</code></pre></p>\n</blockquote>\n<p>... (truncated)</p>\n</details>\n<details>\n<summary>Commits</summary>\n<ul>\n<li><a href=\"https://github.com/prettier/prettier/commit/afee0db6646ced248e5e53d0640f043fe5e923e4\"><code>afee0db</code></a> Release 3.0.1</li>\n<li><a href=\"https://github.com/prettier/prettier/commit/c3d53dce7e8d50b2b897f332572032de3aa80409\"><code>c3d53dc</code></a> Fix <code>runYarn</code> function in release script (<a href=\"https://redirect.github.com/prettier/prettier/issues/15200\">#15200</a>)</li>\n<li><a href=\"https://github.com/prettier/prettier/commit/825425c57f00268abaf3964b441a7649c8004ba0\"><code>825425c</code></a> chore(deps): update dependency eslint-plugin-import to v2.28.0 (<a href=\"https://redirect.github.com/prettier/prettier/issues/15184\">#15184</a>)</li>\n<li><a href=\"https://github.com/prettier/prettier/commit/448217df2209e3bfa5fba9cad0f5eedc997f281b\"><code>448217d</code></a> chore(deps): update dependency eslint to v8.46.0 (<a href=\"https://redirect.github.com/prettier/prettier/issues/15182\">#15182</a>)</li>\n<li><a href=\"https://github.com/prettier/prettier/commit/f35e9e6babddad791bf6afe52e17ce1d78993ae1\"><code>f35e9e6</code></a> chore(deps): update dependency <code>@​angular/compiler</code> to v16.1.7 (<a href=\"https://redirect.github.com/prettier/prettier/issues/15173\">#15173</a>)</li>\n<li><a href=\"https://github.com/prettier/prettier/commit/d14e893147d1931030a5c253df3fc195ed5e5eae\"><code>d14e893</code></a> chore(deps): update dependency c8 to v8.0.1 (<a href=\"https://redirect.github.com/prettier/prettier/issues/15174\">#15174</a>)</li>\n<li><a href=\"https://github.com/prettier/prettier/commit/c44d4b761ef405b6e251e5b69bf36896371b2e71\"><code>c44d4b7</code></a> chore(deps): update dependency eslint-plugin-react to v7.33.1 (<a href=\"https://redirect.github.com/prettier/prettier/issues/15176\">#15176</a>)</li>\n<li><a href=\"https://github.com/prettier/prettier/commit/57e8c875066f6b962ec6644cf671a4e8f80c501a\"><code>57e8c87</code></a> chore(deps): update dependency esbuild to v0.18.17 (<a href=\"https://redirect.github.com/prettier/prettier/issues/15175\">#15175</a>)</li>\n<li><a href=\"https://github.com/prettier/prettier/commit/36c3738aa960f808c7a79ec477dadd34fde23f50\"><code>36c3738</code></a> chore(deps): update dependency eslint-plugin-unicorn to v48.0.1 (<a href=\"https://redirect.github.com/prettier/prettier/issues/15177\">#15177</a>)</li>\n<li><a href=\"https://github.com/prettier/prettier/commit/2d274dfcdd8813e4ee203441c36ba17d2f4d4071\"><code>2d274df</code></a> chore(deps): update dependency flow-parser to v0.213.1 (<a href=\"https://redirect.github.com/prettier/prettier/issues/15178\">#15178</a>)</li>\n<li>Additional commits viewable in <a href=\"https://github.com/prettier/prettier/compare/3.0.0...3.0.1\">compare view</a></li>\n</ul>\n</details>\n<br />\n\n\n[![Dependabot compatibility score](https://dependabot-badges.githubapp.com/badges/compatibility_score?dependency-name=prettier&package-manager=npm_and_yarn&previous-version=3.0.0&new-version=3.0.1)](https://docs.github.com/en/github/managing-security-vulnerabilities/about-dependabot-security-updates#about-compatibility-scores)\n\nDependabot will resolve any conflicts with this PR as long as you don't alter it yourself. You can also trigger a rebase manually by commenting `@dependabot rebase`.\n\n[//]: # (dependabot-automerge-start)\n[//]: # (dependabot-automerge-end)\n\n---\n\n<details>\n<summary>Dependabot commands and options</summary>\n<br />\n\nYou can trigger Dependabot actions by commenting on this PR:\n- `@dependabot rebase` will rebase this PR\n- `@dependabot recreate` will recreate this PR, overwriting any edits that have been made to it\n- `@dependabot merge` will merge this PR after your CI passes on it\n- `@dependabot squash and merge` will squash and merge this PR after your CI passes on it\n- `@dependabot cancel merge` will cancel a previously requested merge and block automerging\n- `@dependabot reopen` will reopen this PR if it is closed\n- `@dependabot close` will close this PR and stop Dependabot recreating it. You can achieve the same result by closing it manually\n- `@dependabot ignore this major version` will close this PR and stop Dependabot creating any more for this major version (unless you reopen the PR or upgrade to it yourself)\n- `@dependabot ignore this minor version` will close this PR and stop Dependabot creating any more for this minor version (unless you reopen the PR or upgrade to it yourself)\n- `@dependabot ignore this dependency` will close this PR and stop Dependabot creating any more for this dependency (unless you reopen the PR or upgrade to it yourself)\n\n\n</details>",
    "changed_files": 1,
    "closed_at": "2023-08-03T09:47:28Z",
    "comment_data": [],
    "comment_regular_data": [],
    "comments": 0,
    "comments_url": "https://api.github.com/repos/PrismarineJS/MineflayerArmorManager/issues/85/comments",
    "commit_data": [
        {
            "author": {
                "avatar_url": "https://avatars.githubusercontent.com/in/29110?v=4",
                "events_url": "https://api.github.com/users/dependabot%5Bbot%5D/events{/privacy}",
                "followers_url": "https://api.github.com/users/dependabot%5Bbot%5D/followers",
                "following_url": "https://api.github.com/users/dependabot%5Bbot%5D/following{/other_user}",
                "gists_url": "https://api.github.com/users/dependabot%5Bbot%5D/gists{/gist_id}",
                "gravatar_id": "",
                "html_url": "https://github.com/apps/dependabot",
                "id": 49699333,
                "login": "dependabot[bot]",
                "node_id": "MDM6Qm90NDk2OTkzMzM=",
                "organizations_url": "https://api.github.com/users/dependabot%5Bbot%5D/orgs",
                "received_events_url": "https://api.github.com/users/dependabot%5Bbot%5D/received_events",
                "repos_url": "https://api.github.com/users/dependabot%5Bbot%5D/repos",
                "site_admin": false,
                "starred_url": "https://api.github.com/users/dependabot%5Bbot%5D/starred{/owner}{/repo}",
                "subscriptions_url": "https://api.github.com/users/dependabot%5Bbot%5D/subscriptions",
                "type": "Bot",
                "url": "https://api.github.com/users/dependabot%5Bbot%5D"
            },
            "comments_url": "https://api.github.com/repos/PrismarineJS/MineflayerArmorManager/commits/f80c08339a39eb3066506c27f27991d5c89b1906/comments",
            "commit": {
                "author": {
                    "date": "2023-08-03T09:47:12Z",
                    "email": "49699333+dependabot[bot]@users.noreply.github.com",
                    "name": "dependabot[bot]"
                },
                "comment_count": 0,
                "committer": {
                    "date": "2023-08-03T09:47:12Z",
                    "email": "noreply@github.com",
                    "name": "GitHub"
                },
                "message": "chore(deps-dev): bump prettier from 3.0.0 to 3.0.1\n\nBumps [prettier](https://github.com/prettier/prettier) from 3.0.0 to 3.0.1.\n- [Release notes](https://github.com/prettier/prettier/releases)\n- [Changelog](https://github.com/prettier/prettier/blob/main/CHANGELOG.md)\n- [Commits](https://github.com/prettier/prettier/compare/3.0.0...3.0.1)\n\n---\nupdated-dependencies:\n- dependency-name: prettier\n  dependency-type: direct:development\n  update-type: version-update:semver-patch\n...\n\nSigned-off-by: dependabot[bot] <support@github.com>",
                "tree": {
                    "sha": "d2388e8c4799fbb683dadd7c71962bb69a54fa3a",
                    "url": "https://api.github.com/repos/PrismarineJS/MineflayerArmorManager/git/trees/d2388e8c4799fbb683dadd7c71962bb69a54fa3a"
                },
                "url": "https://api.github.com/repos/PrismarineJS/MineflayerArmorManager/git/commits/f80c08339a39eb3066506c27f27991d5c89b1906",
                "verification": {
                    "payload": "tree d2388e8c4799fbb683dadd7c71962bb69a54fa3a\nparent eb8cd1cb523bd0dc432331feeb7b1f3ff35dd272\nauthor dependabot[bot] <49699333+dependabot[bot]@users.noreply.github.com> 1691056032 +0000\ncommitter GitHub <noreply@github.com> 1691056032 +0000\n\nchore(deps-dev): bump prettier from 3.0.0 to 3.0.1\n\nBumps [prettier](https://github.com/prettier/prettier) from 3.0.0 to 3.0.1.\n- [Release notes](https://github.com/prettier/prettier/releases)\n- [Changelog](https://github.com/prettier/prettier/blob/main/CHANGELOG.md)\n- [Commits](https://github.com/prettier/prettier/compare/3.0.0...3.0.1)\n\n---\nupdated-dependencies:\n- dependency-name: prettier\n  dependency-type: direct:development\n  update-type: version-update:semver-patch\n...\n\nSigned-off-by: dependabot[bot] <support@github.com>",
                    "reason": "valid",
                    "signature": "-----BEGIN PGP SIGNATURE-----\n\nwsBcBAABCAAQBQJky3egCRBK7hj4Ov3rIwAAvCIIAJCtM+rOWSNp7GkuB98wpP0m\niPzLHfFjUhGDKhM6vLv9HWDm2zZ+dO2pRHKdT50NvvlQumhV+x0D4RqC7hCTcGSg\nnI8G6wE+6qcKN9LiFAkJzfujdfGnvKmc4uev/0cLGlErLt7/Ngw4dxppwn2IFh0m\n18NbQGF+OY4ICH7qlGaX5+fvi1xKIuE7QdC0yFNDsvgFX9F6IAc0xqZ2XPSt893s\nhurRoLy5shueCUv3lOD0iXSN6nFurbQKBgGp/m5Oi3TfreiX+O11gGrxwyygtZS9\nzvZUbIhbF4zcD1xXLB9CJvLo4ZVWNAgIAFpaB0mSLS0Aeo4HioBCUOEkljU2GW0=\n=rHcK\n-----END PGP SIGNATURE-----\n",
                    "verified": true
                }
            },
            "committer": {
                "avatar_url": "https://avatars.githubusercontent.com/u/19864447?v=4",
                "events_url": "https://api.github.com/users/web-flow/events{/privacy}",
                "followers_url": "https://api.github.com/users/web-flow/followers",
                "following_url": "https://api.github.com/users/web-flow/following{/other_user}",
                "gists_url": "https://api.github.com/users/web-flow/gists{/gist_id}",
                "gravatar_id": "",
                "html_url": "https://github.com/web-flow",
                "id": 19864447,
                "login": "web-flow",
                "node_id": "MDQ6VXNlcjE5ODY0NDQ3",
                "organizations_url": "https://api.github.com/users/web-flow/orgs",
                "received_events_url": "https://api.github.com/users/web-flow/received_events",
                "repos_url": "https://api.github.com/users/web-flow/repos",
                "site_admin": false,
                "starred_url": "https://api.github.com/users/web-flow/starred{/owner}{/repo}",
                "subscriptions_url": "https://api.github.com/users/web-flow/subscriptions",
                "type": "User",
                "url": "https://api.github.com/users/web-flow"
            },
            "html_url": "https://github.com/PrismarineJS/MineflayerArmorManager/commit/f80c08339a39eb3066506c27f27991d5c89b1906",
            "node_id": "C_kwDOAxCoqNoAKGY4MGMwODMzOWEzOWViMzA2NjUwNmMyN2YyNzk5MWQ1Yzg5YjE5MDY",
            "parents": [
                {
                    "html_url": "https://github.com/PrismarineJS/MineflayerArmorManager/commit/eb8cd1cb523bd0dc432331feeb7b1f3ff35dd272",
                    "sha": "eb8cd1cb523bd0dc432331feeb7b1f3ff35dd272",
                    "url": "https://api.github.com/repos/PrismarineJS/MineflayerArmorManager/commits/eb8cd1cb523bd0dc432331feeb7b1f3ff35dd272"
                }
            ],
            "sha": "f80c08339a39eb3066506c27f27991d5c89b1906",
            "url": "https://api.github.com/repos/PrismarineJS/MineflayerArmorManager/commits/f80c08339a39eb3066506c27f27991d5c89b1906"
        }
    ],
    "commits": 1,
    "commits_url": "https://api.github.com/repos/PrismarineJS/MineflayerArmorManager/pulls/85/commits",
    "created_at": "2023-08-03T09:47:13Z",
    "deletions": 77,
    "diff_url": "https://github.com/PrismarineJS/MineflayerArmorManager/pull/85.diff",
    "draft": false,
    "head": {
        "label": "PrismarineJS:dependabot/npm_and_yarn/prettier-3.0.1",
        "ref": "dependabot/npm_and_yarn/prettier-3.0.1",
        "repo": {
            "allow_forking": true,
            "archive_url": "https://api.github.com/repos/PrismarineJS/MineflayerArmorManager/{archive_format}{/ref}",
            "archived": false,
            "assignees_url": "https://api.github.com/repos/PrismarineJS/MineflayerArmorManager/assignees{/user}",
            "blobs_url": "https://api.github.com/repos/PrismarineJS/MineflayerArmorManager/git/blobs{/sha}",
            "branches_url": "https://api.github.com/repos/PrismarineJS/MineflayerArmorManager/branches{/branch}",
            "clone_url": "https://github.com/PrismarineJS/MineflayerArmorManager.git",
            "collaborators_url": "https://api.github.com/repos/PrismarineJS/MineflayerArmorManager/collaborators{/collaborator}",
            "comments_url": "https://api.github.com/repos/PrismarineJS/MineflayerArmorManager/comments{/number}",
            "commits_url": "https://api.github.com/repos/PrismarineJS/MineflayerArmorManager/commits{/sha}",
            "compare_url": "https://api.github.com/repos/PrismarineJS/MineflayerArmorManager/compare/{base}...{head}",
            "contents_url": "https://api.github.com/repos/PrismarineJS/MineflayerArmorManager/contents/{+path}",
            "contributors_url": "https://api.github.com/repos/PrismarineJS/MineflayerArmorManager/contributors",
            "created_at": "2016-02-10T05:47:15Z",
            "default_branch": "master",
            "deployments_url": "https://api.github.com/repos/PrismarineJS/MineflayerArmorManager/deployments",
            "description": null,
            "disabled": false,
            "downloads_url": "https://api.github.com/repos/PrismarineJS/MineflayerArmorManager/downloads",
            "events_url": "https://api.github.com/repos/PrismarineJS/MineflayerArmorManager/events",
            "fork": false,
            "forks": 6,
            "forks_count": 6,
            "forks_url": "https://api.github.com/repos/PrismarineJS/MineflayerArmorManager/forks",
            "full_name": "PrismarineJS/MineflayerArmorManager",
            "git_commits_url": "https://api.github.com/repos/PrismarineJS/MineflayerArmorManager/git/commits{/sha}",
            "git_refs_url": "https://api.github.com/repos/PrismarineJS/MineflayerArmorManager/git/refs{/sha}",
            "git_tags_url": "https://api.github.com/repos/PrismarineJS/MineflayerArmorManager/git/tags{/sha}",
            "git_url": "git://github.com/PrismarineJS/MineflayerArmorManager.git",
            "has_discussions": false,
            "has_downloads": true,
            "has_issues": true,
            "has_pages": false,
            "has_projects": true,
            "has_wiki": false,
            "homepage": null,
            "hooks_url": "https://api.github.com/repos/PrismarineJS/MineflayerArmorManager/hooks",
            "html_url": "https://github.com/PrismarineJS/MineflayerArmorManager",
            "id": 51423400,
            "is_template": false,
            "issue_comment_url": "https://api.github.com/repos/PrismarineJS/MineflayerArmorManager/issues/comments{/number}",
            "issue_events_url": "https://api.github.com/repos/PrismarineJS/MineflayerArmorManager/issues/events{/number}",
            "issues_url": "https://api.github.com/repos/PrismarineJS/MineflayerArmorManager/issues{/number}",
            "keys_url": "https://api.github.com/repos/PrismarineJS/MineflayerArmorManager/keys{/key_id}",
            "labels_url": "https://api.github.com/repos/PrismarineJS/MineflayerArmorManager/labels{/name}",
            "language": "TypeScript",
            "languages_url": "https://api.github.com/repos/PrismarineJS/MineflayerArmorManager/languages",
            "license": {
                "key": "mit",
                "name": "MIT License",
                "node_id": "MDc6TGljZW5zZTEz",
                "spdx_id": "MIT",
                "url": "https://api.github.com/licenses/mit"
            },
            "merges_url": "https://api.github.com/repos/PrismarineJS/MineflayerArmorManager/merges",
            "milestones_url": "https://api.github.com/repos/PrismarineJS/MineflayerArmorManager/milestones{/number}",
            "mirror_url": null,
            "name": "MineflayerArmorManager",
            "node_id": "MDEwOlJlcG9zaXRvcnk1MTQyMzQwMA==",
            "notifications_url": "https://api.github.com/repos/PrismarineJS/MineflayerArmorManager/notifications{?since,all,participating}",
            "open_issues": 3,
            "open_issues_count": 3,
            "owner": {
                "avatar_url": "https://avatars.githubusercontent.com/u/11053411?v=4",
                "events_url": "https://api.github.com/users/PrismarineJS/events{/privacy}",
                "followers_url": "https://api.github.com/users/PrismarineJS/followers",
                "following_url": "https://api.github.com/users/PrismarineJS/following{/other_user}",
                "gists_url": "https://api.github.com/users/PrismarineJS/gists{/gist_id}",
                "gravatar_id": "",
                "html_url": "https://github.com/PrismarineJS",
                "id": 11053411,
                "login": "PrismarineJS",
                "node_id": "MDEyOk9yZ2FuaXphdGlvbjExMDUzNDEx",
                "organizations_url": "https://api.github.com/users/PrismarineJS/orgs",
                "received_events_url": "https://api.github.com/users/PrismarineJS/received_events",
                "repos_url": "https://api.github.com/users/PrismarineJS/repos",
                "site_admin": false,
                "starred_url": "https://api.github.com/users/PrismarineJS/starred{/owner}{/repo}",
                "subscriptions_url": "https://api.github.com/users/PrismarineJS/subscriptions",
                "type": "Organization",
                "url": "https://api.github.com/users/PrismarineJS"
            },
            "private": false,
            "pulls_url": "https://api.github.com/repos/PrismarineJS/MineflayerArmorManager/pulls{/number}",
            "pushed_at": "2023-08-03T09:47:36Z",
            "releases_url": "https://api.github.com/repos/PrismarineJS/MineflayerArmorManager/releases{/id}",
            "size": 2397,
            "ssh_url": "git@github.com:PrismarineJS/MineflayerArmorManager.git",
            "stargazers_count": 16,
            "stargazers_url": "https://api.github.com/repos/PrismarineJS/MineflayerArmorManager/stargazers",
            "statuses_url": "https://api.github.com/repos/PrismarineJS/MineflayerArmorManager/statuses/{sha}",
            "subscribers_url": "https://api.github.com/repos/PrismarineJS/MineflayerArmorManager/subscribers",
            "subscription_url": "https://api.github.com/repos/PrismarineJS/MineflayerArmorManager/subscription",
            "svn_url": "https://github.com/PrismarineJS/MineflayerArmorManager",
            "tags_url": "https://api.github.com/repos/PrismarineJS/MineflayerArmorManager/tags",
            "teams_url": "https://api.github.com/repos/PrismarineJS/MineflayerArmorManager/teams",
            "topics": [
                "bot",
                "minecraft",
                "mineflayer-bot"
            ],
            "trees_url": "https://api.github.com/repos/PrismarineJS/MineflayerArmorManager/git/trees{/sha}",
            "updated_at": "2023-07-25T10:56:37Z",
            "url": "https://api.github.com/repos/PrismarineJS/MineflayerArmorManager",
            "visibility": "public",
            "watchers": 16,
            "watchers_count": 16,
            "web_commit_signoff_required": false
        },
        "sha": "f80c08339a39eb3066506c27f27991d5c89b1906",
        "user": {
            "avatar_url": "https://avatars.githubusercontent.com/u/11053411?v=4",
            "events_url": "https://api.github.com/users/PrismarineJS/events{/privacy}",
            "followers_url": "https://api.github.com/users/PrismarineJS/followers",
            "following_url": "https://api.github.com/users/PrismarineJS/following{/other_user}",
            "gists_url": "https://api.github.com/users/PrismarineJS/gists{/gist_id}",
            "gravatar_id": "",
            "html_url": "https://github.com/PrismarineJS",
            "id": 11053411,
            "login": "PrismarineJS",
            "node_id": "MDEyOk9yZ2FuaXphdGlvbjExMDUzNDEx",
            "organizations_url": "https://api.github.com/users/PrismarineJS/orgs",
            "received_events_url": "https://api.github.com/users/PrismarineJS/received_events",
            "repos_url": "https://api.github.com/users/PrismarineJS/repos",
            "site_admin": false,
            "starred_url": "https://api.github.com/users/PrismarineJS/starred{/owner}{/repo}",
            "subscriptions_url": "https://api.github.com/users/PrismarineJS/subscriptions",
            "type": "Organization",
            "url": "https://api.github.com/users/PrismarineJS"
        }
    },
    "html_url": "https://github.com/PrismarineJS/MineflayerArmorManager/pull/85",
    "id": 1461133730,
    "issue_url": "https://api.github.com/repos/PrismarineJS/MineflayerArmorManager/issues/85",
    "labels": [
        {
            "color": "0366d6",
            "default": false,
            "description": "Pull requests that update a dependency file",
            "id": 2211501809,
            "name": "dependencies",
            "node_id": "MDU6TGFiZWwyMjExNTAxODA5",
            "url": "https://api.github.com/repos/PrismarineJS/MineflayerArmorManager/labels/dependencies"
        }
    ],
    "locked": false,
    "maintainer_can_modify": false,
    "merge_commit_sha": "b0d15fab3f4a4f940aa82a9a0c64944430d8cd42",
    "mergeable": null,
    "mergeable_state": "unknown",
    "merged": true,
    "merged_at": "2023-08-03T09:47:28Z",
    "merged_by": {
        "avatar_url": "https://avatars.githubusercontent.com/in/15368?v=4",
        "events_url": "https://api.github.com/users/github-actions%5Bbot%5D/events{/privacy}",
        "followers_url": "https://api.github.com/users/github-actions%5Bbot%5D/followers",
        "following_url": "https://api.github.com/users/github-actions%5Bbot%5D/following{/other_user}",
        "gists_url": "https://api.github.com/users/github-actions%5Bbot%5D/gists{/gist_id}",
        "gravatar_id": "",
        "html_url": "https://github.com/apps/github-actions",
        "id": 41898282,
        "login": "github-actions[bot]",
        "node_id": "MDM6Qm90NDE4OTgyODI=",
        "organizations_url": "https://api.github.com/users/github-actions%5Bbot%5D/orgs",
        "received_events_url": "https://api.github.com/users/github-actions%5Bbot%5D/received_events",
        "repos_url": "https://api.github.com/users/github-actions%5Bbot%5D/repos",
        "site_admin": false,
        "starred_url": "https://api.github.com/users/github-actions%5Bbot%5D/starred{/owner}{/repo}",
        "subscriptions_url": "https://api.github.com/users/github-actions%5Bbot%5D/subscriptions",
        "type": "Bot",
        "url": "https://api.github.com/users/github-actions%5Bbot%5D"
    },
    "milestone": null,
    "node_id": "PR_kwDOAxCoqM5XFyGi",
    "number": 85,
    "patch_url": "https://github.com/PrismarineJS/MineflayerArmorManager/pull/85.patch",
    "rebaseable": null,
    "requested_reviewers": [],
    "requested_teams": [],
    "review_comment_url": "https://api.github.com/repos/PrismarineJS/MineflayerArmorManager/pulls/comments{/number}",
    "review_comments": 0,
    "review_comments_url": "https://api.github.com/repos/PrismarineJS/MineflayerArmorManager/pulls/85/comments",
    "state": "closed",
    "statuses_url": "https://api.github.com/repos/PrismarineJS/MineflayerArmorManager/statuses/f80c08339a39eb3066506c27f27991d5c89b1906",
    "title": "chore(deps-dev): bump prettier from 3.0.0 to 3.0.1",
    "updated_at": "2023-08-03T09:47:37Z",
    "url": "https://api.github.com/repos/PrismarineJS/MineflayerArmorManager/pulls/85",
    "user": {
        "avatar_url": "https://avatars.githubusercontent.com/in/29110?v=4",
        "events_url": "https://api.github.com/users/dependabot%5Bbot%5D/events{/privacy}",
        "followers_url": "https://api.github.com/users/dependabot%5Bbot%5D/followers",
        "following_url": "https://api.github.com/users/dependabot%5Bbot%5D/following{/other_user}",
        "gists_url": "https://api.github.com/users/dependabot%5Bbot%5D/gists{/gist_id}",
        "gravatar_id": "",
        "html_url": "https://github.com/apps/dependabot",
        "id": 49699333,
        "login": "dependabot[bot]",
        "node_id": "MDM6Qm90NDk2OTkzMzM=",
        "organizations_url": "https://api.github.com/users/dependabot%5Bbot%5D/orgs",
        "received_events_url": "https://api.github.com/users/dependabot%5Bbot%5D/received_events",
        "repos_url": "https://api.github.com/users/dependabot%5Bbot%5D/repos",
        "site_admin": false,
        "starred_url": "https://api.github.com/users/dependabot%5Bbot%5D/starred{/owner}{/repo}",
        "subscriptions_url": "https://api.github.com/users/dependabot%5Bbot%5D/subscriptions",
        "type": "Bot",
        "url": "https://api.github.com/users/dependabot%5Bbot%5D"
    }
}