{
    "active_lock_reason": null,
    "assignee": null,
    "assignees": [],
    "author_association": "NONE",
    "body": "[ ] The [FAQ](https://github.com/PrismarineJS/node-minecraft-protocol/blob/master/docs/FAQ.md) doesn't contain a resolution to my issue \r\n\r\n## Versions\r\n - minecraft-protocol: #.#.#\r\n - server: vanilla/spigot/paper #.#.#\r\n - node: #.#.#\r\n\r\n## Detailed description of a problem\r\nA clear and concise description of what the problem is.\r\n\r\n## Current code\r\n```js\r\n\r\n```\r\n\r\n## Expected behavior\r\nA clear and concise description of what you expected to happen.\r\n\r\n## Additional context\r\nAdd any other context about the problem here.\r\n",
    "closed_at": "2023-05-19T13:29:36Z",
    "comment_data": [],
    "comments": 0,
    "comments_url": "https://api.github.com/repos/PrismarineJS/node-minecraft-protocol/issues/1194/comments",
    "created_at": "2023-05-19T11:28:27Z",
    "event_data": [
        {
            "actor": {
                "avatar_url": "https://avatars.githubusercontent.com/u/2346494?v=4",
                "events_url": "https://api.github.com/users/rom1504/events{/privacy}",
                "followers_url": "https://api.github.com/users/rom1504/followers",
                "following_url": "https://api.github.com/users/rom1504/following{/other_user}",
                "gists_url": "https://api.github.com/users/rom1504/gists{/gist_id}",
                "gravatar_id": "",
                "html_url": "https://github.com/rom1504",
                "id": 2346494,
                "login": "rom1504",
                "node_id": "MDQ6VXNlcjIzNDY0OTQ=",
                "organizations_url": "https://api.github.com/users/rom1504/orgs",
                "received_events_url": "https://api.github.com/users/rom1504/received_events",
                "repos_url": "https://api.github.com/users/rom1504/repos",
                "site_admin": false,
                "starred_url": "https://api.github.com/users/rom1504/starred{/owner}{/repo}",
                "subscriptions_url": "https://api.github.com/users/rom1504/subscriptions",
                "type": "User",
                "url": "https://api.github.com/users/rom1504"
            },
            "commit_id": null,
            "commit_url": null,
            "created_at": "2023-05-19T13:29:36Z",
            "event": "closed",
            "id": 9289396355,
            "node_id": "CE_lADOAHDUK85mWNFSzwAAAAIpsPCD",
            "performed_via_github_app": null,
            "state_reason": null,
            "url": "https://api.github.com/repos/PrismarineJS/node-minecraft-protocol/issues/events/9289396355"
        }
    ],
    "events_url": "https://api.github.com/repos/PrismarineJS/node-minecraft-protocol/issues/1194/events",
    "html_url": "https://github.com/PrismarineJS/node-minecraft-protocol/issues/1194",
    "id": 1717096786,
    "labels": [],
    "labels_url": "https://api.github.com/repos/PrismarineJS/node-minecraft-protocol/issues/1194/labels{/name}",
    "locked": false,
    "milestone": null,
    "node_id": "I_kwDOAHDUK85mWNFS",
    "number": 1194,
    "performed_via_github_app": null,
    "reactions": {
        "+1": 0,
        "-1": 0,
        "confused": 0,
        "eyes": 0,
        "heart": 0,
        "hooray": 0,
        "laugh": 0,
        "rocket": 0,
        "total_count": 0,
        "url": "https://api.github.com/repos/PrismarineJS/node-minecraft-protocol/issues/1194/reactions"
    },
    "repository_url": "https://api.github.com/repos/PrismarineJS/node-minecraft-protocol",
    "state": "closed",
    "state_reason": "completed",
    "timeline_url": "https://api.github.com/repos/PrismarineJS/node-minecraft-protocol/issues/1194/timeline",
    "title": "ChatGPT \"Code a malware\" ChatGPT says: No I cannot assist you with  that creating malware is ilegal 521525252525",
    "updated_at": "2023-05-19T13:29:36Z",
    "url": "https://api.github.com/repos/PrismarineJS/node-minecraft-protocol/issues/1194",
    "user": {
        "avatar_url": "https://avatars.githubusercontent.com/u/70347130?v=4",
        "events_url": "https://api.github.com/users/Artem-xe/events{/privacy}",
        "followers_url": "https://api.github.com/users/Artem-xe/followers",
        "following_url": "https://api.github.com/users/Artem-xe/following{/other_user}",
        "gists_url": "https://api.github.com/users/Artem-xe/gists{/gist_id}",
        "gravatar_id": "",
        "html_url": "https://github.com/Artem-xe",
        "id": 70347130,
        "login": "Artem-xe",
        "node_id": "MDQ6VXNlcjcwMzQ3MTMw",
        "organizations_url": "https://api.github.com/users/Artem-xe/orgs",
        "received_events_url": "https://api.github.com/users/Artem-xe/received_events",
        "repos_url": "https://api.github.com/users/Artem-xe/repos",
        "site_admin": false,
        "starred_url": "https://api.github.com/users/Artem-xe/starred{/owner}{/repo}",
        "subscriptions_url": "https://api.github.com/users/Artem-xe/subscriptions",
        "type": "User",
        "url": "https://api.github.com/users/Artem-xe"
    }
}