{
    "active_lock_reason": null,
    "assignee": null,
    "assignees": [],
    "author_association": "MEMBER",
    "body": "client.write is sync except if it needs to use zlib.deflate\n\nIt would be possible to either : \n- making it sync by using https://nodejs.org/api/zlib.html#zlib_zlib_deflatesync_buf_options\n- adding a callback to client.write so user don't assume that client.write is sync\n",
    "closed_at": "2015-05-19T12:31:46Z",
    "comment_data": [
        {
            "author_association": "MEMBER",
            "body": "Also there's a (kind of related) bug here : https://github.com/PrismarineJS/node-minecraft-protocol/blob/master/src/protocol.js#L142 (buffer instead of buf)\nthat we probably never noticed because we're not sending stuff bigger than the compression threshold.\n\nWe can fix it once we make a choice about this issue.\n",
            "created_at": "2015-05-18T00:14:50Z",
            "html_url": "https://github.com/PrismarineJS/node-minecraft-protocol/issues/168#issuecomment-102875182",
            "id": 102875182,
            "issue_url": "https://api.github.com/repos/PrismarineJS/node-minecraft-protocol/issues/168",
            "node_id": "MDEyOklzc3VlQ29tbWVudDEwMjg3NTE4Mg==",
            "performed_via_github_app": null,
            "reactions": {
                "+1": 0,
                "-1": 0,
                "confused": 0,
                "eyes": 0,
                "heart": 0,
                "hooray": 0,
                "laugh": 0,
                "rocket": 0,
                "total_count": 0,
                "url": "https://api.github.com/repos/PrismarineJS/node-minecraft-protocol/issues/comments/102875182/reactions"
            },
            "updated_at": "2015-05-18T00:14:50Z",
            "url": "https://api.github.com/repos/PrismarineJS/node-minecraft-protocol/issues/comments/102875182",
            "user": {
                "avatar_url": "https://avatars.githubusercontent.com/u/2346494?v=4",
                "events_url": "https://api.github.com/users/rom1504/events{/privacy}",
                "followers_url": "https://api.github.com/users/rom1504/followers",
                "following_url": "https://api.github.com/users/rom1504/following{/other_user}",
                "gists_url": "https://api.github.com/users/rom1504/gists{/gist_id}",
                "gravatar_id": "",
                "html_url": "https://github.com/rom1504",
                "id": 2346494,
                "login": "rom1504",
                "node_id": "MDQ6VXNlcjIzNDY0OTQ=",
                "organizations_url": "https://api.github.com/users/rom1504/orgs",
                "received_events_url": "https://api.github.com/users/rom1504/received_events",
                "repos_url": "https://api.github.com/users/rom1504/repos",
                "site_admin": false,
                "starred_url": "https://api.github.com/users/rom1504/starred{/owner}{/repo}",
                "subscriptions_url": "https://api.github.com/users/rom1504/subscriptions",
                "type": "User",
                "url": "https://api.github.com/users/rom1504"
            }
        },
        {
            "author_association": "MEMBER",
            "body": "Sync is out of question. CB is the way to go. This doesn't fix #167 btw, as the packets are still being decoded out of order. I am unsure of the correct way to fix out-of-order packets still :(\n",
            "created_at": "2015-05-18T00:56:40Z",
            "html_url": "https://github.com/PrismarineJS/node-minecraft-protocol/issues/168#issuecomment-102880393",
            "id": 102880393,
            "issue_url": "https://api.github.com/repos/PrismarineJS/node-minecraft-protocol/issues/168",
            "node_id": "MDEyOklzc3VlQ29tbWVudDEwMjg4MDM5Mw==",
            "performed_via_github_app": null,
            "reactions": {
                "+1": 0,
                "-1": 0,
                "confused": 0,
                "eyes": 0,
                "heart": 0,
                "hooray": 0,
                "laugh": 0,
                "rocket": 0,
                "total_count": 0,
                "url": "https://api.github.com/repos/PrismarineJS/node-minecraft-protocol/issues/comments/102880393/reactions"
            },
            "updated_at": "2015-05-18T00:56:40Z",
            "url": "https://api.github.com/repos/PrismarineJS/node-minecraft-protocol/issues/comments/102880393",
            "user": {
                "avatar_url": "https://avatars.githubusercontent.com/u/1069318?v=4",
                "events_url": "https://api.github.com/users/roblabla/events{/privacy}",
                "followers_url": "https://api.github.com/users/roblabla/followers",
                "following_url": "https://api.github.com/users/roblabla/following{/other_user}",
                "gists_url": "https://api.github.com/users/roblabla/gists{/gist_id}",
                "gravatar_id": "",
                "html_url": "https://github.com/roblabla",
                "id": 1069318,
                "login": "roblabla",
                "node_id": "MDQ6VXNlcjEwNjkzMTg=",
                "organizations_url": "https://api.github.com/users/roblabla/orgs",
                "received_events_url": "https://api.github.com/users/roblabla/received_events",
                "repos_url": "https://api.github.com/users/roblabla/repos",
                "site_admin": false,
                "starred_url": "https://api.github.com/users/roblabla/starred{/owner}{/repo}",
                "subscriptions_url": "https://api.github.com/users/roblabla/subscriptions",
                "type": "User",
                "url": "https://api.github.com/users/roblabla"
            }
        },
        {
            "author_association": "MEMBER",
            "body": "Yeah sure it doesn't fix #167 but mineflayer assumes everywhere that write is sync.\n",
            "created_at": "2015-05-18T00:58:00Z",
            "html_url": "https://github.com/PrismarineJS/node-minecraft-protocol/issues/168#issuecomment-102880793",
            "id": 102880793,
            "issue_url": "https://api.github.com/repos/PrismarineJS/node-minecraft-protocol/issues/168",
            "node_id": "MDEyOklzc3VlQ29tbWVudDEwMjg4MDc5Mw==",
            "performed_via_github_app": null,
            "reactions": {
                "+1": 0,
                "-1": 0,
                "confused": 0,
                "eyes": 0,
                "heart": 0,
                "hooray": 0,
                "laugh": 0,
                "rocket": 0,
                "total_count": 0,
                "url": "https://api.github.com/repos/PrismarineJS/node-minecraft-protocol/issues/comments/102880793/reactions"
            },
            "updated_at": "2015-05-18T00:58:00Z",
            "url": "https://api.github.com/repos/PrismarineJS/node-minecraft-protocol/issues/comments/102880793",
            "user": {
                "avatar_url": "https://avatars.githubusercontent.com/u/2346494?v=4",
                "events_url": "https://api.github.com/users/rom1504/events{/privacy}",
                "followers_url": "https://api.github.com/users/rom1504/followers",
                "following_url": "https://api.github.com/users/rom1504/following{/other_user}",
                "gists_url": "https://api.github.com/users/rom1504/gists{/gist_id}",
                "gravatar_id": "",
                "html_url": "https://github.com/rom1504",
                "id": 2346494,
                "login": "rom1504",
                "node_id": "MDQ6VXNlcjIzNDY0OTQ=",
                "organizations_url": "https://api.github.com/users/rom1504/orgs",
                "received_events_url": "https://api.github.com/users/rom1504/received_events",
                "repos_url": "https://api.github.com/users/rom1504/repos",
                "site_admin": false,
                "starred_url": "https://api.github.com/users/rom1504/starred{/owner}{/repo}",
                "subscriptions_url": "https://api.github.com/users/rom1504/subscriptions",
                "type": "User",
                "url": "https://api.github.com/users/rom1504"
            }
        }
    ],
    "comments": 3,
    "comments_url": "https://api.github.com/repos/PrismarineJS/node-minecraft-protocol/issues/168/comments",
    "created_at": "2015-05-18T00:11:44Z",
    "event_data": [
        {
            "actor": {
                "avatar_url": "https://avatars.githubusercontent.com/u/2346494?v=4",
                "events_url": "https://api.github.com/users/rom1504/events{/privacy}",
                "followers_url": "https://api.github.com/users/rom1504/followers",
                "following_url": "https://api.github.com/users/rom1504/following{/other_user}",
                "gists_url": "https://api.github.com/users/rom1504/gists{/gist_id}",
                "gravatar_id": "",
                "html_url": "https://github.com/rom1504",
                "id": 2346494,
                "login": "rom1504",
                "node_id": "MDQ6VXNlcjIzNDY0OTQ=",
                "organizations_url": "https://api.github.com/users/rom1504/orgs",
                "received_events_url": "https://api.github.com/users/rom1504/received_events",
                "repos_url": "https://api.github.com/users/rom1504/repos",
                "site_admin": false,
                "starred_url": "https://api.github.com/users/rom1504/starred{/owner}{/repo}",
                "subscriptions_url": "https://api.github.com/users/rom1504/subscriptions",
                "type": "User",
                "url": "https://api.github.com/users/rom1504"
            },
            "commit_id": "6446b205f0a809fb1b11bfb8452f95ba830a9dd8",
            "commit_url": "https://api.github.com/repos/rom1504/node-minecraft-protocol/commits/6446b205f0a809fb1b11bfb8452f95ba830a9dd8",
            "created_at": "2015-05-18T17:01:27Z",
            "event": "referenced",
            "id": 307594710,
            "node_id": "MDE1OlJlZmVyZW5jZWRFdmVudDMwNzU5NDcxMA==",
            "performed_via_github_app": null,
            "url": "https://api.github.com/repos/PrismarineJS/node-minecraft-protocol/issues/events/307594710"
        },
        {
            "actor": {
                "avatar_url": "https://avatars.githubusercontent.com/u/1069318?v=4",
                "events_url": "https://api.github.com/users/roblabla/events{/privacy}",
                "followers_url": "https://api.github.com/users/roblabla/followers",
                "following_url": "https://api.github.com/users/roblabla/following{/other_user}",
                "gists_url": "https://api.github.com/users/roblabla/gists{/gist_id}",
                "gravatar_id": "",
                "html_url": "https://github.com/roblabla",
                "id": 1069318,
                "login": "roblabla",
                "node_id": "MDQ6VXNlcjEwNjkzMTg=",
                "organizations_url": "https://api.github.com/users/roblabla/orgs",
                "received_events_url": "https://api.github.com/users/roblabla/received_events",
                "repos_url": "https://api.github.com/users/roblabla/repos",
                "site_admin": false,
                "starred_url": "https://api.github.com/users/roblabla/starred{/owner}{/repo}",
                "subscriptions_url": "https://api.github.com/users/roblabla/subscriptions",
                "type": "User",
                "url": "https://api.github.com/users/roblabla"
            },
            "commit_id": "6446b205f0a809fb1b11bfb8452f95ba830a9dd8",
            "commit_url": "https://api.github.com/repos/PrismarineJS/node-minecraft-protocol/commits/6446b205f0a809fb1b11bfb8452f95ba830a9dd8",
            "created_at": "2015-05-19T12:31:46Z",
            "event": "closed",
            "id": 308389771,
            "node_id": "MDExOkNsb3NlZEV2ZW50MzA4Mzg5Nzcx",
            "performed_via_github_app": null,
            "state_reason": null,
            "url": "https://api.github.com/repos/PrismarineJS/node-minecraft-protocol/issues/events/308389771"
        },
        {
            "actor": {
                "avatar_url": "https://avatars.githubusercontent.com/u/1069318?v=4",
                "events_url": "https://api.github.com/users/roblabla/events{/privacy}",
                "followers_url": "https://api.github.com/users/roblabla/followers",
                "following_url": "https://api.github.com/users/roblabla/following{/other_user}",
                "gists_url": "https://api.github.com/users/roblabla/gists{/gist_id}",
                "gravatar_id": "",
                "html_url": "https://github.com/roblabla",
                "id": 1069318,
                "login": "roblabla",
                "node_id": "MDQ6VXNlcjEwNjkzMTg=",
                "organizations_url": "https://api.github.com/users/roblabla/orgs",
                "received_events_url": "https://api.github.com/users/roblabla/received_events",
                "repos_url": "https://api.github.com/users/roblabla/repos",
                "site_admin": false,
                "starred_url": "https://api.github.com/users/roblabla/starred{/owner}{/repo}",
                "subscriptions_url": "https://api.github.com/users/roblabla/subscriptions",
                "type": "User",
                "url": "https://api.github.com/users/roblabla"
            },
            "commit_id": "4018860508350cb9476a68e448c94156cc4781b1",
            "commit_url": "https://api.github.com/repos/PrismarineJS/node-minecraft-protocol/commits/4018860508350cb9476a68e448c94156cc4781b1",
            "created_at": "2015-05-19T12:31:46Z",
            "event": "referenced",
            "id": 308389774,
            "node_id": "MDE1OlJlZmVyZW5jZWRFdmVudDMwODM4OTc3NA==",
            "performed_via_github_app": null,
            "url": "https://api.github.com/repos/PrismarineJS/node-minecraft-protocol/issues/events/308389774"
        }
    ],
    "events_url": "https://api.github.com/repos/PrismarineJS/node-minecraft-protocol/issues/168/events",
    "html_url": "https://github.com/PrismarineJS/node-minecraft-protocol/issues/168",
    "id": 77434130,
    "labels": [],
    "labels_url": "https://api.github.com/repos/PrismarineJS/node-minecraft-protocol/issues/168/labels{/name}",
    "locked": false,
    "milestone": null,
    "node_id": "MDU6SXNzdWU3NzQzNDEzMA==",
    "number": 168,
    "performed_via_github_app": null,
    "reactions": {
        "+1": 0,
        "-1": 0,
        "confused": 0,
        "eyes": 0,
        "heart": 0,
        "hooray": 0,
        "laugh": 0,
        "rocket": 0,
        "total_count": 0,
        "url": "https://api.github.com/repos/PrismarineJS/node-minecraft-protocol/issues/168/reactions"
    },
    "repository_url": "https://api.github.com/repos/PrismarineJS/node-minecraft-protocol",
    "state": "closed",
    "state_reason": "completed",
    "timeline_url": "https://api.github.com/repos/PrismarineJS/node-minecraft-protocol/issues/168/timeline",
    "title": "Make client.write sync or add it a callback",
    "updated_at": "2015-05-19T12:31:46Z",
    "url": "https://api.github.com/repos/PrismarineJS/node-minecraft-protocol/issues/168",
    "user": {
        "avatar_url": "https://avatars.githubusercontent.com/u/2346494?v=4",
        "events_url": "https://api.github.com/users/rom1504/events{/privacy}",
        "followers_url": "https://api.github.com/users/rom1504/followers",
        "following_url": "https://api.github.com/users/rom1504/following{/other_user}",
        "gists_url": "https://api.github.com/users/rom1504/gists{/gist_id}",
        "gravatar_id": "",
        "html_url": "https://github.com/rom1504",
        "id": 2346494,
        "login": "rom1504",
        "node_id": "MDQ6VXNlcjIzNDY0OTQ=",
        "organizations_url": "https://api.github.com/users/rom1504/orgs",
        "received_events_url": "https://api.github.com/users/rom1504/received_events",
        "repos_url": "https://api.github.com/users/rom1504/repos",
        "site_admin": false,
        "starred_url": "https://api.github.com/users/rom1504/starred{/owner}{/repo}",
        "subscriptions_url": "https://api.github.com/users/rom1504/subscriptions",
        "type": "User",
        "url": "https://api.github.com/users/rom1504"
    }
}