{
    "active_lock_reason": null,
    "assignee": null,
    "assignees": [],
    "author_association": "MEMBER",
    "body": "see https://github.com/PrismarineJS/prismarine-nbt/issues/4\n",
    "closed_at": "2015-11-15T01:39:04Z",
    "comment_data": [
        {
            "author_association": "MEMBER",
            "body": "Using reimplemented prismarine-nbt instead 30d0939\n",
            "created_at": "2015-11-15T01:39:04Z",
            "html_url": "https://github.com/PrismarineJS/node-minecraft-protocol/issues/275#issuecomment-156769479",
            "id": 156769479,
            "issue_url": "https://api.github.com/repos/PrismarineJS/node-minecraft-protocol/issues/275",
            "node_id": "MDEyOklzc3VlQ29tbWVudDE1Njc2OTQ3OQ==",
            "performed_via_github_app": null,
            "reactions": {
                "+1": 0,
                "-1": 0,
                "confused": 0,
                "eyes": 0,
                "heart": 0,
                "hooray": 0,
                "laugh": 0,
                "rocket": 0,
                "total_count": 0,
                "url": "https://api.github.com/repos/PrismarineJS/node-minecraft-protocol/issues/comments/156769479/reactions"
            },
            "updated_at": "2015-11-15T01:39:04Z",
            "url": "https://api.github.com/repos/PrismarineJS/node-minecraft-protocol/issues/comments/156769479",
            "user": {
                "avatar_url": "https://avatars.githubusercontent.com/u/2346494?v=4",
                "events_url": "https://api.github.com/users/rom1504/events{/privacy}",
                "followers_url": "https://api.github.com/users/rom1504/followers",
                "following_url": "https://api.github.com/users/rom1504/following{/other_user}",
                "gists_url": "https://api.github.com/users/rom1504/gists{/gist_id}",
                "gravatar_id": "",
                "html_url": "https://github.com/rom1504",
                "id": 2346494,
                "login": "rom1504",
                "node_id": "MDQ6VXNlcjIzNDY0OTQ=",
                "organizations_url": "https://api.github.com/users/rom1504/orgs",
                "received_events_url": "https://api.github.com/users/rom1504/received_events",
                "repos_url": "https://api.github.com/users/rom1504/repos",
                "site_admin": false,
                "starred_url": "https://api.github.com/users/rom1504/starred{/owner}{/repo}",
                "subscriptions_url": "https://api.github.com/users/rom1504/subscriptions",
                "type": "User",
                "url": "https://api.github.com/users/rom1504"
            }
        }
    ],
    "comments": 1,
    "comments_url": "https://api.github.com/repos/PrismarineJS/node-minecraft-protocol/issues/275/comments",
    "created_at": "2015-10-05T12:48:23Z",
    "event_data": [
        {
            "actor": {
                "avatar_url": "https://avatars.githubusercontent.com/u/2346494?v=4",
                "events_url": "https://api.github.com/users/rom1504/events{/privacy}",
                "followers_url": "https://api.github.com/users/rom1504/followers",
                "following_url": "https://api.github.com/users/rom1504/following{/other_user}",
                "gists_url": "https://api.github.com/users/rom1504/gists{/gist_id}",
                "gravatar_id": "",
                "html_url": "https://github.com/rom1504",
                "id": 2346494,
                "login": "rom1504",
                "node_id": "MDQ6VXNlcjIzNDY0OTQ=",
                "organizations_url": "https://api.github.com/users/rom1504/orgs",
                "received_events_url": "https://api.github.com/users/rom1504/received_events",
                "repos_url": "https://api.github.com/users/rom1504/repos",
                "site_admin": false,
                "starred_url": "https://api.github.com/users/rom1504/starred{/owner}{/repo}",
                "subscriptions_url": "https://api.github.com/users/rom1504/subscriptions",
                "type": "User",
                "url": "https://api.github.com/users/rom1504"
            },
            "commit_id": null,
            "commit_url": null,
            "created_at": "2015-11-15T01:39:04Z",
            "event": "closed",
            "id": 464670321,
            "node_id": "MDExOkNsb3NlZEV2ZW50NDY0NjcwMzIx",
            "performed_via_github_app": null,
            "state_reason": null,
            "url": "https://api.github.com/repos/PrismarineJS/node-minecraft-protocol/issues/events/464670321"
        }
    ],
    "events_url": "https://api.github.com/repos/PrismarineJS/node-minecraft-protocol/issues/275/events",
    "html_url": "https://github.com/PrismarineJS/node-minecraft-protocol/issues/275",
    "id": 109788821,
    "labels": [],
    "labels_url": "https://api.github.com/repos/PrismarineJS/node-minecraft-protocol/issues/275/labels{/name}",
    "locked": false,
    "milestone": null,
    "node_id": "MDU6SXNzdWUxMDk3ODg4MjE=",
    "number": 275,
    "performed_via_github_app": null,
    "reactions": {
        "+1": 0,
        "-1": 0,
        "confused": 0,
        "eyes": 0,
        "heart": 0,
        "hooray": 0,
        "laugh": 0,
        "rocket": 0,
        "total_count": 0,
        "url": "https://api.github.com/repos/PrismarineJS/node-minecraft-protocol/issues/275/reactions"
    },
    "repository_url": "https://api.github.com/repos/PrismarineJS/node-minecraft-protocol",
    "state": "closed",
    "state_reason": "completed",
    "timeline_url": "https://api.github.com/repos/PrismarineJS/node-minecraft-protocol/issues/275/timeline",
    "title": "Use nbt.js instead of prismarine-nbt",
    "updated_at": "2015-11-15T01:39:04Z",
    "url": "https://api.github.com/repos/PrismarineJS/node-minecraft-protocol/issues/275",
    "user": {
        "avatar_url": "https://avatars.githubusercontent.com/u/2346494?v=4",
        "events_url": "https://api.github.com/users/rom1504/events{/privacy}",
        "followers_url": "https://api.github.com/users/rom1504/followers",
        "following_url": "https://api.github.com/users/rom1504/following{/other_user}",
        "gists_url": "https://api.github.com/users/rom1504/gists{/gist_id}",
        "gravatar_id": "",
        "html_url": "https://github.com/rom1504",
        "id": 2346494,
        "login": "rom1504",
        "node_id": "MDQ6VXNlcjIzNDY0OTQ=",
        "organizations_url": "https://api.github.com/users/rom1504/orgs",
        "received_events_url": "https://api.github.com/users/rom1504/received_events",
        "repos_url": "https://api.github.com/users/rom1504/repos",
        "site_admin": false,
        "starred_url": "https://api.github.com/users/rom1504/starred{/owner}{/repo}",
        "subscriptions_url": "https://api.github.com/users/rom1504/subscriptions",
        "type": "User",
        "url": "https://api.github.com/users/rom1504"
    }
}