{
    "active_lock_reason": null,
    "assignee": null,
    "assignees": [],
    "author_association": "NONE",
    "body": "How to disconnect bot from server?\n",
    "closed_at": "2016-08-11T16:35:31Z",
    "comment_data": [
        {
            "author_association": "MEMBER",
            "body": "client.end()\n",
            "created_at": "2016-08-11T16:33:38Z",
            "html_url": "https://github.com/PrismarineJS/node-minecraft-protocol/issues/424#issuecomment-239216000",
            "id": 239216000,
            "issue_url": "https://api.github.com/repos/PrismarineJS/node-minecraft-protocol/issues/424",
            "node_id": "MDEyOklzc3VlQ29tbWVudDIzOTIxNjAwMA==",
            "performed_via_github_app": null,
            "reactions": {
                "+1": 0,
                "-1": 0,
                "confused": 0,
                "eyes": 0,
                "heart": 0,
                "hooray": 0,
                "laugh": 0,
                "rocket": 0,
                "total_count": 0,
                "url": "https://api.github.com/repos/PrismarineJS/node-minecraft-protocol/issues/comments/239216000/reactions"
            },
            "updated_at": "2016-08-11T16:33:38Z",
            "url": "https://api.github.com/repos/PrismarineJS/node-minecraft-protocol/issues/comments/239216000",
            "user": {
                "avatar_url": "https://avatars.githubusercontent.com/u/2346494?v=4",
                "events_url": "https://api.github.com/users/rom1504/events{/privacy}",
                "followers_url": "https://api.github.com/users/rom1504/followers",
                "following_url": "https://api.github.com/users/rom1504/following{/other_user}",
                "gists_url": "https://api.github.com/users/rom1504/gists{/gist_id}",
                "gravatar_id": "",
                "html_url": "https://github.com/rom1504",
                "id": 2346494,
                "login": "rom1504",
                "node_id": "MDQ6VXNlcjIzNDY0OTQ=",
                "organizations_url": "https://api.github.com/users/rom1504/orgs",
                "received_events_url": "https://api.github.com/users/rom1504/received_events",
                "repos_url": "https://api.github.com/users/rom1504/repos",
                "site_admin": false,
                "starred_url": "https://api.github.com/users/rom1504/starred{/owner}{/repo}",
                "subscriptions_url": "https://api.github.com/users/rom1504/subscriptions",
                "type": "User",
                "url": "https://api.github.com/users/rom1504"
            }
        },
        {
            "author_association": "NONE",
            "body": "thanks :)\n",
            "created_at": "2016-08-11T16:35:31Z",
            "html_url": "https://github.com/PrismarineJS/node-minecraft-protocol/issues/424#issuecomment-239216461",
            "id": 239216461,
            "issue_url": "https://api.github.com/repos/PrismarineJS/node-minecraft-protocol/issues/424",
            "node_id": "MDEyOklzc3VlQ29tbWVudDIzOTIxNjQ2MQ==",
            "performed_via_github_app": null,
            "reactions": {
                "+1": 0,
                "-1": 0,
                "confused": 0,
                "eyes": 0,
                "heart": 0,
                "hooray": 0,
                "laugh": 0,
                "rocket": 0,
                "total_count": 0,
                "url": "https://api.github.com/repos/PrismarineJS/node-minecraft-protocol/issues/comments/239216461/reactions"
            },
            "updated_at": "2016-08-11T16:35:31Z",
            "url": "https://api.github.com/repos/PrismarineJS/node-minecraft-protocol/issues/comments/239216461",
            "user": {
                "avatar_url": "https://avatars.githubusercontent.com/u/17676321?v=4",
                "events_url": "https://api.github.com/users/Sitorx/events{/privacy}",
                "followers_url": "https://api.github.com/users/Sitorx/followers",
                "following_url": "https://api.github.com/users/Sitorx/following{/other_user}",
                "gists_url": "https://api.github.com/users/Sitorx/gists{/gist_id}",
                "gravatar_id": "",
                "html_url": "https://github.com/Sitorx",
                "id": 17676321,
                "login": "Sitorx",
                "node_id": "MDQ6VXNlcjE3Njc2MzIx",
                "organizations_url": "https://api.github.com/users/Sitorx/orgs",
                "received_events_url": "https://api.github.com/users/Sitorx/received_events",
                "repos_url": "https://api.github.com/users/Sitorx/repos",
                "site_admin": false,
                "starred_url": "https://api.github.com/users/Sitorx/starred{/owner}{/repo}",
                "subscriptions_url": "https://api.github.com/users/Sitorx/subscriptions",
                "type": "User",
                "url": "https://api.github.com/users/Sitorx"
            }
        }
    ],
    "comments": 2,
    "comments_url": "https://api.github.com/repos/PrismarineJS/node-minecraft-protocol/issues/424/comments",
    "created_at": "2016-08-11T16:17:38Z",
    "event_data": [
        {
            "actor": {
                "avatar_url": "https://avatars.githubusercontent.com/u/17676321?v=4",
                "events_url": "https://api.github.com/users/Sitorx/events{/privacy}",
                "followers_url": "https://api.github.com/users/Sitorx/followers",
                "following_url": "https://api.github.com/users/Sitorx/following{/other_user}",
                "gists_url": "https://api.github.com/users/Sitorx/gists{/gist_id}",
                "gravatar_id": "",
                "html_url": "https://github.com/Sitorx",
                "id": 17676321,
                "login": "Sitorx",
                "node_id": "MDQ6VXNlcjE3Njc2MzIx",
                "organizations_url": "https://api.github.com/users/Sitorx/orgs",
                "received_events_url": "https://api.github.com/users/Sitorx/received_events",
                "repos_url": "https://api.github.com/users/Sitorx/repos",
                "site_admin": false,
                "starred_url": "https://api.github.com/users/Sitorx/starred{/owner}{/repo}",
                "subscriptions_url": "https://api.github.com/users/Sitorx/subscriptions",
                "type": "User",
                "url": "https://api.github.com/users/Sitorx"
            },
            "commit_id": null,
            "commit_url": null,
            "created_at": "2016-08-11T16:35:31Z",
            "event": "closed",
            "id": 752926051,
            "node_id": "MDExOkNsb3NlZEV2ZW50NzUyOTI2MDUx",
            "performed_via_github_app": null,
            "state_reason": null,
            "url": "https://api.github.com/repos/PrismarineJS/node-minecraft-protocol/issues/events/752926051"
        },
        {
            "actor": {
                "avatar_url": "https://avatars.githubusercontent.com/u/2346494?v=4",
                "events_url": "https://api.github.com/users/rom1504/events{/privacy}",
                "followers_url": "https://api.github.com/users/rom1504/followers",
                "following_url": "https://api.github.com/users/rom1504/following{/other_user}",
                "gists_url": "https://api.github.com/users/rom1504/gists{/gist_id}",
                "gravatar_id": "",
                "html_url": "https://github.com/rom1504",
                "id": 2346494,
                "login": "rom1504",
                "node_id": "MDQ6VXNlcjIzNDY0OTQ=",
                "organizations_url": "https://api.github.com/users/rom1504/orgs",
                "received_events_url": "https://api.github.com/users/rom1504/received_events",
                "repos_url": "https://api.github.com/users/rom1504/repos",
                "site_admin": false,
                "starred_url": "https://api.github.com/users/rom1504/starred{/owner}{/repo}",
                "subscriptions_url": "https://api.github.com/users/rom1504/subscriptions",
                "type": "User",
                "url": "https://api.github.com/users/rom1504"
            },
            "commit_id": "c8e42121eae9ac726ab01be94723794b1e04c6a3",
            "commit_url": "https://api.github.com/repos/PrismarineJS/node-minecraft-protocol/commits/c8e42121eae9ac726ab01be94723794b1e04c6a3",
            "created_at": "2016-08-11T16:40:31Z",
            "event": "referenced",
            "id": 752932562,
            "node_id": "MDE1OlJlZmVyZW5jZWRFdmVudDc1MjkzMjU2Mg==",
            "performed_via_github_app": null,
            "url": "https://api.github.com/repos/PrismarineJS/node-minecraft-protocol/issues/events/752932562"
        }
    ],
    "events_url": "https://api.github.com/repos/PrismarineJS/node-minecraft-protocol/issues/424/events",
    "html_url": "https://github.com/PrismarineJS/node-minecraft-protocol/issues/424",
    "id": 170686008,
    "labels": [],
    "labels_url": "https://api.github.com/repos/PrismarineJS/node-minecraft-protocol/issues/424/labels{/name}",
    "locked": false,
    "milestone": null,
    "node_id": "MDU6SXNzdWUxNzA2ODYwMDg=",
    "number": 424,
    "performed_via_github_app": null,
    "reactions": {
        "+1": 0,
        "-1": 0,
        "confused": 0,
        "eyes": 0,
        "heart": 0,
        "hooray": 0,
        "laugh": 0,
        "rocket": 0,
        "total_count": 0,
        "url": "https://api.github.com/repos/PrismarineJS/node-minecraft-protocol/issues/424/reactions"
    },
    "repository_url": "https://api.github.com/repos/PrismarineJS/node-minecraft-protocol",
    "state": "closed",
    "state_reason": "completed",
    "timeline_url": "https://api.github.com/repos/PrismarineJS/node-minecraft-protocol/issues/424/timeline",
    "title": "Disconnect",
    "updated_at": "2016-08-11T16:35:31Z",
    "url": "https://api.github.com/repos/PrismarineJS/node-minecraft-protocol/issues/424",
    "user": {
        "avatar_url": "https://avatars.githubusercontent.com/u/17676321?v=4",
        "events_url": "https://api.github.com/users/Sitorx/events{/privacy}",
        "followers_url": "https://api.github.com/users/Sitorx/followers",
        "following_url": "https://api.github.com/users/Sitorx/following{/other_user}",
        "gists_url": "https://api.github.com/users/Sitorx/gists{/gist_id}",
        "gravatar_id": "",
        "html_url": "https://github.com/Sitorx",
        "id": 17676321,
        "login": "Sitorx",
        "node_id": "MDQ6VXNlcjE3Njc2MzIx",
        "organizations_url": "https://api.github.com/users/Sitorx/orgs",
        "received_events_url": "https://api.github.com/users/Sitorx/received_events",
        "repos_url": "https://api.github.com/users/Sitorx/repos",
        "site_admin": false,
        "starred_url": "https://api.github.com/users/Sitorx/starred{/owner}{/repo}",
        "subscriptions_url": "https://api.github.com/users/Sitorx/subscriptions",
        "type": "User",
        "url": "https://api.github.com/users/Sitorx"
    }
}