{
    "active_lock_reason": null,
    "assignee": null,
    "assignees": [],
    "author_association": "MEMBER",
    "body": "same as https://github.com/PrismarineJS/mineflayer/issues/431\r\n\r\nreproductible using client_echo.js on `mc.desiredcraft.net`\r\nThere might be something specific about this server.",
    "closed_at": "2018-05-20T00:55:56Z",
    "comment_data": [
        {
            "author_association": "NONE",
            "body": "Has this been fixed?",
            "created_at": "2017-03-02T16:10:46Z",
            "html_url": "https://github.com/PrismarineJS/node-minecraft-protocol/issues/462#issuecomment-283697416",
            "id": 283697416,
            "issue_url": "https://api.github.com/repos/PrismarineJS/node-minecraft-protocol/issues/462",
            "node_id": "MDEyOklzc3VlQ29tbWVudDI4MzY5NzQxNg==",
            "performed_via_github_app": null,
            "reactions": {
                "+1": 0,
                "-1": 0,
                "confused": 0,
                "eyes": 0,
                "heart": 0,
                "hooray": 0,
                "laugh": 0,
                "rocket": 0,
                "total_count": 0,
                "url": "https://api.github.com/repos/PrismarineJS/node-minecraft-protocol/issues/comments/283697416/reactions"
            },
            "updated_at": "2017-03-02T16:10:46Z",
            "url": "https://api.github.com/repos/PrismarineJS/node-minecraft-protocol/issues/comments/283697416",
            "user": {
                "avatar_url": "https://avatars.githubusercontent.com/u/20295134?v=4",
                "events_url": "https://api.github.com/users/oliver-ni/events{/privacy}",
                "followers_url": "https://api.github.com/users/oliver-ni/followers",
                "following_url": "https://api.github.com/users/oliver-ni/following{/other_user}",
                "gists_url": "https://api.github.com/users/oliver-ni/gists{/gist_id}",
                "gravatar_id": "",
                "html_url": "https://github.com/oliver-ni",
                "id": 20295134,
                "login": "oliver-ni",
                "node_id": "MDQ6VXNlcjIwMjk1MTM0",
                "organizations_url": "https://api.github.com/users/oliver-ni/orgs",
                "received_events_url": "https://api.github.com/users/oliver-ni/received_events",
                "repos_url": "https://api.github.com/users/oliver-ni/repos",
                "site_admin": false,
                "starred_url": "https://api.github.com/users/oliver-ni/starred{/owner}{/repo}",
                "subscriptions_url": "https://api.github.com/users/oliver-ni/subscriptions",
                "type": "User",
                "url": "https://api.github.com/users/oliver-ni"
            }
        },
        {
            "author_association": "MEMBER",
            "body": "The issue is still open, so no.\r\nIf you have more information on what kind of server it happens in, please provide it, it might be useful ;)",
            "created_at": "2017-03-02T16:12:24Z",
            "html_url": "https://github.com/PrismarineJS/node-minecraft-protocol/issues/462#issuecomment-283697928",
            "id": 283697928,
            "issue_url": "https://api.github.com/repos/PrismarineJS/node-minecraft-protocol/issues/462",
            "node_id": "MDEyOklzc3VlQ29tbWVudDI4MzY5NzkyOA==",
            "performed_via_github_app": null,
            "reactions": {
                "+1": 0,
                "-1": 0,
                "confused": 0,
                "eyes": 0,
                "heart": 0,
                "hooray": 0,
                "laugh": 0,
                "rocket": 0,
                "total_count": 0,
                "url": "https://api.github.com/repos/PrismarineJS/node-minecraft-protocol/issues/comments/283697928/reactions"
            },
            "updated_at": "2017-03-02T16:12:24Z",
            "url": "https://api.github.com/repos/PrismarineJS/node-minecraft-protocol/issues/comments/283697928",
            "user": {
                "avatar_url": "https://avatars.githubusercontent.com/u/2346494?v=4",
                "events_url": "https://api.github.com/users/rom1504/events{/privacy}",
                "followers_url": "https://api.github.com/users/rom1504/followers",
                "following_url": "https://api.github.com/users/rom1504/following{/other_user}",
                "gists_url": "https://api.github.com/users/rom1504/gists{/gist_id}",
                "gravatar_id": "",
                "html_url": "https://github.com/rom1504",
                "id": 2346494,
                "login": "rom1504",
                "node_id": "MDQ6VXNlcjIzNDY0OTQ=",
                "organizations_url": "https://api.github.com/users/rom1504/orgs",
                "received_events_url": "https://api.github.com/users/rom1504/received_events",
                "repos_url": "https://api.github.com/users/rom1504/repos",
                "site_admin": false,
                "starred_url": "https://api.github.com/users/rom1504/starred{/owner}{/repo}",
                "subscriptions_url": "https://api.github.com/users/rom1504/subscriptions",
                "type": "User",
                "url": "https://api.github.com/users/rom1504"
            }
        },
        {
            "author_association": "NONE",
            "body": "It happens in\r\n\r\n    play.cascademc.net\r\n    mc.momentonetwork.net",
            "created_at": "2017-03-02T16:22:00Z",
            "html_url": "https://github.com/PrismarineJS/node-minecraft-protocol/issues/462#issuecomment-283700925",
            "id": 283700925,
            "issue_url": "https://api.github.com/repos/PrismarineJS/node-minecraft-protocol/issues/462",
            "node_id": "MDEyOklzc3VlQ29tbWVudDI4MzcwMDkyNQ==",
            "performed_via_github_app": null,
            "reactions": {
                "+1": 0,
                "-1": 0,
                "confused": 0,
                "eyes": 0,
                "heart": 0,
                "hooray": 0,
                "laugh": 0,
                "rocket": 0,
                "total_count": 0,
                "url": "https://api.github.com/repos/PrismarineJS/node-minecraft-protocol/issues/comments/283700925/reactions"
            },
            "updated_at": "2017-03-27T16:14:05Z",
            "url": "https://api.github.com/repos/PrismarineJS/node-minecraft-protocol/issues/comments/283700925",
            "user": {
                "avatar_url": "https://avatars.githubusercontent.com/u/20295134?v=4",
                "events_url": "https://api.github.com/users/oliver-ni/events{/privacy}",
                "followers_url": "https://api.github.com/users/oliver-ni/followers",
                "following_url": "https://api.github.com/users/oliver-ni/following{/other_user}",
                "gists_url": "https://api.github.com/users/oliver-ni/gists{/gist_id}",
                "gravatar_id": "",
                "html_url": "https://github.com/oliver-ni",
                "id": 20295134,
                "login": "oliver-ni",
                "node_id": "MDQ6VXNlcjIwMjk1MTM0",
                "organizations_url": "https://api.github.com/users/oliver-ni/orgs",
                "received_events_url": "https://api.github.com/users/oliver-ni/received_events",
                "repos_url": "https://api.github.com/users/oliver-ni/repos",
                "site_admin": false,
                "starred_url": "https://api.github.com/users/oliver-ni/starred{/owner}{/repo}",
                "subscriptions_url": "https://api.github.com/users/oliver-ni/subscriptions",
                "type": "User",
                "url": "https://api.github.com/users/oliver-ni"
            }
        },
        {
            "author_association": "MEMBER",
            "body": "So there error is from https://github.com/PrismarineJS/node-minecraft-protocol/blob/master/src/transforms/compression.js#L64\r\n\r\nIf I just ignore that chunk (return cb() instead of return cb(err)) everything else seems to work.\r\n\r\nI don't really understand why these servers send us malformed compressed packet and I don't know what we should do about it...",
            "created_at": "2017-03-12T15:13:57Z",
            "html_url": "https://github.com/PrismarineJS/node-minecraft-protocol/issues/462#issuecomment-285951099",
            "id": 285951099,
            "issue_url": "https://api.github.com/repos/PrismarineJS/node-minecraft-protocol/issues/462",
            "node_id": "MDEyOklzc3VlQ29tbWVudDI4NTk1MTA5OQ==",
            "performed_via_github_app": null,
            "reactions": {
                "+1": 0,
                "-1": 0,
                "confused": 0,
                "eyes": 0,
                "heart": 0,
                "hooray": 0,
                "laugh": 0,
                "rocket": 0,
                "total_count": 0,
                "url": "https://api.github.com/repos/PrismarineJS/node-minecraft-protocol/issues/comments/285951099/reactions"
            },
            "updated_at": "2017-03-12T15:13:57Z",
            "url": "https://api.github.com/repos/PrismarineJS/node-minecraft-protocol/issues/comments/285951099",
            "user": {
                "avatar_url": "https://avatars.githubusercontent.com/u/2346494?v=4",
                "events_url": "https://api.github.com/users/rom1504/events{/privacy}",
                "followers_url": "https://api.github.com/users/rom1504/followers",
                "following_url": "https://api.github.com/users/rom1504/following{/other_user}",
                "gists_url": "https://api.github.com/users/rom1504/gists{/gist_id}",
                "gravatar_id": "",
                "html_url": "https://github.com/rom1504",
                "id": 2346494,
                "login": "rom1504",
                "node_id": "MDQ6VXNlcjIzNDY0OTQ=",
                "organizations_url": "https://api.github.com/users/rom1504/orgs",
                "received_events_url": "https://api.github.com/users/rom1504/received_events",
                "repos_url": "https://api.github.com/users/rom1504/repos",
                "site_admin": false,
                "starred_url": "https://api.github.com/users/rom1504/starred{/owner}{/repo}",
                "subscriptions_url": "https://api.github.com/users/rom1504/subscriptions",
                "type": "User",
                "url": "https://api.github.com/users/rom1504"
            }
        },
        {
            "author_association": "MEMBER",
            "body": "Or maybe we are doing something wrong in some edge cases in the splitter ?",
            "created_at": "2017-03-12T15:15:21Z",
            "html_url": "https://github.com/PrismarineJS/node-minecraft-protocol/issues/462#issuecomment-285951191",
            "id": 285951191,
            "issue_url": "https://api.github.com/repos/PrismarineJS/node-minecraft-protocol/issues/462",
            "node_id": "MDEyOklzc3VlQ29tbWVudDI4NTk1MTE5MQ==",
            "performed_via_github_app": null,
            "reactions": {
                "+1": 0,
                "-1": 0,
                "confused": 0,
                "eyes": 0,
                "heart": 0,
                "hooray": 0,
                "laugh": 0,
                "rocket": 0,
                "total_count": 0,
                "url": "https://api.github.com/repos/PrismarineJS/node-minecraft-protocol/issues/comments/285951191/reactions"
            },
            "updated_at": "2017-03-12T15:15:21Z",
            "url": "https://api.github.com/repos/PrismarineJS/node-minecraft-protocol/issues/comments/285951191",
            "user": {
                "avatar_url": "https://avatars.githubusercontent.com/u/2346494?v=4",
                "events_url": "https://api.github.com/users/rom1504/events{/privacy}",
                "followers_url": "https://api.github.com/users/rom1504/followers",
                "following_url": "https://api.github.com/users/rom1504/following{/other_user}",
                "gists_url": "https://api.github.com/users/rom1504/gists{/gist_id}",
                "gravatar_id": "",
                "html_url": "https://github.com/rom1504",
                "id": 2346494,
                "login": "rom1504",
                "node_id": "MDQ6VXNlcjIzNDY0OTQ=",
                "organizations_url": "https://api.github.com/users/rom1504/orgs",
                "received_events_url": "https://api.github.com/users/rom1504/received_events",
                "repos_url": "https://api.github.com/users/rom1504/repos",
                "site_admin": false,
                "starred_url": "https://api.github.com/users/rom1504/starred{/owner}{/repo}",
                "subscriptions_url": "https://api.github.com/users/rom1504/subscriptions",
                "type": "User",
                "url": "https://api.github.com/users/rom1504"
            }
        },
        {
            "author_association": "NONE",
            "body": "Getting the same error with multiple different servers. The main one I am on is pvp.desteria.net . Also, cosmicpvp.com",
            "created_at": "2017-09-29T19:58:27Z",
            "html_url": "https://github.com/PrismarineJS/node-minecraft-protocol/issues/462#issuecomment-333224189",
            "id": 333224189,
            "issue_url": "https://api.github.com/repos/PrismarineJS/node-minecraft-protocol/issues/462",
            "node_id": "MDEyOklzc3VlQ29tbWVudDMzMzIyNDE4OQ==",
            "performed_via_github_app": null,
            "reactions": {
                "+1": 0,
                "-1": 0,
                "confused": 0,
                "eyes": 0,
                "heart": 0,
                "hooray": 0,
                "laugh": 0,
                "rocket": 0,
                "total_count": 0,
                "url": "https://api.github.com/repos/PrismarineJS/node-minecraft-protocol/issues/comments/333224189/reactions"
            },
            "updated_at": "2017-09-29T19:58:49Z",
            "url": "https://api.github.com/repos/PrismarineJS/node-minecraft-protocol/issues/comments/333224189",
            "user": {
                "avatar_url": "https://avatars.githubusercontent.com/u/20625636?v=4",
                "events_url": "https://api.github.com/users/johnpyp/events{/privacy}",
                "followers_url": "https://api.github.com/users/johnpyp/followers",
                "following_url": "https://api.github.com/users/johnpyp/following{/other_user}",
                "gists_url": "https://api.github.com/users/johnpyp/gists{/gist_id}",
                "gravatar_id": "",
                "html_url": "https://github.com/johnpyp",
                "id": 20625636,
                "login": "johnpyp",
                "node_id": "MDQ6VXNlcjIwNjI1NjM2",
                "organizations_url": "https://api.github.com/users/johnpyp/orgs",
                "received_events_url": "https://api.github.com/users/johnpyp/received_events",
                "repos_url": "https://api.github.com/users/johnpyp/repos",
                "site_admin": false,
                "starred_url": "https://api.github.com/users/johnpyp/starred{/owner}{/repo}",
                "subscriptions_url": "https://api.github.com/users/johnpyp/subscriptions",
                "type": "User",
                "url": "https://api.github.com/users/johnpyp"
            }
        },
        {
            "author_association": "MEMBER",
            "body": "Unexpected EOF means the packet was not complete when passed to `zlib.inflate` (it's missing data). It's very very odd, and I'm not sure it's a good idea to ignore it. Maybe we should log the length of the chunk being passed in https://github.com/PrismarineJS/node-minecraft-protocol/blob/master/src/transforms/compression.js#L21 to make sure the splitter doesn't fk up and send something the wrong size (maybe node streams split the packet or something ?)",
            "created_at": "2017-09-30T11:28:23Z",
            "html_url": "https://github.com/PrismarineJS/node-minecraft-protocol/issues/462#issuecomment-333302474",
            "id": 333302474,
            "issue_url": "https://api.github.com/repos/PrismarineJS/node-minecraft-protocol/issues/462",
            "node_id": "MDEyOklzc3VlQ29tbWVudDMzMzMwMjQ3NA==",
            "performed_via_github_app": null,
            "reactions": {
                "+1": 0,
                "-1": 0,
                "confused": 0,
                "eyes": 0,
                "heart": 0,
                "hooray": 0,
                "laugh": 0,
                "rocket": 0,
                "total_count": 0,
                "url": "https://api.github.com/repos/PrismarineJS/node-minecraft-protocol/issues/comments/333302474/reactions"
            },
            "updated_at": "2017-09-30T11:28:23Z",
            "url": "https://api.github.com/repos/PrismarineJS/node-minecraft-protocol/issues/comments/333302474",
            "user": {
                "avatar_url": "https://avatars.githubusercontent.com/u/1069318?v=4",
                "events_url": "https://api.github.com/users/roblabla/events{/privacy}",
                "followers_url": "https://api.github.com/users/roblabla/followers",
                "following_url": "https://api.github.com/users/roblabla/following{/other_user}",
                "gists_url": "https://api.github.com/users/roblabla/gists{/gist_id}",
                "gravatar_id": "",
                "html_url": "https://github.com/roblabla",
                "id": 1069318,
                "login": "roblabla",
                "node_id": "MDQ6VXNlcjEwNjkzMTg=",
                "organizations_url": "https://api.github.com/users/roblabla/orgs",
                "received_events_url": "https://api.github.com/users/roblabla/received_events",
                "repos_url": "https://api.github.com/users/roblabla/repos",
                "site_admin": false,
                "starred_url": "https://api.github.com/users/roblabla/starred{/owner}{/repo}",
                "subscriptions_url": "https://api.github.com/users/roblabla/subscriptions",
                "type": "User",
                "url": "https://api.github.com/users/roblabla"
            }
        },
        {
            "author_association": "NONE",
            "body": "I'm getting this error with this code:\r\n```\r\nvar mineflayer = require('mineflayer');\r\nvar bot = mineflayer.createBot({\r\n  host: \"pvp.thearchon.net\", // optional\r\n  port: 25565,       // optional\r\n  version: \"1.10.2\",\r\n  username: \"[REDACTED]\", // email and password are required only for\r\n  password: \"[REDACTED]\",          // online-mode=true servers\r\n});\r\nbot.on(\"kicked\", (reason, a) => { console.log(reason) })\r\n```\r\nIt makes the library unusable for bungee servers\r\n",
            "created_at": "2017-10-10T15:55:58Z",
            "html_url": "https://github.com/PrismarineJS/node-minecraft-protocol/issues/462#issuecomment-335520519",
            "id": 335520519,
            "issue_url": "https://api.github.com/repos/PrismarineJS/node-minecraft-protocol/issues/462",
            "node_id": "MDEyOklzc3VlQ29tbWVudDMzNTUyMDUxOQ==",
            "performed_via_github_app": null,
            "reactions": {
                "+1": 0,
                "-1": 0,
                "confused": 0,
                "eyes": 0,
                "heart": 0,
                "hooray": 0,
                "laugh": 0,
                "rocket": 0,
                "total_count": 0,
                "url": "https://api.github.com/repos/PrismarineJS/node-minecraft-protocol/issues/comments/335520519/reactions"
            },
            "updated_at": "2017-10-10T15:56:17Z",
            "url": "https://api.github.com/repos/PrismarineJS/node-minecraft-protocol/issues/comments/335520519",
            "user": {
                "avatar_url": "https://avatars.githubusercontent.com/u/15613855?v=4",
                "events_url": "https://api.github.com/users/codingJWilliams/events{/privacy}",
                "followers_url": "https://api.github.com/users/codingJWilliams/followers",
                "following_url": "https://api.github.com/users/codingJWilliams/following{/other_user}",
                "gists_url": "https://api.github.com/users/codingJWilliams/gists{/gist_id}",
                "gravatar_id": "",
                "html_url": "https://github.com/codingJWilliams",
                "id": 15613855,
                "login": "codingJWilliams",
                "node_id": "MDQ6VXNlcjE1NjEzODU1",
                "organizations_url": "https://api.github.com/users/codingJWilliams/orgs",
                "received_events_url": "https://api.github.com/users/codingJWilliams/received_events",
                "repos_url": "https://api.github.com/users/codingJWilliams/repos",
                "site_admin": false,
                "starred_url": "https://api.github.com/users/codingJWilliams/starred{/owner}{/repo}",
                "subscriptions_url": "https://api.github.com/users/codingJWilliams/subscriptions",
                "type": "User",
                "url": "https://api.github.com/users/codingJWilliams"
            }
        },
        {
            "author_association": "MEMBER",
            "body": "🤔 I really should take a look at bungeecord when I have some time. I'll try to find some time to get some TCP dumps over the week-end.",
            "created_at": "2017-10-10T17:44:09Z",
            "html_url": "https://github.com/PrismarineJS/node-minecraft-protocol/issues/462#issuecomment-335552751",
            "id": 335552751,
            "issue_url": "https://api.github.com/repos/PrismarineJS/node-minecraft-protocol/issues/462",
            "node_id": "MDEyOklzc3VlQ29tbWVudDMzNTU1Mjc1MQ==",
            "performed_via_github_app": null,
            "reactions": {
                "+1": 0,
                "-1": 0,
                "confused": 0,
                "eyes": 0,
                "heart": 0,
                "hooray": 0,
                "laugh": 0,
                "rocket": 0,
                "total_count": 0,
                "url": "https://api.github.com/repos/PrismarineJS/node-minecraft-protocol/issues/comments/335552751/reactions"
            },
            "updated_at": "2017-10-10T17:44:09Z",
            "url": "https://api.github.com/repos/PrismarineJS/node-minecraft-protocol/issues/comments/335552751",
            "user": {
                "avatar_url": "https://avatars.githubusercontent.com/u/1069318?v=4",
                "events_url": "https://api.github.com/users/roblabla/events{/privacy}",
                "followers_url": "https://api.github.com/users/roblabla/followers",
                "following_url": "https://api.github.com/users/roblabla/following{/other_user}",
                "gists_url": "https://api.github.com/users/roblabla/gists{/gist_id}",
                "gravatar_id": "",
                "html_url": "https://github.com/roblabla",
                "id": 1069318,
                "login": "roblabla",
                "node_id": "MDQ6VXNlcjEwNjkzMTg=",
                "organizations_url": "https://api.github.com/users/roblabla/orgs",
                "received_events_url": "https://api.github.com/users/roblabla/received_events",
                "repos_url": "https://api.github.com/users/roblabla/repos",
                "site_admin": false,
                "starred_url": "https://api.github.com/users/roblabla/starred{/owner}{/repo}",
                "subscriptions_url": "https://api.github.com/users/roblabla/subscriptions",
                "type": "User",
                "url": "https://api.github.com/users/roblabla"
            }
        },
        {
            "author_association": "NONE",
            "body": "Thanks mate :-)",
            "created_at": "2017-10-12T19:46:38Z",
            "html_url": "https://github.com/PrismarineJS/node-minecraft-protocol/issues/462#issuecomment-336245701",
            "id": 336245701,
            "issue_url": "https://api.github.com/repos/PrismarineJS/node-minecraft-protocol/issues/462",
            "node_id": "MDEyOklzc3VlQ29tbWVudDMzNjI0NTcwMQ==",
            "performed_via_github_app": null,
            "reactions": {
                "+1": 0,
                "-1": 0,
                "confused": 0,
                "eyes": 0,
                "heart": 0,
                "hooray": 0,
                "laugh": 0,
                "rocket": 0,
                "total_count": 0,
                "url": "https://api.github.com/repos/PrismarineJS/node-minecraft-protocol/issues/comments/336245701/reactions"
            },
            "updated_at": "2017-10-12T19:46:38Z",
            "url": "https://api.github.com/repos/PrismarineJS/node-minecraft-protocol/issues/comments/336245701",
            "user": {
                "avatar_url": "https://avatars.githubusercontent.com/u/15613855?v=4",
                "events_url": "https://api.github.com/users/codingJWilliams/events{/privacy}",
                "followers_url": "https://api.github.com/users/codingJWilliams/followers",
                "following_url": "https://api.github.com/users/codingJWilliams/following{/other_user}",
                "gists_url": "https://api.github.com/users/codingJWilliams/gists{/gist_id}",
                "gravatar_id": "",
                "html_url": "https://github.com/codingJWilliams",
                "id": 15613855,
                "login": "codingJWilliams",
                "node_id": "MDQ6VXNlcjE1NjEzODU1",
                "organizations_url": "https://api.github.com/users/codingJWilliams/orgs",
                "received_events_url": "https://api.github.com/users/codingJWilliams/received_events",
                "repos_url": "https://api.github.com/users/codingJWilliams/repos",
                "site_admin": false,
                "starred_url": "https://api.github.com/users/codingJWilliams/starred{/owner}{/repo}",
                "subscriptions_url": "https://api.github.com/users/codingJWilliams/subscriptions",
                "type": "User",
                "url": "https://api.github.com/users/codingJWilliams"
            }
        },
        {
            "author_association": "MEMBER",
            "body": "can be reproduced on pvp.thearchon.net too\r\n\r\nwould be nice to fix it",
            "created_at": "2018-05-19T23:50:11Z",
            "html_url": "https://github.com/PrismarineJS/node-minecraft-protocol/issues/462#issuecomment-390441069",
            "id": 390441069,
            "issue_url": "https://api.github.com/repos/PrismarineJS/node-minecraft-protocol/issues/462",
            "node_id": "MDEyOklzc3VlQ29tbWVudDM5MDQ0MTA2OQ==",
            "performed_via_github_app": null,
            "reactions": {
                "+1": 0,
                "-1": 0,
                "confused": 0,
                "eyes": 0,
                "heart": 0,
                "hooray": 0,
                "laugh": 0,
                "rocket": 0,
                "total_count": 0,
                "url": "https://api.github.com/repos/PrismarineJS/node-minecraft-protocol/issues/comments/390441069/reactions"
            },
            "updated_at": "2018-05-19T23:50:11Z",
            "url": "https://api.github.com/repos/PrismarineJS/node-minecraft-protocol/issues/comments/390441069",
            "user": {
                "avatar_url": "https://avatars.githubusercontent.com/u/2346494?v=4",
                "events_url": "https://api.github.com/users/rom1504/events{/privacy}",
                "followers_url": "https://api.github.com/users/rom1504/followers",
                "following_url": "https://api.github.com/users/rom1504/following{/other_user}",
                "gists_url": "https://api.github.com/users/rom1504/gists{/gist_id}",
                "gravatar_id": "",
                "html_url": "https://github.com/rom1504",
                "id": 2346494,
                "login": "rom1504",
                "node_id": "MDQ6VXNlcjIzNDY0OTQ=",
                "organizations_url": "https://api.github.com/users/rom1504/orgs",
                "received_events_url": "https://api.github.com/users/rom1504/received_events",
                "repos_url": "https://api.github.com/users/rom1504/repos",
                "site_admin": false,
                "starred_url": "https://api.github.com/users/rom1504/starred{/owner}{/repo}",
                "subscriptions_url": "https://api.github.com/users/rom1504/subscriptions",
                "type": "User",
                "url": "https://api.github.com/users/rom1504"
            }
        },
        {
            "author_association": "MEMBER",
            "body": "Ok I ignored the packet and logged the error.\r\nI believe some servers do send wrong packets and the bug is their's.\r\n\r\nLet's continue track weird servers in #532 and consider this particular ticket as done.",
            "created_at": "2018-05-20T00:55:56Z",
            "html_url": "https://github.com/PrismarineJS/node-minecraft-protocol/issues/462#issuecomment-390446977",
            "id": 390446977,
            "issue_url": "https://api.github.com/repos/PrismarineJS/node-minecraft-protocol/issues/462",
            "node_id": "MDEyOklzc3VlQ29tbWVudDM5MDQ0Njk3Nw==",
            "performed_via_github_app": null,
            "reactions": {
                "+1": 0,
                "-1": 0,
                "confused": 0,
                "eyes": 0,
                "heart": 0,
                "hooray": 0,
                "laugh": 0,
                "rocket": 0,
                "total_count": 0,
                "url": "https://api.github.com/repos/PrismarineJS/node-minecraft-protocol/issues/comments/390446977/reactions"
            },
            "updated_at": "2018-05-20T00:55:56Z",
            "url": "https://api.github.com/repos/PrismarineJS/node-minecraft-protocol/issues/comments/390446977",
            "user": {
                "avatar_url": "https://avatars.githubusercontent.com/u/2346494?v=4",
                "events_url": "https://api.github.com/users/rom1504/events{/privacy}",
                "followers_url": "https://api.github.com/users/rom1504/followers",
                "following_url": "https://api.github.com/users/rom1504/following{/other_user}",
                "gists_url": "https://api.github.com/users/rom1504/gists{/gist_id}",
                "gravatar_id": "",
                "html_url": "https://github.com/rom1504",
                "id": 2346494,
                "login": "rom1504",
                "node_id": "MDQ6VXNlcjIzNDY0OTQ=",
                "organizations_url": "https://api.github.com/users/rom1504/orgs",
                "received_events_url": "https://api.github.com/users/rom1504/received_events",
                "repos_url": "https://api.github.com/users/rom1504/repos",
                "site_admin": false,
                "starred_url": "https://api.github.com/users/rom1504/starred{/owner}{/repo}",
                "subscriptions_url": "https://api.github.com/users/rom1504/subscriptions",
                "type": "User",
                "url": "https://api.github.com/users/rom1504"
            }
        }
    ],
    "comments": 12,
    "comments_url": "https://api.github.com/repos/PrismarineJS/node-minecraft-protocol/issues/462/comments",
    "created_at": "2017-01-17T22:02:48Z",
    "event_data": [
        {
            "actor": {
                "avatar_url": "https://avatars.githubusercontent.com/u/2346494?v=4",
                "events_url": "https://api.github.com/users/rom1504/events{/privacy}",
                "followers_url": "https://api.github.com/users/rom1504/followers",
                "following_url": "https://api.github.com/users/rom1504/following{/other_user}",
                "gists_url": "https://api.github.com/users/rom1504/gists{/gist_id}",
                "gravatar_id": "",
                "html_url": "https://github.com/rom1504",
                "id": 2346494,
                "login": "rom1504",
                "node_id": "MDQ6VXNlcjIzNDY0OTQ=",
                "organizations_url": "https://api.github.com/users/rom1504/orgs",
                "received_events_url": "https://api.github.com/users/rom1504/received_events",
                "repos_url": "https://api.github.com/users/rom1504/repos",
                "site_admin": false,
                "starred_url": "https://api.github.com/users/rom1504/starred{/owner}{/repo}",
                "subscriptions_url": "https://api.github.com/users/rom1504/subscriptions",
                "type": "User",
                "url": "https://api.github.com/users/rom1504"
            },
            "commit_id": null,
            "commit_url": null,
            "created_at": "2017-02-26T19:06:00Z",
            "event": "labeled",
            "id": 977523726,
            "label": {
                "color": "fc2929",
                "name": "bug"
            },
            "node_id": "MDEyOkxhYmVsZWRFdmVudDk3NzUyMzcyNg==",
            "performed_via_github_app": null,
            "url": "https://api.github.com/repos/PrismarineJS/node-minecraft-protocol/issues/events/977523726"
        },
        {
            "actor": {
                "avatar_url": "https://avatars.githubusercontent.com/u/2346494?v=4",
                "events_url": "https://api.github.com/users/rom1504/events{/privacy}",
                "followers_url": "https://api.github.com/users/rom1504/followers",
                "following_url": "https://api.github.com/users/rom1504/following{/other_user}",
                "gists_url": "https://api.github.com/users/rom1504/gists{/gist_id}",
                "gravatar_id": "",
                "html_url": "https://github.com/rom1504",
                "id": 2346494,
                "login": "rom1504",
                "node_id": "MDQ6VXNlcjIzNDY0OTQ=",
                "organizations_url": "https://api.github.com/users/rom1504/orgs",
                "received_events_url": "https://api.github.com/users/rom1504/received_events",
                "repos_url": "https://api.github.com/users/rom1504/repos",
                "site_admin": false,
                "starred_url": "https://api.github.com/users/rom1504/starred{/owner}{/repo}",
                "subscriptions_url": "https://api.github.com/users/rom1504/subscriptions",
                "type": "User",
                "url": "https://api.github.com/users/rom1504"
            },
            "commit_id": null,
            "commit_url": null,
            "created_at": "2017-02-26T19:06:14Z",
            "event": "renamed",
            "id": 977523813,
            "node_id": "MDE3OlJlbmFtZWRUaXRsZUV2ZW50OTc3NTIzODEz",
            "performed_via_github_app": null,
            "rename": {
                "from": "unexpected end of file",
                "to": "[in some servers] unexpected end of file"
            },
            "url": "https://api.github.com/repos/PrismarineJS/node-minecraft-protocol/issues/events/977523813"
        },
        {
            "actor": {
                "avatar_url": "https://avatars.githubusercontent.com/u/2346494?v=4",
                "events_url": "https://api.github.com/users/rom1504/events{/privacy}",
                "followers_url": "https://api.github.com/users/rom1504/followers",
                "following_url": "https://api.github.com/users/rom1504/following{/other_user}",
                "gists_url": "https://api.github.com/users/rom1504/gists{/gist_id}",
                "gravatar_id": "",
                "html_url": "https://github.com/rom1504",
                "id": 2346494,
                "login": "rom1504",
                "node_id": "MDQ6VXNlcjIzNDY0OTQ=",
                "organizations_url": "https://api.github.com/users/rom1504/orgs",
                "received_events_url": "https://api.github.com/users/rom1504/received_events",
                "repos_url": "https://api.github.com/users/rom1504/repos",
                "site_admin": false,
                "starred_url": "https://api.github.com/users/rom1504/starred{/owner}{/repo}",
                "subscriptions_url": "https://api.github.com/users/rom1504/subscriptions",
                "type": "User",
                "url": "https://api.github.com/users/rom1504"
            },
            "commit_id": null,
            "commit_url": null,
            "created_at": "2018-05-19T23:53:10Z",
            "event": "labeled",
            "id": 1635729019,
            "label": {
                "color": "b60205",
                "name": "priority"
            },
            "node_id": "MDEyOkxhYmVsZWRFdmVudDE2MzU3MjkwMTk=",
            "performed_via_github_app": null,
            "url": "https://api.github.com/repos/PrismarineJS/node-minecraft-protocol/issues/events/1635729019"
        },
        {
            "actor": {
                "avatar_url": "https://avatars.githubusercontent.com/u/2346494?v=4",
                "events_url": "https://api.github.com/users/rom1504/events{/privacy}",
                "followers_url": "https://api.github.com/users/rom1504/followers",
                "following_url": "https://api.github.com/users/rom1504/following{/other_user}",
                "gists_url": "https://api.github.com/users/rom1504/gists{/gist_id}",
                "gravatar_id": "",
                "html_url": "https://github.com/rom1504",
                "id": 2346494,
                "login": "rom1504",
                "node_id": "MDQ6VXNlcjIzNDY0OTQ=",
                "organizations_url": "https://api.github.com/users/rom1504/orgs",
                "received_events_url": "https://api.github.com/users/rom1504/received_events",
                "repos_url": "https://api.github.com/users/rom1504/repos",
                "site_admin": false,
                "starred_url": "https://api.github.com/users/rom1504/starred{/owner}{/repo}",
                "subscriptions_url": "https://api.github.com/users/rom1504/subscriptions",
                "type": "User",
                "url": "https://api.github.com/users/rom1504"
            },
            "commit_id": "571d0e0c25ee65a3246ddef95448faa5462d97b4",
            "commit_url": "https://api.github.com/repos/PrismarineJS/node-minecraft-protocol/commits/571d0e0c25ee65a3246ddef95448faa5462d97b4",
            "created_at": "2018-05-20T00:50:39Z",
            "event": "referenced",
            "id": 1635743126,
            "node_id": "MDE1OlJlZmVyZW5jZWRFdmVudDE2MzU3NDMxMjY=",
            "performed_via_github_app": null,
            "url": "https://api.github.com/repos/PrismarineJS/node-minecraft-protocol/issues/events/1635743126"
        },
        {
            "actor": {
                "avatar_url": "https://avatars.githubusercontent.com/u/2346494?v=4",
                "events_url": "https://api.github.com/users/rom1504/events{/privacy}",
                "followers_url": "https://api.github.com/users/rom1504/followers",
                "following_url": "https://api.github.com/users/rom1504/following{/other_user}",
                "gists_url": "https://api.github.com/users/rom1504/gists{/gist_id}",
                "gravatar_id": "",
                "html_url": "https://github.com/rom1504",
                "id": 2346494,
                "login": "rom1504",
                "node_id": "MDQ6VXNlcjIzNDY0OTQ=",
                "organizations_url": "https://api.github.com/users/rom1504/orgs",
                "received_events_url": "https://api.github.com/users/rom1504/received_events",
                "repos_url": "https://api.github.com/users/rom1504/repos",
                "site_admin": false,
                "starred_url": "https://api.github.com/users/rom1504/starred{/owner}{/repo}",
                "subscriptions_url": "https://api.github.com/users/rom1504/subscriptions",
                "type": "User",
                "url": "https://api.github.com/users/rom1504"
            },
            "commit_id": null,
            "commit_url": null,
            "created_at": "2018-05-20T00:55:56Z",
            "event": "closed",
            "id": 1635744029,
            "node_id": "MDExOkNsb3NlZEV2ZW50MTYzNTc0NDAyOQ==",
            "performed_via_github_app": null,
            "state_reason": null,
            "url": "https://api.github.com/repos/PrismarineJS/node-minecraft-protocol/issues/events/1635744029"
        }
    ],
    "events_url": "https://api.github.com/repos/PrismarineJS/node-minecraft-protocol/issues/462/events",
    "html_url": "https://github.com/PrismarineJS/node-minecraft-protocol/issues/462",
    "id": 201418553,
    "labels": [
        {
            "color": "fc2929",
            "default": true,
            "description": null,
            "id": 23544340,
            "name": "bug",
            "node_id": "MDU6TGFiZWwyMzU0NDM0MA==",
            "url": "https://api.github.com/repos/PrismarineJS/node-minecraft-protocol/labels/bug"
        },
        {
            "color": "b60205",
            "default": false,
            "description": "Asked by many people",
            "id": 938567928,
            "name": "priority",
            "node_id": "MDU6TGFiZWw5Mzg1Njc5Mjg=",
            "url": "https://api.github.com/repos/PrismarineJS/node-minecraft-protocol/labels/priority"
        }
    ],
    "labels_url": "https://api.github.com/repos/PrismarineJS/node-minecraft-protocol/issues/462/labels{/name}",
    "locked": false,
    "milestone": null,
    "node_id": "MDU6SXNzdWUyMDE0MTg1NTM=",
    "number": 462,
    "performed_via_github_app": null,
    "reactions": {
        "+1": 0,
        "-1": 0,
        "confused": 0,
        "eyes": 0,
        "heart": 0,
        "hooray": 0,
        "laugh": 0,
        "rocket": 0,
        "total_count": 0,
        "url": "https://api.github.com/repos/PrismarineJS/node-minecraft-protocol/issues/462/reactions"
    },
    "repository_url": "https://api.github.com/repos/PrismarineJS/node-minecraft-protocol",
    "state": "closed",
    "state_reason": "completed",
    "timeline_url": "https://api.github.com/repos/PrismarineJS/node-minecraft-protocol/issues/462/timeline",
    "title": "[in some servers] unexpected end of file",
    "updated_at": "2018-05-20T00:55:56Z",
    "url": "https://api.github.com/repos/PrismarineJS/node-minecraft-protocol/issues/462",
    "user": {
        "avatar_url": "https://avatars.githubusercontent.com/u/2346494?v=4",
        "events_url": "https://api.github.com/users/rom1504/events{/privacy}",
        "followers_url": "https://api.github.com/users/rom1504/followers",
        "following_url": "https://api.github.com/users/rom1504/following{/other_user}",
        "gists_url": "https://api.github.com/users/rom1504/gists{/gist_id}",
        "gravatar_id": "",
        "html_url": "https://github.com/rom1504",
        "id": 2346494,
        "login": "rom1504",
        "node_id": "MDQ6VXNlcjIzNDY0OTQ=",
        "organizations_url": "https://api.github.com/users/rom1504/orgs",
        "received_events_url": "https://api.github.com/users/rom1504/received_events",
        "repos_url": "https://api.github.com/users/rom1504/repos",
        "site_admin": false,
        "starred_url": "https://api.github.com/users/rom1504/starred{/owner}{/repo}",
        "subscriptions_url": "https://api.github.com/users/rom1504/subscriptions",
        "type": "User",
        "url": "https://api.github.com/users/rom1504"
    }
}