{
    "active_lock_reason": null,
    "assignee": null,
    "assignees": [],
    "author_association": "NONE",
    "body": "Tried modifying the code and changing the exports to the new version numbers.  Caused Minecraft Client to crash upon connection.\n",
    "closed_at": "2013-07-11T04:31:37Z",
    "comment_data": [
        {
            "author_association": "CONTRIBUTOR",
            "body": "Thanks for the reminder, I just pushed changes to fix this. https://github.com/superjoe30/node-minecraft-protocol/commit/f3657f74e0df342fedc75f7997074893ff8bab55\n",
            "created_at": "2013-07-11T04:31:37Z",
            "html_url": "https://github.com/PrismarineJS/node-minecraft-protocol/issues/59#issuecomment-20789799",
            "id": 20789799,
            "issue_url": "https://api.github.com/repos/PrismarineJS/node-minecraft-protocol/issues/59",
            "node_id": "MDEyOklzc3VlQ29tbWVudDIwNzg5Nzk5",
            "performed_via_github_app": null,
            "reactions": {
                "+1": 0,
                "-1": 0,
                "confused": 0,
                "eyes": 0,
                "heart": 0,
                "hooray": 0,
                "laugh": 0,
                "rocket": 0,
                "total_count": 0,
                "url": "https://api.github.com/repos/PrismarineJS/node-minecraft-protocol/issues/comments/20789799/reactions"
            },
            "updated_at": "2013-07-11T04:34:03Z",
            "url": "https://api.github.com/repos/PrismarineJS/node-minecraft-protocol/issues/comments/20789799",
            "user": {
                "avatar_url": "https://avatars.githubusercontent.com/u/398285?v=4",
                "events_url": "https://api.github.com/users/mappum/events{/privacy}",
                "followers_url": "https://api.github.com/users/mappum/followers",
                "following_url": "https://api.github.com/users/mappum/following{/other_user}",
                "gists_url": "https://api.github.com/users/mappum/gists{/gist_id}",
                "gravatar_id": "",
                "html_url": "https://github.com/mappum",
                "id": 398285,
                "login": "mappum",
                "node_id": "MDQ6VXNlcjM5ODI4NQ==",
                "organizations_url": "https://api.github.com/users/mappum/orgs",
                "received_events_url": "https://api.github.com/users/mappum/received_events",
                "repos_url": "https://api.github.com/users/mappum/repos",
                "site_admin": false,
                "starred_url": "https://api.github.com/users/mappum/starred{/owner}{/repo}",
                "subscriptions_url": "https://api.github.com/users/mappum/subscriptions",
                "type": "User",
                "url": "https://api.github.com/users/mappum"
            }
        }
    ],
    "comments": 1,
    "comments_url": "https://api.github.com/repos/PrismarineJS/node-minecraft-protocol/issues/59/comments",
    "created_at": "2013-07-11T04:01:36Z",
    "event_data": [
        {
            "actor": {
                "avatar_url": "https://avatars.githubusercontent.com/u/398285?v=4",
                "events_url": "https://api.github.com/users/mappum/events{/privacy}",
                "followers_url": "https://api.github.com/users/mappum/followers",
                "following_url": "https://api.github.com/users/mappum/following{/other_user}",
                "gists_url": "https://api.github.com/users/mappum/gists{/gist_id}",
                "gravatar_id": "",
                "html_url": "https://github.com/mappum",
                "id": 398285,
                "login": "mappum",
                "node_id": "MDQ6VXNlcjM5ODI4NQ==",
                "organizations_url": "https://api.github.com/users/mappum/orgs",
                "received_events_url": "https://api.github.com/users/mappum/received_events",
                "repos_url": "https://api.github.com/users/mappum/repos",
                "site_admin": false,
                "starred_url": "https://api.github.com/users/mappum/starred{/owner}{/repo}",
                "subscriptions_url": "https://api.github.com/users/mappum/subscriptions",
                "type": "User",
                "url": "https://api.github.com/users/mappum"
            },
            "commit_id": null,
            "commit_url": null,
            "created_at": "2013-07-11T04:31:37Z",
            "event": "closed",
            "id": 56059679,
            "node_id": "MDExOkNsb3NlZEV2ZW50NTYwNTk2Nzk=",
            "performed_via_github_app": null,
            "state_reason": null,
            "url": "https://api.github.com/repos/PrismarineJS/node-minecraft-protocol/issues/events/56059679"
        }
    ],
    "events_url": "https://api.github.com/repos/PrismarineJS/node-minecraft-protocol/issues/59/events",
    "html_url": "https://github.com/PrismarineJS/node-minecraft-protocol/issues/59",
    "id": 16613331,
    "labels": [],
    "labels_url": "https://api.github.com/repos/PrismarineJS/node-minecraft-protocol/issues/59/labels{/name}",
    "locked": false,
    "milestone": null,
    "node_id": "MDU6SXNzdWUxNjYxMzMzMQ==",
    "number": 59,
    "performed_via_github_app": null,
    "reactions": {
        "+1": 0,
        "-1": 0,
        "confused": 0,
        "eyes": 0,
        "heart": 0,
        "hooray": 0,
        "laugh": 0,
        "rocket": 0,
        "total_count": 0,
        "url": "https://api.github.com/repos/PrismarineJS/node-minecraft-protocol/issues/59/reactions"
    },
    "repository_url": "https://api.github.com/repos/PrismarineJS/node-minecraft-protocol",
    "state": "closed",
    "state_reason": "completed",
    "timeline_url": "https://api.github.com/repos/PrismarineJS/node-minecraft-protocol/issues/59/timeline",
    "title": "Needs update for 1.6.2",
    "updated_at": "2013-07-11T04:34:03Z",
    "url": "https://api.github.com/repos/PrismarineJS/node-minecraft-protocol/issues/59",
    "user": {
        "avatar_url": "https://avatars.githubusercontent.com/u/145128?v=4",
        "events_url": "https://api.github.com/users/navarr/events{/privacy}",
        "followers_url": "https://api.github.com/users/navarr/followers",
        "following_url": "https://api.github.com/users/navarr/following{/other_user}",
        "gists_url": "https://api.github.com/users/navarr/gists{/gist_id}",
        "gravatar_id": "",
        "html_url": "https://github.com/navarr",
        "id": 145128,
        "login": "navarr",
        "node_id": "MDQ6VXNlcjE0NTEyOA==",
        "organizations_url": "https://api.github.com/users/navarr/orgs",
        "received_events_url": "https://api.github.com/users/navarr/received_events",
        "repos_url": "https://api.github.com/users/navarr/repos",
        "site_admin": false,
        "starred_url": "https://api.github.com/users/navarr/starred{/owner}{/repo}",
        "subscriptions_url": "https://api.github.com/users/navarr/subscriptions",
        "type": "User",
        "url": "https://api.github.com/users/navarr"
    }
}