{
    "active_lock_reason": null,
    "assignee": null,
    "assignees": [],
    "author_association": "NONE",
    "body": "Will this repo be updated to add support for MCPE 1.18 chunks? The format should be somewhat similar to the format stored in the level files.",
    "closed_at": "2023-01-20T22:33:40Z",
    "comment_data": [
        {
            "author_association": "MEMBER",
            "body": "We would very much like to support new Bedrock Edition chunk formats, but there is no documentation on the byte array layout for Bedrock chunk packets.\r\n\r\nI'm certain the reverse engineering work has already been done for other 3rd party Bedrock code, so if you want to write the docs and integrate them into https://wiki.vg that would be a great boon to the community.\r\n\r\nOr you can just PR new Bedrock chunk format code, that works too.",
            "created_at": "2022-01-05T18:07:16Z",
            "html_url": "https://github.com/PrismarineJS/prismarine-chunk/issues/152#issuecomment-1005955805",
            "id": 1005955805,
            "issue_url": "https://api.github.com/repos/PrismarineJS/prismarine-chunk/issues/152",
            "node_id": "IC_kwDOAeJve8479ard",
            "performed_via_github_app": null,
            "reactions": {
                "+1": 0,
                "-1": 0,
                "confused": 0,
                "eyes": 0,
                "heart": 0,
                "hooray": 0,
                "laugh": 0,
                "rocket": 0,
                "total_count": 0,
                "url": "https://api.github.com/repos/PrismarineJS/prismarine-chunk/issues/comments/1005955805/reactions"
            },
            "updated_at": "2022-01-05T18:07:16Z",
            "url": "https://api.github.com/repos/PrismarineJS/prismarine-chunk/issues/comments/1005955805",
            "user": {
                "avatar_url": "https://avatars.githubusercontent.com/u/1032552?v=4",
                "events_url": "https://api.github.com/users/nickelpro/events{/privacy}",
                "followers_url": "https://api.github.com/users/nickelpro/followers",
                "following_url": "https://api.github.com/users/nickelpro/following{/other_user}",
                "gists_url": "https://api.github.com/users/nickelpro/gists{/gist_id}",
                "gravatar_id": "",
                "html_url": "https://github.com/nickelpro",
                "id": 1032552,
                "login": "nickelpro",
                "node_id": "MDQ6VXNlcjEwMzI1NTI=",
                "organizations_url": "https://api.github.com/users/nickelpro/orgs",
                "received_events_url": "https://api.github.com/users/nickelpro/received_events",
                "repos_url": "https://api.github.com/users/nickelpro/repos",
                "site_admin": false,
                "starred_url": "https://api.github.com/users/nickelpro/starred{/owner}{/repo}",
                "subscriptions_url": "https://api.github.com/users/nickelpro/subscriptions",
                "type": "User",
                "url": "https://api.github.com/users/nickelpro"
            }
        },
        {
            "author_association": "MEMBER",
            "body": "Happening in https://github.com/PrismarineJS/bedrock-provider/pull/9/, which handles the disk and network formats\r\n\r\nEventually this can be moved into pchunk or pchunk can dep from there.\r\n\r\nThe format used on Bedrock is quite different overall, and blocks can also be stored across [4-dimensions](https://gist.github.com/Tomcc/a96af509e275b1af483b25c543cfbf37) (x, y, z, and layer) which is how waterlogged/snowy blocks are handled opposed to mcpc where each block has a \"waterlogged\" or snowy tag on top of each block. Implemented behind the scenes with multiple block data stores. So these are some relatively minor things which need to be handled somehow when we do move it here.\r\n\r\nIt looks like the wiki.vg page is pretty loney, so I'll take the time to update it now that it's been pointed out :)",
            "created_at": "2022-01-05T19:02:16Z",
            "html_url": "https://github.com/PrismarineJS/prismarine-chunk/issues/152#issuecomment-1005997343",
            "id": 1005997343,
            "issue_url": "https://api.github.com/repos/PrismarineJS/prismarine-chunk/issues/152",
            "node_id": "IC_kwDOAeJve8479k0f",
            "performed_via_github_app": null,
            "reactions": {
                "+1": 0,
                "-1": 0,
                "confused": 0,
                "eyes": 0,
                "heart": 0,
                "hooray": 1,
                "laugh": 0,
                "rocket": 1,
                "total_count": 2,
                "url": "https://api.github.com/repos/PrismarineJS/prismarine-chunk/issues/comments/1005997343/reactions"
            },
            "updated_at": "2022-01-05T19:04:11Z",
            "url": "https://api.github.com/repos/PrismarineJS/prismarine-chunk/issues/comments/1005997343",
            "user": {
                "avatar_url": "https://avatars.githubusercontent.com/u/13713600?v=4",
                "events_url": "https://api.github.com/users/extremeheat/events{/privacy}",
                "followers_url": "https://api.github.com/users/extremeheat/followers",
                "following_url": "https://api.github.com/users/extremeheat/following{/other_user}",
                "gists_url": "https://api.github.com/users/extremeheat/gists{/gist_id}",
                "gravatar_id": "",
                "html_url": "https://github.com/extremeheat",
                "id": 13713600,
                "login": "extremeheat",
                "node_id": "MDQ6VXNlcjEzNzEzNjAw",
                "organizations_url": "https://api.github.com/users/extremeheat/orgs",
                "received_events_url": "https://api.github.com/users/extremeheat/received_events",
                "repos_url": "https://api.github.com/users/extremeheat/repos",
                "site_admin": false,
                "starred_url": "https://api.github.com/users/extremeheat/starred{/owner}{/repo}",
                "subscriptions_url": "https://api.github.com/users/extremeheat/subscriptions",
                "type": "User",
                "url": "https://api.github.com/users/extremeheat"
            }
        },
        {
            "author_association": "MEMBER",
            "body": "Would definitely appreciate to integrate bedrock-provider feature here\r\nThat would help make it more natural to expand mineflayer to bedrock",
            "created_at": "2022-01-05T21:22:49Z",
            "html_url": "https://github.com/PrismarineJS/prismarine-chunk/issues/152#issuecomment-1006087746",
            "id": 1006087746,
            "issue_url": "https://api.github.com/repos/PrismarineJS/prismarine-chunk/issues/152",
            "node_id": "IC_kwDOAeJve847965C",
            "performed_via_github_app": null,
            "reactions": {
                "+1": 0,
                "-1": 0,
                "confused": 0,
                "eyes": 0,
                "heart": 0,
                "hooray": 0,
                "laugh": 0,
                "rocket": 0,
                "total_count": 0,
                "url": "https://api.github.com/repos/PrismarineJS/prismarine-chunk/issues/comments/1006087746/reactions"
            },
            "updated_at": "2022-01-05T21:22:49Z",
            "url": "https://api.github.com/repos/PrismarineJS/prismarine-chunk/issues/comments/1006087746",
            "user": {
                "avatar_url": "https://avatars.githubusercontent.com/u/2346494?v=4",
                "events_url": "https://api.github.com/users/rom1504/events{/privacy}",
                "followers_url": "https://api.github.com/users/rom1504/followers",
                "following_url": "https://api.github.com/users/rom1504/following{/other_user}",
                "gists_url": "https://api.github.com/users/rom1504/gists{/gist_id}",
                "gravatar_id": "",
                "html_url": "https://github.com/rom1504",
                "id": 2346494,
                "login": "rom1504",
                "node_id": "MDQ6VXNlcjIzNDY0OTQ=",
                "organizations_url": "https://api.github.com/users/rom1504/orgs",
                "received_events_url": "https://api.github.com/users/rom1504/received_events",
                "repos_url": "https://api.github.com/users/rom1504/repos",
                "site_admin": false,
                "starred_url": "https://api.github.com/users/rom1504/starred{/owner}{/repo}",
                "subscriptions_url": "https://api.github.com/users/rom1504/subscriptions",
                "type": "User",
                "url": "https://api.github.com/users/rom1504"
            }
        },
        {
            "author_association": "MEMBER",
            "body": "Wrote some basic docs for chunk serialization on disk/network in https://github.com/PrismarineJS/bedrock-provider/wiki/Minecraft-serialization and https://wiki.vg/Bedrock_Edition_level_format\n\nIt's not a lot (excludes biome information) but has the basic information around block data and network packet flow. ",
            "created_at": "2022-01-06T21:21:33Z",
            "html_url": "https://github.com/PrismarineJS/prismarine-chunk/issues/152#issuecomment-1006943751",
            "id": 1006943751,
            "issue_url": "https://api.github.com/repos/PrismarineJS/prismarine-chunk/issues/152",
            "node_id": "IC_kwDOAeJve848BL4H",
            "performed_via_github_app": null,
            "reactions": {
                "+1": 0,
                "-1": 0,
                "confused": 0,
                "eyes": 0,
                "heart": 0,
                "hooray": 0,
                "laugh": 0,
                "rocket": 0,
                "total_count": 0,
                "url": "https://api.github.com/repos/PrismarineJS/prismarine-chunk/issues/comments/1006943751/reactions"
            },
            "updated_at": "2022-01-06T21:21:33Z",
            "url": "https://api.github.com/repos/PrismarineJS/prismarine-chunk/issues/comments/1006943751",
            "user": {
                "avatar_url": "https://avatars.githubusercontent.com/u/13713600?v=4",
                "events_url": "https://api.github.com/users/extremeheat/events{/privacy}",
                "followers_url": "https://api.github.com/users/extremeheat/followers",
                "following_url": "https://api.github.com/users/extremeheat/following{/other_user}",
                "gists_url": "https://api.github.com/users/extremeheat/gists{/gist_id}",
                "gravatar_id": "",
                "html_url": "https://github.com/extremeheat",
                "id": 13713600,
                "login": "extremeheat",
                "node_id": "MDQ6VXNlcjEzNzEzNjAw",
                "organizations_url": "https://api.github.com/users/extremeheat/orgs",
                "received_events_url": "https://api.github.com/users/extremeheat/received_events",
                "repos_url": "https://api.github.com/users/extremeheat/repos",
                "site_admin": false,
                "starred_url": "https://api.github.com/users/extremeheat/starred{/owner}{/repo}",
                "subscriptions_url": "https://api.github.com/users/extremeheat/subscriptions",
                "type": "User",
                "url": "https://api.github.com/users/extremeheat"
            }
        }
    ],
    "comments": 4,
    "comments_url": "https://api.github.com/repos/PrismarineJS/prismarine-chunk/issues/152/comments",
    "created_at": "2022-01-05T15:49:51Z",
    "event_data": [
        {
            "actor": {
                "avatar_url": "https://avatars.githubusercontent.com/u/2346494?v=4",
                "events_url": "https://api.github.com/users/rom1504/events{/privacy}",
                "followers_url": "https://api.github.com/users/rom1504/followers",
                "following_url": "https://api.github.com/users/rom1504/following{/other_user}",
                "gists_url": "https://api.github.com/users/rom1504/gists{/gist_id}",
                "gravatar_id": "",
                "html_url": "https://github.com/rom1504",
                "id": 2346494,
                "login": "rom1504",
                "node_id": "MDQ6VXNlcjIzNDY0OTQ=",
                "organizations_url": "https://api.github.com/users/rom1504/orgs",
                "received_events_url": "https://api.github.com/users/rom1504/received_events",
                "repos_url": "https://api.github.com/users/rom1504/repos",
                "site_admin": false,
                "starred_url": "https://api.github.com/users/rom1504/starred{/owner}{/repo}",
                "subscriptions_url": "https://api.github.com/users/rom1504/subscriptions",
                "type": "User",
                "url": "https://api.github.com/users/rom1504"
            },
            "commit_id": null,
            "commit_url": null,
            "created_at": "2022-01-22T18:21:50Z",
            "event": "added_to_project",
            "id": 5937260001,
            "node_id": "ATPE_lADOAeJve85BPKejzwAAAAFh42Xh",
            "performed_via_github_app": null,
            "project_card": {
                "column_name": "To do",
                "id": 76511080,
                "project_id": 14046941,
                "project_url": "https://api.github.com/projects/14046941",
                "url": "https://api.github.com/projects/columns/cards/76511080"
            },
            "url": "https://api.github.com/repos/PrismarineJS/prismarine-chunk/issues/events/5937260001"
        },
        {
            "actor": {
                "avatar_url": "https://avatars.githubusercontent.com/u/2346494?v=4",
                "events_url": "https://api.github.com/users/rom1504/events{/privacy}",
                "followers_url": "https://api.github.com/users/rom1504/followers",
                "following_url": "https://api.github.com/users/rom1504/following{/other_user}",
                "gists_url": "https://api.github.com/users/rom1504/gists{/gist_id}",
                "gravatar_id": "",
                "html_url": "https://github.com/rom1504",
                "id": 2346494,
                "login": "rom1504",
                "node_id": "MDQ6VXNlcjIzNDY0OTQ=",
                "organizations_url": "https://api.github.com/users/rom1504/orgs",
                "received_events_url": "https://api.github.com/users/rom1504/received_events",
                "repos_url": "https://api.github.com/users/rom1504/repos",
                "site_admin": false,
                "starred_url": "https://api.github.com/users/rom1504/starred{/owner}{/repo}",
                "subscriptions_url": "https://api.github.com/users/rom1504/subscriptions",
                "type": "User",
                "url": "https://api.github.com/users/rom1504"
            },
            "commit_id": null,
            "commit_url": null,
            "created_at": "2023-01-20T22:33:40Z",
            "event": "closed",
            "id": 8325665227,
            "node_id": "CE_lADOAeJve85BPKejzwAAAAHwP5HL",
            "performed_via_github_app": null,
            "state_reason": null,
            "url": "https://api.github.com/repos/PrismarineJS/prismarine-chunk/issues/events/8325665227"
        },
        {
            "actor": {
                "avatar_url": "https://avatars.githubusercontent.com/u/2346494?v=4",
                "events_url": "https://api.github.com/users/rom1504/events{/privacy}",
                "followers_url": "https://api.github.com/users/rom1504/followers",
                "following_url": "https://api.github.com/users/rom1504/following{/other_user}",
                "gists_url": "https://api.github.com/users/rom1504/gists{/gist_id}",
                "gravatar_id": "",
                "html_url": "https://github.com/rom1504",
                "id": 2346494,
                "login": "rom1504",
                "node_id": "MDQ6VXNlcjIzNDY0OTQ=",
                "organizations_url": "https://api.github.com/users/rom1504/orgs",
                "received_events_url": "https://api.github.com/users/rom1504/received_events",
                "repos_url": "https://api.github.com/users/rom1504/repos",
                "site_admin": false,
                "starred_url": "https://api.github.com/users/rom1504/starred{/owner}{/repo}",
                "subscriptions_url": "https://api.github.com/users/rom1504/subscriptions",
                "type": "User",
                "url": "https://api.github.com/users/rom1504"
            },
            "commit_id": null,
            "commit_url": null,
            "created_at": "2023-01-20T22:33:40Z",
            "event": "moved_columns_in_project",
            "id": 8325665275,
            "node_id": "MCIPE_lADOAeJve85BPKejzwAAAAHwP5H7",
            "performed_via_github_app": null,
            "project_card": {
                "column_name": "Done",
                "id": 76511080,
                "previous_column_name": "To do",
                "project_id": 14046941,
                "project_url": "https://api.github.com/projects/14046941",
                "url": "https://api.github.com/projects/columns/cards/76511080"
            },
            "url": "https://api.github.com/repos/PrismarineJS/prismarine-chunk/issues/events/8325665275"
        }
    ],
    "events_url": "https://api.github.com/repos/PrismarineJS/prismarine-chunk/issues/152/events",
    "html_url": "https://github.com/PrismarineJS/prismarine-chunk/issues/152",
    "id": 1094494115,
    "labels": [],
    "labels_url": "https://api.github.com/repos/PrismarineJS/prismarine-chunk/issues/152/labels{/name}",
    "locked": false,
    "milestone": null,
    "node_id": "I_kwDOAeJve85BPKej",
    "number": 152,
    "performed_via_github_app": null,
    "reactions": {
        "+1": 0,
        "-1": 0,
        "confused": 0,
        "eyes": 0,
        "heart": 0,
        "hooray": 0,
        "laugh": 0,
        "rocket": 0,
        "total_count": 0,
        "url": "https://api.github.com/repos/PrismarineJS/prismarine-chunk/issues/152/reactions"
    },
    "repository_url": "https://api.github.com/repos/PrismarineJS/prismarine-chunk",
    "state": "closed",
    "state_reason": "completed",
    "timeline_url": "https://api.github.com/repos/PrismarineJS/prismarine-chunk/issues/152/timeline",
    "title": "MCPE 1.18",
    "updated_at": "2023-01-20T22:33:40Z",
    "url": "https://api.github.com/repos/PrismarineJS/prismarine-chunk/issues/152",
    "user": {
        "avatar_url": "https://avatars.githubusercontent.com/u/56701269?v=4",
        "events_url": "https://api.github.com/users/Picoseconds/events{/privacy}",
        "followers_url": "https://api.github.com/users/Picoseconds/followers",
        "following_url": "https://api.github.com/users/Picoseconds/following{/other_user}",
        "gists_url": "https://api.github.com/users/Picoseconds/gists{/gist_id}",
        "gravatar_id": "",
        "html_url": "https://github.com/Picoseconds",
        "id": 56701269,
        "login": "Picoseconds",
        "node_id": "MDQ6VXNlcjU2NzAxMjY5",
        "organizations_url": "https://api.github.com/users/Picoseconds/orgs",
        "received_events_url": "https://api.github.com/users/Picoseconds/received_events",
        "repos_url": "https://api.github.com/users/Picoseconds/repos",
        "site_admin": false,
        "starred_url": "https://api.github.com/users/Picoseconds/starred{/owner}{/repo}",
        "subscriptions_url": "https://api.github.com/users/Picoseconds/subscriptions",
        "type": "User",
        "url": "https://api.github.com/users/Picoseconds"
    }
}