{
    "active_lock_reason": null,
    "assignee": null,
    "assignees": [],
    "author_association": "MEMBER",
    "body": "https://github.com/PrismarineJS/prismarine-chunk/blob/0631db23c79f63d0bd37cb2764a9d6364c95688c/src/pc/common/CommonChunkSection.js#L108\r\n\r\nAnyone knows why we set the palette to null there ?",
    "closed_at": null,
    "comment_data": [
        {
            "author_association": "MEMBER",
            "body": "https://github.com/PrismarineJS/prismarine-chunk/blob/cee6b522d84c952d29aa68d32f8e012572f8749c/src/pc/1.14/ChunkColumn.js#L248 seems to mean global palette is used",
            "created_at": "2024-01-14T16:26:31Z",
            "html_url": "https://github.com/PrismarineJS/prismarine-chunk/issues/236#issuecomment-1890997604",
            "id": 1890997604,
            "issue_url": "https://api.github.com/repos/PrismarineJS/prismarine-chunk/issues/236",
            "node_id": "IC_kwDOAeJve85wtlVk",
            "performed_via_github_app": null,
            "reactions": {
                "+1": 0,
                "-1": 0,
                "confused": 0,
                "eyes": 0,
                "heart": 0,
                "hooray": 0,
                "laugh": 0,
                "rocket": 0,
                "total_count": 0,
                "url": "https://api.github.com/repos/PrismarineJS/prismarine-chunk/issues/comments/1890997604/reactions"
            },
            "updated_at": "2024-01-14T16:26:31Z",
            "url": "https://api.github.com/repos/PrismarineJS/prismarine-chunk/issues/comments/1890997604",
            "user": {
                "avatar_url": "https://avatars.githubusercontent.com/u/2346494?v=4",
                "events_url": "https://api.github.com/users/rom1504/events{/privacy}",
                "followers_url": "https://api.github.com/users/rom1504/followers",
                "following_url": "https://api.github.com/users/rom1504/following{/other_user}",
                "gists_url": "https://api.github.com/users/rom1504/gists{/gist_id}",
                "gravatar_id": "",
                "html_url": "https://github.com/rom1504",
                "id": 2346494,
                "login": "rom1504",
                "node_id": "MDQ6VXNlcjIzNDY0OTQ=",
                "organizations_url": "https://api.github.com/users/rom1504/orgs",
                "received_events_url": "https://api.github.com/users/rom1504/received_events",
                "repos_url": "https://api.github.com/users/rom1504/repos",
                "site_admin": false,
                "starred_url": "https://api.github.com/users/rom1504/starred{/owner}{/repo}",
                "subscriptions_url": "https://api.github.com/users/rom1504/subscriptions",
                "type": "User",
                "url": "https://api.github.com/users/rom1504"
            }
        }
    ],
    "comments": 1,
    "comments_url": "https://api.github.com/repos/PrismarineJS/prismarine-chunk/issues/236/comments",
    "created_at": "2024-01-12T20:35:14Z",
    "event_data": [],
    "events_url": "https://api.github.com/repos/PrismarineJS/prismarine-chunk/issues/236/events",
    "html_url": "https://github.com/PrismarineJS/prismarine-chunk/issues/236",
    "id": 2079670027,
    "labels": [],
    "labels_url": "https://api.github.com/repos/PrismarineJS/prismarine-chunk/issues/236/labels{/name}",
    "locked": false,
    "milestone": null,
    "node_id": "I_kwDOAeJve8579T8L",
    "number": 236,
    "performed_via_github_app": null,
    "reactions": {
        "+1": 0,
        "-1": 0,
        "confused": 0,
        "eyes": 0,
        "heart": 0,
        "hooray": 0,
        "laugh": 0,
        "rocket": 0,
        "total_count": 0,
        "url": "https://api.github.com/repos/PrismarineJS/prismarine-chunk/issues/236/reactions"
    },
    "repository_url": "https://api.github.com/repos/PrismarineJS/prismarine-chunk",
    "state": "open",
    "state_reason": null,
    "timeline_url": "https://api.github.com/repos/PrismarineJS/prismarine-chunk/issues/236/timeline",
    "title": "Palette set to null ?",
    "updated_at": "2024-01-14T16:26:33Z",
    "url": "https://api.github.com/repos/PrismarineJS/prismarine-chunk/issues/236",
    "user": {
        "avatar_url": "https://avatars.githubusercontent.com/u/2346494?v=4",
        "events_url": "https://api.github.com/users/rom1504/events{/privacy}",
        "followers_url": "https://api.github.com/users/rom1504/followers",
        "following_url": "https://api.github.com/users/rom1504/following{/other_user}",
        "gists_url": "https://api.github.com/users/rom1504/gists{/gist_id}",
        "gravatar_id": "",
        "html_url": "https://github.com/rom1504",
        "id": 2346494,
        "login": "rom1504",
        "node_id": "MDQ6VXNlcjIzNDY0OTQ=",
        "organizations_url": "https://api.github.com/users/rom1504/orgs",
        "received_events_url": "https://api.github.com/users/rom1504/received_events",
        "repos_url": "https://api.github.com/users/rom1504/repos",
        "site_admin": false,
        "starred_url": "https://api.github.com/users/rom1504/starred{/owner}{/repo}",
        "subscriptions_url": "https://api.github.com/users/rom1504/subscriptions",
        "type": "User",
        "url": "https://api.github.com/users/rom1504"
    }
}