{
    "active_lock_reason": null,
    "assignee": null,
    "assignees": [],
    "author_association": "MEMBER",
    "body": "That actually test something.\r\n\r\nSimple way to do this : \r\n1. get example chunk for each chunk version\r\n2. check all kind of data get/set at all kind of position",
    "closed_at": "2018-10-07T23:58:26Z",
    "comment_data": [
        {
            "author_association": "MEMBER",
            "body": "this is done by 819cd82352adbae99aeb9d98cf0949f2296eb6f0",
            "created_at": "2018-10-07T23:58:26Z",
            "html_url": "https://github.com/PrismarineJS/prismarine-chunk/issues/24#issuecomment-427697809",
            "id": 427697809,
            "issue_url": "https://api.github.com/repos/PrismarineJS/prismarine-chunk/issues/24",
            "node_id": "MDEyOklzc3VlQ29tbWVudDQyNzY5NzgwOQ==",
            "performed_via_github_app": null,
            "reactions": {
                "+1": 0,
                "-1": 0,
                "confused": 0,
                "eyes": 0,
                "heart": 0,
                "hooray": 0,
                "laugh": 0,
                "rocket": 0,
                "total_count": 0,
                "url": "https://api.github.com/repos/PrismarineJS/prismarine-chunk/issues/comments/427697809/reactions"
            },
            "updated_at": "2018-10-07T23:58:26Z",
            "url": "https://api.github.com/repos/PrismarineJS/prismarine-chunk/issues/comments/427697809",
            "user": {
                "avatar_url": "https://avatars.githubusercontent.com/u/2346494?v=4",
                "events_url": "https://api.github.com/users/rom1504/events{/privacy}",
                "followers_url": "https://api.github.com/users/rom1504/followers",
                "following_url": "https://api.github.com/users/rom1504/following{/other_user}",
                "gists_url": "https://api.github.com/users/rom1504/gists{/gist_id}",
                "gravatar_id": "",
                "html_url": "https://github.com/rom1504",
                "id": 2346494,
                "login": "rom1504",
                "node_id": "MDQ6VXNlcjIzNDY0OTQ=",
                "organizations_url": "https://api.github.com/users/rom1504/orgs",
                "received_events_url": "https://api.github.com/users/rom1504/received_events",
                "repos_url": "https://api.github.com/users/rom1504/repos",
                "site_admin": false,
                "starred_url": "https://api.github.com/users/rom1504/starred{/owner}{/repo}",
                "subscriptions_url": "https://api.github.com/users/rom1504/subscriptions",
                "type": "User",
                "url": "https://api.github.com/users/rom1504"
            }
        }
    ],
    "comments": 1,
    "comments_url": "https://api.github.com/repos/PrismarineJS/prismarine-chunk/issues/24/comments",
    "created_at": "2017-01-08T21:28:36Z",
    "event_data": [
        {
            "actor": {
                "avatar_url": "https://avatars.githubusercontent.com/u/1077050?v=4",
                "events_url": "https://api.github.com/users/dcbartlett/events{/privacy}",
                "followers_url": "https://api.github.com/users/dcbartlett/followers",
                "following_url": "https://api.github.com/users/dcbartlett/following{/other_user}",
                "gists_url": "https://api.github.com/users/dcbartlett/gists{/gist_id}",
                "gravatar_id": "",
                "html_url": "https://github.com/dcbartlett",
                "id": 1077050,
                "login": "dcbartlett",
                "node_id": "MDQ6VXNlcjEwNzcwNTA=",
                "organizations_url": "https://api.github.com/users/dcbartlett/orgs",
                "received_events_url": "https://api.github.com/users/dcbartlett/received_events",
                "repos_url": "https://api.github.com/users/dcbartlett/repos",
                "site_admin": false,
                "starred_url": "https://api.github.com/users/dcbartlett/starred{/owner}{/repo}",
                "subscriptions_url": "https://api.github.com/users/dcbartlett/subscriptions",
                "type": "User",
                "url": "https://api.github.com/users/dcbartlett"
            },
            "assignee": {
                "avatar_url": "https://avatars.githubusercontent.com/u/1077050?v=4",
                "events_url": "https://api.github.com/users/dcbartlett/events{/privacy}",
                "followers_url": "https://api.github.com/users/dcbartlett/followers",
                "following_url": "https://api.github.com/users/dcbartlett/following{/other_user}",
                "gists_url": "https://api.github.com/users/dcbartlett/gists{/gist_id}",
                "gravatar_id": "",
                "html_url": "https://github.com/dcbartlett",
                "id": 1077050,
                "login": "dcbartlett",
                "node_id": "MDQ6VXNlcjEwNzcwNTA=",
                "organizations_url": "https://api.github.com/users/dcbartlett/orgs",
                "received_events_url": "https://api.github.com/users/dcbartlett/received_events",
                "repos_url": "https://api.github.com/users/dcbartlett/repos",
                "site_admin": false,
                "starred_url": "https://api.github.com/users/dcbartlett/starred{/owner}{/repo}",
                "subscriptions_url": "https://api.github.com/users/dcbartlett/subscriptions",
                "type": "User",
                "url": "https://api.github.com/users/dcbartlett"
            },
            "assigner": {
                "avatar_url": "https://avatars.githubusercontent.com/u/1077050?v=4",
                "events_url": "https://api.github.com/users/dcbartlett/events{/privacy}",
                "followers_url": "https://api.github.com/users/dcbartlett/followers",
                "following_url": "https://api.github.com/users/dcbartlett/following{/other_user}",
                "gists_url": "https://api.github.com/users/dcbartlett/gists{/gist_id}",
                "gravatar_id": "",
                "html_url": "https://github.com/dcbartlett",
                "id": 1077050,
                "login": "dcbartlett",
                "node_id": "MDQ6VXNlcjEwNzcwNTA=",
                "organizations_url": "https://api.github.com/users/dcbartlett/orgs",
                "received_events_url": "https://api.github.com/users/dcbartlett/received_events",
                "repos_url": "https://api.github.com/users/dcbartlett/repos",
                "site_admin": false,
                "starred_url": "https://api.github.com/users/dcbartlett/starred{/owner}{/repo}",
                "subscriptions_url": "https://api.github.com/users/dcbartlett/subscriptions",
                "type": "User",
                "url": "https://api.github.com/users/dcbartlett"
            },
            "commit_id": null,
            "commit_url": null,
            "created_at": "2017-01-08T22:19:22Z",
            "event": "assigned",
            "id": 915362704,
            "node_id": "MDEzOkFzc2lnbmVkRXZlbnQ5MTUzNjI3MDQ=",
            "performed_via_github_app": null,
            "url": "https://api.github.com/repos/PrismarineJS/prismarine-chunk/issues/events/915362704"
        },
        {
            "actor": {
                "avatar_url": "https://avatars.githubusercontent.com/u/1077050?v=4",
                "events_url": "https://api.github.com/users/dcbartlett/events{/privacy}",
                "followers_url": "https://api.github.com/users/dcbartlett/followers",
                "following_url": "https://api.github.com/users/dcbartlett/following{/other_user}",
                "gists_url": "https://api.github.com/users/dcbartlett/gists{/gist_id}",
                "gravatar_id": "",
                "html_url": "https://github.com/dcbartlett",
                "id": 1077050,
                "login": "dcbartlett",
                "node_id": "MDQ6VXNlcjEwNzcwNTA=",
                "organizations_url": "https://api.github.com/users/dcbartlett/orgs",
                "received_events_url": "https://api.github.com/users/dcbartlett/received_events",
                "repos_url": "https://api.github.com/users/dcbartlett/repos",
                "site_admin": false,
                "starred_url": "https://api.github.com/users/dcbartlett/starred{/owner}{/repo}",
                "subscriptions_url": "https://api.github.com/users/dcbartlett/subscriptions",
                "type": "User",
                "url": "https://api.github.com/users/dcbartlett"
            },
            "assignee": {
                "avatar_url": "https://avatars.githubusercontent.com/u/1077050?v=4",
                "events_url": "https://api.github.com/users/dcbartlett/events{/privacy}",
                "followers_url": "https://api.github.com/users/dcbartlett/followers",
                "following_url": "https://api.github.com/users/dcbartlett/following{/other_user}",
                "gists_url": "https://api.github.com/users/dcbartlett/gists{/gist_id}",
                "gravatar_id": "",
                "html_url": "https://github.com/dcbartlett",
                "id": 1077050,
                "login": "dcbartlett",
                "node_id": "MDQ6VXNlcjEwNzcwNTA=",
                "organizations_url": "https://api.github.com/users/dcbartlett/orgs",
                "received_events_url": "https://api.github.com/users/dcbartlett/received_events",
                "repos_url": "https://api.github.com/users/dcbartlett/repos",
                "site_admin": false,
                "starred_url": "https://api.github.com/users/dcbartlett/starred{/owner}{/repo}",
                "subscriptions_url": "https://api.github.com/users/dcbartlett/subscriptions",
                "type": "User",
                "url": "https://api.github.com/users/dcbartlett"
            },
            "assigner": {
                "avatar_url": "https://avatars.githubusercontent.com/u/2346494?v=4",
                "events_url": "https://api.github.com/users/rom1504/events{/privacy}",
                "followers_url": "https://api.github.com/users/rom1504/followers",
                "following_url": "https://api.github.com/users/rom1504/following{/other_user}",
                "gists_url": "https://api.github.com/users/rom1504/gists{/gist_id}",
                "gravatar_id": "",
                "html_url": "https://github.com/rom1504",
                "id": 2346494,
                "login": "rom1504",
                "node_id": "MDQ6VXNlcjIzNDY0OTQ=",
                "organizations_url": "https://api.github.com/users/rom1504/orgs",
                "received_events_url": "https://api.github.com/users/rom1504/received_events",
                "repos_url": "https://api.github.com/users/rom1504/repos",
                "site_admin": false,
                "starred_url": "https://api.github.com/users/rom1504/starred{/owner}{/repo}",
                "subscriptions_url": "https://api.github.com/users/rom1504/subscriptions",
                "type": "User",
                "url": "https://api.github.com/users/rom1504"
            },
            "commit_id": null,
            "commit_url": null,
            "created_at": "2018-05-13T16:31:57Z",
            "event": "unassigned",
            "id": 1623617910,
            "node_id": "MDE1OlVuYXNzaWduZWRFdmVudDE2MjM2MTc5MTA=",
            "performed_via_github_app": null,
            "url": "https://api.github.com/repos/PrismarineJS/prismarine-chunk/issues/events/1623617910"
        },
        {
            "actor": {
                "avatar_url": "https://avatars.githubusercontent.com/u/1077050?v=4",
                "events_url": "https://api.github.com/users/dcbartlett/events{/privacy}",
                "followers_url": "https://api.github.com/users/dcbartlett/followers",
                "following_url": "https://api.github.com/users/dcbartlett/following{/other_user}",
                "gists_url": "https://api.github.com/users/dcbartlett/gists{/gist_id}",
                "gravatar_id": "",
                "html_url": "https://github.com/dcbartlett",
                "id": 1077050,
                "login": "dcbartlett",
                "node_id": "MDQ6VXNlcjEwNzcwNTA=",
                "organizations_url": "https://api.github.com/users/dcbartlett/orgs",
                "received_events_url": "https://api.github.com/users/dcbartlett/received_events",
                "repos_url": "https://api.github.com/users/dcbartlett/repos",
                "site_admin": false,
                "starred_url": "https://api.github.com/users/dcbartlett/starred{/owner}{/repo}",
                "subscriptions_url": "https://api.github.com/users/dcbartlett/subscriptions",
                "type": "User",
                "url": "https://api.github.com/users/dcbartlett"
            },
            "assignee": {
                "avatar_url": "https://avatars.githubusercontent.com/u/1077050?v=4",
                "events_url": "https://api.github.com/users/dcbartlett/events{/privacy}",
                "followers_url": "https://api.github.com/users/dcbartlett/followers",
                "following_url": "https://api.github.com/users/dcbartlett/following{/other_user}",
                "gists_url": "https://api.github.com/users/dcbartlett/gists{/gist_id}",
                "gravatar_id": "",
                "html_url": "https://github.com/dcbartlett",
                "id": 1077050,
                "login": "dcbartlett",
                "node_id": "MDQ6VXNlcjEwNzcwNTA=",
                "organizations_url": "https://api.github.com/users/dcbartlett/orgs",
                "received_events_url": "https://api.github.com/users/dcbartlett/received_events",
                "repos_url": "https://api.github.com/users/dcbartlett/repos",
                "site_admin": false,
                "starred_url": "https://api.github.com/users/dcbartlett/starred{/owner}{/repo}",
                "subscriptions_url": "https://api.github.com/users/dcbartlett/subscriptions",
                "type": "User",
                "url": "https://api.github.com/users/dcbartlett"
            },
            "assigner": {
                "avatar_url": "https://avatars.githubusercontent.com/u/2346494?v=4",
                "events_url": "https://api.github.com/users/rom1504/events{/privacy}",
                "followers_url": "https://api.github.com/users/rom1504/followers",
                "following_url": "https://api.github.com/users/rom1504/following{/other_user}",
                "gists_url": "https://api.github.com/users/rom1504/gists{/gist_id}",
                "gravatar_id": "",
                "html_url": "https://github.com/rom1504",
                "id": 2346494,
                "login": "rom1504",
                "node_id": "MDQ6VXNlcjIzNDY0OTQ=",
                "organizations_url": "https://api.github.com/users/rom1504/orgs",
                "received_events_url": "https://api.github.com/users/rom1504/received_events",
                "repos_url": "https://api.github.com/users/rom1504/repos",
                "site_admin": false,
                "starred_url": "https://api.github.com/users/rom1504/starred{/owner}{/repo}",
                "subscriptions_url": "https://api.github.com/users/rom1504/subscriptions",
                "type": "User",
                "url": "https://api.github.com/users/rom1504"
            },
            "commit_id": null,
            "commit_url": null,
            "created_at": "2018-05-13T16:31:57Z",
            "event": "unassigned",
            "id": 1623617912,
            "node_id": "MDE1OlVuYXNzaWduZWRFdmVudDE2MjM2MTc5MTI=",
            "performed_via_github_app": null,
            "url": "https://api.github.com/repos/PrismarineJS/prismarine-chunk/issues/events/1623617912"
        },
        {
            "actor": {
                "avatar_url": "https://avatars.githubusercontent.com/u/2346494?v=4",
                "events_url": "https://api.github.com/users/rom1504/events{/privacy}",
                "followers_url": "https://api.github.com/users/rom1504/followers",
                "following_url": "https://api.github.com/users/rom1504/following{/other_user}",
                "gists_url": "https://api.github.com/users/rom1504/gists{/gist_id}",
                "gravatar_id": "",
                "html_url": "https://github.com/rom1504",
                "id": 2346494,
                "login": "rom1504",
                "node_id": "MDQ6VXNlcjIzNDY0OTQ=",
                "organizations_url": "https://api.github.com/users/rom1504/orgs",
                "received_events_url": "https://api.github.com/users/rom1504/received_events",
                "repos_url": "https://api.github.com/users/rom1504/repos",
                "site_admin": false,
                "starred_url": "https://api.github.com/users/rom1504/starred{/owner}{/repo}",
                "subscriptions_url": "https://api.github.com/users/rom1504/subscriptions",
                "type": "User",
                "url": "https://api.github.com/users/rom1504"
            },
            "commit_id": null,
            "commit_url": null,
            "created_at": "2018-05-13T16:31:58Z",
            "event": "labeled",
            "id": 1623617909,
            "label": {
                "color": "84b6eb",
                "name": "enhancement"
            },
            "node_id": "MDEyOkxhYmVsZWRFdmVudDE2MjM2MTc5MDk=",
            "performed_via_github_app": null,
            "url": "https://api.github.com/repos/PrismarineJS/prismarine-chunk/issues/events/1623617909"
        },
        {
            "actor": {
                "avatar_url": "https://avatars.githubusercontent.com/u/2346494?v=4",
                "events_url": "https://api.github.com/users/rom1504/events{/privacy}",
                "followers_url": "https://api.github.com/users/rom1504/followers",
                "following_url": "https://api.github.com/users/rom1504/following{/other_user}",
                "gists_url": "https://api.github.com/users/rom1504/gists{/gist_id}",
                "gravatar_id": "",
                "html_url": "https://github.com/rom1504",
                "id": 2346494,
                "login": "rom1504",
                "node_id": "MDQ6VXNlcjIzNDY0OTQ=",
                "organizations_url": "https://api.github.com/users/rom1504/orgs",
                "received_events_url": "https://api.github.com/users/rom1504/received_events",
                "repos_url": "https://api.github.com/users/rom1504/repos",
                "site_admin": false,
                "starred_url": "https://api.github.com/users/rom1504/starred{/owner}{/repo}",
                "subscriptions_url": "https://api.github.com/users/rom1504/subscriptions",
                "type": "User",
                "url": "https://api.github.com/users/rom1504"
            },
            "commit_id": null,
            "commit_url": null,
            "created_at": "2018-10-07T23:58:26Z",
            "event": "closed",
            "id": 1889240462,
            "node_id": "MDExOkNsb3NlZEV2ZW50MTg4OTI0MDQ2Mg==",
            "performed_via_github_app": null,
            "state_reason": null,
            "url": "https://api.github.com/repos/PrismarineJS/prismarine-chunk/issues/events/1889240462"
        }
    ],
    "events_url": "https://api.github.com/repos/PrismarineJS/prismarine-chunk/issues/24/events",
    "html_url": "https://github.com/PrismarineJS/prismarine-chunk/issues/24",
    "id": 199448248,
    "labels": [
        {
            "color": "84b6eb",
            "default": true,
            "description": null,
            "id": 182889626,
            "name": "enhancement",
            "node_id": "MDU6TGFiZWwxODI4ODk2MjY=",
            "url": "https://api.github.com/repos/PrismarineJS/prismarine-chunk/labels/enhancement"
        }
    ],
    "labels_url": "https://api.github.com/repos/PrismarineJS/prismarine-chunk/issues/24/labels{/name}",
    "locked": false,
    "milestone": null,
    "node_id": "MDU6SXNzdWUxOTk0NDgyNDg=",
    "number": 24,
    "performed_via_github_app": null,
    "reactions": {
        "+1": 0,
        "-1": 0,
        "confused": 0,
        "eyes": 0,
        "heart": 0,
        "hooray": 0,
        "laugh": 0,
        "rocket": 0,
        "total_count": 0,
        "url": "https://api.github.com/repos/PrismarineJS/prismarine-chunk/issues/24/reactions"
    },
    "repository_url": "https://api.github.com/repos/PrismarineJS/prismarine-chunk",
    "state": "closed",
    "state_reason": "completed",
    "timeline_url": "https://api.github.com/repos/PrismarineJS/prismarine-chunk/issues/24/timeline",
    "title": "Have tests",
    "updated_at": "2018-10-07T23:58:26Z",
    "url": "https://api.github.com/repos/PrismarineJS/prismarine-chunk/issues/24",
    "user": {
        "avatar_url": "https://avatars.githubusercontent.com/u/2346494?v=4",
        "events_url": "https://api.github.com/users/rom1504/events{/privacy}",
        "followers_url": "https://api.github.com/users/rom1504/followers",
        "following_url": "https://api.github.com/users/rom1504/following{/other_user}",
        "gists_url": "https://api.github.com/users/rom1504/gists{/gist_id}",
        "gravatar_id": "",
        "html_url": "https://github.com/rom1504",
        "id": 2346494,
        "login": "rom1504",
        "node_id": "MDQ6VXNlcjIzNDY0OTQ=",
        "organizations_url": "https://api.github.com/users/rom1504/orgs",
        "received_events_url": "https://api.github.com/users/rom1504/received_events",
        "repos_url": "https://api.github.com/users/rom1504/repos",
        "site_admin": false,
        "starred_url": "https://api.github.com/users/rom1504/starred{/owner}{/repo}",
        "subscriptions_url": "https://api.github.com/users/rom1504/subscriptions",
        "type": "User",
        "url": "https://api.github.com/users/rom1504"
    }
}