{
    "active_lock_reason": null,
    "assignee": null,
    "assignees": [],
    "author_association": "NONE",
    "body": "Hello, while I am running server from [example folder](https://github.com/PrismarineJS/bedrock-protocol/blob/master/examples/server/basicServer.js) It doesn't work, it doesn't even show motd. What can I do?\r\nUsing latest (1.17.34) version of game",
    "closed_at": "2021-10-09T08:01:54Z",
    "comment_data": [
        {
            "author_association": "MEMBER",
            "body": "On what device? on windows see https://github.com/PrismarineJS/bedrock-protocol/blob/master/docs/FAQ.md",
            "created_at": "2021-10-09T07:43:12Z",
            "html_url": "https://github.com/PrismarineJS/bedrock-protocol/issues/145#issuecomment-939249297",
            "id": 939249297,
            "issue_url": "https://api.github.com/repos/PrismarineJS/bedrock-protocol/issues/145",
            "node_id": "IC_kwDOAxQ-8c43-86R",
            "performed_via_github_app": null,
            "reactions": {
                "+1": 0,
                "-1": 0,
                "confused": 0,
                "eyes": 0,
                "heart": 0,
                "hooray": 0,
                "laugh": 0,
                "rocket": 0,
                "total_count": 0,
                "url": "https://api.github.com/repos/PrismarineJS/bedrock-protocol/issues/comments/939249297/reactions"
            },
            "updated_at": "2021-10-09T07:43:12Z",
            "url": "https://api.github.com/repos/PrismarineJS/bedrock-protocol/issues/comments/939249297",
            "user": {
                "avatar_url": "https://avatars.githubusercontent.com/u/13713600?v=4",
                "events_url": "https://api.github.com/users/extremeheat/events{/privacy}",
                "followers_url": "https://api.github.com/users/extremeheat/followers",
                "following_url": "https://api.github.com/users/extremeheat/following{/other_user}",
                "gists_url": "https://api.github.com/users/extremeheat/gists{/gist_id}",
                "gravatar_id": "",
                "html_url": "https://github.com/extremeheat",
                "id": 13713600,
                "login": "extremeheat",
                "node_id": "MDQ6VXNlcjEzNzEzNjAw",
                "organizations_url": "https://api.github.com/users/extremeheat/orgs",
                "received_events_url": "https://api.github.com/users/extremeheat/received_events",
                "repos_url": "https://api.github.com/users/extremeheat/repos",
                "site_admin": false,
                "starred_url": "https://api.github.com/users/extremeheat/starred{/owner}{/repo}",
                "subscriptions_url": "https://api.github.com/users/extremeheat/subscriptions",
                "type": "User",
                "url": "https://api.github.com/users/extremeheat"
            }
        },
        {
            "author_association": "NONE",
            "body": "Thanks, it worked!",
            "created_at": "2021-10-09T08:02:02Z",
            "html_url": "https://github.com/PrismarineJS/bedrock-protocol/issues/145#issuecomment-939252052",
            "id": 939252052,
            "issue_url": "https://api.github.com/repos/PrismarineJS/bedrock-protocol/issues/145",
            "node_id": "IC_kwDOAxQ-8c43-9lU",
            "performed_via_github_app": null,
            "reactions": {
                "+1": 0,
                "-1": 0,
                "confused": 0,
                "eyes": 0,
                "heart": 0,
                "hooray": 0,
                "laugh": 0,
                "rocket": 0,
                "total_count": 0,
                "url": "https://api.github.com/repos/PrismarineJS/bedrock-protocol/issues/comments/939252052/reactions"
            },
            "updated_at": "2021-10-09T08:02:02Z",
            "url": "https://api.github.com/repos/PrismarineJS/bedrock-protocol/issues/comments/939252052",
            "user": {
                "avatar_url": "https://avatars.githubusercontent.com/u/47297843?v=4",
                "events_url": "https://api.github.com/users/kob-kuba/events{/privacy}",
                "followers_url": "https://api.github.com/users/kob-kuba/followers",
                "following_url": "https://api.github.com/users/kob-kuba/following{/other_user}",
                "gists_url": "https://api.github.com/users/kob-kuba/gists{/gist_id}",
                "gravatar_id": "",
                "html_url": "https://github.com/kob-kuba",
                "id": 47297843,
                "login": "kob-kuba",
                "node_id": "MDQ6VXNlcjQ3Mjk3ODQz",
                "organizations_url": "https://api.github.com/users/kob-kuba/orgs",
                "received_events_url": "https://api.github.com/users/kob-kuba/received_events",
                "repos_url": "https://api.github.com/users/kob-kuba/repos",
                "site_admin": false,
                "starred_url": "https://api.github.com/users/kob-kuba/starred{/owner}{/repo}",
                "subscriptions_url": "https://api.github.com/users/kob-kuba/subscriptions",
                "type": "User",
                "url": "https://api.github.com/users/kob-kuba"
            }
        }
    ],
    "comments": 2,
    "comments_url": "https://api.github.com/repos/PrismarineJS/bedrock-protocol/issues/145/comments",
    "created_at": "2021-10-09T07:22:53Z",
    "event_data": [
        {
            "actor": {
                "avatar_url": "https://avatars.githubusercontent.com/u/47297843?v=4",
                "events_url": "https://api.github.com/users/kob-kuba/events{/privacy}",
                "followers_url": "https://api.github.com/users/kob-kuba/followers",
                "following_url": "https://api.github.com/users/kob-kuba/following{/other_user}",
                "gists_url": "https://api.github.com/users/kob-kuba/gists{/gist_id}",
                "gravatar_id": "",
                "html_url": "https://github.com/kob-kuba",
                "id": 47297843,
                "login": "kob-kuba",
                "node_id": "MDQ6VXNlcjQ3Mjk3ODQz",
                "organizations_url": "https://api.github.com/users/kob-kuba/orgs",
                "received_events_url": "https://api.github.com/users/kob-kuba/received_events",
                "repos_url": "https://api.github.com/users/kob-kuba/repos",
                "site_admin": false,
                "starred_url": "https://api.github.com/users/kob-kuba/starred{/owner}{/repo}",
                "subscriptions_url": "https://api.github.com/users/kob-kuba/subscriptions",
                "type": "User",
                "url": "https://api.github.com/users/kob-kuba"
            },
            "commit_id": null,
            "commit_url": null,
            "created_at": "2021-10-09T08:01:54Z",
            "event": "closed",
            "id": 5437814254,
            "node_id": "CE_lADOAxQ-8c485Nx5zwAAAAFEHnXu",
            "performed_via_github_app": null,
            "state_reason": null,
            "url": "https://api.github.com/repos/PrismarineJS/bedrock-protocol/issues/events/5437814254"
        },
        {
            "actor": {
                "avatar_url": "https://avatars.githubusercontent.com/u/47297843?v=4",
                "events_url": "https://api.github.com/users/kob-kuba/events{/privacy}",
                "followers_url": "https://api.github.com/users/kob-kuba/followers",
                "following_url": "https://api.github.com/users/kob-kuba/following{/other_user}",
                "gists_url": "https://api.github.com/users/kob-kuba/gists{/gist_id}",
                "gravatar_id": "",
                "html_url": "https://github.com/kob-kuba",
                "id": 47297843,
                "login": "kob-kuba",
                "node_id": "MDQ6VXNlcjQ3Mjk3ODQz",
                "organizations_url": "https://api.github.com/users/kob-kuba/orgs",
                "received_events_url": "https://api.github.com/users/kob-kuba/received_events",
                "repos_url": "https://api.github.com/users/kob-kuba/repos",
                "site_admin": false,
                "starred_url": "https://api.github.com/users/kob-kuba/starred{/owner}{/repo}",
                "subscriptions_url": "https://api.github.com/users/kob-kuba/subscriptions",
                "type": "User",
                "url": "https://api.github.com/users/kob-kuba"
            },
            "commit_id": null,
            "commit_url": null,
            "created_at": "2022-05-09T23:09:19Z",
            "event": "renamed",
            "id": 6576806868,
            "node_id": "RTE_lADOAxQ-8c485Nx5zwAAAAGIAhvU",
            "performed_via_github_app": null,
            "rename": {
                "from": "Servers doesn't run",
                "to": "Servers don't run"
            },
            "url": "https://api.github.com/repos/PrismarineJS/bedrock-protocol/issues/events/6576806868"
        }
    ],
    "events_url": "https://api.github.com/repos/PrismarineJS/bedrock-protocol/issues/145/events",
    "html_url": "https://github.com/PrismarineJS/bedrock-protocol/issues/145",
    "id": 1021631609,
    "labels": [],
    "labels_url": "https://api.github.com/repos/PrismarineJS/bedrock-protocol/issues/145/labels{/name}",
    "locked": false,
    "milestone": null,
    "node_id": "I_kwDOAxQ-8c485Nx5",
    "number": 145,
    "performed_via_github_app": null,
    "reactions": {
        "+1": 0,
        "-1": 0,
        "confused": 0,
        "eyes": 0,
        "heart": 0,
        "hooray": 0,
        "laugh": 0,
        "rocket": 0,
        "total_count": 0,
        "url": "https://api.github.com/repos/PrismarineJS/bedrock-protocol/issues/145/reactions"
    },
    "repository_url": "https://api.github.com/repos/PrismarineJS/bedrock-protocol",
    "state": "closed",
    "state_reason": "completed",
    "timeline_url": "https://api.github.com/repos/PrismarineJS/bedrock-protocol/issues/145/timeline",
    "title": "Servers don't run",
    "updated_at": "2022-05-09T23:09:19Z",
    "url": "https://api.github.com/repos/PrismarineJS/bedrock-protocol/issues/145",
    "user": {
        "avatar_url": "https://avatars.githubusercontent.com/u/47297843?v=4",
        "events_url": "https://api.github.com/users/kob-kuba/events{/privacy}",
        "followers_url": "https://api.github.com/users/kob-kuba/followers",
        "following_url": "https://api.github.com/users/kob-kuba/following{/other_user}",
        "gists_url": "https://api.github.com/users/kob-kuba/gists{/gist_id}",
        "gravatar_id": "",
        "html_url": "https://github.com/kob-kuba",
        "id": 47297843,
        "login": "kob-kuba",
        "node_id": "MDQ6VXNlcjQ3Mjk3ODQz",
        "organizations_url": "https://api.github.com/users/kob-kuba/orgs",
        "received_events_url": "https://api.github.com/users/kob-kuba/received_events",
        "repos_url": "https://api.github.com/users/kob-kuba/repos",
        "site_admin": false,
        "starred_url": "https://api.github.com/users/kob-kuba/starred{/owner}{/repo}",
        "subscriptions_url": "https://api.github.com/users/kob-kuba/subscriptions",
        "type": "User",
        "url": "https://api.github.com/users/kob-kuba"
    }
}