{
    "active_lock_reason": null,
    "assignee": null,
    "assignees": [],
    "author_association": "NONE",
    "body": "\nA new Minecraft Bedrock version is available (as of Mon, 06 Dec 2021 16:28:23 GMT), version **1.18.1**\n\n## Official Changelog\n* What's new in 1.18.1:\nVarious bug fixes. *(via App Store)*\n* https://feedback.minecraft.net/hc/en-us/sections/360001186971-Release-Changelogs\n\n## 3rd party protocol patches\n### PocketMine\n\n**[See the diff between *2021-12-06T16:28:23Z* and now](https://github.com/pmmp/PocketMine-MP/compare/6e4b73c1835474d20241e45f56a598168697961b..3d9e19546fadc0dbcd834a8bf7b67ab7f65e2019)**\n### gophertunnel\n\n(No changes so far)\n### CloudburstMC\n\n(No changes so far)\n\n\n## Protocol Details\n(I will close this issue automatically if \"1.18.1\" is added to index.d.ts on \"master\" and there are no X's below)\n<table>\n  <tr><td><b>Name</b></td><td>1.18.1</td>\n  <tr><td><b>Protocol ID</b></td><td>?</td>\n  <!-- TODO ... automatically fetch server, test and grab relevant information and dump\n  <tr><td><b>Partly Already Compatible</b></td><td></td>\n  <tr><td><b>Protocol Dumpers Work</b></td><td></td>\n  -->\n</table>\n\n-----\n\n🤖 I am a bot, I check for updates every 2 hours without a trigger. You can close this issue to prevent any further updates.\n    ",
    "closed_at": "2021-12-08T06:16:03Z",
    "comment_data": [
        {
            "author_association": "NONE",
            "body": "Closing as 1.18.1 is now supported",
            "created_at": "2021-12-08T06:16:03Z",
            "html_url": "https://github.com/PrismarineJS/bedrock-protocol/issues/159#issuecomment-988531666",
            "id": 988531666,
            "issue_url": "https://api.github.com/repos/PrismarineJS/bedrock-protocol/issues/159",
            "node_id": "IC_kwDOAxQ-8c4668vS",
            "performed_via_github_app": null,
            "reactions": {
                "+1": 0,
                "-1": 0,
                "confused": 0,
                "eyes": 0,
                "heart": 0,
                "hooray": 0,
                "laugh": 0,
                "rocket": 0,
                "total_count": 0,
                "url": "https://api.github.com/repos/PrismarineJS/bedrock-protocol/issues/comments/988531666/reactions"
            },
            "updated_at": "2021-12-08T06:16:03Z",
            "url": "https://api.github.com/repos/PrismarineJS/bedrock-protocol/issues/comments/988531666",
            "user": {
                "avatar_url": "https://avatars.githubusercontent.com/in/15368?v=4",
                "events_url": "https://api.github.com/users/github-actions%5Bbot%5D/events{/privacy}",
                "followers_url": "https://api.github.com/users/github-actions%5Bbot%5D/followers",
                "following_url": "https://api.github.com/users/github-actions%5Bbot%5D/following{/other_user}",
                "gists_url": "https://api.github.com/users/github-actions%5Bbot%5D/gists{/gist_id}",
                "gravatar_id": "",
                "html_url": "https://github.com/apps/github-actions",
                "id": 41898282,
                "login": "github-actions[bot]",
                "node_id": "MDM6Qm90NDE4OTgyODI=",
                "organizations_url": "https://api.github.com/users/github-actions%5Bbot%5D/orgs",
                "received_events_url": "https://api.github.com/users/github-actions%5Bbot%5D/received_events",
                "repos_url": "https://api.github.com/users/github-actions%5Bbot%5D/repos",
                "site_admin": false,
                "starred_url": "https://api.github.com/users/github-actions%5Bbot%5D/starred{/owner}{/repo}",
                "subscriptions_url": "https://api.github.com/users/github-actions%5Bbot%5D/subscriptions",
                "type": "Bot",
                "url": "https://api.github.com/users/github-actions%5Bbot%5D"
            }
        }
    ],
    "comments": 1,
    "comments_url": "https://api.github.com/repos/PrismarineJS/bedrock-protocol/issues/159/comments",
    "created_at": "2021-12-06T20:14:30Z",
    "event_data": [
        {
            "actor": {
                "avatar_url": "https://avatars.githubusercontent.com/in/15368?v=4",
                "events_url": "https://api.github.com/users/github-actions%5Bbot%5D/events{/privacy}",
                "followers_url": "https://api.github.com/users/github-actions%5Bbot%5D/followers",
                "following_url": "https://api.github.com/users/github-actions%5Bbot%5D/following{/other_user}",
                "gists_url": "https://api.github.com/users/github-actions%5Bbot%5D/gists{/gist_id}",
                "gravatar_id": "",
                "html_url": "https://github.com/apps/github-actions",
                "id": 41898282,
                "login": "github-actions[bot]",
                "node_id": "MDM6Qm90NDE4OTgyODI=",
                "organizations_url": "https://api.github.com/users/github-actions%5Bbot%5D/orgs",
                "received_events_url": "https://api.github.com/users/github-actions%5Bbot%5D/received_events",
                "repos_url": "https://api.github.com/users/github-actions%5Bbot%5D/repos",
                "site_admin": false,
                "starred_url": "https://api.github.com/users/github-actions%5Bbot%5D/starred{/owner}{/repo}",
                "subscriptions_url": "https://api.github.com/users/github-actions%5Bbot%5D/subscriptions",
                "type": "Bot",
                "url": "https://api.github.com/users/github-actions%5Bbot%5D"
            },
            "commit_id": null,
            "commit_url": null,
            "created_at": "2021-12-08T06:16:04Z",
            "event": "closed",
            "id": 5731707858,
            "node_id": "CE_lADOAxQ-8c4_7hotzwAAAAFVouvS",
            "performed_via_github_app": null,
            "state_reason": null,
            "url": "https://api.github.com/repos/PrismarineJS/bedrock-protocol/issues/events/5731707858"
        }
    ],
    "events_url": "https://api.github.com/repos/PrismarineJS/bedrock-protocol/issues/159/events",
    "html_url": "https://github.com/PrismarineJS/bedrock-protocol/issues/159",
    "id": 1072568877,
    "labels": [],
    "labels_url": "https://api.github.com/repos/PrismarineJS/bedrock-protocol/issues/159/labels{/name}",
    "locked": false,
    "milestone": null,
    "node_id": "I_kwDOAxQ-8c4_7hot",
    "number": 159,
    "performed_via_github_app": null,
    "reactions": {
        "+1": 0,
        "-1": 0,
        "confused": 0,
        "eyes": 0,
        "heart": 0,
        "hooray": 0,
        "laugh": 0,
        "rocket": 0,
        "total_count": 0,
        "url": "https://api.github.com/repos/PrismarineJS/bedrock-protocol/issues/159/reactions"
    },
    "repository_url": "https://api.github.com/repos/PrismarineJS/bedrock-protocol",
    "state": "closed",
    "state_reason": "completed",
    "timeline_url": "https://api.github.com/repos/PrismarineJS/bedrock-protocol/issues/159/timeline",
    "title": "Support Minecraft 1.18.1",
    "updated_at": "2021-12-08T06:16:03Z",
    "url": "https://api.github.com/repos/PrismarineJS/bedrock-protocol/issues/159",
    "user": {
        "avatar_url": "https://avatars.githubusercontent.com/in/15368?v=4",
        "events_url": "https://api.github.com/users/github-actions%5Bbot%5D/events{/privacy}",
        "followers_url": "https://api.github.com/users/github-actions%5Bbot%5D/followers",
        "following_url": "https://api.github.com/users/github-actions%5Bbot%5D/following{/other_user}",
        "gists_url": "https://api.github.com/users/github-actions%5Bbot%5D/gists{/gist_id}",
        "gravatar_id": "",
        "html_url": "https://github.com/apps/github-actions",
        "id": 41898282,
        "login": "github-actions[bot]",
        "node_id": "MDM6Qm90NDE4OTgyODI=",
        "organizations_url": "https://api.github.com/users/github-actions%5Bbot%5D/orgs",
        "received_events_url": "https://api.github.com/users/github-actions%5Bbot%5D/received_events",
        "repos_url": "https://api.github.com/users/github-actions%5Bbot%5D/repos",
        "site_admin": false,
        "starred_url": "https://api.github.com/users/github-actions%5Bbot%5D/starred{/owner}{/repo}",
        "subscriptions_url": "https://api.github.com/users/github-actions%5Bbot%5D/subscriptions",
        "type": "Bot",
        "url": "https://api.github.com/users/github-actions%5Bbot%5D"
    }
}