{
    "active_lock_reason": null,
    "assignee": null,
    "assignees": [],
    "author_association": "NONE",
    "body": "Hi! There are a couple of questions:\r\n\r\n1) Is it possible to create a bot that can walk on coordinates?\r\n\r\n2) Can I replace the name of the bot device? Usually writes Windows 10, I want something of my own. I have seen many places that this can be changed.",
    "closed_at": "2022-06-07T14:13:09Z",
    "comment_data": [
        {
            "author_association": "MEMBER",
            "body": "1. Yes - but without mineflayer, this will be complex as you need to write your own movement code & logic. #116 \r\n2. In offline mode, yes, you can change username with \"username\" option. In online mode, the username is always the Xbox gamertag.",
            "created_at": "2022-06-05T07:31:58Z",
            "html_url": "https://github.com/PrismarineJS/bedrock-protocol/issues/219#issuecomment-1146756651",
            "id": 1146756651,
            "issue_url": "https://api.github.com/repos/PrismarineJS/bedrock-protocol/issues/219",
            "node_id": "IC_kwDOAxQ-8c5EWh4r",
            "performed_via_github_app": null,
            "reactions": {
                "+1": 0,
                "-1": 0,
                "confused": 0,
                "eyes": 0,
                "heart": 0,
                "hooray": 0,
                "laugh": 0,
                "rocket": 0,
                "total_count": 0,
                "url": "https://api.github.com/repos/PrismarineJS/bedrock-protocol/issues/comments/1146756651/reactions"
            },
            "updated_at": "2022-06-05T07:31:58Z",
            "url": "https://api.github.com/repos/PrismarineJS/bedrock-protocol/issues/comments/1146756651",
            "user": {
                "avatar_url": "https://avatars.githubusercontent.com/u/13713600?v=4",
                "events_url": "https://api.github.com/users/extremeheat/events{/privacy}",
                "followers_url": "https://api.github.com/users/extremeheat/followers",
                "following_url": "https://api.github.com/users/extremeheat/following{/other_user}",
                "gists_url": "https://api.github.com/users/extremeheat/gists{/gist_id}",
                "gravatar_id": "",
                "html_url": "https://github.com/extremeheat",
                "id": 13713600,
                "login": "extremeheat",
                "node_id": "MDQ6VXNlcjEzNzEzNjAw",
                "organizations_url": "https://api.github.com/users/extremeheat/orgs",
                "received_events_url": "https://api.github.com/users/extremeheat/received_events",
                "repos_url": "https://api.github.com/users/extremeheat/repos",
                "site_admin": false,
                "starred_url": "https://api.github.com/users/extremeheat/starred{/owner}{/repo}",
                "subscriptions_url": "https://api.github.com/users/extremeheat/subscriptions",
                "type": "User",
                "url": "https://api.github.com/users/extremeheat"
            }
        },
        {
            "author_association": "NONE",
            "body": "Not an alias, but the name of the device.\r\n\r\nWas WIN10, will become with IOS\r\n![image](https://user-images.githubusercontent.com/28644006/172046320-59c1a8b5-211a-4fc5-a40e-bb08a1686438.png)\r\n",
            "created_at": "2022-06-05T10:31:36Z",
            "html_url": "https://github.com/PrismarineJS/bedrock-protocol/issues/219#issuecomment-1146780405",
            "id": 1146780405,
            "issue_url": "https://api.github.com/repos/PrismarineJS/bedrock-protocol/issues/219",
            "node_id": "IC_kwDOAxQ-8c5EWnr1",
            "performed_via_github_app": null,
            "reactions": {
                "+1": 0,
                "-1": 0,
                "confused": 0,
                "eyes": 0,
                "heart": 0,
                "hooray": 0,
                "laugh": 0,
                "rocket": 0,
                "total_count": 0,
                "url": "https://api.github.com/repos/PrismarineJS/bedrock-protocol/issues/comments/1146780405/reactions"
            },
            "updated_at": "2022-06-07T03:53:04Z",
            "url": "https://api.github.com/repos/PrismarineJS/bedrock-protocol/issues/comments/1146780405",
            "user": {
                "avatar_url": "https://avatars.githubusercontent.com/u/28644006?v=4",
                "events_url": "https://api.github.com/users/frizib/events{/privacy}",
                "followers_url": "https://api.github.com/users/frizib/followers",
                "following_url": "https://api.github.com/users/frizib/following{/other_user}",
                "gists_url": "https://api.github.com/users/frizib/gists{/gist_id}",
                "gravatar_id": "",
                "html_url": "https://github.com/frizib",
                "id": 28644006,
                "login": "frizib",
                "node_id": "MDQ6VXNlcjI4NjQ0MDA2",
                "organizations_url": "https://api.github.com/users/frizib/orgs",
                "received_events_url": "https://api.github.com/users/frizib/received_events",
                "repos_url": "https://api.github.com/users/frizib/repos",
                "site_admin": false,
                "starred_url": "https://api.github.com/users/frizib/starred{/owner}{/repo}",
                "subscriptions_url": "https://api.github.com/users/frizib/subscriptions",
                "type": "User",
                "url": "https://api.github.com/users/frizib"
            }
        },
        {
            "author_association": "NONE",
            "body": "Is there a code example using \"mineflayer\"?\r\n\r\nThe essence of the connection is clear, but I don't understand how to make the code without errors:(",
            "created_at": "2022-06-07T04:34:17Z",
            "html_url": "https://github.com/PrismarineJS/bedrock-protocol/issues/219#issuecomment-1148185330",
            "id": 1148185330,
            "issue_url": "https://api.github.com/repos/PrismarineJS/bedrock-protocol/issues/219",
            "node_id": "IC_kwDOAxQ-8c5Eb-ry",
            "performed_via_github_app": null,
            "reactions": {
                "+1": 0,
                "-1": 0,
                "confused": 0,
                "eyes": 0,
                "heart": 0,
                "hooray": 0,
                "laugh": 0,
                "rocket": 0,
                "total_count": 0,
                "url": "https://api.github.com/repos/PrismarineJS/bedrock-protocol/issues/comments/1148185330/reactions"
            },
            "updated_at": "2022-06-07T04:34:17Z",
            "url": "https://api.github.com/repos/PrismarineJS/bedrock-protocol/issues/comments/1148185330",
            "user": {
                "avatar_url": "https://avatars.githubusercontent.com/u/52866621?v=4",
                "events_url": "https://api.github.com/users/Sasha20028/events{/privacy}",
                "followers_url": "https://api.github.com/users/Sasha20028/followers",
                "following_url": "https://api.github.com/users/Sasha20028/following{/other_user}",
                "gists_url": "https://api.github.com/users/Sasha20028/gists{/gist_id}",
                "gravatar_id": "",
                "html_url": "https://github.com/Sasha20028",
                "id": 52866621,
                "login": "Sasha20028",
                "node_id": "MDQ6VXNlcjUyODY2NjIx",
                "organizations_url": "https://api.github.com/users/Sasha20028/orgs",
                "received_events_url": "https://api.github.com/users/Sasha20028/received_events",
                "repos_url": "https://api.github.com/users/Sasha20028/repos",
                "site_admin": false,
                "starred_url": "https://api.github.com/users/Sasha20028/starred{/owner}{/repo}",
                "subscriptions_url": "https://api.github.com/users/Sasha20028/subscriptions",
                "type": "User",
                "url": "https://api.github.com/users/Sasha20028"
            }
        },
        {
            "author_association": "NONE",
            "body": "Changing the \"AuthTitle\" did not help to remove the Windows 10 label.\r\n![image](https://user-images.githubusercontent.com/52866621/172349531-c2a49cbd-ed65-495c-9445-c001d18553bf.png)\r\n",
            "created_at": "2022-06-07T09:35:31Z",
            "html_url": "https://github.com/PrismarineJS/bedrock-protocol/issues/219#issuecomment-1148433290",
            "id": 1148433290,
            "issue_url": "https://api.github.com/repos/PrismarineJS/bedrock-protocol/issues/219",
            "node_id": "IC_kwDOAxQ-8c5Ec7OK",
            "performed_via_github_app": null,
            "reactions": {
                "+1": 0,
                "-1": 0,
                "confused": 0,
                "eyes": 0,
                "heart": 0,
                "hooray": 0,
                "laugh": 0,
                "rocket": 0,
                "total_count": 0,
                "url": "https://api.github.com/repos/PrismarineJS/bedrock-protocol/issues/comments/1148433290/reactions"
            },
            "updated_at": "2022-06-07T09:42:51Z",
            "url": "https://api.github.com/repos/PrismarineJS/bedrock-protocol/issues/comments/1148433290",
            "user": {
                "avatar_url": "https://avatars.githubusercontent.com/u/52866621?v=4",
                "events_url": "https://api.github.com/users/Sasha20028/events{/privacy}",
                "followers_url": "https://api.github.com/users/Sasha20028/followers",
                "following_url": "https://api.github.com/users/Sasha20028/following{/other_user}",
                "gists_url": "https://api.github.com/users/Sasha20028/gists{/gist_id}",
                "gravatar_id": "",
                "html_url": "https://github.com/Sasha20028",
                "id": 52866621,
                "login": "Sasha20028",
                "node_id": "MDQ6VXNlcjUyODY2NjIx",
                "organizations_url": "https://api.github.com/users/Sasha20028/orgs",
                "received_events_url": "https://api.github.com/users/Sasha20028/received_events",
                "repos_url": "https://api.github.com/users/Sasha20028/repos",
                "site_admin": false,
                "starred_url": "https://api.github.com/users/Sasha20028/starred{/owner}{/repo}",
                "subscriptions_url": "https://api.github.com/users/Sasha20028/subscriptions",
                "type": "User",
                "url": "https://api.github.com/users/Sasha20028"
            }
        },
        {
            "author_association": "CONTRIBUTOR",
            "body": "You'd need to modify the `DeviceOS` in the payload found here. https://github.com/PrismarineJS/bedrock-protocol/blob/52156a002473b9752e97bd13bf15a18645256667/src/handshake/login.js#L46\r\nPossible values:\r\n```json\r\n{\r\n  \"0\": \"Undefined\",\r\n  \"1\": \"Android\",\r\n  \"2\": \"IOS\",\r\n  \"3\": \"OSX\",\r\n  \"4\": \"FireOS\",\r\n  \"5\": \"GearVR\",\r\n  \"6\": \"Hololens\",\r\n  \"7\": \"Win10\",\r\n  \"8\": \"Win32\",\r\n  \"9\": \"Dedicated\",\r\n  \"10\": \"TVOS\",\r\n  \"11\": \"Orbis\",\r\n  \"12\": \"NintendoSwitch\",\r\n  \"13\": \"Xbox\",\r\n  \"14\": \"WindowsPhone\"\r\n}\r\n```\r\n\r\n```js\r\nconst client = createClient(...)\r\n\r\nclient.session = {\r\n  deviceOS: /* 1-14 */\r\n}\r\n```",
            "created_at": "2022-06-07T10:28:44Z",
            "html_url": "https://github.com/PrismarineJS/bedrock-protocol/issues/219#issuecomment-1148486243",
            "id": 1148486243,
            "issue_url": "https://api.github.com/repos/PrismarineJS/bedrock-protocol/issues/219",
            "node_id": "IC_kwDOAxQ-8c5EdIJj",
            "performed_via_github_app": null,
            "reactions": {
                "+1": 0,
                "-1": 0,
                "confused": 0,
                "eyes": 0,
                "heart": 2,
                "hooray": 0,
                "laugh": 0,
                "rocket": 0,
                "total_count": 2,
                "url": "https://api.github.com/repos/PrismarineJS/bedrock-protocol/issues/comments/1148486243/reactions"
            },
            "updated_at": "2022-06-07T10:28:44Z",
            "url": "https://api.github.com/repos/PrismarineJS/bedrock-protocol/issues/comments/1148486243",
            "user": {
                "avatar_url": "https://avatars.githubusercontent.com/u/66429271?v=4",
                "events_url": "https://api.github.com/users/LucienHH/events{/privacy}",
                "followers_url": "https://api.github.com/users/LucienHH/followers",
                "following_url": "https://api.github.com/users/LucienHH/following{/other_user}",
                "gists_url": "https://api.github.com/users/LucienHH/gists{/gist_id}",
                "gravatar_id": "",
                "html_url": "https://github.com/LucienHH",
                "id": 66429271,
                "login": "LucienHH",
                "node_id": "MDQ6VXNlcjY2NDI5Mjcx",
                "organizations_url": "https://api.github.com/users/LucienHH/orgs",
                "received_events_url": "https://api.github.com/users/LucienHH/received_events",
                "repos_url": "https://api.github.com/users/LucienHH/repos",
                "site_admin": false,
                "starred_url": "https://api.github.com/users/LucienHH/starred{/owner}{/repo}",
                "subscriptions_url": "https://api.github.com/users/LucienHH/subscriptions",
                "type": "User",
                "url": "https://api.github.com/users/LucienHH"
            }
        },
        {
            "author_association": "NONE",
            "body": "Can you help with 1 question?\r\nExample of moving by coordinates.",
            "created_at": "2022-06-07T11:32:53Z",
            "html_url": "https://github.com/PrismarineJS/bedrock-protocol/issues/219#issuecomment-1148544297",
            "id": 1148544297,
            "issue_url": "https://api.github.com/repos/PrismarineJS/bedrock-protocol/issues/219",
            "node_id": "IC_kwDOAxQ-8c5EdWUp",
            "performed_via_github_app": null,
            "reactions": {
                "+1": 0,
                "-1": 0,
                "confused": 0,
                "eyes": 0,
                "heart": 0,
                "hooray": 0,
                "laugh": 0,
                "rocket": 0,
                "total_count": 0,
                "url": "https://api.github.com/repos/PrismarineJS/bedrock-protocol/issues/comments/1148544297/reactions"
            },
            "updated_at": "2022-06-07T11:32:53Z",
            "url": "https://api.github.com/repos/PrismarineJS/bedrock-protocol/issues/comments/1148544297",
            "user": {
                "avatar_url": "https://avatars.githubusercontent.com/u/52866621?v=4",
                "events_url": "https://api.github.com/users/Sasha20028/events{/privacy}",
                "followers_url": "https://api.github.com/users/Sasha20028/followers",
                "following_url": "https://api.github.com/users/Sasha20028/following{/other_user}",
                "gists_url": "https://api.github.com/users/Sasha20028/gists{/gist_id}",
                "gravatar_id": "",
                "html_url": "https://github.com/Sasha20028",
                "id": 52866621,
                "login": "Sasha20028",
                "node_id": "MDQ6VXNlcjUyODY2NjIx",
                "organizations_url": "https://api.github.com/users/Sasha20028/orgs",
                "received_events_url": "https://api.github.com/users/Sasha20028/received_events",
                "repos_url": "https://api.github.com/users/Sasha20028/repos",
                "site_admin": false,
                "starred_url": "https://api.github.com/users/Sasha20028/starred{/owner}{/repo}",
                "subscriptions_url": "https://api.github.com/users/Sasha20028/subscriptions",
                "type": "User",
                "url": "https://api.github.com/users/Sasha20028"
            }
        },
        {
            "author_association": "CONTRIBUTOR",
            "body": "As extremeheat mentioned you can move the client but it's a very complex task that will be much simpler to execute once Mineflayer integration is complete. You can check the progress here #116 ",
            "created_at": "2022-06-07T13:45:21Z",
            "html_url": "https://github.com/PrismarineJS/bedrock-protocol/issues/219#issuecomment-1148698538",
            "id": 1148698538,
            "issue_url": "https://api.github.com/repos/PrismarineJS/bedrock-protocol/issues/219",
            "node_id": "IC_kwDOAxQ-8c5Ed7-q",
            "performed_via_github_app": null,
            "reactions": {
                "+1": 0,
                "-1": 0,
                "confused": 0,
                "eyes": 0,
                "heart": 0,
                "hooray": 0,
                "laugh": 0,
                "rocket": 0,
                "total_count": 0,
                "url": "https://api.github.com/repos/PrismarineJS/bedrock-protocol/issues/comments/1148698538/reactions"
            },
            "updated_at": "2022-06-07T13:46:32Z",
            "url": "https://api.github.com/repos/PrismarineJS/bedrock-protocol/issues/comments/1148698538",
            "user": {
                "avatar_url": "https://avatars.githubusercontent.com/u/66429271?v=4",
                "events_url": "https://api.github.com/users/LucienHH/events{/privacy}",
                "followers_url": "https://api.github.com/users/LucienHH/followers",
                "following_url": "https://api.github.com/users/LucienHH/following{/other_user}",
                "gists_url": "https://api.github.com/users/LucienHH/gists{/gist_id}",
                "gravatar_id": "",
                "html_url": "https://github.com/LucienHH",
                "id": 66429271,
                "login": "LucienHH",
                "node_id": "MDQ6VXNlcjY2NDI5Mjcx",
                "organizations_url": "https://api.github.com/users/LucienHH/orgs",
                "received_events_url": "https://api.github.com/users/LucienHH/received_events",
                "repos_url": "https://api.github.com/users/LucienHH/repos",
                "site_admin": false,
                "starred_url": "https://api.github.com/users/LucienHH/starred{/owner}{/repo}",
                "subscriptions_url": "https://api.github.com/users/LucienHH/subscriptions",
                "type": "User",
                "url": "https://api.github.com/users/LucienHH"
            }
        },
        {
            "author_association": "NONE",
            "body": "OK, thanks",
            "created_at": "2022-06-07T14:13:09Z",
            "html_url": "https://github.com/PrismarineJS/bedrock-protocol/issues/219#issuecomment-1148733136",
            "id": 1148733136,
            "issue_url": "https://api.github.com/repos/PrismarineJS/bedrock-protocol/issues/219",
            "node_id": "IC_kwDOAxQ-8c5EeEbQ",
            "performed_via_github_app": null,
            "reactions": {
                "+1": 0,
                "-1": 0,
                "confused": 0,
                "eyes": 0,
                "heart": 0,
                "hooray": 0,
                "laugh": 0,
                "rocket": 0,
                "total_count": 0,
                "url": "https://api.github.com/repos/PrismarineJS/bedrock-protocol/issues/comments/1148733136/reactions"
            },
            "updated_at": "2022-06-07T14:13:09Z",
            "url": "https://api.github.com/repos/PrismarineJS/bedrock-protocol/issues/comments/1148733136",
            "user": {
                "avatar_url": "https://avatars.githubusercontent.com/u/52866621?v=4",
                "events_url": "https://api.github.com/users/Sasha20028/events{/privacy}",
                "followers_url": "https://api.github.com/users/Sasha20028/followers",
                "following_url": "https://api.github.com/users/Sasha20028/following{/other_user}",
                "gists_url": "https://api.github.com/users/Sasha20028/gists{/gist_id}",
                "gravatar_id": "",
                "html_url": "https://github.com/Sasha20028",
                "id": 52866621,
                "login": "Sasha20028",
                "node_id": "MDQ6VXNlcjUyODY2NjIx",
                "organizations_url": "https://api.github.com/users/Sasha20028/orgs",
                "received_events_url": "https://api.github.com/users/Sasha20028/received_events",
                "repos_url": "https://api.github.com/users/Sasha20028/repos",
                "site_admin": false,
                "starred_url": "https://api.github.com/users/Sasha20028/starred{/owner}{/repo}",
                "subscriptions_url": "https://api.github.com/users/Sasha20028/subscriptions",
                "type": "User",
                "url": "https://api.github.com/users/Sasha20028"
            }
        }
    ],
    "comments": 8,
    "comments_url": "https://api.github.com/repos/PrismarineJS/bedrock-protocol/issues/219/comments",
    "created_at": "2022-06-04T08:44:09Z",
    "event_data": [
        {
            "actor": {
                "avatar_url": "https://avatars.githubusercontent.com/u/52866621?v=4",
                "events_url": "https://api.github.com/users/Sasha20028/events{/privacy}",
                "followers_url": "https://api.github.com/users/Sasha20028/followers",
                "following_url": "https://api.github.com/users/Sasha20028/following{/other_user}",
                "gists_url": "https://api.github.com/users/Sasha20028/gists{/gist_id}",
                "gravatar_id": "",
                "html_url": "https://github.com/Sasha20028",
                "id": 52866621,
                "login": "Sasha20028",
                "node_id": "MDQ6VXNlcjUyODY2NjIx",
                "organizations_url": "https://api.github.com/users/Sasha20028/orgs",
                "received_events_url": "https://api.github.com/users/Sasha20028/received_events",
                "repos_url": "https://api.github.com/users/Sasha20028/repos",
                "site_admin": false,
                "starred_url": "https://api.github.com/users/Sasha20028/starred{/owner}{/repo}",
                "subscriptions_url": "https://api.github.com/users/Sasha20028/subscriptions",
                "type": "User",
                "url": "https://api.github.com/users/Sasha20028"
            },
            "commit_id": null,
            "commit_url": null,
            "created_at": "2022-06-07T14:13:09Z",
            "event": "closed",
            "id": 6761825060,
            "node_id": "CE_lADOAxQ-8c5LJJJYzwAAAAGTCUMk",
            "performed_via_github_app": null,
            "state_reason": null,
            "url": "https://api.github.com/repos/PrismarineJS/bedrock-protocol/issues/events/6761825060"
        }
    ],
    "events_url": "https://api.github.com/repos/PrismarineJS/bedrock-protocol/issues/219/events",
    "html_url": "https://github.com/PrismarineJS/bedrock-protocol/issues/219",
    "id": 1260687960,
    "labels": [],
    "labels_url": "https://api.github.com/repos/PrismarineJS/bedrock-protocol/issues/219/labels{/name}",
    "locked": false,
    "milestone": null,
    "node_id": "I_kwDOAxQ-8c5LJJJY",
    "number": 219,
    "performed_via_github_app": null,
    "reactions": {
        "+1": 0,
        "-1": 0,
        "confused": 0,
        "eyes": 0,
        "heart": 0,
        "hooray": 0,
        "laugh": 0,
        "rocket": 0,
        "total_count": 0,
        "url": "https://api.github.com/repos/PrismarineJS/bedrock-protocol/issues/219/reactions"
    },
    "repository_url": "https://api.github.com/repos/PrismarineJS/bedrock-protocol",
    "state": "closed",
    "state_reason": "completed",
    "timeline_url": "https://api.github.com/repos/PrismarineJS/bedrock-protocol/issues/219/timeline",
    "title": "Help with the bot",
    "updated_at": "2022-06-07T14:13:09Z",
    "url": "https://api.github.com/repos/PrismarineJS/bedrock-protocol/issues/219",
    "user": {
        "avatar_url": "https://avatars.githubusercontent.com/u/52866621?v=4",
        "events_url": "https://api.github.com/users/Sasha20028/events{/privacy}",
        "followers_url": "https://api.github.com/users/Sasha20028/followers",
        "following_url": "https://api.github.com/users/Sasha20028/following{/other_user}",
        "gists_url": "https://api.github.com/users/Sasha20028/gists{/gist_id}",
        "gravatar_id": "",
        "html_url": "https://github.com/Sasha20028",
        "id": 52866621,
        "login": "Sasha20028",
        "node_id": "MDQ6VXNlcjUyODY2NjIx",
        "organizations_url": "https://api.github.com/users/Sasha20028/orgs",
        "received_events_url": "https://api.github.com/users/Sasha20028/received_events",
        "repos_url": "https://api.github.com/users/Sasha20028/repos",
        "site_admin": false,
        "starred_url": "https://api.github.com/users/Sasha20028/starred{/owner}{/repo}",
        "subscriptions_url": "https://api.github.com/users/Sasha20028/subscriptions",
        "type": "User",
        "url": "https://api.github.com/users/Sasha20028"
    }
}