{
    "active_lock_reason": null,
    "assignee": null,
    "assignees": [],
    "author_association": "NONE",
    "body": "## My code\r\n```ts\r\n\t// @ts-ignore\r\n\tconst options: ClientOptions = {\r\n\t\t// @ts-ignore\r\n\t\tauthflow: new Authflow(\r\n\t\t\temail,\r\n\t\t\t\".cache\",\r\n\t\t\t{\r\n\t\t\t\tpassword: password,\r\n\t\t\t\tflow: \"msal\"\r\n\t\t\t},\r\n\t\t\tnull\r\n\t\t),\r\n\t\tusername: email,\r\n\t\tauthTitle: Titles.MinecraftNintendoSwitch,\r\n\t\tviewDistance: 1,\r\n\t\tconnectTimeout: 10_000,\r\n\t\tskipPing: true,\r\n\t\toffline: false,\r\n\t\thost,\r\n\t\tport,\r\n\t\tversion\r\n\t};\r\n\tconst client: Client = await createClient(options);\r\n\t// @ts-ignore\r\n\tclient.clientUserChainPayload = {};\r\n\tclient.on(\"error\", console.error);\r\n\tclient.on(\"spawn\", () => setInterval(() => client.queue(\"request_chunk_radius\", {chunk_radius:Math.random()*100}), 1000));\r\n```\r\n\r\n## Error\r\n```\r\n[Server thread/INFO]: [NetworkSession: 127.0.0.1 55459] Session opened   \r\n[Server thread/ERROR]: [NetworkSession: 127.0.0.1 55459] Bad packet: Error processing LoginPacket: JSON property \"titleId\" in class \"pocketmine\\network\\mcpe\\protocol\\types\\login\\AuthenticationData\" must not be NULL\r\n[Server thread/INFO]: [NetworkSession: 127.0.0.1 55459] Session closed: Packet processing error (Error ID: c09b-7257-248e)\r\n[RakLib thread/NOTICE]: Blocked 127.0.0.1 for 5 seconds\r\n```",
    "closed_at": "2023-07-19T17:40:18Z",
    "comment_data": [
        {
            "author_association": "CONTRIBUTOR",
            "body": "When doing password based authentication we have to skip the title authentication part of the xbl flow due to insufficient privilege, normally this is ok but some servers may check specifically for title auth which is the case here. To resolve you would have to do device code authentication by removing the password field.",
            "created_at": "2023-07-19T17:32:30Z",
            "html_url": "https://github.com/PrismarineJS/bedrock-protocol/issues/432#issuecomment-1642482547",
            "id": 1642482547,
            "issue_url": "https://api.github.com/repos/PrismarineJS/bedrock-protocol/issues/432",
            "node_id": "IC_kwDOAxQ-8c5h5ktz",
            "performed_via_github_app": null,
            "reactions": {
                "+1": 2,
                "-1": 0,
                "confused": 0,
                "eyes": 0,
                "heart": 0,
                "hooray": 0,
                "laugh": 0,
                "rocket": 0,
                "total_count": 2,
                "url": "https://api.github.com/repos/PrismarineJS/bedrock-protocol/issues/comments/1642482547/reactions"
            },
            "updated_at": "2023-07-19T17:32:56Z",
            "url": "https://api.github.com/repos/PrismarineJS/bedrock-protocol/issues/comments/1642482547",
            "user": {
                "avatar_url": "https://avatars.githubusercontent.com/u/66429271?v=4",
                "events_url": "https://api.github.com/users/LucienHH/events{/privacy}",
                "followers_url": "https://api.github.com/users/LucienHH/followers",
                "following_url": "https://api.github.com/users/LucienHH/following{/other_user}",
                "gists_url": "https://api.github.com/users/LucienHH/gists{/gist_id}",
                "gravatar_id": "",
                "html_url": "https://github.com/LucienHH",
                "id": 66429271,
                "login": "LucienHH",
                "node_id": "MDQ6VXNlcjY2NDI5Mjcx",
                "organizations_url": "https://api.github.com/users/LucienHH/orgs",
                "received_events_url": "https://api.github.com/users/LucienHH/received_events",
                "repos_url": "https://api.github.com/users/LucienHH/repos",
                "site_admin": false,
                "starred_url": "https://api.github.com/users/LucienHH/starred{/owner}{/repo}",
                "subscriptions_url": "https://api.github.com/users/LucienHH/subscriptions",
                "type": "User",
                "url": "https://api.github.com/users/LucienHH"
            }
        },
        {
            "author_association": "NONE",
            "body": "thank you \r\n",
            "created_at": "2023-07-19T17:40:22Z",
            "html_url": "https://github.com/PrismarineJS/bedrock-protocol/issues/432#issuecomment-1642493532",
            "id": 1642493532,
            "issue_url": "https://api.github.com/repos/PrismarineJS/bedrock-protocol/issues/432",
            "node_id": "IC_kwDOAxQ-8c5h5nZc",
            "performed_via_github_app": null,
            "reactions": {
                "+1": 0,
                "-1": 0,
                "confused": 0,
                "eyes": 0,
                "heart": 0,
                "hooray": 0,
                "laugh": 0,
                "rocket": 0,
                "total_count": 0,
                "url": "https://api.github.com/repos/PrismarineJS/bedrock-protocol/issues/comments/1642493532/reactions"
            },
            "updated_at": "2023-07-19T17:40:22Z",
            "url": "https://api.github.com/repos/PrismarineJS/bedrock-protocol/issues/comments/1642493532",
            "user": {
                "avatar_url": "https://avatars.githubusercontent.com/u/57589973?v=4",
                "events_url": "https://api.github.com/users/xxAROX/events{/privacy}",
                "followers_url": "https://api.github.com/users/xxAROX/followers",
                "following_url": "https://api.github.com/users/xxAROX/following{/other_user}",
                "gists_url": "https://api.github.com/users/xxAROX/gists{/gist_id}",
                "gravatar_id": "",
                "html_url": "https://github.com/xxAROX",
                "id": 57589973,
                "login": "xxAROX",
                "node_id": "MDQ6VXNlcjU3NTg5OTcz",
                "organizations_url": "https://api.github.com/users/xxAROX/orgs",
                "received_events_url": "https://api.github.com/users/xxAROX/received_events",
                "repos_url": "https://api.github.com/users/xxAROX/repos",
                "site_admin": false,
                "starred_url": "https://api.github.com/users/xxAROX/starred{/owner}{/repo}",
                "subscriptions_url": "https://api.github.com/users/xxAROX/subscriptions",
                "type": "User",
                "url": "https://api.github.com/users/xxAROX"
            }
        },
        {
            "author_association": "NONE",
            "body": "is there a way to custom implement title auth or is it not recommend?",
            "created_at": "2023-07-19T17:41:06Z",
            "html_url": "https://github.com/PrismarineJS/bedrock-protocol/issues/432#issuecomment-1642494836",
            "id": 1642494836,
            "issue_url": "https://api.github.com/repos/PrismarineJS/bedrock-protocol/issues/432",
            "node_id": "IC_kwDOAxQ-8c5h5nt0",
            "performed_via_github_app": null,
            "reactions": {
                "+1": 0,
                "-1": 0,
                "confused": 0,
                "eyes": 0,
                "heart": 0,
                "hooray": 0,
                "laugh": 0,
                "rocket": 0,
                "total_count": 0,
                "url": "https://api.github.com/repos/PrismarineJS/bedrock-protocol/issues/comments/1642494836/reactions"
            },
            "updated_at": "2023-07-19T17:41:06Z",
            "url": "https://api.github.com/repos/PrismarineJS/bedrock-protocol/issues/comments/1642494836",
            "user": {
                "avatar_url": "https://avatars.githubusercontent.com/u/57589973?v=4",
                "events_url": "https://api.github.com/users/xxAROX/events{/privacy}",
                "followers_url": "https://api.github.com/users/xxAROX/followers",
                "following_url": "https://api.github.com/users/xxAROX/following{/other_user}",
                "gists_url": "https://api.github.com/users/xxAROX/gists{/gist_id}",
                "gravatar_id": "",
                "html_url": "https://github.com/xxAROX",
                "id": 57589973,
                "login": "xxAROX",
                "node_id": "MDQ6VXNlcjU3NTg5OTcz",
                "organizations_url": "https://api.github.com/users/xxAROX/orgs",
                "received_events_url": "https://api.github.com/users/xxAROX/received_events",
                "repos_url": "https://api.github.com/users/xxAROX/repos",
                "site_admin": false,
                "starred_url": "https://api.github.com/users/xxAROX/starred{/owner}{/repo}",
                "subscriptions_url": "https://api.github.com/users/xxAROX/subscriptions",
                "type": "User",
                "url": "https://api.github.com/users/xxAROX"
            }
        },
        {
            "author_association": "MEMBER",
            "body": "Why are you using password based auth? It's not a reliable form of authentication and also doesn't work for all accounts. So we don't recommend it or likewise document it as a feature here. ",
            "created_at": "2023-07-19T17:49:38Z",
            "html_url": "https://github.com/PrismarineJS/bedrock-protocol/issues/432#issuecomment-1642505660",
            "id": 1642505660,
            "issue_url": "https://api.github.com/repos/PrismarineJS/bedrock-protocol/issues/432",
            "node_id": "IC_kwDOAxQ-8c5h5qW8",
            "performed_via_github_app": null,
            "reactions": {
                "+1": 1,
                "-1": 0,
                "confused": 0,
                "eyes": 0,
                "heart": 0,
                "hooray": 0,
                "laugh": 0,
                "rocket": 0,
                "total_count": 1,
                "url": "https://api.github.com/repos/PrismarineJS/bedrock-protocol/issues/comments/1642505660/reactions"
            },
            "updated_at": "2023-07-19T17:49:38Z",
            "url": "https://api.github.com/repos/PrismarineJS/bedrock-protocol/issues/comments/1642505660",
            "user": {
                "avatar_url": "https://avatars.githubusercontent.com/u/13713600?v=4",
                "events_url": "https://api.github.com/users/extremeheat/events{/privacy}",
                "followers_url": "https://api.github.com/users/extremeheat/followers",
                "following_url": "https://api.github.com/users/extremeheat/following{/other_user}",
                "gists_url": "https://api.github.com/users/extremeheat/gists{/gist_id}",
                "gravatar_id": "",
                "html_url": "https://github.com/extremeheat",
                "id": 13713600,
                "login": "extremeheat",
                "node_id": "MDQ6VXNlcjEzNzEzNjAw",
                "organizations_url": "https://api.github.com/users/extremeheat/orgs",
                "received_events_url": "https://api.github.com/users/extremeheat/received_events",
                "repos_url": "https://api.github.com/users/extremeheat/repos",
                "site_admin": false,
                "starred_url": "https://api.github.com/users/extremeheat/starred{/owner}{/repo}",
                "subscriptions_url": "https://api.github.com/users/extremeheat/subscriptions",
                "type": "User",
                "url": "https://api.github.com/users/extremeheat"
            }
        }
    ],
    "comments": 4,
    "comments_url": "https://api.github.com/repos/PrismarineJS/bedrock-protocol/issues/432/comments",
    "created_at": "2023-07-19T17:22:40Z",
    "event_data": [
        {
            "actor": {
                "avatar_url": "https://avatars.githubusercontent.com/u/57589973?v=4",
                "events_url": "https://api.github.com/users/xxAROX/events{/privacy}",
                "followers_url": "https://api.github.com/users/xxAROX/followers",
                "following_url": "https://api.github.com/users/xxAROX/following{/other_user}",
                "gists_url": "https://api.github.com/users/xxAROX/gists{/gist_id}",
                "gravatar_id": "",
                "html_url": "https://github.com/xxAROX",
                "id": 57589973,
                "login": "xxAROX",
                "node_id": "MDQ6VXNlcjU3NTg5OTcz",
                "organizations_url": "https://api.github.com/users/xxAROX/orgs",
                "received_events_url": "https://api.github.com/users/xxAROX/received_events",
                "repos_url": "https://api.github.com/users/xxAROX/repos",
                "site_admin": false,
                "starred_url": "https://api.github.com/users/xxAROX/starred{/owner}{/repo}",
                "subscriptions_url": "https://api.github.com/users/xxAROX/subscriptions",
                "type": "User",
                "url": "https://api.github.com/users/xxAROX"
            },
            "commit_id": null,
            "commit_url": null,
            "created_at": "2023-07-19T17:23:09Z",
            "event": "renamed",
            "id": 9865233570,
            "node_id": "RTE_lADOAxQ-8c5sBsQMzwAAAAJMA4Si",
            "performed_via_github_app": null,
            "rename": {
                "from": "Error when using authflow key via password auth on PocketMine-MP",
                "to": "Error when creating client with authflow option with password auth on PocketMine-MP"
            },
            "url": "https://api.github.com/repos/PrismarineJS/bedrock-protocol/issues/events/9865233570"
        },
        {
            "actor": {
                "avatar_url": "https://avatars.githubusercontent.com/u/57589973?v=4",
                "events_url": "https://api.github.com/users/xxAROX/events{/privacy}",
                "followers_url": "https://api.github.com/users/xxAROX/followers",
                "following_url": "https://api.github.com/users/xxAROX/following{/other_user}",
                "gists_url": "https://api.github.com/users/xxAROX/gists{/gist_id}",
                "gravatar_id": "",
                "html_url": "https://github.com/xxAROX",
                "id": 57589973,
                "login": "xxAROX",
                "node_id": "MDQ6VXNlcjU3NTg5OTcz",
                "organizations_url": "https://api.github.com/users/xxAROX/orgs",
                "received_events_url": "https://api.github.com/users/xxAROX/received_events",
                "repos_url": "https://api.github.com/users/xxAROX/repos",
                "site_admin": false,
                "starred_url": "https://api.github.com/users/xxAROX/starred{/owner}{/repo}",
                "subscriptions_url": "https://api.github.com/users/xxAROX/subscriptions",
                "type": "User",
                "url": "https://api.github.com/users/xxAROX"
            },
            "commit_id": null,
            "commit_url": null,
            "created_at": "2023-07-19T17:40:18Z",
            "event": "closed",
            "id": 9865412252,
            "node_id": "CE_lADOAxQ-8c5sBsQMzwAAAAJMBj6c",
            "performed_via_github_app": null,
            "state_reason": null,
            "url": "https://api.github.com/repos/PrismarineJS/bedrock-protocol/issues/events/9865412252"
        }
    ],
    "events_url": "https://api.github.com/repos/PrismarineJS/bedrock-protocol/issues/432/events",
    "html_url": "https://github.com/PrismarineJS/bedrock-protocol/issues/432",
    "id": 1812382732,
    "labels": [],
    "labels_url": "https://api.github.com/repos/PrismarineJS/bedrock-protocol/issues/432/labels{/name}",
    "locked": false,
    "milestone": null,
    "node_id": "I_kwDOAxQ-8c5sBsQM",
    "number": 432,
    "performed_via_github_app": null,
    "reactions": {
        "+1": 0,
        "-1": 0,
        "confused": 0,
        "eyes": 0,
        "heart": 0,
        "hooray": 0,
        "laugh": 0,
        "rocket": 0,
        "total_count": 0,
        "url": "https://api.github.com/repos/PrismarineJS/bedrock-protocol/issues/432/reactions"
    },
    "repository_url": "https://api.github.com/repos/PrismarineJS/bedrock-protocol",
    "state": "closed",
    "state_reason": "completed",
    "timeline_url": "https://api.github.com/repos/PrismarineJS/bedrock-protocol/issues/432/timeline",
    "title": "Error when creating client with authflow option with password auth on PocketMine-MP",
    "updated_at": "2023-07-19T17:49:38Z",
    "url": "https://api.github.com/repos/PrismarineJS/bedrock-protocol/issues/432",
    "user": {
        "avatar_url": "https://avatars.githubusercontent.com/u/57589973?v=4",
        "events_url": "https://api.github.com/users/xxAROX/events{/privacy}",
        "followers_url": "https://api.github.com/users/xxAROX/followers",
        "following_url": "https://api.github.com/users/xxAROX/following{/other_user}",
        "gists_url": "https://api.github.com/users/xxAROX/gists{/gist_id}",
        "gravatar_id": "",
        "html_url": "https://github.com/xxAROX",
        "id": 57589973,
        "login": "xxAROX",
        "node_id": "MDQ6VXNlcjU3NTg5OTcz",
        "organizations_url": "https://api.github.com/users/xxAROX/orgs",
        "received_events_url": "https://api.github.com/users/xxAROX/received_events",
        "repos_url": "https://api.github.com/users/xxAROX/repos",
        "site_admin": false,
        "starred_url": "https://api.github.com/users/xxAROX/starred{/owner}{/repo}",
        "subscriptions_url": "https://api.github.com/users/xxAROX/subscriptions",
        "type": "User",
        "url": "https://api.github.com/users/xxAROX"
    }
}