{
    "active_lock_reason": null,
    "assignee": null,
    "assignees": [],
    "author_association": "CONTRIBUTOR",
    "body": "\nA new Minecraft Bedrock version is available (as of Wed, 14 Aug 2024 22:08:42 GMT), version **1.21.21**\n\n## Official Changelog\n* Various bug fixes! *(via App Store)*\n* https://feedback.minecraft.net/hc/en-us/sections/360001186971-Release-Changelogs\n\n## 3rd party protocol patches\n### PocketMine\n\n**[See the diff between *2024-08-14T22:08:42Z* and now](https://github.com/pmmp/PocketMine-MP/compare/8c3cf7a6874953a871452d239e0b204ae950fbec..c32744ebc70ab6cd4d5c58ed0f3f896da544817c)**\n### gophertunnel\n\n**[See the diff between *2024-08-14T22:08:42Z* and now](https://github.com/Sandertv/gophertunnel/compare/9a93ed3810eaf52778a791695cdaa202d186efec..7e1534ac808011be26c4995245b06626ca35b9c2)**\n### CloudburstMC\n\n**[See the diff between *2024-08-14T22:08:42Z* and now](https://github.com/CloudburstMC/Protocol/compare/1a357d3078cb3f85403e28a2e8aefa003ac3417f..aebbc7061f46df303760480fc524a643081458d7)**\n\n\n## Protocol Details\n(I will close this issue automatically if \"1.21.21\" is added to index.d.ts on \"master\" and there are no X's below)\n<table>\n  <tr><td><b>Name</b></td><td>1.21.21</td>\n  <tr><td><b>Protocol ID</b></td><td>?</td>\n  <!-- TODO ... automatically fetch server, test and grab relevant information and dump\n  <tr><td><b>Partly Already Compatible</b></td><td></td>\n  <tr><td><b>Protocol Dumpers Work</b></td><td></td>\n  -->\n</table>\n\n-----\n\n🤖 I am a bot, I check for updates every 2 hours without a trigger. You can close this issue to prevent any further updates.\n    ",
    "closed_at": "2024-08-18T01:18:53Z",
    "comment_data": [
        {
            "author_association": "MEMBER",
            "body": "/makerelease",
            "created_at": "2024-08-18T00:53:28Z",
            "html_url": "https://github.com/PrismarineJS/bedrock-protocol/issues/519#issuecomment-2295047448",
            "id": 2295047448,
            "issue_url": "https://api.github.com/repos/PrismarineJS/bedrock-protocol/issues/519",
            "node_id": "IC_kwDOAxQ-8c6Iy6UY",
            "performed_via_github_app": null,
            "reactions": {
                "+1": 0,
                "-1": 0,
                "confused": 0,
                "eyes": 1,
                "heart": 0,
                "hooray": 0,
                "laugh": 0,
                "rocket": 0,
                "total_count": 1,
                "url": "https://api.github.com/repos/PrismarineJS/bedrock-protocol/issues/comments/2295047448/reactions"
            },
            "updated_at": "2024-08-18T00:53:28Z",
            "url": "https://api.github.com/repos/PrismarineJS/bedrock-protocol/issues/comments/2295047448",
            "user": {
                "avatar_url": "https://avatars.githubusercontent.com/u/13713600?v=4",
                "events_url": "https://api.github.com/users/extremeheat/events{/privacy}",
                "followers_url": "https://api.github.com/users/extremeheat/followers",
                "following_url": "https://api.github.com/users/extremeheat/following{/other_user}",
                "gists_url": "https://api.github.com/users/extremeheat/gists{/gist_id}",
                "gravatar_id": "",
                "html_url": "https://github.com/extremeheat",
                "id": 13713600,
                "login": "extremeheat",
                "node_id": "MDQ6VXNlcjEzNzEzNjAw",
                "organizations_url": "https://api.github.com/users/extremeheat/orgs",
                "received_events_url": "https://api.github.com/users/extremeheat/received_events",
                "repos_url": "https://api.github.com/users/extremeheat/repos",
                "site_admin": false,
                "starred_url": "https://api.github.com/users/extremeheat/starred{/owner}{/repo}",
                "subscriptions_url": "https://api.github.com/users/extremeheat/subscriptions",
                "type": "User",
                "url": "https://api.github.com/users/extremeheat"
            }
        }
    ],
    "comments": 1,
    "comments_url": "https://api.github.com/repos/PrismarineJS/bedrock-protocol/issues/519/comments",
    "created_at": "2024-08-14T22:14:06Z",
    "event_data": [
        {
            "actor": {
                "avatar_url": "https://avatars.githubusercontent.com/u/13713600?v=4",
                "events_url": "https://api.github.com/users/extremeheat/events{/privacy}",
                "followers_url": "https://api.github.com/users/extremeheat/followers",
                "following_url": "https://api.github.com/users/extremeheat/following{/other_user}",
                "gists_url": "https://api.github.com/users/extremeheat/gists{/gist_id}",
                "gravatar_id": "",
                "html_url": "https://github.com/extremeheat",
                "id": 13713600,
                "login": "extremeheat",
                "node_id": "MDQ6VXNlcjEzNzEzNjAw",
                "organizations_url": "https://api.github.com/users/extremeheat/orgs",
                "received_events_url": "https://api.github.com/users/extremeheat/received_events",
                "repos_url": "https://api.github.com/users/extremeheat/repos",
                "site_admin": false,
                "starred_url": "https://api.github.com/users/extremeheat/starred{/owner}{/repo}",
                "subscriptions_url": "https://api.github.com/users/extremeheat/subscriptions",
                "type": "User",
                "url": "https://api.github.com/users/extremeheat"
            },
            "commit_id": null,
            "commit_url": null,
            "created_at": "2024-08-18T00:54:51Z",
            "event": "connected",
            "id": 13920887770,
            "node_id": "COE_lADOAxQ-8c6TClXBzwAAAAM9v-Pa",
            "performed_via_github_app": null,
            "url": "https://api.github.com/repos/PrismarineJS/bedrock-protocol/issues/events/13920887770"
        },
        {
            "actor": {
                "avatar_url": "https://avatars.githubusercontent.com/u/13713600?v=4",
                "events_url": "https://api.github.com/users/extremeheat/events{/privacy}",
                "followers_url": "https://api.github.com/users/extremeheat/followers",
                "following_url": "https://api.github.com/users/extremeheat/following{/other_user}",
                "gists_url": "https://api.github.com/users/extremeheat/gists{/gist_id}",
                "gravatar_id": "",
                "html_url": "https://github.com/extremeheat",
                "id": 13713600,
                "login": "extremeheat",
                "node_id": "MDQ6VXNlcjEzNzEzNjAw",
                "organizations_url": "https://api.github.com/users/extremeheat/orgs",
                "received_events_url": "https://api.github.com/users/extremeheat/received_events",
                "repos_url": "https://api.github.com/users/extremeheat/repos",
                "site_admin": false,
                "starred_url": "https://api.github.com/users/extremeheat/starred{/owner}{/repo}",
                "subscriptions_url": "https://api.github.com/users/extremeheat/subscriptions",
                "type": "User",
                "url": "https://api.github.com/users/extremeheat"
            },
            "commit_id": null,
            "commit_url": null,
            "created_at": "2024-08-18T01:18:54Z",
            "event": "closed",
            "id": 13920915283,
            "node_id": "CE_lADOAxQ-8c6TClXBzwAAAAM9wE9T",
            "performed_via_github_app": null,
            "state_reason": null,
            "url": "https://api.github.com/repos/PrismarineJS/bedrock-protocol/issues/events/13920915283"
        }
    ],
    "events_url": "https://api.github.com/repos/PrismarineJS/bedrock-protocol/issues/519/events",
    "html_url": "https://github.com/PrismarineJS/bedrock-protocol/issues/519",
    "id": 2466928065,
    "labels": [],
    "labels_url": "https://api.github.com/repos/PrismarineJS/bedrock-protocol/issues/519/labels{/name}",
    "locked": false,
    "milestone": null,
    "node_id": "I_kwDOAxQ-8c6TClXB",
    "number": 519,
    "performed_via_github_app": null,
    "reactions": {
        "+1": 0,
        "-1": 0,
        "confused": 0,
        "eyes": 0,
        "heart": 0,
        "hooray": 0,
        "laugh": 0,
        "rocket": 0,
        "total_count": 0,
        "url": "https://api.github.com/repos/PrismarineJS/bedrock-protocol/issues/519/reactions"
    },
    "repository_url": "https://api.github.com/repos/PrismarineJS/bedrock-protocol",
    "state": "closed",
    "state_reason": "completed",
    "timeline_url": "https://api.github.com/repos/PrismarineJS/bedrock-protocol/issues/519/timeline",
    "title": "Support Minecraft 1.21.21",
    "updated_at": "2024-08-18T01:18:53Z",
    "url": "https://api.github.com/repos/PrismarineJS/bedrock-protocol/issues/519",
    "user": {
        "avatar_url": "https://avatars.githubusercontent.com/in/15368?v=4",
        "events_url": "https://api.github.com/users/github-actions%5Bbot%5D/events{/privacy}",
        "followers_url": "https://api.github.com/users/github-actions%5Bbot%5D/followers",
        "following_url": "https://api.github.com/users/github-actions%5Bbot%5D/following{/other_user}",
        "gists_url": "https://api.github.com/users/github-actions%5Bbot%5D/gists{/gist_id}",
        "gravatar_id": "",
        "html_url": "https://github.com/apps/github-actions",
        "id": 41898282,
        "login": "github-actions[bot]",
        "node_id": "MDM6Qm90NDE4OTgyODI=",
        "organizations_url": "https://api.github.com/users/github-actions%5Bbot%5D/orgs",
        "received_events_url": "https://api.github.com/users/github-actions%5Bbot%5D/received_events",
        "repos_url": "https://api.github.com/users/github-actions%5Bbot%5D/repos",
        "site_admin": false,
        "starred_url": "https://api.github.com/users/github-actions%5Bbot%5D/starred{/owner}{/repo}",
        "subscriptions_url": "https://api.github.com/users/github-actions%5Bbot%5D/subscriptions",
        "type": "Bot",
        "url": "https://api.github.com/users/github-actions%5Bbot%5D"
    }
}