{
    "assets": [],
    "assets_url": "https://api.github.com/repos/PrismarineJS/flying-squid/releases/33013081/assets",
    "author": {
        "avatar_url": "https://avatars.githubusercontent.com/u/2346494?v=4",
        "events_url": "https://api.github.com/users/rom1504/events{/privacy}",
        "followers_url": "https://api.github.com/users/rom1504/followers",
        "following_url": "https://api.github.com/users/rom1504/following{/other_user}",
        "gists_url": "https://api.github.com/users/rom1504/gists{/gist_id}",
        "gravatar_id": "",
        "html_url": "https://github.com/rom1504",
        "id": 2346494,
        "login": "rom1504",
        "node_id": "MDQ6VXNlcjIzNDY0OTQ=",
        "organizations_url": "https://api.github.com/users/rom1504/orgs",
        "received_events_url": "https://api.github.com/users/rom1504/received_events",
        "repos_url": "https://api.github.com/users/rom1504/repos",
        "site_admin": false,
        "starred_url": "https://api.github.com/users/rom1504/starred{/owner}{/repo}",
        "subscriptions_url": "https://api.github.com/users/rom1504/subscriptions",
        "type": "User",
        "url": "https://api.github.com/users/rom1504",
        "user_view_type": "public"
    },
    "body": "",
    "created_at": "2020-10-24T14:06:56Z",
    "draft": false,
    "html_url": "https://github.com/PrismarineJS/flying-squid/releases/tag/1.3.2",
    "id": 33013081,
    "name": "1.3.2",
    "node_id": "MDc6UmVsZWFzZTMzMDEzMDgx",
    "prerelease": false,
    "published_at": "2020-10-24T14:07:45Z",
    "tag_name": "1.3.2",
    "tarball_url": "https://api.github.com/repos/PrismarineJS/flying-squid/tarball/1.3.2",
    "target_commitish": "master",
    "upload_url": "https://uploads.github.com/repos/PrismarineJS/flying-squid/releases/33013081/assets{?name,label}",
    "url": "https://api.github.com/repos/PrismarineJS/flying-squid/releases/33013081",
    "zipball_url": "https://api.github.com/repos/PrismarineJS/flying-squid/zipball/1.3.2"
}