[
    {
        "color": "ee0701",
        "default": true,
        "description": null,
        "id": 357415966,
        "name": "bug",
        "node_id": "MDU6TGFiZWwzNTc0MTU5NjY=",
        "url": "https://api.github.com/repos/PrismarineJS/auto-alpaca/labels/bug"
    },
    {
        "color": "cccccc",
        "default": true,
        "description": null,
        "id": 357415967,
        "name": "duplicate",
        "node_id": "MDU6TGFiZWwzNTc0MTU5Njc=",
        "url": "https://api.github.com/repos/PrismarineJS/auto-alpaca/labels/duplicate"
    },
    {
        "color": "84b6eb",
        "default": true,
        "description": null,
        "id": 357415968,
        "name": "enhancement",
        "node_id": "MDU6TGFiZWwzNTc0MTU5Njg=",
        "url": "https://api.github.com/repos/PrismarineJS/auto-alpaca/labels/enhancement"
    },
    {
        "color": "128A0C",
        "default": true,
        "description": null,
        "id": 357415969,
        "name": "help wanted",
        "node_id": "MDU6TGFiZWwzNTc0MTU5Njk=",
        "url": "https://api.github.com/repos/PrismarineJS/auto-alpaca/labels/help%20wanted"
    },
    {
        "color": "e6e6e6",
        "default": true,
        "description": null,
        "id": 357415970,
        "name": "invalid",
        "node_id": "MDU6TGFiZWwzNTc0MTU5NzA=",
        "url": "https://api.github.com/repos/PrismarineJS/auto-alpaca/labels/invalid"
    },
    {
        "color": "cc317c",
        "default": true,
        "description": null,
        "id": 357415971,
        "name": "question",
        "node_id": "MDU6TGFiZWwzNTc0MTU5NzE=",
        "url": "https://api.github.com/repos/PrismarineJS/auto-alpaca/labels/question"
    },
    {
        "color": "ffffff",
        "default": true,
        "description": null,
        "id": 357415972,
        "name": "wontfix",
        "node_id": "MDU6TGFiZWwzNTc0MTU5NzI=",
        "url": "https://api.github.com/repos/PrismarineJS/auto-alpaca/labels/wontfix"
    }
]