{
    "active_lock_reason": null,
    "assignee": null,
    "assignees": [],
    "author_association": "MEMBER",
    "body": "https://github.com/PrismarineJS/flying-squid/blob/master/doc/HISTORY.md\n",
    "closed_at": "2016-05-14T20:36:55Z",
    "comment_data": [],
    "comments": 0,
    "comments_url": "https://api.github.com/repos/PrismarineJS/dazed-sheep/issues/12/comments",
    "created_at": "2016-03-14T10:00:18Z",
    "event_data": [
        {
            "actor": {
                "avatar_url": "https://avatars.githubusercontent.com/u/8526903?v=4",
                "events_url": "https://api.github.com/users/mhsjlw/events{/privacy}",
                "followers_url": "https://api.github.com/users/mhsjlw/followers",
                "following_url": "https://api.github.com/users/mhsjlw/following{/other_user}",
                "gists_url": "https://api.github.com/users/mhsjlw/gists{/gist_id}",
                "gravatar_id": "",
                "html_url": "https://github.com/mhsjlw",
                "id": 8526903,
                "login": "mhsjlw",
                "node_id": "MDQ6VXNlcjg1MjY5MDM=",
                "organizations_url": "https://api.github.com/users/mhsjlw/orgs",
                "received_events_url": "https://api.github.com/users/mhsjlw/received_events",
                "repos_url": "https://api.github.com/users/mhsjlw/repos",
                "site_admin": false,
                "starred_url": "https://api.github.com/users/mhsjlw/starred{/owner}{/repo}",
                "subscriptions_url": "https://api.github.com/users/mhsjlw/subscriptions",
                "type": "User",
                "url": "https://api.github.com/users/mhsjlw"
            },
            "commit_id": "b9dd1109b83c6c8e67e4b68d40ab6498e022b539",
            "commit_url": "https://api.github.com/repos/PrismarineJS/dazed-sheep/commits/b9dd1109b83c6c8e67e4b68d40ab6498e022b539",
            "created_at": "2016-05-14T20:36:55Z",
            "event": "closed",
            "id": 660812535,
            "node_id": "MDExOkNsb3NlZEV2ZW50NjYwODEyNTM1",
            "performed_via_github_app": null,
            "state_reason": null,
            "url": "https://api.github.com/repos/PrismarineJS/dazed-sheep/issues/events/660812535"
        }
    ],
    "events_url": "https://api.github.com/repos/PrismarineJS/dazed-sheep/issues/12/events",
    "html_url": "https://github.com/PrismarineJS/dazed-sheep/issues/12",
    "id": 140627274,
    "labels": [],
    "labels_url": "https://api.github.com/repos/PrismarineJS/dazed-sheep/issues/12/labels{/name}",
    "locked": false,
    "milestone": null,
    "node_id": "MDU6SXNzdWUxNDA2MjcyNzQ=",
    "number": 12,
    "performed_via_github_app": null,
    "reactions": {
        "+1": 0,
        "-1": 0,
        "confused": 0,
        "eyes": 0,
        "heart": 0,
        "hooray": 0,
        "laugh": 0,
        "rocket": 0,
        "total_count": 0,
        "url": "https://api.github.com/repos/PrismarineJS/dazed-sheep/issues/12/reactions"
    },
    "repository_url": "https://api.github.com/repos/PrismarineJS/dazed-sheep",
    "state": "closed",
    "state_reason": "completed",
    "timeline_url": "https://api.github.com/repos/PrismarineJS/dazed-sheep/issues/12/timeline",
    "title": "add history.md",
    "updated_at": "2018-03-29T21:50:18Z",
    "url": "https://api.github.com/repos/PrismarineJS/dazed-sheep/issues/12",
    "user": {
        "avatar_url": "https://avatars.githubusercontent.com/u/2346494?v=4",
        "events_url": "https://api.github.com/users/rom1504/events{/privacy}",
        "followers_url": "https://api.github.com/users/rom1504/followers",
        "following_url": "https://api.github.com/users/rom1504/following{/other_user}",
        "gists_url": "https://api.github.com/users/rom1504/gists{/gist_id}",
        "gravatar_id": "",
        "html_url": "https://github.com/rom1504",
        "id": 2346494,
        "login": "rom1504",
        "node_id": "MDQ6VXNlcjIzNDY0OTQ=",
        "organizations_url": "https://api.github.com/users/rom1504/orgs",
        "received_events_url": "https://api.github.com/users/rom1504/received_events",
        "repos_url": "https://api.github.com/users/rom1504/repos",
        "site_admin": false,
        "starred_url": "https://api.github.com/users/rom1504/starred{/owner}{/repo}",
        "subscriptions_url": "https://api.github.com/users/rom1504/subscriptions",
        "type": "User",
        "url": "https://api.github.com/users/rom1504"
    }
}