{
    "_links": {
        "comments": {
            "href": "https://api.github.com/repos/PrismarineJS/mineflayer-cmd/issues/13/comments"
        },
        "commits": {
            "href": "https://api.github.com/repos/PrismarineJS/mineflayer-cmd/pulls/13/commits"
        },
        "html": {
            "href": "https://github.com/PrismarineJS/mineflayer-cmd/pull/13"
        },
        "issue": {
            "href": "https://api.github.com/repos/PrismarineJS/mineflayer-cmd/issues/13"
        },
        "review_comment": {
            "href": "https://api.github.com/repos/PrismarineJS/mineflayer-cmd/pulls/comments{/number}"
        },
        "review_comments": {
            "href": "https://api.github.com/repos/PrismarineJS/mineflayer-cmd/pulls/13/comments"
        },
        "self": {
            "href": "https://api.github.com/repos/PrismarineJS/mineflayer-cmd/pulls/13"
        },
        "statuses": {
            "href": "https://api.github.com/repos/PrismarineJS/mineflayer-cmd/statuses/3797530e034728f9a7803ca96958849085dc6c5e"
        }
    },
    "active_lock_reason": null,
    "additions": 6,
    "assignee": null,
    "assignees": [],
    "author_association": "CONTRIBUTOR",
    "auto_merge": null,
    "base": {
        "label": "PrismarineJS:master",
        "ref": "master",
        "repo": {
            "allow_forking": true,
            "archive_url": "https://api.github.com/repos/PrismarineJS/mineflayer-cmd/{archive_format}{/ref}",
            "archived": false,
            "assignees_url": "https://api.github.com/repos/PrismarineJS/mineflayer-cmd/assignees{/user}",
            "blobs_url": "https://api.github.com/repos/PrismarineJS/mineflayer-cmd/git/blobs{/sha}",
            "branches_url": "https://api.github.com/repos/PrismarineJS/mineflayer-cmd/branches{/branch}",
            "clone_url": "https://github.com/PrismarineJS/mineflayer-cmd.git",
            "collaborators_url": "https://api.github.com/repos/PrismarineJS/mineflayer-cmd/collaborators{/collaborator}",
            "comments_url": "https://api.github.com/repos/PrismarineJS/mineflayer-cmd/comments{/number}",
            "commits_url": "https://api.github.com/repos/PrismarineJS/mineflayer-cmd/commits{/sha}",
            "compare_url": "https://api.github.com/repos/PrismarineJS/mineflayer-cmd/compare/{base}...{head}",
            "contents_url": "https://api.github.com/repos/PrismarineJS/mineflayer-cmd/contents/{+path}",
            "contributors_url": "https://api.github.com/repos/PrismarineJS/mineflayer-cmd/contributors",
            "created_at": "2020-10-15T10:57:03Z",
            "default_branch": "master",
            "deployments_url": "https://api.github.com/repos/PrismarineJS/mineflayer-cmd/deployments",
            "description": "A command handler plugin for Mineflayer.",
            "disabled": false,
            "downloads_url": "https://api.github.com/repos/PrismarineJS/mineflayer-cmd/downloads",
            "events_url": "https://api.github.com/repos/PrismarineJS/mineflayer-cmd/events",
            "fork": false,
            "forks": 4,
            "forks_count": 4,
            "forks_url": "https://api.github.com/repos/PrismarineJS/mineflayer-cmd/forks",
            "full_name": "PrismarineJS/mineflayer-cmd",
            "git_commits_url": "https://api.github.com/repos/PrismarineJS/mineflayer-cmd/git/commits{/sha}",
            "git_refs_url": "https://api.github.com/repos/PrismarineJS/mineflayer-cmd/git/refs{/sha}",
            "git_tags_url": "https://api.github.com/repos/PrismarineJS/mineflayer-cmd/git/tags{/sha}",
            "git_url": "git://github.com/PrismarineJS/mineflayer-cmd.git",
            "has_discussions": false,
            "has_downloads": true,
            "has_issues": true,
            "has_pages": false,
            "has_projects": true,
            "has_wiki": true,
            "homepage": null,
            "hooks_url": "https://api.github.com/repos/PrismarineJS/mineflayer-cmd/hooks",
            "html_url": "https://github.com/PrismarineJS/mineflayer-cmd",
            "id": 304296970,
            "is_template": false,
            "issue_comment_url": "https://api.github.com/repos/PrismarineJS/mineflayer-cmd/issues/comments{/number}",
            "issue_events_url": "https://api.github.com/repos/PrismarineJS/mineflayer-cmd/issues/events{/number}",
            "issues_url": "https://api.github.com/repos/PrismarineJS/mineflayer-cmd/issues{/number}",
            "keys_url": "https://api.github.com/repos/PrismarineJS/mineflayer-cmd/keys{/key_id}",
            "labels_url": "https://api.github.com/repos/PrismarineJS/mineflayer-cmd/labels{/name}",
            "language": "TypeScript",
            "languages_url": "https://api.github.com/repos/PrismarineJS/mineflayer-cmd/languages",
            "license": {
                "key": "mit",
                "name": "MIT License",
                "node_id": "MDc6TGljZW5zZTEz",
                "spdx_id": "MIT",
                "url": "https://api.github.com/licenses/mit"
            },
            "merges_url": "https://api.github.com/repos/PrismarineJS/mineflayer-cmd/merges",
            "milestones_url": "https://api.github.com/repos/PrismarineJS/mineflayer-cmd/milestones{/number}",
            "mirror_url": null,
            "name": "mineflayer-cmd",
            "node_id": "MDEwOlJlcG9zaXRvcnkzMDQyOTY5NzA=",
            "notifications_url": "https://api.github.com/repos/PrismarineJS/mineflayer-cmd/notifications{?since,all,participating}",
            "open_issues": 7,
            "open_issues_count": 7,
            "owner": {
                "avatar_url": "https://avatars.githubusercontent.com/u/11053411?v=4",
                "events_url": "https://api.github.com/users/PrismarineJS/events{/privacy}",
                "followers_url": "https://api.github.com/users/PrismarineJS/followers",
                "following_url": "https://api.github.com/users/PrismarineJS/following{/other_user}",
                "gists_url": "https://api.github.com/users/PrismarineJS/gists{/gist_id}",
                "gravatar_id": "",
                "html_url": "https://github.com/PrismarineJS",
                "id": 11053411,
                "login": "PrismarineJS",
                "node_id": "MDEyOk9yZ2FuaXphdGlvbjExMDUzNDEx",
                "organizations_url": "https://api.github.com/users/PrismarineJS/orgs",
                "received_events_url": "https://api.github.com/users/PrismarineJS/received_events",
                "repos_url": "https://api.github.com/users/PrismarineJS/repos",
                "site_admin": false,
                "starred_url": "https://api.github.com/users/PrismarineJS/starred{/owner}{/repo}",
                "subscriptions_url": "https://api.github.com/users/PrismarineJS/subscriptions",
                "type": "Organization",
                "url": "https://api.github.com/users/PrismarineJS"
            },
            "private": false,
            "pulls_url": "https://api.github.com/repos/PrismarineJS/mineflayer-cmd/pulls{/number}",
            "pushed_at": "2023-04-10T11:58:13Z",
            "releases_url": "https://api.github.com/repos/PrismarineJS/mineflayer-cmd/releases{/id}",
            "size": 48,
            "ssh_url": "git@github.com:PrismarineJS/mineflayer-cmd.git",
            "stargazers_count": 6,
            "stargazers_url": "https://api.github.com/repos/PrismarineJS/mineflayer-cmd/stargazers",
            "statuses_url": "https://api.github.com/repos/PrismarineJS/mineflayer-cmd/statuses/{sha}",
            "subscribers_url": "https://api.github.com/repos/PrismarineJS/mineflayer-cmd/subscribers",
            "subscription_url": "https://api.github.com/repos/PrismarineJS/mineflayer-cmd/subscription",
            "svn_url": "https://github.com/PrismarineJS/mineflayer-cmd",
            "tags_url": "https://api.github.com/repos/PrismarineJS/mineflayer-cmd/tags",
            "teams_url": "https://api.github.com/repos/PrismarineJS/mineflayer-cmd/teams",
            "topics": [],
            "trees_url": "https://api.github.com/repos/PrismarineJS/mineflayer-cmd/git/trees{/sha}",
            "updated_at": "2023-03-09T07:44:30Z",
            "url": "https://api.github.com/repos/PrismarineJS/mineflayer-cmd",
            "visibility": "public",
            "watchers": 6,
            "watchers_count": 6,
            "web_commit_signoff_required": false
        },
        "sha": "e33ccbd60ba05575c56c2217e7d940c3921c6568",
        "user": {
            "avatar_url": "https://avatars.githubusercontent.com/u/11053411?v=4",
            "events_url": "https://api.github.com/users/PrismarineJS/events{/privacy}",
            "followers_url": "https://api.github.com/users/PrismarineJS/followers",
            "following_url": "https://api.github.com/users/PrismarineJS/following{/other_user}",
            "gists_url": "https://api.github.com/users/PrismarineJS/gists{/gist_id}",
            "gravatar_id": "",
            "html_url": "https://github.com/PrismarineJS",
            "id": 11053411,
            "login": "PrismarineJS",
            "node_id": "MDEyOk9yZ2FuaXphdGlvbjExMDUzNDEx",
            "organizations_url": "https://api.github.com/users/PrismarineJS/orgs",
            "received_events_url": "https://api.github.com/users/PrismarineJS/received_events",
            "repos_url": "https://api.github.com/users/PrismarineJS/repos",
            "site_admin": false,
            "starred_url": "https://api.github.com/users/PrismarineJS/starred{/owner}{/repo}",
            "subscriptions_url": "https://api.github.com/users/PrismarineJS/subscriptions",
            "type": "Organization",
            "url": "https://api.github.com/users/PrismarineJS"
        }
    },
    "body": "If all good, according to https://github.com/pascalgn/npm-publish-action I'll add a commit \"Release 1.0.2\" bumping package.json too (or I let you do that on master once merged)",
    "changed_files": 3,
    "closed_at": "2020-11-22T05:39:40Z",
    "comment_data": [],
    "comment_regular_data": [],
    "comments": 0,
    "comments_url": "https://api.github.com/repos/PrismarineJS/mineflayer-cmd/issues/13/comments",
    "commit_data": [
        {
            "author": {
                "avatar_url": "https://avatars.githubusercontent.com/u/25003283?v=4",
                "events_url": "https://api.github.com/users/louis030195/events{/privacy}",
                "followers_url": "https://api.github.com/users/louis030195/followers",
                "following_url": "https://api.github.com/users/louis030195/following{/other_user}",
                "gists_url": "https://api.github.com/users/louis030195/gists{/gist_id}",
                "gravatar_id": "",
                "html_url": "https://github.com/louis030195",
                "id": 25003283,
                "login": "louis030195",
                "node_id": "MDQ6VXNlcjI1MDAzMjgz",
                "organizations_url": "https://api.github.com/users/louis030195/orgs",
                "received_events_url": "https://api.github.com/users/louis030195/received_events",
                "repos_url": "https://api.github.com/users/louis030195/repos",
                "site_admin": false,
                "starred_url": "https://api.github.com/users/louis030195/starred{/owner}{/repo}",
                "subscriptions_url": "https://api.github.com/users/louis030195/subscriptions",
                "type": "User",
                "url": "https://api.github.com/users/louis030195"
            },
            "comments_url": "https://api.github.com/repos/PrismarineJS/mineflayer-cmd/commits/3797530e034728f9a7803ca96958849085dc6c5e/comments",
            "commit": {
                "author": {
                    "date": "2020-11-21T11:34:03Z",
                    "email": "louis.beaumont@gmail.com",
                    "name": "louis03015"
                },
                "comment_count": 0,
                "committer": {
                    "date": "2020-11-21T11:34:03Z",
                    "email": "louis.beaumont@gmail.com",
                    "name": "louis03015"
                },
                "message": "Add help property to Command",
                "tree": {
                    "sha": "790a29802be09b6690d62f852530939c39f0f716",
                    "url": "https://api.github.com/repos/PrismarineJS/mineflayer-cmd/git/trees/790a29802be09b6690d62f852530939c39f0f716"
                },
                "url": "https://api.github.com/repos/PrismarineJS/mineflayer-cmd/git/commits/3797530e034728f9a7803ca96958849085dc6c5e",
                "verification": {
                    "payload": null,
                    "reason": "unsigned",
                    "signature": null,
                    "verified": false
                }
            },
            "committer": {
                "avatar_url": "https://avatars.githubusercontent.com/u/25003283?v=4",
                "events_url": "https://api.github.com/users/louis030195/events{/privacy}",
                "followers_url": "https://api.github.com/users/louis030195/followers",
                "following_url": "https://api.github.com/users/louis030195/following{/other_user}",
                "gists_url": "https://api.github.com/users/louis030195/gists{/gist_id}",
                "gravatar_id": "",
                "html_url": "https://github.com/louis030195",
                "id": 25003283,
                "login": "louis030195",
                "node_id": "MDQ6VXNlcjI1MDAzMjgz",
                "organizations_url": "https://api.github.com/users/louis030195/orgs",
                "received_events_url": "https://api.github.com/users/louis030195/received_events",
                "repos_url": "https://api.github.com/users/louis030195/repos",
                "site_admin": false,
                "starred_url": "https://api.github.com/users/louis030195/starred{/owner}{/repo}",
                "subscriptions_url": "https://api.github.com/users/louis030195/subscriptions",
                "type": "User",
                "url": "https://api.github.com/users/louis030195"
            },
            "html_url": "https://github.com/PrismarineJS/mineflayer-cmd/commit/3797530e034728f9a7803ca96958849085dc6c5e",
            "node_id": "MDY6Q29tbWl0MzE0NzkzODkzOjM3OTc1MzBlMDM0NzI4ZjlhNzgwM2NhOTY5NTg4NDkwODVkYzZjNWU=",
            "parents": [
                {
                    "html_url": "https://github.com/PrismarineJS/mineflayer-cmd/commit/e33ccbd60ba05575c56c2217e7d940c3921c6568",
                    "sha": "e33ccbd60ba05575c56c2217e7d940c3921c6568",
                    "url": "https://api.github.com/repos/PrismarineJS/mineflayer-cmd/commits/e33ccbd60ba05575c56c2217e7d940c3921c6568"
                }
            ],
            "sha": "3797530e034728f9a7803ca96958849085dc6c5e",
            "url": "https://api.github.com/repos/PrismarineJS/mineflayer-cmd/commits/3797530e034728f9a7803ca96958849085dc6c5e"
        }
    ],
    "commits": 1,
    "commits_url": "https://api.github.com/repos/PrismarineJS/mineflayer-cmd/pulls/13/commits",
    "created_at": "2020-11-21T11:36:16Z",
    "deletions": 4,
    "diff_url": "https://github.com/PrismarineJS/mineflayer-cmd/pull/13.diff",
    "draft": false,
    "head": {
        "label": "louis030195:master",
        "ref": "master",
        "repo": {
            "allow_forking": true,
            "archive_url": "https://api.github.com/repos/louis030195/mineflayer-cmd/{archive_format}{/ref}",
            "archived": false,
            "assignees_url": "https://api.github.com/repos/louis030195/mineflayer-cmd/assignees{/user}",
            "blobs_url": "https://api.github.com/repos/louis030195/mineflayer-cmd/git/blobs{/sha}",
            "branches_url": "https://api.github.com/repos/louis030195/mineflayer-cmd/branches{/branch}",
            "clone_url": "https://github.com/louis030195/mineflayer-cmd.git",
            "collaborators_url": "https://api.github.com/repos/louis030195/mineflayer-cmd/collaborators{/collaborator}",
            "comments_url": "https://api.github.com/repos/louis030195/mineflayer-cmd/comments{/number}",
            "commits_url": "https://api.github.com/repos/louis030195/mineflayer-cmd/commits{/sha}",
            "compare_url": "https://api.github.com/repos/louis030195/mineflayer-cmd/compare/{base}...{head}",
            "contents_url": "https://api.github.com/repos/louis030195/mineflayer-cmd/contents/{+path}",
            "contributors_url": "https://api.github.com/repos/louis030195/mineflayer-cmd/contributors",
            "created_at": "2020-11-21T11:16:04Z",
            "default_branch": "master",
            "deployments_url": "https://api.github.com/repos/louis030195/mineflayer-cmd/deployments",
            "description": "A command handler plugin for Mineflayer.",
            "disabled": false,
            "downloads_url": "https://api.github.com/repos/louis030195/mineflayer-cmd/downloads",
            "events_url": "https://api.github.com/repos/louis030195/mineflayer-cmd/events",
            "fork": true,
            "forks": 0,
            "forks_count": 0,
            "forks_url": "https://api.github.com/repos/louis030195/mineflayer-cmd/forks",
            "full_name": "louis030195/mineflayer-cmd",
            "git_commits_url": "https://api.github.com/repos/louis030195/mineflayer-cmd/git/commits{/sha}",
            "git_refs_url": "https://api.github.com/repos/louis030195/mineflayer-cmd/git/refs{/sha}",
            "git_tags_url": "https://api.github.com/repos/louis030195/mineflayer-cmd/git/tags{/sha}",
            "git_url": "git://github.com/louis030195/mineflayer-cmd.git",
            "has_discussions": false,
            "has_downloads": true,
            "has_issues": false,
            "has_pages": false,
            "has_projects": true,
            "has_wiki": true,
            "homepage": null,
            "hooks_url": "https://api.github.com/repos/louis030195/mineflayer-cmd/hooks",
            "html_url": "https://github.com/louis030195/mineflayer-cmd",
            "id": 314793893,
            "is_template": false,
            "issue_comment_url": "https://api.github.com/repos/louis030195/mineflayer-cmd/issues/comments{/number}",
            "issue_events_url": "https://api.github.com/repos/louis030195/mineflayer-cmd/issues/events{/number}",
            "issues_url": "https://api.github.com/repos/louis030195/mineflayer-cmd/issues{/number}",
            "keys_url": "https://api.github.com/repos/louis030195/mineflayer-cmd/keys{/key_id}",
            "labels_url": "https://api.github.com/repos/louis030195/mineflayer-cmd/labels{/name}",
            "language": "TypeScript",
            "languages_url": "https://api.github.com/repos/louis030195/mineflayer-cmd/languages",
            "license": {
                "key": "mit",
                "name": "MIT License",
                "node_id": "MDc6TGljZW5zZTEz",
                "spdx_id": "MIT",
                "url": "https://api.github.com/licenses/mit"
            },
            "merges_url": "https://api.github.com/repos/louis030195/mineflayer-cmd/merges",
            "milestones_url": "https://api.github.com/repos/louis030195/mineflayer-cmd/milestones{/number}",
            "mirror_url": null,
            "name": "mineflayer-cmd",
            "node_id": "MDEwOlJlcG9zaXRvcnkzMTQ3OTM4OTM=",
            "notifications_url": "https://api.github.com/repos/louis030195/mineflayer-cmd/notifications{?since,all,participating}",
            "open_issues": 0,
            "open_issues_count": 0,
            "owner": {
                "avatar_url": "https://avatars.githubusercontent.com/u/25003283?v=4",
                "events_url": "https://api.github.com/users/louis030195/events{/privacy}",
                "followers_url": "https://api.github.com/users/louis030195/followers",
                "following_url": "https://api.github.com/users/louis030195/following{/other_user}",
                "gists_url": "https://api.github.com/users/louis030195/gists{/gist_id}",
                "gravatar_id": "",
                "html_url": "https://github.com/louis030195",
                "id": 25003283,
                "login": "louis030195",
                "node_id": "MDQ6VXNlcjI1MDAzMjgz",
                "organizations_url": "https://api.github.com/users/louis030195/orgs",
                "received_events_url": "https://api.github.com/users/louis030195/received_events",
                "repos_url": "https://api.github.com/users/louis030195/repos",
                "site_admin": false,
                "starred_url": "https://api.github.com/users/louis030195/starred{/owner}{/repo}",
                "subscriptions_url": "https://api.github.com/users/louis030195/subscriptions",
                "type": "User",
                "url": "https://api.github.com/users/louis030195"
            },
            "private": false,
            "pulls_url": "https://api.github.com/repos/louis030195/mineflayer-cmd/pulls{/number}",
            "pushed_at": "2020-11-21T11:34:09Z",
            "releases_url": "https://api.github.com/repos/louis030195/mineflayer-cmd/releases{/id}",
            "size": 25,
            "ssh_url": "git@github.com:louis030195/mineflayer-cmd.git",
            "stargazers_count": 0,
            "stargazers_url": "https://api.github.com/repos/louis030195/mineflayer-cmd/stargazers",
            "statuses_url": "https://api.github.com/repos/louis030195/mineflayer-cmd/statuses/{sha}",
            "subscribers_url": "https://api.github.com/repos/louis030195/mineflayer-cmd/subscribers",
            "subscription_url": "https://api.github.com/repos/louis030195/mineflayer-cmd/subscription",
            "svn_url": "https://github.com/louis030195/mineflayer-cmd",
            "tags_url": "https://api.github.com/repos/louis030195/mineflayer-cmd/tags",
            "teams_url": "https://api.github.com/repos/louis030195/mineflayer-cmd/teams",
            "topics": [],
            "trees_url": "https://api.github.com/repos/louis030195/mineflayer-cmd/git/trees{/sha}",
            "updated_at": "2020-11-21T11:34:12Z",
            "url": "https://api.github.com/repos/louis030195/mineflayer-cmd",
            "visibility": "public",
            "watchers": 0,
            "watchers_count": 0,
            "web_commit_signoff_required": false
        },
        "sha": "3797530e034728f9a7803ca96958849085dc6c5e",
        "user": {
            "avatar_url": "https://avatars.githubusercontent.com/u/25003283?v=4",
            "events_url": "https://api.github.com/users/louis030195/events{/privacy}",
            "followers_url": "https://api.github.com/users/louis030195/followers",
            "following_url": "https://api.github.com/users/louis030195/following{/other_user}",
            "gists_url": "https://api.github.com/users/louis030195/gists{/gist_id}",
            "gravatar_id": "",
            "html_url": "https://github.com/louis030195",
            "id": 25003283,
            "login": "louis030195",
            "node_id": "MDQ6VXNlcjI1MDAzMjgz",
            "organizations_url": "https://api.github.com/users/louis030195/orgs",
            "received_events_url": "https://api.github.com/users/louis030195/received_events",
            "repos_url": "https://api.github.com/users/louis030195/repos",
            "site_admin": false,
            "starred_url": "https://api.github.com/users/louis030195/starred{/owner}{/repo}",
            "subscriptions_url": "https://api.github.com/users/louis030195/subscriptions",
            "type": "User",
            "url": "https://api.github.com/users/louis030195"
        }
    },
    "html_url": "https://github.com/PrismarineJS/mineflayer-cmd/pull/13",
    "id": 525118135,
    "issue_url": "https://api.github.com/repos/PrismarineJS/mineflayer-cmd/issues/13",
    "labels": [],
    "locked": false,
    "maintainer_can_modify": false,
    "merge_commit_sha": "f3124947f4262aa663dc5f60c652c637e4b0b4ed",
    "mergeable": null,
    "mergeable_state": "unknown",
    "merged": true,
    "merged_at": "2020-11-22T05:39:40Z",
    "merged_by": {
        "avatar_url": "https://avatars.githubusercontent.com/u/3118172?v=4",
        "events_url": "https://api.github.com/users/TheDudeFromCI/events{/privacy}",
        "followers_url": "https://api.github.com/users/TheDudeFromCI/followers",
        "following_url": "https://api.github.com/users/TheDudeFromCI/following{/other_user}",
        "gists_url": "https://api.github.com/users/TheDudeFromCI/gists{/gist_id}",
        "gravatar_id": "",
        "html_url": "https://github.com/TheDudeFromCI",
        "id": 3118172,
        "login": "TheDudeFromCI",
        "node_id": "MDQ6VXNlcjMxMTgxNzI=",
        "organizations_url": "https://api.github.com/users/TheDudeFromCI/orgs",
        "received_events_url": "https://api.github.com/users/TheDudeFromCI/received_events",
        "repos_url": "https://api.github.com/users/TheDudeFromCI/repos",
        "site_admin": false,
        "starred_url": "https://api.github.com/users/TheDudeFromCI/starred{/owner}{/repo}",
        "subscriptions_url": "https://api.github.com/users/TheDudeFromCI/subscriptions",
        "type": "User",
        "url": "https://api.github.com/users/TheDudeFromCI"
    },
    "milestone": null,
    "node_id": "MDExOlB1bGxSZXF1ZXN0NTI1MTE4MTM1",
    "number": 13,
    "patch_url": "https://github.com/PrismarineJS/mineflayer-cmd/pull/13.patch",
    "rebaseable": null,
    "requested_reviewers": [],
    "requested_teams": [],
    "review_comment_url": "https://api.github.com/repos/PrismarineJS/mineflayer-cmd/pulls/comments{/number}",
    "review_comments": 0,
    "review_comments_url": "https://api.github.com/repos/PrismarineJS/mineflayer-cmd/pulls/13/comments",
    "state": "closed",
    "statuses_url": "https://api.github.com/repos/PrismarineJS/mineflayer-cmd/statuses/3797530e034728f9a7803ca96958849085dc6c5e",
    "title": "Add help property to Command",
    "updated_at": "2020-11-22T05:39:40Z",
    "url": "https://api.github.com/repos/PrismarineJS/mineflayer-cmd/pulls/13",
    "user": {
        "avatar_url": "https://avatars.githubusercontent.com/u/25003283?v=4",
        "events_url": "https://api.github.com/users/louis030195/events{/privacy}",
        "followers_url": "https://api.github.com/users/louis030195/followers",
        "following_url": "https://api.github.com/users/louis030195/following{/other_user}",
        "gists_url": "https://api.github.com/users/louis030195/gists{/gist_id}",
        "gravatar_id": "",
        "html_url": "https://github.com/louis030195",
        "id": 25003283,
        "login": "louis030195",
        "node_id": "MDQ6VXNlcjI1MDAzMjgz",
        "organizations_url": "https://api.github.com/users/louis030195/orgs",
        "received_events_url": "https://api.github.com/users/louis030195/received_events",
        "repos_url": "https://api.github.com/users/louis030195/repos",
        "site_admin": false,
        "starred_url": "https://api.github.com/users/louis030195/starred{/owner}{/repo}",
        "subscriptions_url": "https://api.github.com/users/louis030195/subscriptions",
        "type": "User",
        "url": "https://api.github.com/users/louis030195"
    }
}