{
    "_links": {
        "comments": {
            "href": "https://api.github.com/repos/PrismarineJS/mineflayer-cmd/issues/74/comments"
        },
        "commits": {
            "href": "https://api.github.com/repos/PrismarineJS/mineflayer-cmd/pulls/74/commits"
        },
        "html": {
            "href": "https://github.com/PrismarineJS/mineflayer-cmd/pull/74"
        },
        "issue": {
            "href": "https://api.github.com/repos/PrismarineJS/mineflayer-cmd/issues/74"
        },
        "review_comment": {
            "href": "https://api.github.com/repos/PrismarineJS/mineflayer-cmd/pulls/comments{/number}"
        },
        "review_comments": {
            "href": "https://api.github.com/repos/PrismarineJS/mineflayer-cmd/pulls/74/comments"
        },
        "self": {
            "href": "https://api.github.com/repos/PrismarineJS/mineflayer-cmd/pulls/74"
        },
        "statuses": {
            "href": "https://api.github.com/repos/PrismarineJS/mineflayer-cmd/statuses/41ffc37de215aaebfe68885d17565570aefcebe2"
        }
    },
    "active_lock_reason": null,
    "additions": 1,
    "assignee": null,
    "assignees": [],
    "author_association": "CONTRIBUTOR",
    "auto_merge": null,
    "base": {
        "label": "PrismarineJS:master",
        "ref": "master",
        "repo": {
            "allow_forking": true,
            "archive_url": "https://api.github.com/repos/PrismarineJS/mineflayer-cmd/{archive_format}{/ref}",
            "archived": false,
            "assignees_url": "https://api.github.com/repos/PrismarineJS/mineflayer-cmd/assignees{/user}",
            "blobs_url": "https://api.github.com/repos/PrismarineJS/mineflayer-cmd/git/blobs{/sha}",
            "branches_url": "https://api.github.com/repos/PrismarineJS/mineflayer-cmd/branches{/branch}",
            "clone_url": "https://github.com/PrismarineJS/mineflayer-cmd.git",
            "collaborators_url": "https://api.github.com/repos/PrismarineJS/mineflayer-cmd/collaborators{/collaborator}",
            "comments_url": "https://api.github.com/repos/PrismarineJS/mineflayer-cmd/comments{/number}",
            "commits_url": "https://api.github.com/repos/PrismarineJS/mineflayer-cmd/commits{/sha}",
            "compare_url": "https://api.github.com/repos/PrismarineJS/mineflayer-cmd/compare/{base}...{head}",
            "contents_url": "https://api.github.com/repos/PrismarineJS/mineflayer-cmd/contents/{+path}",
            "contributors_url": "https://api.github.com/repos/PrismarineJS/mineflayer-cmd/contributors",
            "created_at": "2020-10-15T10:57:03Z",
            "default_branch": "master",
            "deployments_url": "https://api.github.com/repos/PrismarineJS/mineflayer-cmd/deployments",
            "description": "A command handler plugin for Mineflayer.",
            "disabled": false,
            "downloads_url": "https://api.github.com/repos/PrismarineJS/mineflayer-cmd/downloads",
            "events_url": "https://api.github.com/repos/PrismarineJS/mineflayer-cmd/events",
            "fork": false,
            "forks": 5,
            "forks_count": 5,
            "forks_url": "https://api.github.com/repos/PrismarineJS/mineflayer-cmd/forks",
            "full_name": "PrismarineJS/mineflayer-cmd",
            "git_commits_url": "https://api.github.com/repos/PrismarineJS/mineflayer-cmd/git/commits{/sha}",
            "git_refs_url": "https://api.github.com/repos/PrismarineJS/mineflayer-cmd/git/refs{/sha}",
            "git_tags_url": "https://api.github.com/repos/PrismarineJS/mineflayer-cmd/git/tags{/sha}",
            "git_url": "git://github.com/PrismarineJS/mineflayer-cmd.git",
            "has_discussions": false,
            "has_downloads": true,
            "has_issues": true,
            "has_pages": false,
            "has_projects": true,
            "has_wiki": true,
            "homepage": null,
            "hooks_url": "https://api.github.com/repos/PrismarineJS/mineflayer-cmd/hooks",
            "html_url": "https://github.com/PrismarineJS/mineflayer-cmd",
            "id": 304296970,
            "is_template": false,
            "issue_comment_url": "https://api.github.com/repos/PrismarineJS/mineflayer-cmd/issues/comments{/number}",
            "issue_events_url": "https://api.github.com/repos/PrismarineJS/mineflayer-cmd/issues/events{/number}",
            "issues_url": "https://api.github.com/repos/PrismarineJS/mineflayer-cmd/issues{/number}",
            "keys_url": "https://api.github.com/repos/PrismarineJS/mineflayer-cmd/keys{/key_id}",
            "labels_url": "https://api.github.com/repos/PrismarineJS/mineflayer-cmd/labels{/name}",
            "language": "TypeScript",
            "languages_url": "https://api.github.com/repos/PrismarineJS/mineflayer-cmd/languages",
            "license": {
                "key": "mit",
                "name": "MIT License",
                "node_id": "MDc6TGljZW5zZTEz",
                "spdx_id": "MIT",
                "url": "https://api.github.com/licenses/mit"
            },
            "merges_url": "https://api.github.com/repos/PrismarineJS/mineflayer-cmd/merges",
            "milestones_url": "https://api.github.com/repos/PrismarineJS/mineflayer-cmd/milestones{/number}",
            "mirror_url": null,
            "name": "mineflayer-cmd",
            "node_id": "MDEwOlJlcG9zaXRvcnkzMDQyOTY5NzA=",
            "notifications_url": "https://api.github.com/repos/PrismarineJS/mineflayer-cmd/notifications{?since,all,participating}",
            "open_issues": 7,
            "open_issues_count": 7,
            "owner": {
                "avatar_url": "https://avatars.githubusercontent.com/u/11053411?v=4",
                "events_url": "https://api.github.com/users/PrismarineJS/events{/privacy}",
                "followers_url": "https://api.github.com/users/PrismarineJS/followers",
                "following_url": "https://api.github.com/users/PrismarineJS/following{/other_user}",
                "gists_url": "https://api.github.com/users/PrismarineJS/gists{/gist_id}",
                "gravatar_id": "",
                "html_url": "https://github.com/PrismarineJS",
                "id": 11053411,
                "login": "PrismarineJS",
                "node_id": "MDEyOk9yZ2FuaXphdGlvbjExMDUzNDEx",
                "organizations_url": "https://api.github.com/users/PrismarineJS/orgs",
                "received_events_url": "https://api.github.com/users/PrismarineJS/received_events",
                "repos_url": "https://api.github.com/users/PrismarineJS/repos",
                "site_admin": false,
                "starred_url": "https://api.github.com/users/PrismarineJS/starred{/owner}{/repo}",
                "subscriptions_url": "https://api.github.com/users/PrismarineJS/subscriptions",
                "type": "Organization",
                "url": "https://api.github.com/users/PrismarineJS",
                "user_view_type": "public"
            },
            "private": false,
            "pulls_url": "https://api.github.com/repos/PrismarineJS/mineflayer-cmd/pulls{/number}",
            "pushed_at": "2024-10-23T11:30:58Z",
            "releases_url": "https://api.github.com/repos/PrismarineJS/mineflayer-cmd/releases{/id}",
            "size": 49,
            "ssh_url": "git@github.com:PrismarineJS/mineflayer-cmd.git",
            "stargazers_count": 7,
            "stargazers_url": "https://api.github.com/repos/PrismarineJS/mineflayer-cmd/stargazers",
            "statuses_url": "https://api.github.com/repos/PrismarineJS/mineflayer-cmd/statuses/{sha}",
            "subscribers_url": "https://api.github.com/repos/PrismarineJS/mineflayer-cmd/subscribers",
            "subscription_url": "https://api.github.com/repos/PrismarineJS/mineflayer-cmd/subscription",
            "svn_url": "https://github.com/PrismarineJS/mineflayer-cmd",
            "tags_url": "https://api.github.com/repos/PrismarineJS/mineflayer-cmd/tags",
            "teams_url": "https://api.github.com/repos/PrismarineJS/mineflayer-cmd/teams",
            "topics": [],
            "trees_url": "https://api.github.com/repos/PrismarineJS/mineflayer-cmd/git/trees{/sha}",
            "updated_at": "2024-08-21T18:50:24Z",
            "url": "https://api.github.com/repos/PrismarineJS/mineflayer-cmd",
            "visibility": "public",
            "watchers": 7,
            "watchers_count": 7,
            "web_commit_signoff_required": false
        },
        "sha": "9633986562043171eb7fc63641c463d7ee21bb9b",
        "user": {
            "avatar_url": "https://avatars.githubusercontent.com/u/11053411?v=4",
            "events_url": "https://api.github.com/users/PrismarineJS/events{/privacy}",
            "followers_url": "https://api.github.com/users/PrismarineJS/followers",
            "following_url": "https://api.github.com/users/PrismarineJS/following{/other_user}",
            "gists_url": "https://api.github.com/users/PrismarineJS/gists{/gist_id}",
            "gravatar_id": "",
            "html_url": "https://github.com/PrismarineJS",
            "id": 11053411,
            "login": "PrismarineJS",
            "node_id": "MDEyOk9yZ2FuaXphdGlvbjExMDUzNDEx",
            "organizations_url": "https://api.github.com/users/PrismarineJS/orgs",
            "received_events_url": "https://api.github.com/users/PrismarineJS/received_events",
            "repos_url": "https://api.github.com/users/PrismarineJS/repos",
            "site_admin": false,
            "starred_url": "https://api.github.com/users/PrismarineJS/starred{/owner}{/repo}",
            "subscriptions_url": "https://api.github.com/users/PrismarineJS/subscriptions",
            "type": "Organization",
            "url": "https://api.github.com/users/PrismarineJS",
            "user_view_type": "public"
        }
    },
    "body": "Bumps [@types/node](https://github.com/DefinitelyTyped/DefinitelyTyped/tree/HEAD/types/node) from 20.16.14 to 22.7.8.\n<details>\n<summary>Commits</summary>\n<ul>\n<li>See full diff in <a href=\"https://github.com/DefinitelyTyped/DefinitelyTyped/commits/HEAD/types/node\">compare view</a></li>\n</ul>\n</details>\n<br />\n\n\n[![Dependabot compatibility score](https://dependabot-badges.githubapp.com/badges/compatibility_score?dependency-name=@types/node&package-manager=npm_and_yarn&previous-version=20.16.14&new-version=22.7.8)](https://docs.github.com/en/github/managing-security-vulnerabilities/about-dependabot-security-updates#about-compatibility-scores)\n\nDependabot will resolve any conflicts with this PR as long as you don't alter it yourself. You can also trigger a rebase manually by commenting `@dependabot rebase`.\n\n[//]: # (dependabot-automerge-start)\n[//]: # (dependabot-automerge-end)\n\n---\n\n<details>\n<summary>Dependabot commands and options</summary>\n<br />\n\nYou can trigger Dependabot actions by commenting on this PR:\n- `@dependabot rebase` will rebase this PR\n- `@dependabot recreate` will recreate this PR, overwriting any edits that have been made to it\n- `@dependabot merge` will merge this PR after your CI passes on it\n- `@dependabot squash and merge` will squash and merge this PR after your CI passes on it\n- `@dependabot cancel merge` will cancel a previously requested merge and block automerging\n- `@dependabot reopen` will reopen this PR if it is closed\n- `@dependabot close` will close this PR and stop Dependabot recreating it. You can achieve the same result by closing it manually\n- `@dependabot show <dependency name> ignore conditions` will show all of the ignore conditions of the specified dependency\n- `@dependabot ignore this major version` will close this PR and stop Dependabot creating any more for this major version (unless you reopen the PR or upgrade to it yourself)\n- `@dependabot ignore this minor version` will close this PR and stop Dependabot creating any more for this minor version (unless you reopen the PR or upgrade to it yourself)\n- `@dependabot ignore this dependency` will close this PR and stop Dependabot creating any more for this dependency (unless you reopen the PR or upgrade to it yourself)\n\n\n</details>",
    "changed_files": 1,
    "closed_at": "2024-10-23T11:30:57Z",
    "comment_data": [],
    "comment_regular_data": [
        {
            "author_association": "NONE",
            "body": "<!-- overview-comment -->\n**New and removed dependencies detected.** Learn more about [Socket for GitHub ↗︎](https://socket.dev?utm_medium=gh)\n\n\n| Package | New capabilities | Transitives | Size | Publisher |\n|:--- |:--- |:--- |:--- |:--- |\n| [npm/@types/node@22.7.8](https://socket.dev/npm/package/@types/node/overview/22.7.8) | None | <a href=\"https://socket.dev/npm/package/@types/node/dependencies/22.7.8\">`+1`</a> | 2.34 MB | <a href=\"https://socket.dev/npm/user/types\">types</a> |\n\n\n**🚮 Removed packages:** [npm/@types/node@20.16.14](https://socket.dev/npm/package/@types/node/overview/20.16.14)\n\n\n\n[**View full report↗︎**](https://socket.dev/dashboard/org/PrismarineJS/diff/3eb02c30-fd01-4c18-a984-4e17f2dbab07/98d5e5ba-53db-45c7-8ab4-e4f232addfa2)",
            "created_at": "2024-10-22T11:43:11Z",
            "html_url": "https://github.com/PrismarineJS/mineflayer-cmd/pull/74#issuecomment-2429053545",
            "id": 2429053545,
            "issue_url": "https://api.github.com/repos/PrismarineJS/mineflayer-cmd/issues/74",
            "node_id": "IC_kwDOEiM0Cs6QyGpp",
            "performed_via_github_app": {
                "client_id": "Iv1.0dc8bfb0ebf2ec17",
                "created_at": "2021-12-04T00:33:05Z",
                "description": "### Socket protects your app from malicious dependencies lurking in your open source supply chain.\r\n\r\nOpen source code makes up 90% of most codebases. It is critical to manage it effectively to reduce your security risk.\r\n\r\n## Detect and block open source supply chain attacks\r\n\r\nSecurity teams depend on Socket to prevent malicious open source dependencies from infiltrating their apps.\r\n\r\nSocket dramatically improves your open source security posture by _detecting and blocking the attacks you don't expect_ – malware, install scripts, hidden code, typo-squatting, and more – which aren't caught by traditional vulnerability scanners.\r\n\r\n- **Block malware** – Block emerging malware threats\r\n\r\n- **Block typo-squatting** – Block malicious packages that differ in name by only a few characters, and recommend the correct package\r\n\r\n- **Detect hidden code** – Detect obfuscated, minified, or hidden code\r\n\r\n- **Detect privileged API usage** – Report when a dependency update introduces new risky API usage – filesystem, network, child_process, eval()\r\n\r\n- **Detect suspicious updates** – Sudden inclusion of privileged APIs in patch or minor releases\r\n\r\nSocket currently [supports 60 detections](https://socket.dev/npm/issue) in 5 categories: supply chain risk, quality, maintenance, known vulnerabilities, and license problems.\r\n\r\n## Take charge of your dependency health\r\n\r\nSocket improves security outcomes and reduces work for security teams by **surfacing actionable security information directly inline in GitHub** so developers are empowered to make better decisions.\r\n\r\n- **Five minute deployment** – The easiest security product you'll ever deploy in your organization. Just install a GitHub app and you're done.\r\n\r\n- **Provide security feedback directly on PRs** – Empower developers to solve security issues before they're deployed into production.\r\n\r\n- **Automated security** – Spend security team resources auditing the highest-impact dependencies, instead of all or nothing.\r\n\r\n## Socket detects what vulnerability scanners can’t\r\n\r\nIt's no longer sufficient to scan for known vulnerabilities (CVEs) and stop there. And yet, that's what the leading \"supply chain security\" products do, leaving you vulnerable.\r\n\r\nIt can take weeks or months for a CVE to be discovered, reported, and detected by tools. But in today's culture of fast development, a malicious dependency can be updated, merged, and running in production in days or even sometimes hours.\r\n\r\nDefenders need a new approach to address emerging threats from malicious dependencies:\r\n\r\n- **Maintainer intentionally added malware** – Rogue maintainer sabotaged his own open source package with 100M downloads/month, affecting companies such as Amazon AWS\r\n\r\n- **Package hijacked and poisoned w/ cryptominers and password-stealing malware** – Deliberate malware introduced into multiple packages with 30M downloads/month each\r\n\r\n- **Package hijacked to add backdoor targeting a specific organization** – Obfuscated malware added to a dependency which targeted a single company, went undetected for over a week, and made it into their production build\r\n\r\n- **NPM package manager allowed anyone to publish new versions of any package** – Attackers could publish new versions of any NPM package without authorization _for multiple years_\r\n\r\nUsing third-party dependencies without proper vetting leaves you open to hacking, breaches, and assorted security misfortune.",
                "events": [
                    "check_run",
                    "check_suite",
                    "issue_comment",
                    "member",
                    "organization",
                    "public",
                    "pull_request",
                    "push",
                    "repository"
                ],
                "external_url": "https://socket.dev",
                "html_url": "https://github.com/apps/socket-security",
                "id": 156372,
                "name": "Socket Security",
                "node_id": "A_kwHOBCHXrM4AAmLU",
                "owner": {
                    "avatar_url": "https://avatars.githubusercontent.com/u/69326764?v=4",
                    "events_url": "https://api.github.com/users/SocketDev/events{/privacy}",
                    "followers_url": "https://api.github.com/users/SocketDev/followers",
                    "following_url": "https://api.github.com/users/SocketDev/following{/other_user}",
                    "gists_url": "https://api.github.com/users/SocketDev/gists{/gist_id}",
                    "gravatar_id": "",
                    "html_url": "https://github.com/SocketDev",
                    "id": 69326764,
                    "login": "SocketDev",
                    "node_id": "MDEyOk9yZ2FuaXphdGlvbjY5MzI2NzY0",
                    "organizations_url": "https://api.github.com/users/SocketDev/orgs",
                    "received_events_url": "https://api.github.com/users/SocketDev/received_events",
                    "repos_url": "https://api.github.com/users/SocketDev/repos",
                    "site_admin": false,
                    "starred_url": "https://api.github.com/users/SocketDev/starred{/owner}{/repo}",
                    "subscriptions_url": "https://api.github.com/users/SocketDev/subscriptions",
                    "type": "Organization",
                    "url": "https://api.github.com/users/SocketDev",
                    "user_view_type": "public"
                },
                "permissions": {
                    "checks": "write",
                    "contents": "read",
                    "emails": "read",
                    "issues": "read",
                    "members": "read",
                    "metadata": "read",
                    "pull_requests": "write"
                },
                "slug": "socket-security",
                "updated_at": "2023-03-08T20:20:07Z"
            },
            "reactions": {
                "+1": 0,
                "-1": 0,
                "confused": 0,
                "eyes": 0,
                "heart": 0,
                "hooray": 0,
                "laugh": 0,
                "rocket": 0,
                "total_count": 0,
                "url": "https://api.github.com/repos/PrismarineJS/mineflayer-cmd/issues/comments/2429053545/reactions"
            },
            "updated_at": "2024-10-22T11:43:11Z",
            "url": "https://api.github.com/repos/PrismarineJS/mineflayer-cmd/issues/comments/2429053545",
            "user": {
                "avatar_url": "https://avatars.githubusercontent.com/in/156372?v=4",
                "events_url": "https://api.github.com/users/socket-security%5Bbot%5D/events{/privacy}",
                "followers_url": "https://api.github.com/users/socket-security%5Bbot%5D/followers",
                "following_url": "https://api.github.com/users/socket-security%5Bbot%5D/following{/other_user}",
                "gists_url": "https://api.github.com/users/socket-security%5Bbot%5D/gists{/gist_id}",
                "gravatar_id": "",
                "html_url": "https://github.com/apps/socket-security",
                "id": 95510084,
                "login": "socket-security[bot]",
                "node_id": "BOT_kgDOBbFeRA",
                "organizations_url": "https://api.github.com/users/socket-security%5Bbot%5D/orgs",
                "received_events_url": "https://api.github.com/users/socket-security%5Bbot%5D/received_events",
                "repos_url": "https://api.github.com/users/socket-security%5Bbot%5D/repos",
                "site_admin": false,
                "starred_url": "https://api.github.com/users/socket-security%5Bbot%5D/starred{/owner}{/repo}",
                "subscriptions_url": "https://api.github.com/users/socket-security%5Bbot%5D/subscriptions",
                "type": "Bot",
                "url": "https://api.github.com/users/socket-security%5Bbot%5D",
                "user_view_type": "public"
            }
        },
        {
            "author_association": "CONTRIBUTOR",
            "body": "Superseded by #75.",
            "created_at": "2024-10-23T11:30:57Z",
            "html_url": "https://github.com/PrismarineJS/mineflayer-cmd/pull/74#issuecomment-2431812725",
            "id": 2431812725,
            "issue_url": "https://api.github.com/repos/PrismarineJS/mineflayer-cmd/issues/74",
            "node_id": "IC_kwDOEiM0Cs6Q8oR1",
            "performed_via_github_app": {
                "client_id": "Iv1.4f9a6346434f815e",
                "created_at": "2019-04-16T22:34:25Z",
                "description": "",
                "events": [
                    "check_suite",
                    "issues",
                    "issue_comment",
                    "label",
                    "pull_request",
                    "pull_request_review",
                    "pull_request_review_comment",
                    "repository"
                ],
                "external_url": "https://dependabot-api.githubapp.com",
                "html_url": "https://github.com/apps/dependabot",
                "id": 29110,
                "name": "Dependabot",
                "node_id": "MDM6QXBwMjkxMTA=",
                "owner": {
                    "avatar_url": "https://avatars.githubusercontent.com/u/9919?v=4",
                    "events_url": "https://api.github.com/users/github/events{/privacy}",
                    "followers_url": "https://api.github.com/users/github/followers",
                    "following_url": "https://api.github.com/users/github/following{/other_user}",
                    "gists_url": "https://api.github.com/users/github/gists{/gist_id}",
                    "gravatar_id": "",
                    "html_url": "https://github.com/github",
                    "id": 9919,
                    "login": "github",
                    "node_id": "MDEyOk9yZ2FuaXphdGlvbjk5MTk=",
                    "organizations_url": "https://api.github.com/users/github/orgs",
                    "received_events_url": "https://api.github.com/users/github/received_events",
                    "repos_url": "https://api.github.com/users/github/repos",
                    "site_admin": false,
                    "starred_url": "https://api.github.com/users/github/starred{/owner}{/repo}",
                    "subscriptions_url": "https://api.github.com/users/github/subscriptions",
                    "type": "Organization",
                    "url": "https://api.github.com/users/github",
                    "user_view_type": "public"
                },
                "permissions": {
                    "actions": "read",
                    "checks": "write",
                    "contents": "write",
                    "issues": "write",
                    "members": "read",
                    "metadata": "read",
                    "pull_requests": "write",
                    "statuses": "read",
                    "vulnerability_alerts": "read",
                    "workflows": "write"
                },
                "slug": "dependabot",
                "updated_at": "2024-03-20T21:06:35Z"
            },
            "reactions": {
                "+1": 0,
                "-1": 0,
                "confused": 0,
                "eyes": 0,
                "heart": 0,
                "hooray": 0,
                "laugh": 0,
                "rocket": 0,
                "total_count": 0,
                "url": "https://api.github.com/repos/PrismarineJS/mineflayer-cmd/issues/comments/2431812725/reactions"
            },
            "updated_at": "2024-10-23T11:30:57Z",
            "url": "https://api.github.com/repos/PrismarineJS/mineflayer-cmd/issues/comments/2431812725",
            "user": {
                "avatar_url": "https://avatars.githubusercontent.com/in/29110?v=4",
                "events_url": "https://api.github.com/users/dependabot%5Bbot%5D/events{/privacy}",
                "followers_url": "https://api.github.com/users/dependabot%5Bbot%5D/followers",
                "following_url": "https://api.github.com/users/dependabot%5Bbot%5D/following{/other_user}",
                "gists_url": "https://api.github.com/users/dependabot%5Bbot%5D/gists{/gist_id}",
                "gravatar_id": "",
                "html_url": "https://github.com/apps/dependabot",
                "id": 49699333,
                "login": "dependabot[bot]",
                "node_id": "MDM6Qm90NDk2OTkzMzM=",
                "organizations_url": "https://api.github.com/users/dependabot%5Bbot%5D/orgs",
                "received_events_url": "https://api.github.com/users/dependabot%5Bbot%5D/received_events",
                "repos_url": "https://api.github.com/users/dependabot%5Bbot%5D/repos",
                "site_admin": false,
                "starred_url": "https://api.github.com/users/dependabot%5Bbot%5D/starred{/owner}{/repo}",
                "subscriptions_url": "https://api.github.com/users/dependabot%5Bbot%5D/subscriptions",
                "type": "Bot",
                "url": "https://api.github.com/users/dependabot%5Bbot%5D",
                "user_view_type": "public"
            }
        }
    ],
    "comments": 2,
    "comments_url": "https://api.github.com/repos/PrismarineJS/mineflayer-cmd/issues/74/comments",
    "commit_data": [
        {
            "author": {
                "avatar_url": "https://avatars.githubusercontent.com/in/29110?v=4",
                "events_url": "https://api.github.com/users/dependabot%5Bbot%5D/events{/privacy}",
                "followers_url": "https://api.github.com/users/dependabot%5Bbot%5D/followers",
                "following_url": "https://api.github.com/users/dependabot%5Bbot%5D/following{/other_user}",
                "gists_url": "https://api.github.com/users/dependabot%5Bbot%5D/gists{/gist_id}",
                "gravatar_id": "",
                "html_url": "https://github.com/apps/dependabot",
                "id": 49699333,
                "login": "dependabot[bot]",
                "node_id": "MDM6Qm90NDk2OTkzMzM=",
                "organizations_url": "https://api.github.com/users/dependabot%5Bbot%5D/orgs",
                "received_events_url": "https://api.github.com/users/dependabot%5Bbot%5D/received_events",
                "repos_url": "https://api.github.com/users/dependabot%5Bbot%5D/repos",
                "site_admin": false,
                "starred_url": "https://api.github.com/users/dependabot%5Bbot%5D/starred{/owner}{/repo}",
                "subscriptions_url": "https://api.github.com/users/dependabot%5Bbot%5D/subscriptions",
                "type": "Bot",
                "url": "https://api.github.com/users/dependabot%5Bbot%5D",
                "user_view_type": "public"
            },
            "comments_url": "https://api.github.com/repos/PrismarineJS/mineflayer-cmd/commits/41ffc37de215aaebfe68885d17565570aefcebe2/comments",
            "commit": {
                "author": {
                    "date": "2024-10-22T11:42:48Z",
                    "email": "49699333+dependabot[bot]@users.noreply.github.com",
                    "name": "dependabot[bot]"
                },
                "comment_count": 0,
                "committer": {
                    "date": "2024-10-22T11:42:48Z",
                    "email": "noreply@github.com",
                    "name": "GitHub"
                },
                "message": "Bump @types/node from 20.16.14 to 22.7.8\n\nBumps [@types/node](https://github.com/DefinitelyTyped/DefinitelyTyped/tree/HEAD/types/node) from 20.16.14 to 22.7.8.\n- [Release notes](https://github.com/DefinitelyTyped/DefinitelyTyped/releases)\n- [Commits](https://github.com/DefinitelyTyped/DefinitelyTyped/commits/HEAD/types/node)\n\n---\nupdated-dependencies:\n- dependency-name: \"@types/node\"\n  dependency-type: direct:development\n  update-type: version-update:semver-major\n...\n\nSigned-off-by: dependabot[bot] <support@github.com>",
                "tree": {
                    "sha": "09cf088a378d0878075a4c673fc725ee081f2e5b",
                    "url": "https://api.github.com/repos/PrismarineJS/mineflayer-cmd/git/trees/09cf088a378d0878075a4c673fc725ee081f2e5b"
                },
                "url": "https://api.github.com/repos/PrismarineJS/mineflayer-cmd/git/commits/41ffc37de215aaebfe68885d17565570aefcebe2",
                "verification": {
                    "payload": "tree 09cf088a378d0878075a4c673fc725ee081f2e5b\nparent 9633986562043171eb7fc63641c463d7ee21bb9b\nauthor dependabot[bot] <49699333+dependabot[bot]@users.noreply.github.com> 1729597368 +0000\ncommitter GitHub <noreply@github.com> 1729597368 +0000\n\nBump @types/node from 20.16.14 to 22.7.8\n\nBumps [@types/node](https://github.com/DefinitelyTyped/DefinitelyTyped/tree/HEAD/types/node) from 20.16.14 to 22.7.8.\n- [Release notes](https://github.com/DefinitelyTyped/DefinitelyTyped/releases)\n- [Commits](https://github.com/DefinitelyTyped/DefinitelyTyped/commits/HEAD/types/node)\n\n---\nupdated-dependencies:\n- dependency-name: \"@types/node\"\n  dependency-type: direct:development\n  update-type: version-update:semver-major\n...\n\nSigned-off-by: dependabot[bot] <support@github.com>",
                    "reason": "valid",
                    "signature": "-----BEGIN PGP SIGNATURE-----\n\nwsFcBAABCAAQBQJnF4+4CRC1aQ7uu5UhlAAAKxoQACoi0TGOF6z6nIMfWXBt8N3f\nvHUePkbRO/LmPAEhcNWOZMoS5I5jfzJOMmm1feYOBns+nM/G6yXzVcvv/En7vC0R\nmrgnV4c0qlHmaRgBsYrWkEHOQWxoRmNcIvpQr25cxv4GpLB8i3KyF7KIlIpHy/ik\nHAvEq30+Sl/MiOGk49eRGuu6ZXlHAKVPed/jrpF2h4w71iQhchExp2yfG7bdP+8j\nZDRr7zCCCfVeiMWN0hu2XwQ4ANspDVspO5MvjXev/X10gHv9r1DLajPjIOhQXC/B\n5ka1dmSCVNosj2LjLpver1dU3wYFk7+SYFIyTQbgdPE2byEpKYmbPg930N+LCR7T\nGujwdvuUNjVUFLUfUPVNLjnrncD33nIJYV0If/uOhIL3+R8VszWbz2gBaPkcXlDj\nRNoZchNF/mdgCiBi0mPId9q321dtQKuv9QRlS79nJevc8MQpbue2rSR3S7G5KcYP\nQN9QoLIFdchwzlSG8WZHTkOUS/aQ9gXXAdUZXYgRNdra7l3uJ+TpqtPz275GEWe6\n1mZYjRYSJLGf/+oeGJgHGoA250lN/DqdN/H1/RsLzHaEQecloHm/ZegmTZRKTnYc\n8qsBijtHo9L1b8Qe9boakXHtu48wnBrENOt8znlTnShuKwWkNFQyo282eoJY8l7l\ner7oE2htnKe6yIh0gzUk\n=NjjQ\n-----END PGP SIGNATURE-----\n",
                    "verified": true
                }
            },
            "committer": {
                "avatar_url": "https://avatars.githubusercontent.com/u/19864447?v=4",
                "events_url": "https://api.github.com/users/web-flow/events{/privacy}",
                "followers_url": "https://api.github.com/users/web-flow/followers",
                "following_url": "https://api.github.com/users/web-flow/following{/other_user}",
                "gists_url": "https://api.github.com/users/web-flow/gists{/gist_id}",
                "gravatar_id": "",
                "html_url": "https://github.com/web-flow",
                "id": 19864447,
                "login": "web-flow",
                "node_id": "MDQ6VXNlcjE5ODY0NDQ3",
                "organizations_url": "https://api.github.com/users/web-flow/orgs",
                "received_events_url": "https://api.github.com/users/web-flow/received_events",
                "repos_url": "https://api.github.com/users/web-flow/repos",
                "site_admin": false,
                "starred_url": "https://api.github.com/users/web-flow/starred{/owner}{/repo}",
                "subscriptions_url": "https://api.github.com/users/web-flow/subscriptions",
                "type": "User",
                "url": "https://api.github.com/users/web-flow",
                "user_view_type": "public"
            },
            "html_url": "https://github.com/PrismarineJS/mineflayer-cmd/commit/41ffc37de215aaebfe68885d17565570aefcebe2",
            "node_id": "C_kwDOEiM0CtoAKDQxZmZjMzdkZTIxNWFhZWJmZTY4ODg1ZDE3NTY1NTcwYWVmY2ViZTI",
            "parents": [
                {
                    "html_url": "https://github.com/PrismarineJS/mineflayer-cmd/commit/9633986562043171eb7fc63641c463d7ee21bb9b",
                    "sha": "9633986562043171eb7fc63641c463d7ee21bb9b",
                    "url": "https://api.github.com/repos/PrismarineJS/mineflayer-cmd/commits/9633986562043171eb7fc63641c463d7ee21bb9b"
                }
            ],
            "sha": "41ffc37de215aaebfe68885d17565570aefcebe2",
            "url": "https://api.github.com/repos/PrismarineJS/mineflayer-cmd/commits/41ffc37de215aaebfe68885d17565570aefcebe2"
        }
    ],
    "commits": 1,
    "commits_url": "https://api.github.com/repos/PrismarineJS/mineflayer-cmd/pulls/74/commits",
    "created_at": "2024-10-22T11:42:49Z",
    "deletions": 1,
    "diff_url": "https://github.com/PrismarineJS/mineflayer-cmd/pull/74.diff",
    "draft": false,
    "head": {
        "label": "PrismarineJS:dependabot/npm_and_yarn/types/node-22.7.8",
        "ref": "dependabot/npm_and_yarn/types/node-22.7.8",
        "repo": {
            "allow_forking": true,
            "archive_url": "https://api.github.com/repos/PrismarineJS/mineflayer-cmd/{archive_format}{/ref}",
            "archived": false,
            "assignees_url": "https://api.github.com/repos/PrismarineJS/mineflayer-cmd/assignees{/user}",
            "blobs_url": "https://api.github.com/repos/PrismarineJS/mineflayer-cmd/git/blobs{/sha}",
            "branches_url": "https://api.github.com/repos/PrismarineJS/mineflayer-cmd/branches{/branch}",
            "clone_url": "https://github.com/PrismarineJS/mineflayer-cmd.git",
            "collaborators_url": "https://api.github.com/repos/PrismarineJS/mineflayer-cmd/collaborators{/collaborator}",
            "comments_url": "https://api.github.com/repos/PrismarineJS/mineflayer-cmd/comments{/number}",
            "commits_url": "https://api.github.com/repos/PrismarineJS/mineflayer-cmd/commits{/sha}",
            "compare_url": "https://api.github.com/repos/PrismarineJS/mineflayer-cmd/compare/{base}...{head}",
            "contents_url": "https://api.github.com/repos/PrismarineJS/mineflayer-cmd/contents/{+path}",
            "contributors_url": "https://api.github.com/repos/PrismarineJS/mineflayer-cmd/contributors",
            "created_at": "2020-10-15T10:57:03Z",
            "default_branch": "master",
            "deployments_url": "https://api.github.com/repos/PrismarineJS/mineflayer-cmd/deployments",
            "description": "A command handler plugin for Mineflayer.",
            "disabled": false,
            "downloads_url": "https://api.github.com/repos/PrismarineJS/mineflayer-cmd/downloads",
            "events_url": "https://api.github.com/repos/PrismarineJS/mineflayer-cmd/events",
            "fork": false,
            "forks": 5,
            "forks_count": 5,
            "forks_url": "https://api.github.com/repos/PrismarineJS/mineflayer-cmd/forks",
            "full_name": "PrismarineJS/mineflayer-cmd",
            "git_commits_url": "https://api.github.com/repos/PrismarineJS/mineflayer-cmd/git/commits{/sha}",
            "git_refs_url": "https://api.github.com/repos/PrismarineJS/mineflayer-cmd/git/refs{/sha}",
            "git_tags_url": "https://api.github.com/repos/PrismarineJS/mineflayer-cmd/git/tags{/sha}",
            "git_url": "git://github.com/PrismarineJS/mineflayer-cmd.git",
            "has_discussions": false,
            "has_downloads": true,
            "has_issues": true,
            "has_pages": false,
            "has_projects": true,
            "has_wiki": true,
            "homepage": null,
            "hooks_url": "https://api.github.com/repos/PrismarineJS/mineflayer-cmd/hooks",
            "html_url": "https://github.com/PrismarineJS/mineflayer-cmd",
            "id": 304296970,
            "is_template": false,
            "issue_comment_url": "https://api.github.com/repos/PrismarineJS/mineflayer-cmd/issues/comments{/number}",
            "issue_events_url": "https://api.github.com/repos/PrismarineJS/mineflayer-cmd/issues/events{/number}",
            "issues_url": "https://api.github.com/repos/PrismarineJS/mineflayer-cmd/issues{/number}",
            "keys_url": "https://api.github.com/repos/PrismarineJS/mineflayer-cmd/keys{/key_id}",
            "labels_url": "https://api.github.com/repos/PrismarineJS/mineflayer-cmd/labels{/name}",
            "language": "TypeScript",
            "languages_url": "https://api.github.com/repos/PrismarineJS/mineflayer-cmd/languages",
            "license": {
                "key": "mit",
                "name": "MIT License",
                "node_id": "MDc6TGljZW5zZTEz",
                "spdx_id": "MIT",
                "url": "https://api.github.com/licenses/mit"
            },
            "merges_url": "https://api.github.com/repos/PrismarineJS/mineflayer-cmd/merges",
            "milestones_url": "https://api.github.com/repos/PrismarineJS/mineflayer-cmd/milestones{/number}",
            "mirror_url": null,
            "name": "mineflayer-cmd",
            "node_id": "MDEwOlJlcG9zaXRvcnkzMDQyOTY5NzA=",
            "notifications_url": "https://api.github.com/repos/PrismarineJS/mineflayer-cmd/notifications{?since,all,participating}",
            "open_issues": 7,
            "open_issues_count": 7,
            "owner": {
                "avatar_url": "https://avatars.githubusercontent.com/u/11053411?v=4",
                "events_url": "https://api.github.com/users/PrismarineJS/events{/privacy}",
                "followers_url": "https://api.github.com/users/PrismarineJS/followers",
                "following_url": "https://api.github.com/users/PrismarineJS/following{/other_user}",
                "gists_url": "https://api.github.com/users/PrismarineJS/gists{/gist_id}",
                "gravatar_id": "",
                "html_url": "https://github.com/PrismarineJS",
                "id": 11053411,
                "login": "PrismarineJS",
                "node_id": "MDEyOk9yZ2FuaXphdGlvbjExMDUzNDEx",
                "organizations_url": "https://api.github.com/users/PrismarineJS/orgs",
                "received_events_url": "https://api.github.com/users/PrismarineJS/received_events",
                "repos_url": "https://api.github.com/users/PrismarineJS/repos",
                "site_admin": false,
                "starred_url": "https://api.github.com/users/PrismarineJS/starred{/owner}{/repo}",
                "subscriptions_url": "https://api.github.com/users/PrismarineJS/subscriptions",
                "type": "Organization",
                "url": "https://api.github.com/users/PrismarineJS",
                "user_view_type": "public"
            },
            "private": false,
            "pulls_url": "https://api.github.com/repos/PrismarineJS/mineflayer-cmd/pulls{/number}",
            "pushed_at": "2024-10-23T11:30:58Z",
            "releases_url": "https://api.github.com/repos/PrismarineJS/mineflayer-cmd/releases{/id}",
            "size": 49,
            "ssh_url": "git@github.com:PrismarineJS/mineflayer-cmd.git",
            "stargazers_count": 7,
            "stargazers_url": "https://api.github.com/repos/PrismarineJS/mineflayer-cmd/stargazers",
            "statuses_url": "https://api.github.com/repos/PrismarineJS/mineflayer-cmd/statuses/{sha}",
            "subscribers_url": "https://api.github.com/repos/PrismarineJS/mineflayer-cmd/subscribers",
            "subscription_url": "https://api.github.com/repos/PrismarineJS/mineflayer-cmd/subscription",
            "svn_url": "https://github.com/PrismarineJS/mineflayer-cmd",
            "tags_url": "https://api.github.com/repos/PrismarineJS/mineflayer-cmd/tags",
            "teams_url": "https://api.github.com/repos/PrismarineJS/mineflayer-cmd/teams",
            "topics": [],
            "trees_url": "https://api.github.com/repos/PrismarineJS/mineflayer-cmd/git/trees{/sha}",
            "updated_at": "2024-08-21T18:50:24Z",
            "url": "https://api.github.com/repos/PrismarineJS/mineflayer-cmd",
            "visibility": "public",
            "watchers": 7,
            "watchers_count": 7,
            "web_commit_signoff_required": false
        },
        "sha": "41ffc37de215aaebfe68885d17565570aefcebe2",
        "user": {
            "avatar_url": "https://avatars.githubusercontent.com/u/11053411?v=4",
            "events_url": "https://api.github.com/users/PrismarineJS/events{/privacy}",
            "followers_url": "https://api.github.com/users/PrismarineJS/followers",
            "following_url": "https://api.github.com/users/PrismarineJS/following{/other_user}",
            "gists_url": "https://api.github.com/users/PrismarineJS/gists{/gist_id}",
            "gravatar_id": "",
            "html_url": "https://github.com/PrismarineJS",
            "id": 11053411,
            "login": "PrismarineJS",
            "node_id": "MDEyOk9yZ2FuaXphdGlvbjExMDUzNDEx",
            "organizations_url": "https://api.github.com/users/PrismarineJS/orgs",
            "received_events_url": "https://api.github.com/users/PrismarineJS/received_events",
            "repos_url": "https://api.github.com/users/PrismarineJS/repos",
            "site_admin": false,
            "starred_url": "https://api.github.com/users/PrismarineJS/starred{/owner}{/repo}",
            "subscriptions_url": "https://api.github.com/users/PrismarineJS/subscriptions",
            "type": "Organization",
            "url": "https://api.github.com/users/PrismarineJS",
            "user_view_type": "public"
        }
    },
    "html_url": "https://github.com/PrismarineJS/mineflayer-cmd/pull/74",
    "id": 2138261673,
    "issue_url": "https://api.github.com/repos/PrismarineJS/mineflayer-cmd/issues/74",
    "labels": [
        {
            "color": "0366d6",
            "default": false,
            "description": "Pull requests that update a dependency file",
            "id": 2493965276,
            "name": "dependencies",
            "node_id": "MDU6TGFiZWwyNDkzOTY1Mjc2",
            "url": "https://api.github.com/repos/PrismarineJS/mineflayer-cmd/labels/dependencies"
        }
    ],
    "locked": false,
    "maintainer_can_modify": false,
    "merge_commit_sha": "055861a063edcef8a27289639e6eae13294937b5",
    "mergeable": true,
    "mergeable_state": "clean",
    "merged": false,
    "merged_at": null,
    "merged_by": null,
    "milestone": null,
    "node_id": "PR_kwDOEiM0Cs5_c0ip",
    "number": 74,
    "patch_url": "https://github.com/PrismarineJS/mineflayer-cmd/pull/74.patch",
    "rebaseable": false,
    "requested_reviewers": [],
    "requested_teams": [],
    "review_comment_url": "https://api.github.com/repos/PrismarineJS/mineflayer-cmd/pulls/comments{/number}",
    "review_comments": 0,
    "review_comments_url": "https://api.github.com/repos/PrismarineJS/mineflayer-cmd/pulls/74/comments",
    "state": "closed",
    "statuses_url": "https://api.github.com/repos/PrismarineJS/mineflayer-cmd/statuses/41ffc37de215aaebfe68885d17565570aefcebe2",
    "title": "Bump @types/node from 20.16.14 to 22.7.8",
    "updated_at": "2024-10-23T11:30:59Z",
    "url": "https://api.github.com/repos/PrismarineJS/mineflayer-cmd/pulls/74",
    "user": {
        "avatar_url": "https://avatars.githubusercontent.com/in/29110?v=4",
        "events_url": "https://api.github.com/users/dependabot%5Bbot%5D/events{/privacy}",
        "followers_url": "https://api.github.com/users/dependabot%5Bbot%5D/followers",
        "following_url": "https://api.github.com/users/dependabot%5Bbot%5D/following{/other_user}",
        "gists_url": "https://api.github.com/users/dependabot%5Bbot%5D/gists{/gist_id}",
        "gravatar_id": "",
        "html_url": "https://github.com/apps/dependabot",
        "id": 49699333,
        "login": "dependabot[bot]",
        "node_id": "MDM6Qm90NDk2OTkzMzM=",
        "organizations_url": "https://api.github.com/users/dependabot%5Bbot%5D/orgs",
        "received_events_url": "https://api.github.com/users/dependabot%5Bbot%5D/received_events",
        "repos_url": "https://api.github.com/users/dependabot%5Bbot%5D/repos",
        "site_admin": false,
        "starred_url": "https://api.github.com/users/dependabot%5Bbot%5D/starred{/owner}{/repo}",
        "subscriptions_url": "https://api.github.com/users/dependabot%5Bbot%5D/subscriptions",
        "type": "Bot",
        "url": "https://api.github.com/users/dependabot%5Bbot%5D",
        "user_view_type": "public"
    }
}