{
    "assets": [],
    "assets_url": "https://api.github.com/repos/PrismarineJS/node-minecraft-data/releases/89775887/assets",
    "author": {
        "avatar_url": "https://avatars.githubusercontent.com/in/15368?v=4",
        "events_url": "https://api.github.com/users/github-actions%5Bbot%5D/events{/privacy}",
        "followers_url": "https://api.github.com/users/github-actions%5Bbot%5D/followers",
        "following_url": "https://api.github.com/users/github-actions%5Bbot%5D/following{/other_user}",
        "gists_url": "https://api.github.com/users/github-actions%5Bbot%5D/gists{/gist_id}",
        "gravatar_id": "",
        "html_url": "https://github.com/apps/github-actions",
        "id": 41898282,
        "login": "github-actions[bot]",
        "node_id": "MDM6Qm90NDE4OTgyODI=",
        "organizations_url": "https://api.github.com/users/github-actions%5Bbot%5D/orgs",
        "received_events_url": "https://api.github.com/users/github-actions%5Bbot%5D/received_events",
        "repos_url": "https://api.github.com/users/github-actions%5Bbot%5D/repos",
        "site_admin": false,
        "starred_url": "https://api.github.com/users/github-actions%5Bbot%5D/starred{/owner}{/repo}",
        "subscriptions_url": "https://api.github.com/users/github-actions%5Bbot%5D/subscriptions",
        "type": "Bot",
        "url": "https://api.github.com/users/github-actions%5Bbot%5D",
        "user_view_type": "public"
    },
    "body": "3.25.1",
    "created_at": "2023-01-20T21:02:59Z",
    "draft": false,
    "html_url": "https://github.com/PrismarineJS/node-minecraft-data/releases/tag/3.25.1",
    "id": 89775887,
    "name": "Release 3.25.1",
    "node_id": "RE_kwDOAhfwb84FWd8P",
    "prerelease": false,
    "published_at": "2023-01-20T21:03:42Z",
    "tag_name": "3.25.1",
    "tarball_url": "https://api.github.com/repos/PrismarineJS/node-minecraft-data/tarball/3.25.1",
    "target_commitish": "17261f4f60380ee7076ea28e976552fdaa359f8a",
    "upload_url": "https://uploads.github.com/repos/PrismarineJS/node-minecraft-data/releases/89775887/assets{?name,label}",
    "url": "https://api.github.com/repos/PrismarineJS/node-minecraft-data/releases/89775887",
    "zipball_url": "https://api.github.com/repos/PrismarineJS/node-minecraft-data/zipball/3.25.1"
}