{
    "_links": {
        "comments": {
            "href": "https://api.github.com/repos/PrismarineJS/prismarine-windows/issues/79/comments"
        },
        "commits": {
            "href": "https://api.github.com/repos/PrismarineJS/prismarine-windows/pulls/79/commits"
        },
        "html": {
            "href": "https://github.com/PrismarineJS/prismarine-windows/pull/79"
        },
        "issue": {
            "href": "https://api.github.com/repos/PrismarineJS/prismarine-windows/issues/79"
        },
        "review_comment": {
            "href": "https://api.github.com/repos/PrismarineJS/prismarine-windows/pulls/comments{/number}"
        },
        "review_comments": {
            "href": "https://api.github.com/repos/PrismarineJS/prismarine-windows/pulls/79/comments"
        },
        "self": {
            "href": "https://api.github.com/repos/PrismarineJS/prismarine-windows/pulls/79"
        },
        "statuses": {
            "href": "https://api.github.com/repos/PrismarineJS/prismarine-windows/statuses/576a4b26e73b993bb90a7c51e3b8e2ba1d2aabcf"
        }
    },
    "active_lock_reason": null,
    "additions": 1,
    "assignee": null,
    "assignees": [],
    "author_association": "CONTRIBUTOR",
    "auto_merge": null,
    "base": {
        "label": "PrismarineJS:master",
        "ref": "master",
        "repo": {
            "allow_forking": true,
            "archive_url": "https://api.github.com/repos/PrismarineJS/prismarine-windows/{archive_format}{/ref}",
            "archived": false,
            "assignees_url": "https://api.github.com/repos/PrismarineJS/prismarine-windows/assignees{/user}",
            "blobs_url": "https://api.github.com/repos/PrismarineJS/prismarine-windows/git/blobs{/sha}",
            "branches_url": "https://api.github.com/repos/PrismarineJS/prismarine-windows/branches{/branch}",
            "clone_url": "https://github.com/PrismarineJS/prismarine-windows.git",
            "collaborators_url": "https://api.github.com/repos/PrismarineJS/prismarine-windows/collaborators{/collaborator}",
            "comments_url": "https://api.github.com/repos/PrismarineJS/prismarine-windows/comments{/number}",
            "commits_url": "https://api.github.com/repos/PrismarineJS/prismarine-windows/commits{/sha}",
            "compare_url": "https://api.github.com/repos/PrismarineJS/prismarine-windows/compare/{base}...{head}",
            "contents_url": "https://api.github.com/repos/PrismarineJS/prismarine-windows/contents/{+path}",
            "contributors_url": "https://api.github.com/repos/PrismarineJS/prismarine-windows/contributors",
            "created_at": "2015-11-22T16:54:19Z",
            "default_branch": "master",
            "deployments_url": "https://api.github.com/repos/PrismarineJS/prismarine-windows/deployments",
            "description": "Represent minecraft windows",
            "disabled": false,
            "downloads_url": "https://api.github.com/repos/PrismarineJS/prismarine-windows/downloads",
            "events_url": "https://api.github.com/repos/PrismarineJS/prismarine-windows/events",
            "fork": false,
            "forks": 22,
            "forks_count": 22,
            "forks_url": "https://api.github.com/repos/PrismarineJS/prismarine-windows/forks",
            "full_name": "PrismarineJS/prismarine-windows",
            "git_commits_url": "https://api.github.com/repos/PrismarineJS/prismarine-windows/git/commits{/sha}",
            "git_refs_url": "https://api.github.com/repos/PrismarineJS/prismarine-windows/git/refs{/sha}",
            "git_tags_url": "https://api.github.com/repos/PrismarineJS/prismarine-windows/git/tags{/sha}",
            "git_url": "git://github.com/PrismarineJS/prismarine-windows.git",
            "has_discussions": false,
            "has_downloads": true,
            "has_issues": true,
            "has_pages": false,
            "has_projects": true,
            "has_wiki": true,
            "homepage": null,
            "hooks_url": "https://api.github.com/repos/PrismarineJS/prismarine-windows/hooks",
            "html_url": "https://github.com/PrismarineJS/prismarine-windows",
            "id": 46670021,
            "is_template": false,
            "issue_comment_url": "https://api.github.com/repos/PrismarineJS/prismarine-windows/issues/comments{/number}",
            "issue_events_url": "https://api.github.com/repos/PrismarineJS/prismarine-windows/issues/events{/number}",
            "issues_url": "https://api.github.com/repos/PrismarineJS/prismarine-windows/issues{/number}",
            "keys_url": "https://api.github.com/repos/PrismarineJS/prismarine-windows/keys{/key_id}",
            "labels_url": "https://api.github.com/repos/PrismarineJS/prismarine-windows/labels{/name}",
            "language": "JavaScript",
            "languages_url": "https://api.github.com/repos/PrismarineJS/prismarine-windows/languages",
            "license": null,
            "merges_url": "https://api.github.com/repos/PrismarineJS/prismarine-windows/merges",
            "milestones_url": "https://api.github.com/repos/PrismarineJS/prismarine-windows/milestones{/number}",
            "mirror_url": null,
            "name": "prismarine-windows",
            "node_id": "MDEwOlJlcG9zaXRvcnk0NjY3MDAyMQ==",
            "notifications_url": "https://api.github.com/repos/PrismarineJS/prismarine-windows/notifications{?since,all,participating}",
            "open_issues": 11,
            "open_issues_count": 11,
            "owner": {
                "avatar_url": "https://avatars.githubusercontent.com/u/11053411?v=4",
                "events_url": "https://api.github.com/users/PrismarineJS/events{/privacy}",
                "followers_url": "https://api.github.com/users/PrismarineJS/followers",
                "following_url": "https://api.github.com/users/PrismarineJS/following{/other_user}",
                "gists_url": "https://api.github.com/users/PrismarineJS/gists{/gist_id}",
                "gravatar_id": "",
                "html_url": "https://github.com/PrismarineJS",
                "id": 11053411,
                "login": "PrismarineJS",
                "node_id": "MDEyOk9yZ2FuaXphdGlvbjExMDUzNDEx",
                "organizations_url": "https://api.github.com/users/PrismarineJS/orgs",
                "received_events_url": "https://api.github.com/users/PrismarineJS/received_events",
                "repos_url": "https://api.github.com/users/PrismarineJS/repos",
                "site_admin": false,
                "starred_url": "https://api.github.com/users/PrismarineJS/starred{/owner}{/repo}",
                "subscriptions_url": "https://api.github.com/users/PrismarineJS/subscriptions",
                "type": "Organization",
                "url": "https://api.github.com/users/PrismarineJS"
            },
            "private": false,
            "pulls_url": "https://api.github.com/repos/PrismarineJS/prismarine-windows/pulls{/number}",
            "pushed_at": "2023-04-08T15:30:23Z",
            "releases_url": "https://api.github.com/repos/PrismarineJS/prismarine-windows/releases{/id}",
            "size": 80,
            "ssh_url": "git@github.com:PrismarineJS/prismarine-windows.git",
            "stargazers_count": 28,
            "stargazers_url": "https://api.github.com/repos/PrismarineJS/prismarine-windows/stargazers",
            "statuses_url": "https://api.github.com/repos/PrismarineJS/prismarine-windows/statuses/{sha}",
            "subscribers_url": "https://api.github.com/repos/PrismarineJS/prismarine-windows/subscribers",
            "subscription_url": "https://api.github.com/repos/PrismarineJS/prismarine-windows/subscription",
            "svn_url": "https://github.com/PrismarineJS/prismarine-windows",
            "tags_url": "https://api.github.com/repos/PrismarineJS/prismarine-windows/tags",
            "teams_url": "https://api.github.com/repos/PrismarineJS/prismarine-windows/teams",
            "topics": [],
            "trees_url": "https://api.github.com/repos/PrismarineJS/prismarine-windows/git/trees{/sha}",
            "updated_at": "2023-04-05T14:48:35Z",
            "url": "https://api.github.com/repos/PrismarineJS/prismarine-windows",
            "visibility": "public",
            "watchers": 28,
            "watchers_count": 28,
            "web_commit_signoff_required": false
        },
        "sha": "98ed81d7d88d911a50be0e509f7e895e61d68e76",
        "user": {
            "avatar_url": "https://avatars.githubusercontent.com/u/11053411?v=4",
            "events_url": "https://api.github.com/users/PrismarineJS/events{/privacy}",
            "followers_url": "https://api.github.com/users/PrismarineJS/followers",
            "following_url": "https://api.github.com/users/PrismarineJS/following{/other_user}",
            "gists_url": "https://api.github.com/users/PrismarineJS/gists{/gist_id}",
            "gravatar_id": "",
            "html_url": "https://github.com/PrismarineJS",
            "id": 11053411,
            "login": "PrismarineJS",
            "node_id": "MDEyOk9yZ2FuaXphdGlvbjExMDUzNDEx",
            "organizations_url": "https://api.github.com/users/PrismarineJS/orgs",
            "received_events_url": "https://api.github.com/users/PrismarineJS/received_events",
            "repos_url": "https://api.github.com/users/PrismarineJS/repos",
            "site_admin": false,
            "starred_url": "https://api.github.com/users/PrismarineJS/starred{/owner}{/repo}",
            "subscriptions_url": "https://api.github.com/users/PrismarineJS/subscriptions",
            "type": "Organization",
            "url": "https://api.github.com/users/PrismarineJS"
        }
    },
    "body": null,
    "changed_files": 1,
    "closed_at": "2022-10-12T23:11:58Z",
    "comment_data": [],
    "comment_regular_data": [],
    "comments": 0,
    "comments_url": "https://api.github.com/repos/PrismarineJS/prismarine-windows/issues/79/comments",
    "commit_data": [
        {
            "author": {
                "avatar_url": "https://avatars.githubusercontent.com/u/96730122?v=4",
                "events_url": "https://api.github.com/users/Epirito/events{/privacy}",
                "followers_url": "https://api.github.com/users/Epirito/followers",
                "following_url": "https://api.github.com/users/Epirito/following{/other_user}",
                "gists_url": "https://api.github.com/users/Epirito/gists{/gist_id}",
                "gravatar_id": "",
                "html_url": "https://github.com/Epirito",
                "id": 96730122,
                "login": "Epirito",
                "node_id": "U_kgDOBcP8Cg",
                "organizations_url": "https://api.github.com/users/Epirito/orgs",
                "received_events_url": "https://api.github.com/users/Epirito/received_events",
                "repos_url": "https://api.github.com/users/Epirito/repos",
                "site_admin": false,
                "starred_url": "https://api.github.com/users/Epirito/starred{/owner}{/repo}",
                "subscriptions_url": "https://api.github.com/users/Epirito/subscriptions",
                "type": "User",
                "url": "https://api.github.com/users/Epirito"
            },
            "comments_url": "https://api.github.com/repos/PrismarineJS/prismarine-windows/commits/576a4b26e73b993bb90a7c51e3b8e2ba1d2aabcf/comments",
            "commit": {
                "author": {
                    "date": "2022-10-12T23:10:43Z",
                    "email": "96730122+Epirito@users.noreply.github.com",
                    "name": "Epirito"
                },
                "comment_count": 0,
                "committer": {
                    "date": "2022-10-12T23:10:43Z",
                    "email": "noreply@github.com",
                    "name": "GitHub"
                },
                "message": "sneaky typo",
                "tree": {
                    "sha": "ea661e220a4e9304cd6958762f5a5aa3334f6ee6",
                    "url": "https://api.github.com/repos/PrismarineJS/prismarine-windows/git/trees/ea661e220a4e9304cd6958762f5a5aa3334f6ee6"
                },
                "url": "https://api.github.com/repos/PrismarineJS/prismarine-windows/git/commits/576a4b26e73b993bb90a7c51e3b8e2ba1d2aabcf",
                "verification": {
                    "payload": "tree ea661e220a4e9304cd6958762f5a5aa3334f6ee6\nparent 98ed81d7d88d911a50be0e509f7e895e61d68e76\nauthor Epirito <96730122+Epirito@users.noreply.github.com> 1665616243 -0300\ncommitter GitHub <noreply@github.com> 1665616243 -0300\n\nsneaky typo",
                    "reason": "valid",
                    "signature": "-----BEGIN PGP SIGNATURE-----\n\nwsBcBAABCAAQBQJjR0lzCRBK7hj4Ov3rIwAA6bkIAKn5XIgi4HEWrswrJ45m+aNo\n6471/EeKlZzPmwk/ia+JybI6aYOCuk5SDH87wyLaPJncJ+I67DkYMSsIdXc5ppbZ\nrR0WyLlAZPj+fcXmxR11Ch6VJ2JWSjVkS6cRf69FAxJmZKiMx2OVAk4JOIKIq2Fv\ncgorMJWFqwWL3uxot6UD051SOk8CW4KU2Tdte15P55Edr5npIp9vXnZtSutqVYOg\ncF91mTuFQL02MidISL3tRR71GvNcTPsPnviasSsCiRauXN1zfMjJeIwjYN34DUgj\nYkpFFUDV4QXbO3C5rjn/+oxRfuglWJj+iI/d8J90lzK+S0Zv+0tUU9Qf8aYmtyE=\n=Yma5\n-----END PGP SIGNATURE-----\n",
                    "verified": true
                }
            },
            "committer": {
                "avatar_url": "https://avatars.githubusercontent.com/u/19864447?v=4",
                "events_url": "https://api.github.com/users/web-flow/events{/privacy}",
                "followers_url": "https://api.github.com/users/web-flow/followers",
                "following_url": "https://api.github.com/users/web-flow/following{/other_user}",
                "gists_url": "https://api.github.com/users/web-flow/gists{/gist_id}",
                "gravatar_id": "",
                "html_url": "https://github.com/web-flow",
                "id": 19864447,
                "login": "web-flow",
                "node_id": "MDQ6VXNlcjE5ODY0NDQ3",
                "organizations_url": "https://api.github.com/users/web-flow/orgs",
                "received_events_url": "https://api.github.com/users/web-flow/received_events",
                "repos_url": "https://api.github.com/users/web-flow/repos",
                "site_admin": false,
                "starred_url": "https://api.github.com/users/web-flow/starred{/owner}{/repo}",
                "subscriptions_url": "https://api.github.com/users/web-flow/subscriptions",
                "type": "User",
                "url": "https://api.github.com/users/web-flow"
            },
            "html_url": "https://github.com/PrismarineJS/prismarine-windows/commit/576a4b26e73b993bb90a7c51e3b8e2ba1d2aabcf",
            "node_id": "C_kwDOAsggxdoAKDU3NmE0YjI2ZTczYjk5M2JiOTBhN2M1MWUzYjhlMmJhMWQyYWFiY2Y",
            "parents": [
                {
                    "html_url": "https://github.com/PrismarineJS/prismarine-windows/commit/98ed81d7d88d911a50be0e509f7e895e61d68e76",
                    "sha": "98ed81d7d88d911a50be0e509f7e895e61d68e76",
                    "url": "https://api.github.com/repos/PrismarineJS/prismarine-windows/commits/98ed81d7d88d911a50be0e509f7e895e61d68e76"
                }
            ],
            "sha": "576a4b26e73b993bb90a7c51e3b8e2ba1d2aabcf",
            "url": "https://api.github.com/repos/PrismarineJS/prismarine-windows/commits/576a4b26e73b993bb90a7c51e3b8e2ba1d2aabcf"
        }
    ],
    "commits": 1,
    "commits_url": "https://api.github.com/repos/PrismarineJS/prismarine-windows/pulls/79/commits",
    "created_at": "2022-10-12T23:10:54Z",
    "deletions": 1,
    "diff_url": "https://github.com/PrismarineJS/prismarine-windows/pull/79.diff",
    "draft": false,
    "head": {
        "label": "Epirito:patch-1",
        "ref": "patch-1",
        "repo": null,
        "sha": "576a4b26e73b993bb90a7c51e3b8e2ba1d2aabcf",
        "user": {
            "avatar_url": "https://avatars.githubusercontent.com/u/96730122?v=4",
            "events_url": "https://api.github.com/users/Epirito/events{/privacy}",
            "followers_url": "https://api.github.com/users/Epirito/followers",
            "following_url": "https://api.github.com/users/Epirito/following{/other_user}",
            "gists_url": "https://api.github.com/users/Epirito/gists{/gist_id}",
            "gravatar_id": "",
            "html_url": "https://github.com/Epirito",
            "id": 96730122,
            "login": "Epirito",
            "node_id": "U_kgDOBcP8Cg",
            "organizations_url": "https://api.github.com/users/Epirito/orgs",
            "received_events_url": "https://api.github.com/users/Epirito/received_events",
            "repos_url": "https://api.github.com/users/Epirito/repos",
            "site_admin": false,
            "starred_url": "https://api.github.com/users/Epirito/starred{/owner}{/repo}",
            "subscriptions_url": "https://api.github.com/users/Epirito/subscriptions",
            "type": "User",
            "url": "https://api.github.com/users/Epirito"
        }
    },
    "html_url": "https://github.com/PrismarineJS/prismarine-windows/pull/79",
    "id": 1085306115,
    "issue_url": "https://api.github.com/repos/PrismarineJS/prismarine-windows/issues/79",
    "labels": [],
    "locked": false,
    "maintainer_can_modify": false,
    "merge_commit_sha": "ff3b0e2e94b3f1bf6d8d0e6c8d17952efc194581",
    "mergeable": null,
    "mergeable_state": "unknown",
    "merged": true,
    "merged_at": "2022-10-12T23:11:57Z",
    "merged_by": {
        "avatar_url": "https://avatars.githubusercontent.com/u/2346494?v=4",
        "events_url": "https://api.github.com/users/rom1504/events{/privacy}",
        "followers_url": "https://api.github.com/users/rom1504/followers",
        "following_url": "https://api.github.com/users/rom1504/following{/other_user}",
        "gists_url": "https://api.github.com/users/rom1504/gists{/gist_id}",
        "gravatar_id": "",
        "html_url": "https://github.com/rom1504",
        "id": 2346494,
        "login": "rom1504",
        "node_id": "MDQ6VXNlcjIzNDY0OTQ=",
        "organizations_url": "https://api.github.com/users/rom1504/orgs",
        "received_events_url": "https://api.github.com/users/rom1504/received_events",
        "repos_url": "https://api.github.com/users/rom1504/repos",
        "site_admin": false,
        "starred_url": "https://api.github.com/users/rom1504/starred{/owner}{/repo}",
        "subscriptions_url": "https://api.github.com/users/rom1504/subscriptions",
        "type": "User",
        "url": "https://api.github.com/users/rom1504"
    },
    "milestone": null,
    "node_id": "PR_kwDOAsggxc5AsHUD",
    "number": 79,
    "patch_url": "https://github.com/PrismarineJS/prismarine-windows/pull/79.patch",
    "rebaseable": null,
    "requested_reviewers": [],
    "requested_teams": [],
    "review_comment_url": "https://api.github.com/repos/PrismarineJS/prismarine-windows/pulls/comments{/number}",
    "review_comments": 0,
    "review_comments_url": "https://api.github.com/repos/PrismarineJS/prismarine-windows/pulls/79/comments",
    "state": "closed",
    "statuses_url": "https://api.github.com/repos/PrismarineJS/prismarine-windows/statuses/576a4b26e73b993bb90a7c51e3b8e2ba1d2aabcf",
    "title": "sneaky typo",
    "updated_at": "2022-10-12T23:11:58Z",
    "url": "https://api.github.com/repos/PrismarineJS/prismarine-windows/pulls/79",
    "user": {
        "avatar_url": "https://avatars.githubusercontent.com/u/96730122?v=4",
        "events_url": "https://api.github.com/users/Epirito/events{/privacy}",
        "followers_url": "https://api.github.com/users/Epirito/followers",
        "following_url": "https://api.github.com/users/Epirito/following{/other_user}",
        "gists_url": "https://api.github.com/users/Epirito/gists{/gist_id}",
        "gravatar_id": "",
        "html_url": "https://github.com/Epirito",
        "id": 96730122,
        "login": "Epirito",
        "node_id": "U_kgDOBcP8Cg",
        "organizations_url": "https://api.github.com/users/Epirito/orgs",
        "received_events_url": "https://api.github.com/users/Epirito/received_events",
        "repos_url": "https://api.github.com/users/Epirito/repos",
        "site_admin": false,
        "starred_url": "https://api.github.com/users/Epirito/starred{/owner}{/repo}",
        "subscriptions_url": "https://api.github.com/users/Epirito/subscriptions",
        "type": "User",
        "url": "https://api.github.com/users/Epirito"
    }
}